# 
#
# Authors:
#
# Please see the license agreement regarding the use of and distribution of this file.
# The format of this file is defined at http://bioinformatics.ai.sri.com/ptools/flatfile-format.html .
#
# Species: Pelomonas sp. Root1217
# Database: NIL
# Version: 1.0
# File Name: promoters.dat
# Date and time generated: December 3, 2018, 10:23:58
#
# Attributes:
#    UNIQUE-ID
#    TYPES
#    COMMON-NAME
#    ABSOLUTE-PLUS-1-POS
#    CITATIONS
#    COMMENT
#    COMPONENT-OF
#    CREDITS
#    DATA-SOURCE
#    DBLINKS
#    DOCUMENTATION
#    HIDE-SLOT?
#    INSTANCE-NAME-TEMPLATE
#    LEFT-END-POSITION
#    MEMBER-SORT-FN
#    PATHOLOGIC-NAME-MATCHER-EVIDENCE
#    PATHOLOGIC-PWY-EVIDENCE
#    PROMOTER-BOXES
#    RIGHT-END-POSITION
#    SYNONYMS
#    UNMAPPED-COMPONENT-OF
#
# The GCA_001425705_1_ROOT1217 database contains no Promoters.