# 
#
# Authors:
#
# Please see the license agreement regarding the use of and distribution of this file.
# The format of this file is defined at http://bioinformatics.ai.sri.com/ptools/flatfile-format.html .
#
# Species: Sphingomonas sp. Root710
# Database: NIL
# Version: 1.0
# File Name: regulons.dat
# Date and time generated: December 3, 2018, 15:31:19
#
# Attributes:
#    UNIQUE-ID
#    TYPES
#    COMMON-NAME
#    ABBREV-NAME
#    ACCESSION-1
#    AROMATIC-RINGS
#    ATOM-CHARGES
#    ATOM-ISOTOPES
#    CATALYZES
#    CHEMICAL-FORMULA
#    CITATIONS
#    COFACTORS-OF
#    COMMENT
#    COMPONENT-COEFFICIENTS
#    COMPONENT-OF
#    COMPONENTS
#    CONSENSUS-SEQUENCE
#    COPY-NUMBER
#    CREDITS
#    DATA-SOURCE
#    DBLINKS
#    DNA-FOOTPRINT-SIZE
#    DOCUMENTATION
#    ENZYME-NOT-USED-IN
#    FAST-EQUILIBRATING-INSTANCES?
#    FEATURES
#    FUNCTIONAL-ASSIGNMENT-COMMENT
#    FUNCTIONAL-ASSIGNMENT-STATUS
#    GENE
#    GO-TERMS
#    GROUP-COORDS-2D
#    HAS-NO-STRUCTURE?
#    HIDE-SLOT?
#    IN-MIXTURE
#    INCHI
#    INCHI-KEY
#    INSTANCE-NAME-TEMPLATE
#    INTERNALS-OF-GROUP
#    ISOZYME-SEQUENCE-SIMILARITY
#    LOCATIONS
#    MEMBER-SORT-FN
#    MODIFIED-FORM
#    MOLECULAR-WEIGHT
#    MOLECULAR-WEIGHT-EXP
#    MOLECULAR-WEIGHT-KD
#    MOLECULAR-WEIGHT-SEQ
#    MONOISOTOPIC-MW
#    N+1-NAME
#    N-1-NAME
#    N-NAME
#    NEIDHARDT-SPOT-NUMBER
#    NON-STANDARD-INCHI
#    PATHOLOGIC-NAME-MATCHER-EVIDENCE
#    PATHOLOGIC-PWY-EVIDENCE
#    PI
#    PKA1
#    PKA2
#    PKA3
#    PROMOTER-BOX-NAME-1
#    PROMOTER-BOX-NAME-2
#    RADICAL-ATOMS
#    RECOGNIZED-PROMOTERS
#    REGULATED-BY
#    REGULATES
#    SMILES
#    SPECIES
#    SPLICE-FORM-INTRONS
#    STRUCTURE-BONDS
#    STRUCTURE-GROUPS
#    STRUCTURE-LINKS
#    SUPERATOMS
#    SYMMETRY
#    SYNONYMS
#    SYSTEMATIC-NAME
#    TAUTOMERS
#    UNMODIFIED-FORM
#
# The GCA_001429065_1_ROOT710 database contains no Proteins.