dbRef_id	Common name	Produced (p), Consumed (c), Both (cp)
PROPIONYL-COA	propanoyl-CoA	cp
ALPHA-GLUCOSE-16-BISPHOSPHATE	&alpha;-glucose 1,6-bisphosphate	cp
CPD-6746	1D-myo-inositol 2-monophosphate	c
CPD-19144	(7Z)-hexadecenoyl-CoA	cp
CTP	CTP	cp
CPD-11524	3-oxo-2-(cis-2'-pentenyl)-cyclopentane-1-(3-oxohexanoyl)-CoA	c
CPD-1108	a 1-phosphatidyl-1D-myo-inositol 4-phosphate	p
GLC-1-P	&alpha;-D-glucopyranose 1-phosphate	cp
L-Cysteine-Desulfurase-persulfide	an [L-cysteine desulfurase]-S-sulfanyl-L-cysteine	cp
CL-	chloride	cp
DNA-pyrimidines	a pyrimidine nucleoside in DNA	p
OROTIDINE-5-PHOSPHATE	orotidine 5'-phosphate	cp
METOH	methanol	cp
CPD-19147	(7Z)-tetradecenoyl-CoA	cp
CPD-10269	palmitoleoyl-CoA	cp
CPD-15360	2-sulfanyl-N6-dimethylallyladenosine37 in tRNA	cp
CPD-15675	2-trans-6-trans-tridecadienoyl-CoA	p
CPD-13227	N,N',N''-triacetylchitotriose	c
L-Cysteine-Desulfurases	an [L-cysteine desulfurase]	c
Nitriles	a nitrile	c
KDO2-LAUROYL-LIPID-IVA	&alpha;-Kdo-(2->4)-&alpha;-Kdo-(2->6)-(lauroyl)-lipid IVA	c
GLC-6-P	&beta;-D-glucose 6-phosphate	cp
Elongation-tRNAMet	elongator tRNAMet	c
CPD-11525	3-oxo-2-(cis-2'-pentenyl)-cyclopentane-1-butanoyl-CoA	cp
L-DELTA1-PYRROLINE_5-CARBOXYLATE	(S)-1-pyrroline-5-carboxylate	cp
Peptide-with-N-terminal-Alanine	a peptide with an N-terminal L-alanine	c
7Z-3-oxo-hexadec-7-enoyl-ACPs	a (7Z)-3-oxo-hexadec-7-enoyl-[acp]	cp
CPD-8259	&beta;-D-ribosylnicotinate	p
CPD-10284	3-oxo-myristoyl-CoA	c
Sulfur-Carrier-Proteins-ThiI	a [ThiI sulfur-carrier protein]-L-cysteine	cp
SPHINGOSINE	sphingosine	c
3-MERCAPTO-PYRUVATE	3-mercaptopyruvate	c
7Z-hexadec-7-enoyl-ACPs	a (7Z)-hexadec-7-enoyl-[acp]	c
S-CD-S-SP-Complex	an S-sulfanyl-[cysteine desulfurase]-S-sulfanyl-[disordered-form scaffold protein] complex	p
L-GAMMA-GLUTAMYLCYSTEINE	&gamma;-L-glutamyl-L-cysteine	p
5-P-RIBOSYL-N-FORMYLGLYCINEAMIDE	N2-formyl-N1-(5-phospho-&beta;-D-ribosyl)glycinamide	c
CPD-15676	6-trans-3-oxo-tridecenoyl-CoA	c
O-SUCCINYL-L-HOMOSERINE	O-succinyl-L-homoserine	cp
9Z-3-oxo-octadec-9-enoyl-ACPs	a (9Z)-3-oxo-octadec-9-enoyl-[acp]	cp
CPD-19148	(5Z)-dodecenoyl-CoA	cp
CPD-678	hydrogen selenide	c
NAD	NAD+	cp
2-C-METHYL-D-ERYTHRITOL-4-PHOSPHATE	2-C-methyl-D-erythritol 4-phosphate	cp
Peptides-holder	a peptide	p
ITP	ITP	cp
CPD-11526	3-oxo-2-(cis-2'-pentenyl)-cyclopentane-1-(E-buta-2-enoyl)-CoA	p
DNA-thymidine-deoxycytidine-dimer	a dimer of non-adjacent thymidine and 2'-deoxycytidine in DNA	c
URACIL	uracil	cp
6-Dimethylallyladenosine37-tRNAs	N6-dimethylallyladenosine37 in tRNA	cp
CPD-13339	(2Z,4E)-2-hydroxyhexa-2,4-dienedioate	cp
5-PHOSPHO-RIBOSYL-GLYCINEAMIDE	N1-(5-phospho-&beta;-D-ribosyl)glycinamide	p
A-5-prime-PP-5-prime-DNA	an adenosine-5'-diphospho-5'-[DNA]	cp
SS-Oligodeoxyribonucleotides	a single-stranded oligodeoxyribonucleotide	p
A-DOUBLE-STRANDED-DNA-WITH-A-3-OVERHANG	a double stranded DNA with a RecA protein loaded 3' overhang	p
3-Methyl-Saturated-Fatty-Acids	a 3-methyl-branched 2,3,4-saturated fatty acid	c
BILIVERDINE	biliverdin-IX-&alpha;	p
CPD-1113	6-(&alpha;-D-glucosaminyl)-1-phosphatidyl-1D-myo-inositol	p
CPD-13357	(2R)-2,3-dihydroxy-3-methylbutanoate	cp
DNA-thymidine-dimer	a dimer of non-adjacent thymidines in DNA	c
CPD-15677	4-trans-undecenoyl-CoA	cp
CPD-19150	(2E,5Z)-dodecenoyl-CoA	p
Sulfurated-Sulfur-Acceptors	a sulfurated [sulfur carrier]	cp
S-HYDROXYMETHYLMYCOTHIOL	S-(hydroxymethyl)mycothiol	c
KDO2-LIPID-A	&alpha;-D-Kdo-(2&rarr;4)-&alpha;-D-Kdo-(2&rarr;6)-lipid A	p
CPD-11528	3-oxo-2-(cis-2'-pentenyl)-cyclopentane-1-(3-oxobutanoyl)-CoA	c
2-3-4-Saturated-L-Phosphatidates	a 1,2-diacyl-sn-glycerol 3-phosphate	c
CPD-827	5-dehydro-2-deoxy-D-gluconate	cp
Peptidoglycans	a peptidoglycan	c
Persulfurated-L-cysteine-desulfurases	an S-sulfanyl-[L-cysteine desulfurase]	p
CPD-15382	keto-D-fructose	cp
ACYL-ACP	an acyl-[acyl-carrier protein]	cp
STEARIC_ACID	stearate	c
O-SUCCINYLBENZOATE	2-succinylbenzoate	p
Sulfurylated-ThiI	a [ThiI sulfur-carrier protein]-S-sulfanyl-L-cysteine	cp
2-CHLOROMALEYLACETATE	2-chloromaleylacetate	p
CPD-8534	DNA without lesion	p
UROCANATE	urocanate	cp
ACET	acetate	cp
Glycerophosphodiesters	a glycerophosphodiester	c
SHIKIMATE	shikimate	cp
DNA-thymidines	a thymidine in DNA	p
CPD-10330	&alpha;-D-ribofuranose	c
CPD-15678	4-trans-3-oxo-undecenoyl-CoA	c
5-PHOSPHORIBOSYL-5-AMINOIMIDAZOLE	5-amino-1-(5-phospho-&beta;-D-ribosyl)imidazole	cp
OXALACETIC_ACID	oxaloacetate	cp
3-Methyl-Saturated-Fatty-Acyl-CoA	a 3-methyl-branched 2,3,4-saturated fatty acyl-CoA	p
SHIKIMATE-5P	shikimate 3-phosphate	cp
CPD-11529	(+)-7-epi-jasmonoyl-CoA	p
CPD-19153	3-oxo-(5Z)-dodecenoyl-CoA	c
ACETALD	acetaldehyde	cp
D-galactopyranose	D-galactopyranose	p
AMINO-ACETONE	aminoacetone	p
GLC-D-LACTONE	D-glucono-1,5-lactone	cp
CPD-15436	(5Z)-tetradecenoyl-CoA	cp
CPD-15684	5-cis, 7-trans-tetradecadienoyl-CoA	c
CPD-19761	2,6-dichloro-3-(glutathione-S-yl)-hydroquinone	p
D-glucopyranose-6-phosphate	D-glucopyranose 6-phosphate	cp
2-D-THREO-HYDROXY-3-CARBOXY-ISOCAPROATE	(2R,3S)-3-isopropylmalate	cp
CPD-8624	a [protein]-L-proline (&omega; = 180)	cp
NAD-P-OR-NOP	NAD(P)+	p
L-GLUTAMATE-5-P	&gamma;-L-glutamyl 5-phosphate	cp
ACYL-COA	an acyl-CoA	cp
3OH-4P-OH-ALPHA-KETOBUTYRATE	(3R)-3-hydroxy-2-oxo-4 phosphooxybutanoate	cp
Phenolic-Donors	a phenolic donor	c
DATP	dATP	cp
CPD-11592	2-methylsulfanyl-N6-dimethylallyladenosine37 in tRNA	p
DNA-with-Uracils	a uracil in DNA	c
GMP	GMP	cp
S-PHOSPHOLACTATE	(2S)-2-phospholactate	c
CPD-19157	3-oxo-(7Z)-tetradecenoyl-CoA	c
CPD-11281	S-sulfanylglutathione	c
OXALO-SUCCINATE	oxalosuccinate	cp
Non-Galactosylated-Galactose-Acceptors	a non galactosylated galactose acceptor	p
2-DEHYDROPANTOATE	2-dehydropantoate	cp
CPD-8625	a [protein]-L-proline (&omega; = 0)	cp
O-UREIDOHOMOSERINE	O-ureido-L-homoserine	c
CPD-19763	2,3,5-trichloro-6-(glutathione-S-yl)-hydroquinone	p
CMP	CMP	cp
6-PYRUVOYL-5678-TETRAHYDROPTERIN	(6R)-6-pyruvoyl-5,6,7,8-tetrahydropterin	p
GLUTAMATE-1-SEMIALDEHYDE	(S)-4-amino-5-oxopentanoate	cp
Phenoxyl-rad-of-phenolic-donors	a phenoxyl radical of a phenolic donor	p
CPD-68	1-aminocyclopropane-1-carboxylate	c
CPD-10333	oxidized coenzyme F420-0	p
S-Substituted-Glutathione	a glutathione-toxin conjugate	p
STEAROYL-COA	stearoyl-CoA	cp
CPD-15685	2-trans, 5-cis, 7-trans-tetradecatrienoyl-CoA	p
Non-Glucosylated-Glucose-Acceptors	a non glucosylated D-glucose acceptor	p
5-PHOSPHORIBOSYL-N-FORMYLGLYCINEAMIDINE	2-(formamido)-N1-(5-phospho-&beta;-D-ribosyl)acetamidine	cp
Supercoiled-Duplex-DNAs	a supercoiled duplex DNA	c
3-5-ADP	adenosine 3',5'-bisphosphate	cp
CPD-8653	betanidin	c
Beta-hydroxydecanoyl-ACPs	a (3R)-3-hydroxydecanoyl-[acp]	p
CPD-19158	3-oxo-(9Z)-hexadecenoyl-CoA	c
CPD-1162	arbutin-6-phosphate	c
Resolution-of-Recombinational-Junction	resolution of recombinational junction formation of two intact strands	p
RH-Group	an organic molecule	c
PROTEIN-LIPOYLLYSINE	a [glycine-cleavage complex H protein] N6-lipoyl-L-lysine	cp
TARTRONATE-S-ALD	tartronate semialdehyde	cp
DADP	dADP	cp
Initiation-tRNAmet	initiator tRNAMet	c
S-Substituted-L-Cysteines	an L-cysteine-S-conjugate	p
L-GLUTAMATE_GAMMA-SEMIALDEHYDE	L-glutamate-5-semialdehyde	cp
3R-11Z-3-hydroxy-icos-11-enoyl-ACPs	a (3R,11Z)-3-hydroxy-icos-11-enoyl-[acp]	p
CPD-15687	5-cis, 7-trans-3-oxo-tetradecadienoyl-CoA	c
IS30-Insertion-Sequences	an insertion sequence element IS30	cp
1-4-alpha-D-Glucan	a 1,4-&alpha;-D-glucan	cp
CPD-1130	3-ethylmalate	cp
CPD-105	(R)-4-hydroxymandelate	c
3R-5Z-3-hydroxy-tetradec-5-enoyl-ACPs	a (3R,5Z)-3-hydroxy-tetradec-5-enoyl-[acp]	p
CPD-13534	3-oxopentanoyl-CoA	c
RHg	an alkylmercury	cp
5Z8Z11Z14Z17Z-EICOSAPENTAENOATE	icosapentaenoate	c
CPD-19833	roseoflavin	c
CPD-10546	methyl (indol-3-yl)acetate	c
CPD-19160	3-oxo-(11Z)-octadecenoyl-CoA	c
3R-7Z-3-hydroxy-hexadec-7-enoyl-ACPs	a (3R,7Z)-3-hydroxy-hexadec-7-enoyl-[acp]	p
FORMALDEHYDE	formaldehyde	p
DCDP	dCDP	cp
ACYL-SN-GLYCEROL-3P	a 1-acyl-sn-glycerol 3-phosphate	p
CPD-8742	(3E)-2-oxohex-3-enedioate	cp
CPD-15688	(3Z,5E)-dodeca-3,5-dienoyl-CoA	p
3-OXO-EICOSAPENTAENOYL-ACP	a 3-oxo-docosapentaenoyl [acp]	c
SUC	succinate	cp
3R-9Z-3-hydroxy-octadec-9-enoyl-ACPs	a (3R,9Z)-3-hydroxy-octadec-9-enoyl-[acp]	p
CPD-1133	3D-(3,5/4)-trihydroxycyclohexane-1,2-dione	c
S18-N-terminal-L-alanine	an N-terminal L-alanyl-[S18 protein of 30S ribosome]	c
IS30-with-Integrated-Transposon	an insertion sequence IS30 with integrated transposon	cp
FAD	FAD	p
CPD-11643	two adjacent thymidines in DNA	p
CO-A	coenzyme A	cp
5-Phospho-terminated-DNAs	a 5'-phospho-[DNA]	cp
CPD-13524	all-trans-retinol	p
SUC-COA	succinyl-CoA	cp
S2O3	thiosulfate	cp
SULFATE	sulfate	cp
CPD-19839	roseoflavin 5'-phosphate	cp
DODECANOATE	laurate	c
CPD-19161	(2E,7Z)-tetradecenoyl-CoA	p
URATE	urate	cp
OCTADEC-9-ENE-118-DIOIC-ACID	&alpha;,&omega;-9Z-octadecenedioate	c
CPD-11444	uroporphyrinogen-I	c
3Z-dodec-3-enoyl-ACPs	a (3Z)-dodec-3-enoyl-[acp]	c
2-DEOXYRIBOSE	2'-deoxyribose	c
PROTOHEME	ferroheme b	cp
CPD-15691	(5E)-3-oxo-dodec-5-enoyl-CoA	c
ISOBUTYRATE	isobutanoate	c
GLN	L-glutamine	cp
Unsulfurated-Sulfur-Acceptors	an unsulfurated [sulfur carrier]	cp
CPD-3725	uridine 2'3'-cyclic monophosphate	c
Deoxy-Ribonucleoside-Diphosphates	a 2'-deoxyribonucleoside 5'-diphosphate	p
Lipid-dihydrosterculate	a [glycerolipid]-dihydrosterculate	p
Charged-PRO-tRNAs	an L-prolyl-[tRNAPro]	p
NICOTINAMIDE_NUCLEOTIDE	&beta;-nicotinamide D-ribonucleotide	cp
Unwound-DNA	an unwound double-stranded DNA	p
1-CHLORO-24-DINITROBENZENE	1-chloro-2,4-dinitrobenzene	cp
L-Methionylaminoacyl-tRNAs	a L-methionylaminoacyl-tRNA	p
Charged-SER-tRNAs	an L-seryl-[tRNAser]	p
L-phenylalanyl-L-arginyl-Protein	L-phenylalanyl-L-arginyl-[protein]	p
DIHYDROPTERIN-CH2OH-PP	(7,8-dihydropterin-6-yl)methyl diphosphate	p
3-oxo-stearoyl-ACPs	a 3-oxo-stearoyl-[acp]	cp
CPD-452	a 6-(N-acetyl-&alpha;-D-glucosaminyl)-1-phosphatidyl-1D-myo-inositol	c
Deoxy-Ribonucleoside-Monophosphates	a 2'-deoxyribonucleoside 5'-monophosphate	p
L-ORNITHINE	L-ornithine	cp
L-phenylalanyl-L-lysyl-Protein	L-phenylalanyl-L-lysyl-[protein]	p
OH-CROTONYL-COA	4-hydroxycrotonyl-CoA	p
THIAMINE	thiamine	c
Unwound-RNA	an unwound RNA	p
2-KETO-3-METHYL-VALERATE	(S)-3-methyl-2-oxopentanoate	cp
Deoxy-Ribonucleoside-Triphosphates	a 2'-deoxyribonucleoside 5'-triphosphate	c
NICOTINAMIDE_RIBOSE	1-(&beta;-D ribofuranosyl)nicotinamide	p
3-terminal-unsaturated-sugars	a 3'-terminal unsaturated sugar	p
Charged-THR-tRNAs	an L-threonyl-[tRNAThr]	p
RIBOSE-1-ARSENATE	ribose-1-arsenate	p
DPG	3-phospho-D-glyceroyl-phosphate	cp
MALTOSE	maltose	cp
L-seryl-SEC-tRNAs	an L-seryl-[tRNAsec]	p
CPD-9451	2-isopropylmaleate	cp
WATER	H2O	cp
HISTIDINAL	histidinal	cp
CPD0-1096	glucosamine 1,6-diphosphate	cp
Charged-TRP-tRNAs	an L-tryptophanyl-[tRNATrp]	p
CPD-369	L-iditol	cp
3-HYDROXY-ANTHRANILATE	3-hydroxyanthranilate	p
SELENATE	selenate	c
Charged-TYR-tRNAs	an L-tyrosyl-[tRNATyr]	p
LAUROYLCOA-CPD	lauroyl-CoA	p
CPD-3736	lanthionine	p
Charged-VAL-tRNAs	an L-valyl-[tRNAVal]	p
THIAMINE-P	thiamine phosphate	c
THIAMINE-PYROPHOSPHATE	thiamine diphosphate	cp
1-KETO-2-METHYLVALERATE	(R)-2,3-dihydroxy-3-methylpentanoate	cp
Charged-fMET-tRNAs	an N-formyl-L-methionylaminoacyl-tRNA	c
ssDNA-RNA-primer-hybrid	an ssDNA/RNA primer hybrid	p
PYRIDOXAL_PHOSPHATE	pyridoxal 5'-phosphate	p
MALTOTETRAOSE	maltotetraose	cp
ssRNAs	a single-stranded RNA	cp
CPD-3762	5-amino-4-imidazolecarboxyamide	c
PRPP	5-phospho-&alpha;-D-ribose 1-diphosphate	cp
RIBOSE-1P	&alpha;-D-ribose-1-phosphate	cp
IMP	IMP	cp
2-KETO-ISOVALERATE	3-methyl-2-oxobutanoate	cp
Lipoyl-Protein-L-Lysine	a [lipoyl-carrier protein]-L-lysine	c
METHYL-THMPT	N5-methyltetrahydromethanopterin	cp
CARBON-DIOXIDE	CO2	cp
Lipoyl-Protein-N6-lipoyllysine	a [lipoyl-carrier protein]-N6-lipoyl-L-lysine	p
L-PANTOATE	(R)-pantoate	c
CPD-9612	caldariellaquinone	c
HCO3	hydrogencarbonate	cp
ERYTHROSE-4P	D-erythrose 4-phosphate	cp
CPD0-1133	maltoheptaose	c
ACETYL-P	acetyl phosphate	cp
Cysteine-Desulfurase-L-cysteine	an [L-cysteine desulfurase]-L-cysteine	cp
D-GLUCOSAMINE-6-P	D-glucosamine 6-phosphate	cp
tRNA-2-thiouridine34	a 2-thiouridine34 in tRNA	p
VAL	L-valine	cp
Cytidine-34-tRNAIle2	a cytidine34 in tRNAIle2	c
ISOBUTYRYL-COA	isobutanoyl-CoA	cp
CPD-469	N-acetyl-L-glutamate 5-semialdehyde	cp
Wound-RNA	wound RNA	c
VAL-tRNAs	a tRNAVal	c
1-L-MYO-INOSITOL-1-P	1D-myo-inositol 3-monophosphate	cp
CPD-3766	menadione	c
XANTHINE	xanthine	cp
CPD-3706	adenosine 3'-monophosphate	cp
SEPO3	selenophosphate	p
GUANINE	guanine	cp
DIHYDROSIROHYDROCHLORIN	precorrin-2	cp
CPD0-1162	(2E,5Z)-tetradecenoyl-CoA	p
MALTOTRIOSE	maltotriose	cp
tRNA-Adenosines-37	an adenosine37 in tRNA	c
2-KETOGLUTARATE	2-oxoglutarate	cp
CPD-3707	adenosine 2',3'-cyclic monophosphate	c
CPD-9646	di-trans,octa-cis-undecaprenyl phosphate	cp
TDP	dTDP	cp
ETF-Oxidized	an oxidized electron-transfer flavoprotein	c
Long-Chain-Acyl-CoAs	a long-chain acyl-CoA	p
NICOTINATE_NUCLEOTIDE	&beta;-nicotinate D-ribonucleotide	cp
L-PHOSPHATIDATE	a 1,2-diacyl-sn-glycerol 3-phosphate	c
ACETYL-GLU	N-acetyl-L-glutamate	cp
HS	hydrogen sulfide	cp
LEU	L-leucine	cp
GLYCEROPHOSPHOGLYCEROL	glycerophosphoglycerol	c
RIBOSE-5P	D-ribose 5-phosphate	cp
PYRUVATE	pyruvate	cp
tRNA-Dihydrouridines	a 5,6-dihydrouridine in tRNA	p
GLUTATHIONE	glutathione	cp
CPD0-1456	UDP-N-acetyl-&alpha;-D-muramoyl-L-alanine	cp
Long-Chain-Fatty-Acids	a long-chain fatty acid	c
2-ACETO-2-HYDROXY-BUTYRATE	(S)-2-aceto-2-hydroxybutanoate	c
3-HYDROXY-DOCOSAPENTAENOYL-ACP	a (3R)-3-hydroxy-docosapentaenoyl-[acp]	p
L-RIBULOSE	L-ribulose	cp
LEU-tRNAs	a tRNALeu	cp
CPD-15692	(3E)-dec-3-enoyl-CoA	p
D-HEXOSE-6-PHOSPHATE	D-hexose 6-phosphate	p
THYMINE	thymine	cp
ALLANTOATE	allantoate	p
ISOCHORISMATE	isochorismate	cp
7-8-DIHYDROPTEROATE	7,8-dihydropteroate	c
L-RIBULOSE-5-P	L-ribulose 5-phosphate	cp
SER	L-serine	cp
DIHYDRO-DIOH-BENZOATE	(2S,3S)-2,3-dihydroxy-2,3-dihydrobenzoate	p
Long-Chain-Polyphosphate	long chain polyphosphate	cp
FE+2	Fe2+	cp
CPD-9699	hypoglycin A	c
tRNA-Sec	a tRNAsec	c
Cytochromes-C-Oxidized	an oxidized c-type cytochrome	cp
XANTHOSINE	xanthosine	cp
HSCN	thiocyanate	p
PYRIDOXAMINE	pyridoxamine	c
PHOSPHO-ENOL-PYRUVATE	phosphoenolpyruvate	cp
CPD-3708	guanosine 3'-monophosphate	cp
XANTHOSINE-5-PHOSPHATE	XMP	cp
HOMO-CYS	L-homocysteine	cp
NITRITE	nitrite	p
DIHYDROXY-ACETONE-PHOSPHATE	glycerone phosphate	cp
DTDP-D-GLUCOSE	dTDP-&alpha;-D-glucose	cp
PYRIDOXAMINE-5P	pyridoxamine 5'-phosphate	cp
ETF-Reduced	a reduced electron-transfer flavoprotein	p
2-METHYL-3-HYDROXY-BUTYRYL-COA	(2S,3S)-3-hydroxy-2-methylbutanoyl-CoA	cp
SER-tRNAs	a tRNAser	c
CPD-377	2-keto-D-gluconate	cp
CPD-9700	hypoglycin B	p
Cytochromes-C-Reduced	a reduced c-type cytochrome	cp
tRNA-precursors	a tRNA precursor	c
D-Hexoses	a D-hexose	c
Dihydro-Lipoyl-Proteins	a [lipoyl-carrier protein] N6-dihydrolipoyl-L-lysine	c
METHYLENE-THF-GLU-N	a 5,10-methylene-tetrahydrofolate	cp
tRNA-uridine34	a uridine34 in tRNA	c
ETHANOL-AMINE	ethanolamine	p
DIHYDROXY-BUTANONE-P	1-deoxy-L-glycero-tetrulose 4-phosphate	c
Cis-Delta5-dodecenoyl-ACPs	a (5Z)-dodec-5-enoyl-[acp]	c
Long-linear-glucans	a long-linear &alpha;-D-glucan	cp
METHYLENETETRAHYDROMETHANOPTERIN	5,10-methylene-tetrahydromethanopterin	cp
HOMO-SER	L-homoserine	cp
tRNA-uridines	a uridine in tRNA	c
CPD-3801	melibionate	c
D-LACTATE	(R)-lactate	p
CPD-9869	all trans-decaprenyl-2-methoxy-6-1,4-benzoquinol	c
Cis-Delta7-tetradecenoyl-ACPs	a cis-&Delta;7-tetradecenoyl-[acp]	c
DIHYDRO-THYMINE	5,6-dihydrothymine	cp
CPD0-1718	7,8-dihydropterin	c
tRNAs	an uncharged tRNA	p
7E9E11Z14Z-5S6R-6-CYSTEIN-S-YL	leukotriene-E4	p
3-HYDROXY-L-KYNURENINE	3-hydroxy-L-kynurenine	c
Cis-delta-3-decenoyl-ACPs	a (3Z)-dec-3-enoyl-[acp]	c
LysW-L-glutamate	a [2-aminoadipate carrier protein]-L-glutamate	c
N-acetyl-beta-D-hexosamines	an N-acetyl-&beta;-D-hexosamine	p
DGTP	dGTP	cp
UDP-AAGM-DIAMINOHEPTANEDIOATE	UDP-N-acetyl-&alpha;-D-muramoyl-L-alanyl-&gamma;-D-glutamyl-meso-2,6-diaminopimelate	cp
CPD-5923	5'-deoxy-5'-fluoroadenosine	c
CPD-7076	2-methylbutanoate	c
ARG	L-arginine	cp
N-Acetoxy-Arylamines	an N-acetoxyarylamine	p
3-Hydroxyglutaryl-ACP-methyl-ester	a (3R)-3-hydroxyglutaryl-[acp] methyl ester	p
IDP	IDP	cp
UDP-ACETYL-CARBOXYVINYL-GLUCOSAMINE	UDP-N-acetyl-&alpha;-D-glucosamine-enolpyruvate	cp
4-HYDROXY-BUTYRYL-COA	4-hydroxybutanoyl-CoA	c
Amino-Acids	an amino acid	c
N-formyl-L-methionyl-tRNAfmet	an N-formyl-L-methionyl-[initiator tRNAmet]	p
Amino-Acids-20	a proteinogenic amino acid	cp
AGMATHINE	agmatine	c
CPD-7100	(2S)-2-isopropyl-3-oxosuccinate	cp
CPD-600	N-formyl-L-glutamate	p
GLUCONATE	D-gluconate	cp
CONIFERYL-ALCOHOL	coniferyl alcohol	c
AMP	AMP	cp
Malonyl-acp-methyl-ester	a malonyl-[acp] methyl ester	c
SIROHEME	siroheme	p
2-OCTAPRENYL-6-HYDROXYPHENOL	3-(all-trans-octaprenyl)benzene-1,2-diol	c
CPD-12179	methylmalonate semialdehyde	c
N-terminal-L-Serine	an N-terminal L-seryl-[protein]	p
COPROPORPHYRINOGEN_I	coproporphyrinogen I	p
GDP	GDP	cp
DEOXYURIDINE	2'-deoxyuridine	cp
CYTIDINE	cytidine	cp
4-HYDROXY-L-PROLINE	trans-4-hydroxy-L-proline	p
CPD-16458	7,8-dihydrolumazine	p
DEOXY-D-RIBOSE-1-PHOSPHATE	2-deoxy-&alpha;-D-ribose 1-phosphate	cp
COPROPORPHYRINOGEN_III	coproporphyrinogen III	p
DIMETHYL-D-RIBITYL-LUMAZINE	6,7-dimethyl-8-(1-D-ribityl)lumazine	cp
N-terminal-L-alanine	an N-terminal L-alanyl-[protein]	p
N-Acetyl-beta-D-Hexosaminides	an N-acetyl-&beta;-D-hexosaminide	c
NAcMur-Peptide-Undecaprenols	a N-acetylmuramoyl-pentapeptide-diphosphoundecaprenol	p
CPD-602	5-amino-6-(5-phospho-D-ribosylamino)uracil	cp
GUANOSINE	guanosine	cp
PORPHOBILINOGEN	porphobilinogen	p
2-ACETO-LACTATE	(S)-2-acetolactate	c
ARG-tRNAs	a tRNAArg	c
CPD-122	(S)-mandelate	p
N-Acylated-Aliphatic-Amino-Acids	an N-acylated aliphatic-L-amino acid	c
L-ARGININO-SUCCINATE	L-arginino-succinate	cp
CPD-7221	(3Z)-dodec-3-enoyl-CoA	p
N-terminal-L-cysteine	an N-terminal L-cysteinyl-[protein]	p
UDP-GLUCURONATE	UDP-&alpha;-D-glucuronate	p
2-OCTAPRENYL-6-METHOXYPHENOL	2-methoxy-6-(all-trans-octaprenyl)phenol	p
GUANOSINE-5DP-3DP	ppGpp	p
AICAR	5-amino-1-(5-phospho-D-ribosyl)imidazole-4-carboxamide	cp
Myristoyl-ACPs	a myristoyl-[acp]	c
Saturated-Fatty-Acyl-ACPs	a 2,3,4-saturated fatty acyl-[acp]	c
RIBULOSE-5P	D-ribulose 5-phosphate	cp
CIS-2-CHLORO-4-CARBOXYMETHYLENEBUT-2-EN-	2-chloro-cis-dienelactone	c
ILE	L-isoleucine	cp
SIROHYDROCHLORIN	sirohydrochlorin	cp
CPD-16569	kojibiose	cp
DEOXY-RIBOSE-5P	2-deoxy-D-ribose 5-phosphate	cp
CPD-729	12-oxo-cis-10,15-phytodienoate	c
DIPEPTIDES	a dipeptide	c
N-5-PHOSPHORIBOSYL-ANTHRANILATE	N-(5-phosphoribosyl)-anthranilate	cp
DEOXYADENOSINE	2'-deoxyadenosine	cp
Saturated-Fatty-Acyl-CoA	a 2,3,4-saturated fatty acyl CoA	cp
DTDP-DEOH-DEOXY-GLUCOSE	dTDP-4-dehydro-6-deoxy-&alpha;-D-glucopyranose	cp
UDP-N-ACETYL-D-GLUCOSAMINE	UDP-N-acetyl-&alpha;-D-glucosamine	cp
ILE-tRNAs	a tRNAIle	c
N-terminal-L-valine	an N-terminal L-valyl-[protein]	p
MALONYL-ACP	a malonyl-[acp]	cp
CARBOXYPHENYLAMINO-DEOXYRIBULOSE-P	1-(o-carboxyphenylamino)-1'-deoxyribulose 5'-phosphate	cp
GLYOX	glyoxylate	cp
CPD-606	CDP-glycerol	p
TMP	dTMP	cp
2-ALPHA-HYDROXYETHYL-THPP	2-(&alpha;-hydroxyethyl)thiamine diphosphate	cp
CPD-16572	selaginose	cp
N-CARBAMOYLGLYCINE	N-carbamoylglycine	cp
L-ASPARTATE	L-aspartate	cp
N-ACETYL-D-GLUCOSAMINE	N-acetyl-&beta;-D-glucosamine	p
CPD-7299	ureidomalonate	p
SUPER-OXIDE	superoxide	c
N-ACETYL-D-GLUCOSAMINE-1-P	N-acetyl-&alpha;-D-glucosamine 1-phosphate	cp
MALONYL-COA	malonyl-CoA	cp
DTDP-DEOH-DEOXY-MANNOSE	dTDP-4-dehydro-&beta;-L-rhamnose	p
CPD-12287	hydrogen bromide	c
CPD-10019	(5S)-5-benzyl-hydantoin	cp
SN-GLYCEROL-1-PHOSPHATE	sn-glycerol 1-phosphate	p
CPD-16953	2-amino-6-[1-hydroxyethyl]-7-methyl-7,8-dihydropterin	c
DI-H-OROTATE	(S)-dihydroorotate	cp
Aliphatic-L-Amino-Acids	an aliphatic L-amino acid	p
UDP-N-ACETYLMURAMATE	UDP-N-acetyl-&alpha;-D-muramate	cp
Acceptor	an oxidized electron acceptor	cp
DITP	dITP	cp
N-terminal-glycine	an N-terminal glycyl-[protein]	p
CPD-6442	methylsalicylate	c
2-AMINOACRYLATE	2-aminoprop-2-enoate	p
CPD-16954	[1-(2-amino-7-methyl-4-oxo-7,8-dihydro-3H-pteridin-6-yl)]ethyl diphosphate	p
L-ASPARTATE-SEMIALDEHYDE	L-aspartate-semialdehyde	cp
4-IMIDAZOLONE-5-PROPIONATE	4-imidazolone-5-propanoate	cp
CIS-ACONITATE	cis-aconitate	cp
DEOXYXYLULOSE-5P	1-deoxy-D-xylulose 5-phosphate	cp
ISOQUINOLIN-12H-ONE	isoquinolin-2(1H)-one	p
Alkanes	an alkane	cp
CPD-10020	(5R)-5-benzyl-hydantoin	cp
CPD-730	3-oxo-2-(cis-2'-pentenyl)-cyclopentane-1-octanoate	p
N-FORMIMINO-L-GLUTAMATE	N-formimino-L-glutamate	cp
CPD-170	stachyose	c
Semiquinones	a semiquinone	p
CPD-17045	3-benzyl-3,6-dihydroxy-6-(hydroxymethyl)-diketopiperazine	c
DEPHOSPHO-COA	3'-dephospho-CoA	cp
SO3	sulfite	cp
DEOXYCYTIDINE	2'-deoxycytidine	c
TRANS-2-CHLORO-4-CARBOXYMETHYLENEBUT-2-E	2-chloro-trans-dienelactone	c
PPI	diphosphate	cp
N6-Pup-gamma-L-glutamyl-protein-L-lysine	N6-([prokaryotic ubiquitin-like protein]-&gamma;-L-glutamyl)-[protein]-L-lysine	c
N-ACETYL-D-GLUCOSAMINE-6-P	N-acetyl-D-glucosamine 6-phosphate	p
4-MALEYL-ACETOACETATE	4-maleyl-acetoacetate	p
N-FORMYLKYNURENINE	N-formylkynurenine	p
GDP-TP	pppGpp	p
236-TRICHLOROHYDROQUINONE	2,3,6-trichlorohydroquinone	c
CPD-10267	decanoyl-CoA	cp
2-AMINOBENZOYL-COA	anthraniloyl-CoA	p
Alkyl-Hydro-Peroxides	an organic hydroperoxide	c
2-OXOBUTANOATE	2-oxobutanoate	cp
CPD-17046	3-benzyl-3,6 -bis(glutathione)- 6-(hydroxymethyl)-diketopiperazine	p
DI-H-URACIL	5,6-dihydrouracil	cp
3-CARBOXY-3-HYDROXY-ISOCAPROATE	(2S)-2-isopropylmalate	cp
DUMP	dUMP	cp
cis-D21-39-oxo-40-Me-C59-1-ACPs	a cis-delta21-39-oxo-40-methyl-C59:1-[acp]	c
Phosphoglucomutase	a phosphoglucomutase	cp
Pre-tRNA-3-prime-half-molecules	a 3'-half-tRNA molecule with a 5'-OH end	cp
2-METHYL-ACETO-ACETYL-COA	2-methylacetoacetyl-CoA	cp
PAPS	3'-phosphoadenylyl-sulfate	cp
Phosphoglucosamine-Mutase	a phosphoglucosamine mutase	cp
Protein-phospho-L-histidines	a [protein]-N-phospho-L-histidine	cp
CPDQT-36	3-[(3'-methylthio)propyl]malate	cp
CPD-14268	(15Z)-tetracosenoate	c
Pre-tRNA-5-prime-half-molecules	a 5'-half-tRNA molecule with a 2',3'-cyclic phosphate end	cp
CPD-12706	5-fluoro-5-deoxy-D-ribose 1-phosphate	p
Acetoacetyl-ACPs	an acetoacetyl-[acp]	cp
Protein-pi-phospho-L-histidines	a [protein]-N&pi;-phospho-L-histidine	c
R-3-Hydroxypalmitoyl-ACPs	a (3R)-3-hydroxypalmitoyl-[acp]	p
CPD-17385	(6Z,9Z,12Z,15Z,18Z,21Z)-tetracosahexaenoyl-CoA	c
CPD-10806	4-hydroxy-2-nonenal	c
Maltodextrins	a maltodextrin	cp
R-3-hydroxy-cis-vaccenoyl-ACPs	(R)-3-hydroxy-cis-vacc-11-enoyl-[acp]	p
CPD-18491	(6Z,9Z,12Z,15Z,18Z)-tetracosapentaenoyl-CoA	c
L-HISTIDINOL-P	L-histidinol phosphate	cp
CYS	L-cysteine	cp
PHOSPHORIBULOSYL-FORMIMINO-AICAR-P	phosphoribulosylformimino-AICAR-phosphate	cp
CPD-12724	baicalein	c
Bromide	an organobromine compound	p
MG+2	Mg2+	c
CPD-225	trans-aconitate	c
CPD-19487	3-isopropyl-10-(methylthio)-2-oxodecanoate	cp
Protein-tauphospho-L-histidines	a [protein]-N&tau;-phospho-L-histidine	c
R-3-hydroxyarachidoyl-ACPs	a (3R)-3-hydroxyarachidoyl-[acp]	p
NADH	NADH	cp
Protein-tyrosine-phosphates	a [protein]-L-tyrosine phosphate	c
CPD-106	(S)-4-hydroxymandelate	p
CPDQT-37	3-[(4'-methylthio)butyl]malate	cp
CPD-19488	3-isopropyl-9-(methylthio)-2-oxononanoate	cp
Phospholipid-Cyclopropane-Fatty-Acids	a [phospholipid] cyclopropane fatty acid	p
CYS-GLY	L-cysteinyl-glycine	p
FORMAMIDE	formamide	c
CPD-14269	(Z)-15-tetracosenoyl-CoA	p
R-3-hydroxybehenoyl-ACPs	a (3R)-3-hydroxybehenoyl-[acp]	p
Prolipoprotein-Cysteines	a [prolipoprotein]-L-cysteine	c
CPD-17386	(2E,6Z,9Z,12Z,15Z,18Z,21Z)-tetracosaheptaenoyl-CoA	p
MG-PROTOPORPHYRIN	Mg-protoporphyrin	p
Phospholipid-Olefinic-Fatty-Acids	a [phospholipid] olefinic fatty acid	c
CPD-10600	4-hydroxybenzoyl-acetyl-CoA	c
R-3-hydroxycerotoyl-ACPs	a (3R)-3-hydroxycerotoyl-[acp]	p
CPD-18492	(2E,6Z,9Z,12Z,15Z,18Z)-tetracosahexaenoyl-CoA	p
Butanoyl-ACPs	a butanoyl-[acp]	c
CPD-19489	3-isopropyl-8-(methylthio)-2-oxooctanoate	cp
AMINO-OH-HYDROXYMETHYL-DIHYDROPTERIDINE	6-(hydroxymethyl)-7,8-dihydropterin	c
DNA-Ligase-L-lysine	a [DNA ligase]-L-lysine	cp
R-3-hydroxydodecanoyl-ACPs	a (3R)-3-hydroxydodecanoyl-[acp]	p
CPD-10608	trans-dienelactone	c
LUTEOLIN-7-O-BETA-D-DIGLUCURONIDE	luteolin 7-O-&beta;-D-diglucuronide	c
CPDQT-38	3-[(5'-methylthio)pentyl]malate	cp
DIHYDROFOLATE	7,8-dihydrofolate monoglutamate	p
CPD-1301	tetrahydropteroyl tri-L-glutamate	cp
PENICILLIN	a penicillin	cp
NADH-P-OR-NOP	NAD(P)H	c
CPD-19490	3-isopropyl-7-(methylthio)-2-oxoheptanoate	cp
GALACTOSE	&beta;-D-galactose	cp
Phosphorylated-Phosphoglucosamine-Mutase	a phosphorylated phosphoglucosamine mutase	cp
R-3-hydroxyhexanoyl-ACPs	a (3R)-3-hydroxyhexanoyl-[acp]	p
CPD-1086	5-amino-6-(5-phospho-D-ribitylamino)uracil	p
DIHYDROFOLATE-GLU-N	a 7,8-dihydrofolate	cp
CPD-17388	3-oxo-(6Z,9Z,12Z,15Z,18Z,21Z)-tetracosahexaenoyl-CoA	c
3-KETO-ADIPYL-COA	3-oxoadipyl-CoA	c
CPD-294	2-maleylacetate	p
CPD-18494	3-oxo-(6Z,9Z,12Z,15Z,18Z)-tetracosapentaenoyl-CoA	c
CPD1G-121	S-formylmycothiol	p
CPD-14415	[L-Asp(4-L-Arg)] dipeptide	p
Phosphorylated-phosphoglucomutase	a phosphorylated phosphoglucomutase	cp
GALACTOSE-1P	&alpha;-D-galactose 1-phosphate	cp
CPD-19491	3-isopropyl-6-(methylthio)-2-oxohexanoate	cp
R-3-hydroxylignoceroyl-ACPs	a (3R)-3-hydroxylignoceroyl-[acp]	p
C1	UDP-N-acetyl-&alpha;-D-muramoyl-L-alanyl-&gamma;-D-glutamyl-meso-2,6-diaminopimeloyl-D-alanyl-D-alanine	cp
CPDQT-39	3-[(6'-methylthio)hexyl]malate	cp
DUTP	dUTP	cp
ALLO-THR	DL-allothreonine	c
Phosphoserines	L(or D)-O-phosphoserine	c
PSEUDOURIDINE-5-P	pseudouridine 5'-phosphate	cp
R-3-hydroxymyristoyl-ACPs	a (3R)-3-hydroxymyristoyl-[acp]	p
PENICILLIN-G	penicillin G	cp
HISTIDINOL	histidinol	cp
ISOQUINOLINE	isoquinoline	c
LYS	L-lysine	cp
K-HEXANOYL-COA	3-oxohexanoyl-CoA	p
PALMITATE	palmitate	cp
R-3-hydroxypetroselinoyl-ACPs	a (3R)-3-hydroxypetroselinoyl-[acp]	p
CPD-19492	3-ethyl-2-oxosuccinate	cp
CPD-1302	5-methyltetrahydropteroyl tri-L-glutamate	cp
2-METHYL-BUTYRYL-COA	2-methylbutanoyl-CoA	cp
AMINO-OXOBUT	L-2-amino-3-oxobutanoate	cp
LYS-tRNAs	a tRNALys	c
PHTYOSPHINGOSINE-1-P	phytosphingosine 1-phosphate	p
CPD-18550	quinoxaline-2-carboxyl adenylate	c
CPDQT-40	3-[(7'-methylthio)heptyl]malate	cp
NADP	NADP+	cp
R-3-hydroxystearoyl-ACPs	a (3R)-3-hydroxystearoyl-[acp]	p
Pup-C-terminal-L-glutamate	a [prokaryotic ubiquitin-like protein] C-terminal L-glutamate	p
3-DEHYDRO-SHIKIMATE	3-dehydroshikimate	cp
PALMITYL-COA	palmitoyl-CoA	cp
CPD-195	octanoate	c
AMINO-RIBOSYLAMINO-1H-3H-PYR-DIONE	5-amino-6-(D-ribitylamino)uracil	cp
FORMATE	formate	p
Pup-C-terminal-L-glutamine	a [prokaryotic ubiquitin-like protein] C-terminal L-glutamine	c
2-METHYLMALEATE	citraconate	cp
CPD-2961	D-gluconate 6-phosphate	cp
OROTATE	orotate	cp
CPD-14443	(2S,4S)-4-hydroxy-2,3,4,5-tetrahydrodipicolinate	cp
OXYGEN-MOLECULE	oxygen	cp
Purine-Bases	a purine base	cp
Acetylated-S18-N-terminal-L-alanine	an N-terminal N-acetyl-L-alanyl-[S18 protein of 30S ribosome]	p
Protein-Disulfides	a protein disulfide	p
CYS-tRNAs	a tRNACys	cp
R-4-PHOSPHOPANTOTHENOYL-L-CYSTEINE	(R)-4'-phosphopantothenoyl-L-cysteine	c
PUTRESCINE	putrescine	cp
MONOMER0-4342	a [prolipoprotein]-(S-diacylglyceryl)-L-cysteine	p
CPD-18761	coniferyl alcohol radical	p
ALPHA-D-GALACTOSE	&alpha;-D-galactose	cp
CPDQT-41	10-(methylthio)-2-oxodecanoate	p
ligated-tRNAs-with-2prime-5prime-linkage	a ligated tRNA with a 2'-5' linkage	cp
Pyruvate-dehydrogenase-acetylDHlipoyl	a [pyruvate dehydrogenase E2 protein] N6-S-acetyldihydrolipoyl-L-lysine	cp
MONOMETHYL-ESTER-OF-TRANS-ACONITATE	(E)-3-(methoxycarbonyl)pent-2-enedioate	p
C3	UDP-N-acetyl-&alpha;-D-muramoyl-L-alanyl-&gamma;-D-glutamyl-L-lysyl-D-alanyl-D-alanine	p
Menaquinols	a menaquinol	cp
mRNA-Fragments	an mRNA fragment	p
CPD-1091	(S)-ureidoglycolate	p
Pi	phosphate	cp
UROPORPHYRINOGEN-III	uroporphyrinogen-III	cp
CPD-17621	16-hydroxypalmitoyl-CoA	p
Protein-Histidines	a [protein]-L-histidine	cp
Pyruvate-dehydrogenase-dihydrolipoate	a [pyruvate dehydrogenase E2 protein] N6-dihydrolipoyl-L-lysine	cp
Purine-Deoxyribonucleosides	a purine 2'-deoxyribonucleoside	cp
PHYTOSPINGOSINE	phytosphingosine	c
CPD-13172	6-hydroxy-2-cyclohexen-one-carboxylate	p
DNA-Ligase-L-lysine-adenylate	a [DNA ligase]-N6-(5'-adenylyl)-L-lysine	cp
Pyruvate-dehydrogenase-lipoate	a [pyruvate dehydrogenase E2 protein] N6-lipoyl-L-lysine	cp
CPDQT-429	indolylmethylisothiocyanate	c
CPD-1099	raffinose	cp
CPD-10633	5-chloro-trans-dienelactone	c
Menaquinones	a menaquinone	cp
3-KETOACYL-COA	a 3-oxoacyl-CoA	c
CPD-14553	UDP-&alpha;-D-galactose	cp
CPD1G-277	cerotoyl-CoA	c
CPD-31	(R)-citramalate	cp
NADPH	NADPH	cp
ISOVALERATE	isovalerate	c
3-KETOBUTYRATE	acetoacetate	cp
C4	undecaprenyl-diphospho-N-acetylmuramoyl-L-alanyl-&gamma;-D-glutamyl-L-lysyl- D-alanyl-D-alanine	c
Mercapturates	a mercapturate	c
CPD-316	reduced riboflavin	p
HOMOGENTISATE	homogentisate	cp
CPD-196	octanoyl-CoA	cp
CPD-17624	&omega;-carboxy-(9Z)-octadec-9-enoyl-CoA	p
CPD-19014	2-hydroxy-2-methylpropanoate	cp
INDOLE	indole	c
CPDQT-434	indol-3-ylmethylisothiocyanate-glutathione	p
CPD-10634	5-chloromaleylacetate	p
Kanamycin-3-phosphates	a kanamycin 3'-phosphate	p
3-Ketoglutaryl-ACP-methyl-ester	a 3-oxo-glutaryl-[acp] methyl ester	cp
INDOLE-3-GLYCEROL-P	(1S,2R)-1-C-(indol-3-yl)glycerol 3-phosphate	cp
MYO-INOSITOL	myo-inositol	p
Purine-Ribonucleosides	a purine ribonucleoside	cp
Octanoyl-ACPs	an octanoyl-[acp]	c
Actinorhodin-Intermediate-2	9-hydroxy-3,5,7,11,13,15-hexaoxohexadecanoyl-[PKS-acp]	p
2-Me-Branched-234-Sat-FA	a 2-methyl branched 2,3,4-saturated fatty acid	c
PROTON	H+	cp
2-Me-Branched-234-Sat-Fatty-Acyl-CoA	a 2-methyl branched 2,3,4-saturated fatty acyl-CoA	p
CROTONYL-COA	crotonyl-CoA	p
Octanoylated-Gcv-H	a [glycine-cleavage complex H protein] N6-octanoyl-L-lysine	cp
GLUCOSAMINE	D-glucosamine	p
CPD-10636	2,5-dichloro-trans-dienelactone	c
3-Ketopimeloyl-ACP-methyl-esters	a 3-oxo-pimeloyl-[acp] methyl ester	cp
QUINOLINATE	quinolinate	cp
ISOVALERYL-COA	isovaleryl-CoA	cp
Octanoylated-domains	a [lipoyl-carrier protein] N6-octanoyl-L-lysine	cp
CPD-17635	(2R)-ethylmalonyl-CoA	p
GLUCOSAMINE-1P	D-glucosamine 1-phosphate	cp
CPD1G-332	2-carboxy-cerotoyl-CoA	p
MALTOHEXAOSE	maltohexaose	cp
CPD-13174	salicyl-6-hydroxy-2-cyclohexene-on-oyl	c
ALPHA-GLUCOSE	&alpha;-D-glucopyranose	cp
INDOLEYL-CPD	(indole-3-yl)acetonitrile	c
CPD-110	salicylate	p
Ox-Thioredoxin	an oxidized thioredoxin	cp
CPD-8890	betanidin quinone	p
IMIDAZOLE-ACETOL-P	imidazole acetol-phosphate	cp
BCAA-dehydrogenase-3MB-DH-lipoyl	a [apo BCAA dehydrogenase E2 protein] N6-S-[3-methylbutanoyl]dihydrolipoyl-L-lysine	p
RIBOFLAVIN	riboflavin	cp
OCTAPRENYL-DIPHOSPHATE	all-trans-octaprenyl diphosphate	c
tRNAs-with-CCA	a tRNA containing a 3' CCA end	p
CPD-15616	keto-L-sorbose	cp
BCAA-dehydrogenase-DH-lipoyl	an [apo BCAA dehydrogenase E2 protein] N6-dihydrolipoyl-L-lysine	cp
Serines	serine	p
CPD-15056	(2Z)-2-aminobut-2-enoate	cp
CPD-19840	roseoflavin adenine dinucleotide	p
Carboxylates	a carboxylate	cp
5-phosphooligonucleotides	a 5'-phosphooligonucleotide	p
CPD-8978	ethylphosphate	c
3-hydroxy-cis-D7-tetraecenoyl-ACPs	a (3R)-3-hydroxy cis &Delta;7-tetradecenoyl-[acp]	p
trans-2-cis-5-dienoyl-CoA	a (2E,5Z)-alkan-2,5-dienoyl-CoA	p
Oxidized-2-4Fe-4S-Ferredoxins	an oxidized 2[4Fe-4s] ferredoxin	p
Rhodoquinols	a rhodoquinol	c
Oxidized-2Fe-2S-Ferredoxins	an oxidized [2Fe-2S] ferredoxin	p
Nonadjacent-pyrimidine-dimer-in-DNA	a dimer of non-adjacent pyrimidine nucleosides in DNA	c
Rhodoquinones	a rhodoquinone	p
Carboxylic-esters	a carboxylic ester	c
CANAVANINOSUCCINATE	canavaninosuccinate	cp
3-hydroxy-cis-D9-hexaecenoyl-ACPs	a (3R)-3-hydroxy cis &Delta;9-hexadecenoyl-[acp]	p
BCAA-dehydrogenase-lipoyl	an [apo BCAA dehydrogenase E2 protein] N6-lipoyl-L-lysine	cp
Oxidized-CycA1-cytochromes	an oxidized CycA1 cytochrome	p
Ribonucleoside-Diphosphates	a ribonucleoside diphosphate	cp
CH3-MALONATE-S-ALD	(S)-methylmalonate-semialdehyde	c
CPD-201	4-hydroxybenzoyl-CoA	cp
3-hydroxypimeloyl-ACP-methyl-esters	a (3R)-3-hydroxypimeloyl-[acp] methyl ester	p
Oxidized-Factor-F420	an oxidized coenzyme F420	cp
CPD-15127	5-deoxy-D-glucuronate	cp
CPD-20111	S-(hydroxymethyl)bacillithiol	c
D-METHYL-MALONYL-COA	(S)-methylmalonyl-CoA	cp
Ribonucleoside-Monophosphates	a ribonucleoside 5'-monophosphate	cp
Acyl-Phosphates	an acyl phosphate	c
3-oxo-arachidoyl-ACPs	a 3-oxo-arachidoyl-[acp]	c
CPD-15637	6-cis-tridecenoyl-CoA	c
Dipeptides-With-Hist-C-Terminal-Position	a dipetide with L-histidine at the C-terminal	c
CPD0-2123	3-oxodecanoyl-CoA	c
CPD-901	mercuriphenyl acetate	c
HYPOXANTHINE	hypoxanthine	cp
PROPIONATE	propanoate	c
ADENOSYL-HOMO-CYS	S-adenosyl-L-homocysteine	cp
CPD-20112	S-formylbacillithiol	p
CPD-11495	(2-hydroxyphenyl)acetate	p
CPD-15172	6,7-dehydrobaicalein	p
PYRIDOXINE-5P	pyridoxine 5'-phosphate	c
DCMP	dCMP	c
D-MYO-INOSITOL-1-MONOPHOSPHATE	1D-myo-inositol 1-monophosphate	c
Ribonucleoside-Triphosphates	a ribonucleoside triphosphate	c
CPD-9038	precorrin-1	cp
CPD-694	cob(I)yrinate a,c-diamide	c
3-oxo-behenoyl-ACPs	a 3-oxo-behenoyl-[acp]	cp
Oxidized-NrdH-Proteins	an oxidized NrdH glutaredoxin-like protein	p
CPD-13612	D-erythro-sphinganine	c
CPD-15651	6-trans-tridecenoyl-CoA	c
MANNOSE-1P	&alpha;-D-mannose 1-phosphate	cp
Ribonucleosides	a ribonucleoside	p
ADENOSYL-P4	5',5'''-diadenosine tetraphosphate	c
CPD-15244	3-oxo-(5Z)-tetradecenoyl-CoA	c
Nucleoside-Diphosphates	a nucleoside diphosphate	cp
DCTP	dCTP	cp
10-FORMYL-DIHYDROFOLATE-GLU-N	an N10-formyldihydrofolate	p
3-oxo-cerotoyl-ACPs	a 3-oxo-cerotoyl-[acp]	c
CPD-13684	cholest-5-en-3-one	cp
CH33ADO	5'-deoxyadenosine	p
CPD-15654	2-trans, 4-cis-undecadienoyl-CoA	p
Oxidized-ferredoxins	an oxidized ferredoxin [iron-sulfur] cluster	cp
3-oxo-cis-D7-tetradecenoyl-ACPs	a 3-oxo-cis-&Delta;7-tetradecenoyl-[acp]	cp
Nucleoside-Monophosphates	a nucleoside 5'-monophosphate	p
CPD-6972	4-(2'-carboxyphenyl)-4-oxobutyryl-CoA	c
Ribosomal-protein-S12-3-methylthio-Asp89	a [ribosomal protein S12]-3-methylsulfanyl-L-aspartate89	p
3-oxo-cis-D9-hexadecenoyl-ACPs	a 3-oxo-cis-&Delta;9-hexadecenoyl-[acp]	cp
Dodecanoyl-ACPs	a dodecanoyl-[acp]	c
CPD-15280	hercynine	p
Nucleoside-Triphosphates	a nucleoside triphosphate	cp
CPD-11517	3-oxo-2-(cis-2'-pentenyl)-cyclopentane-1-octanoyl-CoA	c
Charged-ALA-tRNAs	an L-alanyl-[tRNAAla]	p
Oxo-glutarate-dehydro-suc-DH-lipoyl	a [2-oxoglutarate dehydrogenase E2 protein] N6-S-succinyldihydrolipoyl-L-lysine	cp
CPD0-2231	dIDP	cp
Ribosomal-protein-S12-Asp89	a [ribosomal protein S12] L-aspartate89	c
Ribulose-phosphates	L(or D)-ribulose 5-phosphate	cp
CPD-6989	hispidin	c
PREPHENATE	prephenate	cp
Oxo-glutarate-dehydrogenase-DH-lipoyl	a [2-oxoglutarate dehydrogenase E2 protein] N6-dihydrolipoyl-L-lysine	cp
Charged-ARG-tRNAs	an L-arginyl-[tRNAArg]	p
CPD-20620	3,14'-bihispidinyl	p
Ribuloses	ribulose	cp
3-oxo-cis-vaccenoyl-ACPs	a 3-oxo-cis-vacc-11-enoyl-[acp]	cp
Donor-H2	a reduced electron acceptor	cp
CPD-11518	3-oxo-2-(cis-2'-pentenyl)-cyclopentane-1-(E-octa-2-enoyl)-CoA	p
TTP	dTTP	cp
CPD-9245	palmitoleate	c
S-2-Haloacids	an (S)-2-haloacid	c
ADENYLOSUCC	adenylo-succinate	cp
BENZOYLCOA	benzoyl-CoA	p
CPD-207	phenylacetyl-CoA	p
3-oxo-decanoyl-ACPs	a 3-oxo-decanoyl-[acp]	cp
OCTAPRENYL-METHYL-OH-METHOXY-BENZQ	3-demethylubiquinol-8	c
S-2-Hydroxyacids1	an (S)-2-hydroxyacid	p
11Z-3-oxo-icos-11-enoyl-ACPs	an (11Z)-3-oxo-icos-11-enoyl-[acp]	cp
Oxo-glutarate-dehydrogenase-lipoyl	a [2-oxoglutarate dehydrogenase E2 protein] N6-lipoyl-L-lysine	cp
ADENOSYLCOBALAMIN	adenosylcobalamin	p
Double-Stranded-DNAs	a double stranded DNA	cp
CPD-13699	3,22-dioxochol-4-en-24-oyl-CoA	c
ACETYLSERINE	O-acetyl-L-serine	cp
CARBAMOYL-P	carbamoyl phosphate	cp
S-24-DINITROPHENYLGLUTATHIONE	2,4-dinitrophenyl-S-glutathione	cp
CPD-9247	cis-vaccenate	c
CPD-20735	two adjacent 2'-deoxycytidines in DNA	p
CPD-15663	2-trans-nonenoyl-CoA	p
Charged-CYS-tRNAs	an L-cysteinyl-[tRNACys]	cp
3-oxo-dodecanoyl-ACPs	a 3-oxo-dodecanoyl-[acp]	cp
CPD-20736	adjacent 2'-deoxycytidine-thymidine in DNA	p
P-AMINO-BENZOATE	4-aminobenzoate	cp
Double-helix-DNA	a double-helix DNA	c
CPD-15285	N&alpha;-methyl-L-histidine	cp
CPD-20737	adjacent thymidine-2'-deoxycytidine in DNA	p
CHITIN	chitin	cp
Halide-Anions	a halide anion	p
CPD-11520	3-oxo-2-(cis-2'-pentenyl)-cyclopentane-1-(3-oxooctanoyl)-CoA	c
CPD-13700	3-oxo-4-pregnene-20-carboxyl-CoA	p
Charged-GLN-tRNAs	an L-glutaminyl-[tRNAGln]	p
CPD-20741	a dimer of adjacent 2'-deoxycytidines in DNA	c
CPD0-2298	(S)-ureidoglycine	c
3-oxo-hexanoyl-ACPs	a 3-oxo-hexanoyl-[acp]	cp
P-HYDROXY-PHENYLPYRUVATE	4-hydroxyphenylpyruvate	c
CHITOBIOSE	N,N'-diacetylchitobiose	cp
ACETOACETYL-COA	acetoacetyl-CoA	cp
CPD-20742	a dimer of adjacent thymidines in DNA	c
XYLULOSE-5-PHOSPHATE	D-xylulose 5-phosphate	cp
Charged-GLT-tRNAs	an L-glutamyl-[tRNAGlu]	c
5-OXOPROLINE	5-oxo-L-proline	c
CPD-20743	a dimer of adjacent 2'-deoxycytidine and thymidine in DNA	c
CPD-15666	2-trans,6-cis-tridecadienoyl-CoA	p
Adjacent-pyrimidine-dimer-in-DNA	a dimer of adjacent pyrimidine nucleosides in DNA	c
CPD-13713	adenosine 5'-phosphoselenate	p
S-3-HYDROXYBUTANOYL-COA	(S)-3-hydroxybutanoyl-CoA	p
EG10823-MONOMER	Unknown	c
CPD-20744	a dimer of adjacent thymidine and 2'-deoxycytidine in DNA	c
MELIBIOSE	melibiose	c
MALTOOLIGOSYLTREHALOSE	a maltooligosyl-trehalose	cp
CPD-15301	caldariellaquinol	p
3-oxo-lignoceroyl-ACPs	a 3-oxo-lignoceroyl-[acp]	c
CPD-11521	3-oxo-2-(cis-2'-pentenyl)-cyclopentane-1-hexanoyl-CoA	cp
Palmitoleoyl-ACPs	a palmitoleoyl-[acp]	c
Charged-GLY-tRNAs	a glycyl-[tRNAGly]	p
5-P-BETA-D-RIBOSYL-AMINE	5-phospho-&beta;-D-ribosylamine	cp
CPD-9385	&gamma;-glutamyl-p-nitroanilide	c
Alcohols	an alcohol	p
BILIRUBIN	&alpha;-bilirubin	c
ADENOSYLCOBINAMIDE	adenosylcobinamide	p
Charged-HIS-tRNAs	an L-histidyl-[tRNAHis]	p
Palmitoyl-ACPs	a palmitoyl-[acp]	c
Charged-ILE-tRNAs	an L-isoleucyl-[tRNAIle]	p
BUTYRYL-COA	butanoyl-CoA	c
IMINOASPARTATE	2-iminosuccinate	cp
3-oxo-myristoyl-ACPs	a 3-oxo-myristoyl-[acp]	cp
CPD-15667	6-cis, 3-oxo-tridecenoyl-CoA	c
O-PHOSPHO-L-HOMOSERINE	O-phospho-L-homoserine	cp
Charged-LEU-tRNAs	an L-leucyl-[tRNALeu]	cp
CPD0-2352	a tRNA precursor with a 5' extension and a short 3' extension	c
OH-ACYL-ACP	a (3R)-3-hydroxyacyl-[acyl-carrier protein]	p
Beta-3-hydroxybutyryl-ACPs	a (3R)-3-hydroxybutanoyl-[acp]	p
D-SEDOHEPTULOSE-7-P	D-sedoheptulose 7-phosphate	cp
CPD-15317	D-ribofuranose 5-phosphate	cp
CPD-11522	3-oxo-2-(cis-2'-pentenyl)-cyclopentane-1-(E-hexa-2-enoyl)-CoA	p
Charged-LYS-tRNAs	an L-lysyl-[tRNALys]	p
CPD0-2353	a tRNA precursor with a short 3' extension	cp
3-oxo-palmitoyl-ACPs	a 3-oxo-palmitoyl-[acp]	cp
Charged-MET-tRNAs	an L-methionyl-[elongator tRNAMet]	p
CPD-15318	&alpha;-D-ribose 5-phosphate	p
5Z-3-oxo-tetradec-5-enoyl-ACPs	a (5Z)-3-oxo-tetradec-5-enoyl-[acp]	cp
CHOCOLA_A	all-trans-retinyl palmitate	c
CPD-7066	(2R,3S)-3-methylmalate	p
MALTOPENTAOSE	maltopentaose	cp
CPD0-2354	a tRNA precursor with a 5' extension	p
MENADIOL	menadiol	p
P-NITROPHENOL	4-nitrophenol	p
D-XYLULOSE	D-xylulose	c
PYRROLINE-HYDROXY-CARBOXYLATE	(3R,5S)-3-hydroxy-1-pyrroline-5-carboxylate	c
3-oxo-petroselinoyl-ACPs	a 3-oxo-petroselinoyl-[acp]	cp
CPD-15668	4-cis-undecenoyl-CoA	cp
Charged-PHE-tRNAs	an L-phenylalanyl-[tRNAPhe]	c
CARBAMYUL-L-ASPARTATE	N-carbamoyl-L-aspartate	cp
ACETOIN	acetoin	c
CPD-9406	(2S)-ethylmalonyl-CoA	c
CPD-209	UDP-N-acetyl-&alpha;-D-muramoyl-L-alanyl-&gamma;-D-glutamyl-L-lysine	c
GLY	glycine	cp
4-AMINO-4-DEOXYCHORISMATE	4-amino-4-deoxychorismate	cp
2K-4CH3-PENTANOATE	4-methyl-2-oxopentanoate	cp
GLY-tRNAs	a tRNAGly	c
SUCC-S-ALD	succinate semialdehyde	cp
CPD-645	5-dehydro-2-deoxy-D-gluconate 6-phosphate	p
CPD-19162	(2E,9Z)-hexadecenoyl-CoA	p
VERY-LONG-CHAIN-FATTY-ACYL-COA	a very long chain fatty acyl-CoA	p
Kanamycins	a kanamycin	c
COB-I-ALAMIN	cob(I)alamin	c
HEXANOYL-COA	hexanoyl-CoA	cp
TETRACHLOROHYDROQUINONE	2,3,5,6-tetrachlorohydroquinone	c
CPD-9871	6-methoxy-3-methyl-2-all-trans-decaprenyl-1,4-benzoquinol	p
CPD-3709	guanosine 2',3'-cyclic monophosphate	c
DEOXYGUANOSINE	2'-deoxyguanosine	cp
DNA-N	DNAn	cp
CPD-381	(S)-2-hydroxyglutarate	c
INDOLE_ACETATE_AUXIN	(indol-3-yl)acetate	p
PHE-tRNAs	a tRNAPhe	p
4-AMINO-BUTYRATE	4-aminobutanoate	cp
CPD-19163	(2E,11Z)-octadecenoyl-CoA	p
DNA-Adjacent-Pyrimidines	two adjacent pyrimidine nucleosides in DNA	p
SORBITOL	D-sorbitol	cp
GLYCERALD	D-glyceraldehyde	p
4-NITROANILINE	4-nitroaniline	p
CPD-649	sphinganine 1-phosphate	p
GLT	L-glutamate	cp
THMPT	tetrahydromethanopterin	p
Trans-D2-decenoyl-ACPs	a (2E)-dec-2-enoyl-[acp]	p
CPD-9923	(1R,6R)-6-hydroxy-2-succinylcyclohexa-2,4-diene-1-carboxylate	c
ETOH	ethanol	cp
LEUKOTRIENE-C4	leukotriene-C4	c
TRANS-D2-ENOYL-COA	a (2E)-alkan-2-enoyl-CoA	p
GLT-tRNAs	a tRNAglu	p
CPD-734	(-)-jasmonate	p
4-CARBOXYMETHYLENEBUT-2-EN-4-OLIDE	cis-dienelactone	c
ANTHRANILATE	anthranilate	cp
UREA	urea	p
CPD-3711	cytidine-3'-monophosphate	cp
L-BETA-ASPARTYL-P	L-aspartyl-4-phosphate	cp
CPD-19167	3-oxo-(7Z)-hexadecenoyl-CoA	c
L-1-GLYCEROPHOSPHORYLETHANOL-AMINE	sn-glycero-3-phosphoethanolamine	c
CPD-578	urea-1-carboxylate	c
Single-Stranded-DNAs	a single stranded DNA	cp
DNA-Combined-With-Exogenous-DNA	DNA combined with exogenous DNA to form a recombinational junction	c
CPD-7601	(2S)-lactyl-2-diphospho-5'-guanosine	cp
FERRICYTOCHROME-B5	a ferricytochrome b5	p
L-CITRULLINE	L-citrulline	c
APS	adenosine 5'-phosphosulfate	cp
DNA-Cytidines	a 2'-deoxycytidine in DNA	p
GLYCERATE	D-glycerate	cp
CPD-15661	2-trans, 4-trans-undecadienoyl-CoA	p
CPD-9925	1,4-dihydroxy-2-naphthoyl-CoA	p
CPD-4211	dimethylallyl diphosphate	cp
DIACYLGLYCEROL	a 1,2-diacyl-sn-glycerol	c
THR	L-threonine	cp
FERROCYTOCHROME-B5	a ferrocytochrome b5	c
CPD-19169	3-oxo-(9Z)-octadecenoyl-CoA	c
THR-tRNAs	a tRNAThr	c
ETR-Quinols	an electron-transfer quinol	cp
Triacylglycerols	a triacyl-sn-glycerol	p
5-10-METHENYL-THF-GLU-N	a 5,10-methenyltetrahydrofolate	cp
3-Oxo-octanoyl-ACPs	a 3-oxo-octanoyl-[acp]	cp
ETR-Quinones	an electron-transfer quinone	cp
SPERMIDINE	spermidine	cp
DNA-Cytosines	a cytosine in DNA	c
L-1-PHOSPHATIDYL-GLYCEROL	an L-1-phosphatidyl-sn-glycerol	c
Soluble-Heteroglycans	a plant soluble heteroglycan	cp
HX	HX	p
GLYCEROL	glycerol	cp
CPD-7602	7,8-didemethyl-8-hydroxy-5-deazariboflavin	c
DIHYDROXYNAPHTHOATE	2-carboxy-1,4-naphthoquinol	c
L-1-PHOSPHATIDYL-GLYCEROL-P	1-(3-sn-phosphatidyl)-sn-glycerol 3-phosphate	p
HYDANTOIN	hydantoin	cp
CPD-9956	ubiquinol-8	p
DGDP	dGDP	cp
CPD-667	O-acetyl-L-homoserine	cp
CPD-3713	cytidine 2',3'-cyclic monophosphate	c
L-CYSTATHIONINE	L-cystathionine	cp
CPD-19170	(2E,7Z)-hexadecenoyl-CoA	p
TusE-L-cysteine	a [TusE sulfur carrier protein]-L-cysteine	p
L-1-phosphatidyl-inositols	a 1-phosphatidyl-1D-myo-inositol	c
URIDINE	uridine	cp
PHOSPHORIBOSYL-AMP	1-(5-phospho-&beta;-D-ribosyl)-AMP	cp
TusE-S-sulfanylcysteine	a [TusE sulfur carrier protein]-S-sulfanylcysteine	c
5-AMINO-LEVULINATE	5-aminolevulinate	cp
COBINAMIDE	cobinamide	c
CPD-5821	(S)-2-oxo-4-hydroxy-4-carboxy-5-ureidoimidazoline	p
3-P-HYDROXYPYRUVATE	3-phosphooxypyruvate	cp
HG+2	Hg2+	cp
DEOXYINOSINE	2'-deoxyinosine	cp
4-CYTIDINE-5-DIPHOSPHO-2-C	4-(cytidine 5'-diphospho)-2-C-methyl-D-erythritol	cp
THF-GLU-N	a tetrahydrofolate	cp
GLYCEROL-3P	sn-glycerol 3-phosphate	cp
CPD-448	&beta;-D-glucopyranose 1-phosphate	cp
GERANYLGERANYL-PP	geranylgeranyl diphosphate	p
THREO-DS-ISO-CITRATE	D-threo-isocitrate	cp
2-Oxo-carboxylates	a 2-oxo carboxylate	c
ASN	L-asparagine	c
CPD-19172	(2E,9Z)-octadecenoyl-CoA	p
4-PHOSPHONOOXY-THREONINE	4-phosphooxy-L-threonine	cp
CPD-9965	icosanoyl-CoA	cp
TRP	L-tryptophan	cp
Negatively-super-coiled-DNAs	a negatively supercoiled DNA	cp
HYDROGEN-PEROXIDE	hydrogen peroxide	cp
PHOSPHORIBOSYL-ATP	1-(5-phospho-&beta;-D-ribosyl)-ATP	cp
CD-S-SP-Complex	a [cysteine desulfurase]-S-sulfanyl-[disordered-form scaffold protein] complex	c
CPD-67	2-phosphoglycolate	c
CPD-3724	uridine 3'-monophosphate	cp
4-FUMARYL-ACETOACETATE	4-fumaryl-acetoacetate	c
Beta-D-glucosides	a &beta;-D glucoside	c
L-5-Monosubstituted-Hydantoins	an L-5-monosubstituted hydantoin	cp
FMN	FMN	cp
DIAMINO-OH-PHOSPHORIBOSYLAMINO-PYR	2,5-diamino-6-(5-phospho-D-ribosylamino)pyrimidin-4(3H)-one	c
3-P-SERINE	3-phospho-L-serine	cp
Very-long-chain-fatty-acids	a very-long-chain fatty acid	c
CPD-672	(S)-3-aminobutanoyl-CoA	cp
URIDYLYL-PROTEIN-PII	a uridylylated PII protein	p
UDP	UDP	cp
Sphingoid-1-phosphates	a sphingoid 1-phosphate	p
CPD-5881	(6R)-4a-hydroxy-tetrahydrobiopterin	c
CPD-7671	methanethiol	c
GLC	&beta;-D-glucopyranose	cp
4-hydroxybenzoate	4-hydroxybenzoate	p
Light	h&nu;	c
Cyanophycin	cyanophycin	c
UDP-AA-GLUTAMATE	UDP-N-acetyl-&alpha;-D-muramoyl-L-alanyl-D-glutamate	cp
L-ALPHA-ALANINE	L-alanine	cp
LINOLEIC_ACID	linoleate	c
TRP-tRNAs	a tRNATrp	c
CPD-7695	ditrans,octacis-undecaprenyldiphospho-N-acetyl-(N-acetyl-&beta;-D-glucosaminyl)muramoyl-L-alanyl-&gamma;-D-glutamyl-L-lysyl-D-alanyl-D-alanine	p
CPD-19395	&gamma;-L-glutamyl-glycylglycine	p
TREHALOSE	&alpha;,&alpha;-trehalose	cp
2-PG	2-phospho-D-glycerate	cp
Sphingoids	a sphingoid base	c
FMNH2	FMNH2	p
Linear-Malto-Oligosaccharides	a linear malto-oligosaccharide	cp
TREHALOSE-6P	&alpha;,&alpha;-trehalose 6-phosphate	p
Cyclic-2-3-Ribonucleoside-Monophosphates	a ribonucleoside 2',3'-cyclic phosphate	c
CDP	CDP	cp
CPD-8180	DNA with lesion	c
CPD0-1027	a debranched &alpha;-limit dextrin	c
3-PHENYLPROPIONATE	3-phenylpropanoate	p
PROTOPORPHYRINOGEN	protoporphyrinogen IX	c
INOSINE	inosine	cp
2-PHOSPHO-4-CYTIDINE-5-DIPHOSPHO-2-C-MET	2-phospho-4-(cytidine 5'-diphospho)-2-C-methyl-D-erythritol	cp
CPD0-1081	N-acetyl-&beta;-D-glucosamine-1,6-anhydro-N-acetyl-&beta;-D-muramate	c
LysW-L-glutamate-5-phosphate	a [2-aminoadipate carrier protein]-L-glutamate 5-phosphate	cp
L-SELENOCYSTEINE	L-selenocysteine	p
FORMYL-L-METHIONYL-PEPTIDE	a [protein] N-terminal-formyl-L-methionine	c
DNA-Segment-Placeholder	a DNA segment	cp
LysW-L-glutamate-5-semialdehyde	a [2-aminoadipate carrier protein]-L-glutamate 5-semialdehyde	cp
CPD-17047	3-benzyl-3,6 -bis(cysteinylglycine)- 6-(hydroxymethyl)-diketopiperazine	c
CPD-320	ethylnitronate	c
PANTETHEINE-P	4'-phosphopantetheine	cp
N-ACETYL-GLUTAMYL-P	N-acetylglutamyl-phosphate	cp
FORMYL-THF-GLU-N	an N10-formyl-tetrahydrofolate	cp
TUM1-L-cysteine	a [3-mercaptopyruvate sulfurtransferase]-L-cysteine	cp
D-5-Monosubstituted-Hydantoins	a D-5-monosubstituted hydantoin	cp
NIACINAMIDE	nicotinamide	c
23S-rRNA-2-methyladenine2503	a 2-methyladenine2503 in 23S rRNA	p
GLYCOLLATE	glycolate	p
D-6-P-GLUCONO-DELTA-LACTONE	6-phospho D-glucono-1,5-lactone	cp
Hepta-oxo-hexadecanoyl-ACPs	a 3,5,7,9,11,13,15-hepta-oxo-hexadecanoyl-[PKS-acp]	c
DNA-Segment-in-Reverse-Orientations	a DNA segment in reverse orientation	cp
DEHYDROQUINATE	3-dehydroquinate	cp
3-HYDROXY-PROPIONATE	3-hydroxypropanoate	p
TUM1-S-sulfanylcysteine	a [3-mercaptopyruvate sulfurtransferase]-S-sulfanyl-L-cysteine	cp
Glycogens	a glycogen	cp
Fatty-Acids	a fatty acid	p
LysW-L-ornithine	a [2-aminoadipate carrier protein]-L-ornithine	cp
CPD-17048	3-benzyl-3,6 -bis(cysteinyl)- 6-(hydroxymethyl)-diketopiperazine	p
N-Hydroxy-Arylamines	an N-hydroxy-arylamine	c
TYR	L-tyrosine	c
23S-rRNA-adenine-2503	adenine2503 in 23S rRNA	c
UMP	UMP	cp
D-ALA-D-ALA	D-alanyl-D-alanine	cp
CPD0-2015	N-acetyl-L-methionine	p
CIT	citrate	cp
Lysidine-tRNA-Ile2	a lysidine34 in tRNAIle2	p
Hexanoyl-ACPs	a hexanoyl-[acyl-carrier-protein]	c
PROT-CYS	a [protein]-L-cysteine	c
DNA-With-GO-A-Mismatch	DNA with adenine:7,8-dihydro-8-oxoguanine mismatch	c
2-HYDROXY-2-METHYLPROPANENITRILE	2-hydroxy-2-methylpropanenitrile	cp
3-DEOXY-D-ARABINO-HEPTULOSONATE-7-P	3-deoxy-D-arabino-heptulosonate 7-phosphate	cp
TYR-tRNAs	a tRNATyr	c
DEAMIDO-NAD	nicotinate adenine dinucleotide	cp
DIHYDROLIPOYL-GCVH	a [glycine-cleavage complex H protein] N6-dihydrolipoyl-L-lysine	cp
DIHYDRONEOPTERIN-P3	7,8-dihydroneopterin 3'-triphosphate	cp
25-DIDEHYDRO-D-GLUCONATE	2,5-didehydro-D-gluconate	cp
N-SUCCINYL-2-AMINO-6-KETOPIMELATE	N-succinyl-2-amino-6-ketopimelate	cp
CPD-17063	ferroheme o	p
L-THREO-3-METHYL-ASPARTATE	(2S, 3S)-3-methylaspartate	cp
DUDP	dUDP	cp
UTP	UTP	cp
CPD-323	cholest-4-en-3-one	p
CPD-15895	aldehydo-D-ribose 5-phosphate	c
NIACINE	nicotinate	cp
MAL	(S)-malate	cp
PHENYL-PYRUVATE	keto-phenylpyruvate	cp
H2CO3	carbonic acid	cp
PRISTANATE	pristanate	c
CPD0-2030	glycerophosphoserine	c
FRU1P	&beta;-D-fructofuranose 1-phosphate	c
DAMP	dAMP	p
PHENYLACETALDEHYDE	phenylacetaldehyde	cp
All-trans-Retinyl-Esters	an all-trans-retinyl ester	c
Damaged-DNA-Pyrimidine	a damaged DNA pyrimidine	c
DELTA1-PIPERIDEINE-2-6-DICARBOXYLATE	(S)-2,3,4,5-tetrahydrodipicolinate	cp
GAP	D-glyceraldehyde 3-phosphate	cp
L-arabinopyranose	Unknown	cp
CPD-159	(S)-5-amino-3-oxohexanoate	cp
D-ALANINE	D-alanine	cp
N-SUCCINYLLL-2-6-DIAMINOPIMELATE	N-succinyl-L,L-2,6-diaminopimelate	cp
CPD-15975	D-cellobiose	cp
L-glutamyl-tRNAGln	an L-glutamyl-[tRNAGln]	c
Alpha-D-Galactosides	an &alpha;-D-galactoside	c
FRUCTOSE-16-DIPHOSPHATE	&beta;-D-fructose 1,6-bisphosphate	cp
CPD0-2105	3-oxododecanoyl-CoA	cp
CPD-15978	D-cellobiose 6'-phosphate	c
CPD-335	(R)-3-hydroxybutanoate	cp
CPD-690	adenosyl-cobyrinate a,c-diamide	p
Decanoyl-ACPs	a decanoyl-[acp]	c
16-HYDROXYPALMITATE	16-hydroxypalmitate	c
CPD-173	salicyl alcohol	p
PANTOTHENATE	(R)-pantothenate	p
GTP	GTP	cp
CPD-17312	docosahexaenoyl-CoA	p
L-leucyl-L-arginyl-Protein	a [protein] N-terminal L-leucyl-L-arginine	p
ACP	a holo-[acyl-carrier protein]	cp
FRUCTOSE-6P	&beta;-D-fructofuranose 6-phosphate	cp
CPD-15979	D-mannopyranose 6-phosphate	cp
Ubiquinols	an ubiquinol	cp
CPD-3617	decanoate	c
MALONATE-S-ALD	3-oxopropanoate	cp
2C-METH-D-ERYTHRITOL-CYCLODIPHOSPHATE	2-C-methyl-D-erythritol-2,4-cyclodiphosphate	cp
CPD0-2106	3-oxooctanoyl-CoA	cp
L-leucyl-L-lysyl-Protein	a [protein] N-terminal L-leucyl-L-lysine	p
PHENYLACETATE	phenylacetate	cp
ACRYLYL-COA	acryloyl-CoA	p
N-Substituted-Amino-Acids	an N-modified amino acid	p
Delta4-hexadecenoyl-ACPs	a (4Z)-hexadec-4-enoyl-[acp]	c
HCN	hydrogen cyanide	c
DELTA3-ISOPENTENYL-PP	isopentenyl diphosphate	cp
Ubiquinones	a ubiquinone	cp
L-methionyl-L-alanyl-Protein	an N-terminal-L-methionyl-L-alanyl-[protein]	c
CPD-17365	(4Z,7Z,10Z,13Z,16Z)-docosapentaenoyl-CoA	p
3-Hydroxy-Terminated-DNAs	a [DNA]-3'-hydroxyl	c
N-Substituted-Aminoacyl-tRNA	an N-modified aminoacyl-[tRNA]	c
DNA-containing-a-Apyrimidinic-Sites	an apyrimidinic site in DNA	p
PRO	L-proline	cp
L-methionyl-L-cysteinyl-Protein	an N-terminal-L-methionyl-L-cysteinyl-[protein]	c
L-methionyl-L-seryl-Protein	an N-terminal-L-methionyl-L-seryl-[protein]	c
PRO-tRNAs	a tRNAPro	c
N-acetyl-D-glucosamine	N-acetyl-D-glucosamine	p
GLYCYLGLYCINE	glycyl-glycine	c
N-ALPHA-ACETYLORNITHINE	N-acetyl-L-ornithine	cp
UNDECAPRENYL-DIPHOSPHATE	di-trans,octa-cis-undecaprenyl diphosphate	cp
L-methionyl-L-threonyl-Protein	an N-terminal-L-methionyl-L-threonyl-[protein]	c
3-ENOLPYRUVYL-SHIKIMATE-5P	5-enolpyruvoyl-shikimate 3-phosphate	cp
Unfolded-Proteins	an unfolded protein	cp
D-ERYTHRO-IMIDAZOLE-GLYCEROL-P	D-erythro-imidazole-glycerol-phosphate	cp
L-methionyl-L-valyl-Protein	an N-terminal-L-methionyl-L-valyl-[protein]	c
CPD-3618	2-oxovalerate	p
FARNESYL-PP	(2E,6E)-farnesyl diphosphate	c
3-Hydroxy-octanoyl-ACPs	a (3R)-3-hydroxyoctanoyl-[acp]	p
NALPHANALPHA-DIMETHYL-L-HISTIDINE	N&alpha;,N&alpha;-dimethyl-L-histidine	cp
L-methionyl-glycyl-Protein	an N-terminal-L-methionyl-glycyl-[protein]	c
FUM	fumarate	cp
CPD-17370	18-hydroxyoleoyl-CoA	p
L-methionyl-tRNAfmet	an L-methionyl-[initiator tRNAMet]	cp
3-HYDROXY-3-METHYL-GLUTARYL-COA	(S)-3-hydroxy-3-methylglutaryl-CoA	c
Unspecified-Degradation-Products	[unspecified degradation products]	p
2-KETO-3-DEOXY-6-P-GLUCONATE	2-dehydro-3-deoxy-D-gluconate 6-phosphate	cp
D-GLT	D-glutamate	cp
CPD0-2108	(2E)-oct-2-enoyl-CoA	p
CHOLESTEROL	cholesterol	c
CDP-2-3-4-Saturated-Diacylglycerols	a CDP-2,3,4-saturated-diacylglycerol	p
Odd-Saturated-Fatty-Acyl-CoA	an odd numbered straight chain 2,3,4-saturated fatty acyl CoA	p
OH-PYR	hydroxypyruvate	cp
CPD-14673	3-phenylpropionitrile	c
Protein-L-lysine	a [protein]-L-lysine	p
HYDROQUINONE	hydroquinone	p
Odd-Straight-Chain-234-Sat-FA	an odd numbered straight chain 2,3,4-saturated fatty acid	c
C5	undecaprenyldiphospho-N-acetylmuramoyl-L-alanyl-&gamma;-D-glutamyl-meso-2,6-diaminopimeloyl-D-alanyl-D-alanine	cp
S-ADENOSYLMETHIONINAMINE	S-adenosyl 3-(methylthio)propylamine	cp
CPD-10637	2,5-dichloromaleylacetate	p
CPD-17637	7-hydroxylaurate	c
ADP	ADP	cp
Oleoyl-ACPs	an oleoyl-[acp]	c
DNA-containing-aPurinic-Sites	an apurinic site within DNA	p
CPD-1181	salicin 6-phosphate	c
Gcv-H	[glycine cleavage system lipoyl-carrier protein]-L-lysine	c
General-Protein-Substrates	a protein	cp
C6	ditrans,octacis-undecaprenyldiphospho-[(N-acetyl-&beta;-D-glucosaminyl)-(1,4)-]-N-acetyl-&alpha;-D-muramoyl-L-alanyl-&gamma;-D-glutamyl-meso-2,6-diaminopimeloyl-D-alanyl-D-alanine	cp
Oleoyl-lipid	a [glycerolipid]-oleate	c
RNA-DNA-hybrids	a RNA-DNA hybrid	c
HIS	L-histidine	cp
CPD3DJ-11366	sphingosine 1-phosphate	p
5-DEHYDROGLUCONATE	5-dehydro-D-gluconate	c
Protein-L-serine-or-L-threonine	a [protein]-(L-serine/L-threonine)	cp
LINOLENIC_ACID	&alpha;-linolenate	c
HIS-tRNAs	a tRNAHis	c
CPD-14675	pristanoyl-CoA	p
PHOSPHORIBOSYL-CARBOXY-AMINOIMIDAZOLE	5-amino-1-(5-phospho-D-ribosyl)imidazole-4-carboxylate	cp
Gln-B	a PII protein	c
CPD-1067	(3S,5S)-3,5-diaminohexanoate	c
S-ADENOSYLMETHIONINE	S-adenosyl-L-methionine	cp
CPD-12575	UDP-&alpha;-D-glucose	cp
METHIONYL-PEPTIDE	an N-terminal L-methionyl-[protein]	p
ADENINE	adenine	cp
CPD-17638	7-hydroxylauroyl-CoA	p
Red-Thioredoxin	a reduced thioredoxin	cp
a-2-oxoglutarate-dehydrogenase-E2-protei	a [2-oxoglutarate-dehydrogenase E2 protein] N6-octanoyl-L-lysine	c
CDPDIACYLGLYCEROL	a CDP-diacylglycerol	cp
RNA-Holder	a ribonucleic acid	cp
DNA-Holder	DNA	p
DNA-containing-abasic-Sites	a DNA containing an apurinic/apyrimidinic site	c
CPD-11975	1-O-(2-acetamido-2-deoxy-&alpha;-D-glucopyranosyl)-1D-myo-inositol 3-phosphate	p
16S-rRNA-N2-methylguanine966	an N2-methylguanine966 in 16S rRNA	p
ADP-D-GLUCOSE	ADP-&alpha;-D-glucose	p
Oligonucleotides	an oligonucleotide	c
a-double-stranded-DNA-with-a-blunt-end	a Chi-site containing double stranded DNA with a blunt end	c
Glucopyranose	D-glucopyranose	cp
ALA-tRNAs	a tRNAAla	c
CPD66-21	leukotriene-D4	cp
CPD0-2499	methyl &beta;-D-glucoside 6-phosphate	c
B-ALANINE	&beta;-alanine	cp
S-ALLANTOIN	(S)-(+)-allantoin	c
5Z-tetradec-5-enoyl-ACPs	a (5Z)-tetradec-5-enoyl-[acp]	c
CPD-14704	4-hydroxy-2-nonenal-glutathione conjugate	p
16S-rRNA-N4-methylcytidine1402	an N4-methylcytidine1402  in 16S rRNA	p
CPD-17640	18-hydroxystearate	c
Reduced-2-4Fe-4S-Ferredoxins	a reduced 2[4Fe-4s] ferredoxin	c
Reduced-2Fe-2S-Ferredoxins	a reduced [2Fe-2S] ferredoxin	c
Folates	a folate	c
CPD0-2500	p-nitrophenyl-&alpha;-D-galactopyranoside	c
RNASE-III-MRNA-PROCESSING-SUBSTRATE	RNase III mRNA processing substrate	c
AMINOMETHYLDIHYDROLIPOYL-GCVH	a [glycine-cleavage complex H protein] N6-aminomethyldihydrolipoyl-L-lysine	cp
Reduced-CycA1-cytochromes	a reduced CycA1 cytochrome	c
16S-rRNA-N7-methylguanine527	an N7-methylguanine527 in 16S rRNA	p
ACETYL-ACP	an acetyl-[acp]	c
a-pyruvate-dehydrogenase-E2-protein-Nsup	a [pyruvate dehydrogenase E2 protein] N6-octanoyl-L-lysine	c
RNASE-III-PROCESSING-PRODUCT-MRNA	RNase III processing product mRNA	p
Reduced-Factor-F420	a reduced coenzyme F420	cp
CPD-14736	L-kynurenine	c
a-radical-of-luteolin-7-iOi-diglucuronid	a radical of luteolin-7-O-diglucuronide	p
CPD66-39	a 2,3,4-saturated fatty acid	c
CPD-12634	(glutathion-S-yl)(1H-indol-3-yl)acetonitrile	p
Protein-N-terminal-L-Arginine	an N-terminal arginyl-[protein]	c
CPD-121	(R)-mandelate	c
16S-rRNA-cytidine1402	a cytidine1402 in 16S rRNA	c
LINOLENOYL-COA	&alpha;-linolenoyl-CoA	p
CPD0-2501	N-monoacetylchitobiose 6'-phosphate	c
HYDROXY-METHYL-BUTENYL-DIP	(E)-4-hydroxy-3-methylbut-2-en-1-yl diphosphate	p
MESO-DIAMINOPIMELATE	meso-diaminopimelate	cp
CPD-12112	salicyloyl-CoA	c
P3I	PPPi	p
3-Phosphomonucleotides	a ribonucleoside 3'-phosphate	cp
5-HYDROXYISOURATE	(S)-5-hydroxyisourate	c
SUCROSE	sucrose	p
CPD-17641	18-hydroxystearoyl-CoA	p
P-RIBOSYL-4-SUCCCARB-AMINOIMIDAZOLE	5'-phosphoribosyl-4-(N-succinocarboxamide)-5-aminoimidazole	cp
16S-rRNA-guanine-527	a guanine527 in 16S rRNA	c
OLEATE-CPD	oleate	c
G3P	3-phospho-D-glycerate	cp
CPD-12115	demethylmenaquinol-8	p
Protein-N-terminal-L-Lysine	an N-terminal L-lysyl-[protein]	c
apo-ACP	an apo-[acyl-carrier protein]	p
MET	L-methionine	cp
Reduced-NrdH-Proteins	a reduced NrdH glutaredoxin-like protein	c
QXC-ACP	a quinoxaline-2-carboxyl-[acyl-carrier protein]	p
DNA-deoxycytidine-dimer	a dimer of non-adjacent 2'-deoxycytidines in DNA	c
ATP	ATP	cp
6-AMINOPENICILLANATE	6-aminopenicillanate	cp
PROTOPORPHYRIN_IX	protoporphyrin IX	cp
B-KETOACYL-ACP	a 3-oxoacyl-[acp]	cp
METHYL-GLYOXAL	methylglyoxal	c
16S-rRNA-guanine-966	a guanine966 in 16S rRNA	c
ACETYL-COA	acetyl-CoA	cp
b-Hydroxy-cis-D5-dodecenoyl-ACPs	a (3R,5Z)-3-hydroxy-dodec-5-enoyl-[acp]	p
Protein-N-terminal-L-threonine	an N-terminal L-threonyl-[protein]	p
CPD-14018	icosapentaenoyl-CoA	p
CPD-18	linoleoyl-CoA	p
CHORISMATE	chorismate	cp
18-HYDROXYOLEATE	18-hydroxyoleate	c
ADENOSINE	adenosine	cp
CPDQT-27	6-(methylthio)-2-oxohexanoate	p
CPD-14925	(3Z)-dec-3-enoyl-CoA	p
CPD-12676	5'-chloro-5'-deoxyadenosine	c
b-Keto-cis-D5-dodecenoyl-ACPs	a (5Z)-3-oxo-dodec-5-enoyl-[acp]	cp
CPD0-882	1,6-anhydro-N-acetyl-&beta;-muramate	p
Glutamine-synthetase-Tyr	a [glutamine-synthetase]-L-tyrosine	c
Glutamine-synthetase-adenylyl-Tyr	a [glutamine synthetase]-O4-(5'-adenylyl)-L-tyrosine	p
HYDROXYMETHYLBILANE	preuroporphyrinogen	c
5-L-GLUTAMYL-AMINO-ACID	an &alpha;-(5-L-glutamyl)-amino acid	p
tRNA-fragment	a tRNA fragment	p
THYMIDINE	thymidine	cp
BENZENE	benzene	p
ADENOSINE_DIPHOSPHATE_RIBOSE	ADP-D-ribose	c
CAMP	cyclic-AMP	p
5-L-GLUTAMYL-L-AMINO-ACID	an &alpha;-(&gamma;-L-glutamyl)-L-amino acid	p
CPD-14927	phytenate	c
PHOSPHORIBOSYL-FORMAMIDO-CARBOXAMIDE	5-formamido-1-(5-phospho-D-ribosyl)-imidazole-4-carboxamide	cp
biotin-L-lysine-in-BCCP-dimers	a [biotin carboxyl-carrier-protein dimer]-N6-biotinyl-L-lysine	p
Glutaryl-ACP-methyl-esters	a glutaryl-[acp] methyl ester	c
OLEOYL-COA	oleoyl-CoA	cp
CPDQT-28	7-(methylthio)-2-oxoheptanoate	p
Protein-Ser-or-Thr-phosphate	a [protein] (L-serine/L-threonine) phosphate	cp
3-UREIDO-ISOBUTYRATE	3-(carbamoylamino)-2-methylpropanoate	cp
RX	RX	c
Reduced-ferredoxins	a reduced ferredoxin [iron-sulfur] cluster	cp
CANAVANINE	L-canavanine	p
5-L-GLUTAMYL-PEPTIDE	a 5-L-glutamyl-[peptide]	c
Protein-Tyrosines	a [protein]-L-tyrosine	p
Quinones	a quinone	c
OLIGOPEPTIDES	an oligopeptide	c
Orthophosphoric-Monoesters	a phosphate monoester	c
PHOSPHORIBOSYL-FORMIMINO-AICAR-P	1-(5-phospho-&beta;-D-ribosyl)-5-[(5-phosphoribosylamino)methylideneamino]imidazole-4-carboxamide	cp
3-UREIDO-PROPIONATE	3-ureidopropanoate	cp
CPD-14928	phytenoyl-CoA	p
carboxybiotin-L-lysine-in-BCCP-dimers	a [carboxyl-carrier protein dimer]-N6-carboxybiotinyl-L-lysine	c
CPD0-971	an &alpha;-limit dextrin	p
LL-DIAMINOPIMELATE	L,L-diaminopimelate	cp
BARBITURATE	barbiturate	c
5-METHYL-THF-GLU-N	a 5-methyltetrahydrofolate	c
CPDQT-29	8-(methylthio)-2-oxooctanoate	p
CPD-12677	5-chloro-5-deoxyribose 1-phosphate	p
cis-19-CP-37-Mex-38-Me-C59-ACPs	a cis-methoxy-C59-meroacyl-[acp]	p
R-2-Haloacids	an (R)-2-haloacid	c
CPD1F-2	(-)-methyl jasmonate	c
Protein-With-N-Terminal-Met	a peptide with an N-terminal L-methionine	c
Relaxed-DNAs	a relaxed DNA	cp
R-2-Hydroxyacids	an (R)-2-hydroxyacid	p
Protein-With-N-Terminal-Pro	a peptide with an N-terminal L-proline	p
AMMONIUM	ammonium	cp
METHYL-MALONYL-COA	(R)-methylmalonyl-CoA	cp
cis-21-CP-39-keto-40-Me-C60-ACPs	a cis-keto-C60-meroacyl-[acp]	p
ARSENATE	arsenate	c
SE-2	selenide	c
CPD-14202	L-erythro-7,8-dihydrobiopterin	p
Protein-With-N-Terminal-X-Pro	a peptide with an N-terminal X-L-proline	c
CPD-18346	cis-vaccenoyl-CoA	cp
5-METHYLTHIOADENOSINE	S-methyl-5'-thioadenosine	cp
cis-5-enoyl-CoA	a (5Z)-alkan-5-enoyl-CoA	c
CPDQT-30	9-(methylthio)-2-oxononanoate	p
DNA-deoxycytidine-thymidine-dimer	a dimer of non-adjacent 2'-deoxycytidine and thymidine in DNA	c
BCAA-dehydrogenase-2MB-DH-lipoyl	an [apo BCAA dehydrogenase E2 protein] N6-S-[2-methylbutanoyl]dihydrolipoyl-L-lysine	cp
BCAA-dehydrogenase-2MP-DH-lipoyl	an [apo BCAA dehydrogenase E2 protein] N6-S-[2-methylpropanoyl]dihydrolipoyl-L-lysine	cp
CPD-12703	gentisyl-CoA	p
cis-D19-37-MOH-38-Me-C57-1-ACPs	a cis-delta19-37-methoxy-38-methyl-C57:1-[acp]	c
CPD-14931	a 10-formyltetrahydrofolate-4a-carbinolamine	c
5-Methylcytosine-DNA	a 5-methylcytosine in DNA	p
Retinols	a retinol	p
CPD-15015	4-hydroxy-2-oxoglutarate	cp
