{
    "alternative_symbionts": [
        "Root50",
        "Root1298",
        "Root16D2",
        "Root656",
        "Root401",
        "Root1304",
        "Root1294",
        "Root224",
        "Root73",
        "Root214",
        "Root491",
        "Root31",
        "Root258",
        "Root369",
        "Root1203",
        "Root411",
        "Root1238",
        "Root239",
        "Root142",
        "Root343",
        "Root434",
        "Root329",
        "Root154",
        "Root473",
        "Root418",
        "Root1312",
        "Root708",
        "Root342",
        "Root1252",
        "Root187",
        "Root1334",
        "Root102",
        "Root954",
        "Root351",
        "Root487D2Y",
        "Root423",
        "Root157",
        "Root147",
        "Root100",
        "Root562",
        "Root66D1",
        "Root569",
        "Root1485",
        "Root274",
        "Root55",
        "Root198D2",
        "Root127",
        "Root482",
        "Root107",
        "Root614",
        "Root682",
        "Root1220",
        "Root720",
        "Root431",
        "Root68",
        "Root336D2",
        "Root172",
        "Root1295",
        "Root1472",
        "Root1455",
        "Root63",
        "Root483D2",
        "Root231",
        "Root1212",
        "Root558",
        "Root1221",
        "Root74",
        "Root1480D1",
        "Root9",
        "Root318D1",
        "Root335",
        "Root133",
        "Root1310",
        "Root1204",
        "Root268",
        "Root1240",
        "Root651",
        "Root149",
        "Root29",
        "Root71",
        "Root1257",
        "Root278"
    ],
    "bacteria": [
        "Root1480D1"
    ],
    "enum_bacteria": {
        "1": [
            "Root1480D1"
        ],
        "2": [
            "Root29"
        ],
        "3": [
            "Root1472"
        ],
        "4": [
            "Root682"
        ],
        "5": [
            "Root614"
        ],
        "6": [
            "Root656"
        ],
        "7": [
            "Root1238"
        ],
        "8": [
            "Root16D2"
        ],
        "9": [
            "Root434"
        ],
        "10": [
            "Root411"
        ],
        "11": [
            "Root1221"
        ],
        "12": [
            "Root1257"
        ],
        "13": [
            "Root224"
        ],
        "14": [
            "Root335"
        ],
        "15": [
            "Root50"
        ],
        "16": [
            "Root1294"
        ],
        "17": [
            "Root1455"
        ],
        "18": [
            "Root487D2Y"
        ],
        "19": [
            "Root720"
        ],
        "20": [
            "Root336D2"
        ],
        "21": [
            "Root198D2"
        ],
        "22": [
            "Root318D1"
        ],
        "23": [
            "Root473"
        ],
        "24": [
            "Root342"
        ],
        "25": [
            "Root343"
        ],
        "26": [
            "Root491"
        ],
        "27": [
            "Root1240"
        ],
        "28": [
            "Root274"
        ],
        "29": [
            "Root214"
        ],
        "30": [
            "Root154"
        ],
        "31": [
            "Root651"
        ],
        "32": [
            "Root55"
        ],
        "33": [
            "Root351"
        ],
        "34": [
            "Root418"
        ],
        "35": [
            "Root1220"
        ],
        "36": [
            "Root100"
        ],
        "37": [
            "Root1203"
        ],
        "38": [
            "Root431"
        ],
        "39": [
            "Root1485"
        ],
        "40": [
            "Root133"
        ],
        "41": [
            "Root187"
        ],
        "42": [
            "Root708"
        ],
        "43": [
            "Root66D1"
        ],
        "44": [
            "Root1304"
        ],
        "45": [
            "Root157"
        ],
        "46": [
            "Root107"
        ],
        "47": [
            "Root149"
        ],
        "48": [
            "Root562"
        ],
        "49": [
            "Root1295"
        ],
        "50": [
            "Root9"
        ],
        "51": [
            "Root63"
        ],
        "52": [
            "Root482"
        ],
        "53": [
            "Root147"
        ],
        "54": [
            "Root569"
        ],
        "55": [
            "Root239"
        ],
        "56": [
            "Root68"
        ],
        "57": [
            "Root71"
        ],
        "58": [
            "Root268"
        ],
        "59": [
            "Root1212"
        ],
        "60": [
            "Root401"
        ],
        "61": [
            "Root369"
        ],
        "62": [
            "Root329"
        ],
        "63": [
            "Root1310"
        ],
        "64": [
            "Root172"
        ],
        "65": [
            "Root483D2"
        ],
        "66": [
            "Root102"
        ],
        "67": [
            "Root954"
        ],
        "68": [
            "Root278"
        ],
        "69": [
            "Root231"
        ],
        "70": [
            "Root258"
        ],
        "71": [
            "Root1252"
        ],
        "72": [
            "Root142"
        ],
        "73": [
            "Root423"
        ],
        "74": [
            "Root127"
        ],
        "75": [
            "Root558"
        ],
        "76": [
            "Root31"
        ],
        "77": [
            "Root74"
        ],
        "78": [
            "Root1298"
        ],
        "79": [
            "Root1312"
        ],
        "80": [
            "Root1204"
        ],
        "81": [
            "Root73"
        ],
        "82": [
            "Root1334"
        ]
    },
    "enum_exchanged": {
        "1": [],
        "2": [],
        "3": [],
        "4": [],
        "5": [],
        "6": [],
        "7": [],
        "8": [],
        "9": [],
        "10": [],
        "11": [],
        "12": [],
        "13": [],
        "14": [],
        "15": [],
        "16": [],
        "17": [],
        "18": [],
        "19": [],
        "20": [],
        "21": [],
        "22": [],
        "23": [],
        "24": [],
        "25": [],
        "26": [],
        "27": [],
        "28": [],
        "29": [],
        "30": [],
        "31": [],
        "32": [],
        "33": [],
        "34": [],
        "35": [],
        "36": [],
        "37": [],
        "38": [],
        "39": [],
        "40": [],
        "41": [],
        "42": [],
        "43": [],
        "44": [],
        "45": [],
        "46": [],
        "47": [],
        "48": [],
        "49": [],
        "50": [],
        "51": [],
        "52": [],
        "53": [],
        "54": [],
        "55": [],
        "56": [],
        "57": [],
        "58": [],
        "59": [],
        "60": [],
        "61": [],
        "62": [],
        "63": [],
        "64": [],
        "65": [],
        "66": [],
        "67": [],
        "68": [],
        "69": [],
        "70": [],
        "71": [],
        "72": [],
        "73": [],
        "74": [],
        "75": [],
        "76": [],
        "77": [],
        "78": [],
        "79": [],
        "80": [],
        "81": [],
        "82": []
    },
    "enum_targetsproducers": {
        "1": {
            "M_NIACINE_c": [
                "Root1480D1"
            ]
        },
        "2": {
            "M_NIACINE_c": [
                "Root29"
            ]
        },
        "3": {
            "M_NIACINE_c": [
                "Root1472"
            ]
        },
        "4": {
            "M_NIACINE_c": [
                "Root682"
            ]
        },
        "5": {
            "M_NIACINE_c": [
                "Root614"
            ]
        },
        "6": {
            "M_NIACINE_c": [
                "Root656"
            ]
        },
        "7": {
            "M_NIACINE_c": [
                "Root1238"
            ]
        },
        "8": {
            "M_NIACINE_c": [
                "Root16D2"
            ]
        },
        "9": {
            "M_NIACINE_c": [
                "Root434"
            ]
        },
        "10": {
            "M_NIACINE_c": [
                "Root411"
            ]
        },
        "11": {
            "M_NIACINE_c": [
                "Root1221"
            ]
        },
        "12": {
            "M_NIACINE_c": [
                "Root1257"
            ]
        },
        "13": {
            "M_NIACINE_c": [
                "Root224"
            ]
        },
        "14": {
            "M_NIACINE_c": [
                "Root335"
            ]
        },
        "15": {
            "M_NIACINE_c": [
                "Root50"
            ]
        },
        "16": {
            "M_NIACINE_c": [
                "Root1294"
            ]
        },
        "17": {
            "M_NIACINE_c": [
                "Root1455"
            ]
        },
        "18": {
            "M_NIACINE_c": [
                "Root487D2Y"
            ]
        },
        "19": {
            "M_NIACINE_c": [
                "Root720"
            ]
        },
        "20": {
            "M_NIACINE_c": [
                "Root336D2"
            ]
        },
        "21": {
            "M_NIACINE_c": [
                "Root198D2"
            ]
        },
        "22": {
            "M_NIACINE_c": [
                "Root318D1"
            ]
        },
        "23": {
            "M_NIACINE_c": [
                "Root473"
            ]
        },
        "24": {
            "M_NIACINE_c": [
                "Root342"
            ]
        },
        "25": {
            "M_NIACINE_c": [
                "Root343"
            ]
        },
        "26": {
            "M_NIACINE_c": [
                "Root491"
            ]
        },
        "27": {
            "M_NIACINE_c": [
                "Root1240"
            ]
        },
        "28": {
            "M_NIACINE_c": [
                "Root274"
            ]
        },
        "29": {
            "M_NIACINE_c": [
                "Root214"
            ]
        },
        "30": {
            "M_NIACINE_c": [
                "Root154"
            ]
        },
        "31": {
            "M_NIACINE_c": [
                "Root651"
            ]
        },
        "32": {
            "M_NIACINE_c": [
                "Root55"
            ]
        },
        "33": {
            "M_NIACINE_c": [
                "Root351"
            ]
        },
        "34": {
            "M_NIACINE_c": [
                "Root418"
            ]
        },
        "35": {
            "M_NIACINE_c": [
                "Root1220"
            ]
        },
        "36": {
            "M_NIACINE_c": [
                "Root100"
            ]
        },
        "37": {
            "M_NIACINE_c": [
                "Root1203"
            ]
        },
        "38": {
            "M_NIACINE_c": [
                "Root431"
            ]
        },
        "39": {
            "M_NIACINE_c": [
                "Root1485"
            ]
        },
        "40": {
            "M_NIACINE_c": [
                "Root133"
            ]
        },
        "41": {
            "M_NIACINE_c": [
                "Root187"
            ]
        },
        "42": {
            "M_NIACINE_c": [
                "Root708"
            ]
        },
        "43": {
            "M_NIACINE_c": [
                "Root66D1"
            ]
        },
        "44": {
            "M_NIACINE_c": [
                "Root1304"
            ]
        },
        "45": {
            "M_NIACINE_c": [
                "Root157"
            ]
        },
        "46": {
            "M_NIACINE_c": [
                "Root107"
            ]
        },
        "47": {
            "M_NIACINE_c": [
                "Root149"
            ]
        },
        "48": {
            "M_NIACINE_c": [
                "Root562"
            ]
        },
        "49": {
            "M_NIACINE_c": [
                "Root1295"
            ]
        },
        "50": {
            "M_NIACINE_c": [
                "Root9"
            ]
        },
        "51": {
            "M_NIACINE_c": [
                "Root63"
            ]
        },
        "52": {
            "M_NIACINE_c": [
                "Root482"
            ]
        },
        "53": {
            "M_NIACINE_c": [
                "Root147"
            ]
        },
        "54": {
            "M_NIACINE_c": [
                "Root569"
            ]
        },
        "55": {
            "M_NIACINE_c": [
                "Root239"
            ]
        },
        "56": {
            "M_NIACINE_c": [
                "Root68"
            ]
        },
        "57": {
            "M_NIACINE_c": [
                "Root71"
            ]
        },
        "58": {
            "M_NIACINE_c": [
                "Root268"
            ]
        },
        "59": {
            "M_NIACINE_c": [
                "Root1212"
            ]
        },
        "60": {
            "M_NIACINE_c": [
                "Root401"
            ]
        },
        "61": {
            "M_NIACINE_c": [
                "Root369"
            ]
        },
        "62": {
            "M_NIACINE_c": [
                "Root329"
            ]
        },
        "63": {
            "M_NIACINE_c": [
                "Root1310"
            ]
        },
        "64": {
            "M_NIACINE_c": [
                "Root172"
            ]
        },
        "65": {
            "M_NIACINE_c": [
                "Root483D2"
            ]
        },
        "66": {
            "M_NIACINE_c": [
                "Root102"
            ]
        },
        "67": {
            "M_NIACINE_c": [
                "Root954"
            ]
        },
        "68": {
            "M_NIACINE_c": [
                "Root278"
            ]
        },
        "69": {
            "M_NIACINE_c": [
                "Root231"
            ]
        },
        "70": {
            "M_NIACINE_c": [
                "Root258"
            ]
        },
        "71": {
            "M_NIACINE_c": [
                "Root1252"
            ]
        },
        "72": {
            "M_NIACINE_c": [
                "Root142"
            ]
        },
        "73": {
            "M_NIACINE_c": [
                "Root423"
            ]
        },
        "74": {
            "M_NIACINE_c": [
                "Root127"
            ]
        },
        "75": {
            "M_NIACINE_c": [
                "Root558"
            ]
        },
        "76": {
            "M_NIACINE_c": [
                "Root31"
            ]
        },
        "77": {
            "M_NIACINE_c": [
                "Root74"
            ]
        },
        "78": {
            "M_NIACINE_c": [
                "Root1298"
            ]
        },
        "79": {
            "M_NIACINE_c": [
                "Root1312"
            ]
        },
        "80": {
            "M_NIACINE_c": [
                "Root1204"
            ]
        },
        "81": {
            "M_NIACINE_c": [
                "Root73"
            ]
        },
        "82": {
            "M_NIACINE_c": [
                "Root1334"
            ]
        }
    },
    "essential_symbionts": [],
    "exchanged": [],
    "inter_bacteria": [],
    "inter_exchanged": [],
    "inter_targetsproducers": {},
    "key_species": [
        "Root147",
        "Root369",
        "Root431",
        "Root102",
        "Root278",
        "Root127",
        "Root1203",
        "Root1220",
        "Root214",
        "Root720",
        "Root187",
        "Root651",
        "Root656",
        "Root74",
        "Root107",
        "Root411",
        "Root66D1",
        "Root1304",
        "Root1294",
        "Root1480D1",
        "Root1204",
        "Root154",
        "Root231",
        "Root954",
        "Root473",
        "Root1295",
        "Root708",
        "Root336D2",
        "Root1238",
        "Root1252",
        "Root9",
        "Root318D1",
        "Root1485",
        "Root491",
        "Root31",
        "Root418",
        "Root335",
        "Root133",
        "Root149",
        "Root198D2",
        "Root401",
        "Root172",
        "Root224",
        "Root434",
        "Root1455",
        "Root1312",
        "Root68",
        "Root1472",
        "Root682",
        "Root239",
        "Root562",
        "Root50",
        "Root142",
        "Root343",
        "Root268",
        "Root1310",
        "Root16D2",
        "Root63",
        "Root342",
        "Root29",
        "Root71",
        "Root483D2",
        "Root157",
        "Root614",
        "Root569",
        "Root329",
        "Root1334",
        "Root1257",
        "Root351",
        "Root1212",
        "Root100",
        "Root558",
        "Root1221",
        "Root73",
        "Root1298",
        "Root1240",
        "Root274",
        "Root258",
        "Root55",
        "Root487D2Y",
        "Root423",
        "Root482"
    ],
    "newly_prod": [
        "M_NIACINE_c"
    ],
    "one_model": {
        "chosen_bacteria": [
            "Root1480D1"
        ],
        "newly_producible_target": [
            "M_NIACINE_c"
        ],
        "producible_target": [
            "M_NIACINE_c"
        ],
        "target_producer_coop_selectedcom": {
            "M_NIACINE_c": [
                "Root1480D1"
            ]
        },
        "unproducible_target": [
            "M_RIBOFLAVIN_c",
            "M_THIAMINE__45_PYROPHOSPHATE_c",
            "M_THIAMINE_c",
            "M_PYRIDOXINE_c",
            "M_BIOTIN_c",
            "M_ADENOSYLCOBALAMIN_c",
            "M_PANTOTHENATE_c",
            "M_THF_c"
        ]
    },
    "one_model_targetsproducers": {
        "M_NIACINE_c": [
            "Root1480D1"
        ]
    },
    "producible": [
        "M_NIACINE_c"
    ],
    "score_optimum_inter": "1",
    "score_optimum_union": "1",
    "still_unprod": [
        "M_RIBOFLAVIN_c",
        "M_THIAMINE__45_PYROPHOSPHATE_c",
        "M_THIAMINE_c",
        "M_PYRIDOXINE_c",
        "M_BIOTIN_c",
        "M_ADENOSYLCOBALAMIN_c",
        "M_PANTOTHENATE_c",
        "M_THF_c"
    ],
    "union_bacteria": [
        "Root147",
        "Root369",
        "Root431",
        "Root102",
        "Root278",
        "Root127",
        "Root1203",
        "Root1220",
        "Root214",
        "Root720",
        "Root187",
        "Root651",
        "Root656",
        "Root74",
        "Root107",
        "Root411",
        "Root66D1",
        "Root1304",
        "Root1294",
        "Root1480D1",
        "Root1204",
        "Root154",
        "Root231",
        "Root954",
        "Root473",
        "Root1295",
        "Root708",
        "Root336D2",
        "Root1238",
        "Root1252",
        "Root9",
        "Root318D1",
        "Root1485",
        "Root491",
        "Root31",
        "Root418",
        "Root335",
        "Root133",
        "Root149",
        "Root198D2",
        "Root401",
        "Root172",
        "Root224",
        "Root434",
        "Root1455",
        "Root1312",
        "Root68",
        "Root1472",
        "Root682",
        "Root239",
        "Root562",
        "Root50",
        "Root142",
        "Root343",
        "Root268",
        "Root1310",
        "Root16D2",
        "Root63",
        "Root342",
        "Root29",
        "Root71",
        "Root483D2",
        "Root157",
        "Root614",
        "Root569",
        "Root329",
        "Root1334",
        "Root1257",
        "Root351",
        "Root1212",
        "Root100",
        "Root558",
        "Root1221",
        "Root73",
        "Root1298",
        "Root1240",
        "Root274",
        "Root258",
        "Root55",
        "Root487D2Y",
        "Root423",
        "Root482"
    ],
    "union_exchanged": [],
    "union_targetsproducers": {
        "M_NIACINE_c": [
            "Root1480D1",
            "Root9",
            "Root318D1",
            "Root239",
            "Root651",
            "Root1212",
            "Root1485",
            "Root1472",
            "Root614",
            "Root418",
            "Root63",
            "Root483D2",
            "Root336D2",
            "Root172",
            "Root258",
            "Root107",
            "Root68",
            "Root16D2",
            "Root329",
            "Root149",
            "Root74",
            "Root268",
            "Root1220",
            "Root231",
            "Root569",
            "Root335",
            "Root133",
            "Root1238",
            "Root562",
            "Root157",
            "Root1221",
            "Root558",
            "Root198D2",
            "Root1240",
            "Root369",
            "Root1310",
            "Root954",
            "Root682",
            "Root66D1",
            "Root147",
            "Root1204",
            "Root482",
            "Root127",
            "Root434",
            "Root720",
            "Root274",
            "Root55",
            "Root214",
            "Root708",
            "Root1257",
            "Root1298",
            "Root1304",
            "Root1294",
            "Root1312",
            "Root154",
            "Root473",
            "Root1203",
            "Root1252",
            "Root142",
            "Root343",
            "Root423",
            "Root487D2Y",
            "Root31",
            "Root491",
            "Root431",
            "Root342",
            "Root102",
            "Root224",
            "Root1334",
            "Root411",
            "Root100",
            "Root1455",
            "Root656",
            "Root29",
            "Root71",
            "Root73",
            "Root278",
            "Root187",
            "Root50",
            "Root1295",
            "Root351",
            "Root401"
        ]
    }
}