{
    "com_prodtargets": [],
    "com_scope": [
        "M_2__45__KETO__45__3__45__METHYL__45__VALERATE_c",
        "M_CPD__45__650_c",
        "M_OXALO__45__SUCCINATE_c",
        "M_PHENYL__45__PYRUVATE_c",
        "M_CPD__45__11495_c",
        "M_SUC__45__COA_c",
        "M_ADENINE_c",
        "M_FUM_c",
        "M_2__45__METHYL__45__ACETO__45__ACETYL__45__COA_c",
        "M_4__45__IMIDAZOLONE__45__5__45__PROPIONATE_c",
        "M_S__45__ADENOSYLMETHIONINE_c",
        "M_GLUTATHIONE_c",
        "M_O__45__SUCCINYL__45__L__45__HOMOSERINE_c",
        "M_L__45__CYSTATHIONINE_c",
        "M_CPD__45__9038_c",
        "M_2__45__PG_c",
        "M_CIS__45__ACONITATE_c",
        "M_2__45__AMINOACRYLATE_c",
        "M_GDP__45__TP_c",
        "M_CPD__45__302_c",
        "M_CPD__45__1133_c",
        "M_L__45__GLUTAMATE__45__5__45__P_c",
        "M_CPD__45__1083_c",
        "M_S__45__3__45__HYDROXYBUTANOYL__45__COA_c",
        "M_COPROPORPHYRINOGEN_III_c",
        "M_CARBAMATE_c",
        "M_CPD__45__421_c",
        "M_METHYL__45__MALONYL__45__COA_c",
        "M_INOSINE_c",
        "M_ADENYLOSUCC_c",
        "M_CPD__45__15317_c",
        "M_CPD__45__3736_c",
        "M_ADENOSYL__45__HOMO__45__CYS_c",
        "M_CPD__45__15127_c",
        "M_2__45__ACETO__45__2__45__HYDROXY__45__BUTYRATE_c",
        "M_CIT_c",
        "M_PHOSPHO__45__ENOL__45__PYRUVATE_c",
        "M_CPD__45__14443_c",
        "M_CPD__45__14808_c",
        "M_NMNH_c",
        "M_MAL_c",
        "M_3__45__HYDROXY__45__3__45__METHYL__45__GLUTARYL__45__COA_c",
        "M_GLN_c",
        "M_CPD__45__335_c",
        "M_PROPIONYL__45__COA_c",
        "M_H2CO3_c",
        "M_2__45__KETO__45__ISOVALERATE_c",
        "M_ADENOSINE_c",
        "M_L__45__GAMMA__45__GLUTAMYLCYSTEINE_c",
        "M_IMINOASPARTATE_c",
        "M_ACET_c",
        "M_CPD__45__645_c",
        "M_CPD__45__600_c",
        "M_D__45__METHYL__45__MALONYL__45__COA_c",
        "M_N__45__ACETYL__45__GLUTAMYL__45__P_c",
        "M_PROTON_e",
        "M_N__45__FORMYLKYNURENINE_c",
        "M_HCO3_c",
        "M_HYDROXYMETHYLBILANE_c",
        "M_ANTHRANILATE_c",
        "M_ACETOACETYL__45__COA_c",
        "M_2__45__D__45__THREO__45__HYDROXY__45__3__45__CARBOXY__45__ISOCAPROATE_c",
        "M_CPD0__45__2015_c",
        "M_2__45__METHYL__45__3__45__HYDROXY__45__BUTYRYL__45__COA_c",
        "M_ACETYL__45__COA_c",
        "M_5__45__AMINO__45__LEVULINATE_c",
        "M_L__45__GLUTAMATE_GAMMA__45__SEMIALDEHYDE_c",
        "M_D__45__ALA__45__D__45__ALA_c",
        "M_CARBAMOYL__45__P_c",
        "M_HS_c",
        "M_SUC_c",
        "M_L__45__ORNITHINE_c",
        "M_3__45__KETOBUTYRATE_c",
        "M_CHORISMATE_c",
        "M_NICOTINAMIDE_NUCLEOTIDE_c",
        "M_L__45__ASPARTATE__45__SEMIALDEHYDE_c",
        "M_L__45__BETA__45__ASPARTYL__45__P_c",
        "M_PYRIDOXINE__45__5P_c",
        "M_CPD__45__7100_c",
        "M_UREA_c",
        "M_DI__45__H__45__OROTATE_c",
        "M_GUANOSINE__45__5DP__45__3DP_c",
        "M_OXALACETIC_ACID_c",
        "M_CPD__45__578_c",
        "M_2__45__OXOBUTANOATE_c",
        "M_CPD__45__18238_c",
        "M_2__45__KETOGLUTARATE_c",
        "M_CTP_c",
        "M_4__45__AMINO__45__4__45__DEOXYCHORISMATE_c",
        "M_PREPHENATE_c",
        "M_PYRUVATE_c",
        "M_N__45__ALPHA__45__ACETYLORNITHINE_c",
        "M_CPD__45__13357_c",
        "M_P__45__AMINO__45__BENZOATE_c",
        "M_UROCANATE_c",
        "M_ACETYL__45__P_c",
        "M_MALONYL__45__COA_c",
        "M_ACETYL__45__GLU_c",
        "M_ACETYLSERINE_c",
        "M_CARBAMYUL__45__L__45__ASPARTATE_c",
        "M_CADAVERINE_c",
        "M_CPD__45__827_c",
        "M_2K__45__4CH3__45__PENTANOATE_c",
        "M_APS_c",
        "M_FORMATE_c",
        "M_N2__45__SUCCINYLORNITHINE_c",
        "M_CPD__45__9451_c",
        "M_UTP_c",
        "M_3__45__HYDROXY__45__ISOVALERYL__45__COA_c",
        "M_N__45__FORMIMINO__45__L__45__GLUTAMATE_c",
        "M_CPD__45__469_c",
        "M_L__45__ARGININO__45__SUCCINATE_c",
        "M_PYRIDOXAL_PHOSPHATE_c",
        "M_UROPORPHYRINOGEN__45__III_c",
        "M_D__45__GLT_c",
        "M_2__45__ACETO__45__LACTATE_c",
        "M_HOMO__45__CYS_c",
        "M_D__45__ALANINE_c",
        "M_PAPS_c",
        "M_1__45__KETO__45__2__45__METHYLVALERATE_c",
        "M_3__45__CARBOXY__45__3__45__HYDROXY__45__ISOCAPROATE_c",
        "M_PORPHOBILINOGEN_c",
        "M_THREO__45__DS__45__ISO__45__CITRATE_c",
        "M_CPD__45__15056_c"
    ],
    "com_unprodtargets": [
        "M_ETHYLENE__45__CMPD_c",
        "M_CPD__45__734_c",
        "M_CPD__45__693_c",
        "M_CPD__45__110_c"
    ],
    "targets_producers": {}
}