dbRef_id	Common name	Produced (p), Consumed (c), Both (cp)
Arachidoyl-ACPs	an arachidoyl-[acp]	c
Aromatic-Amino-Acids	an aromatic amino acid	cp
PYRIDOXAL_PHOSPHATE	pyridoxal 5'-phosphate	p
Aromatic-Oxoacids	an aromatic 2-oxo-acid	cp
CPD-806	N-ethylammeline	p
PYRIDOXAMINE-5P	pyridoxamine 5'-phosphate	c
SIROHEME	siroheme	p
Aryl-sulfates	an aryl sulfate	c
OCTAPRENYL-METHYL-METHOXY-BENZQ	6-methoxy-3-methyl-2-all-trans-octaprenyl-1,4-benzoquinol	c
L-Glutamyl-Peptides	an N-terminal L-glutamyl-[protein]	c
OCTAPRENYL-METHYL-OH-METHOXY-BENZQ	3-demethylubiquinol-8	cp
PHENYL-PYRUVATE	keto-phenylpyruvate	cp
TETRACHLOROHYDROQUINONE	2,3,5,6-tetrachlorohydroquinone	c
NALPHANALPHA-DIMETHYL-L-HISTIDINE	N&alpha;,N&alpha;-dimethyl-L-histidine	cp
L-HISTIDINOL-P	L-histidinol phosphate	cp
PHENYLACETATE	phenylacetate	cp
B-ALANINE	&beta;-alanine	c
SIROHYDROCHLORIN	sirohydrochlorin	c
NAcMur-4Peptide-NAcGlc-Undecaprenols	a N-acetylglucosamine--N-acetylmuramyl-(tetrapeptide) pyrophosphoryl-undecaprenol	p
PYRIDOXINE-5P	pyridoxine 5'-phosphate	cp
CPD-8180	DNA with lesion	c
CPD-8259	&beta;-D-ribosylnicotinate	p
NAcMur-Peptide-NAcGlc-Undecaprenols	a lipid II	c
OH-ACYL-ACP	a (3R)-3-hydroxyacyl-[acyl-carrier protein]	cp
SN-GLYCEROL-1-PHOSPHATE	sn-glycerol 1-phosphate	p
OH-MYRISTOYL	UDP-2-N,3-O-bis[(3R)-3-hydroxytetradecanoyl]-&alpha;-D-glucosamine	cp
B-KETOACYL-ACP	a 3-oxoacyl-[acp]	cp
HISTIDINOL	histidinol	cp
BCAA-dehydrogenase-2MB-DH-lipoyl	an [apo BCAA dehydrogenase E2 protein] N6-S-[2-methylbutanoyl]dihydrolipoyl-L-lysine	cp
BCAA-dehydrogenase-2MP-DH-lipoyl	an [apo BCAA dehydrogenase E2 protein] N6-S-[2-methylpropanoyl]dihydrolipoyl-L-lysine	cp
OH-PYR	hydroxypyruvate	cp
CPD-827	5-dehydro-2-deoxy-D-gluconate	cp
L-Methionylaminoacyl-tRNAs	a L-methionylaminoacyl-tRNA	p
BCAA-dehydrogenase-3MB-DH-lipoyl	a [apo BCAA dehydrogenase E2 protein] N6-S-[3-methylbutanoyl]dihydrolipoyl-L-lysine	p
L-ORNITHINE	L-ornithine	cp
2K-4CH3-PENTANOATE	4-methyl-2-oxopentanoate	cp
CPD-5662	9-mercaptodethiobiotin	cp
K-HEXANOYL-COA	3-oxohexanoyl-CoA	p
2K-ADIPATE	2-oxoadipate	c
Protein-With-N-Terminal-Met	a peptide with an N-terminal L-methionine	c
Lipoprotein-signal-peptide	a lipoprotein signal peptide	p
Protein-With-N-Terminal-Pro	a peptide with an N-terminal L-proline	cp
DNA-Combined-With-Exogenous-DNA	DNA combined with exogenous DNA to form a recombinational junction	c
Protein-With-N-Terminal-X-Pro	a peptide with an N-terminal X-L-proline	c
ILE	L-isoleucine	cp
2-OCTAPRENYL-6-HYDROXYPHENOL	3-(all-trans-octaprenyl)benzene-1,2-diol	c
Lipoyl-Protein-L-Lysine	a [lipoyl-carrier protein]-L-lysine	c
DNA-Cytidines	a 2'-deoxycytidine in DNA	p
Lipoyl-Protein-N6-lipoyllysine	a [lipoyl-carrier protein]-N6-lipoyl-L-lysine	p
ILE-tRNAs	a tRNAIle	c
COPROPORPHYRINOGEN_I	coproporphyrinogen I	p
COPROPORPHYRINOGEN_III	coproporphyrinogen III	p
CPD-5881	(6R)-4a-hydroxy-tetrahydrobiopterin	p
3-OXOADIPATE-ENOL-LACTONE	(4,5-dihydro-5-oxofuran-2-yl)-acetate	p
DNA-Cytosines	a cytosine in DNA	c
2-OCTAPRENYL-6-METHOXYPHENOL	2-methoxy-6-(all-trans-octaprenyl)phenol	cp
Protein-phospho-L-histidines	a [protein]-N-phospho-L-histidine	p
KDO	3-deoxy-&alpha;-D-manno-2-octulosonate	c
METHYLENE-THF-GLU-N	a 5,10-methylene-tetrahydrofolate	cp
CPD-592	4-guanidinobutanoate	p
Protein-tyrosine-phosphates	a [protein]-L-tyrosine phosphate	cp
Long-Chain-Acyl-CoAs	a long-chain acyl-CoA	p
KDO-8P	3-deoxy-D-manno-octulosonate 8-phosphate	p
METHYLENETETRAHYDROMETHANOPTERIN	5,10-methylene-tetrahydromethanopterin	c
Long-Chain-Fatty-Acids	a long-chain fatty acid	c
Proteins-With-N-Terminal-Asp	an N-terminal L-aspartyl-[protein]	c
Long-Chain-Polyphosphate	long chain polyphosphate	cp
CPD-596	N6,N6-dimethyl-L-arginine	c
Proteins-with-correct-disulfides	a protein with correct disulfide bonds	cp
IMIDAZOLE-ACETOL-P	imidazole acetol-phosphate	cp
Proteins-with-incorrect-disulfides	a protein with incorrect disulfide bonds	cp
CPD-597	N-carbamoylputrescine	p
CPD-10267	decanoyl-CoA	cp
LysW-L-glutamate	a [2-aminoadipate carrier protein]-L-glutamate	c
GTP	GTP	cp
LysW-L-glutamate-5-phosphate	a [2-aminoadipate carrier protein]-L-glutamate 5-phosphate	cp
CPD-600	N-formyl-L-glutamate	cp
LysW-L-glutamate-5-semialdehyde	a [2-aminoadipate carrier protein]-L-glutamate 5-semialdehyde	cp
DNA-Holder	DNA	p
CPD0-2105	3-oxododecanoyl-CoA	cp
CARBON-DIOXIDE	CO2	cp
N-ACETYL-D-GALACTOSAMINE-6-PHOSPHATE	N-acetyl-D-galactosamine 6-phosphate	c
CPD0-2106	3-oxooctanoyl-CoA	cp
FERRICYTOCHROME-B5	a ferricytochrome b5	p
N-ACETYL-D-GLUCOSAMINE	N-acetyl-&beta;-D-glucosamine	cp
FERROCYTOCHROME-B5	a ferrocytochrome b5	c
N-ACETYL-D-GLUCOSAMINE-1-P	N-acetyl-&alpha;-D-glucosamine 1-phosphate	cp
AMINO-HYDROXYMETHYL-METHYL-PYR-P	4-amino-2-methyl-5-(phosphooxymethyl)pyrimidine	cp
CPD0-2123	3-oxodecanoyl-CoA	c
N-ACETYL-D-GLUCOSAMINE-6-P	N-acetyl-D-glucosamine 6-phosphate	c
ADENINE	adenine	cp
IMINOASPARTATE	2-iminosuccinate	cp
AMINO-HYDROXYMETHYL-METHYLPYRIMIDINE-PP	4-amino-2-methyl-5-(diphosphomethyl)pyrimidine	cp
CARBON-MONOXIDE	carbon monoxide	p
N-ACETYL-D-MANNOSAMINE	N-acetyl-&beta;-D-mannosamine	cp
AMINO-OH-HYDROXYMETHYL-DIHYDROPTERIDINE	6-(hydroxymethyl)-7,8-dihydropterin	cp
CPD0-2231	dIDP	cp
CYTIDINE	cytidine	cp
ADENOSINE	adenosine	cp
ADENOSINE_DIPHOSPHATE_RIBOSE	ADP-D-ribose	c
FMN	FMN	cp
GERANYL-PP	geranyl diphosphate	c
CPD0-2350	a polycistronic tRNA precursor	cp
N-ACETYL-GLUTAMYL-P	N-acetylglutamyl-phosphate	cp
CPD0-2351	a tRNA precursor with a 5' extension and a long 3' trailer	p
SO3	sulfite	cp
TETRADEHYDROACYL-COA	a (2E,4E)-alkane-2,4-dienoyl-CoA	c
CPD-15688	(3Z,5E)-dodeca-3,5-dienoyl-CoA	p
CPD-8355	1-18:1-2-lysophosphatidylethanolamine	c
UDP-GLUCURONATE	UDP-&alpha;-D-glucuronate	p
DETHIOBIOTIN	dethiobiotin	cp
DNA-Ligase-L-lysine	a [DNA ligase]-L-lysine	cp
KDO-LIPID-IVA	&alpha;-Kdo-(2&rarr;6)-lipid IVA	cp
CPD-15691	(5E)-3-oxo-dodec-5-enoyl-CoA	c
UDP-MURNAC-TETRAPEPTIDE	UDP-N-acetylmuramoyl-L-alanyl-&gamma;-D-glutamyl-meso-2,6-diaminopimeloyl-D-alanine	cp
THF-GLU-N	a tetrahydrofolate	cp
CPD-8534	DNA without lesion	p
L-PANTOATE	(R)-pantoate	cp
PROPIONAMIDE	propionamide	c
CPD-15692	(3E)-dec-3-enoyl-CoA	p
CPD-8624	a [protein]-L-proline (&omega; = 180)	cp
SPERMIDINE	spermidine	cp
VANILLATE	vanillate	c
3-Oxo-octanoyl-ACPs	a 3-oxo-octanoyl-[acp]	cp
DNA-Ligase-L-lysine-adenylate	a [DNA ligase]-N6-(5'-adenylyl)-L-lysine	cp
KDO2-LAUROYL-LIPID-IVA	&alpha;-Kdo-(2->4)-&alpha;-Kdo-(2->6)-(lauroyl)-lipid IVA	cp
PROPIONATE	propanoate	cp
UDP-N-ACETYL-D-GLUCOSAMINE	UDP-N-acetyl-&alpha;-D-glucosamine	cp
CPD-8625	a [protein]-L-proline (&omega; = 0)	cp
L-PHOSPHATIDATE	a 1,2-diacyl-sn-glycerol 3-phosphate	c
L-SELENOCYSTEINE	L-selenocysteine	p
3-P-HYDROXYPYRUVATE	3-phosphooxypyruvate	cp
UDP-N-ACETYLMURAMATE	UDP-N-acetyl-&alpha;-D-muramate	cp
CPD-8742	(3E)-2-oxohex-3-enedioate	cp
KDO2-LIPID-A	&alpha;-D-Kdo-(2&rarr;4)-&alpha;-D-Kdo-(2&rarr;6)-lipid A	p
3-P-SERINE	3-phospho-L-serine	cp
THIAMINE-P	thiamine phosphate	cp
CPD-15979	D-mannopyranose 6-phosphate	cp
3-Phosphomonucleotides	a ribonucleoside 3'-phosphate	p
L-arginyl-3-sulfino-L-alaninyl-Peptides	an N-terminal L-arginiyl-3-sulfino-L-alanyl-[protein]	p
5-10-METHENYL-THF-GLU-N	a 5,10-methenyltetrahydrofolate	cp
THIAMINE-PYROPHOSPHATE	thiamine diphosphate	cp
KDO2-LIPID-IVA	&alpha;-Kdo-(2->4)-&alpha;-Kdo-(2->6)-lipid IVA	c
L-arginyl-3-sulfo-L-alaninyl-Peptides	an N-terminal L-arginiyl-3-sulfo-L-alanyl-[protein]	p
L-arginyl-L-Glutamyl-Peptides	an N-terminal L-arginiyl-L-glutamyl-[protein]	p
SS-Oligodeoxyribonucleotides	a single-stranded oligodeoxyribonucleotide	p
CPD-8999	5-(methylsulfanyl)-2,3-dioxopentyl 1-phosphate	p
5-AMINO-LEVULINATE	5-aminolevulinate	cp
L-arginyl-L-aspartyl-Peptides	an N-terminal L-arginiyl-L-aspartyl-[protein]	p
STEARIC_ACID	stearate	c
DGDP	dGDP	cp
CARBOXYPHENYLAMINO-DEOXYRIBULOSE-P	1-(o-carboxyphenylamino)-1'-deoxyribulose 5'-phosphate	cp
L-glutamyl-tRNAGln	an L-glutamyl-[tRNAGln]	c
OLEATE-CPD	oleate	cp
5-BETA-L-THREO-PENTAPYRANOSYL-4-ULOSE-	UDP-&beta;-L-threo-pentapyranos-4-ulose	cp
L-leucyl-L-arginyl-Protein	a [protein] N-terminal L-leucyl-L-arginine	p
BCAA-dehydrogenase-DH-lipoyl	an [apo BCAA dehydrogenase E2 protein] N6-dihydrolipoyl-L-lysine	cp
FMNH2	FMNH2	p
CPD-2183	1-oleoyl-2-palmitoyl-phosphatidylglycerol	p
Damaged-DNA-Pyrimidine	a damaged DNA pyrimidine	c
BCAA-dehydrogenase-lipoyl	an [apo BCAA dehydrogenase E2 protein] N6-lipoyl-L-lysine	cp
Decanoyl-ACPs	a decanoyl-[acp]	c
CPD-13699	3,22-dioxochol-4-en-24-oyl-CoA	c
BCCP-L-lysine	a [biotin carboxyl-carrier protein]-L-lysine	c
Delta4-hexadecenoyl-ACPs	a (4Z)-hexadec-4-enoyl-[acp]	c
CPD-11770	7,8-dihydromonapterin	c
BCCP-biotin-L-lysine	a [biotin carboxyl-carrier protein]-biotin-N6-L-lysine	p
NIACINAMIDE	nicotinamide	c
CPD-237	(indol-3-yl)acetamide	c
CPD-13700	3-oxo-4-pregnene-20-carboxyl-CoA	p
GUANINE	guanine	cp
CPD-13713	adenosine 5'-phosphoselenate	p
BENZENE	benzene	c
CPD-11997	decaprenyl-diphospho-N-acetylmuramoyl-pentapeptide	c
CPD-11998	decaprenyl-pyrophosphoryl-(N-acetylglucosamine)-N-acetylmuramyl-(pentapeptide)	p
Deoxy-Ribonucleoside-Diphosphates	a 2'-deoxyribonucleoside 5'-diphosphate	p
Deoxy-Ribonucleoside-Monophosphates	a 2'-deoxyribonucleoside 5'-monophosphate	p
NIACINE	nicotinate	cp
Deoxy-Ribonucleoside-Triphosphates	a 2'-deoxyribonucleoside 5'-triphosphate	c
CPD-121	(R)-mandelate	c
CPD-12115	demethylmenaquinol-8	c
CPD-270	an N-acyl-D-glucosamine	cp
RIBOSE-5P	D-ribose 5-phosphate	cp
CPD-288	(1R,2S)-cyclohexa-3,5-diene-1,2-diol	p
CPD-13845	dTDP-3-dehydro-6-deoxy-&alpha;-D-galactopyranose	p
CPD-13847	UDP-2-acetamido-2,6-dideoxy-&alpha;-D-xylo-hex-4-ulose	cp
Red-Glutaredoxins	a reduced glutaredoxin	c
GUANOSINE	guanosine	p
CPD-294	2-maleylacetate	p
FORMALDEHYDE	formaldehyde	cp
Red-Thioredoxin	a reduced thioredoxin	cp
BETA-D-FRUCTOSE	&beta;-D-fructofuranose	c
GUANOSINE-5DP-3DP	ppGpp	p
Reduced-2Fe-2S-Ferredoxins	a reduced [2Fe-2S] ferredoxin	c
CPD0-2352	a tRNA precursor with a 5' extension and a short 3' extension	cp
2-OXOBUTANOATE	2-oxobutanoate	cp
AMINO-OXOBUT	L-2-amino-3-oxobutanoate	cp
CPD0-2353	a tRNA precursor with a short 3' extension	cp
CPD0-2354	a tRNA precursor with a 5' extension	p
AMINO-RIBOSYLAMINO-1H-3H-PYR-DIONE	5-amino-6-(D-ribitylamino)uracil	cp
CPD-602	5-amino-6-(5-phospho-D-ribosylamino)uracil	cp
CPD-19042	2-hydroxyisobutyramide	c
7Z-3-oxo-hexadec-7-enoyl-ACPs	a (7Z)-3-oxo-hexadec-7-enoyl-[acp]	cp
CPD-19144	(7Z)-hexadecenoyl-CoA	cp
OLEOYL-COA	oleoyl-CoA	cp
7Z-hexadec-7-enoyl-ACPs	a (7Z)-hexadec-7-enoyl-[acp]	c
CPD0-2471	a [protein] with C-terminal &alpha;-L-glutamate-&alpha;-L-glutamate	p
ADENOSYL-HOMO-CYS	S-adenosyl-L-homocysteine	cp
CPD-19147	(7Z)-tetradecenoyl-CoA	cp
8-AMINO-7-OXONONANOATE	8-amino-7-oxononanoate	p
OLIGOPEPTIDES	an oligopeptide	c
CPD-614	bromochloromethane	cp
ADENOSYL-P4	5',5'''-diadenosine tetraphosphate	c
RIBULOSE-5P	D-ribulose 5-phosphate	cp
CPD-19148	(5Z)-dodecenoyl-CoA	cp
CPD0-2483	(2,3-dihydroxybenzoylserine)3	cp
PYRROLINE-HYDROXY-CARBOXYLATE	(3R,5S)-3-hydroxy-1-pyrroline-5-carboxylate	c
2-Oxo-carboxylates	a 2-oxo carboxylate	c
HMP	4-amino-2-methyl-5-pyrimidinemethanol	c
CPD-19150	(2E,5Z)-dodecenoyl-CoA	p
AMINOMETHYLDIHYDROLIPOYL-GCVH	a [glycine-cleavage complex H protein] N6-aminomethyldihydrolipoyl-L-lysine	cp
CPD-618	(2R,3S)-2-methylisocitrate	cp
CPD0-881	N-acetyl-D-muramate 6-phosphate	p
2-PG	2-phospho-D-glycerate	cp
CPD-19153	3-oxo-(5Z)-dodecenoyl-CoA	c
P3I	PPPi	p
2-PHOSPHO-4-CYTIDINE-5-DIPHOSPHO-2-C-MET	2-phospho-4-(cytidine 5'-diphospho)-2-C-methyl-D-erythritol	p
9S-RRNA	a 9S rRNA	c
CPD-622	(2S,3S)-2-methylcitrate	cp
CPD0-882	1,6-anhydro-N-acetyl-&beta;-muramate	cp
CPD-19157	3-oxo-(7Z)-tetradecenoyl-CoA	c
9Z-3-oxo-octadec-9-enoyl-ACPs	a (9Z)-3-oxo-octadec-9-enoyl-[acp]	cp
A-5-prime-PP-5-prime-DNA	an adenosine-5'-diphospho-5'-[DNA]	cp
Carboxylates	a carboxylate	cp
OROTATE	orotate	cp
RNA-DNA-hybrids	a RNA-DNA hybrid	c
PYRUVATE	pyruvate	cp
A-DOUBLE-STRANDED-DNA-WITH-A-3-OVERHANG	a double stranded DNA with a RecA protein loaded 3' overhang	p
CPD-19158	3-oxo-(9Z)-hexadecenoyl-CoA	c
CPD-6321	a [procollagen] trans 4-hyroxy-L-proline	p
RNA-Holder	a ribonucleic acid	cp
2-PROTOCATECHUOYLPHLOROGLUCINOLCARBOXYLA	2-protocatechuoylphloroglucinolcarboxylate	p
IMP	IMP	cp
GERANYLGERANYL-PP	geranylgeranyl diphosphate	c
LysW-L-ornithine	a [2-aminoadipate carrier protein]-L-ornithine	cp
Lysidine-tRNA-Ile2	a lysidine34 in tRNAIle2	p
DNA-N	DNAn	cp
VERY-LONG-CHAIN-FATTY-ACYL-COA	a very long chain fatty acyl-CoA	p
PROPIONYL-COA	propanoyl-CoA	cp
RNASE-E-DEGRADATION-SUBSTRATE-MRNA	RNase E degradation substrate mRNA	c
RNASE-E-MRNA-PROCESSING-SUBSTRATE	RNase E mRNA processing substrate	c
GLC-1-P	&alpha;-D-glucopyranose 1-phosphate	cp
RNASE-E-PROCESSING-PRODUCT-MRNA	RNase E processing product mRNA	p
RNASE-G-DEGRADATION-SUBSTRATE-MRNA	RNase G degradation substrate mRNA	c
RNASE-III-MRNA-PROCESSING-SUBSTRATE	RNase III mRNA processing substrate	c
RNASE-III-PROCESSING-PRODUCT-MRNA	RNase III processing product mRNA	p
RNASE-R-DEGRADATION-SUBSTRATE-RNA	RNase R degradation substrate RNA	c
Very-long-chain-fatty-acids	a very-long-chain fatty acid	c
PROT-CYS	a [protein]-L-cysteine	c
PROTEIN-C-TERMINAL-S-ETC-CYSTEINE	a [protein] C-terminal S-farnesyl-L-cysteine	c
MAL	(S)-malate	cp
PROTEIN-C-TERMINAL-S-FARNESYL-L-CYSTEINE	a [protein] C-terminal S-farnesyl-L-cysteine methyl ester	p
5-L-GLUTAMYL-AMINO-ACID	an &alpha;-(5-L-glutamyl)-amino acid	p
RX	RX	c
5-L-GLUTAMYL-L-AMINO-ACID	an &alpha;-(&gamma;-L-glutamyl)-L-amino acid	p
PROTEIN-L-BETA-ISOASPARTATES	a [protein]-L-&beta;-isoaspartate	c
GLN	L-glutamine	cp
WATER	H2O	cp
PROTEIN-L-BETA-ISOSPARTATE-METHYL-ESTERS	a protein L-&beta;-isoaspartate &alpha;-methyl ester	p
5-L-GLUTAMYL-PEPTIDE	a 5-L-glutamyl-[peptide]	c
GLN-tRNAs	a tRNAGln	c
CATECHOL	catechol	p
PROTEIN-LIPOYLLYSINE	a [glycine-cleavage complex H protein] N6-lipoyl-L-lysine	cp
5-METHYL-THF-GLU-N	a 5-methyltetrahydrofolate	cp
5-METHYLTHIOADENOSINE	S-methyl-5'-thioadenosine	cp
Gcv-H	[glycine cleavage system lipoyl-carrier protein]-L-lysine	c
General-Protein-Substrates	a protein	cp
Carboxylic-esters	a carboxylic ester	c
DNA-Segment-Placeholder	a DNA segment	cp
ACET	acetate	cp
CPD-10269	palmitoleoyl-CoA	cp
Diacylglycerol-Prolipoproteins	an [apolipoprotein]-(S-diacylglyceryl)-L-cysteine	p
ACETALD	acetaldehyde	p
CPD-2961	D-gluconate 6-phosphate	cp
STEAROYL-COA	stearoyl-CoA	cp
DNA-Segment-in-Reverse-Orientations	a DNA segment in reverse orientation	cp
CPD-10284	3-oxo-myristoyl-CoA	c
Dihydro-Lipoyl-Proteins	a [lipoyl-carrier protein] N6-dihydrolipoyl-L-lysine	c
3-SULFINOALANINE	3-sulfinoalanine	cp
DNA-With-GO-A-Mismatch	DNA with adenine:7,8-dihydro-8-oxoguanine mismatch	c
CPD-16606	UDP-2-acetamido-4-amino-2,4,6-trideoxy-&alpha;-D-galactose	cp
DGTP	dGTP	p
3-hydroxy-cis-D7-tetraecenoyl-ACPs	a (3R)-3-hydroxy cis &Delta;7-tetradecenoyl-[acp]	p
BIO-5-AMP	biotinyl-5'-adenylate	p
3-hydroxy-cis-D9-hexaecenoyl-ACPs	a (3R)-3-hydroxy cis &Delta;9-hexadecenoyl-[acp]	p
CPD-31	(R)-citramalate	cp
SUC	succinate	cp
CPD-316	reduced riboflavin	p
GLY	glycine	cp
FORMATE	formate	p
SUC-COA	succinyl-CoA	cp
ACETAMIDE	acetamide	c
CPD-10330	&alpha;-D-ribofuranose	c
METOH	methanol	cp
HOMO-CYS	L-homocysteine	cp
BIOTIN	biotin	cp
3-hydroxypimeloyl-ACP-methyl-esters	a (3R)-3-hydroxypimeloyl-[acp] methyl ester	p
CPD-16953	2-amino-6-[1-hydroxyethyl]-7-methyl-7,8-dihydropterin	c
3-methylcrotonoyl-CoA-carboxylase-lysine	a [3-methylcrotonoyl-CoA-carboxylase]-L-lysine	c
GLYCERALD	D-glyceraldehyde	p
CPD-320	ethylnitronate	c
3-oxo-arachidoyl-ACPs	a 3-oxo-arachidoyl-[acp]	cp
CPD-105	(R)-4-hydroxymandelate	c
CPD-10546	methyl (indol-3-yl)acetate	c
DI-H-OROTATE	(S)-dihydroorotate	cp
N-ALPHA-ACETYLORNITHINE	N-acetyl-L-ornithine	cp
3-oxo-behenoyl-ACPs	a 3-oxo-behenoyl-[acp]	cp
Dipeptides-With-Proline-Carboxy	a dipeptide with proline at the C-terminal	c
HOMO-SER	L-homoserine	cp
CPD-16954	[1-(2-amino-7-methyl-4-oxo-7,8-dihydro-3H-pteridin-6-yl)]ethyl diphosphate	p
GLYCERATE	D-glycerate	cp
Diribonucleotide	a diribonucleotide	p
N-Acetoxy-Arylamines	an N-acetoxyarylamine	p
3-oxo-cerotoyl-ACPs	a 3-oxo-cerotoyl-[acp]	cp
CPD-17045	3-benzyl-3,6-dihydroxy-6-(hydroxymethyl)-diketopiperazine	c
3-4-DIHYDROXYBENZOATE	protocatechuate	p
DNA-containing-a-Apyrimidinic-Sites	an apyrimidinic site in DNA	p
3-oxo-cis-D7-tetradecenoyl-ACPs	a 3-oxo-cis-&Delta;7-tetradecenoyl-[acp]	cp
Charged-ALA-tRNAs	an L-alanyl-[tRNAAla]	p
3-oxo-cis-D9-hexadecenoyl-ACPs	a 3-oxo-cis-&Delta;9-hexadecenoyl-[acp]	cp
FORMYL-L-METHIONYL-PEPTIDE	a [protein] N-terminal-formyl-L-methionine	c
DIAMINO-OH-PHOSPHORIBOSYLAMINO-PYR	2,5-diamino-6-(5-phospho-D-ribosylamino)pyrimidin-4(3H)-one	c
Charged-ARG-tRNAs	an L-arginyl-[tRNAArg]	cp
CPD-17046	3-benzyl-3,6 -bis(glutathione)- 6-(hydroxymethyl)-diketopiperazine	p
3-oxo-cis-vaccenoyl-ACPs	a 3-oxo-cis-vacc-11-enoyl-[acp]	cp
FORMYL-THF-GLU-N	an N10-formyl-tetrahydrofolate	cp
Charged-ASN-tRNAs	an L-asparaginyl-[tRNAAsn]	p
3-oxo-decanoyl-ACPs	a 3-oxo-decanoyl-[acp]	cp
CPD-17047	3-benzyl-3,6 -bis(cysteinylglycine)- 6-(hydroxymethyl)-diketopiperazine	c
DNA-containing-aPurinic-Sites	an apurinic site within DNA	p
3-5-ADP	adenosine 3',5'-bisphosphate	cp
Wound-RNA	wound RNA	c
Charged-CYS-tRNAs	an L-cysteinyl-[tRNACys]	cp
2-ACETO-LACTATE	(S)-2-acetolactate	cp
DNA-containing-abasic-Sites	a DNA containing an apurinic/apyrimidinic site	cp
Charged-GLN-tRNAs	an L-glutaminyl-[tRNAGln]	p
Charged-GLT-tRNAs	an L-glutamyl-[tRNAGlu]	c
PROTOHEME	ferroheme b	cp
XANTHOSINE	xanthosine	p
XANTHOSINE-5-PHOSPHATE	XMP	cp
2-ALPHA-HYDROXYETHYL-THPP	2-(&alpha;-hydroxyethyl)thiamine diphosphate	cp
DNA-deoxycytidine-dimer	a dimer of non-adjacent 2'-deoxycytidines in DNA	c
Charged-HIS-tRNAs	an L-histidyl-[tRNAHis]	p
CPD-14018	icosapentaenoyl-CoA	p
Charged-ILE-tRNAs	an L-isoleucyl-[tRNAIle]	p
CPD-9148	(2Z,4E)-2-amino-5-methyl-muconate semialdehyde	c
CPD-14053	(6R)-L-erythro-5,6,7,8-tetrahydrobiopterin	cp
Charged-LEU-tRNAs	an L-leucyl-[tRNALeu]	cp
2-AMINO-3-3-OXOPROP-2-ENYL-BUT-2-ENEDI	aminocarboxymuconate semialdehyde	cp
Palmitoleoyl-ACPs	a palmitoleoyl-[acp]	c
TRP	L-tryptophan	cp
Charged-LYS-tRNAs	an L-lysyl-[tRNALys]	p
Palmitoyl-ACPs	a palmitoyl-[acp]	c
CPD-9150	(2Z,4E)-2-amino-5-methyl-muconate	cp
2-AMINO-MUCONATE	(2Z,4E)-2-aminomuconate	cp
TRP-tRNAs	a tRNATrp	c
Charged-MET-tRNAs	an L-methionyl-[elongator tRNAMet]	p
CPD-9151	3-chlorocatechol	p
Charged-PHE-tRNAs	an L-phenylalanyl-[tRNAPhe]	c
PHOSPHO-ENOL-PYRUVATE	phosphoenolpyruvate	cp
CPD-14268	(15Z)-tetracosenoate	c
DNA-deoxycytidine-thymidine-dimer	a dimer of non-adjacent 2'-deoxycytidine and thymidine in DNA	c
Charged-PRO-tRNAs	an L-prolyl-[tRNAPro]	p
2-AMINOACRYLATE	2-aminoprop-2-enoate	p
CPD-9152	4-chlorocatechol	p
Charged-SER-tRNAs	an L-seryl-[tRNAser]	p
CPD-14269	(Z)-15-tetracosenoyl-CoA	p
DNA-pyrimidines	a pyrimidine nucleoside in DNA	p
CPD-6442	methylsalicylate	c
Charged-THR-tRNAs	an L-threonyl-[tRNAThr]	p
ATP	ATP	cp
Charged-TRP-tRNAs	an L-tryptophanyl-[tRNATrp]	p
CPD-12179	methylmalonate semialdehyde	c
Charged-TYR-tRNAs	an L-tyrosyl-[tRNATyr]	p
CPD-645	5-dehydro-2-deoxy-D-gluconate 6-phosphate	p
Charged-VAL-tRNAs	an L-valyl-[tRNAVal]	p
DNA-thymidine-deoxycytidine-dimer	a dimer of non-adjacent thymidine and 2'-deoxycytidine in DNA	c
2-hydroxyacyl-glutathiones	S-(2-hydroxyacyl)glutathione	c
Charged-fMET-tRNAs	an N-formyl-L-methionylaminoacyl-tRNA	c
2-trans-4-cis-dienoyl-CoAs	a 2-trans-4-cis-dienoyl-CoA	c
CPD-122	(S)-mandelate	p
MG+2	Mg2+	cp
DNA-thymidine-dimer	a dimer of non-adjacent thymidines in DNA	c
CPD-650	(3R)-3-hydroxybutanoyl-CoA	cp
MALONATE-S-ALD	3-oxopropanoate	c
OROTIDINE-5-PHOSPHATE	orotidine 5'-phosphate	cp
MG-PROTOPORPHYRIN-MONOMETHYL-ESTER	magnesium-protoporphyrin IX 13-monomethyl ester	c
CDP	CDP	cp
CPD-12230	a peptidoglycan with D,D cross-link (S. aureus)	p
INDOLE	indole	c
CDP-2-3-4-Saturated-Diacylglycerols	a CDP-2,3,4-saturated-diacylglycerol	p
INDOLE-3-GLYCEROL-P	(1S,2R)-1-C-(indol-3-yl)glycerol 3-phosphate	cp
CPD-12231	a peptidoglycan dimer (meso-diaminopimelate containing)	c
INDOLEYL-CPD	(indole-3-yl)acetonitrile	c
DNA-thymidines	a thymidine in DNA	p
ADENYLOSUCC	adenylo-succinate	cp
PALMITATE	palmitate	cp
CPD-12259	a peptidoglycan dimer (S. aureus)	c
CPD-658	CDP-4-dehydro-6-deoxy-D-glucose	c
PALMITYL-COA	palmitoyl-CoA	cp
INDOLE_ACETATE_AUXIN	(indol-3-yl)acetate	p
CPD-12261	a peptidoglycan with D,D cross-links (meso-diaminopimelate containing)	p
CDPDIACYLGLYCEROL	a CDP-diacylglycerol	cp
MONOMER0-4342	a [prolipoprotein]-(S-diacylglyceryl)-L-cysteine	cp
CPD-12279	2-iminoacetate	c
Pyruvate-dehydrogenase-acetylDHlipoyl	a [pyruvate dehydrogenase E2 protein] N6-S-acetyldihydrolipoyl-L-lysine	cp
CPD-663	UDP-4-dehydro-6-deoxy-&alpha;-D-glucose	cp
DNA-with-Uracils	a uracil in DNA	c
Pyruvate-dehydrogenase-dihydrolipoate	a [pyruvate dehydrogenase E2 protein] N6-dihydrolipoyl-L-lysine	cp
Reduced-CycA1-cytochromes	a reduced CycA1 cytochrome	c
L-leucyl-L-lysyl-Protein	a [protein] N-terminal L-leucyl-L-lysine	p
CPD-19160	3-oxo-(11Z)-octadecenoyl-CoA	c
GLT	L-glutamate	cp
AMMONIUM	ammonium	cp
Reduced-NrdH-Proteins	a reduced NrdH glutaredoxin-like protein	c
1-CHLORO-24-DINITROBENZENE	1-chloro-2,4-dinitrobenzene	cp
OXALACETIC_ACID	oxaloacetate	cp
GLT-tRNAs	a tRNAglu	p
GLYCEROL	glycerol	cp
L-methionyl-L-alanyl-Protein	an N-terminal-L-methionyl-L-alanyl-[protein]	c
L-methionyl-L-cysteinyl-Protein	an N-terminal-L-methionyl-L-cysteinyl-[protein]	c
NICOTINAMIDE_NUCLEOTIDE	&beta;-nicotinamide D-ribonucleotide	cp
L-methionyl-L-seryl-Protein	an N-terminal-L-methionyl-L-seryl-[protein]	c
CPD-19161	(2E,7Z)-tetradecenoyl-CoA	p
L-methionyl-L-threonyl-Protein	an N-terminal-L-methionyl-L-threonyl-[protein]	c
NICOTINAMIDE_RIBOSE	1-(&beta;-D ribofuranosyl)nicotinamide	p
L-methionyl-L-valyl-Protein	an N-terminal-L-methionyl-L-valyl-[protein]	c
MALONYL-ACP	a malonyl-[acp]	cp
ACETOACETYL-COA	acetoacetyl-CoA	cp
OXALO-SUCCINATE	oxalosuccinate	cp
L-methionyl-glycyl-Protein	an N-terminal-L-methionyl-glycyl-[protein]	c
5-Methylcytosine-DNA	a 5-methylcytosine in DNA	p
GLYCEROL-3P	sn-glycerol 3-phosphate	cp
L-methionyl-tRNAfmet	an L-methionyl-[initiator tRNAMet]	cp
DIAMINONONANOATE	7,8-diaminopelargonate	c
3-CARBOXY-3-HYDROXY-ISOCAPROATE	(2S)-2-isopropylmalate	cp
1-KETO-2-METHYLVALERATE	(R)-2,3-dihydroxy-3-methylpentanoate	cp
CPD-19162	(2E,9Z)-hexadecenoyl-CoA	p
Reduced-ferredoxins	a reduced ferredoxin [iron-sulfur] cluster	cp
AMP	AMP	cp
L-phenylalanyl-L-arginyl-Protein	L-phenylalanyl-L-arginyl-[protein]	p
MALONYL-COA	malonyl-CoA	cp
L-phenylalanyl-L-lysyl-Protein	L-phenylalanyl-L-lysyl-[protein]	p
L-seryl-SEC-tRNAs	an L-seryl-[tRNAsec]	p
Relaxed-DNAs	a relaxed DNA	cp
CPD-19163	(2E,11Z)-octadecenoyl-CoA	p
Resolution-of-Recombinational-Junction	resolution of recombinational junction formation of two intact strands	p
BISOHMYR-GLC	lipid A disaccharide	cp
1-L-MYO-INOSITOL-1-P	1D-myo-inositol 3-monophosphate	c
PROTON	H+	cp
Retinols	a retinol	p
BISOHMYR-GLUCOSAMINYL-1P	lipid X	cp
CPD-19167	3-oxo-(7Z)-hexadecenoyl-CoA	c
LAUROYLCOA-CPD	lauroyl-CoA	p
Rhodoquinols	a rhodoquinol	c
DODECANOATE	laurate	c
Rhodoquinones	a rhodoquinone	p
3OH-4P-OH-ALPHA-KETOBUTYRATE	(3R)-3-hydroxy-2-oxo-4 phosphooxybutanoate	cp
Ribonucleoside-Diphosphates	a ribonucleoside diphosphate	cp
NICOTINATE_NUCLEOTIDE	&beta;-nicotinate D-ribonucleotide	cp
CPD-19169	3-oxo-(9Z)-octadecenoyl-CoA	c
3-DEHYDRO-SHIKIMATE	3-dehydroshikimate	cp
Ribonucleoside-Monophosphates	a ribonucleoside 5'-monophosphate	cp
5-P-BETA-D-RIBOSYL-AMINE	5-phospho-&beta;-D-ribosylamine	cp
Cis-Delta5-dodecenoyl-ACPs	a (5Z)-dodec-5-enoyl-[acp]	c
Ribonucleoside-Triphosphates	a ribonucleoside triphosphate	c
CPD-19170	(2E,7Z)-hexadecenoyl-CoA	p
Ribonucleosides	a ribonucleoside	p
3R-11Z-3-hydroxy-icos-11-enoyl-ACPs	a (3R,11Z)-3-hydroxy-icos-11-enoyl-[acp]	p
BR-	bromide	cp
3R-5Z-3-hydroxy-tetradec-5-enoyl-ACPs	a (3R,5Z)-3-hydroxy-tetradec-5-enoyl-[acp]	p
Cis-Delta7-tetradecenoyl-ACPs	a cis-&Delta;7-tetradecenoyl-[acp]	c
DOLICHOLP	a dolichyl phosphate	cp
3R-7Z-3-hydroxy-hexadec-7-enoyl-ACPs	a (3R,7Z)-3-hydroxy-hexadec-7-enoyl-[acp]	p
LEU	L-leucine	cp
Cis-delta-3-decenoyl-ACPs	a (3Z)-dec-3-enoyl-[acp]	c
CPD-19172	(2E,9Z)-octadecenoyl-CoA	p
Dodecanoyl-ACPs	a dodecanoyl-[acp]	c
N-Acetyl-beta-D-Hexosaminides	an N-acetyl-&beta;-D-hexosaminide	c
3-oxo-dodecanoyl-ACPs	a 3-oxo-dodecanoyl-[acp]	cp
CPD-335	(R)-3-hydroxybutanoate	cp
CPD-106	(S)-4-hydroxymandelate	p
CPD-10600	4-hydroxybenzoyl-acetyl-CoA	c
3-oxo-hexanoyl-ACPs	a 3-oxo-hexanoyl-[acp]	cp
CPD-17048	3-benzyl-3,6 -bis(cysteinyl)- 6-(hydroxymethyl)-diketopiperazine	p
CPD-3617	decanoate	c
UDP-OHMYR-ACETYLGLUCOSAMINE	UDP-3-O-[(3R)-3-hydroxymyristoyl]-N-acetyl-&alpha;-D-glucosamine	c
CPD-10608	trans-dienelactone	c
Donor-H2	a reduced electron acceptor	cp
Double-Stranded-DNAs	a double stranded DNA	cp
3-oxo-lignoceroyl-ACPs	a 3-oxo-lignoceroyl-[acp]	cp
SULFATE	sulfate	cp
CPD-17063	ferroheme o	p
Double-helix-DNA	a double-helix DNA	c
3-oxo-myristoyl-ACPs	a 3-oxo-myristoyl-[acp]	cp
UDP-OHMYR-GLUCOSAMINE	UDP-3-O-(3-hydroxymyristoyl)-&alpha;-D-glucosamine	cp
3-oxo-palmitoyl-ACPs	a 3-oxo-palmitoyl-[acp]	cp
Drugs	a drug	cp
CELLULOSE	cellulose	cp
CPD-3618	2-oxovalerate	p
CPD-171	a dolichyl &beta;-D-mannosyl phosphate	cp
CPD-14443	(2S,4S)-4-hydroxy-2,3,4,5-tetrahydrodipicolinate	cp
FRU1P	&beta;-D-fructofuranose 1-phosphate	c
CPD-173	salicyl alcohol	p
3-oxo-petroselinoyl-ACPs	a 3-oxo-petroselinoyl-[acp]	cp
CPD-17312	docosahexaenoyl-CoA	p
N-FORMIMINO-L-GLUTAMATE	N-formimino-L-glutamate	cp
EG10823-MONOMER	Unknown	c
3-oxo-stearoyl-ACPs	a 3-oxo-stearoyl-[acp]	cp
CPD-1063	5-(methylthio)ribulose 1-phosphate	cp
3-terminal-unsaturated-sugars	a 3'-terminal unsaturated sugar	p
CH3-MALONATE-S-ALD	(S)-methylmalonate-semialdehyde	c
ENTEROBACTIN	enterobactin	c
CPD-10633	5-chloro-trans-dienelactone	c
PHOSPHORIBOSYL-AMP	1-(5-phospho-&beta;-D-ribosyl)-AMP	cp
CPD-10634	5-chloromaleylacetate	p
HOMOGENTISATE	homogentisate	cp
N-FORMYLKYNURENINE	N-formylkynurenine	p
CH33ADO	5'-deoxyadenosine	cp
CPD-14675	pristanoyl-CoA	p
CPD-10636	2,5-dichloro-trans-dienelactone	c
PHOSPHORIBOSYL-ATP	1-(5-phospho-&beta;-D-ribosyl)-ATP	cp
CPD-3706	adenosine 3'-monophosphate	p
CPD-14704	4-hydroxy-2-nonenal-glutathione conjugate	p
CPD-10637	2,5-dichloromaleylacetate	p
FRUCTOSE-16-DIPHOSPHATE	&beta;-D-fructose 1,6-bisphosphate	cp
N-Hydroxy-Arylamines	an N-hydroxy-arylamine	c
CPD-3707	adenosine 2',3'-cyclic monophosphate	c
CPD-14736	L-kynurenine	c
CPD-17365	(4Z,7Z,10Z,13Z,16Z)-docosapentaenoyl-CoA	p
CPD0-929	heptosyl-Kdo2-lipid A	c
Peptides-holder	a peptide	p
2-AMINOMUCONATE_SEMIALDEHYDE	(2Z,4E)-2-amino-6-oxohexa-2,4-dienoate	cp
Acceptor	an oxidized electron acceptor	cp
MYO-INOSITOL	myo-inositol	cp
CPD0-930	(heptosyl)2-Kdo2-lipid A	p
5-P-RIBOSYL-N-FORMYLGLYCINEAMIDE	N2-formyl-N1-(5-phospho-&beta;-D-ribosyl)glycinamide	c
CPD1F-2	(-)-methyl jasmonate	c
PANTETHEINE-P	4'-phosphopantetheine	cp
DPG	3-phospho-D-glyceroyl-phosphate	cp
5-PHOSPHO-RIBOSYL-GLYCINEAMIDE	N1-(5-phospho-&beta;-D-ribosyl)glycinamide	p
2-C-METHYL-D-ERYTHRITOL-4-PHOSPHATE	2-C-methyl-D-erythritol 4-phosphate	cp
MALTOHEXAOSE	maltohexaose	cp
Acetoacetyl-ACPs	an acetoacetyl-[acp]	cp
Phenols	a phenol	p
THMPT	tetrahydromethanopterin	p
Cyclic-2-3-Ribonucleoside-Monophosphates	a ribonucleoside 2',3'-cyclic phosphate	c
CPD1F-90	kaempferol	p
5-PHOSPHORIBOSYL-5-AMINOIMIDAZOLE	5-amino-1-(5-phospho-&beta;-D-ribosyl)imidazole	cp
2-CHLOROMALEYLACETATE	2-chloromaleylacetate	p
ADP	ADP	cp
CPD1G-1344	&alpha;, &alpha;'-trehalose 6-&alpha;-mycolate	p
ADP-D-GLUCOSE	ADP-&alpha;-D-glucose	c
2-D-THREO-HYDROXY-3-CARBOXY-ISOCAPROATE	(2R,3S)-3-isopropylmalate	cp
DTDP-D-GLUCOSE	dTDP-&alpha;-D-glucose	cp
5-PHOSPHORIBOSYL-N-FORMYLGLYCINEAMIDINE	2-(formamido)-N1-(5-phospho-&beta;-D-ribosyl)acetamidine	cp
CPD-9164	(E)-5-methyl-2-oxo-3-hex-3-enedioate	p
2-DEHYDROPANTOATE	2-dehydropantoate	cp
CPD1G-1345	trehalose-cis-methoxy-mono-mycolate	p
MALTOPENTAOSE	maltopentaose	cp
Phosphoglucomutase	a phosphoglucomutase	cp
Phosphoglucosamine-Mutase	a phosphoglucosamine mutase	cp
CPD1G-1346	trehalose-trans-methoxy-mono-mycolate	p
THR	L-threonine	cp
ADP-L-GLYCERO-D-MANNO-HEPTOSE	ADP-L-glycero-&beta;-D-manno-heptose	c
PROTOPORPHYRIN_IX	protoporphyrin IX	cp
PANTOTHENATE	(R)-pantothenate	p
CPD1G-1353	trehalose-cis-keto-mono-mycolate	p
THR-tRNAs	a tRNAThr	c
Phospholipid-Cyclopropane-Fatty-Acids	a [phospholipid] cyclopropane fatty acid	p
Ribosomal-protein-L3-L-glutamine	a [ribosomal protein L3]-L-glutamine	c
XYLULOSE-5-PHOSPHATE	D-xylulose 5-phosphate	cp
GlcMan9GlcNAc2-proteins	GlcMan9GlcNAc2-[protein]	c
INDOLE_PYRUVATE	(indol-3-yl)pyruvate	cp
Ribosomal-protein-L3-N5M-L-glutamine	a [ribosomal protein L3]-N5-methyl-L-glutamine	p
Ribosomal-protein-S12-3-methylthio-Asp89	a [ribosomal protein S12]-3-methylsulfanyl-L-aspartate89	p
Ribosomal-protein-S12-Asp89	a [ribosomal protein S12] L-aspartate89	c
Xenobiotic	a xenobiotic	cp
CPD-19217	S-(hydroxysulfenamide)-glutathione	p
S-2-Haloacids	an (S)-2-haloacid	c
S-2-Hydroxyacids1	an (S)-2-hydroxyacid	p
Cyclodextrins	a cyclodextrin	cp
Glucopyranose	D-glucopyranose	cp
S-24-DINITROPHENYLGLUTATHIONE	2,4-dinitrophenyl-S-glutathione	cp
PHOSPHORIBOSYL-CARBOXY-AMINOIMIDAZOLE	5-amino-1-(5-phospho-D-ribosyl)imidazole-4-carboxylate	cp
Actinorhodin-Intermediate-2	9-hydroxy-3,5,7,11,13,15-hexaoxohexadecanoyl-[PKS-acp]	p
CPD-19395	&gamma;-L-glutamyl-glycylglycine	p
Kanamycin-3-phosphates	a kanamycin 3'-phosphate	p
NITRITE	nitrite	p
Kanamycins	a kanamycin	c
OXIDIZED-GLUTATHIONE	glutathione disulfide	p
CPD-667	O-acetyl-L-homoserine	cp
Cytidine-34-tRNAIle2	a cytidine34 in tRNAIle2	c
a-2-oxoglutarate-dehydrogenase-E2-protei	a [2-oxoglutarate-dehydrogenase E2 protein] N6-octanoyl-L-lysine	c
OXOPENTENOATE	2-oxopent-4-enoate	cp
DIHYDRO-NEO-PTERIN	7,8-dihydroneopterin	c
a-double-stranded-DNA-with-a-blunt-end	a Chi-site containing double stranded DNA with a blunt end	c
L-1-GLYCERO-PHOSPHORYLCHOLINE	sn-glycero-3-phosphocholine	p
Glutamine-synthetase-Tyr	a [glutamine-synthetase]-L-tyrosine	c
DTDP-DEOH-DEOXY-GLUCOSE	dTDP-4-dehydro-6-deoxy-&alpha;-D-glucopyranose	cp
CPD-19487	3-isopropyl-10-(methylthio)-2-oxodecanoate	cp
Glutamine-synthetase-adenylyl-Tyr	a [glutamine synthetase]-O4-(5'-adenylyl)-L-tyrosine	p
Acyl-Phosphates	an acyl phosphate	c
S-ADENOSYLMETHIONINAMINE	S-adenosyl 3-(methylthio)propylamine	cp
L-1-GLYCEROPHOSPHORYLETHANOL-AMINE	sn-glycero-3-phosphoethanolamine	cp
CPD-67	2-phosphoglycolate	c
a-pyruvate-dehydrogenase-E2-protein-Nsup	a [pyruvate dehydrogenase E2 protein] N6-octanoyl-L-lysine	c
Glutaryl-ACP-methyl-esters	a glutaryl-[acp] methyl ester	c
CPD-19488	3-isopropyl-9-(methylthio)-2-oxononanoate	cp
alpha-N-Peptidyl-LGlutamate	a [protein] C-terminal L-glutamate	c
CPD-6701	1D-myo-inositol 5-monophosphate	c
CPD-6702	1D-myo-inositol 6-monophosphate	c
NMNH	reduced &beta;-nicotinamide D-ribonucleotide	p
DTDP-DEOH-DEOXY-MANNOSE	dTDP-4-dehydro-&beta;-L-rhamnose	cp
CPD-19489	3-isopropyl-8-(methylthio)-2-oxooctanoate	cp
apo-ACP	an apo-[acyl-carrier protein]	c
OXYGEN-MOLECULE	oxygen	cp
S-ADENOSYLMETHIONINE	S-adenosyl-L-methionine	cp
CPD-19490	3-isopropyl-7-(methylthio)-2-oxoheptanoate	cp
PHOSPHORIBOSYL-FORMAMIDO-CARBOXAMIDE	5-formamido-1-(5-phospho-D-ribosyl)-imidazole-4-carboxamide	cp
apo-Transcarboxylases	an apo-[methylmalonyl-CoA:pyruvate carboxytransferase]	c
CPD-6746	1D-myo-inositol 2-monophosphate	c
Glycerophosphodiesters	a glycerophosphodiester	c
CPD-19491	3-isopropyl-6-(methylthio)-2-oxohexanoate	cp
ACETYL-ACP	an acetyl-[acp]	c
b-Hydroxy-cis-D5-dodecenoyl-ACPs	a (3R,5Z)-3-hydroxy-dodec-5-enoyl-[acp]	p
INOSINE	inosine	p
PHOSPHORIBOSYL-FORMIMINO-AICAR-P	1-(5-phospho-&beta;-D-ribosyl)-5-[(5-phosphoribosylamino)methylideneamino]imidazole-4-carboxamide	cp
CPD-19492	3-ethyl-2-oxosuccinate	cp
b-Keto-cis-D5-dodecenoyl-ACPs	a (5Z)-3-oxo-dodec-5-enoyl-[acp]	cp
DIHYDROFOLATE	7,8-dihydrofolate monoglutamate	p
L-1-LYSOPHOSPHATIDATE	1-oleyl-2-lyso-phosphatidate	p
biotin-L-lysine-in-BCCP-dimers	a [biotin carboxyl-carrier-protein dimer]-N6-biotinyl-L-lysine	cp
DIHYDROFOLATE-GLU-N	a 7,8-dihydrofolate	p
CPD-195	octanoate	c
PRPP	5-phospho-&alpha;-D-ribose 1-diphosphate	cp
L-1-PHOSPHATIDYL-ETHANOLAMINE	an L-1-phosphatidylethanolamine	p
Glycogens	a glycogen	cp
DTDP-RHAMNOSE	dTDP-&beta;-L-rhamnose	p
Cytochromes-C-Oxidized	an oxidized c-type cytochrome	cp
CPD-196	octanoyl-CoA	p
carboxybiotin-L-lysine-in-BCCP-dimers	a [carboxyl-carrier protein dimer]-N6-carboxybiotinyl-L-lysine	cp
Pyruvate-dehydrogenase-lipoate	a [pyruvate dehydrogenase E2 protein] N6-lipoyl-L-lysine	cp
ACETYL-COA	acetyl-CoA	cp
LEU-tRNAs	a tRNALeu	cp
N-SUCCINYL-2-AMINO-6-KETOPIMELATE	N-succinyl-2-amino-6-ketopimelate	p
CPD-12286	4-O-phospho-&alpha;-Kdo-(2&rarr;6)-lipid IVA	p
Adjacent-pyrimidine-dimer-in-DNA	a dimer of adjacent pyrimidine nucleosides in DNA	c
Cytochromes-C-Reduced	a reduced c-type cytochrome	cp
GLYCEROPHOSPHOGLYCEROL	glycerophosphoglycerol	c
CPD-3708	guanosine 3'-monophosphate	p
CPD-12303	undecaprenyl-diphospho-N-acetylmuramoyl-L-alanyl-&gamma;-D-glutamyl-L-lysyl- D-alanine	c
THREO-DS-ISO-CITRATE	D-threo-isocitrate	cp
Agaroses	an agarose	c
N-SUCCINYLLL-2-6-DIAMINOPIMELATE	N-succinyl-L,L-2,6-diaminopimelate	c
Alcohols	an alcohol	p
GLUCOSAMINE-1P	D-glucosamine 1-phosphate	cp
QUEUINE	queuine	c
N-Substituted-Amino-Acids	an N-modified amino acid	p
CPD-12304	ditrans,octacis-undecaprenyldiphospho-N-acetyl-(N-acetylglucosaminyl)muramoyl-L-alanyl-&gamma;-D-glutamyl-L-lysyl-D-alanine	p
3-DEOXY-D-ARABINO-HEPTULOSONATE-7-P	3-deoxy-D-arabino-heptulosonate 7-phosphate	cp
SUPER-OXIDE	superoxide	c
N-Substituted-Aminoacyl-tRNA	an N-modified aminoacyl-[tRNA]	c
CPD-3709	guanosine 2',3'-cyclic monophosphate	c
CPD-12310	a peptidoglycan dimer (E. faeciums)	c
N-acetyl-D-glucosamine	N-acetyl-D-glucosamine	cp
ANTHRANILATE	anthranilate	cp
D-3-HYDROXYACYL-COA	a (3R)-3-hydroxyacyl-CoA	cp
N-acetyl-D-mannosamine	N-acetyl-D-mannosamine	cp
CPD-12311	a peptidoglycan with D,D cross-link (E. faecium)	p
CPD-3711	cytidine-3'-monophosphate	p
QUINOLINATE	quinolinate	cp
D-6-P-GLUCONO-DELTA-LACTONE	6-phospho D-glucono-1,5-lactone	cp
N-acetyl-beta-D-hexosamines	an N-acetyl-&beta;-D-hexosamine	p
CPD-12321	15-cis-phytoene	p
GLYCOLALDEHYDE	glycolaldehyde	p
N-formyl-L-methionyl-tRNAfmet	an N-formyl-L-methionyl-[initiator tRNAmet]	p
GLYCOLLATE	glycolate	p
D-ALA-D-ALA	D-alanyl-D-alanine	cp
CPD-12365	8-oxo-dGMP	p
CPD1G-1354	trehalose-trans-keto-mono-mycolate	p
CPD1G-768	6-O-&alpha;-mycolyl-trehalose 6-phosphate	c
FRUCTOSE-6P	&beta;-D-fructofuranose 6-phosphate	cp
BUTYRYL-COA	butanoyl-CoA	c
LEUKOTRIENE-C4	leukotriene-C4	c
CPD1G-771	6-O-cis-methoxy-mycolyl-trehalose 6-phosphate	c
Malonyl-acp-methyl-ester	a malonyl-[acp] methyl ester	cp
CPD1G-772	6-O-trans-methoxy-mycolyl-trehalose 6-phosphate	c
Man6-GlcNAc2-protein-A12B2	Man6GlcNAc2-[protein] (isomer 6A1,2B2)	cp
CPD1G-773	6-O-cis-keto-mycolyl-trehalose 6-phosphate	c
Man6GlcNAc2-protein-A123	Man6GlcNAc2-[protein] (isomer 6A1,2,3)	cp
CPD1G-774	6-O-trans-keto-mycolyl-trehalose 6-phosphate	c
IS30-Insertion-Sequences	an insertion sequence element IS30	cp
Man6GlcNAc2-protein-A12B1	Man6GlcNAc2-[protein] (isomer 6A1,2B1)	cp
LINOLEIC_ACID	linoleate	c
CPD66-21	leukotriene-D4	cp
IS30-with-Integrated-Transposon	an insertion sequence IS30 with integrated transposon	cp
Man7GlcNAc2-protein-A123B1	Man7GlcNAc2-protein (isomer 7A1,2,3B1)	cp
ISOBUTYRATE	isobutanoate	c
Behenoyl-ACPs	a behenoyl-[acp]	c
FUM	fumarate	cp
Man7GlcNAc2-protein-A123B2	Man7GlcNAc2-[protein] (isomer 7A1,2,3B2)	cp
S-HYDROXYMETHYLGLUTATHIONE	S-(hydroxymethyl)glutathione	c
CPD66-39	a 2,3,4-saturated fatty acid	c
ACETYL-ETCETERA-L-ASPARAGINE	N4-(&beta;-N-acetyl-D-glucosaminyl)-L-asparagine	c
CPDQT-27	6-(methylthio)-2-oxohexanoate	p
Man7GlcNAc2-protein-A123B3	Man7GlcNAc2-[protein] (isomer 7A1,2,3B3)	c
ISOBUTYRYL-COA	isobutanoyl-CoA	cp
D-ALANINE	D-alanine	cp
S-LACTOYL-GLUTATHIONE	(R)-S-lactoylglutathione	cp
Beta-3-hydroxybutyryl-ACPs	a (3R)-3-hydroxybutanoyl-[acp]	p
Man7GlcNAc2-protein-A12B12	Man7GlcNAc2-[protein] (isomer 7A1,2B1,2)	cp
CPDQT-28	7-(methylthio)-2-oxoheptanoate	p
Man8-GlcNAc2-protein-A123B12	Man8GlcNAc2-[protein] (isomer 8A1,2,3B1,2)	cp
LINOLENIC_ACID	&alpha;-linolenate	c
CPDQT-29	8-(methylthio)-2-oxooctanoate	p
Man8GlcNAc2-protein-A123B13	Man8GlcNAc2-[protein] (isomer 8A1,2,3B1,3)	c
Man8GlcNAc2-protein-A123B23	Man8GlcNAc2-[protein] (isomer 8A1,2,3B2,3)	cp
Beta-hydroxydecanoyl-ACPs	a (3R)-3-hydroxydecanoyl-[acp]	cp
CPDQT-30	9-(methylthio)-2-oxononanoate	p
Man9GlcNAc2-proteins	Man9GlcNAc2-[protein]	c
LINOLENOYL-COA	&alpha;-linolenoyl-CoA	p
S-NITROSOGLUTATHIONE	S-nitrosoglutathione	c
3-ENOLPYRUVYL-SHIKIMATE-5P	5-enolpyruvoyl-shikimate 3-phosphate	cp
CPD-678	hydrogen selenide	c
3-HYDROXY-3-METHYL-GLUTARYL-COA	(S)-3-hydroxy-3-methylglutaryl-CoA	c
ERYTHROSE-4P	D-erythrose 4-phosphate	cp
MALTOSE	maltose	cp
MALTOTETRAOSE	maltotetraose	p
D-ERYTHRO-IMIDAZOLE-GLYCEROL-P	D-erythro-imidazole-glycerol-phosphate	c
Guanine34-in-tRNAs	a guanine34 in tRNA	c
3-HYDROXY-ANTHRANILATE	3-hydroxyanthranilate	cp
2-DEOXYRIBOSE	2'-deoxyribose	c
Guanine46-in-tRNA	a guanine46 in tRNA	c
ETF-Oxidized	an oxidized electron-transfer flavoprotein	cp
CPD-9245	palmitoleate	c
CPD-10750	UDP-2-acetamido-2,6-dideoxy-&beta;-L-arabino-hex-4-ulose	cp
D-GALACTOSAMINE-6-PHOSPHATE	D-galactosamine 6-phosphate	p
H2CO3	carbonic acid	cp
CPD-9247	cis-vaccenate	c
HS	hydrogen sulfide	cp
MALTOTRIOSE	maltotriose	c
CPD-10751	UDP-4-amino-4,6-dideoxy-N-acetyl-&beta;-L-altrosamine	cp
ETF-Reduced	a reduced electron-transfer flavoprotein	cp
DIHYDROKAEMPFEROL-CMPD	(+)-dihydrokaempferol	c
ETHANOL-AMINE	ethanolamine	p
CPD-9385	&gamma;-glutamyl-p-nitroanilide	c
3-HYDROXY-DOCOSAPENTAENOYL-ACP	a (3R)-3-hydroxy-docosapentaenoyl-[acp]	p
CPD-9451	2-isopropylmaleate	cp
GLUTAMATE-1-SEMIALDEHYDE	(S)-4-amino-5-oxopentanoate	cp
DIHYDROLIPOYL-GCVH	a [glycine-cleavage complex H protein] N6-dihydrolipoyl-L-lysine	cp
DIHYDRONEOPTERIN-P3	7,8-dihydroneopterin 3'-triphosphate	c
5-Phospho-terminated-DNAs	a 5'-phospho-[DNA]	cp
3R-9Z-3-hydroxy-octadec-9-enoyl-ACPs	a (3R,9Z)-3-hydroxy-octadec-9-enoyl-[acp]	p
D-GLT	D-glutamate	c
Phospholipid-Olefinic-Fatty-Acids	a [phospholipid] olefinic fatty acid	c
APS	adenosine 5'-phosphosulfate	cp
L-1-PHOSPHATIDYL-GLYCEROL	an L-1-phosphatidyl-sn-glycerol	cp
L-1-PHOSPHATIDYL-GLYCEROL-P	1-(3-sn-phosphatidyl)-sn-glycerol 3-phosphate	cp
cis-19-CP-37-Mex-38-Me-C59-ACPs	a cis-methoxy-C59-meroacyl-[acp]	p
3Z-dodec-3-enoyl-ACPs	a (3Z)-dodec-3-enoyl-[acp]	c
cis-21-CP-39-keto-40-Me-C60-ACPs	a cis-keto-C60-meroacyl-[acp]	p
L-1-PHOSPHATIDYL-SERINE	a 3-O-sn-phosphatidyl-L-serine	cp
PHOSPHORIBULOSYL-FORMIMINO-AICAR-P	phosphoribulosylformimino-AICAR-phosphate	p
cis-D19-37-MOH-38-Me-C57-1-ACPs	a cis-delta19-37-methoxy-38-methyl-C57:1-[acp]	c
Phosphorylated-Phosphoglucosamine-Mutase	a phosphorylated phosphoglucosamine mutase	cp
5-Phosphomononucleotides	a 5'-phosphomononucleotide	p
cis-D21-39-oxo-40-Me-C59-1-ACPs	a cis-delta21-39-oxo-40-methyl-C59:1-[acp]	c
Phosphorylated-phosphoglucomutase	a phosphorylated phosphoglucomutase	cp
CPD-14808	scyllo-inosose	cp
ARABINOSE-5P	aldehydo-D-arabinose 5-phosphate	cp
4-AMINO-4-DEOXYCHORISMATE	4-amino-4-deoxychorismate	cp
5-phosphooligonucleotides	a 5'-phosphooligonucleotide	p
TTP	dTTP	cp
PAPS	3'-phosphoadenylyl-sulfate	cp
CPD-14925	(3Z)-dec-3-enoyl-CoA	p
L-ALA-GAMMA-D-GLU-DAP	L-alanyl-&gamma;-D-glutamyl-meso-diaminopimelate	c
Pi	phosphate	cp
L-ALPHA-ALANINE	L-alanine	cp
CPD-14927	phytenate	c
4-CARBOXYMETHYLENEBUT-2-EN-4-OLIDE	cis-dienelactone	c
D-GLUCOSAMINE-6-P	D-glucosamine 6-phosphate	cp
Pimeloyl-ACP-methyl-esters	a pimeloyl-[acp] methyl ester	c
QXC-ACP	a quinoxaline-2-carboxyl-[acyl-carrier protein]	p
CPD-14928	phytenoyl-CoA	p
Pimeloyl-ACPs	a pimeloyl-[acp]	cp
AGMATHINE	agmatine	cp
Negatively-super-coiled-DNAs	a negatively supercoiled DNA	cp
TYR	L-tyrosine	cp
CPD-14931	a 10-formyltetrahydrofolate-4a-carbinolamine	p
PENICILLIN	a penicillin	cp
Neoagaro-oligosaccharides	a neoagaro-oligosaccharide	p
TYR-tRNAs	a tRNATyr	c
CPD-15015	4-hydroxy-2-oxoglutarate	cp
4-CYTIDINE-5-DIPHOSPHO-2-C	4-(cytidine 5'-diphospho)-2-C-methyl-D-erythritol	cp
Quinones	a quinone	c
CPD-15056	(2Z)-2-aminobut-2-enoate	cp
R-2-Haloacids	an (R)-2-haloacid	c
holo-Transcarboxylases	a holo-[methylmalonyl-CoA:pyruvate carboxytransferase]	p
GLYCYLGLYCINE	glycyl-glycine	c
R-2-Hydroxyacids	an (R)-2-hydroxyacid	p
PENICILLIN-G	penicillin G	cp
4-FUMARYL-ACETOACETATE	4-fumaryl-acetoacetate	cp
CPD-15127	5-deoxy-D-glucuronate	cp
ligated-tRNAs-with-2prime-5prime-linkage	a ligated tRNA with a 2'-5' linkage	cp
mRNA-Fragments	an mRNA fragment	p
D-HEXOSE-6-PHOSPHATE	D-hexose 6-phosphate	p
ARG	L-arginine	cp
AICAR	5-amino-1-(5-phospho-D-ribosyl)imidazole-4-carboxamide	cp
DUDP	dUDP	cp
Poly-Hydroxybutyrate	poly-3-hydroxybutanoate	cp
CPD-15159	(6R)-6,7-dihydrobiopterin	p
CPD-19695	UDP-4-amino-D-fucose	cp
CPD-3713	cytidine 2',3'-cyclic monophosphate	c
Saturated-Fatty-Acyl-ACPs	a 2,3,4-saturated fatty acyl-[acp]	c
ACETYL-GLU	N-acetyl-L-glutamate	cp
CHITIN	chitin	cp
CHITOBIOSE	N,N'-diacetylchitobiose	cp
Saturated-Fatty-Acyl-CoA	a 2,3,4-saturated fatty acyl CoA	cp
S-Substituted-Glutathione	a glutathione-toxin conjugate	p
CPD-3724	uridine 3'-monophosphate	p
D-Hexoses	a D-hexose	c
CPD-17370	18-hydroxyoleoyl-CoA	p
SACCHAROPINE	L-saccharopine	c
CHOCOLA_A	all-trans-retinyl palmitate	c
ARG-tRNAs	a tRNAArg	cp
CHORISMATE	chorismate	cp
D-LACTATE	(R)-lactate	p
CPD-3725	uridine 2'3'-cyclic monophosphate	c
CPD-12575	UDP-&alpha;-D-glucose	cp
Semiquinones	a semiquinone	p
CPD-17388	3-oxo-(6Z,9Z,12Z,15Z,18Z,21Z)-tetracosahexaenoyl-CoA	c
CPD-3736	lanthionine	p
Fatty-Acids	a fatty acid	p
CPD-12601	&beta;-D-mannopyranose	p
CPD-3762	5-amino-4-imidazolecarboxyamide	c
THYMIDINE	thymidine	c
CPD-12634	(glutathion-S-yl)(1H-indol-3-yl)acetonitrile	p
CPD-19761	2,6-dichloro-3-(glutathione-S-yl)-hydroquinone	p
CPD-3766	menadione	c
CPD-19763	2,3,5-trichloro-6-(glutathione-S-yl)-hydroquinone	p
D-MYO-INOSITOL-1-MONOPHOSPHATE	1D-myo-inositol 1-monophosphate	c
CPD-17621	16-hydroxypalmitoyl-CoA	p
ACETYLSERINE	O-acetyl-L-serine	cp
CPD-1301	tetrahydropteroyl tri-L-glutamate	cp
D-MYO-INOSITOL-4-PHOSPHATE	1D-myo-inositol 4-monophosphate	c
CPD-7066	(2R,3S)-3-methylmalate	p
N-terminal-L-Serine	an N-terminal L-seryl-[protein]	p
CPD-7076	2-methylbutanoate	c
N-terminal-L-alanine	an N-terminal L-alanyl-[protein]	p
UMP	UMP	cp
CPD-1078	CDP-4-dehydro-3,6-dideoxy-D-glucose	p
N-terminal-L-cysteine	an N-terminal L-cysteinyl-[protein]	p
CPD-7100	(2S)-2-isopropyl-3-oxosuccinate	cp
N-terminal-L-cysteine-sulfinate	an N-terminal 3-sulfino-L-alanyl-[protein]	c
ETOH	ethanol	c
N-terminal-L-cysteine-sulfonate	an N-terminal 3-sulfo-L-alanyl-[protein]	c
CPD-10806	4-hydroxy-2-nonenal	c
N-terminal-L-valine	an N-terminal L-valyl-[protein]	p
LIPID-IV-A	lipid IVA	cp
N-terminal-glycine	an N-terminal glycyl-[protein]	p
UNDECAPRENYL-DIPHOSPHATE	di-trans,octa-cis-undecaprenyl diphosphate	p
ETR-Quinols	an electron-transfer quinol	cp
CPD-7221	(3Z)-dodec-3-enoyl-CoA	p
CPD-10819	L-erythro-biopterin	cp
N5-Formyl-THF-Glu-N	an (6S)-N5-formyl-tetrahydrofolate	cp
ETR-Quinones	an electron-transfer quinone	cp
CPD-7224	N-acetyl-L-citrulline	cp
URACIL	uracil	cp
Single-Stranded-DNAs	a single stranded DNA	cp
CPD-1086	5-amino-6-(5-phospho-D-ribitylamino)uracil	p
CPD-10866	2-chlorophenol	c
CPD-7270	(7R)-7-(4-carboxybutanamido)cephalosporanate	cp
LIPOIC-ACID	(R)-lipoate	c
D-SEDOHEPTULOSE-7-P	D-sedoheptulose 7-phosphate	cp
2-Hydroxy-carboxylates	a 2-hydroxy carboxylate	p
CPDQT-36	3-[(3'-methylthio)propyl]malate	cp
R-3-Hydroxypalmitoyl-ACPs	a (3R)-3-hydroxypalmitoyl-[acp]	p
Biotin-EC6-4-1-4	a [methylcrotonoyl-CoA carboxylase]-biotin-N6-L-lysine	p
R-3-hydroxy-cis-vaccenoyl-ACPs	(R)-3-hydroxy-cis-vacc-11-enoyl-[acp]	p
Octanoyl-ACPs	an octanoyl-[acp]	c
R-3-hydroxyarachidoyl-ACPs	a (3R)-3-hydroxyarachidoyl-[acp]	p
Octanoylated-Gcv-H	a [glycine-cleavage complex H protein] N6-octanoyl-L-lysine	c
CPDQT-37	3-[(4'-methylthio)butyl]malate	cp
Octanoylated-domains	a [lipoyl-carrier protein] N6-octanoyl-L-lysine	cp
Starch	starch	c
2-KETO-3-DEOXY-6-P-GLUCONATE	2-dehydro-3-deoxy-D-gluconate 6-phosphate	cp
HX	HX	p
R-3-hydroxybehenoyl-ACPs	a (3R)-3-hydroxybehenoyl-[acp]	p
R-3-hydroxycerotoyl-ACPs	a (3R)-3-hydroxycerotoyl-[acp]	p
HYDROGEN-PEROXIDE	hydrogen peroxide	cp
Odd-Saturated-Fatty-Acyl-CoA	an odd numbered straight chain 2,3,4-saturated fatty acyl CoA	p
R-3-hydroxydodecanoyl-ACPs	a (3R)-3-hydroxydodecanoyl-[acp]	p
Odd-Straight-Chain-234-Sat-FA	an odd numbered straight chain 2,3,4-saturated fatty acid	c
CPDQT-38	3-[(5'-methylthio)pentyl]malate	cp
2-KETO-3-METHYL-VALERATE	(S)-3-methyl-2-oxopentanoate	cp
R-3-hydroxyhexanoyl-ACPs	a (3R)-3-hydroxyhexanoyl-[acp]	p
Stearoyl-ACPs	a stearoyl-[acp]	c
MANNOSE-1P	&alpha;-D-mannose 1-phosphate	cp
Butanoyl-ACPs	a butanoyl-[acp]	c
CPDQT-39	3-[(6'-methylthio)hexyl]malate	cp
Oleoyl-ACPs	an oleoyl-[acp]	c
R-3-hydroxylignoceroyl-ACPs	a (3R)-3-hydroxylignoceroyl-[acp]	p
R-3-hydroxymyristoyl-ACPs	a (3R)-3-hydroxymyristoyl-[acp]	cp
Oleoyl-lipid	a [glycerolipid]-oleate	c
R-3-hydroxypetroselinoyl-ACPs	a (3R)-3-hydroxypetroselinoyl-[acp]	p
CPDQT-40	3-[(7'-methylthio)heptyl]malate	cp
11Z-3-oxo-icos-11-enoyl-ACPs	an (11Z)-3-oxo-icos-11-enoyl-[acp]	cp
C1	UDP-N-acetyl-&alpha;-D-muramoyl-L-alanyl-&gamma;-D-glutamyl-meso-2,6-diaminopimeloyl-D-alanyl-D-alanine	cp
R-3-hydroxystearoyl-ACPs	a (3R)-3-hydroxystearoyl-[acp]	p
Oligonucleotides	an oligonucleotide	c
R-4-PHOSPHOPANTOTHENOYL-L-CYSTEINE	(R)-4'-phosphopantothenoyl-L-cysteine	c
CPDQT-41	10-(methylthio)-2-oxodecanoate	p
D-glucopyranose-6-phosphate	D-glucopyranose 6-phosphate	cp
HYDROXY-METHYL-BUTENYL-DIP	(E)-4-hydroxy-3-methylbut-2-en-1-yl diphosphate	cp
CPDQT-429	indolylmethylisothiocyanate	c
C3	UDP-N-acetyl-&alpha;-D-muramoyl-L-alanyl-&gamma;-D-glutamyl-L-lysyl-D-alanyl-D-alanine	p
CPDQT-434	indol-3-ylmethylisothiocyanate-glutathione	p
DIHYDROPTERIN-CH2OH-PP	(7,8-dihydropterin-6-yl)methyl diphosphate	p
CPDQT-520	phosphatidylglycerophosphate (1-octadecenoyl(9Z), 2-palmitoyl)	c
C4	undecaprenyl-diphospho-N-acetylmuramoyl-L-alanyl-&gamma;-D-glutamyl-L-lysyl- D-alanyl-D-alanine	c
5S-rRNAs	a 5S rRNA	p
MENADIOL	menadiol	p
Nonadjacent-pyrimidine-dimer-in-DNA	a dimer of non-adjacent pyrimidine nucleosides in DNA	c
HCO3	hydrogencarbonate	cp
mRNAs	an mRNA	cp
mRNAs-with-5-monophosphate	a 5'-phospho-[mRNA]	p
CPD-17624	&omega;-carboxy-(9Z)-octadec-9-enoyl-CoA	p
mRNAs-with-5-triphosphate	a 5' triphospho-[mRNA]	c
3-HYDROXY-L-KYNURENINE	3-hydroxy-L-kynurenine	cp
DADP	dADP	cp
CIS-2-CHLORO-4-CARBOXYMETHYLENEBUT-2-EN-	2-chloro-cis-dienelactone	c
5Z-3-oxo-tetradec-5-enoyl-ACPs	a (5Z)-3-oxo-tetradec-5-enoyl-[acp]	cp
CPD-17637	7-hydroxylaurate	c
13-HYDROXY-MAGNESIUM-PROTOPORP	131-hydroxy-magnesium-protoporphyrin IX 13-monomethyl ester	cp
GLYOX	glyoxylate	cp
CPD-17638	7-hydroxylauroyl-CoA	p
DIHYDROXY-ACETONE-PHOSPHATE	glycerone phosphate	cp
CIS-ACONITATE	cis-aconitate	cp
DIHYDROXY-BUTANONE-P	1-deoxy-L-glycero-tetrulose 4-phosphate	cp
CPD-17640	18-hydroxystearate	c
5Z-tetradec-5-enoyl-ACPs	a (5Z)-tetradec-5-enoyl-[acp]	c
5Z8Z11Z14Z17Z-EICOSAPENTAENOATE	icosapentaenoate	c
Polynucleotide-Holder	a generic polynucleotide substrate	c
CPD-17641	18-hydroxystearoyl-CoA	p
rRNA-fragments	an rRNA fragment	p
6-AMINOPENICILLANATE	6-aminopenicillanate	cp
CPD-17701	4-deoxy-2-O-sulfo-&beta;-L-erythro-hex-4-enopyranuronosyl-(1,4)-D-N-sulfoglucosamine 6-O-sulfate	p
1-4-D-xylooligosaccharides	a (1->4)-&beta;-D-xylan oligosaccharide	p
1-4-alpha-D-Glucan	a 1,4-&alpha;-D-glucan	cp
1-4-beta-D-Glucan	a 1,4-&beta;-D-glucan	cp
3-Hydroxy-Terminated-DNAs	a [DNA]-3'-hydroxyl	c
1-4-beta-Xylan	a (1&rarr;4)-&beta;-D-xylan	c
CIT	citrate	cp
CPD-17858	&omega;-saturated C55 dolichol phosphate	c
1-AMINO-PROPAN-2-ONE-3-PHOSPHATE	3-amino-1-hydroxyacetone 1-phosphate	cp
3-Hydroxy-octanoyl-ACPs	a (3R)-3-hydroxyoctanoyl-[acp]	p
ssDNA-RNA-primer-hybrid	an ssDNA/RNA primer hybrid	p
THZ-P	4-methyl-5-(2-phosphooxyethyl)thiazole	c
ssRNAs	a single-stranded RNA	cp
CPD-17894	&beta;-D-mannosyl-(C55 &omega;-saturated dolichyl phosphate)	p
131-OXO-MAGNESIUM-PROTOPORPHYRIN-IX-13-M	131-oxo-magnesium-protoporphyrin IX 13-monomethyl ester	cp
3-Hydroxyglutaryl-ACP-methyl-ester	a (3R)-3-hydroxyglutaryl-[acp] methyl ester	p
L-ARGININO-SUCCINATE	L-arginino-succinate	cp
Sulfurated-Sulfur-Acceptors	a sulfurated [sulfur carrier]	c
CPD-9612	caldariellaquinone	c
CPD-19778	(2Z,4Z)-2-amino-5-chloro-6-oxohexa-2,4-dienoate	c
Mannosyl5-N-Glycans	Man5GlcNAc2-[protein] (isomer 5A1,2)	p
Elongation-tRNAMet	elongator tRNAMet	c
Supercoiled-Duplex-DNAs	a supercoiled duplex DNA	c
CPD-15199	5-deoxy-&alpha;-ribose 1-phosphate	p
4-GUANIDO-BUTYRAMIDE	4-guanidinobutyramide	c
CPD-1302	5-methyltetrahydropteroyl tri-L-glutamate	cp
CPD-19779	(2Z,4Z)-2-amino-5-chlorohexa-2,4-dienedioate	p
L-ASPARTATE	L-aspartate	cp
CPD-4211	dimethylallyl diphosphate	cp
CPD-9699	hypoglycin A	c
4-HYDROXY-2-KETOVALERATE	(S)-4-hydroxy-2-oxopentanoate	cp
CPD-15244	3-oxo-(5Z)-tetradecenoyl-CoA	c
T2-C4-DECADIENYL-COA	trans-&Delta;2, cis-&Delta;4-decadienoyl-CoA	c
CPD-9700	hypoglycin B	p
16-HYDROXYPALMITATE	16-hydroxypalmitate	c
CPD-13043	7-carboxy-7-deazaguanine	cp
L-ASPARTATE-SEMIALDEHYDE	L-aspartate-semialdehyde	cp
CPD-15280	hercynine	p
4-HYDROXY-L-PROLINE	trans-4-hydroxy-L-proline	p
CPD-9869	all trans-decaprenyl-2-methoxy-6-1,4-benzoquinol	c
T2-DECENOYL-COA	(2E)-dec-2-enoyl-CoA	p
CPD-444	S-(methyl-5-thio-&alpha;-D-ribose 1-phosphate	cp
CPD-19782	(3E)-5-chloro-2-oxopent-3-enoate	c
CPD-13172	6-hydroxy-2-cyclohexen-one-carboxylate	p
CPD-19833	roseoflavin	c
CPD-15285	N&alpha;-methyl-L-histidine	cp
CPD-9871	6-methoxy-3-methyl-2-all-trans-decaprenyl-1,4-benzoquinol	p
Menaquinols	a menaquinol	cp
CPD-13174	salicyl-6-hydroxy-2-cyclohexene-on-oyl	c
CPD-19839	roseoflavin 5'-phosphate	cp
CPD-15301	caldariellaquinol	p
ALA-tRNAs	a tRNAAla	c
Menaquinones	a menaquinone	cp
CPD-452	a 6-(N-acetyl-&alpha;-D-glucosaminyl)-1-phosphatidyl-1D-myo-inositol	c
CPD-9956	ubiquinol-8	p
CPD-13227	N,N',N''-triacetylchitotriose	c
CPD-19840	roseoflavin adenine dinucleotide	p
CPD-15317	D-ribofuranose 5-phosphate	p
CPD-15318	&alpha;-D-ribose 5-phosphate	p
UREA	urea	cp
CPD-201	4-hydroxybenzoyl-CoA	cp
ISOVALERATE	isovalerate	c
L-BETA-ASPARTYL-P	L-aspartyl-4-phosphate	cp
16S-rRNA-N2-methylguanine966	an N2-methylguanine966 in 16S rRNA	p
CPD-9965	icosanoyl-CoA	cp
CPD-464	prephytoene diphosphate	cp
CPD-13339	(2Z,4E)-2-hydroxyhexa-2,4-dienedioate	cp
16S-rRNA-N4-methylcytidine1402	an N4-methylcytidine1402  in 16S rRNA	p
Nonmethylated-Ribosomal-Protein-L11s	a non-methylated ribosomal protein L11	c
16S-rRNA-N7-methylguanine527	an N7-methylguanine527 in 16S rRNA	p
G3P	3-phospho-D-glycerate	cp
16S-rRNA-cytidine1402	a cytidine1402 in 16S rRNA	c
16S-rRNA-guanine-527	a guanine527 in 16S rRNA	c
16S-rRNA-guanine-966	a guanine966 in 16S rRNA	c
Nucleoside-Diphosphates	a nucleoside diphosphate	cp
16S-rRNA-pseudouridine516	a 16S rRNA pseudouridine516	p
Nucleoside-Monophosphates	a nucleoside 5'-monophosphate	p
6-Dimethylallyladenosine37-tRNAs	N6-dimethylallyladenosine37 in tRNA	cp
16S-rRNA-uridine516	a uridine516 in 16S rRNA	c
Nucleoside-Triphosphates	a nucleoside triphosphate	cp
GALACTOSE	&beta;-D-galactose	cp
SELENATE	selenate	c
TDP	dTDP	cp
O-D-MANNOSYL-PROTEIN	a 3-O-(&alpha;-D-mannosyl)-(Ser/Thr)-[protein]	p
18-HYDROXYOLEATE	18-hydroxyoleate	c
O-PHOSPHO-L-HOMOSERINE	O-phospho-L-homoserine	cp
Thi-S	a ThiS sulfur-carrier protein	p
NAD	NAD+	cp
Pre-tRNA-3-prime-half-molecules	a 3'-half-tRNA molecule with a 5'-OH end	cp
LIPOYL-AMP	lipoyl-adenylate	cp
CPD-7271	(7R)-7 aminocephalosporanate	cp
Pre-tRNA-5-prime-half-molecules	a 5'-half-tRNA molecule with a 2',3'-cyclic phosphate end	cp
HEPARIN	heparin	c
HYDROXYMETHYLBILANE	preuroporphyrinogen	cp
CPD-10868	3-chlorophenol	c
HEXANOYL-COA	hexanoyl-CoA	cp
2-KETO-ISOVALERATE	3-methyl-2-oxobutanoate	cp
C5	undecaprenyldiphospho-N-acetylmuramoyl-L-alanyl-&gamma;-D-glutamyl-meso-2,6-diaminopimeloyl-D-alanyl-D-alanine	cp
URIDINE	uridine	p
Prolipoprotein-Cysteines	a [prolipoprotein]-L-cysteine	c
2-KETOGLUTARATE	2-oxoglutarate	cp
DATP	dATP	p
C6	ditrans,octacis-undecaprenyldiphospho-[(N-acetyl-&beta;-D-glucosaminyl)-(1,4)-]-N-acetyl-&alpha;-D-muramoyl-L-alanyl-&gamma;-D-glutamyl-meso-2,6-diaminopimeloyl-D-alanyl-D-alanine	cp
Propionyl-CoA-CO2-ligases	[propionyl-CoA:carbon-dioxide ligase (ADP-forming)]	p
2-LYSOPHOSPHATIDYLETHANOLAMINES	a 1-acyl 2-lyso-phosphatidylethanolamine	c
Alkyl-Hydro-Peroxides	an organic hydroperoxide	c
NAD-P-OR-NOP	NAD(P)+	cp
LL-DIAMINOPIMELATE	L,L-diaminopimelate	cp
Orthophosphoric-Monoesters	a phosphate monoester	c
CPD-10870	4-chlorophenol	c
CPD-734	(-)-jasmonate	p
Alkylated-Bases	an alkylated nucleobase	p
UROCANATE	urocanate	cp
CADAVERINE	cadaverine	p
Protein-Disulfides	a protein disulfide	cp
Alkylated-DNAs	an alkylated DNA	c
Protein-Dithiols	a protein dithiol	cp
Ox-Glutaredoxins	an oxidized glutaredoxin	p
2-3-4-Saturated-L-Phosphatidates	a 1,2-diacyl-sn-glycerol 3-phosphate	c
2-Lysophosphatidylcholines	a 1-acyl-sn-glycero-3-phosphocholine	c
CPD-110	salicylate	p
CPD-11020	5-chloro-4-hydroxy-2-oxopentanoate	p
CL-	chloride	cp
Ox-Thioredoxin	an oxidized thioredoxin	cp
CPD-763	arsenite	p
2-ACETO-2-HYDROXY-BUTYRATE	(S)-2-aceto-2-hydroxybutanoate	cp
ACP	a holo-[acyl-carrier protein]	cp
Oxidized-2Fe-2S-Ferredoxins	an oxidized [2Fe-2S] ferredoxin	p
CPD-1109	an N-acyl-D-mannosamine	cp
Protein-Histidines	a [protein]-L-histidine	c
Oxidized-CycA1-cytochromes	an oxidized CycA1 cytochrome	p
CPD-764	phosphonoacetate	c
HG+2	Hg2+	c
CPD-1113	6-(&alpha;-D-glucosaminyl)-1-phosphatidyl-1D-myo-inositol	p
2-METHYL-3-HYDROXY-BUTYRYL-COA	(2S,3S)-3-hydroxy-2-methylbutanoyl-CoA	cp
DCDP	dCDP	cp
Oxidized-NrdH-Proteins	an oxidized NrdH glutaredoxin-like protein	p
ACRYLAMIDE	acrylamide	c
REDUCED-MENAQUINONE	menaquinol-8	p
LYS	L-lysine	cp
HYPOXANTHINE	hypoxanthine	c
LYS-tRNAs	a tRNALys	c
2-METHYL-ACETO-ACETYL-COA	2-methylacetoacetyl-CoA	cp
CPD-7671	methanethiol	cp
Oxidized-ferredoxins	an oxidized ferredoxin [iron-sulfur] cluster	cp
NADH	NADH	cp
7-8-DIHYDROPTEROATE	7,8-dihydropteroate	c
All-tRNAs	a tRNA	p
PTS-I-Histidines	a [PTS enzyme I]-L-histidine	cp
PTS-I-pi-phospho-L-histidines	a [PTS enzyme I]-N&pi;-phospho-L-histidine	cp
CMP	CMP	cp
CTP	CTP	cp
PUTRESCINE	putrescine	cp
TMP	dTMP	cp
CMP-KDO	CMP-3-deoxy-&beta;-D-manno-octulosonate	cp
ISOVALERYL-COA	isovaleryl-CoA	cp
TRANS-2-CHLORO-4-CARBOXYMETHYLENEBUT-2-E	2-chloro-trans-dienelactone	c
MESO-DIAMINOPIMELATE	meso-diaminopimelate	cp
DEAMIDO-NAD	nicotinate adenine dinucleotide	cp
DCMP	dCMP	c
MET	L-methionine	cp
DEHYDROQUINATE	3-dehydroquinate	cp
TRANS-3-METHYL-GLUTACONYL-COA	3-methylglutaconyl-CoA	p
DCTP	dCTP	cp
TRANS-D2-ENOYL-ACP	a trans-2-enoyl-[acyl-carrier protein]	p
ITP	ITP	cp
TRANS-D2-ENOYL-COA	a (2E)-alkan-2-enoyl-CoA	p
DELTA1-PIPERIDEINE-2-6-DICARBOXYLATE	(S)-2,3,4,5-tetrahydrodipicolinate	cp
L-CANALINE	L-canaline	p
CPD-15358	(2,3-dihydroxybenzoylserine)2	cp
tRNA-2-thiouridine34	a 2-thiouridine34 in tRNA	p
CPD-13357	(2R)-2,3-dihydroxy-3-methylbutanoate	cp
CPD-15360	2-sulfanyl-N6-dimethylallyladenosine37 in tRNA	cp
FAD	FAD	cp
Thiocarboxyadenylated-ThiS-Proteins	a thiocarboxy-[ThiS-Protein]	c
PORPHOBILINOGEN	porphobilinogen	cp
tRNA-Adenosines-37	an adenosine37 in tRNA	c
CPD-15384	L-alanyl-&gamma;-D-glutamyl-L-lysyl-D-alanyl-D-alanine	cp
ACRYLATE	acrylate	p
tRNA-Containing-N7-Methylguanine-46	an N7-methylguanine46 in tRNA	p
tRNA-Dihydrouridines	a 5,6-dihydrouridine in tRNA	p
L-CITRULLINE	L-citrulline	cp
CPD-15436	(5Z)-tetradecenoyl-CoA	cp
FADH2	FADH2	cp
L-CYSTATHIONINE	L-cystathionine	cp
CPD-15566	(2E,4E)-tetradecadienoyl-CoA	c
CPD-469	N-acetyl-L-glutamate 5-semialdehyde	cp
Methylated-Ribosomal-Protein-L11s	a methylated ribosomal protein L11	p
Trans-3-enoyl-CoAs	a (3E)-alkan-3-enoyl-CoA	p
DIMETHYL-D-RIBITYL-LUMAZINE	6,7-dimethyl-8-(1-D-ribityl)lumazine	cp
Trans-D2-decenoyl-ACPs	a (2E)-dec-2-enoyl-[acp]	p
CPD-13433	neoagarobiose	p
tRNA-Sec	a tRNAsec	c
CPD-15567	(3E)-tetradec-3-enoyl-CoA	p
tRNA-fragment	a tRNA fragment	p
CPD-474	(+)-taxifolin	c
DIMETHYLAMINE	dimethylamine	p
tRNA-precursors	a tRNA precursor	c
CPD-13434	neoagarotetraose	p
tRNA-pseudouridine-38-40	a pseudouridine38-40 in tRNA	p
PPI	diphosphate	cp
CPD-13436	neoagarohexaose	p
tRNA-uridine-38-40	a uridine38-40 in tRNA	c
236-TRICHLOROHYDROQUINONE	2,3,6-trichlorohydroquinone	c
GMP	GMP	cp
tRNA-uridine34	a uridine34 in tRNA	c
L-DELTA1-PYRROLINE_5-CARBOXYLATE	(S)-1-pyrroline-5-carboxylate	c
CPD-15654	2-trans, 4-cis-undecadienoyl-CoA	c
TusE-L-cysteine	a [TusE sulfur carrier protein]-L-cysteine	p
tRNA-uridines	a uridine in tRNA	c
TusE-S-sulfanylcysteine	a [TusE sulfur carrier protein]-S-sulfanylcysteine	c
tRNA-with-7-aminomethyl-7-deazaguanine	a 7-aminomethyl-7-deazaguanosine34 in tRNA	cp
SER	L-serine	cp
Oxo-glutarate-dehydro-suc-DH-lipoyl	a [2-oxoglutarate dehydrogenase E2 protein] N6-S-succinyldihydrolipoyl-L-lysine	cp
CPD-17926	a nascent peptidoglycan with (L-alanyl-&gamma;-D-glutamyl-meso-2,6-diaminopimeloyl-D-alanine) tetrapeptide	p
CPD-17927	a nascent peptidoglycan with (L-alanyl-&gamma;-D-glutamyl-meso-2,6-diaminopimeloyl-D-alanyl-D-alanine) pentapeptide	cp
Oxo-glutarate-dehydrogenase-DH-lipoyl	a [2-oxoglutarate dehydrogenase E2 protein] N6-dihydrolipoyl-L-lysine	cp
CPD-17931	a peptidoglycan with (L-alanyl-&gamma;-D-glutamyl-meso-2,6-diaminopimeloyl-D-alanine) tetrapeptide	c
4-IMIDAZOLONE-5-PROPIONATE	4-imidazolone-5-propanoate	cp
NADH-P-OR-NOP	NAD(P)H	cp
CPD-17932	a nascent peptidoglycan with D,D cross-links (meso-diaminopimelate containing)	p
Oxo-glutarate-dehydrogenase-lipoyl	a [2-oxoglutarate dehydrogenase E2 protein] N6-lipoyl-L-lysine	cp
SER-tRNAs	a tRNAser	c
CPD0-1027	a debranched &alpha;-limit dextrin	c
P-AMINO-BENZOATE	4-aminobenzoate	cp
CPD0-1081	N-acetyl-&beta;-D-glucosamine-1,6-anhydro-N-acetyl-&beta;-D-muramate	c
DELTA3-ISOPENTENYL-PP	isopentenyl diphosphate	cp
HG0	Hg0	p
4-MALEYL-ACETOACETATE	4-maleyl-acetoacetate	cp
P-HYDROXY-PHENYLPYRUVATE	4-hydroxyphenylpyruvate	cp
CPD-1130	3-ethylmalate	cp
UROPORPHYRINOGEN-III	uroporphyrinogen-III	cp
NADP	NADP+	cp
Halide-Anions	a halide anion	p
3-KETOACYL-COA	a 3-oxoacyl-CoA	cp
CYS	L-cysteine	cp
CPD-1133	3D-(3,5/4)-trihydroxycyclohexane-1,2-dione	cp
CPD0-1082	L-alanyl-&gamma;-D-glutamyl-meso-2,6-diaminopimeloyl-D-alanine	c
3-KETOBUTYRATE	acetoacetate	cp
CPD0-1096	glucosamine 1,6-diphosphate	cp
HIS	L-histidine	cp
PHE	L-phenylalanine	cp
CPD-1136	cis-2-methylaconitate	cp
CYS-GLY	L-cysteinyl-glycine	p
HIS-tRNAs	a tRNAHis	c
SEROTONIN	serotonin	c
4-NITROANILINE	4-nitroaniline	p
3-Ketoglutaryl-ACP-methyl-ester	a 3-oxo-glutaryl-[acp] methyl ester	cp
PHE-tRNAs	a tRNAPhe	p
NADPH	NADPH	cp
CPD-18	linoleoyl-CoA	p
CPD-18065	&alpha;-Kdo8N-(2&rarr;6)-lipid IVA	c
CPD-18066	4-O-phospho-&alpha;-Kdo8N-(2&rarr;6)-lipid IVA	p
DEOXY-RIBOSE-5P	2-deoxy-D-ribose 5-phosphate	p
UTP	UTP	cp
3-Ketopimeloyl-ACP-methyl-esters	a 3-oxo-pimeloyl-[acp] methyl ester	cp
DEOXYCYTIDINE	2'-deoxycytidine	c
CPD0-1133	maltoheptaose	c
CPD-11444	uroporphyrinogen-I	c
P-RIBOSYL-4-SUCCCARB-AMINOIMIDAZOLE	5'-phosphoribosyl-4-(N-succinocarboxamide)-5-aminoimidazole	cp
Hepta-oxo-hexadecanoyl-ACPs	a 3,5,7,9,11,13,15-hepta-oxo-hexadecanoyl-[PKS-acp]	c
CYS-tRNAs	a tRNACys	cp
CPD0-1162	(2E,5Z)-tetradecenoyl-CoA	p
Hexanoyl-ACPs	a hexanoyl-[acyl-carrier-protein]	c
CPD-18118	D-arabinofuranose 5-phosphate	c
CPD-11495	(2-hydroxyphenyl)acetate	p
3-METHYL-CROTONYL-COA	3-methylcrotonyl-CoA	cp
ALLO-THR	DL-allothreonine	c
Protein-L-glutamine	a [protein]-L-glutamine	c
All-trans-Retinyl-Esters	an all-trans-retinyl ester	c
GLUTARATE	glutarate	cp
PHENOL	phenol	c
Protein-L-lysine	a [protein]-L-lysine	c
2-METHYL-BUTYRYL-COA	2-methylbutanoyl-CoA	cp
Protein-L-methionine	a [protein]-L-methionine	cp
Protein-L-methionine-R-S-oxides	a protein-L-methionine-(R)-S-oxide	cp
CPD-7695	ditrans,octacis-undecaprenyldiphospho-N-acetyl-(N-acetyl-&beta;-D-glucosaminyl)muramoyl-L-alanyl-&gamma;-D-glutamyl-L-lysyl-D-alanyl-D-alanine	p
Protein-L-methionine-S-S-oxides	a protein-L-methionine-(S)-S-oxide	c
Initiation-tRNAmet	initiator tRNAMet	c
PREPHENATE	prephenate	cp
Protein-L-serine-or-L-threonine	a [protein]-(L-serine/L-threonine)	cp
CPD-20735	two adjacent 2'-deoxycytidines in DNA	p
Amino-Acids	an amino acid	c
GLUTARYL-COA	glutaryl-CoA	p
CPD-20736	adjacent 2'-deoxycytidine-thymidine in DNA	p
Amino-Acids-20	a proteinogenic amino acid	cp
CPD-20737	adjacent thymidine-2'-deoxycytidine in DNA	p
CPD-20741	a dimer of adjacent 2'-deoxycytidines in DNA	c
CPD-7737	(2-carboxy-2,5-dihydro-5-oxofuran-2-yl)-acetate	c
CPD-20742	a dimer of adjacent thymidines in DNA	c
CPD-20743	a dimer of adjacent 2'-deoxycytidine and thymidine in DNA	c
PHENOL-PHOSPHATE	phenyl phosphate	cp
Protein-N-terminal-L-Arginine	an N-terminal arginyl-[protein]	cp
CPD-20744	a dimer of adjacent thymidine and 2'-deoxycytidine in DNA	c
2-METHYLMALEATE	citraconate	cp
CPD-20746	N&alpha;,N&epsilon;-diacetyl-lysyl-D-alanine	cp
Protein-N-terminal-L-Lysine	an N-terminal L-lysyl-[protein]	c
CPD-805	deethylsimazine	c
CPD-20750	L-alanyl-&gamma;-D-glutamyl-L-lysyl-D-alanine	cp
CPD-20756	N-acetyl-muramoyl-(L-alanyl-&gamma;-D-glutamyl-L-lysyl-D-alanyl-D-alanine)	cp
Protein-N-terminal-L-threonine	an N-terminal L-threonyl-[protein]	p
GLUTATHIONE	glutathione	cp
CPD-20757	N-acetyl-muramoyl-(L-alanyl-&gamma;-D-glutamyl-L-lysyl-D-alanine)	cp
Protein-N6-5-glutamyl-lysine-crosslinks	a protein with an N6-(&gamma;-glutamyl)-L-lysine crosslink	p
2-Me-Branched-234-Sat-FA	a 2-methyl branched 2,3,4-saturated fatty acid	c
Protein-N6-5-glutamyl-serotonin	a [protein] N6-[(5-hydroxy-1H-indol-3-yl)ethyl]-L-glutamine	p
2-Me-Branched-234-Sat-Fatty-Acyl-CoA	a 2-methyl branched 2,3,4-saturated fatty acyl-CoA	p
CPD-209	UDP-N-acetyl-&alpha;-D-muramoyl-L-alanyl-&gamma;-D-glutamyl-L-lysine	c
Apo-Propionyl-CoA-CO2-ligases	apo-[propionyl-CoA:carbon-dioxide ligase (ADP-forming)]	c
Protein-Ser-or-Thr-phosphate	a [protein] (L-serine/L-threonine) phosphate	cp
Protein-Tyrosines	a [protein]-L-tyrosine	cp
CO-A	coenzyme A	cp
CANAVANINE	L-canavanine	cp
L-GAMMA-GLUTAMYLCYSTEINE	&gamma;-L-glutamyl-L-cysteine	cp
tRNAs	an uncharged tRNA	p
O-SUCCINYL-L-HOMOSERINE	O-succinyl-L-homoserine	cp
CPD-479	4-(methylsulfanyl)-2-oxobutanoate	cp
tRNAs-containing-epoxy-quenosine	an epoxyqueuosine34 in tRNA	cp
GAP	D-glyceraldehyde 3-phosphate	cp
tRNAs-with-CCA	a tRNA containing a 3' CCA end	p
CPD-520	quercetin	cp
CANAVANINOSUCCINATE	canavaninosuccinate	cp
23S-rRNA-2-methyladenine2503	a 2-methyladenine2503 in 23S rRNA	p
tRNAs-with-queuine	a queuosine34 in tRNA	p
23S-rRNA-adenine-2503	adenine2503 in 23S rRNA	c
23S-rRNA-pseudouridine746	a pseudouridine746 in 23S rRNA	p
PYRAZINAMIDE	pyrazinamide	c
O-UREIDOHOMOSERINE	O-ureido-L-homoserine	c
7-AMINOMETHYL-7-DEAZAGUANINE	preQ1	cp
23S-rRNA-uridine746	uridine746 in 23S rRNA	c
CARBAMOYL-P	carbamoyl phosphate	cp
L-GLUTAMATE-5-P	&gamma;-L-glutamyl 5-phosphate	cp
SHIKIMATE	shikimate	cp
SHIKIMATE-5P	shikimate 3-phosphate	cp
CPD-548	S-formylglutathione	cp
Light	h&nu;	c
7-CYANO-7-DEAZAGUANINE	preQ0	cp
OCTADEC-9-ENE-118-DIOIC-ACID	&alpha;,&omega;-9Z-octadecenedioate	c
Lignoceroyl-ACPs	a lignoceroyl-[acp]	c
PYRAZINOIC-ACID	pyrazine-2-carboxylate	p
CARBAMYUL-L-ASPARTATE	N-carbamoyl-L-aspartate	cp
OCTAPRENYL-DIPHOSPHATE	all-trans-octaprenyl diphosphate	cp
CPD-558	pimeloyl-CoA	c
2C-METH-D-ERYTHRITOL-CYCLODIPHOSPHATE	2-C-methyl-D-erythritol-2,4-cyclodiphosphate	c
OCTAPRENYL-METHOXY-BENZOQUINONE	2-methoxy-6-all trans-octaprenyl-1,4-benzoquinol	p
Lipid-dihydrosterculate	a [glycerolipid]-dihydrosterculate	p
7E9E11Z14Z-5S6R-6-CYSTEIN-S-YL	leukotriene-E4	p
GDP	GDP	cp
L-GLUTAMATE_GAMMA-SEMIALDEHYDE	L-glutamate-5-semialdehyde	p
GDP-4-DEHYDRO-6-DEOXY-D-MANNOSE	GDP-4-dehydro-&alpha;-D-rhamnose	p
METHIONYL-PEPTIDE	an N-terminal L-methionyl-[protein]	p
CPD-15655	(3E)-undec-3-enoyl-CoA	p
CPD0-1456	UDP-N-acetyl-&alpha;-D-muramoyl-L-alanine	cp
ACYL-ACP	an acyl-[acyl-carrier protein]	cp
UDP	UDP	cp
UDP-4-AMINO-4-DEOXY-L-ARABINOSE	UDP-4-amino-4-deoxy-&beta;-L-arabinopyranose	cp
CPD-15661	2-trans, 4-trans-undecadienoyl-CoA	c
Monocarboxylates	a monocarboxylate	p
3-Methyl-Saturated-Fatty-Acids	a 3-methyl-branched 2,3,4-saturated fatty acid	c
Monocarboxylic-Acid-Amides	a monocarboxylic acid amide	c
CPD-11520	3-oxo-2-(cis-2'-pentenyl)-cyclopentane-1-(3-oxooctanoyl)-CoA	c
ACYL-COA	an acyl-CoA	c
3-Methyl-Saturated-Fatty-Acyl-CoA	a 3-methyl-branched 2,3,4-saturated fatty acyl-CoA	p
ARSENATE	arsenate	c
3-OCTAPRENYL-4-HYDROXYBENZOATE	3-octaprenyl-4-hydroxybenzoate	p
CPD-18346	cis-vaccenoyl-CoA	cp
DIPEPTIDES	a dipeptide	c
CPD-15663	2-trans-nonenoyl-CoA	p
Hpr-Histidine	an [HPr]-L-histidine	c
CPD0-1699	6-carboxy-5,6,7,8-tetrahydropterin	cp
CPD-11521	3-oxo-2-(cis-2'-pentenyl)-cyclopentane-1-hexanoyl-CoA	p
Hpr-pi-phospho-L-histidines	an [HPr protein]-N&pi;-phospho-L-histidine	p
RIBOFLAVIN	riboflavin	cp
ACYL-SN-GLYCEROL-3P	a 1-acyl-sn-glycerol 3-phosphate	p
UDP-AA-GLUTAMATE	UDP-N-acetyl-&alpha;-D-muramoyl-L-alanyl-D-glutamate	cp
CPD-11524	3-oxo-2-(cis-2'-pentenyl)-cyclopentane-1-(3-oxohexanoyl)-CoA	c
CPD-15667	6-cis, 3-oxo-tridecenoyl-CoA	c
3-OXO-EICOSAPENTAENOYL-ACP	a 3-oxo-docosapentaenoyl [acp]	c
CPD0-181	N5-carboxyaminoimidazole ribonucleotide	c
CPD-15668	4-cis-undecenoyl-CoA	p
CPD-11525	3-oxo-2-(cis-2'-pentenyl)-cyclopentane-1-butanoyl-CoA	p
Myo-inositol-monophosphates	a myo-inositol monophosphate	c
UDP-AAGM-DIAMINOHEPTANEDIOATE	UDP-N-acetyl-&alpha;-D-muramoyl-L-alanyl-&gamma;-D-glutamyl-meso-2,6-diaminopimelate	cp
DITP	dITP	cp
HISTIDINAL	histidinal	cp
Myristoyl-ACPs	a myristoyl-[acp]	c
CPD-18494	3-oxo-(6Z,9Z,12Z,15Z,18Z)-tetracosapentaenoyl-CoA	c
UDP-ACETYL-CARBOXYVINYL-GLUCOSAMINE	UDP-N-acetyl-&alpha;-D-glucosamine-enolpyruvate	cp
DUMP	dUMP	cp
CPD-11528	3-oxo-2-(cis-2'-pentenyl)-cyclopentane-1-(3-oxobutanoyl)-CoA	c
N-23-DIHYDROXYBENZOYL-L-SERINE	N-(2,3-dihydroxybenzoyl)-L-serine	p
CPD-15676	6-trans-3-oxo-tridecenoyl-CoA	c
CPD0-1905	8-oxo-dGTP	c
CPD-18550	quinoxaline-2-carboxyl adenylate	c
CPD-15677	4-trans-undecenoyl-CoA	p
CPD-11529	(+)-7-epi-jasmonoyl-CoA	p
DIVINYL-PROTOCHLOROPHYLLIDE-A	3,8-divinyl protochlorophyllide a	p
IDP	IDP	cp
CPD0-1965	N&alpha;,N&epsilon;-diacetyl-lysyl-D-alanyl-D-alanine	cp
N-5-PHOSPHORIBOSYL-ANTHRANILATE	N-(5-phosphoribosyl)-anthranilate	cp
CPD-11592	2-methylsulfanyl-N6-dimethylallyladenosine37 in tRNA	p
CPD-15678	4-trans-3-oxo-undecenoyl-CoA	c
N-ACETYL-BETA-GLUCOSAMINYLAMINE	N-acetyl-&beta;-glucosaminylamine	p
DNA-Adjacent-Pyrimidines	two adjacent pyrimidine nucleosides in DNA	p
CPD0-2030	glycerophosphoserine	c
CPD-15687	5-cis, 7-trans-3-oxo-tetradecadienoyl-CoA	c
CPD-11643	two adjacent thymidines in DNA	p
DUTP	dUTP	cp
CPD-19014	2-hydroxy-2-methylpropanoate	p
Ubiquinols	an ubiquinol	cp
ASN	L-asparagine	cp
ALLYSINE	(S)-2-amino-6-oxohexanoate	cp
ASN-tRNAs	tRNAAsn	c
FARNESYL-PP	(2E,6E)-farnesyl diphosphate	cp
DEOXYURIDINE	2'-deoxyuridine	cp
4-PHOSPHONOOXY-THREONINE	4-phosphooxy-L-threonine	cp
Ubiquinones	a ubiquinone	cp
GDP-D-GLUCOSE	GDP-&alpha;-D-glucose	c
ALPHA-D-GALACTOSE	&alpha;-D-galactose	cp
4-hydroxybenzoate	4-hydroxybenzoate	cp
CPD-13524	all-trans-retinol	p
Unspecified-Degradation-Products	[unspecified degradation products]	p
Unsulfurated-Sulfur-Acceptors	an unsulfurated [sulfur carrier]	p
Unwound-DNA	an unwound double-stranded DNA	p
PRISTANATE	pristanate	c
CPD-13533	(3R)-3-hydroxypentanoyl-CoA	c
METHYL-GLYOXAL	methylglyoxal	cp
Unwound-RNA	an unwound RNA	p
ALPHA-GLC-6-P	&alpha;-D-glucose 6-phosphate	c
FE+2	Fe2+	cp
DEOXYXYLULOSE-5P	1-deoxy-D-xylulose 5-phosphate	cp
GDP-MANNOSE	GDP-&alpha;-D-mannose	cp
ALPHA-GLUCOSE-16-BISPHOSPHATE	&alpha;-glucose 1,6-bisphosphate	cp
CPD-13534	3-oxopentanoyl-CoA	cp
TREHALOSE	&alpha;,&alpha;-trehalose	p
VAL	L-valine	cp
DEPHOSPHO-COA	3'-dephospho-CoA	cp
VAL-tRNAs	a tRNAVal	c
PRO	L-proline	cp
PRO-tRNAs	a tRNAPro	c
TREHALOSE-6P	&alpha;,&alpha;-trehalose 6-phosphate	cp
CPD-13557	D-glucosyl-&alpha;(1&rarr;3)- &alpha;-D-mannose	p
PROCOLLAGEN-L-PROLINE	a [procollagen]-L-proline	c
CPD-13575	2-[(2R,5Z)-2-carboxy-4-methylthiazol-5(2H)-ylidene]ethyl phosphate	cp
GDP-TP	pppGpp	p
AMINO-ACETONE	aminoacetone	p
CPD-13576	2-(2-carboxy-4-methylthiazol-5-yl)ethyl phosphate	c
