dbRef_id	Common name	Produced (p), Consumed (c), Both (cp)
L-LACTATE	(S)-lactate	c
INDOLE_ACETATE_AUXIN	(indol-3-yl)acetate	p
Cellodextrins	a cellodextrin	p
PROPIONYL-COA	propanoyl-CoA	cp
2-ACETO-2-HYDROXY-BUTYRATE	(S)-2-aceto-2-hydroxybutanoate	cp
THIAMINE	thiamine	c
Cerotoyl-ACPs	a cerotoyl-[acp]	p
SE-2	selenide	c
INDOLE_PYRUVATE	(indol-3-yl)pyruvate	cp
Glutamine-synthetase-Tyr	a [glutamine-synthetase]-L-tyrosine	c
Glutamine-synthetase-adenylyl-Tyr	a [glutamine synthetase]-O4-(5'-adenylyl)-L-tyrosine	p
THIAMINE-P	thiamine phosphate	p
CPD-68	1-aminocyclopropane-1-carboxylate	c
FORMALDEHYDE	formaldehyde	p
THIAMINE-PYROPHOSPHATE	thiamine diphosphate	cp
Charged-ALA-tRNAs	an L-alanyl-[tRNAAla]	p
Glutaryl-ACP-methyl-esters	a glutaryl-[acp] methyl ester	cp
OCTAPRENYL-METHYL-OH-METHOXY-BENZQ	3-demethylubiquinol-8	c
CPD-686	precorrin-8x	cp
DIHYDRO-DIOH-BENZOATE	(2S,3S)-2,3-dihydroxy-2,3-dihydrobenzoate	p
DPG	3-phospho-D-glyceroyl-phosphate	cp
Charged-ARG-tRNAs	an L-arginyl-[tRNAArg]	cp
PROT-CYS	a [protein]-L-cysteine	c
PROTEIN-C-TERMINAL-S-ETC-CYSTEINE	a [protein] C-terminal S-farnesyl-L-cysteine	c
CPD-687	hydrogenobyrinate	cp
PROTEIN-C-TERMINAL-S-FARNESYL-L-CYSTEINE	a [protein] C-terminal S-farnesyl-L-cysteine methyl ester	p
DIHYDRO-THYMINE	5,6-dihydrothymine	cp
SELENATE	selenate	c
GDP	GDP	cp
Glycerol-1-phosphate	glycerol 1-phosphate	c
PAPS	3'-phosphoadenylyl-sulfate	cp
Glycerophosphodiesters	a glycerophosphodiester	c
GDP-MANNOSE	GDP-&alpha;-D-mannose	p
Charged-CYS-tRNAs	an L-cysteinyl-[tRNACys]	cp
CPD-688	hydrogenobyrinate a,c-diamide	cp
PROTEIN-L-BETA-ISOASPARTATES	a [protein]-L-&beta;-isoaspartate	c
L-Methionylaminoacyl-tRNAs	a L-methionylaminoacyl-tRNA	p
PARAOXON	paraoxon	c
L-ORNITHINE	L-ornithine	cp
PROTEIN-L-BETA-ISOSPARTATE-METHYL-ESTERS	a protein L-&beta;-isoaspartate &alpha;-methyl ester	p
PROTEIN-LIPOYLLYSINE	a [glycine-cleavage complex H protein] N6-lipoyl-L-lysine	cp
Charged-GLN-tRNAs	an L-glutaminyl-[tRNAGln]	p
FORMATE	formate	cp
SELENOHOMOCYSTEINE	seleno-L-homocysteine	p
CPD-689	cob(II)yrinate a,c-diamide	p
Glycogens	a glycogen	cp
DIHYDROFOLATE	7,8-dihydrofolate monoglutamate	p
PHOSPHATIDYLCHOLINE	a phosphatidylcholine	p
UDP-OHMYR-ACETYLGLUCOSAMINE	UDP-3-O-[(3R)-3-hydroxymyristoyl]-N-acetyl-&alpha;-D-glucosamine	c
DIHYDROFOLATE-GLU-N	a 7,8-dihydrofolate	cp
2-ACETO-LACTATE	(S)-2-acetolactate	cp
PARATHION	parathion	c
L-PANTOATE	(R)-pantoate	cp
SEPO3	selenophosphate	cp
PHOSPHO-ENOL-PYRUVATE	phosphoenolpyruvate	cp
UDP-OHMYR-GLUCOSAMINE	UDP-3-O-(3-hydroxymyristoyl)-&alpha;-D-glucosamine	cp
Charged-HIS-tRNAs	an L-histidyl-[tRNAHis]	p
CPD66-39	a 2,3,4-saturated fatty acid	c
Donor-H2	a reduced electron acceptor	cp
OH-ACYL-ACP	a (3R)-3-hydroxyacyl-[acyl-carrier protein]	cp
CPDQT-27	6-(methylthio)-2-oxohexanoate	p
2E-11Z-icosa-2-11-dienoyl-ACPs	an (2E,11Z)-icosa-2,11-dienoyl-[acp]	c
Charged-ILE-tRNAs	an L-isoleucyl-[tRNAIle]	p
CPD-10824	3-methylmuconolactone	c
2E-5Z-tetradeca-2-5-dienoyl-ACPs	a (2E,5Z)-tetradeca-2,5-dienoyl-[acp]	c
4-FUMARYL-ACETOACETATE	4-fumaryl-acetoacetate	cp
2E-7Z-hexadeca-2-7-dienoyl-ACPs	a (2E,7Z)-hexadeca-2,7-dienoyl-[acp]	c
Charged-LEU-tRNAs	an L-leucyl-[tRNALeu]	cp
Double-Stranded-DNAs	a double stranded DNA	cp
OH-HEXANOYL-COA	(S)-3-hydroxyhexanoyl-CoA	cp
2-OCTAPRENYLPHENOL	2-octaprenylphenol	p
2E-9Z-octadeca-2-9-dienoyl-ACPs	a (2E,9Z)-octadeca-2,9-dienoyl-[acp]	c
CPDQT-28	7-(methylthio)-2-oxoheptanoate	p
Charged-LYS-tRNAs	an L-lysyl-[tRNALys]	p
Double-helix-DNA	a double-helix DNA	c
Charged-MET-tRNAs	an L-methionyl-[elongator tRNAMet]	p
CPD-10825	4-methyl-3-oxoadipate-enol-lactone	cp
1-CHLORO-24-DINITROBENZENE	1-chloro-2,4-dinitrobenzene	cp
2K-4CH3-PENTANOATE	4-methyl-2-oxopentanoate	cp
CPDQT-29	8-(methylthio)-2-oxooctanoate	p
CPD-10826	4-methyl-3-oxoadipate	cp
Charged-PHE-tRNAs	an L-phenylalanyl-[tRNAPhe]	c
2-OH-3-Methyl-Saturated-Fatty-Acyl-CoA	a 2-hydroxy-3-methyl-branched 2,3,4-saturated fatty acyl-CoA	p
2K-ADIPATE	2-oxoadipate	c
2-OXOBUTANOATE	2-oxobutanoate	cp
CPD-335	(R)-3-hydroxybutanoate	cp
CPDQT-30	9-(methylthio)-2-oxononanoate	p
CPD-15873	bis(guanylyl molybdopterin cofactor)	p
ECTOINE	ectoine	cp
CPD-1083	(E)-2-methylcrotonoyl-CoA	cp
4-GUANIDO-BUTYRAMIDE	4-guanidinobutyramide	c
Charged-PRO-tRNAs	an L-prolyl-[tRNAPro]	p
1-KETO-2-METHYLVALERATE	(R)-2,3-dihydroxy-3-methylpentanoate	cp
CPD-343	3-deoxy-D-glycero-2,5-hexodiulosonate	cp
CPD-10832	4-methyl-3-oxoadipyl-CoA	p
COBINAMIDE	cobinamide	c
CPD-15874	bis(molybdenum cofactor)	c
Charged-SEC-tRNAs	an L-selenocysteinyl-[tRNAsec]	p
4-HYDROXY-2-KETOVALERATE	(S)-4-hydroxy-2-oxopentanoate	cp
CPDQT-36	3-[(3'-methylthio)propyl]malate	cp
Charged-SER-tRNAs	an L-seryl-[tRNAser]	p
QXC-ACP	a quinoxaline-2-carboxyl-[acyl-carrier protein]	p
OH-MYRISTOYL	UDP-2-N,3-O-bis[(3R)-3-hydroxytetradecanoyl]-&alpha;-D-glucosamine	cp
DELTA3-ISOPENTENYL-PP	isopentenyl diphosphate	cp
CPD-1086	5-amino-6-(5-phospho-D-ribitylamino)uracil	p
Saturated-Fatty-Acyl-ACPs	a 2,3,4-saturated fatty acyl-[acp]	cp
Light	h&nu;	c
1-L-MYO-INOSITOL-1-P	1D-myo-inositol 3-monophosphate	c
CPDQT-37	3-[(4'-methylthio)butyl]malate	cp
CPD-3617	decanoate	c
4-HYDROXY-L-PROLINE	trans-4-hydroxy-L-proline	cp
GDP-TP	pppGpp	p
Saturated-Fatty-Acyl-CoA	a 2,3,4-saturated fatty acyl CoA	cp
Charged-THR-tRNAs	an L-threonyl-[tRNAThr]	p
Lignoceroyl-ACPs	a lignoceroyl-[acp]	cp
2-Octenoyl-ACPs	a trans oct-2-enoyl-[acp]	c
1-PALMITOYLGLYCEROL-3-PHOSPHATE	1-palmitoylglycerol 3-phosphate	p
Charged-TRP-tRNAs	an L-tryptophanyl-[tRNATrp]	p
OH-PYR	hydroxypyruvate	cp
CPDQT-38	3-[(5'-methylthio)pentyl]malate	cp
Linear-Malto-Oligosaccharides	a linear malto-oligosaccharide	cp
Charged-TYR-tRNAs	an L-tyrosyl-[tRNATyr]	p
CPD-159	(S)-5-amino-3-oxohexanoate	cp
Charged-VAL-tRNAs	an L-valyl-[tRNAVal]	p
Lipid-dihydrosterculate	a [glycerolipid]-dihydrosterculate	p
2-Oxo-carboxylates	a 2-oxo carboxylate	cp
CPD-3618	2-oxovalerate	p
CPDQT-39	3-[(6'-methylthio)hexyl]malate	cp
Quinones	a quinone	c
CPD-15972	lactose	c
Charged-fMET-tRNAs	an N-formyl-L-methionylaminoacyl-tRNA	c
CPD-15979	D-mannopyranose 6-phosphate	cp
HS	hydrogen sulfide	cp
CPD-1091	(S)-ureidoglycolate	cp
R-1-AMINOPROPAN-2-YL-PHOSPHATE	(R)-1-amino-2-propanol O-2-phosphate	p
CPDQT-40	3-[(7'-methylthio)heptyl]malate	cp
HSCN	thiocyanate	p
DEOXY-D-RIBOSE-1-PHOSPHATE	2-deoxy-&alpha;-D-ribose 1-phosphate	cp
CPDQT-406	S-5-methylthiopentylhydroximoyl-L-cysteine	cp
CH4	methane	p
CPD0-1096	glucosamine 1,6-diphosphate	cp
ALPHA-D-GALACTOSE	&alpha;-D-galactose	cp
2-ACYL-GPE	a 2-acyl-1-lyso-phosphatidylethanolamine	cp
VERY-LONG-CHAIN-FATTY-ACYL-COA	a very long chain fatty acyl-CoA	p
2-ALPHA-HYDROXYETHYL-THPP	2-(&alpha;-hydroxyethyl)thiamine diphosphate	cp
CPD-18105	4-methylphenyl 5-phospho-&alpha;-D-ribofuranoside	c
CADAVERINE	cadaverine	p
ADENOSYLCOBINAMIDE-P	adenosyl-cobinamide phosphate	p
RNA-DNA-hybrids	a RNA-DNA hybrid	c
RNA-Holder	a ribonucleic acid	cp
Pi	phosphate	cp
BENZIMIDAZOLE	benzimidazole	c
2-AMINO-3-3-OXOPROP-2-ENYL-BUT-2-ENEDI	aminocarboxymuconate semialdehyde	cp
CPD-18118	D-arabinofuranose 5-phosphate	c
CPD0-1112	&beta;-L-rhamnopyranose	p
Pimeloyl-ACP-methyl-esters	a pimeloyl-[acp] methyl ester	p
2-AMINO-MUCONATE	(2Z,4E)-2-aminomuconate	p
3-KETOACYL-COA	a 3-oxoacyl-CoA	cp
RNASE-III-MRNA-PROCESSING-SUBSTRATE	RNase III mRNA processing substrate	c
ATP	ATP	cp
ALPHA-GLUCOSE-16-BISPHOSPHATE	&alpha;-glucose 1,6-bisphosphate	cp
3-KETOBUTYRATE	acetoacetate	cp
DTDP-D-GLUCOSE	dTDP-&alpha;-D-glucose	cp
Chitodextrins	a chitodextrin	cp
RNASE-III-PROCESSING-PRODUCT-MRNA	RNase III processing product mRNA	p
Pimeloyl-ACPs	a pimeloyl-[acp]	c
CPD-18238	carboxyphosphate	cp
RNASE-R-DEGRADATION-SUBSTRATE-RNA	RNase R degradation substrate RNA	c
CHITIN	chitin	cp
3-Ketoglutaryl-ACP-methyl-ester	a 3-oxo-glutaryl-[acp] methyl ester	cp
CPD0-1123	N-acetyl-&beta;-neuraminate	p
CHITOBIOSE	N,N'-diacetylchitobiose	cp
Chlorides	an organochlorine compound	p
GLYCYLGLYCINE	glycyl-glycine	c
CPD-18271	(2E)-2-methyl-4,6-dioxohept-2-enedioate	p
3-Ketopimeloyl-ACP-methyl-esters	a 3-oxo-pimeloyl-[acp] methyl ester	cp
ALPHA-RIBAZOLE	&alpha;-ribazole	cp
ALPHA-RIBAZOLE-5-P	&alpha;-ribazole 5'-phosphate	cp
CPD-18272	4-methylgentisate	c
2-AMINOACRYLATE	2-aminoprop-2-enoate	p
CPD0-1133	maltoheptaose	c
CPD-18273	(2E)-3-methyl-4,6-dioxohept-2-enedioate	p
Vernolates	vernolate	c
2-AMINOBENZOYL-COA	anthraniloyl-CoA	p
CPD0-1147	methyl red	c
RX	RX	c
3-MERCAPTO-PYRUVATE	3-mercaptopyruvate	c
CAMP	cyclic-AMP	p
ACETYL-ACP	an acetyl-[acp]	c
BETA-D-FRUCTOSE	&beta;-D-fructofuranose	p
CHOCOLA_A	all-trans-retinyl palmitate	c
3-METHYL-CROTONYL-COA	3-methylcrotonyl-CoA	cp
CANAVANINE	L-canavanine	cp
CPD0-1148	N,N'-dimethyl-p-phenylenediamine	p
Very-long-chain-fatty-acids	a very-long-chain fatty acid	c
BETA-D-XYLOSE	&beta;-D-xylopyranose	p
2-AMINOMUCONATE_SEMIALDEHYDE	(2Z,4E)-2-amino-6-oxohexa-2,4-dienoate	cp
CPD-19493	S-(mercaptomethyl)-L-cysteine	p
CPD-14133	(R)-NADPHX	c
TRP	L-tryptophan	cp
5-L-GLUTAMYL-PEPTIDE	a 5-L-glutamyl-[peptide]	c
Semiquinones	a semiquinone	p
ACETYL-COA	acetyl-CoA	cp
CPD-520	quercetin	c
CPD-195	octanoate	c
DTDP-DEOH-DEOXY-GLUCOSE	dTDP-4-dehydro-6-deoxy-&alpha;-D-glucopyranose	cp
Menaquinols	a menaquinol	cp
TRP-tRNAs	a tRNATrp	c
5-METHYL-THF-GLU-N	a 5-methyltetrahydrofolate	c
CPD-14202	L-erythro-7,8-dihydrobiopterin	p
CPD-8860	propionitrile	c
CPD-690	adenosyl-cobyrinate a,c-diamide	p
5-METHYLTHIOADENOSINE	S-methyl-5'-thioadenosine	cp
Menaquinones	a menaquinone	cp
NAD	NAD+	cp
DTDP-DEOH-DEOXY-MANNOSE	dTDP-4-dehydro-&beta;-L-rhamnose	cp
Serines	serine	p
CPD-196	octanoyl-CoA	p
CPD-8973	methyl parathion	c
CPD-14268	(15Z)-tetracosenoate	c
4-HYDROXYPHENYLACETATE	4-hydroxyphenylacetate	c
Cis-Delta5-dodecenoyl-ACPs	a (5Z)-dodec-5-enoyl-[acp]	cp
CPD-694	cob(I)yrinate a,c-diamide	c
CPD-8974	dimethylthiophosphate	p
CPD-543	choline sulfate	c
CPD-14269	(Z)-15-tetracosenoyl-CoA	p
Cis-Delta7-tetradecenoyl-ACPs	a cis-&Delta;7-tetradecenoyl-[acp]	cp
Cis-delta-3-decenoyl-ACPs	a (3Z)-dec-3-enoyl-[acp]	c
NAD-P-OR-NOP	NAD(P)+	cp
CPD-548	S-formylglutathione	c
DTDP-RHAMNOSE	dTDP-&beta;-L-rhamnose	p
Cis-vaccenoyl-ACPs	a cis-vaccenoyl-[acp]	cp
CPD-8978	ethylphosphate	c
CPD-9000	4-(&gamma;-L-glutamylamino)butanoate	c
CPD-7043	amylopectin	p
CPD-551	phosphonoacetaldehyde	cp
CPD-7066	(2R,3S)-3-methylmalate	p
Citrate-Lyase-Citryl-Form	a citryl-holo [citrate lyase acyl-carrier protein]	cp
CPD-14443	(2S,4S)-4-hydroxy-2,3,4,5-tetrahydrodipicolinate	cp
CPD-7076	2-methylbutanoate	c
Methylated-MttC-Proteins	a [methyl-Co(III) trimethylamine-specific corrinoid protein]	p
Methylated-Ribosomal-Protein-L11s	a methylated ribosomal protein L11	p
CPD-558	pimeloyl-CoA	c
CPD-7100	(2S)-2-isopropyl-3-oxosuccinate	cp
4-IMIDAZOLONE-5-PROPIONATE	4-imidazolone-5-propanoate	cp
CPD-19757	(2S)-2-acetamido-4-aminobutanoate	p
CPD-14553	UDP-&alpha;-D-galactose	cp
Glycosides	a glycoside	p
CPD-12634	(glutathion-S-yl)(1H-indol-3-yl)acetonitrile	p
METHACRYLYL-COA	methylacrylyl-CoA	cp
Guanine34-in-tRNAs	a guanine34 in tRNA	c
INOSINE	inosine	cp
Guanine46-in-tRNA	a guanine46 in tRNA	c
COPROPORPHYRINOGEN_I	coproporphyrinogen I	p
COPROPORPHYRINOGEN_III	coproporphyrinogen III	p
SER	L-serine	cp
L-PHOSPHATIDATE	a 1,2-diacyl-sn-glycerol 3-phosphate	c
H2CO3	carbonic acid	cp
CPD-12676	5'-chloro-5'-deoxyadenosine	c
L-RIBULOSE	L-ribulose	c
L-RIBULOSE-5-P	L-ribulose 5-phosphate	p
SER-tRNAs	a tRNAser	c
CPD-10019	(5S)-5-benzyl-hydantoin	cp
CPD-12677	5-chloro-5-deoxyribose 1-phosphate	p
ARSENATE	arsenate	c
FORMYL-L-METHIONYL-PEPTIDE	a [protein] N-terminal-formyl-L-methionine	c
HCN	hydrogen cyanide	c
CPD-10020	(5R)-5-benzyl-hydantoin	cp
CPD-12703	gentisyl-CoA	p
L-SELENOCYSTEINE	L-selenocysteine	p
OLEATE-CPD	oleate	cp
FORMYL-THF-GLU-N	an N10-formyl-tetrahydrofolate	cp
CPD-12706	5-fluoro-5-deoxy-D-ribose 1-phosphate	p
IS30-Insertion-Sequences	an insertion sequence element IS30	cp
PHOSPHORIBOSYL-AMP	1-(5-phospho-&beta;-D-ribosyl)-AMP	cp
IS30-with-Integrated-Transposon	an insertion sequence IS30 with integrated transposon	cp
CPD-12760	(R)-4-phosphopantoate	c
DIHYDROLIPOYL-GCVH	a [glycine-cleavage complex H protein] N6-dihydrolipoyl-L-lysine	cp
DIHYDRONEOPTERIN-P3	7,8-dihydroneopterin 3'-triphosphate	c
HX	HX	p
ISOBUTYRATE	isobutanoate	c
Single-Stranded-DNAs	a single stranded DNA	cp
HYDANTOIN	hydantoin	cp
PHOSPHORIBOSYL-ATP	1-(5-phospho-&beta;-D-ribosyl)-ATP	cp
OLEOYL-COA	oleoyl-CoA	cp
CPD-12773	&alpha;-D-glucopyranosyl-diphosphoundecaprenol	p
L-THREONINE-O-3-PHOSPHATE	L-threonine 3-O-phosphate	c
ISOBUTYRYL-COA	isobutanoyl-CoA	cp
SEROTONIN	serotonin	cp
CPD-12849	(1E,3E)-4-hydroxybuta-1,3-diene-1,2,4-tricarboxylate	cp
Soluble-Heteroglycans	a plant soluble heteroglycan	cp
CPD-15999	dialurate	p
R-2-Haloacids	an (R)-2-haloacid	c
CHOLATE	cholate	p
R-2-Hydroxyacids	an (R)-2-hydroxyacid	p
CPD-1099	raffinose	cp
PROTOHEME	ferroheme b	c
R-3-Hydroxypalmitoyl-ACPs	a (3R)-3-hydroxypalmitoyl-[acp]	p
Starch	starch	p
R-3-hydroxy-cis-vaccenoyl-ACPs	(R)-3-hydroxy-cis-vacc-11-enoyl-[acp]	p
CHOLINE	choline	cp
CPD-110	salicylate	cp
R-3-hydroxyarachidoyl-ACPs	a (3R)-3-hydroxyarachidoyl-[acp]	p
CPD-11020	5-chloro-4-hydroxy-2-oxopentanoate	p
R-3-hydroxybehenoyl-ACPs	a (3R)-3-hydroxybehenoyl-[acp]	p
CPD-16458	7,8-dihydrolumazine	p
R-3-hydroxycerotoyl-ACPs	a (3R)-3-hydroxycerotoyl-[acp]	p
Stearoyl-ACPs	a stearoyl-[acp]	cp
R-3-hydroxydodecanoyl-ACPs	a (3R)-3-hydroxydodecanoyl-[acp]	p
Acceptor	an oxidized electron acceptor	cp
CPD-16549	3-(N-morpholino)propanal	p
Crotonyl-ACPs	a crotonyl-[acp]	c
R-3-hydroxyhexanoyl-ACPs	a (3R)-3-hydroxyhexanoyl-[acp]	p
R-3-hydroxylignoceroyl-ACPs	a (3R)-3-hydroxylignoceroyl-[acp]	p
R-3-hydroxymyristoyl-ACPs	a (3R)-3-hydroxymyristoyl-[acp]	cp
CPD-1106	(2-aminoethyl)phosphonate	cp
R-3-hydroxypetroselinoyl-ACPs	a (3R)-3-hydroxypetroselinoyl-[acp]	p
Pre-tRNA-3-prime-half-molecules	a 3'-half-tRNA molecule with a 5'-OH end	cp
Pre-tRNA-5-prime-half-molecules	a 5'-half-tRNA molecule with a 2',3'-cyclic phosphate end	cp
CPD-1109	an N-acyl-D-mannosamine	cp
R-3-hydroxystearoyl-ACPs	a (3R)-3-hydroxystearoyl-[acp]	p
Cyclic-2-3-Ribonucleoside-Monophosphates	a ribonucleoside 2',3'-cyclic phosphate	c
Kanamycin-3-phosphates	a kanamycin 3'-phosphate	p
R-4-PHOSPHOPANTOTHENOYL-L-CYSTEINE	(R)-4'-phosphopantothenoyl-L-cysteine	cp
ACETYL-D-GLUCOSAMINYLDIPHOSPHO-UNDECAPRE	N-acetyl-&alpha;-D-glucosaminyldiphospho-ditrans,octacis-undecaprenol	c
Primary-Aliphatic-Amides	a primary aliphatic amide	p
Acetoacetyl-ACPs	an acetoacetyl-[acp]	cp
Prolipoprotein-Cysteines	a [prolipoprotein]-L-cysteine	c
CHORISMATE	chorismate	cp
Kanamycins	a kanamycin	c
2-PG	2-phospho-D-glycerate	cp
Lipoprotein-signal-peptide	a lipoprotein signal peptide	p
2-PHOSPHO-4-CYTIDINE-5-DIPHOSPHO-2-C-MET	2-phospho-4-(cytidine 5'-diphospho)-2-C-methyl-D-erythritol	cp
5-OXOPROLINE	5-oxo-L-proline	c
HCO3	hydrogencarbonate	cp
Lipoyl-Protein-L-Lysine	a [lipoyl-carrier protein]-L-lysine	c
GLUTARYL-COA	glutaryl-CoA	p
5-P-BETA-D-RIBOSYL-AMINE	5-phospho-&beta;-D-ribosylamine	cp
NADH	NADH	cp
GLYOX	glyoxylate	cp
Lipoyl-Protein-N6-lipoyllysine	a [lipoyl-carrier protein]-N6-lipoyl-L-lysine	p
DEOXY-RIBOSE-5P	2-deoxy-D-ribose 5-phosphate	cp
CPD-7221	(3Z)-dodec-3-enoyl-CoA	p
WATER	H2O	cp
PROTON	H+	cp
DEOXYADENOSINE	2'-deoxyadenosine	cp
Kinesin-Microtubules-Complex	a kinesin-microtubules complex	cp
CPD-7224	N-acetyl-L-citrulline	c
CPD-560	S-methyl-5-thio-D-ribose	cp
L-1-GLYCERO-PHOSPHORYLCHOLINE	sn-glycero-3-phosphocholine	p
PHOSPHORIBOSYL-CARBOXY-AMINOIMIDAZOLE	5-amino-1-(5-phospho-D-ribosyl)imidazole-4-carboxylate	cp
2-PROTOCATECHUOYLPHLOROGLUCINOLCARBOXYLA	2-protocatechuoylphloroglucinolcarboxylate	p
L-1-GLYCEROPHOSPHORYLETHANOL-AMINE	sn-glycero-3-phosphoethanolamine	cp
ERYTHRONATE-4P	4-phospho-D-erythronate	p
CPD0-1162	(2E,5Z)-tetradecenoyl-CoA	cp
CPD-369	L-iditol	cp
THMPT	tetrahydromethanopterin	p
Long-Chain-Acyl-ACPs	a long-chain acyl-[acyl-carrier protein]	p
Wound-RNA	wound RNA	c
ERYTHROSE-4P	D-erythrose 4-phosphate	cp
GLUTATHIONE	glutathione	cp
CPD-564	S-ribosyl-L-homocysteine	p
Long-Chain-Acyl-CoAs	a long-chain acyl-CoA	p
BETAINE	glycine betaine	cp
CPD0-1163	(S)-3-hydroxy-(5Z)-tetradecenoyl-CoA	p
5-P-RIBOSYL-N-FORMYLGLYCINEAMIDE	N2-formyl-N1-(5-phospho-&beta;-D-ribosyl)glycinamide	c
CPD-729	12-oxo-cis-10,15-phytodienoate	c
CPD-37	5-dehydro-4-deoxy-D-glucuronate	cp
DEOXYCYTIDINE	2'-deoxycytidine	c
5-PHOSPHO-RIBOSYL-GLYCINEAMIDE	N1-(5-phospho-&beta;-D-ribosyl)glycinamide	p
2-hydroxyacyl-glutathiones	S-(2-hydroxyacyl)glutathione	c
XANTHINE	xanthine	cp
Long-Chain-Fatty-Acids	a long-chain fatty acid	c
CPD-730	3-oxo-2-(cis-2'-pentenyl)-cyclopentane-1-octanoate	p
Cysteine-Desulfurase-L-cysteine	an [L-cysteine desulfurase]-L-cysteine	cp
THR	L-threonine	cp
CPD-3706	adenosine 3'-monophosphate	cp
THR-tRNAs	a tRNAThr	c
L-1-LYSOPHOSPHATIDATE	1-oleyl-2-lyso-phosphatidate	p
Cytidine-34-tRNAIle2	a cytidine34 in tRNAIle2	c
CPD0-1308	glyphosate	c
Long-Chain-Polyphosphate	long chain polyphosphate	cp
CPD-3707	adenosine 2',3'-cyclic monophosphate	c
PHOSPHORIBOSYL-FORMAMIDO-CARBOXAMIDE	5-formamido-1-(5-phospho-D-ribosyl)-imidazole-4-carboxamide	cp
Actinorhodin-Intermediate-2	9-hydroxy-3,5,7,11,13,15-hexaoxohexadecanoyl-[PKS-acp]	p
L-1-PHOSPHATIDYL-ETHANOLAMINE	an L-1-phosphatidylethanolamine	cp
NADH-P-OR-NOP	NAD(P)H	cp
ETF-Oxidized	an oxidized electron-transfer flavoprotein	c
5-PHOSPHORIBOSYL-5-AMINOIMIDAZOLE	5-amino-1-(5-phospho-&beta;-D-ribosyl)imidazole	cp
CPD-5662	9-mercaptodethiobiotin	cp
PHOSPHORIBOSYL-FORMIMINO-AICAR-P	1-(5-phospho-&beta;-D-ribosyl)-5-[(5-phosphoribosylamino)methylideneamino]imidazole-4-carboxamide	cp
CPD0-1327	5-fluorouracil	p
Long-linear-glucans	a long-linear &alpha;-D-glucan	cp
THREO-DS-ISO-CITRATE	D-threo-isocitrate	cp
L-1-PHOSPHATIDYL-GLYCEROL	an L-1-phosphatidyl-sn-glycerol	c
HEPARIN	heparin	c
Cytochromes-C-Oxidized	an oxidized c-type cytochrome	cp
L-1-PHOSPHATIDYL-GLYCEROL-P	1-(3-sn-phosphatidyl)-sn-glycerol 3-phosphate	p
C6	ditrans,octacis-undecaprenyldiphospho-[(N-acetyl-&beta;-D-glucosaminyl)-(1,4)-]-N-acetyl-&alpha;-D-muramoyl-L-alanyl-&gamma;-D-glutamyl-meso-2,6-diaminopimeloyl-D-alanyl-D-alanine	cp
SUPER-OXIDE	superoxide	c
CPD-3708	guanosine 3'-monophosphate	cp
CPD-569	N-acetylputrescine	cp
L-1-PHOSPHATIDYL-SERINE	a 3-O-sn-phosphatidyl-L-serine	cp
XANTHOSINE	xanthosine	cp
DEOXYGUANOSINE	2'-deoxyguanosine	cp
HYDROGEN-PEROXIDE	hydrogen peroxide	cp
Acyl-Phosphates	an acyl phosphate	c
Cytochromes-C-Reduced	a reduced c-type cytochrome	cp
CPD-10267	decanoyl-CoA	cp
CPD-19761	2,6-dichloro-3-(glutathione-S-yl)-hydroquinone	p
CPD-19763	2,3,5-trichloro-6-(glutathione-S-yl)-hydroquinone	p
Acyl-homoserine-lactones	an N-acyl-L-homoserine lactone	p
3-METHYLTHIOPROPYLHYDROXAMIC-ACID	(E)-N-hydroxy-4-(methylsulfanyl)butimidothioate	cp
CPD-18320	5-methylbenzimidazole	c
CPD-14673	3-phenylpropionitrile	c
CPD-10269	palmitoleoyl-CoA	cp
CPD-19775	ferroheme i	cp
CPD-9038	precorrin-1	p
3-Methyl-Saturated-Fatty-Acids	a 3-methyl-branched 2,3,4-saturated fatty acid	c
Sulfur-Carrier-Proteins-ThiI	a [ThiI sulfur-carrier protein]-L-cysteine	cp
CPD-10284	3-oxo-myristoyl-CoA	c
CPD-19776	hydroxyferroheme i	p
3-Methyl-Saturated-Fatty-Acyl-CoA	a 3-methyl-branched 2,3,4-saturated fatty acyl-CoA	cp
CPD-19778	(2Z,4Z)-2-amino-5-chloro-6-oxohexa-2,4-dienoate	c
CPD-18321	5-methoxybenzimidazole	c
CPD-904	N-methyl-L-proline	c
CPD-14675	pristanoyl-CoA	p
HYDROXY-METHYL-BUTENYL-DIP	(E)-4-hydroxy-3-methylbut-2-en-1-yl diphosphate	p
CPD-19779	(2Z,4Z)-2-amino-5-chlorohexa-2,4-dienedioate	p
Sulfurated-Sulfur-Acceptors	a sulfurated [sulfur carrier]	cp
ISOCHORISMATE	isochorismate	c
CPD-18346	cis-vaccenoyl-CoA	cp
3-OCTAPRENYL-4-HYDROXYBENZOATE	3-octaprenyl-4-hydroxybenzoate	cp
D-3-HYDROXYACYL-COA	a (3R)-3-hydroxyacyl-CoA	cp
Sulfurylated-ThiI	a [ThiI sulfur-carrier protein]-S-sulfanyl-L-cysteine	cp
CPD-14704	4-hydroxy-2-nonenal-glutathione conjugate	p
DIHYDROPTERIN-CH2OH-PP	(7,8-dihydropterin-6-yl)methyl diphosphate	p
CPD-18348	1-cis-vaccenoylglycerol-3-phosphate	p
CPD-10330	&alpha;-D-ribofuranose	c
D-5-Monosubstituted-Hydantoins	a D-5-monosubstituted hydantoin	cp
Adjacent-pyrimidine-dimer-in-DNA	a dimer of adjacent pyrimidine nucleosides in DNA	c
CPD-14736	L-kynurenine	c
DUDP	dUDP	cp
HYDROXYLAMINE	hydroxylamine	p
D-6-P-GLUCONO-DELTA-LACTONE	6-phospho D-glucono-1,5-lactone	cp
Alcohols	an alcohol	p
CPD-18379	1-myristoylglycerol 3-phosphate	p
CPD-9043	cobalt-precorrin-6A	c
CPD-19782	(3E)-5-chloro-2-oxopent-3-enoate	c
Supercoiled-Duplex-DNAs	a supercoiled duplex DNA	c
CPD-14772	hexadecanedioyl-CoA	cp
AMINO-HYDROXYMETHYL-METHYL-PYR-P	4-amino-2-methyl-5-(phosphooxymethyl)pyrimidine	p
Aldehydes	an aldehyde	p
CPD-19833	roseoflavin	c
T2-DECENOYL-COA	(2E)-dec-2-enoyl-CoA	c
D-ALA-D-ALA	D-alanyl-D-alanine	cp
3-OXO-EICOSAPENTAENOYL-ACP	a 3-oxo-docosapentaenoyl [acp]	c
HYDROXYMETHYLBILANE	preuroporphyrinogen	cp
TTP	dTTP	cp
CPD-148	n-octane	c
CPD-9044	cobalt-precorrin-6B	p
METHIONYL-PEPTIDE	an N-terminal L-methionyl-[protein]	p
3-4-DIHYDROXYBENZOATE	protocatechuate	p
CPD-19839	roseoflavin 5'-phosphate	cp
CPDQT-407	S-6-methylthiohexylhydroximoyl-L-cysteine	cp
CPDQT-408	S-7-methylthioheptylhydroximoyl-L-cysteine	cp
2-C-METHYL-D-ERYTHRITOL-4-PHOSPHATE	2-C-methyl-D-erythritol 4-phosphate	cp
CPD-1301	tetrahydropteroyl tri-L-glutamate	cp
L-arginyl-3-sulfino-L-alaninyl-Peptides	an N-terminal L-arginiyl-3-sulfino-L-alanyl-[protein]	p
CPDQT-409	S-8-methylthiooctylhydroximoyl-L-cysteine	cp
L-arginyl-3-sulfo-L-alaninyl-Peptides	an N-terminal L-arginiyl-3-sulfo-L-alanyl-[protein]	p
GERANYL-PP	geranyl diphosphate	cp
CANAVANINOSUCCINATE	canavaninosuccinate	cp
Protein-Disulfides	a protein disulfide	cp
L-arginyl-L-Glutamyl-Peptides	an N-terminal L-arginiyl-L-glutamyl-[protein]	p
Protein-Dithiols	a protein dithiol	p
FRU1P	&beta;-D-fructofuranose 1-phosphate	c
L-arginyl-L-aspartyl-Peptides	an N-terminal L-arginiyl-L-aspartyl-[protein]	p
L-glutamyl-tRNAGln	an L-glutamyl-[tRNAGln]	c
CARBAMATE	carbamate	cp
GERANYLGERANYL-PP	geranylgeranyl diphosphate	c
CPDQT-41	10-(methylthio)-2-oxodecanoate	p
2-CHLOROMALEYLACETATE	2-chloromaleylacetate	p
CPD-1302	5-methyltetrahydropteroyl tri-L-glutamate	cp
CPDQT-410	S-9-methylthiononylhydroximoyl-L-cysteine	cp
Protein-Histidines	a [protein]-L-histidine	cp
L-leucyl-L-arginyl-Protein	a [protein] N-terminal L-leucyl-L-arginine	p
CPDQT-411	(E)-N-hydroxy-5-(methylsulfanyl)pentimidothioate	cp
L-leucyl-L-lysyl-Protein	a [protein] N-terminal L-leucyl-L-lysine	p
TAGATOSE	keto-D-tagatose	cp
CARBAMOYL-P	carbamoyl phosphate	cp
D-ALANINE	D-alanine	cp
TAGATOSE-1-6-DIPHOSPHATE	D-tagatofuranose 1,6-bisphosphate	c
CPDQT-412	(E)-N-hydroxy-6-(methylsulfanyl)heximidothioate	cp
L-methionyl-L-alanyl-Protein	an N-terminal-L-methionyl-L-alanyl-[protein]	c
CPD-13035	adenylyl molybdenum cofactor	p
GLC-1-P	&alpha;-D-glucopyranose 1-phosphate	cp
L-methionyl-L-cysteinyl-Protein	an N-terminal-L-methionyl-L-cysteinyl-[protein]	c
FRUCTOSE-16-DIPHOSPHATE	&beta;-D-fructose 1,6-bisphosphate	cp
L-methionyl-L-seryl-Protein	an N-terminal-L-methionyl-L-seryl-[protein]	c
CPDQT-413	(E)-N-hydroxy-7-(methylsulfanyl)heptimidothioate	cp
L-methionyl-L-threonyl-Protein	an N-terminal-L-methionyl-L-threonyl-[protein]	c
CPD-13043	7-carboxy-7-deazaguanine	cp
UMP	UMP	cp
L-methionyl-L-valyl-Protein	an N-terminal-L-methionyl-L-valyl-[protein]	c
NADP	NADP+	cp
CPDQT-414	(E)-N-hydroxy-8-(methylsulfanyl)octimidothioate	cp
L-methionyl-glycyl-Protein	an N-terminal-L-methionyl-glycyl-[protein]	c
2-D-THREO-HYDROXY-3-CARBOXY-ISOCAPROATE	(2R,3S)-3-isopropylmalate	cp
L-methionyl-tRNAfmet	an L-methionyl-[initiator tRNAMet]	cp
Protein-L-glutamine	a [protein]-L-glutamine	c
FRUCTOSE-6P	&beta;-D-fructofuranose 6-phosphate	cp
CPDQT-415	(E)-N-hydroxy-9-(methylsulfanyl)nonimidothioate	cp
CARBAMYUL-L-ASPARTATE	N-carbamoyl-L-aspartate	cp
Monocarboxylates	a monocarboxylate	p
2-DEHYDRO-3-DEOXY-D-GALACTONATE	2-dehydro-3-deoxy-D-galactonate	cp
GLC-D-LACTONE	D-glucono-1,5-lactone	cp
Monocarboxylic-Acid-Amides	a monocarboxylic acid amide	c
CPD-13086	(9Z)-12,13-dihydroxyoctadeca-9-enoate	p
Monosaccharides	a monosaccharide	cp
L-phenylalanyl-L-arginyl-Protein	L-phenylalanyl-L-arginyl-[protein]	p
Protein-L-lysine	a [protein]-L-lysine	c
L-phenylalanyl-L-lysyl-Protein	L-phenylalanyl-L-lysyl-[protein]	p
OROTATE	orotate	cp
Protein-L-methionine	a [protein]-L-methionine	cp
Protein-L-methionine-R-S-oxides	a protein-L-methionine-(R)-S-oxide	cp
CPDQT-429	indolylmethylisothiocyanate	c
UNDECAPRENYL-DIPHOSPHATE	di-trans,octa-cis-undecaprenyl diphosphate	p
CPD-13089	(12Z,15Z)-9,10-epoxyoctadeca-12,15-dienoate	c
L-seryl-SEC-tRNAs	an L-seryl-[tRNAsec]	cp
Protein-L-methionine-S-S-oxides	a protein-L-methionine-(S)-S-oxide	c
TARTRATE	L-tartrate	cp
DIHYDROSIROHYDROCHLORIN	precorrin-2	c
5-PHOSPHORIBOSYL-N-FORMYLGLYCINEAMIDINE	2-(formamido)-N1-(5-phospho-&beta;-D-ribosyl)acetamidine	cp
4-MALEYL-ACETOACETATE	4-maleyl-acetoacetate	cp
AMINO-HYDROXYMETHYL-METHYLPYRIMIDINE-PP	4-amino-2-methyl-5-(diphosphomethyl)pyrimidine	c
Red-Glutaredoxins	a reduced glutaredoxin	c
ACETYL-GLU	N-acetyl-L-glutamate	cp
Red-NADPH-Hemoprotein-Reductases	a reduced [NADPH-hemoprotein reductase]	c
SHIKIMATE	shikimate	cp
Red-Thioredoxin	a reduced thioredoxin	cp
AMINO-OH-HYDROXYMETHYL-DIHYDROPTERIDINE	6-(hydroxymethyl)-7,8-dihydropterin	c
BETAINE_ALDEHYDE	betaine aldehyde	cp
SHIKIMATE-5P	shikimate 3-phosphate	cp
ACETYL-P	acetyl phosphate	cp
Reduced-2Fe-2S-Ferredoxins	a reduced [2Fe-2S] ferredoxin	c
5-Phospho-terminated-DNAs	a 5'-phospho-[DNA]	p
3-5-ADP	adenosine 3',5'-bisphosphate	cp
Reduced-CycA1-cytochromes	a reduced CycA1 cytochrome	c
METHYL-GLYOXAL	methylglyoxal	cp
Reduced-Factor-F420	a reduced coenzyme F420	cp
4-METHYLCATECHOL	4-methylcatechol	p
DIHYDROXY-ACETONE-PHOSPHATE	glycerone phosphate	cp
PRPP	5-phospho-&alpha;-D-ribose 1-diphosphate	cp
Reduced-NrdH-Proteins	a reduced NrdH glutaredoxin-like protein	c
METHYL-MALONYL-COA	(R)-methylmalonyl-CoA	cp
AMINO-PARATHION	amino-parathion	c
NADPH	NADPH	cp
DIHYDROXY-BUTANONE-P	1-deoxy-L-glycero-tetrulose 4-phosphate	cp
Reduced-Rubredoxins	a reduced rubredoxin	c
4-NITROANILINE	4-nitroaniline	p
PYRAZINAMIDE	pyrazinamide	c
DEOXYINOSINE	2'-deoxyinosine	cp
AMINO-RIBOSYLAMINO-1H-3H-PYR-DIONE	5-amino-6-(D-ribitylamino)uracil	cp
Reduced-ferredoxins	a reduced ferredoxin [iron-sulfur] cluster	cp
DIHYDROXYACETONE	dihydroxyacetone	cp
4-OXALOMESACONATE	(1E)-4-oxobut-1-ene-1,2,4-tricarboxylate	cp
OROTIDINE-5-PHOSPHATE	orotidine 5'-phosphate	cp
Relaxed-DNAs	a relaxed DNA	cp
PYRAZINOIC-ACID	pyrazine-2-carboxylate	p
D-Amino-Acids	a D-amino acid	cp
Resolution-of-Recombinational-Junction	resolution of recombinational junction formation of two intact strands	p
METHYL-THMPT	N5-methyltetrahydromethanopterin	cp
Retinols	a retinol	p
SIROHEME	siroheme	p
LysW-L-glutamate	a [2-aminoadipate carrier protein]-L-glutamate	c
XANTHOSINE-5-PHOSPHATE	XMP	cp
D-ERYTHRO-IMIDAZOLE-GLYCEROL-P	D-erythro-imidazole-glycerol-phosphate	c
LysW-L-glutamate-5-phosphate	a [2-aminoadipate carrier protein]-L-glutamate 5-phosphate	cp
CPD0-1456	UDP-N-acetyl-&alpha;-D-muramoyl-L-alanine	cp
LysW-L-glutamate-5-semialdehyde	a [2-aminoadipate carrier protein]-L-glutamate 5-semialdehyde	cp
CPD-734	(-)-jasmonate	p
TUM1-L-cysteine	a [3-mercaptopyruvate sulfurtransferase]-L-cysteine	cp
PHOSPHORIBULOSYL-FORMIMINO-AICAR-P	phosphoribulosylformimino-AICAR-phosphate	p
D-GALACTONATE	D-galactonate	c
L-3-HYDROXYACYL-COA	a (3S)-3-hydroxyacyl-CoA	cp
LysW-L-ornithine	a [2-aminoadipate carrier protein]-L-ornithine	cp
CPD-16953	2-amino-6-[1-hydroxyethyl]-7-methyl-7,8-dihydropterin	c
TUM1-S-sulfanylcysteine	a [3-mercaptopyruvate sulfurtransferase]-S-sulfanyl-L-cysteine	cp
ADENYLOSUCC	adenylo-succinate	cp
L-5-Monosubstituted-Hydantoins	an L-5-monosubstituted hydantoin	cp
TYR	L-tyrosine	cp
Lysidine-tRNA-Ile2	a lysidine34 in tRNAIle2	p
CPD0-1699	6-carboxy-5,6,7,8-tetrahydropterin	c
TYR-tRNAs	a tRNATyr	c
CPD-1113	6-(&alpha;-D-glucosaminyl)-1-phosphatidyl-1D-myo-inositol	p
CPD-16954	[1-(2-amino-7-methyl-4-oxo-7,8-dihydro-3H-pteridin-6-yl)]ethyl diphosphate	p
CPD-7545	S-(phenylacetothiohydroximoyl)-L-cysteine	cp
L-ALPHA-ALANINE	L-alanine	cp
CPD0-1718	7,8-dihydropterin	c
CPD-170	stachyose	c
CPD-7546	S-(4-methylthiobutylhydroximoyl)-L-cysteine	cp
CPD-17045	3-benzyl-3,6-dihydroxy-6-(hydroxymethyl)-diketopiperazine	c
3-CARBOXY-3-HYDROXY-ISOCAPROATE	(2S)-2-isopropylmalate	cp
CPD-11244	an unsaturated pectate oligosaccharide	cp
CPD-763	arsenite	p
CPD-11245	3-methylgentisate	c
CPD0-181	N5-carboxyaminoimidazole ribonucleotide	c
CPD-17046	3-benzyl-3,6 -bis(glutathione)- 6-(hydroxymethyl)-diketopiperazine	p
CPD-764	phosphonoacetate	cp
MAL	(S)-malate	cp
CPD-11281	S-sulfanylglutathione	c
CPD-17063	ferroheme o	cp
BIOTIN	biotin	p
CPD-17095	iminoarginine	p
CPD-1130	3-ethylmalate	cp
3-CYANOPYRIDINE	3-cyanopyridine	c
D-GALACTONO-1-4-LACTONE	D-galactono-1,4-lactone	p
CPD0-1958	3-(N-morpholino)propanesulfonate	c
CPD-1133	3D-(3,5/4)-trihydroxycyclohexane-1,2-dione	cp
L-ARGININO-SUCCINATE	L-arginino-succinate	cp
ETF-Reduced	a reduced electron-transfer flavoprotein	p
CIS-2-CHLORO-4-CARBOXYMETHYLENEBUT-2-EN-	2-chloro-cis-dienelactone	c
MttC-Proteins	a [Co(I) trimethylamine-specific corrinoid protein]	c
D-GALACTOSAMINE-6-PHOSPHATE	D-galactosamine 6-phosphate	p
CPD-582	guanylyl molybdenum cofactor	p
Myristoyl-ACPs	a myristoyl-[acp]	cp
OXALACETIC_ACID	oxaloacetate	cp
HYDROXYMUCONATE-SALD	(2Z,4E)-2-hydroxy-6-oxohexa-2,4-dienoate	c
CPD-5821	(S)-2-oxo-4-hydroxy-4-carboxy-5-ureidoimidazoline	cp
N-5-PHOSPHORIBOSYL-ANTHRANILATE	N-(5-phosphoribosyl)-anthranilate	cp
ETHANAMINE	ethylamine	p
CIS-4-HYDROXY-D-PROLINE	cis-4-hydroxy-D-proline	cp
CPD-3709	guanosine 2',3'-cyclic monophosphate	c
N-ACETYL-D-GALACTOSAMINE-6-PHOSPHATE	N-acetyl-D-galactosamine 6-phosphate	c
CPD-9049	cobyrinate	c
CPD-5881	(6R)-4a-hydroxy-tetrahydrobiopterin	cp
OXALO-SUCCINATE	oxalosuccinate	cp
CIS-ACONITATE	cis-aconitate	cp
ETHANOL-AMINE	ethanolamine	cp
N-ACETYL-D-GLUCOSAMINE	N-acetyl-&beta;-D-glucosamine	p
D-GLT	D-glutamate	cp
N-ACETYL-D-GLUCOSAMINE-1-P	N-acetyl-&alpha;-D-glucosamine 1-phosphate	cp
CPD-3711	cytidine-3'-monophosphate	cp
CPD-592	4-guanidinobutanoate	p
CPD-9148	(2Z,4E)-2-amino-5-methyl-muconate semialdehyde	c
CPD-5923	5'-deoxy-5'-fluoroadenosine	c
N-ACETYL-D-GLUCOSAMINE-6-P	N-acetyl-D-glucosamine 6-phosphate	cp
CIS-CIS-MUCONATE	cis,cis-muconate	cp
HYPOXANTHINE	hypoxanthine	cp
CPD-9150	(2Z,4E)-2-amino-5-methyl-muconate	p
N-ACETYL-D-MANNOSAMINE-6P	N-acetyl-D-mannosamine 6-phosphate	cp
CPD-9152	4-chlorocatechol	p
CPD-3713	cytidine 2',3'-cyclic monophosphate	c
CPD-14808	scyllo-inosose	cp
CPDQT-434	indol-3-ylmethylisothiocyanate-glutathione	p
LACTALD	(S)-lactaldehyde	cp
D-GLUCOSAMINE-6-P	D-glucosamine 6-phosphate	cp
2-DEHYDRO-3-DEOXY-D-GLUCONATE	2-dehydro-3-deoxy-D-gluconate	cp
FRUCTURONATE	D-fructuronate	cp
CPD-14828	1-C16:0-&alpha;,&omega;-dicarboxyl-2-lysophosphatidate	cp
CPD-19840	roseoflavin adenine dinucleotide	p
CARBON-DIOXIDE	CO2	cp
2-DEHYDROPANTOATE	2-dehydropantoate	cp
HEXANOYL-COA	hexanoyl-CoA	cp
DEOXYURIDINE	2'-deoxyuridine	cp
CPD-201	4-hydroxybenzoyl-CoA	cp
CREATINE	creatine	cp
CPD-14845	precorrin-7	cp
SIROHYDROCHLORIN	sirohydrochlorin	cp
PYRIDOXAL	pyridoxal	c
CPD-206	phytanoyl-CoA	c
FUM	fumarate	cp
SN-GLYCEROL-1-PHOSPHATE	sn-glycerol 1-phosphate	cp
PYRIDOXAL_PHOSPHATE	pyridoxal 5'-phosphate	p
MALONATE-S-ALD	3-oxopropanoate	cp
PECTATE	a pectate	cp
CARBON-MONOXIDE	carbon monoxide	p
D-HEXOSE-6-PHOSPHATE	D-hexose 6-phosphate	p
LAUROYLCOA-CPD	lauroyl-CoA	p
CPD-14925	(3Z)-dec-3-enoyl-CoA	p
SO3	sulfite	cp
2-DEOXYRIBOSE	2'-deoxyribose	c
DEOXYXYLULOSE-5P	1-deoxy-D-xylulose 5-phosphate	cp
CPD-14927	phytenate	c
GMP	GMP	cp
HG+2	Hg2+	c
DEPHOSPHO-COA	3'-dephospho-CoA	cp
CREATININE	creatinine	cp
ACETYLSERINE	O-acetyl-L-serine	cp
CPD-14928	phytenoyl-CoA	p
CPD-20735	two adjacent 2'-deoxycytidines in DNA	p
2-Deoxy-D-Ribosyl-Base	a 2-deoxy-D-ribosyl-base	cp
CPD-20736	adjacent 2'-deoxycytidine-thymidine in DNA	p
3-OXOADIPATE-ENOL-LACTONE	(4,5-dihydro-5-oxofuran-2-yl)-acetate	cp
CPD-20737	adjacent thymidine-2'-deoxycytidine in DNA	p
PYRIDOXAMINE	pyridoxamine	c
D-Hexoses	a D-hexose	c
CPD-20741	a dimer of adjacent 2'-deoxycytidines in DNA	c
PYRIDOXAMINE-5P	pyridoxamine 5'-phosphate	cp
CPD-20742	a dimer of adjacent thymidines in DNA	c
SORBITOL	D-sorbitol	cp
CPD-14931	a 10-formyltetrahydrofolate-4a-carbinolamine	cp
CPD-20743	a dimer of adjacent 2'-deoxycytidine and thymidine in DNA	c
Rhodoquinols	a rhodoquinol	c
CPD-11444	uroporphyrinogen-I	c
CPD-13090	(9Z,15Z)-12,13-epoxy-octadeca-9,15-dienoate	c
Rhodoquinones	a rhodoquinone	p
4-P-PANTOTHENATE	(R)-4'-phosphopantothenate	cp
Ribonucleoside-Diphosphates	a ribonucleoside diphosphate	cp
CPD-7671	methanethiol	cp
Protein-L-serine-or-L-threonine	a [protein]-(L-serine/L-threonine)	cp
CPD-18492	(2E,6Z,9Z,12Z,15Z,18Z)-tetracosahexaenoyl-CoA	c
Ribonucleoside-Monophosphates	a ribonucleoside 5'-monophosphate	cp
D-LACTATE	(R)-lactate	cp
L-ASPARTATE	L-aspartate	cp
CPD-13091	(9Z,12Z)-15,16-epoxyoctadeca-9,12-dienoate	c
Ribonucleoside-Triphosphates	a ribonucleoside triphosphate	c
CPD-18493	(3S)-hydroxy-(6Z,9Z,12Z,15Z,18Z)-tetracosapentaenoyl-CoA	p
CPD-10490	N-ethylglycine	c
Ribonucleosides	a ribonucleoside	p
4-PHOSPHONOOXY-THREONINE	4-phosphooxy-L-threonine	cp
CPD-13092	(9Z,15Z)-12,13-dihydroxyoctadeca-9,15-dienoate	p
MALONYL-ACP	a malonyl-[acp]	cp
CPD-11495	(2-hydroxyphenyl)acetate	p
CPD-17189	pseudo-adenosyl cobamide	p
L-ASPARTATE-SEMIALDEHYDE	L-aspartate-semialdehyde	cp
GLN	L-glutamine	cp
Protein-N-terminal-L-Arginine	an N-terminal arginyl-[protein]	cp
4-hydroxybenzoate	4-hydroxybenzoate	cp
METHYLAMINE	methylamine	p
CPD-18494	3-oxo-(6Z,9Z,12Z,15Z,18Z)-tetracosapentaenoyl-CoA	c
CPD-7695	ditrans,octacis-undecaprenyldiphospho-N-acetyl-(N-acetyl-&beta;-D-glucosaminyl)muramoyl-L-alanyl-&gamma;-D-glutamyl-L-lysyl-D-alanyl-D-alanine	p
URACIL	uracil	cp
CPD-105	(R)-4-hydroxymandelate	c
CPD-13093	(9Z,12Z)-15,16-dihydroxyoctadeca-9,12-dienoate	p
Protein-N-terminal-L-Lysine	an N-terminal L-lysyl-[protein]	c
Ribulose-phosphates	L(or D)-ribulose 5-phosphate	cp
CPD-10546	methyl (indol-3-yl)acetate	c
Ribuloses	ribulose	cp
CPD-173	salicyl alcohol	p
CPD-17312	docosahexaenoyl-CoA	p
S-2-Haloacids	an (S)-2-haloacid	c
Protein-N-terminal-L-threonine	an N-terminal L-threonyl-[protein]	p
MALONYL-COA	malonyl-CoA	cp
CPD-10576	4-chlorosalicylate	c
S-2-Hydroxyacids1	an (S)-2-hydroxyacid	p
CPD-18495	5-methoxy-6-methylbenzimidazole	c
CPD-13094	(12Z,15Z)-9,10-dihydroxyoctadeca-12,15-dienoate	p
CPD-11518	3-oxo-2-(cis-2'-pentenyl)-cyclopentane-1-(E-octa-2-enoyl)-CoA	c
S-24-DINITROPHENYLGLUTATHIONE	2,4-dinitrophenyl-S-glutathione	cp
Protein-N6-5-glutamyl-lysine-crosslinks	a protein with an N6-(&gamma;-glutamyl)-L-lysine crosslink	p
GLT	L-glutamate	cp
D-MANNONATE	D-mannonate	cp
Protein-N6-5-glutamyl-serotonin	a [protein] N6-[(5-hydroxy-1H-indol-3-yl)ethyl]-L-glutamine	p
CPD-18497	5-hydroxy-benzimidazole	c
CPD-11519	3-oxo-2-(cis-2'-pentenyl)-cyclopentane-1-(3R-hydroxyoctanoyl)-CoA	cp
OXIDIZED-GLUTATHIONE	glutathione disulfide	cp
Protein-Ser-or-Thr-phosphate	a [protein] (L-serine/L-threonine) phosphate	cp
S-3-HYDROXYBUTANOYL-COA	(S)-3-hydroxybutanoyl-CoA	cp
CPD-13172	6-hydroxy-2-cyclohexen-one-carboxylate	p
Aliphatic-Nitriles	an aliphatic nitrile	c
Protein-Tyrosines	a [protein]-L-tyrosine	p
CPD-11520	3-oxo-2-(cis-2'-pentenyl)-cyclopentane-1-(3-oxooctanoyl)-CoA	cp
CPD-7737	(2-carboxy-2,5-dihydro-5-oxofuran-2-yl)-acetate	cp
CPD-18550	quinoxaline-2-carboxyl adenylate	c
ISOQUINOLIN-12H-ONE	isoquinolin-2(1H)-one	p
Protein-With-N-Terminal-D-AminoAcids	a peptide with an N-terminal D-amino acid	c
OXOPENTENOATE	2-oxopent-4-enoate	cp
CARBOXYPHENYLAMINO-DEOXYRIBULOSE-P	1-(o-carboxyphenylamino)-1'-deoxyribulose 5'-phosphate	cp
Protein-With-N-Terminal-Met	a peptide with an N-terminal L-methionine	c
CPD-11521	3-oxo-2-(cis-2'-pentenyl)-cyclopentane-1-hexanoyl-CoA	p
NAcMur-Peptide-Undecaprenols	a N-acetylmuramoyl-pentapeptide-diphosphoundecaprenol	p
Protein-With-N-Terminal-Pro	a peptide with an N-terminal L-proline	cp
L-BETA-ASPARTYL-P	L-aspartyl-4-phosphate	cp
CPD-106	(S)-4-hydroxymandelate	p
CPD-782	3,4-dihydroxyphenylacetate	cp
Protein-With-N-Terminal-X-Pro	a peptide with an N-terminal X-L-proline	c
CPD-13174	salicyl-6-hydroxy-2-cyclohexene-on-oyl	c
CPD-10600	4-hydroxybenzoyl-acetyl-CoA	cp
L-CANALINE	L-canaline	p
CPD-11522	3-oxo-2-(cis-2'-pentenyl)-cyclopentane-1-(E-hexa-2-enoyl)-CoA	c
CPD-596	N6,N6-dimethyl-L-arginine	c
D-METHYL-MALONYL-COA	(S)-methylmalonyl-CoA	cp
CPD-600	N-formyl-L-glutamate	cp
D-MYO-INOSITOL-1-MONOPHOSPHATE	1D-myo-inositol 1-monophosphate	c
ETOH	ethanol	cp
XYLULOSE-5-PHOSPHATE	D-xylulose 5-phosphate	cp
3-DEHYDRO-SHIKIMATE	3-dehydroshikimate	cp
OXYGEN-MOLECULE	oxygen	cp
3-Oxo-octanoyl-ACPs	a 3-oxo-octanoyl-[acp]	cp
CPD-601	S-Inosyl-L-homocysteine	p
ADP	ADP	cp
ETR-Quinols	an electron-transfer quinol	cp
3-P-HYDROXYPYRUVATE	3-phosphooxypyruvate	cp
ETR-Quinones	an electron-transfer quinone	cp
ADP-D-GLUCOSE	ADP-&alpha;-D-glucose	p
CPD-602	5-amino-6-(5-phospho-D-ribosylamino)uracil	cp
3-P-SERINE	3-phospho-L-serine	cp
THYMIDINE	thymidine	cp
Fatty-Acids	a fatty acid	p
AMINOMETHYLDIHYDROLIPOYL-GCVH	a [glycine-cleavage complex H protein] N6-aminomethyldihydrolipoyl-L-lysine	cp
ISOQUINOLINE	isoquinoline	c
Fe2-siderophores	an Fe(II)-siderophore	p
NIACINAMIDE	nicotinamide	cp
GLY	glycine	cp
Fe3-siderophores	an Fe(III)-siderophore	c
CPD-633	gentisate	c
3-PHENYLPROPIONATE	3-phenylpropanoate	p
10-FORMYL-DIHYDROFOLATE-GLU-N	an N10-formyldihydrofolate	p
GLYCERALD	D-glyceraldehyde	p
CPD-642	precorrin-3A	cp
REDUCED-MENAQUINONE	menaquinol-8	p
3-DEOXY-D-ARABINO-HEPTULOSONATE-7-P	3-deoxy-D-arabino-heptulosonate 7-phosphate	cp
GLYCERATE	D-glycerate	cp
5Z-3-oxo-tetradec-5-enoyl-ACPs	a (5Z)-3-oxo-tetradec-5-enoyl-[acp]	cp
3-Phosphomonucleotides	a ribonucleoside 3'-phosphate	cp
CIS-D2-ENOYL-COA	a cis-2-enoyl-CoA	cp
2-HYDROXY-2-METHYLPROPANENITRILE	2-hydroxy-2-methylpropanenitrile	cp
11Z-3-oxo-icos-11-enoyl-ACPs	an (11Z)-3-oxo-icos-11-enoyl-[acp]	cp
Octadec-2-enoyl-ACPs	a trans-octadec-2-enoyl-[acp]	c
METHYLENE-THF-GLU-N	a 5,10-methylene-tetrahydrofolate	cp
D-PROLINE	D-proline	cp
CROTONOBETAINYL-COA	crotonobetainyl-CoA	cp
CPD-3724	uridine 3'-monophosphate	cp
HG0	Hg0	p
Octanoyl-ACPs	an octanoyl-[acp]	cp
METHYLENETETRAHYDROMETHANOPTERIN	5,10-methylene-tetrahydromethanopterin	cp
DETHIOBIOTIN	dethiobiotin	c
Halide-Anions	a halide anion	p
11Z-icos-11-enoyl-ACPs	a gondoyl-[acp]	p
Octanoylated-Gcv-H	a [glycine-cleavage complex H protein] N6-octanoyl-L-lysine	cp
CIT	citrate	cp
SPERMIDINE	spermidine	cp
Octanoylated-domains	a [lipoyl-carrier protein] N6-octanoyl-L-lysine	cp
2-HYDROXYPHYTANOYL-COA	2-hydroxyphytanoyl-CoA	p
NIACINE	nicotinate	cp
HIS	L-histidine	cp
CTP	CTP	cp
HIS-tRNAs	a tRNAHis	c
MALTOHEXAOSE	maltohexaose	cp
Odd-Saturated-Fatty-Acyl-CoA	an odd numbered straight chain 2,3,4-saturated fatty acyl CoA	p
2-Hexadecenoyl-ACPs	a trans hexadecenoyl-[acp]	c
CITRATE-LYASE	an acetyl-holo [citrate lyase acyl-carrier protein]	cp
THYMINE	thymine	cp
Odd-Straight-Chain-234-Sat-FA	an odd numbered straight chain 2,3,4-saturated fatty acid	c
CPD-3725	uridine 2'3'-cyclic monophosphate	c
2-Hydroxy-carboxylates	a 2-hydroxy carboxylate	p
POLY-GLUCOSYLATED-GLYCOGENINS	a glucosylated glycogenin	c
DGDP	dGDP	cp
Hepta-oxo-hexadecanoyl-ACPs	a 3,5,7,9,11,13,15-hepta-oxo-hexadecanoyl-[PKS-acp]	c
CPD-3740	djenkolate	c
ACP	a holo-[acyl-carrier protein]	cp
Oleoyl-ACPs	an oleoyl-[acp]	cp
2-KETO-3-DEOXY-6-P-GLUCONATE	2-dehydro-3-deoxy-D-gluconate 6-phosphate	cp
CPD-3744	1-butanesulfonate	c
Hex-2-enoyl-ACPs	a trans hex-2-enoyl-[acp]	c
SS-Oligodeoxyribonucleotides	a single-stranded oligodeoxyribonucleotide	p
ACRYLAMIDE	acrylamide	cp
Folates	a folate	c
STEARIC_ACID	stearate	c
Hexanoyl-ACPs	a hexanoyl-[acyl-carrier-protein]	cp
Oleoyl-lipid	a [glycerolipid]-oleate	c
MALTOPENTAOSE	maltopentaose	cp
2-KETO-3-METHYL-VALERATE	(S)-3-methyl-2-oxopentanoate	cp
CPD-3745	isethionate	c
a-2-oxoglutarate-dehydrogenase-E2-protei	a [2-oxoglutarate-dehydrogenase E2 protein] N6-octanoyl-L-lysine	c
DIMETHYL-D-RIBITYL-LUMAZINE	6,7-dimethyl-8-(1-D-ribityl)lumazine	cp
CPD-10608	trans-dienelactone	c
CPD-15015	4-hydroxy-2-oxoglutarate	cp
CPD-19014	2-hydroxy-2-methylpropanoate	cp
CPD-15056	(2Z)-2-aminobut-2-enoate	cp
a-pyruvate-dehydrogenase-E2-protein-Nsup	a [pyruvate dehydrogenase E2 protein] N6-octanoyl-L-lysine	c
N-ACETYL-GLUTAMYL-P	N-acetylglutamyl-phosphate	cp
apo-ACP	an apo-[acyl-carrier protein]	cp
CPD0-2015	N-acetyl-L-methionine	p
DIMETHYL-GLYCINE	N,N-dimethylglycine	c
CPD-15121	5-fluorocytosine	c
CPD-19042	2-hydroxyisobutyramide	cp
D-SEDOHEPTULOSE-7-P	D-sedoheptulose 7-phosphate	cp
b-Hydroxy-cis-D5-dodecenoyl-ACPs	a (3R,5Z)-3-hydroxy-dodec-5-enoyl-[acp]	p
Tetradec-2-enoyl-ACPs	a trans tetradec-2-enoyl-[acp]	c
b-Keto-cis-D5-dodecenoyl-ACPs	a (5Z)-3-oxo-dodec-5-enoyl-[acp]	cp
CPD-19144	(7Z)-hexadecenoyl-CoA	cp
CPD-15124	(+)-muconolactone	cp
biotin-L-lysine-in-BCCP-dimers	a [biotin carboxyl-carrier-protein dimer]-N6-biotinyl-L-lysine	cp
N-ACETYL-L-24-DIAMINOBUTANOATE	(2S)-4-acetamido-2-aminobutanoate	c
CPD-19147	(7Z)-tetradecenoyl-CoA	cp
5Z-tetradec-5-enoyl-ACPs	a (5Z)-tetradec-5-enoyl-[acp]	cp
CPD0-2018	5-methylcytosine	c
DIMETHYLAMINE	dimethylamine	p
CPD-1063	5-(methylthio)ribulose 1-phosphate	p
carboxybiotin-L-lysine-in-BCCP-dimers	a [carboxyl-carrier protein dimer]-N6-carboxybiotinyl-L-lysine	cp
5Z8Z11Z14Z17Z-EICOSAPENTAENOATE	icosapentaenoate	c
Thi-S	a ThiS sulfur-carrier protein	p
3-ENOLPYRUVYL-SHIKIMATE-5P	5-enolpyruvoyl-shikimate 3-phosphate	cp
CPD-19148	(5Z)-dodecenoyl-CoA	cp
cis-19-CP-37-Mex-38-Me-C59-ACPs	a cis-methoxy-C59-meroacyl-[acp]	p
CPD-10633	5-chloro-trans-dienelactone	c
cis-21-CP-39-keto-40-Me-C60-ACPs	a cis-keto-C60-meroacyl-[acp]	p
3-HYDROXY-3-METHYL-GLUTARYL-COA	(S)-3-hydroxy-3-methylglutaryl-CoA	c
cis-D19-37-MOH-38-Me-C57-1-ACPs	a cis-delta19-37-methoxy-38-methyl-C57:1-[acp]	c
CPD0-2030	glycerophosphoserine	c
CPD-15127	5-deoxy-D-glucuronate	cp
cis-D21-39-oxo-40-Me-C59-1-ACPs	a cis-delta21-39-oxo-40-methyl-C59:1-[acp]	c
CPD-19150	(2E,5Z)-dodecenoyl-CoA	cp
BISOHMYR-GLC	lipid A disaccharide	cp
CPD-10634	5-chloromaleylacetate	p
NICOTINAMIDE_NUCLEOTIDE	&beta;-nicotinamide D-ribonucleotide	cp
16-HYDROXYPALMITATE	16-hydroxypalmitate	c
BISOHMYR-GLUCOSAMINYL-1P	lipid X	cp
CPD-10636	2,5-dichloro-trans-dienelactone	c
3-HYDROXY-ANTHRANILATE	3-hydroxyanthranilate	cp
CPD0-2105	3-oxododecanoyl-CoA	cp
UREA	urea	cp
DIMETHYLBENZIMIDAZOLE	5,6-dimethylbenzimidazole	cp
CPD-19151	(S)-3-hydroxy-(5Z)-dodecenoyl-CoA	cp
CPD-15159	(6R)-6,7-dihydrobiopterin	p
NICOTINAMIDE_RIBOSE	1-(&beta;-D ribofuranosyl)nicotinamide	p
Thiocarboxyadenylated-ThiS-Proteins	a thiocarboxy-[ThiS-Protein]	c
CPD-10637	2,5-dichloromaleylacetate	p
CPD0-2106	3-oxooctanoyl-CoA	cp
CPD-19153	3-oxo-(5Z)-dodecenoyl-CoA	cp
Thiocarboxylated-MPT-synthases	a thiocarboxylated [small subunit of molybdopterin synthase]	c
D-XYLULOSE	D-xylulose	cp
CPD-15182	cob(II)yrinate c-monoamide	cp
CPD-19154	(S)-3-hydroxy-(7Z)-tetradecenoyl-CoA	cp
6-Dimethylallyladenosine37-tRNAs	N6-dimethylallyladenosine37 in tRNA	cp
LEU	L-leucine	cp
CPD-20744	a dimer of adjacent thymidine and 2'-deoxycytidine in DNA	c
Elongation-tRNAMet	elongator tRNAMet	c
Alkanesulfonates	an alkylsulfonate	c
CPD-20826	7-(5-phospho-&alpha;-D-ribosyl)adenine	p
CPD-17365	(4Z,7Z,10Z,13Z,16Z)-docosapentaenoyl-CoA	p
ISOVALERATE	isovalerate	c
LEU-tRNAs	a tRNALeu	cp
CPD-11523	3-oxo-2-(cis-2'-pentenyl)-cyclopentane-1-(3R-hydroxyhexanoyl)-CoA	cp
CPD-643	precorrin-3B	cp
Enoylglutaryl-ACP-methyl-esters	an enoylglutaryl-[acp] methyl ester	c
Alkyl-Hydro-Peroxides	an organic hydroperoxide	c
CPD-20827	phenolyl-Co&beta;-adenosylcobamide 5'-phosphate	p
Enoylpimeloyl-ACP-methyl-esters	an enoylpimeloyl-[acp] methyl ester	c
CPD-11524	3-oxo-2-(cis-2'-pentenyl)-cyclopentane-1-(3-oxohexanoyl)-CoA	cp
AGMATHINE	agmatine	cp
6-PYRUVOYL-5678-TETRAHYDROPTERIN	(6R)-6-pyruvoyl-5,6,7,8-tetrahydropterin	p
ISOVALERYL-COA	isovaleryl-CoA	cp
Alkyl-Thiols	an alkyl-thiol	cp
CPD-20828	4-methylphenolyl-Co&beta;-adenosylcobamide 5'-phosphate	p
CPD-6442	methylsalicylate	c
CPD-20829	[(2R,3S,4R,5S)-5-(1,3-benzodiazol-1-yl)-3,4-dihydroxyoxolan-2-yl]methyl phosphate	cp
CPD-11525	3-oxo-2-(cis-2'-pentenyl)-cyclopentane-1-butanoyl-CoA	p
16S-rRNA-N2-methylguanine966	an N2-methylguanine966 in 16S rRNA	p
ACRYLATE	acrylate	p
CPD-17370	18-hydroxyoleoyl-CoA	cp
16S-rRNA-N4-methylcytidine1402	an N4-methylcytidine1402  in 16S rRNA	p
CPD-20830	[(2R,3S,4R,5S)-3,4-dihydroxy-5-(5-hydroxy-1,3-benzodiazol-1-yl)oxolan-2-yl]methyl phosphate	p
D-Xylopyranose	D-xylopyranose	cp
16S-rRNA-N7-methylguanine527	an N7-methylguanine527 in 16S rRNA	p
CPD-20831	[(2R,3S,4R,5S)-3,4-dihydroxy-5-(5-methoxy-1,3-benzodiazol-1-yl)oxolan-2-yl]methyl phosphate	cp
16S-rRNA-cytidine1402	a cytidine1402 in 16S rRNA	c
CPD-20832	[(2R,3S,4R,5S)-3,4-dihydroxy-5-(5-methoxy-6-methyl-1,3-benzodiazol-1-yl)oxolan-2-yl]methyl phosphate	cp
PYRIDOXINE-5P	pyridoxine 5'-phosphate	cp
CPD-11526	3-oxo-2-(cis-2'-pentenyl)-cyclopentane-1-(E-buta-2-enoyl)-CoA	c
16S-rRNA-guanine-527	a guanine527 in 16S rRNA	c
CPD-20833	Co&alpha;-[a-(benzimidazolyl)]-Co&beta;-adenosylcobamide 5'-phosphate	p
16S-rRNA-guanine-966	a guanine966 in 16S rRNA	c
CPD-645	5-dehydro-2-deoxy-D-gluconate 6-phosphate	p
CPD-17372	1-[18-hydroxyoleyl]-2-lyso-phosphatidate	p
18-HYDROXYOLEATE	18-hydroxyoleate	c
CPD-20836	Co&alpha;-[a-(5-methoxy-6-methyl-benzimidazolyl)]-Co&beta;-adenosylcobamide 5'-phosphate	p
ITP	ITP	cp
CPD-11527	3-oxo-2-(cis-2'-pentenyl)-cyclopentane-1-(3R-hydroxybutanoyl)-CoA	cp
AICAR	5-amino-1-(5-phospho-D-ribosyl)imidazole-4-carboxamide	cp
Orthophosphoric-Monoesters	a phosphate monoester	c
CPD-20838	[(2R,3S,4R,5S)-3,4-dihydroxy-5-(5-methyl-1,3-benzodiazol-1-yl)oxolan-2-yl]methyl phosphate	cp
PORPHOBILINOGEN	porphobilinogen	cp
CPD-20839	Co&alpha;-[a-(5-methylbenzimidazolyl)]-Co&beta;-adenosylcobamide 5'-phosphate	p
D-galactopyranose	D-galactopyranose	cp
CPD-650	(3R)-3-hydroxybutanoyl-CoA	p
CPD-11528	3-oxo-2-(cis-2'-pentenyl)-cyclopentane-1-(3-oxobutanoyl)-CoA	cp
D-glucopyranose-6-phosphate	D-glucopyranose 6-phosphate	cp
CPD-20840	7-&alpha;-D-ribosyladenine	c
CPD-17386	(2E,6Z,9Z,12Z,15Z,18Z,21Z)-tetracosaheptaenoyl-CoA	c
CPD-20841	(2S,3R,4S,5R)-2-(5-hydroxy-1,3-benzodiazol-1-yl)-5-(hydroxymethyl)oxolane-3,4-diol	c
CPD-651	precorrin-4	cp
CPD-20849	Co&alpha;-[a-(5-hydroxybenzimidazolyl)]-Co&beta;-adenosylcobamide	p
LEUKOTRIENE-C4	leukotriene-C4	c
CPD-11529	(+)-7-epi-jasmonoyl-CoA	p
NICOTINATE_NUCLEOTIDE	&beta;-nicotinate D-ribonucleotide	cp
CPD-219	D-lysine	c
ACRYLONITRILE	acrylonitrile	c
All-tRNAs	a tRNA	p
CPD-17387	(3S)-hydroxy-(6Z,9Z,12Z,15Z,18Z,21Z)-tetracosahexaenoyl-CoA	p
All-trans-Retinyl-Esters	an all-trans-retinyl ester	c
GTP	GTP	cp
Ox-Glutaredoxins	an oxidized glutaredoxin	p
CPD-11592	2-methylsulfanyl-N6-dimethylallyladenosine37 in tRNA	p
2-3-4-Saturated-L-Phosphatidates	a 1,2-diacyl-sn-glycerol 3-phosphate	c
FAD	FAD	cp
Alpha-6-alpha-14-glucans	a (1,6)-&alpha;-D-glucosyl-(1,4)-&alpha;-glucan	p
DADP	dADP	cp
CPD-653	(S)-NADHX	p
Alpha-Amyloses	&alpha;-amylose	c
CPD-17388	3-oxo-(6Z,9Z,12Z,15Z,18Z,21Z)-tetracosahexaenoyl-CoA	c
CPD-220	D-arginine	c
Initiation-tRNAmet	initiator tRNAMet	c
Ox-NADPH-Hemoprotein-Reductases	an oxidized [NADPH-hemoprotein reductase]	p
AMMONIA	ammonia	c
S-ADENOSYL-4-METHYLTHIO-2-OXOBUTANOATE	S-adenosyl-4-methylthio-2-oxobutanoate	cp
Protein-phospho-L-histidines	a [protein]-N-phospho-L-histidine	cp
Ox-Thioredoxin	an oxidized thioredoxin	cp
Protein-pi-phospho-L-histidines	a [protein]-N&pi;-phospho-L-histidine	c
CPD-783	2-hydroxy-5-carboxymethylmuconate semialdehyde	p
Protein-tauphospho-L-histidines	a [protein]-N&tau;-phospho-L-histidine	c
CPD-7836	myristate	c
Protein-tyrosine-phosphates	a [protein]-L-tyrosine phosphate	c
7-8-DIHYDROPTEROATE	7,8-dihydropteroate	c
LINOLEIC_ACID	linoleate	c
3-UREIDO-ISOBUTYRATE	3-(carbamoylamino)-2-methylpropanoate	cp
AMMONIUM	ammonium	cp
Oxidized-2Fe-2S-Ferredoxins	an oxidized [2Fe-2S] ferredoxin	p
NITRITE	nitrite	p
L-CARNITINYL-COA	L-carnitinyl-CoA	cp
Oxidized-CycA1-cytochromes	an oxidized CycA1 cytochrome	p
3-UREIDO-PROPIONATE	3-ureidopropanoate	cp
THZ-P	4-methyl-5-(2-phosphooxyethyl)thiazole	c
Proteins-With-N-Terminal-Asp	an N-terminal L-aspartyl-[protein]	c
Oxidized-Factor-F420	an oxidized coenzyme F420	cp
L-CITRULLINE	L-citrulline	cp
GLYCEROL	glycerol	cp
7-AMINOMETHYL-7-DEAZAGUANINE	preQ1	cp
L-CYSTATHIONINE	L-cystathionine	c
HISTIDINAL	histidinal	cp
CPD-784	5-carboxymethyl-2-hydroxymuconate	c
LINOLENIC_ACID	&alpha;-linolenate	c
3-hydroxy-cis-D7-tetraecenoyl-ACPs	a (3R)-3-hydroxy cis &Delta;7-tetradecenoyl-[acp]	p
Oxidized-NrdH-Proteins	an oxidized NrdH glutaredoxin-like protein	p
Purine-Bases	a purine base	cp
3-hydroxy-cis-D9-hexaecenoyl-ACPs	a (3R)-3-hydroxy cis &Delta;9-hexadecenoyl-[acp]	p
7-CYANO-7-DEAZAGUANINE	preQ0	cp
3-hydroxypimeloyl-ACP-methyl-esters	a (3R)-3-hydroxypimeloyl-[acp] methyl ester	p
Oxidized-Rubredoxins	an oxidized rubredoxin	p
S-ADENOSYLMETHIONINAMINE	S-adenosyl 3-(methylthio)propylamine	cp
3-oxo-arachidoyl-ACPs	a 3-oxo-arachidoyl-[acp]	cp
URIDINE	uridine	p
GLYCEROL-3P	sn-glycerol 3-phosphate	cp
CPD-785	(3E,5R)-5-carboxy-2-oxohept-3-enedioate	p
AMP	AMP	cp
Purine-Deoxyribonucleosides	a purine 2'-deoxyribonucleoside	cp
3-oxo-behenoyl-ACPs	a 3-oxo-behenoyl-[acp]	cp
DATP	dATP	p
LINOLENOYL-COA	&alpha;-linolenoyl-CoA	p
S-ADENOSYLMETHIONINE	S-adenosyl-L-methionine	cp
TMP	dTMP	cp
3-oxo-cerotoyl-ACPs	a 3-oxo-cerotoyl-[acp]	cp
Oxidized-ferredoxins	an oxidized ferredoxin [iron-sulfur] cluster	cp
Purine-Ribonucleosides	a purine ribonucleoside	cp
L-CYSTEATE	L-cysteate	cp
3-oxo-cis-D7-tetradecenoyl-ACPs	a 3-oxo-cis-&Delta;7-tetradecenoyl-[acp]	cp
3-oxo-cis-D9-hexadecenoyl-ACPs	a 3-oxo-cis-&Delta;9-hexadecenoyl-[acp]	cp
CPD-9245	palmitoleate	c
CPD0-2113	1-stearoyl-sn-glycerol 3-phosphate	p
STEAROYL-COA	stearoyl-CoA	p
DGTP	dGTP	cp
URIDYLYL-PROTEIN-PII	a uridylylated PII protein	p
CPD-9247	cis-vaccenate	c
Oxo-glutarate-dehydro-suc-DH-lipoyl	a [2-oxoglutarate dehydrogenase E2 protein] N6-S-succinyldihydrolipoyl-L-lysine	cp
Oxo-glutarate-dehydrogenase-DH-lipoyl	a [2-oxoglutarate dehydrogenase E2 protein] N6-dihydrolipoyl-L-lysine	cp
CPD0-2117	trans-hexadec-2-enoyl-CoA	c
RH-Group	an organic molecule	c
ACYL-ACP	an acyl-[acyl-carrier protein]	cp
SUC	succinate	cp
CPD-375	4-pyridoxolactone	p
S-ALLANTOIN	(S)-(+)-allantoin	cp
CPD-9385	&gamma;-glutamyl-p-nitroanilide	c
SUC-COA	succinyl-CoA	cp
DUMP	dUMP	cp
Oxo-glutarate-dehydrogenase-lipoyl	a [2-oxoglutarate dehydrogenase E2 protein] N6-lipoyl-L-lysine	cp
ACYL-COA	an acyl-CoA	c
CPD0-2121	trans-hex-2-enoyl-CoA	p
RHAMNOSE	&alpha;-L-rhamnopyranose	c
UROCANATE	urocanate	cp
SUCC-S-ALD	succinate semialdehyde	cp
CPD-3762	5-amino-4-imidazolecarboxyamide	c
P-AMINO-BENZOATE	4-aminobenzoate	cp
CPD-9406	(2S)-ethylmalonyl-CoA	c
ACYL-SN-GLYCEROL-3P	a 1-acyl-sn-glycerol 3-phosphate	p
CPD-3766	menadione	c
METOH	methanol	cp
S-Alkyl-L-Cysteines	an S-alkyl-L-cysteine	cp
S-CD-S-SP-Complex	an S-sulfanyl-[cysteine desulfurase]-S-sulfanyl-[disordered-form scaffold protein] complex	p
NITROGEN-MOLECULE	N2	p
CPD0-2123	3-oxodecanoyl-CoA	cp
P-COUMAROYL-COA	4-coumaroyl-CoA	c
CPD-9451	2-isopropylmaleate	cp
DUTP	dUTP	cp
CPD0-2171	(S)-3-hydroxytetradecanoyl-CoA	p
CL-	chloride	cp
CPD-377	2-keto-D-gluconate	cp
IDP	IDP	cp
CPD-9570	keto-D-sorbose	cp
S-LACTOYL-GLUTATHIONE	(R)-S-lactoylglutathione	cp
RIBOFLAVIN	riboflavin	cp
Thiols	a thiol	p
G3P	3-phospho-D-glycerate	cp
CPD-13227	N,N',N''-triacetylchitotriose	c
CPD-19155	(S)-3-hydroxy-(9Z)-hexadecenoyl-CoA	cp
CPD-15189	chenodeoxycholate	p
NITROUS-OXIDE	nitrous oxide	c
2-KETO-6-AMINO-CAPROATE	6-amino-2-oxohexanoate	p
CPD-15244	3-oxo-(5Z)-tetradecenoyl-CoA	c
P-HYDROXY-PHENYLPYRUVATE	4-hydroxyphenylpyruvate	cp
Trans-D2-decenoyl-ACPs	a (2E)-dec-2-enoyl-[acp]	cp
CPD-19157	3-oxo-(7Z)-tetradecenoyl-CoA	cp
GUANINE	guanine	cp
CPD-13339	(2Z,4E)-2-hydroxyhexa-2,4-dienedioate	cp
3-HYDROXY-DOCOSAPENTAENOYL-ACP	a (3R)-3-hydroxy-docosapentaenoyl-[acp]	p
3-HYDROXY-ISOBUTYRATE	3-hydroxy-isobutanoate	p
Trans-D2-hexacos-2-enoyl-ACPs	a trans-hexacos-2-enoyl-[acp]	c
PHE	L-phenylalanine	cp
Trans-D3-cis-D5-dodecenoyl-ACPs	a (3E,5Z)-dodeca-3,5-dienoyl-[acp]	c
CPD-13357	(2R)-2,3-dihydroxy-3-methylbutanoate	cp
3-HYDROXY-ISOBUTYRYL-COA	3-hydroxy-isobutanoyl-CoA	c
CPD-19158	3-oxo-(9Z)-hexadecenoyl-CoA	cp
PYRROLINE-HYDROXY-CARBOXYLATE	(3R,5S)-3-hydroxy-1-pyrroline-5-carboxylate	c
Trans-D3-cis-D7-tetradecenoyl-ACPs	a trans-&Delta;3-cis-&Delta;7-tetradecenoyl-[acp]	c
3-HYDROXY-ISOVALERYL-COA	3-hydroxyisovaleryl-CoA	cp
Trans-D3-cis-D9-hexadecenoyl-ACPs	a trans-&Delta;3-cis-&Delta;9-hexadecenoyl-[acp]	c
DIPEPTIDES	a dipeptide	p
CPD-19159	(S)-3-hydroxy-(11Z)-octadecenoyl-CoA	cp
CPD-15301	caldariellaquinol	p
PHE-tRNAs	a tRNAPhe	p
CMP	CMP	cp
P-NITROPHENOL	4-nitrophenol	p
CPD-19160	3-oxo-(11Z)-octadecenoyl-CoA	cp
CPD-15317	D-ribofuranose 5-phosphate	cp
PPI	diphosphate	cp
CMP-KDO	CMP-3-deoxy-&beta;-D-manno-octulosonate	cp
CPD-15318	&alpha;-D-ribose 5-phosphate	p
DITP	dITP	cp
NMNH	reduced &beta;-nicotinamide D-ribonucleotide	p
TusE-L-cysteine	a [TusE sulfur carrier protein]-L-cysteine	p
TusE-S-sulfanylcysteine	a [TusE sulfur carrier protein]-S-sulfanylcysteine	c
CYS	L-cysteine	cp
3-HYDROXY-L-KYNURENINE	3-hydroxy-L-kynurenine	c
CPD-19161	(2E,7Z)-tetradecenoyl-CoA	cp
2-KETO-ISOVALERATE	3-methyl-2-oxobutanoate	cp
N-ALPHA-ACETYLORNITHINE	N-acetyl-L-ornithine	cp
CPD-13524	all-trans-retinol	p
CPD-15360	2-sulfanyl-N6-dimethylallyladenosine37 in tRNA	cp
CYS-GLY	L-cysteinyl-glycine	p
CPD-19162	(2E,9Z)-hexadecenoyl-CoA	cp
2-KETOGLUTARATE	2-oxoglutarate	cp
HISTIDINOL	histidinol	cp
UDP	UDP	cp
UDP-AA-GLUTAMATE	UDP-N-acetyl-&alpha;-D-muramoyl-L-alanyl-D-glutamate	cp
3-HYDROXY-PROPIONATE	3-hydroxypropanoate	p
2-LYSOPHOSPHATIDYLETHANOLAMINES	a 1-acyl 2-lyso-phosphatidylethanolamine	c
CPD-19163	(2E,11Z)-octadecenoyl-CoA	cp
CPD-13533	(3R)-3-hydroxypentanoyl-CoA	c
3-HYDROXY-PROPIONYL-COA	3-hydroxypropanoyl-CoA	c
ALA-tRNAs	a tRNAAla	c
PRECURSOR-Z	cyclic pyranopterin phosphate	c
TRANS-2-CHLORO-4-CARBOXYMETHYLENEBUT-2-E	2-chloro-trans-dienelactone	c
FADH2	FADH2	cp
NN-DIMETHYLANILINE	N,N-dimethylaniline	c
GUANOSINE	guanosine	cp
cis-vaccen-2-enoyl-ACPs	a (2-trans-11-cis)-vaccen-2-enoyl-[acp]	c
Purine-ribonucleosides-5-PP	a purine ribonucleoside 5'-diphosphate	p
NN-DIMETHYLANILINE-N-OXIDE	N,N-dimethylaniline-N-oxide	p
Purine-ribonucleosides-5-PPP	a purine ribonucleoside 5'-triphosphate	c
GUANOSINE-5DP-3DP	ppGpp	p
ligated-tRNAs-with-2prime-5prime-linkage	a ligated tRNA with a 2'-5' linkage	cp
CPD-10663	5-chlorosalicylate	c
mRNA-Fragments	an mRNA fragment	p
MALTOSE	maltose	cp
MALTOTETRAOSE	maltotetraose	cp
mRNAs	an mRNA	cp
TRANS-23-DEHYDROADIPYL-COA	trans-2,3-dehydroadipyl-coA	cp
CPD-805	deethylsimazine	c
mRNAs-with-5-monophosphate	a 5'-phospho-[mRNA]	p
CPD-10664	5-methylsalicylate	c
PHENYL-PYRUVATE	keto-phenylpyruvate	cp
mRNAs-with-5-triphosphate	a 5' triphospho-[mRNA]	c
TRANS-3-METHYL-GLUTACONYL-COA	3-methylglutaconyl-CoA	p
MALTOTRIOSE	maltotriose	cp
GLYCEROPHOSPHOGLYCEROL	glycerophosphoglycerol	c
CPD-1070	3-maleylpyruvate	p
TRANS-D2-ENOYL-ACP	a trans-2-enoyl-[acyl-carrier protein]	cp
PSEUDOURIDINE-5-P	pseudouridine 5'-phosphate	cp
PHENYLACETOTHIOHYDROXIMATE	(Z)-N-hydroxy-2-phenylacetimidothioate	cp
TRANS-D2-ENOYL-COA	a (2E)-alkan-2-enoyl-CoA	cp
P-RIBOSYL-4-SUCCCARB-AMINOIMIDAZOLE	5'-phosphoribosyl-4-(N-succinocarboxamide)-5-aminoimidazole	cp
PSICOSE	keto-D-psicose	cp
CPD-806	N-ethylammeline	p
PYRUVATE	pyruvate	cp
CATECHOL	catechol	cp
Alpha-D-Galactosides	an &alpha;-D-galactoside	c
CPD0-2231	dIDP	cp
ASN	L-asparagine	c
TARTRONATE-S-ALD	tartronate semialdehyde	cp
GLUCONATE	D-gluconate	cp
CPD0-2232	(S)-3-hydroxyhexadecanoyl-CoA	p
ILE	L-isoleucine	cp
ILE-tRNAs	a tRNAIle	c
Amino-Acids	an amino acid	c
CPD-17621	16-hydroxypalmitoyl-CoA	p
Amino-Acids-20	a proteinogenic amino acid	cp
CPD0-2241	ferrichrome	cp
FARNESYL-PP	(2E,6E)-farnesyl diphosphate	cp
CPD-17624	&omega;-carboxy-(9Z)-octadec-9-enoyl-CoA	p
TAURINE	taurine	cp
CPD0-2244	(S)-3-hydroxydecanoyl-CoA	cp
CPD-17635	(2R)-ethylmalonyl-CoA	p
CPD-17637	7-hydroxylaurate	c
CPD0-2298	(S)-ureidoglycine	c
IMIDAZOLE-ACETOL-P	imidazole acetol-phosphate	cp
CPD-17638	7-hydroxylauroyl-CoA	p
SUCROSE	sucrose	cp
L-Cysteine-Desulfurase-persulfide	an [L-cysteine desulfurase]-S-sulfanyl-L-cysteine	cp
N-Acetyl-beta-D-Hexosaminides	an N-acetyl-&beta;-D-hexosaminide	c
CPD-11643	two adjacent thymidines in DNA	p
3-oxo-cis-vaccenoyl-ACPs	a 3-oxo-cis-vacc-11-enoyl-[acp]	cp
DCDP	dCDP	cp
3-oxo-decanoyl-ACPs	a 3-oxo-decanoyl-[acp]	cp
CPD-654	2,5-dioxopentanoate	cp
CPD-13534	3-oxopentanoyl-CoA	cp
BUTANAL	butan-1-al	p
3-oxo-dodecanoyl-ACPs	a 3-oxo-dodecanoyl-[acp]	cp
PREPHENATE	prephenate	cp
L-Cysteine-Desulfurases	an [L-cysteine desulfurase]	c
LIPID-IV-A	lipid IVA	cp
CPD-380	3-sulfopyruvate	cp
L-DELTA1-PYRROLINE_5-CARBOXYLATE	(S)-1-pyrroline-5-carboxylate	cp
BUTYRAMIDE	butyramide	p
3-oxo-hexanoyl-ACPs	a 3-oxo-hexanoyl-[acp]	cp
CPD-223	UDP-&beta;-L-iduronate	cp
CD-S-SP-Complex	a [cysteine desulfurase]-S-sulfanyl-[disordered-form scaffold protein] complex	c
CPD-13575	2-[(2R,5Z)-2-carboxy-4-methylthiazol-5(2H)-ylidene]ethyl phosphate	cp
N-CARBAMOYLGLYCINE	N-carbamoylglycine	cp
GALACTOSE	&beta;-D-galactose	cp
CPD-658	CDP-4-dehydro-6-deoxy-D-glucose	p
L-DIHYDROXY-PHENYLALANINE	L-dopa	c
3-oxo-lignoceroyl-ACPs	a 3-oxo-lignoceroyl-[acp]	cp
CPD-3801	melibionate	c
CPD-121	(R)-mandelate	c
CPD-225	trans-aconitate	c
CPD-12112	salicyloyl-CoA	c
3-oxo-myristoyl-ACPs	a 3-oxo-myristoyl-[acp]	cp
CPD-13576	2-(2-carboxy-4-methylthiazol-5-yl)ethyl phosphate	c
CDP	CDP	cp
3-oxo-palmitoyl-ACPs	a 3-oxo-palmitoyl-[acp]	cp
CPD-12115	demethylmenaquinol-8	c
CDP-2-3-4-Saturated-Diacylglycerols	a CDP-2,3,4-saturated-diacylglycerol	p
CPD-66	2-hydroxy-3-oxosuccinate	cp
DCMP	dCMP	c
BUTYRYL-COA	butanoyl-CoA	c
CPD-662	precorrin-5	cp
3-oxo-petroselinoyl-ACPs	a 3-oxo-petroselinoyl-[acp]	cp
N-FORMIMINO-L-GLUTAMATE	N-formimino-L-glutamate	cp
L-GAMMA-GLUTAMYLCYSTEINE	&gamma;-L-glutamyl-L-cysteine	cp
CDP-D-GLUCOSE	CDP-&alpha;-D-glucose	cp
CPD-13689	(25S)-3-oxocholest-4-en-26-oate	c
3-oxo-stearoyl-ACPs	a 3-oxo-stearoyl-[acp]	cp
CPD-667	O-acetyl-L-homoserine	cp
3-terminal-unsaturated-sugars	a 3'-terminal unsaturated sugar	p
CPD-4	molybdopterin	p
CPD-4211	dimethylallyl diphosphate	cp
CPD-13691	(25S)-3-oxocholest-4-en-26-oyl-CoA	p
CPD-12173	(S)-3-hydroxy-isobutanoyl-CoA	cp
LIPOIC-ACID	(R)-lipoate	c
IMINOASPARTATE	2-iminosuccinate	cp
CPD-237	(indol-3-yl)acetamide	cp
CPD-12175	(S)-3-hydroxy-isobutanoate	cp
LIPOYL-AMP	lipoyl-adenylate	cp
CPD-444	S-(methyl-5-thio-&alpha;-D-ribose 1-phosphate	cp
CPD-13694	24-hydroxy-3-oxocholest-4-en-26-oyl-CoA	c
N-FORMYLKYNURENINE	N-formylkynurenine	p
DCTP	dCTP	cp
Bases	a nucleobase	cp
Decanoyl-ACPs	a decanoyl-[acp]	cp
CPD-67	2-phosphoglycolate	c
CPD-13695	3,24-dioxocholest-4-en-26-oyl-CoA	p
5-10-METHENYL-THF-GLU-N	a 5,10-methenyltetrahydrofolate	cp
CPD-672	(S)-3-aminobutanoyl-CoA	cp
UDP-AAGM-DIAMINOHEPTANEDIOATE	UDP-N-acetyl-&alpha;-D-muramoyl-L-alanyl-&gamma;-D-glutamyl-meso-2,6-diaminopimelate	cp
DI-H-OROTATE	(S)-dihydroorotate	cp
7Z-3-oxo-hexadec-7-enoyl-ACPs	a (7Z)-3-oxo-hexadec-7-enoyl-[acp]	cp
CPD-19167	3-oxo-(7Z)-hexadecenoyl-CoA	cp
ANTHRANILATE	anthranilate	cp
UDP-ACETYL-CARBOXYVINYL-GLUCOSAMINE	UDP-N-acetyl-&alpha;-D-glucosamine-enolpyruvate	cp
7Z-hexadec-7-enoyl-ACPs	a (7Z)-hexadec-7-enoyl-[acp]	cp
CPD-9612	caldariellaquinone	c
CYS-tRNAs	a tRNACys	cp
2-Lysophosphatidylcholines	a 1-acyl-sn-glycero-3-phosphocholine	c
8-AMINO-7-OXONONANOATE	8-amino-7-oxononanoate	cp
CPD-19168	(S)-3-hydroxy-(7Z)-hexadecenoyl-CoA	cp
UDP-D-GALACTO-14-FURANOSE	UDP-&alpha;-D-galactofuranose	cp
DI-H-URACIL	5,6-dihydrouracil	cp
CPD-9646	di-trans,octa-cis-undecaprenyl phosphate	cp
PUTRESCINE	putrescine	cp
3-HYDROXYADIPYL-COA	(3S)-hydroxyadipyl-CoA	cp
S-Substituted-Glutathione	a glutathione-toxin conjugate	p
CPD-19169	3-oxo-(9Z)-octadecenoyl-CoA	cp
2-METHYL-3-HYDROXY-BUTYRYL-COA	(2S,3S)-3-hydroxy-2-methylbutanoyl-CoA	cp
S-Substituted-L-Cysteines	an L-cysteine-S-conjugate	c
CDPDIACYLGLYCEROL	a CDP-diacylglycerol	cp
2-METHYL-ACETO-ACETYL-COA	2-methylacetoacetyl-CoA	cp
APS	adenosine 5'-phosphosulfate	cp
CPD-9699	hypoglycin A	c
CPD-19170	(2E,7Z)-hexadecenoyl-CoA	cp
CPD-9700	hypoglycin B	p
S2O3	thiosulfate	cp
MONOMER0-4342	a [prolipoprotein]-(S-diacylglyceryl)-L-cysteine	cp
UDP-GLUCURONATE	UDP-&alpha;-D-glucuronate	cp
DIACYLGLYCEROL	a 1,2-diacyl-sn-glycerol	c
9Z-3-oxo-octadec-9-enoyl-ACPs	a (9Z)-3-oxo-octadec-9-enoyl-[acp]	cp
MONOMETHYL-ESTER-OF-TRANS-ACONITATE	(E)-3-(methoxycarbonyl)pent-2-enedioate	p
CPD-19171	(S)-3-hydroxy-(9Z)-octadecenoyl-CoA	cp
DIAMINO-OH-PHOSPHORIBOSYLAMINO-PYR	2,5-diamino-6-(5-phospho-D-ribosylamino)pyrimidin-4(3H)-one	c
CPD-9869	all trans-decaprenyl-2-methoxy-6-1,4-benzoquinol	c
UROPORPHYRINOGEN-III	uroporphyrinogen-III	cp
2-METHYL-BUTYRYL-COA	2-methylbutanoyl-CoA	cp
ACET	acetate	cp
CPD-19172	(2E,9Z)-octadecenoyl-CoA	cp
SACCHAROPINE	L-saccharopine	c
2-METHYLMALEATE	citraconate	cp
ACETALD	acetaldehyde	cp
MPT-Synthase-small-subunits	a small subunit of molybdopterin synthase	p
UDP-MANNACA	UDP-N-acetyl-&alpha;-D-mannosaminuronate	c
HOMO-CYS	L-homocysteine	cp
CPD-9871	6-methoxy-3-methyl-2-all-trans-decaprenyl-1,4-benzoquinol	p
GLUCOSAMINE-1P	D-glucosamine 1-phosphate	cp
DIAMINONONANOATE	7,8-diaminopelargonate	cp
CPD-19235	&alpha;-D-ribose-1-(2-N-acetamidomethylphosphonate)-5-triphosphate	p
CPD-9956	ubiquinol-8	p
ssDNA-RNA-primer-hybrid	an ssDNA/RNA primer hybrid	p
DNA-Adjacent-Pyrimidines	two adjacent pyrimidine nucleosides in DNA	p
ssRNAs	a single-stranded RNA	cp
PRISTANATE	pristanate	c
DNA-Combined-With-Exogenous-DNA	DNA combined with exogenous DNA to form a recombinational junction	c
GLYCOCHENODEOXYCHOLIC_ACID	glycochenodeoxycholate	c
CO+2	Co2+	c
tRNA-2-thiouridine34	a 2-thiouridine34 in tRNA	p
TDP	dTDP	cp
DNA-Cytidines	a 2'-deoxycytidine in DNA	p
tRNA-Adenosines-37	an adenosine37 in tRNA	c
GLYCOCHOLIC_ACID	glycocholate	c
PRO	L-proline	cp
tRNA-Containing-N7-Methylguanine-46	an N7-methylguanine46 in tRNA	p
tRNA-Dihydrouridines	a 5,6-dihydrouridine in tRNA	p
Negatively-super-coiled-DNAs	a negatively supercoiled DNA	cp
PRO-tRNAs	a tRNAPro	c
Palmitoleoyl-ACPs	a palmitoleoyl-[acp]	cp
Palmitoyl-ACPs	a palmitoyl-[acp]	cp
CPD-10780	VAI-1	cp
DNA-Holder	DNA	p
CPD-10781	HAI-1	cp
CO-A	coenzyme A	cp
SULFATE	sulfate	cp
Pyruvate-dehydrogenase-acetylDHlipoyl	a [pyruvate dehydrogenase E2 protein] N6-S-acetyldihydrolipoyl-L-lysine	p
tRNA-Sec	a tRNAsec	c
Pyruvate-dehydrogenase-dihydrolipoate	a [pyruvate dehydrogenase E2 protein] N6-dihydrolipoyl-L-lysine	c
MANNOSE-1P	&alpha;-D-mannose 1-phosphate	cp
Pyruvate-dehydrogenase-lipoate	a [pyruvate dehydrogenase E2 protein] N6-lipoyl-L-lysine	cp
DNA-N	DNAn	cp
tRNA-containing-5Me-uridine54	a 5-methyluracil54 in tRNA	p
Peptides-holder	a peptide	p
CPD-10782	AAI-1	cp
TETRACHLOROHYDROQUINONE	2,3,5,6-tetrachlorohydroquinone	c
tRNA-fragment	a tRNA fragment	p
ALGINATE	alginate	c
Peptidoglycans	a peptidoglycan	c
tRNA-precursors	a tRNA precursor	c
K-HEXANOYL-COA	3-oxohexanoyl-CoA	cp
Delta4-hexadecenoyl-ACPs	a (4Z)-hexadec-4-enoyl-[acp]	c
FE+2	Fe2+	c
CPD0-2352	a tRNA precursor with a 5' extension and a short 3' extension	c
5-AMINO-LEVULINATE	5-aminolevulinate	cp
Behenoyl-ACPs	a behenoyl-[acp]	cp
CPD-15382	keto-D-fructose	cp
CPD0-2353	a tRNA precursor with a short 3' extension	cp
Nitriles	a nitrile	c
CPD-452	a 6-(N-acetyl-&alpha;-D-glucosaminyl)-1-phosphatidyl-1D-myo-inositol	c
Arachidoyl-ACPs	an arachidoyl-[acp]	cp
CPD0-2354	a tRNA precursor with a 5' extension	cp
L-GLUTAMATE-5-P	&gamma;-L-glutamyl 5-phosphate	cp
Aromatic-Amino-Acids	an aromatic amino acid	cp
CPD-154	an N-acyl-D-mannosaminolactone	cp
CPD-15436	(5Z)-tetradecenoyl-CoA	cp
Beta-3-hydroxybutyryl-ACPs	a (3R)-3-hydroxybutanoyl-[acp]	cp
Aromatic-Oxoacids	an aromatic 2-oxo-acid	cp
CPD-15539	phenyl 5-phospho-&alpha;-D-ribofuranoside	c
CPD-464	prephytoene diphosphate	cp
CPD0-2463	5-phospho-&alpha;-D-ribose 1,2-cyclic phosphate	p
Deoxy-Ribonucleoside-Diphosphates	a 2'-deoxyribonucleoside 5'-diphosphate	p
Beta-D-Fructofuranosides	a &beta;-D-fructofuranoside	c
KDO	3-deoxy-&alpha;-D-manno-2-octulosonate	c
Deoxy-Ribonucleoside-Monophosphates	a 2'-deoxyribonucleoside 5'-monophosphate	p
Beta-D-Galactosides	a &beta;-D-galactoside	c
P3I	PPPi	p
Deoxy-Ribonucleoside-Triphosphates	a 2'-deoxyribonucleoside 5'-triphosphate	c
Nitroaromatic-Ox-Compounds	an oxidized nitroaromatic compound	c
3OH-4P-OH-ALPHA-KETOBUTYRATE	(3R)-3-hydroxy-2-oxo-4 phosphooxybutanoate	cp
CPD-8123	MoO2-molybdopterin cofactor	c
KDO-8P	3-deoxy-D-manno-octulosonate 8-phosphate	p
CPD0-2472	(R)-NADHX	c
L-GLUTAMATE_GAMMA-SEMIALDEHYDE	L-glutamate-5-semialdehyde	cp
Beta-D-Mannosides	a &beta;-D-mannoside	c
DE-O-GLUCONATE	2-deoxygluconate	c
Beta-Lactams	a &beta;-lactam	c
CPD-8180	DNA with lesion	c
CPD-15568	2E)-tetradec-2-enoyl-CoA	c
Aryl-Dialkyl-Phosphate	an aryl dialkyl phosphate	c
Beta-hydroxydecanoyl-ACPs	a (3R)-3-hydroxydecanoyl-[acp]	cp
Nitroaromatic-Red-Compounds	a reduced nitroaromatic compound	p
Aryl-sulfates	an aryl sulfate	cp
CPD0-2474	(S)-NADPHX	p
3R-11Z-3-hydroxy-icos-11-enoyl-ACPs	a (3R,11Z)-3-hydroxy-icos-11-enoyl-[acp]	p
DE-O-K-GLUCONATE	3-dehydro-2-deoxy-D-gluconate	p
3R-5Z-3-hydroxy-tetradec-5-enoyl-ACPs	a (3R,5Z)-3-hydroxy-tetradec-5-enoyl-[acp]	p
CPD-469	N-acetyl-L-glutamate 5-semialdehyde	cp
3R-7Z-3-hydroxy-hexadec-7-enoyl-ACPs	a (3R,7Z)-3-hydroxy-hexadec-7-enoyl-[acp]	p
CPD-824	5-guanidino-2-oxopentanoate	p
CPD0-2479	&alpha;-D-ribose-1-methylphosphonate-5-triphosphate	p
Deoxystreptamine-Antib	a 2-deoxystreptamine antibiotic	c
3R-9Z-3-hydroxy-octadec-9-enoyl-ACPs	a (3R,9Z)-3-hydroxy-octadec-9-enoyl-[acp]	p
CPD-15616	keto-L-sorbose	cp
CYTIDINE	cytidine	cp
CPD0-2480	&alpha;-D-ribose-1-methylphosphonate 5-phosphate	c
TRIMETHYLAMINE	trimethylamine	c
3Z-dodec-3-enoyl-ACPs	a (3Z)-dodec-3-enoyl-[acp]	c
L-GLYCERALDEHYDE-3-PHOSPHATE	L-glyceraldehyde 3-phosphate	c
B-ALANINE	&beta;-alanine	cp
CPD-8259	&beta;-D-ribosylnicotinate	p
DEAMIDO-NAD	nicotinate adenine dinucleotide	cp
CPD0-2500	p-nitrophenyl-&alpha;-D-galactopyranoside	c
Butanoyl-ACPs	a butanoyl-[acp]	cp
236-TRICHLOROHYDROQUINONE	2,3,6-trichlorohydroquinone	c
CPD-15663	2-trans-nonenoyl-CoA	p
CPD0-2511	a glutathionyl-methylhydroquinone	c
4-AMINO-4-DEOXYCHORISMATE	4-amino-4-deoxychorismate	cp
CPD-245	3-carboxy-cis,cis-muconate	c
Non-Galactosylated-Galactose-Acceptors	a non galactosylated galactose acceptor	p
Non-Glycosylated-sugar-Acceptors	a non glycosylated sugar acceptor	p
ACETAMIDE	acetamide	c
UDP-N-ACETYL-D-GLUCOSAMINE	UDP-N-acetyl-&alpha;-D-glucosamine	cp
UTP	UTP	cp
L-GULONATE	L-gulonate	p
N-SUCCINYL-2-AMINO-6-KETOPIMELATE	N-succinyl-2-amino-6-ketopimelate	p
ARG	L-arginine	cp
HOMO-SER	L-homoserine	cp
IMP	IMP	cp
CPD-259	4-aminophenol	p
UDP-N-ACETYLMURAMATE	UDP-N-acetyl-&alpha;-D-muramate	cp
MYO-INOSITOL	myo-inositol	cp
L-GULONO-1-4-LACTONE	L-gulono-1,4-lactone	c
N-SUCCINYLLL-2-6-DIAMINOPIMELATE	N-succinyl-L,L-2,6-diaminopimelate	c
COB-I-ALAMIN	cob(I)alamin	c
DNA-Segment-Placeholder	a DNA segment	cp
Ubiquinols	an ubiquinol	cp
DNA-Segment-in-Reverse-Orientations	a DNA segment in reverse orientation	cp
Nonadjacent-pyrimidine-dimer-in-DNA	a dimer of non-adjacent pyrimidine nucleosides in DNA	c
Ubiquinones	a ubiquinone	cp
L-Glutamyl-Peptides	an N-terminal L-glutamyl-[protein]	c
ARG-tRNAs	a tRNAArg	cp
N-Substituted-Amino-Acids	an N-modified amino acid	p
CPD-290	3,5-cyclohexadiene-1,2-diol-1-carboxylate	c
DNA-With-GO-A-Mismatch	DNA with adenine:7,8-dihydro-8-oxoguanine mismatch	c
N-Substituted-Aminoacyl-tRNA	an N-modified aminoacyl-[tRNA]	c
L-HISTIDINOL-P	L-histidinol phosphate	cp
N-acetyl-D-glucosamine	N-acetyl-D-glucosamine	cp
Unspecified-Degradation-Products	[unspecified degradation products]	p
Nonmethylated-Ribosomal-Protein-L11s	a non-methylated ribosomal protein L11	c
CPD-294	2-maleylacetate	p
Unsulfurated-Sulfur-Acceptors	an unsulfurated [sulfur carrier]	cp
Unwound-DNA	an unwound double-stranded DNA	p
N-acetyl-D-mannosamine	N-acetyl-D-mannosamine	c
Unwound-RNA	an unwound RNA	p
Uracil-54-in-tRNA	a uracil54 in tRNA	c
N-acetyl-beta-D-hexosamines	an N-acetyl-&beta;-D-hexosamine	p
N-formyl-L-methionyl-tRNAfmet	an N-formyl-L-methionyl-[initiator tRNAmet]	p
GAP	D-glyceraldehyde 3-phosphate	cp
CPD-13699	3,22-dioxochol-4-en-24-oyl-CoA	c
Nucleoside-Diphosphates	a nucleoside diphosphate	cp
LL-DIAMINOPIMELATE	L,L-diaminopimelate	cp
RIBOSE-1-ARSENATE	ribose-1-arsenate	p
CPD-12179	methylmalonate semialdehyde	c
CPD-6746	1D-myo-inositol 2-monophosphate	c
CPD-13700	3-oxo-4-pregnene-20-carboxyl-CoA	p
ADENINE	adenine	cp
DNA-containing-a-Apyrimidinic-Sites	an apyrimidinic site in DNA	p
CPD-12199	3S-(4-hydroxyphenyl)-3-hydroxy-propanoyl-CoA	cp
CPD-13711	3-[(3aS,4S,7aS)-7a-methyl-1,5-dioxo-octahydro-1H-inden-4-yl]propanoate	c
Nucleoside-Monophosphates	a nucleoside 5'-monophosphate	p
CPD-675	precorrin-6A	p
Nucleoside-Triphosphates	a nucleoside triphosphate	cp
MELIBIOSE	melibiose	c
CPD-122	(S)-mandelate	p
CPD-13713	adenosine 5'-phosphoselenate	p
DNA-containing-aPurinic-Sites	an apurinic site within DNA	p
MENADIOL	menadiol	p
DEHYDRO-3-DEOXY-L-RHAMNONATE	2-dehydro-3-deoxy-L-rhamnonate	cp
CPD-13717	L-selenocystathionine	c
CPD-678	hydrogen selenide	c
CPD-12258	UDP-N-acetyl-&alpha;-D-muramoyl-L-alanyl-&gamma;-D-glutamyl-L-lysyl-D-alanine	c
ADENOSINE	adenosine	cp
LYS	L-lysine	cp
DEHYDRO-DEOXY-GALACTONATE-PHOSPHATE	2-dehydro-3-deoxy-D-galactonate 6-phosphate	cp
LYS-tRNAs	a tRNALys	c
DNA-containing-abasic-Sites	a DNA containing an apurinic/apyrimidinic site	c
THF-GLU-N	a tetrahydrofolate	cp
ADENOSINE_DIPHOSPHATE_RIBOSE	ADP-D-ribose	c
RIBOSE-1P	&alpha;-D-ribose-1-phosphate	cp
CPD-12279	2-iminoacetate	cp
CPD-13734	ferroheme a	p
ALLANTOATE	allantoate	cp
CPD-679	precorrin-6B	c
SAMP-C-Terminal-Glycine	a [SAMP] C-terminal glycine	p
CPD-13754	3-[(3aS,4S,7aS)-7a-methyl-1,5-dioxo-octahydro-1H-inden-4-yl]propanoyl-CoA	p
PALMITATE	palmitate	cp
DIETHYLPHOSPHATE	diethylphosphate	p
CPD-12303	undecaprenyl-diphospho-N-acetylmuramoyl-L-alanyl-&gamma;-D-glutamyl-L-lysyl- D-alanine	p
DEHYDROQUINATE	3-dehydroquinate	cp
SAMP-C-Terminal-thiol	a thiocarboxylated [SAMP] C-terminal glycine	c
DNA-deoxycytidine-dimer	a dimer of non-adjacent 2'-deoxycytidines in DNA	c
DELTA1-PIPERIDEINE-2-6-DICARBOXYLATE	(S)-2,3,4,5-tetrahydrodipicolinate	cp
SARCOSINE	sarcosine	cp
RIBOSE-5P	D-ribose 5-phosphate	cp
DIETHYLTHIOPHOSPHATE	diethylthiophosphate	p
CPD-13757	3-[(3aS,4S,5R,7aS)-5-hydroxy-7a-methyl-1-oxo-octahydro-1H-inden-4-yl]-3-hydroxypropanoyl-CoA	c
Persulfurated-L-cysteine-desulfurases	an S-sulfanyl-[L-cysteine desulfurase]	p
CPD-15667	6-cis, 3-oxo-tridecenoyl-CoA	c
KDO-LIPID-IVA	&alpha;-Kdo-(2&rarr;6)-lipid IVA	p
CPD0-2512	methyl-p-hydroquinone	p
B-KETOACYL-ACP	a 3-oxoacyl-[acp]	cp
4-AMINO-BUTYRALDEHYDE	4-aminobutanal	c
CPD-10783	PAI-1	cp
2-Me-Branched-234-Sat-FA	a 2-methyl branched 2,3,4-saturated fatty acid	c
2-Me-Branched-234-Sat-Fatty-Acyl-CoA	a 2-methyl branched 2,3,4-saturated fatty acyl-CoA	p
CPD0-2518	2-N-acetamidomethylphosphonate	c
CPD-9965	icosanoyl-CoA	cp
4-AMINO-BUTYRATE	4-aminobutanoate	cp
CPD-15668	4-cis-undecenoyl-CoA	p
Phenols	a phenol	cp
CPD0-881	N-acetyl-D-muramate 6-phosphate	cp
Phenyl-Acetates	a phenyl acetate	c
FMN	FMN	cp
PROPIONAMIDE	propionamide	cp
BCAA-dehydrogenase-2MB-DH-lipoyl	an [apo BCAA dehydrogenase E2 protein] N6-S-[2-methylbutanoyl]dihydrolipoyl-L-lysine	cp
DNA-deoxycytidine-thymidine-dimer	a dimer of non-adjacent 2'-deoxycytidine and thymidine in DNA	c
O-PHOSPHO-L-HOMOSERINE	O-phospho-L-homoserine	cp
CPD-15676	6-trans-3-oxo-tridecenoyl-CoA	c
CPD-10784	PAI-1-2	cp
KDO2-LAUROYL-LIPID-IVA	&alpha;-Kdo-(2->4)-&alpha;-Kdo-(2->6)-(lauroyl)-lipid IVA	p
CPD0-1027	a debranched &alpha;-limit dextrin	c
BCAA-dehydrogenase-2MP-DH-lipoyl	an [apo BCAA dehydrogenase E2 protein] N6-S-[2-methylpropanoyl]dihydrolipoyl-L-lysine	cp
FMNH2	FMNH2	cp
CPD0-1068	methylphosphonate	c
DNA-pyrimidines	a pyrimidine nucleoside in DNA	p
CPD0-882	1,6-anhydro-N-acetyl-&beta;-muramate	cp
CPD-15677	4-trans-undecenoyl-CoA	p
PROPIONATE	propanoate	cp
TRIPEPTIDES	a tripeptide	c
2-OCTAPRENYL-6-HYDROXYPHENOL	3-(all-trans-octaprenyl)benzene-1,2-diol	c
3-Hydroxy-octanoyl-ACPs	a (3R)-3-hydroxyoctanoyl-[acp]	p
CYTOSINE	cytosine	c
4-CARBOXYMETHYLENEBUT-2-EN-4-OLIDE	cis-dienelactone	c
CPD-10785	VAI-1-2	cp
BCAA-dehydrogenase-3MB-DH-lipoyl	a [apo BCAA dehydrogenase E2 protein] N6-S-[3-methylbutanoyl]dihydrolipoyl-L-lysine	p
CPD-15678	4-trans-3-oxo-undecenoyl-CoA	c
Gcv-H	[glycine cleavage system lipoyl-carrier protein]-L-lysine	c
CPD0-1074	aminomethylphosphonate	p
Phosphoglucomutase	a phosphoglucomutase	cp
PALMITYL-COA	palmitoyl-CoA	cp
3-Hydroxyglutaryl-ACP-methyl-ester	a (3R)-3-hydroxyglutaryl-[acp] methyl ester	p
Phosphoglucosamine-Mutase	a phosphoglucosamine mutase	cp
BCAA-dehydrogenase-DH-lipoyl	an [apo BCAA dehydrogenase E2 protein] N6-dihydrolipoyl-L-lysine	cp
CPD0-971	an &alpha;-limit dextrin	p
General-Protein-Substrates	a protein	c
CPD-15687	5-cis, 7-trans-3-oxo-tetradecadienoyl-CoA	c
2-OCTAPRENYL-6-METHOXYPHENOL	2-methoxy-6-(all-trans-octaprenyl)phenol	cp
CPD1F-2	(-)-methyl jasmonate	c
CPD-10791	6-deoxy-5-ketofructose 1-phosphate	p
BCAA-dehydrogenase-lipoyl	an [apo BCAA dehydrogenase E2 protein] N6-lipoyl-L-lysine	cp
DNA-thymidine-deoxycytidine-dimer	a dimer of non-adjacent thymidine and 2'-deoxycytidine in DNA	c
KDO2-LIPID-IVA	&alpha;-Kdo-(2->4)-&alpha;-Kdo-(2->6)-lipid IVA	c
Phospholipid-Cyclopropane-Fatty-Acids	a [phospholipid] cyclopropane fatty acid	p
CPD-15688	(3Z,5E)-dodeca-3,5-dienoyl-CoA	p
Phospholipid-Olefinic-Fatty-Acids	a [phospholipid] olefinic fatty acid	c
GlgE-Glycogen	a GlgE-glycogen	p
DNA-thymidine-dimer	a dimer of non-adjacent thymidines in DNA	c
CPD0-1081	N-acetyl-&beta;-D-glucosamine-1,6-anhydro-N-acetyl-&beta;-D-muramate	c
RIBULOSE-5P	D-ribulose 5-phosphate	cp
CPD-15691	(5E)-3-oxo-dodec-5-enoyl-CoA	c
O-SUCCINYL-L-HOMOSERINE	O-succinyl-L-homoserine	cp
CPD-10806	4-hydroxy-2-nonenal	c
Gln-B	a PII protein	c
CPD66-21	leukotriene-D4	p
Phosphorylated-Phosphoglucosamine-Mutase	a phosphorylated phosphoglucosamine mutase	cp
Phosphorylated-phosphoglucomutase	a phosphorylated phosphoglucomutase	cp
4-CYTIDINE-5-DIPHOSPHO-2-C	4-(cytidine 5'-diphospho)-2-C-methyl-D-erythritol	cp
Phosphoserines	L(or D)-O-phosphoserine	c
Glucopyranose	D-glucopyranose	cp
CPD-15692	(3E)-dec-3-enoyl-CoA	p
GLYCOLALDEHYDE	glycolaldehyde	p
CPD-19236	&alpha;-D-ribose-1-(2-N-acetamidomethylphosphonate) 5-phosphate	c
tRNA-pseudouridine-38-40	a pseudouridine38-40 in tRNA	p
CPD-2961	D-gluconate 6-phosphate	cp
CPD-17640	18-hydroxystearate	c
DNA-thymidines	a thymidine in DNA	p
Diacylglycerol-Prolipoproteins	an [apolipoprotein]-(S-diacylglyceryl)-L-cysteine	p
tRNA-uridine-38-40	a uridine38-40 in tRNA	c
HOMOGENTISATE	homogentisate	cp
Diacylglycerolhomoserines	a diacylglycerolhomoserine	p
CPD-19237	N-methylacetamide	p
23S-rRNA-2-methyladenine2503	a 2-methyladenine2503 in 23S rRNA	p
tRNA-uridine34	a uridine34 in tRNA	c
CPD-17641	18-hydroxystearoyl-CoA	p
CPD-827	5-dehydro-2-deoxy-D-gluconate	cp
QUEUINE	queuine	c
Dialkyl-phosphates	a dialkyl phosphate	p
tRNA-uridines	a uridine in tRNA	c
23S-rRNA-adenine-2503	adenine2503 in 23S rRNA	c
CPD-302	D-aspartate	p
CPD-19238	&alpha;-D-ribose-1-[N-(phosphonomethyl)glycine]-5-triphosphate	p
tRNA-with-7-aminomethyl-7-deazaguanine	a 7-aminomethyl-7-deazaguanosine34 in tRNA	cp
Dihydro-Lipoyl-Proteins	a [lipoyl-carrier protein] N6-dihydrolipoyl-L-lysine	c
5-HYDROXY-TRYPTOPHAN	5-hydroxy-L-tryptophan	c
O-UREIDOHOMOSERINE	O-ureido-L-homoserine	c
CPD-17701	4-deoxy-2-O-sulfo-&beta;-L-erythro-hex-4-enopyranuronosyl-(1,4)-D-N-sulfoglucosamine 6-O-sulfate	p
25-DIDEHYDRO-D-GLUCONATE	2,5-didehydro-D-gluconate	cp
DNA-with-Uracils	a uracil in DNA	c
5-HYDROXYISOURATE	(S)-5-hydroxyisourate	c
CPD-8355	1-18:1-2-lysophosphatidylethanolamine	c
CPD-19395	&gamma;-L-glutamyl-glycylglycine	p
tRNAs	an uncharged tRNA	p
tRNAs-containing-epoxy-quenosine	an epoxyqueuosine34 in tRNA	cp
PANTETHEINE-P	4'-phosphopantetheine	cp
CPD-308	D-nopaline	p
CPD-17708	4-deoxy-&alpha;-L-erythro-hex-4-enopyranuronate-&beta;-D-mannuronate	p
CPD-8534	DNA without lesion	p
tRNAs-with-queuine	a queuosine34 in tRNA	p
CPD-8548	a D-threo-aldose	cp
CPD-19487	3-isopropyl-10-(methylthio)-2-oxodecanoate	cp
CPD-8549	a D-threo-aldono-1,5-lactone	cp
trans-delta2-arachidoyl-ACPs	a trans-eicos-2-enoyl-[acp]	c
CPD-31	(R)-citramalate	cp
CPD-8550	a substituted &beta;-amino acid	p
5-KETO-4-DEOXY-D-GLUCARATE	5-dehydro-4-deoxy-D-glucarate	c
CPD-8624	a [protein]-L-proline (&omega; = 180)	cp
CPD-19488	3-isopropyl-9-(methylthio)-2-oxononanoate	cp
CPD-316	reduced riboflavin	p
Dipeptides-With-Proline-Carboxy	a dipeptide with proline at the C-terminal	c
trans-delta2-behenoyl-ACPs	a trans-docos-2-enoyl-[acp]	c
OCTADEC-9-ENE-118-DIOIC-ACID	&alpha;,&omega;-9Z-octadecenedioate	c
CPD-17813	(2E,11Z)-hexadec-2,11-dienoyl-CoA	c
GLYCOLLATE	glycolate	p
trans-delta2-lignoceroyl-ACPs	a trans-tetracos-2-enoyl-[acp]	c
Diribonucleotide	a diribonucleotide	p
INDOLE-3-GLYCEROL-P	(1S,2R)-1-C-(indol-3-yl)glycerol 3-phosphate	p
CPD-8625	a [protein]-L-proline (&omega; = 0)	cp
5-L-GLUTAMYL-AMINO-ACID	an &alpha;-(5-L-glutamyl)-amino acid	p
CPD-19489	3-isopropyl-8-(methylthio)-2-oxooctanoate	cp
CPD-17814	(11Z)-(S)-3-hydroxyhexadec-11-enoyl-CoA	p
CPD-8742	(3E)-2-oxohex-3-enedioate	cp
CPD-19490	3-isopropyl-7-(methylthio)-2-oxoheptanoate	cp
INDOLEYL-CPD	(indole-3-yl)acetonitrile	c
5-L-GLUTAMYL-L-AMINO-ACID	an &alpha;-(&gamma;-L-glutamyl)-L-amino acid	p
CPD-19491	3-isopropyl-6-(methylthio)-2-oxohexanoate	cp
2C-METH-D-ERYTHRITOL-CYCLODIPHOSPHATE	2-C-methyl-D-erythritol-2,4-cyclodiphosphate	cp
ALLO-THR	DL-allothreonine	c
CPD-17927	a nascent peptidoglycan with (L-alanyl-&gamma;-D-glutamyl-meso-2,6-diaminopimeloyl-D-alanyl-D-alanine) pentapeptide	cp
CPD-19492	3-ethyl-2-oxosuccinate	cp
ALLYSINE	(S)-2-amino-6-oxohexanoate	p
CPD-320	ethylnitronate	c
OCTANOL	1-octanol	p
Dodec-2-enoyl-ACPs	a (2E)-dodec-2-enoyl-[acp]	c
CPD-8815	2,4-dihydroxybenzoate	c
CPD-18	linoleoyl-CoA	p
Dodecanoyl-ACPs	a dodecanoyl-[acp]	cp
QUINOLINATE	quinolinate	cp
CPD-13758	3-[(3aS,4S,5R,7aS)-5-hydroxy-7a-methyl-1-oxo-octahydro-1H-inden-4-yl]-3-oxopropanoyl-CoA	p
C1	UDP-N-acetyl-&alpha;-D-muramoyl-L-alanyl-&gamma;-D-glutamyl-meso-2,6-diaminopimeloyl-D-alanyl-D-alanine	cp
DODECANOATE	laurate	c
OCTAPRENYL-DIPHOSPHATE	all-trans-octaprenyl diphosphate	c
CPD-12321	15-cis-phytoene	p
ADENOSYL-HOMO-CYS	S-adenosyl-L-homocysteine	cp
3-KETO-ADIPATE	3-oxoadipate	cp
N-terminal-L-Serine	an N-terminal L-seryl-[protein]	p
CELLULOSE	cellulose	c
MESO-DIAMINOPIMELATE	meso-diaminopimelate	cp
ACETOACETYL-COA	acetoacetyl-CoA	cp
N-terminal-L-alanine	an N-terminal L-alanyl-[protein]	p
ADENOSYL-P4	5',5'''-diadenosine tetraphosphate	c
C3	UDP-N-acetyl-&alpha;-D-muramoyl-L-alanyl-&gamma;-D-glutamyl-L-lysyl-D-alanyl-D-alanine	cp
Malonyl-acp-methyl-ester	a malonyl-[acp] methyl ester	c
CPD-12327	n-butyronitrile	c
CGMP	cyclic-GMP	p
VAL	L-valine	cp
DOPAMINE	dopamine	p
N-terminal-L-cysteine	an N-terminal L-cysteinyl-[protein]	p
VAL-tRNAs	a tRNAVal	c
Maltodextrins	a maltodextrin	cp
N-terminal-L-cysteine-sulfinate	an N-terminal 3-sulfino-L-alanyl-[protein]	c
Carboxylates	a carboxylate	p
MESO-TARTRATE	meso-tartrate	cp
CPD-479	4-(methylsulfanyl)-2-oxobutanoate	cp
N-terminal-L-cysteine-sulfonate	an N-terminal 3-sulfo-L-alanyl-[protein]	c
CH3-MALONATE-S-ALD	(S)-methylmalonate-semialdehyde	cp
C4	undecaprenyl-diphospho-N-acetylmuramoyl-L-alanyl-&gamma;-D-glutamyl-L-lysyl- D-alanyl-D-alanine	cp
CPD-4822	kanamycin B	c
Carboxylic-esters	a carboxylic ester	c
N-terminal-L-valine	an N-terminal L-valyl-[protein]	p
ADENOSYLCOBALAMIN	adenosylcobalamin	cp
N-terminal-glycine	an N-terminal glycyl-[protein]	p
OCTAPRENYL-METHOXY-BENZOQUINONE	2-methoxy-6-all trans-octaprenyl-1,4-benzoquinol	p
PANTOTHENATE	(R)-pantothenate	cp
CPD-13940	Co&alpha;-[a-(5-methoxybenzimidazolyl)]-Co&beta;-adenosylcobamide 5'-phosphate	p
N3-Acetal-deoxystreptamine-antib	an N3-acetyl-2-deoxystreptamine antibiotic	p
N5-Formyl-THF-Glu-N	an (6S)-N5-formyl-tetrahydrofolate	cp
ADENOSYLCOBALAMIN-5-P	adenosylcobalamin 5'-phosphate	p
CPD-12575	UDP-&alpha;-D-glucose	cp
MET	L-methionine	cp
C5	undecaprenyldiphospho-N-acetylmuramoyl-L-alanyl-&gamma;-D-glutamyl-meso-2,6-diaminopimeloyl-D-alanyl-D-alanine	cp
CPD-14018	icosapentaenoyl-CoA	p
CH33ADO	5'-deoxyadenosine	p
N6-ACETYLKANAMYCIN-B	N6'-acetylkanamycin-B	p
C55-PP-GLCNAC-MANNACA	N-acetyl-&beta;-D-mannosaminuronyl-(1&rarr;4)-N-acetyl-&alpha;-D-glucosaminyl-diphospho-ditrans,octacis-undecaprenol	p
SULFOACETALDEHYDE	sulfoacetaldehyde	c
1-4-D-xylooligosaccharides	a (1->4)-&beta;-D-xylan oligosaccharide	c
1-4-alpha-D-Glucan	a 1,4-&alpha;-D-glucan	cp
CPD-14053	(6R)-L-erythro-5,6,7,8-tetrahydrobiopterin	c
ADENOSYLCOBINAMIDE	adenosylcobinamide	cp
1-4-alpha-D-galacturonosyl	a homogalacturonan	cp
ADENOSYLCOBINAMIDE-GDP	adenosylcobinamide-GDP	cp
CPD-12601	&beta;-D-mannopyranose	p
3-KETO-ADIPYL-COA	3-oxoadipyl-CoA	cp
1-AMINO-PROPAN-2-ONE-3-PHOSPHATE	3-amino-1-hydroxyacetone 1-phosphate	cp
