id	Common name	linked reactions
ASE11_13885	Unknown	PHOSPHASERDECARB-RXN
ASE11_17385	Unknown	PSERPHOSPHA-RXN;RXN0-5114
ASE11_02605	Unknown	R4-RXN
ASE11_06860	Unknown	DNA-DIRECTED-RNA-POLYMERASE-RXN
ASE11_06835	rph	RXN0-6481;RXN0-6482;TRNA-NUCLEOTIDYLTRANSFERASE-RXN
ASE11_01965	Unknown	GLUTAMINESYN-RXN
ASE11_06215	Unknown	1.2.7.8-RXN
ASE11_19850	Unknown	ORNITHINE-CYCLODEAMINASE-RXN
ASE11_24045	Unknown	AIRCARBOXY-RXN
ASE11_06100	Unknown	S-FORMYLGLUTATHIONE-HYDROLASE-RXN
ASE11_12885	Unknown	2.7.13.3-RXN
ASE11_14490	Unknown	UREA-CARBOXYLASE-RXN
ASE11_13185	Unknown	QUERCETIN-23-DIOXYGENASE-RXN
ASE11_15305	Unknown	7KAPSYN-RXN;RXN-11484
ASE11_16035	Unknown	CITSYN-RXN
ASE11_19600	purU	FORMYLTHFDEFORMYL-RXN
ASE11_21315	Unknown	CREATININASE-RXN
ASE11_20020	Unknown	ACYLCOADEHYDROG-RXN;RXN-17775;RXN-17779;RXN-17783;RXN-17784;RXN-17788;RXN-17792;RXN-17796
ASE11_10490	Unknown	3-OXOACYL-ACP-REDUCT-RXN;RXN-10060;RXN-10655;RXN-10659;RXN-11476;RXN-11480;RXN-13008;RXN-16616;RXN-16622;RXN-16626;RXN-16630;RXN-9514;RXN-9518;RXN-9524;RXN-9528;RXN-9532;RXN-9536;RXN-9540;RXN-9552;RXN-9556;RXN-9633;RXN0-2142;RXN1G-157;RXN1G-349;RXN1G-469;RXN1G-508
ASE11_06025	Unknown	RXN-17155
ASE11_04170	Unknown	3.4.25.1-RXN
ASE11_19695	Unknown	RXN0-4301
ASE11_08805	Unknown	HISTALDEHYD-RXN;HISTOLDEHYD-RXN;RXN-8001
ASE11_12355	Unknown	3.4.21.92-RXN
ASE11_14670	Unknown	ACYLCOADEHYDROG-RXN;RXN-17775;RXN-17779;RXN-17783;RXN-17784;RXN-17788;RXN-17792;RXN-17796
ASE11_24310	Unknown	FMNREDUCT-RXN;NADPH-DEHYDROGENASE-FLAVIN-RXN;RXN-12444
ASE11_09870	Unknown	1.18.1.2-RXN
ASE11_21310	Unknown	2.1.1.79-RXN;RXN-7421;RXN1G-2544;RXN1G-3641
ASE11_06035	Unknown	MALONYL-COA-ACP-TRANSACYL-RXN
ASE11_05660	Unknown	5.3.3.10-RXN
ASE11_22440	Unknown	2.3.1.157-RXN
ASE11_20655	Unknown	2.7.13.3-RXN
ASE11_14020	Unknown	FUMHYDR-RXN
ASE11_03680	Unknown	HEMEOSYN-RXN
ASE11_10770	Unknown	IMP-DEHYDROG-RXN
ASE11_12455	Unknown	RXN0-5100
ASE11_07115	Unknown	2-OXOPENT-4-ENOATE-HYDRATASE-RXN;RXN-10381
ASE11_15770	Unknown	PROTEIN-KINASE-RXN
ASE11_05525	Unknown	3-HYDROXY-KYNURENINASE-RXN;KYNURENINASE-RXN
ASE11_05650	Unknown	5-OXOPROLINASE-ATP-HYDROLYSING-RXN
ASE11_00795	Unknown	DNA-DIRECTED-DNA-POLYMERASE-RXN
ASE11_21805	Unknown	2.7.13.3-RXN
ASE11_11720	Unknown	GLYOXI-RXN
ASE11_00870	Unknown	ACYLCOASYN-RXN;LINOLENOYL-RXN;R223-RXN;RXN-12184;RXN-12978;RXN-13290;RXN-13614;RXN-16380;RXN-16389;RXN-16393;RXN-16401;RXN-16402;RXN-16415;RXN-16418;RXN-7904;RXN-9623;RXN-9644;RXN-9673;RXN0-7238;RXN0-7239;RXN0-7248;RXN66-469;RXN66-477;RXN66-480;RXN66-483;RXN66-484;TRANS-RXN0-623
ASE11_00990	Unknown	RXN-10078;RXN-10079;RXN-9912;RXN-9914;SALICYLATE-1-MONOOXYGENASE-RXN
ASE11_02490	Unknown	ACETATE--COA-LIGASE-RXN;RXN-18446;RXN-18447;RXN-18448
ASE11_07760	dcd	DCTP-DEAM-RXN;RXN-14118
ASE11_02340	Unknown	MERCAPYSTRANS-RXN;RXN-18702;RXN-18703;RXN0-6945
ASE11_08785	Unknown	PRIBFAICARPISOM-RXN
ASE11_23915	Unknown	4OHBENZOATE-OCTAPRENYLTRANSFER-RXN
ASE11_18150	Unknown	ACYLCOADEHYDROG-RXN;RXN-17775;RXN-17779;RXN-17783;RXN-17784;RXN-17788;RXN-17792;RXN-17796
ASE11_03225	Unknown	LYSINE--TRNA-LIGASE-RXN
ASE11_01180	Unknown	RXN0-5375
ASE11_02720	Unknown	1TRANSKETO-RXN;2TRANSKETO-RXN
ASE11_10810	truB	TRNA-PSEUDOURIDINE-SYNTHASE-I-RXN
ASE11_01280	Unknown	6.3.5.7-RXN
ASE11_21075	Unknown	1TRANSKETO-RXN;2TRANSKETO-RXN
ASE11_12070	Unknown	RXN0-5131
ASE11_12125	Unknown	ATPASE-RXN
ASE11_19955	Unknown	RXN0-299
ASE11_20575	Unknown	DTDPDEHYRHAMREDUCT-RXN
ASE11_00445	Unknown	RXN-17155
ASE11_07585	Unknown	GAMMA-GLUTAMYLTRANSFERASE-RXN;RXN-18092;RXN-6601;RXN-9157;RXN66-336
ASE11_07015	Unknown	CARNDETRU-RXN
ASE11_18660	Unknown	ACETOLACTSYN-RXN;ACETOOHBUTSYN-RXN
ASE11_06765	Unknown	4-HYDROXYPHENYLPYRUVATE-DIOXYGENASE-RXN;RXN-10815
ASE11_23675	Unknown	RXN-14264;RXN0-2301
ASE11_00880	Unknown	NAD-SYNTH-GLN-RXN;NAD-SYNTH-NH3-RXN
ASE11_00835	Unknown	PROTEIN-KINASE-RXN
ASE11_20310	Unknown	1.11.1.15-RXN;RXN0-5468
ASE11_03355	Unknown	NQOR-RXN
ASE11_06325	Unknown	5.99.1.2-RXN
ASE11_05690	Unknown	3-OXOACYL-ACP-REDUCT-RXN;RXN-10060;RXN-10655;RXN-10659;RXN-11476;RXN-11480;RXN-13008;RXN-16616;RXN-16622;RXN-16626;RXN-16630;RXN-9514;RXN-9518;RXN-9524;RXN-9528;RXN-9532;RXN-9536;RXN-9540;RXN-9552;RXN-9556;RXN-9633;RXN0-2142;RXN1G-157;RXN1G-349;RXN1G-469;RXN1G-508
ASE11_12155	Unknown	1.1.1.178-RXN
ASE11_20585	Unknown	DTDPDEHYDRHAMEPIM-RXN
ASE11_21905	Unknown	RXN0-2361;RXN0-7022
ASE11_17180	Unknown	METHENYLTHFCYCLOHYDRO-RXN;METHYLENETHFDEHYDROG-NADP-RXN
ASE11_06095	Unknown	2-HALOACID-DEHALOGENASE-RXN;3.8.1.11-RXN;RXN-6263;RXN-6264
ASE11_22680	Unknown	5-NUCLEOTID-RXN;AMP-DEPHOSPHORYLATION-RXN;RXN-14025;RXN-14026;RXN-14227;RXN-5841;RXN-7607;RXN-7609;XMPXAN-RXN
ASE11_07725	Unknown	RIBULOSE-BISPHOSPHATE-CARBOXYLASE-RXN
ASE11_04385	Unknown	ENOYL-COA-HYDRAT-RXN;METHYLACYLYLCOA-HYDROXY-RXN;RXN-10697;RXN-10704;RXN-10705;RXN-11244;RXN-12567;RXN-13616;RXN-14266;RXN-14272;RXN-14273;RXN-16135;RXN-16558;RXN-17114;RXN-17475;RXN-17776;RXN-17780;RXN-17785;RXN-17789;RXN-17793;RXN-17797;RXN-2425;RXN0-5393;TIGLYLCOA-HYDROXY-RXN
ASE11_17135	Unknown	ISOCHORMAT-RXN
ASE11_09660	Unknown	GLYOXIII-RXN
ASE11_09200	Unknown	1.1.1.178-RXN
ASE11_20500	Unknown	4.1.2.20-RXN;KDGALDOL-RXN
ASE11_16745	Unknown	GSHTRAN-RXN;GST-RXN;RXN-11663;RXN-13673;RXN-15680;RXN-18405;RXN-18407;RXNQT-4363
ASE11_08025	Unknown	RXN0-305
ASE11_00205	argS	ARGININE--TRNA-LIGASE-RXN
ASE11_09625	Unknown	OHBENZCOARED-RXN
ASE11_20420	Unknown	PORPHOBILSYNTH-RXN
ASE11_07460	Unknown	1TRANSKETO-RXN;2TRANSKETO-RXN
ASE11_11185	rnhA	3.1.26.4-RXN
ASE11_19410	Unknown	GLYOXI-RXN
ASE11_08715	Unknown	1.10.2.2-RXN;RXN-15829
ASE11_12295	Unknown	ACETATE--COA-LIGASE-RXN;RXN-18446;RXN-18447;RXN-18448
ASE11_12985	Unknown	3.2.2.21-RXN
ASE11_14370	Unknown	L-GLN-FRUCT-6-P-AMINOTRANS-RXN
ASE11_17110	Unknown	1.8.1.4-RXN;2OXOGLUTARATEDEH-RXN;2OXOGLUTDECARB-RXN;RXN-7716;RXN-7719;RXN-8629;RXN0-1132;RXN0-1147
ASE11_19740	Unknown	RXN0-4261
ASE11_01255	Unknown	3.1.11.2-RXN
ASE11_10480	Unknown	ENOYL-COA-HYDRAT-RXN;METHYLACYLYLCOA-HYDROXY-RXN;RXN-10697;RXN-10704;RXN-10705;RXN-11244;RXN-12567;RXN-13616;RXN-14266;RXN-14272;RXN-14273;RXN-16135;RXN-16558;RXN-17114;RXN-17475;RXN-17776;RXN-17780;RXN-17785;RXN-17789;RXN-17793;RXN-17797;RXN-2425;RXN0-5393;TIGLYLCOA-HYDROXY-RXN
ASE11_07450	Unknown	F16ALDOLASE-RXN;RXN-10053;RXN-8631
ASE11_11110	Unknown	NAD-SYNTH-GLN-RXN;NAD-SYNTH-NH3-RXN
ASE11_12980	Unknown	ACETYL-COA-CARBOXYLTRANSFER-RXN;RXN0-5055
ASE11_02830	Unknown	3.2.2.23-RXN;RXN-18435
ASE11_01330	Unknown	1.2.1.27-RXN;RXN-11213;RXN-2902
ASE11_05450	Unknown	POLYNUCLEOTIDE-ADENYLYLTRANSFERASE-RXN
ASE11_13290	Unknown	RXNI-2
ASE11_09025	Unknown	RXN0-5131
ASE11_01595	Unknown	QUERCETIN-23-DIOXYGENASE-RXN
ASE11_06080	Unknown	UDPGLUCEPIM-RXN
ASE11_19315	Unknown	ACYLCOASYN-RXN;LINOLENOYL-RXN;R223-RXN;RXN-12184;RXN-12978;RXN-13290;RXN-13614;RXN-16380;RXN-16389;RXN-16393;RXN-16401;RXN-16402;RXN-16415;RXN-16418;RXN-7904;RXN-9623;RXN-9644;RXN-9673;RXN0-7238;RXN0-7239;RXN0-7248;RXN66-469;RXN66-477;RXN66-480;RXN66-483;RXN66-484;TRANS-RXN0-623
ASE11_03945	Unknown	2-OCTAPRENYL-6-OHPHENOL-METHY-RXN;DHHB-METHYLTRANSFER-RXN
ASE11_04060	Unknown	RXN-16650
ASE11_17275	Unknown	RXN-12002
ASE11_19170	ligA	DNA-LIGASE-NAD+-RXN;RXN-17918;RXN-17919;RXN-17920
ASE11_19630	Unknown	BIOTIN-CARBOXYL-RXN;RXN0-5055
ASE11_09615	Unknown	OHBENZCOARED-RXN
ASE11_14885	Unknown	1TRANSKETO-RXN;2TRANSKETO-RXN
ASE11_17030	Unknown	RXN0-5462
ASE11_17865	Unknown	ACYLCOADEHYDROG-RXN;RXN-17775;RXN-17779;RXN-17783;RXN-17784;RXN-17788;RXN-17792;RXN-17796
ASE11_07595	Unknown	2.7.13.3-RXN
ASE11_00670	Unknown	GLUTATHIONE-SYN-RXN
ASE11_11035	Unknown	LEUCYLTRANSFERASE-RXN;RXN-17846;RXN-17847;RXN-17848
ASE11_20060	Unknown	GSHTRAN-RXN;GST-RXN;RXN-11663;RXN-13673;RXN-15680;RXN-18405;RXN-18407;RXNQT-4363
ASE11_01630	Unknown	NQOR-RXN
ASE11_17115	Unknown	RXN0-1147
ASE11_04520	Unknown	ACYLCOADEHYDROG-RXN;RXN-17775;RXN-17779;RXN-17783;RXN-17784;RXN-17788;RXN-17792;RXN-17796
ASE11_14015	Unknown	FUMHYDR-RXN
ASE11_00380	fabG	3-OXOACYL-ACP-REDUCT-RXN;RXN-10060;RXN-10655;RXN-10659;RXN-11476;RXN-11480;RXN-13008;RXN-16616;RXN-16622;RXN-16626;RXN-16630;RXN-9514;RXN-9518;RXN-9524;RXN-9528;RXN-9532;RXN-9536;RXN-9540;RXN-9552;RXN-9556;RXN-9633;RXN0-2142;RXN1G-157;RXN1G-349;RXN1G-469;RXN1G-508
ASE11_03130	Unknown	GLUCARDEHYDRA-RXN
ASE11_09280	Unknown	RXN-2462
ASE11_04195	Unknown	RXN0-5100
ASE11_02675	gabD	RXN0-5293;SUCCINATE-SEMIALDEHYDE-DEHYDROGENASE-RXN
ASE11_24710	Unknown	DARAB5PISOM-RXN
ASE11_02395	Unknown	2.7.8.23-RXN;RXN-10827;RXN-10828
ASE11_07625	Unknown	PRPPSYN-RXN
ASE11_21425	Unknown	4-HYDROXYPHENYLPYRUVATE-DIOXYGENASE-RXN;RXN-10815
ASE11_18075	Unknown	ACYLCOADEHYDROG-RXN;RXN-17775;RXN-17779;RXN-17783;RXN-17784;RXN-17788;RXN-17792;RXN-17796
ASE11_15540	Unknown	1.11.1.15-RXN;RXN0-5468
ASE11_17130	prpE	PROPIONATE--COA-LIGASE-RXN
ASE11_19300	Unknown	ACSERLY-RXN;RXN-12726
ASE11_06760	Unknown	GLUCISOM-RXN;XYLISOM-RXN
ASE11_17155	Unknown	1.8.1.4-RXN;2OXOGLUTARATEDEH-RXN;2OXOGLUTDECARB-RXN;RXN-7716;RXN-7719;RXN-8629;RXN0-1132;RXN0-1147
ASE11_22295	Unknown	2.7.13.3-RXN
ASE11_00920	mnmA	RXN0-2023
ASE11_24895	Unknown	MHPELY-RXN
ASE11_13460	Unknown	THYMIDYLATESYN-RXN
ASE11_18580	Unknown	RXN0-5131
ASE11_08155	ispH	ISPH2-RXN;RXN0-884
ASE11_24420	argD	ACETYLORNTRANSAM-RXN;RXN-15007;SUCCINYLDIAMINOPIMTRANS-RXN
ASE11_21870	Unknown	RXN0-4261
ASE11_05225	Unknown	RXN0-1281
ASE11_06885	Unknown	1.14.12.15-RXN
ASE11_04875	Unknown	AMP-NUCLEOSID-RXN
ASE11_12990	Unknown	CYSTEINE--TRNA-LIGASE-RXN
ASE11_00230	Unknown	ETHAMLY-RXN
ASE11_00805	leuS	LEUCINE--TRNA-LIGASE-RXN
ASE11_07885	Unknown	ORNCARBAMTRANSFER-RXN;RXN-13482
ASE11_02855	Unknown	PRPPSYN-RXN
ASE11_04755	Unknown	DIACYLGLYCEROL-O-ACYLTRANSFERASE-RXN
ASE11_01020	Unknown	ADPREDUCT-RXN;CDPREDUCT-RXN;GDPREDUCT-RXN;RIBONUCLEOSIDE-DIP-REDUCTI-RXN;RIBONUCLEOSIDE-DIP-REDUCTII-RXN;RXN0-722;RXN0-747;RXN0-748;UDPREDUCT-RXN
ASE11_06490	Unknown	GMP-REDUCT-RXN
ASE11_08605	obgE	RXN0-5462
ASE11_01145	Unknown	3.5.1.27-RXN;3.5.1.88-RXN
ASE11_18335	Unknown	ACETYL-COA-ACETYLTRANSFER-RXN;METHYLACETOACETYLCOATHIOL-RXN;RXN-12561
ASE11_09990	Unknown	6.3.5.7-RXN
ASE11_07850	Unknown	RXN1A0-6303
ASE11_08100	Unknown	OHMETHYLBILANESYN-RXN
ASE11_05520	Unknown	ARYLFORMAMIDASE-RXN;RXN-17150
ASE11_21550	Unknown	RXN-19040;RXN0-6359;THIOSULFATE-SULFURTRANSFERASE-RXN
ASE11_04830	Unknown	ARGINASE-RXN;RXN-34
ASE11_16430	Unknown	FUMARYLACETOACETASE-RXN
ASE11_12055	Unknown	ATPASE-RXN
ASE11_21420	Unknown	RXN-13907;RXN-14206;RXN66-569
ASE11_19275	Unknown	PEPTIDYLPROLYL-ISOMERASE-RXN
ASE11_06020	Unknown	2.3.1.179-RXN;2.3.1.41-RXN;3-OXOACYL-ACP-SYNTH-BASE-RXN;3-OXOACYL-ACP-SYNTH-RXN;RXN-10654;RXN-10658;RXN-11474;RXN-11479;RXN-16615;RXN-16621;RXN-16625;RXN-16629;RXN-8391;RXN-9516;RXN-9523;RXN-9527;RXN-9531;RXN-9535;RXN-9539;RXN0-2141;RXN1G-460;RXN3O-1803
ASE11_17820	Unknown	METHYLCROTONYL-COA-CARBOXYLASE-RXN
ASE11_22455	Unknown	L-GLN-FRUCT-6-P-AMINOTRANS-RXN
ASE11_01560	Unknown	1.11.1.15-RXN;RXN0-5468
ASE11_13120	Unknown	DIOHBUTANONEPSYN-RXN
ASE11_20235	Unknown	LIPIDXSYNTHESIS-RXN
ASE11_00735	Unknown	CYTOCHROME-C-OXIDASE-RXN;RXN-15830
ASE11_11070	Unknown	ACETOLACTREDUCTOISOM-RXN;ACETOOHBUTREDUCTOISOM-RXN
ASE11_09270	Unknown	PROTOCATECHUATE-34-DIOXYGENASE-RXN;RXN-9731
ASE11_04760	Unknown	PANTOTHENATE-KIN-RXN
ASE11_07310	Unknown	RXN-10462;RXN-13805;RXN-1381;RXN-15045;RXN-16024;RXN-16117;RXN-17016;RXN-17017;RXN-17018
ASE11_24885	Unknown	2-OXOPENT-4-ENOATE-HYDRATASE-RXN;RXN-10381
ASE11_00655	Unknown	2-OCTAPRENYL-6-OHPHENOL-METHY-RXN;DHHB-METHYLTRANSFER-RXN
ASE11_04970	Unknown	2.7.13.3-RXN
ASE11_17365	Unknown	2.7.13.3-RXN
ASE11_04535	Unknown	ACYLCOADEHYDROG-RXN;RXN-17775;RXN-17779;RXN-17783;RXN-17784;RXN-17788;RXN-17792;RXN-17796
ASE11_19365	Unknown	GLUCONATE-5-DEHYDROGENASE-RXN
ASE11_20085	Unknown	ACYLCOADEHYDROG-RXN;RXN-17775;RXN-17779;RXN-17783;RXN-17784;RXN-17788;RXN-17792;RXN-17796
ASE11_04770	Unknown	ATPASE-RXN
ASE11_09285	Unknown	4.1.3.17-RXN;OXALODECARB-RXN;RXN-12074;RXN-2464
ASE11_09750	Unknown	1.6.99.5-RXN;NADH-DEHYDROGENASE-QUINONE-RXN
ASE11_22335	Unknown	GSHTRAN-RXN;GST-RXN;RXN-11663;RXN-13673;RXN-15680;RXN-18405;RXN-18407;RXNQT-4363
ASE11_06395	Unknown	3.1.11.6-RXN
ASE11_08700	Unknown	GSHTRAN-RXN;GST-RXN;RXN-11663;RXN-13673;RXN-15680;RXN-18405;RXN-18407;RXNQT-4363
ASE11_09590	Unknown	RXN-10078;RXN-10079;RXN-9912;RXN-9914;SALICYLATE-1-MONOOXYGENASE-RXN
ASE11_25005	Unknown	GSHTRAN-RXN;GST-RXN;RXN-11663;RXN-13673;RXN-15680;RXN-18405;RXN-18407;RXNQT-4363
ASE11_13540	Unknown	5.99.1.3-RXN
ASE11_14215	Unknown	RXN-10078;RXN-10079;RXN-9912;RXN-9914;SALICYLATE-1-MONOOXYGENASE-RXN
ASE11_04715	Unknown	ACETYLGLUTKIN-RXN;RXN-15005
ASE11_14750	Unknown	ADDALT-RXN;ADENODEAMIN-RXN
ASE11_20490	Unknown	2-DEHYDROPANTOATE-REDUCT-RXN
ASE11_11955	Unknown	CYTOCHROME-C-OXIDASE-RXN;RXN-15830
ASE11_06855	Unknown	GUANYL-KIN-RXN
ASE11_18175	Unknown	CARBODEHYDRAT-RXN;RXN0-5224
ASE11_03340	Unknown	RXN-17362
ASE11_17120	sucA	2-KETO-ADIPATE-DEHYDROG-RXN;2OXOGLUTARATEDEH-RXN;2OXOGLUTDECARB-RXN;RXN-7716;RXN0-1147
ASE11_10370	Unknown	4-HYDROXYBUTYRATE-DEHYDROGENASE-RXN
ASE11_03390	Unknown	3-OXOACYL-ACP-REDUCT-RXN;RXN-10060;RXN-10655;RXN-10659;RXN-11476;RXN-11480;RXN-13008;RXN-16616;RXN-16622;RXN-16626;RXN-16630;RXN-9514;RXN-9518;RXN-9524;RXN-9528;RXN-9532;RXN-9536;RXN-9540;RXN-9552;RXN-9556;RXN-9633;RXN0-2142;RXN1G-157;RXN1G-349;RXN1G-469;RXN1G-508
ASE11_16635	Unknown	ISOCITDEH-RXN;RXN-8642;RXN-9951
ASE11_20520	Unknown	1.2.1.32-RXN;BADH-RXN;RXN-8831;RXN-8837
ASE11_15280	Unknown	COBALAMIN5PSYN-RXN;COBALAMINSYN-RXN;RXN-19296;RXN-19297;RXN-19302;RXN-19303;RXN-19304;RXN-19305;RXN-19307;RXN-19308
ASE11_18195	Unknown	ACYLCOADEHYDROG-RXN;RXN-17775;RXN-17779;RXN-17783;RXN-17784;RXN-17788;RXN-17792;RXN-17796
ASE11_02110	Unknown	DAHPSYN-RXN
ASE11_15550	Unknown	RXN0-4261
ASE11_05200	Unknown	CARBOXYMETHYLENEBUTENOLIDASE-RXN;DIENELACHYDRO-RXN;RXN-9857;RXN-9868;RXN-9887;RXN-9890
ASE11_11505	Unknown	RXN-17155
ASE11_17375	Unknown	2.7.7.60-RXN
ASE11_24440	Unknown	CYTOCHROME-C-OXIDASE-RXN;RXN-15830
ASE11_11795	Unknown	12-OXOPHYTODIENOATE-REDUCTASE-RXN
ASE11_18225	Unknown	ACETYL-COA-ACETYLTRANSFER-RXN;METHYLACETOACETYLCOATHIOL-RXN;RXN-12561
ASE11_06385	Unknown	DXS-RXN
ASE11_02775	Unknown	RXN0-5131
ASE11_14900	Unknown	2-HALOACID-DEHALOGENASE-RXN
ASE11_03695	Unknown	CYTOCHROME-C-OXIDASE-RXN;RXN-15830
ASE11_23930	Unknown	RXN0-4261
ASE11_03825	Unknown	3-OXOADIPATE-COA-TRANSFERASE-RXN;RXN-10085
ASE11_06340	Unknown	DIHYDRODIPICSYN-RXN
ASE11_12520	garD	GALACTARDEHYDRA-RXN
ASE11_11420	Unknown	3.4.24.70-RXN
ASE11_18405	Unknown	GSHTRAN-RXN;GST-RXN;RXN-11663;RXN-13673;RXN-15680;RXN-18405;RXN-18407;RXNQT-4363
ASE11_13680	Unknown	1.2.7.5-RXN
ASE11_07270	Unknown	DIHYDROFOLATESYNTH-RXN;FOLYLPOLYGLUTAMATESYNTH-RXN;FORMYLTHFGLUSYNTH-RXN;RXN-6341;RXN0-2921
ASE11_09260	Unknown	RXN1A0-6303
ASE11_21660	Unknown	RXN0-2621
ASE11_14195	Unknown	RXN-12104
ASE11_13890	Unknown	GSAAMINOTRANS-RXN
ASE11_10320	Unknown	GLUTAMINE--TRNA-LIGASE-RXN
ASE11_11960	Unknown	CYTOCHROME-C-OXIDASE-RXN;RXN-15830
ASE11_08305	Unknown	METHIONINE--TRNA-LIGASE-RXN;RXN-16165
ASE11_11395	glmM	5.4.2.10-RXN;RXN-16424;RXN0-7139
ASE11_07200	Unknown	CITSYN-RXN
ASE11_05205	Unknown	GLUTCYSLIG-RXN
ASE11_15165	Unknown	RXN-12587;RXN-12588;RXN-14382;RXN-14385;RXN-15881;RXN-9787;RXN0-308
ASE11_21020	Unknown	2.7.13.3-RXN
ASE11_12950	Unknown	PROTOCATECHUATE-34-DIOXYGENASE-RXN;RXN-9731
ASE11_15245	Unknown	4.2.99.18-RXN
ASE11_17255	Unknown	DXPREDISOM-RXN
ASE11_22215	Unknown	ALARACECAT-RXN
ASE11_11965	Unknown	CYTOCHROME-C-OXIDASE-RXN;RXN-15830
ASE11_20075	Unknown	4-CARBOXYMUCONOLACTONE-DECARBOXYLASE-RXN
ASE11_04110	murC	UDP-NACMUR-ALA-LIG-RXN
ASE11_12020	Unknown	RXN0-20
ASE11_23065	Unknown	HYDROXY-MANDELATE-RACEMASE-RXN;MANDELATE-RACEMASE-RXN
ASE11_05925	Unknown	PRAISOM-RXN
ASE11_22060	Unknown	2.7.13.3-RXN
ASE11_06410	Unknown	MERCAPYSTRANS-RXN;RXN-18702;RXN-18703;RXN0-6945
ASE11_03335	Unknown	ISOLEUCINE--TRNA-LIGASE-RXN
ASE11_04125	Unknown	UDP-NACMURALA-GLU-LIG-RXN
ASE11_18950	Unknown	GLYRIBONUCSYN-RXN
ASE11_05955	Unknown	HOLO-ACP-SYNTH-RXN
ASE11_01770	Unknown	FMNREDUCT-RXN;NADPH-DEHYDROGENASE-FLAVIN-RXN;RXN-12444
ASE11_15610	Unknown	2.7.13.3-RXN
ASE11_12030	Unknown	DIHYDROXYISOVALDEHYDRAT-RXN;DIHYDROXYMETVALDEHYDRAT-RXN
ASE11_09160	Unknown	PEPTIDYLPROLYL-ISOMERASE-RXN
ASE11_24795	Unknown	RXN0-5131
ASE11_00980	Unknown	LYSOPHOSPHOLIPASE-RXN;RXN-15035;RXN-19312
ASE11_24370	Unknown	RXN0-5131
ASE11_17220	Unknown	LIPIDADISACCHARIDESYNTH-RXN
ASE11_16985	Unknown	CYSTATHIONINE-BETA-LYASE-RXN;RXN-12729;RXN-15131;RXN-15137;RXN-15577;RXN-15582;RXN-18212;RXN-6763;RXN-8052;RXN-8054;RXNQT-4319;RXNQT-4320;RXNQT-4321;RXNQT-4322;RXNQT-4323;S-ALKYLCYSTEINE-LYASE-RXN
ASE11_05905	Unknown	3-ISOPROPYLMALDEHYDROG-RXN;RXN-13158;RXN-14986;RXN-18200;RXN-18202;RXN-18204;RXN-18206;RXN-18208;RXN-18210;RXNQT-4165;RXNQT-4168;RXNQT-4171;RXNQT-4174;RXNQT-4178
ASE11_07250	Unknown	RXN-9384
ASE11_21085	Unknown	3.4.11.1-RXN
ASE11_03515	Unknown	ISOCHORMAT-RXN
ASE11_09275	Unknown	PROTOCATECHUATE-34-DIOXYGENASE-RXN;RXN-9731
ASE11_17235	Unknown	UDPHYDROXYMYRGLUCOSAMNACETYLTRANS-RXN
ASE11_04105	Unknown	DALADALALIG-RXN
ASE11_13705	Unknown	ATPASE-RXN
ASE11_09765	Unknown	1.6.99.5-RXN;NADH-DEHYDROGENASE-QUINONE-RXN
ASE11_06865	Unknown	PPGPPSYN-RXN
ASE11_10405	Unknown	DNA-DIRECTED-DNA-POLYMERASE-RXN;RXN0-4961
ASE11_14870	Unknown	ACETATEKIN-RXN
ASE11_13720	Unknown	CYTOCHROME-C-OXIDASE-RXN;RXN-15830
ASE11_19235	Unknown	3.4.11.18-RXN;RXN-17873;RXN-17874;RXN-17875;RXN-17876;RXN-17877;RXN-17878
ASE11_08440	Unknown	DNA-LIGASE-ATP-RXN;RXN-17917;RXN-17918;RXN-17919
ASE11_23995	Unknown	PEPDEPHOS-RXN;RXN-14117;RXN-14192;RXN-14207
ASE11_13585	Unknown	5-OXOPROLINASE-ATP-HYDROLYSING-RXN
ASE11_15010	Unknown	ATPASE-RXN
ASE11_05455	Unknown	PSERPHOSPHA-RXN;RXN0-5114
ASE11_06300	Unknown	2.3.2.13-RXN;RXN-19236
ASE11_04115	Unknown	NACGLCTRANS-RXN;RXN-8976
ASE11_02875	Unknown	PANTEPADENYLYLTRAN-RXN
ASE11_09205	Unknown	GAMMA-GLUTAMYLTRANSFERASE-RXN;RXN-18092;RXN-6601;RXN-9157;RXN66-336
ASE11_00760	Unknown	1.2.1.65-RXN
ASE11_00085	Unknown	THI-P-KIN-RXN
ASE11_21025	Unknown	GSHTRAN-RXN;GST-RXN;RXN-11663;RXN-13673;RXN-15680;RXN-18405;RXN-18407;RXNQT-4363
ASE11_10955	Unknown	GLUTAMATE-N-ACETYLTRANSFERASE-RXN;N-ACETYLTRANSFER-RXN;RXN0-6948
ASE11_06925	Unknown	RXN-13179
ASE11_12540	Unknown	4-HYDROXY-2-KETOPIMELATE-LYSIS-RXN
ASE11_08570	Unknown	PRODISULFREDUCT-RXN;RXN0-7271
ASE11_13160	dnaE	DNA-DIRECTED-DNA-POLYMERASE-RXN
ASE11_14065	pyrG	CTPSYN-RXN;GLUTAMIN-RXN;RXN-14325
ASE11_18575	Unknown	RXN0-5131
ASE11_03425	Unknown	3.2.2.15-RXN
ASE11_12165	Unknown	ACETYL-COA-ACETYLTRANSFER-RXN;METHYLACETOACETYLCOATHIOL-RXN;RXN-12561
ASE11_08335	Unknown	QUINOLINATE-SYNTHA-RXN
ASE11_00425	Unknown	ACYLCOASYN-RXN;LINOLENOYL-RXN;R223-RXN;RXN-12184;RXN-12702;RXN-12746;RXN-12978;RXN-13290;RXN-13614;RXN-16380;RXN-16389;RXN-16393;RXN-16401;RXN-16402;RXN-16415;RXN-16418;RXN-7904;RXN-9623;RXN-9644;RXN-9673;RXN0-7238;RXN0-7239;RXN0-7248;RXN66-469;RXN66-477;RXN66-480;RXN66-483;RXN66-484;TRANS-RXN0-623
ASE11_07210	Unknown	RXN0-1382
ASE11_18330	Unknown	ACYLCOADEHYDROG-RXN;RXN-17775;RXN-17779;RXN-17783;RXN-17784;RXN-17788;RXN-17792;RXN-17796
ASE11_18770	Unknown	RXN0-5131
ASE11_06365	Unknown	DUTP-PYROP-RXN
ASE11_05695	Unknown	ACYLCOADEHYDROG-RXN;RXN-17775;RXN-17779;RXN-17783;RXN-17784;RXN-17788;RXN-17792;RXN-17796
ASE11_07455	Unknown	GPH-RXN
ASE11_22355	Unknown	5-FORMYL-THF-CYCLO-LIGASE-RXN
ASE11_21685	Unknown	ADENOSYLHOMOCYSTEINASE-RXN
ASE11_01710	Unknown	RXN-15122;THREDEHYD-RXN
ASE11_08080	Unknown	3.1.26.12-RXN;RXN0-6478;RXN0-6485;RXN0-6521;RXN0-6522;RXN0-6523
ASE11_03600	Unknown	GLYOXIII-RXN
ASE11_13270	gabD	RXN0-5293;SUCCINATE-SEMIALDEHYDE-DEHYDROGENASE-RXN
ASE11_07780	Unknown	GUANINE-DEAMINASE-RXN;RXN-15261
ASE11_16535	Unknown	45-DIHYDROXYPHTHALATE-DECARBOXYLASE-RXN
ASE11_15600	Unknown	RXN0-4961
ASE11_04420	Unknown	ACYLCOASYN-RXN;LINOLENOYL-RXN;R223-RXN;RXN-12184;RXN-12978;RXN-13290;RXN-13614;RXN-16380;RXN-16389;RXN-16393;RXN-16401;RXN-16402;RXN-16415;RXN-16418;RXN-7904;RXN-9623;RXN-9644;RXN-9673;RXN0-7238;RXN0-7239;RXN0-7248;RXN66-469;RXN66-477;RXN66-480;RXN66-483;RXN66-484;TRANS-RXN0-623
ASE11_14690	Unknown	2.1.1.77-RXN
ASE11_08725	Unknown	RXN-13179
ASE11_21545	Unknown	GSHTRAN-RXN;GST-RXN;RXN-11663;RXN-13673;RXN-15680;RXN-18405;RXN-18407;RXNQT-4363
ASE11_02485	Unknown	RXN-12508;RXN-12583;RXN0-1134
ASE11_05920	Unknown	TRNA-PSEUDOURIDINE-SYNTHASE-I-RXN
ASE11_21000	Unknown	RXN0-5100
ASE11_02950	Unknown	CARBODEHYDRAT-RXN;RXN0-5224
ASE11_05865	Unknown	R601-RXN;RXN-14963
ASE11_09375	Unknown	3.1.2.23-RXN
ASE11_14865	Unknown	2-HALOACID-DEHALOGENASE-RXN
ASE11_21525	Unknown	ACYLCOADEHYDROG-RXN;RXN-17775;RXN-17779;RXN-17783;RXN-17784;RXN-17788;RXN-17792;RXN-17796
ASE11_17215	Unknown	3.1.26.4-RXN
ASE11_14485	Unknown	UREA-CARBOXYLASE-RXN
ASE11_16435	Unknown	HOMOGENTISATE-12-DIOXYGENASE-RXN
ASE11_12465	Unknown	RXN-8643;TARTRATE-DEHYDROGENASE-RXN
ASE11_13525	Unknown	GPH-RXN
ASE11_08290	Unknown	4-HYDROXYBENZOATE--COA-LIGASE-RXN
ASE11_05245	Unknown	ACETYL-COA-ACETYLTRANSFER-RXN;METHYLACETOACETYLCOATHIOL-RXN;RXN-12561
ASE11_09290	Unknown	RXN-2463
ASE11_20985	sucC	SUCCCOASYN-RXN
ASE11_23495	Unknown	RXN-17954;RXN-17957;RXN0-6732
ASE11_09775	Unknown	1.6.99.5-RXN;NADH-DEHYDROGENASE-QUINONE-RXN
ASE11_08340	Unknown	QUINOPRIBOTRANS-RXN
ASE11_11495	Unknown	DIAMINOPIMDECARB-RXN
ASE11_24660	Unknown	DNA-DIRECTED-DNA-POLYMERASE-RXN
ASE11_03020	Unknown	2.7.9.3-RXN
ASE11_00705	Unknown	THIOREDOXIN-REDUCT-NADPH-RXN
ASE11_21320	Unknown	PHOSGLYPHOS-RXN
ASE11_10765	guaA	GLUTAMIN-RXN;GMP-SYN-GLUT-RXN;GMP-SYN-NH3-RXN
ASE11_13375	aroE	SHIKIMATE-5-DEHYDROGENASE-RXN
ASE11_04075	Unknown	3.1.22.4-RXN
ASE11_24315	Unknown	HOMOCYSMET-RXN
ASE11_23700	Unknown	5.3.3.10-RXN
ASE11_11810	Unknown	THYM-PHOSPH-RXN
ASE11_06775	Unknown	3-DEHYDROQUINATE-DEHYDRATASE-RXN
ASE11_19950	Unknown	RXN0-5131
ASE11_17070	Unknown	CDPKIN-RXN;DADPKIN-RXN;DCDPKIN-RXN;DGDPKIN-RXN;DTDPKIN-RXN;DUDPKIN-RXN;GDPKIN-RXN;NUCLEOSIDE-DIP-KIN-RXN;RXN-14120;RXN-14228;UDPKIN-RXN
ASE11_20960	Unknown	3.1.4.17-RXN
ASE11_05900	Unknown	3-ISOPROPYLMALISOM-RXN;RXN-13163;RXN-8991
ASE11_25050	Unknown	RXN0-5131
ASE11_09630	Unknown	OHBENZCOARED-RXN
ASE11_11435	Unknown	DIHYDROOROTATE-DEHYDROGENASE-RXN;RXN-9929;RXN0-6491;RXN0-6554
ASE11_15345	Unknown	COBINPGUANYLYLTRANS-RXN
ASE11_16285	Unknown	GDPMANDEHYDRA-RXN
ASE11_20230	Unknown	RXN-14950;RXN-14957;RXN-14959;RXN0-949
ASE11_15680	Unknown	R4-RXN
ASE11_08885	Unknown	DGTPTRIPHYDRO-RXN
ASE11_11790	Unknown	MALEYLACETOACETATE-ISOMERASE-RXN
ASE11_11310	Unknown	EXOPOLYPHOSPHATASE-RXN
ASE11_03565	Unknown	RXN0-4022
ASE11_24700	Unknown	ADENPRIBOSYLTRAN-RXN;RXN-14270
ASE11_11195	Unknown	GLYOXII-RXN;RXN-7919
ASE11_17815	Unknown	ENOYL-COA-HYDRAT-RXN;METHYLACYLYLCOA-HYDROXY-RXN;RXN-10697;RXN-10704;RXN-10705;RXN-11244;RXN-12567;RXN-13616;RXN-14266;RXN-14272;RXN-14273;RXN-16135;RXN-16558;RXN-17114;RXN-17475;RXN-17776;RXN-17780;RXN-17785;RXN-17789;RXN-17793;RXN-17797;RXN-2425;RXN0-5393;TIGLYLCOA-HYDROXY-RXN
ASE11_14310	Unknown	4OH2OXOGLUTARALDOL-RXN;KDPGALDOL-RXN
ASE11_03725	Unknown	CYTOCHROME-C-OXIDASE-RXN;RXN-15830
ASE11_07190	Unknown	NAPHTHALENE-12-DIOXYGENASE-RXN
ASE11_17000	hisZ	ATPPHOSPHORIBOSYLTRANS-RXN
ASE11_00275	Unknown	ISOCITRATE-DEHYDROGENASE-NAD+-RXN
ASE11_01555	Unknown	RXN-19040;RXN0-6359;RXN0-6385;THIOSULFATE-SULFURTRANSFERASE-RXN
ASE11_11745	Unknown	METHYLMALONYL-COA-MUT-RXN
ASE11_04025	Unknown	DEOXYRIBODIPYRIMIDINE-PHOTOLYASE-RXN;RXN-19025;RXN-19026;RXN-19242;RXN-19243;RXN-19244;RXN-19245;RXN-19246;RXN-19247;RXN-19248
ASE11_20750	Unknown	GDPMANDEHYDRA-RXN
ASE11_11065	Unknown	PHOSPHASERSYN-RXN
ASE11_13415	Unknown	3.1.1.75-RXN
ASE11_24550	Unknown	RXN-12587;RXN-12588;RXN-14382;RXN-14385;RXN-15881;RXN-9787;RXN0-308
ASE11_02880	Unknown	RXN0-6515
ASE11_18705	Unknown	RXN0-5131
ASE11_10380	Unknown	3.1.2.23-RXN
ASE11_18855	Unknown	RXN0-5131
ASE11_24270	Unknown	CATAL-RXN;RXN-8667
ASE11_22110	Unknown	RXN-10819
ASE11_20435	Unknown	CARBOXYMETHYLENEBUTENOLIDASE-RXN;DIENELACHYDRO-RXN;RXN-9857;RXN-9868;RXN-9887;RXN-9890
ASE11_24010	Unknown	F16ALDOLASE-RXN;RXN-10053;RXN-8631
ASE11_07510	Unknown	RXN-12610;RXN-12611;THI-P-SYN-RXN
ASE11_07465	Unknown	PHOSPHORIBULOKINASE-RXN
ASE11_07495	Unknown	1.4.3.19-RXN;RXN-12614;RXN-17951;RXN-8672;RXN-8673;RXN-8674
ASE11_10560	Unknown	ENOYL-COA-HYDRAT-RXN;METHYLACYLYLCOA-HYDROXY-RXN;RXN-10697;RXN-10704;RXN-10705;RXN-11244;RXN-12567;RXN-13616;RXN-14266;RXN-14272;RXN-14273;RXN-16135;RXN-16558;RXN-17114;RXN-17475;RXN-17776;RXN-17780;RXN-17785;RXN-17789;RXN-17793;RXN-17797;RXN-2425;RXN0-5393;TIGLYLCOA-HYDROXY-RXN
ASE11_13345	gcvT	GCVT-RXN
ASE11_03760	Unknown	R341-RXN;RXN-14256;RXN-14257;RXN-8769
ASE11_23370	fabG	3-OXOACYL-ACP-REDUCT-RXN;RXN-10060;RXN-10655;RXN-10659;RXN-11476;RXN-11480;RXN-13008;RXN-16616;RXN-16622;RXN-16626;RXN-16630;RXN-9514;RXN-9518;RXN-9524;RXN-9528;RXN-9532;RXN-9536;RXN-9540;RXN-9552;RXN-9556;RXN-9633;RXN0-2142;RXN1G-157;RXN1G-349;RXN1G-469;RXN1G-508
ASE11_21465	Unknown	HISTIDPHOS-RXN
ASE11_21030	Unknown	5.99.1.2-RXN
ASE11_14395	Unknown	2-NITROPROPANE-DIOXYGENASE-RXN
ASE11_24360	Unknown	RIBULOSE-BISPHOSPHATE-CARBOXYLASE-RXN
ASE11_00065	Unknown	GPH-RXN
ASE11_24500	Unknown	3-OXOACYL-ACP-REDUCT-RXN;RXN-10060;RXN-10655;RXN-10659;RXN-11476;RXN-11480;RXN-13008;RXN-16616;RXN-16622;RXN-16626;RXN-16630;RXN-9514;RXN-9518;RXN-9524;RXN-9528;RXN-9532;RXN-9536;RXN-9540;RXN-9552;RXN-9556;RXN-9633;RXN0-2142;RXN1G-157;RXN1G-349;RXN1G-469;RXN1G-508
ASE11_09470	Unknown	GSHTRAN-RXN;GST-RXN;RXN-11663;RXN-13673;RXN-15680;RXN-18405;RXN-18407;RXNQT-4363
ASE11_21810	Unknown	GLYCOPHOSPHORYL-RXN;GLYMALTOPHOSPHORYL-RXN;RXN-12171;RXN-12392;RXN-14284;RXN-14285;RXN-14286;RXN-14353;RXN-1826;RXN-9025;RXN0-5182;RXN0-5184
ASE11_12305	Unknown	FUMHYDR-RXN
ASE11_15055	Unknown	ARGININE-DEIMINASE-RXN
ASE11_09115	Unknown	3-ISOPROPYLMALDEHYDROG-RXN;RXN-13158;RXN-14986;RXN-18200;RXN-18202;RXN-18204;RXN-18206;RXN-18208;RXN-18210;RXNQT-4165;RXNQT-4168;RXNQT-4171;RXNQT-4174;RXNQT-4178
ASE11_00095	Unknown	PGPPHOSPHA-RXN;RXN-13313
ASE11_12815	Unknown	2-HALOACID-DEHALOGENASE-RXN;3.8.1.11-RXN;RXN-6263;RXN-6264
ASE11_05530	Unknown	RXN-8665
ASE11_04000	Unknown	DIHYDROOROT-RXN
ASE11_14565	Unknown	RXN0-5462
ASE11_16910	Unknown	ACETYL-COA-ACETYLTRANSFER-RXN;METHYLACETOACETYLCOATHIOL-RXN;RXN-12561
ASE11_14070	Unknown	KDO-8PSYNTH-RXN
ASE11_13550	Unknown	CHORISMATEMUT-RXN
ASE11_18210	Unknown	DHBAMPLIG-RXN
ASE11_21350	Unknown	2-AMINOADIPATE-AMINOTRANSFERASE-RXN
ASE11_14075	eno	2PGADEHYDRAT-RXN
ASE11_23085	Unknown	GLYOXIII-RXN
ASE11_15620	Unknown	PEPSYNTH-RXN
ASE11_16640	Unknown	SUPEROX-DISMUT-RXN
ASE11_18130	Unknown	1.3.1.62-RXN
ASE11_10020	Unknown	SERINE-O-ACETTRAN-RXN
ASE11_20890	Unknown	2.1.1.79-RXN;RXN-7421;RXN1G-2544;RXN1G-3641
ASE11_13015	Unknown	LIPIDXSYNTHESIS-RXN
ASE11_05910	Unknown	ASPARTATE-SEMIALDEHYDE-DEHYDROGENASE-RXN
ASE11_09815	Unknown	2.7.7.8-RXN
ASE11_12450	Unknown	DNA-DIRECTED-DNA-POLYMERASE-RXN;RXN0-4961
ASE11_23520	Unknown	RXN-17954;RXN-17957;RXN0-6732
ASE11_00470	Unknown	RXN1A0-6303
ASE11_20095	Unknown	KETOACYLCOATHIOL-RXN;RXN-10699;RXN-10700;RXN-10701;RXN-11246;RXN-12565;RXN-12710;RXN-13617;RXN-14268;RXN-14274;RXN-14277;RXN-14394;RXN-14774;RXN-14788;RXN-14793;RXN-14799;RXN-14803;RXN-16137;RXN-17116;RXN-17778;RXN-17782;RXN-17787;RXN-17791;RXN-17795;RXN-17799;RXN-3641
ASE11_22600	Unknown	OCTAPRENYL-METHYL-METHOXY-BENZOQ-OH-RXN
ASE11_01705	Unknown	ATPASE-RXN
ASE11_02845	ipk	2.7.1.148-RXN
ASE11_08795	Unknown	IMIDPHOSDEHYD-RXN
ASE11_14535	Unknown	RIBULOSE-BISPHOSPHATE-CARBOXYLASE-RXN
ASE11_20990	Unknown	N-ACETYLGLUTPREDUCT-RXN;RXN-15006
ASE11_24090	Unknown	GSHTRAN-RXN;GST-RXN;RXN-11663;RXN-13673;RXN-15680;RXN-18405;RXN-18407;RXNQT-4363
ASE11_24195	Unknown	ACYLCOADEHYDROG-RXN;RXN-17775;RXN-17779;RXN-17783;RXN-17784;RXN-17788;RXN-17792;RXN-17796
ASE11_08075	Unknown	RXN-11838
ASE11_24020	Unknown	ACYLCOASYN-RXN;LINOLENOYL-RXN;R223-RXN;RXN-12184;RXN-12978;RXN-13290;RXN-13614;RXN-16380;RXN-16389;RXN-16393;RXN-16401;RXN-16402;RXN-16415;RXN-16418;RXN-7904;RXN-9623;RXN-9644;RXN-9673;RXN0-7238;RXN0-7239;RXN0-7248;RXN66-469;RXN66-477;RXN66-480;RXN66-483;RXN66-484;TRANS-RXN0-623
ASE11_06040	Unknown	2.3.1.180-RXN
ASE11_13210	Unknown	TRNA-GUANINE-N7--METHYLTRANSFERASE-RXN
ASE11_07880	Unknown	CARBAMATE-KINASE-RXN
ASE11_21825	Unknown	AMYLOMALT-RXN;MALTODEG-RXN;RXN-12193;RXN-12391;RXN-14260;RXN-14261;RXN-14354;RXN-1828;RXN-9023
ASE11_10245	Unknown	IMP-DEHYDROG-RXN
ASE11_11950	Unknown	CYTOCHROME-C-OXIDASE-RXN;RXN-15830
ASE11_06150	Unknown	ALLANTOATE-DEIMINASE-RXN
ASE11_12410	Unknown	RXN-12263;RXN-13162;RXN-13724;RXN66-281
ASE11_24745	Unknown	2.3.2.13-RXN;RXN-19236
ASE11_20035	Unknown	FUMHYDR-RXN
ASE11_01000	Unknown	FUMARYLACETOACETASE-RXN
ASE11_07710	Unknown	RXN0-4261
ASE11_16970	Unknown	ARYLESTERASE-RXN
ASE11_16395	Unknown	RXN0-5131
ASE11_19230	Unknown	URITRANS-RXN
ASE11_11480	Unknown	2.7.13.3-RXN
ASE11_20920	Unknown	AICARSYN-RXN;AMPSYN-RXN
ASE11_23395	Unknown	FORMIMINOGLUTAMATE-DEIMINASE-RXN
ASE11_06435	Unknown	DNA-DIRECTED-DNA-POLYMERASE-RXN
ASE11_08320	Unknown	RXN0-5055
ASE11_21345	Unknown	GSHTRAN-RXN;GST-RXN;RXN-11663;RXN-13673;RXN-15680;RXN-18405;RXN-18407;RXNQT-4363
ASE11_21585	Unknown	ENOYL-COA-HYDRAT-RXN;METHYLACYLYLCOA-HYDROXY-RXN;RXN-10697;RXN-10704;RXN-10705;RXN-11244;RXN-12567;RXN-13616;RXN-14266;RXN-14272;RXN-14273;RXN-16135;RXN-16558;RXN-17114;RXN-17475;RXN-17776;RXN-17780;RXN-17785;RXN-17789;RXN-17793;RXN-17797;RXN-2425;RXN0-5393;TIGLYLCOA-HYDROXY-RXN
ASE11_23905	glpK	GLYCEROL-KIN-RXN
ASE11_22180	Unknown	OHMETPYRKIN-RXN;PYRIMSYN3-RXN
ASE11_23565	Unknown	GLYCPDIESTER-RXN;RXN-14073;RXN-14136;RXN-14160
ASE11_02805	ppnK	NAD-KIN-RXN
ASE11_17260	Unknown	CDPDIGLYSYN-RXN;RXN0-5515
ASE11_16110	Unknown	RXN-11791
ASE11_13660	Unknown	FMNREDUCT-RXN;NADPH-DEHYDROGENASE-FLAVIN-RXN;RXN-12444
ASE11_13310	Unknown	4-CARBOXYMUCONOLACTONE-DECARBOXYLASE-RXN
ASE11_16995	Unknown	ADENYLOSUCCINATE-SYNTHASE-RXN
ASE11_12640	Unknown	GSHTRAN-RXN;GST-RXN;RXN-11663;RXN-13673;RXN-15680;RXN-18405;RXN-18407;RXNQT-4363
ASE11_18365	Unknown	ATPASE-RXN
ASE11_01905	Unknown	RXN-11578
ASE11_00055	Unknown	ANTHRANSYN-RXN
ASE11_05440	Unknown	PMPOXI-RXN;PNPOXI-RXN
ASE11_22095	Unknown	ENOYL-COA-HYDRAT-RXN;METHYLACYLYLCOA-HYDROXY-RXN;RXN-10697;RXN-10704;RXN-10705;RXN-11244;RXN-12567;RXN-13616;RXN-14266;RXN-14272;RXN-14273;RXN-16135;RXN-16558;RXN-17114;RXN-17475;RXN-17776;RXN-17780;RXN-17785;RXN-17789;RXN-17793;RXN-17797;RXN-2425;RXN0-5393;TIGLYLCOA-HYDROXY-RXN
ASE11_21820	glgC	GLUC1PADENYLTRANS-RXN
ASE11_12160	Unknown	RXN-2425
ASE11_23770	Unknown	RXN0-5131
ASE11_08590	Unknown	RXN0-5510
ASE11_05480	Unknown	2.3.2.13-RXN;RXN-19236
ASE11_06135	Unknown	3.5.2.17-RXN
ASE11_13295	Unknown	RXNI-2
ASE11_17895	Unknown	ENOYL-COA-HYDRAT-RXN;METHYLACYLYLCOA-HYDROXY-RXN;RXN-10697;RXN-10704;RXN-10705;RXN-11244;RXN-12567;RXN-13616;RXN-14266;RXN-14272;RXN-14273;RXN-16135;RXN-16558;RXN-17114;RXN-17475;RXN-17776;RXN-17780;RXN-17785;RXN-17789;RXN-17793;RXN-17797;RXN-2425;RXN0-5393;TIGLYLCOA-HYDROXY-RXN
ASE11_13410	Unknown	GSHTRAN-RXN;GST-RXN;RXN-11663;RXN-13673;RXN-15680;RXN-18405;RXN-18407;RXNQT-4363
ASE11_13005	Unknown	PEPTIDYLPROLYL-ISOMERASE-RXN
ASE11_18080	Unknown	1.1.1.178-RXN
ASE11_06720	Unknown	ATPASE-RXN
ASE11_10395	Unknown	ADCLY-RXN
ASE11_13175	Unknown	FMNREDUCT-RXN;NADPH-DEHYDROGENASE-FLAVIN-RXN;RXN-12444
ASE11_17065	Unknown	RXN-11586
ASE11_09760	Unknown	NADH-DEHYDROG-A-RXN
ASE11_19135	Unknown	RXN0-1241
ASE11_15685	Unknown	R4-RXN
ASE11_11805	Unknown	PRPPSYN-RXN
ASE11_08660	Unknown	RXN-11396
ASE11_18190	Unknown	ACYLCOADEHYDROG-RXN;RXN-17775;RXN-17779;RXN-17783;RXN-17784;RXN-17788;RXN-17792;RXN-17796
ASE11_09755	Unknown	1.6.99.5-RXN;NADH-DEHYDROGENASE-QUINONE-RXN
ASE11_24630	Unknown	3-OCTAPRENYL-4-OHBENZOATE-DECARBOX-RXN
ASE11_11665	Unknown	ATPASE-RXN
ASE11_10625	Unknown	ADENYLATECYC-RXN
ASE11_12810	Unknown	GSHTRAN-RXN;GST-RXN;RXN-11663;RXN-13673;RXN-15680;RXN-18405;RXN-18407;RXNQT-4363
ASE11_04135	Unknown	UDP-NACMURALGLDAPAALIG-RXN
ASE11_02290	Unknown	2-OCTAPRENYL-6-OHPHENOL-METHY-RXN;DHHB-METHYLTRANSFER-RXN
ASE11_13470	Unknown	DIHYDROFOLATEREDUCT-RXN;RXN-18357
ASE11_04065	Unknown	RXN-9591
ASE11_04525	Unknown	CARBPSYN-RXN;GLUTAMIN-RXN;RXN-13202;RXN-14196;RXN-16909;RXN-16910
ASE11_01030	Unknown	CARBODEHYDRAT-RXN;RXN0-5224
ASE11_04360	Unknown	ACETATE--COA-LIGASE-RXN;RXN-18446;RXN-18447;RXN-18448
ASE11_01080	Unknown	2.7.13.3-RXN
ASE11_24475	Unknown	4.1.3.17-RXN;RXN-12074;RXN-2464
ASE11_06510	Unknown	3-OXOACYL-ACP-REDUCT-RXN;RXN-10060;RXN-10655;RXN-10659;RXN-11476;RXN-11480;RXN-13008;RXN-16616;RXN-16622;RXN-16626;RXN-16630;RXN-9514;RXN-9518;RXN-9524;RXN-9528;RXN-9532;RXN-9536;RXN-9540;RXN-9552;RXN-9556;RXN-9633;RXN0-2142;RXN1G-157;RXN1G-349;RXN1G-469;RXN1G-508
ASE11_00035	trpD	PRTRANS-RXN
ASE11_00695	Unknown	GLUTSEMIALDEHYDROG-RXN
ASE11_20530	Unknown	FUMARYLACETOACETASE-RXN
ASE11_13040	glyA	GLYOHMETRANS-RXN;RXN0-5234
ASE11_01695	Unknown	RXN0-4261
ASE11_09210	Unknown	ACYLCOASYN-RXN;LINOLENOYL-RXN;R223-RXN;RXN-12184;RXN-12702;RXN-12746;RXN-12978;RXN-13290;RXN-13614;RXN-16380;RXN-16389;RXN-16393;RXN-16401;RXN-16402;RXN-16415;RXN-16418;RXN-7904;RXN-9623;RXN-9644;RXN-9673;RXN0-7238;RXN0-7239;RXN0-7248;RXN66-469;RXN66-477;RXN66-480;RXN66-483;RXN66-484;TRANS-RXN0-623
ASE11_13335	Unknown	1.5.5.1-RXN;RXN66-550
ASE11_00545	Unknown	MALSYN-RXN
ASE11_08345	panB	3-CH3-2-OXOBUTANOATE-OH-CH3-XFER-RXN;RXN-15635
ASE11_22315	Unknown	TREHALOSE6PSYN-RXN
ASE11_01565	Unknown	ACYLCOADEHYDROG-RXN;RXN-17775;RXN-17779;RXN-17783;RXN-17784;RXN-17788;RXN-17792;RXN-17796
ASE11_19565	Unknown	FUMARYLACETOACETASE-RXN
ASE11_16675	Unknown	ADENYL-KIN-RXN
ASE11_04255	Unknown	GLUTAMINESYN-RXN
ASE11_13545	Unknown	PSERTRANSAM-RXN;PSERTRANSAMPYR-RXN
ASE11_18560	Unknown	RXN0-5131
ASE11_05780	acnA	ACONITATEDEHYDR-RXN;ACONITATEHYDR-RXN;RXN-14047
ASE11_09785	Unknown	1.6.99.5-RXN;NADH-DEHYDROGENASE-QUINONE-RXN
ASE11_05445	Unknown	H2PTERIDINEPYROPHOSPHOKIN-RXN;RXN-15733
ASE11_08935	Unknown	DIAMINOPIMDECARB-RXN
ASE11_05890	Unknown	3-ISOPROPYLMALISOM-RXN;R-2-METHYLMALATE-DEHYDRATASE-RXN;RXN-13163;RXN-7744;RXN-8991
ASE11_11165	Unknown	RXN-16427;RXN-16456;RXN0-262
ASE11_21785	Unknown	TYROSINE--TRNA-LIGASE-RXN
ASE11_04850	Unknown	PMPOXI-RXN;PNPOXI-RXN
ASE11_15755	Unknown	2.1.1.77-RXN
ASE11_13265	Unknown	ALANINE--TRNA-LIGASE-RXN
ASE11_13905	Unknown	UGD-RXN
ASE11_05960	Unknown	PDXJ-RXN
ASE11_01445	Unknown	ALARACECAT-RXN
ASE11_21515	Unknown	ACETYL-COA-ACETYLTRANSFER-RXN;METHYLACETOACETYLCOATHIOL-RXN;RXN-12561
ASE11_23785	Unknown	DNA-DIRECTED-RNA-POLYMERASE-RXN
ASE11_10445	Unknown	ACYLCOADEHYDROG-RXN;RXN-17775;RXN-17779;RXN-17783;RXN-17784;RXN-17788;RXN-17792;RXN-17796
ASE11_08415	Unknown	RIBOFLAVIN-SYN-RXN
ASE11_24190	Unknown	ENOYL-COA-HYDRAT-RXN;METHYLACYLYLCOA-HYDROXY-RXN;RXN-10697;RXN-10704;RXN-10705;RXN-11244;RXN-12567;RXN-13616;RXN-14266;RXN-14272;RXN-14273;RXN-16135;RXN-16558;RXN-17114;RXN-17475;RXN-17776;RXN-17780;RXN-17785;RXN-17789;RXN-17793;RXN-17797;RXN-2425;RXN0-5393;TIGLYLCOA-HYDROXY-RXN
ASE11_21570	Unknown	METHYLCROTONYL-COA-CARBOXYLASE-RXN
ASE11_11675	Unknown	2.7.10.1-RXN
ASE11_23230	Unknown	ARYLESTERASE-RXN
ASE11_03830	Unknown	3-OXOADIPATE-COA-TRANSFERASE-RXN;RXN-10085
ASE11_15135	Unknown	RXN0-4961
ASE11_16825	Unknown	4-HYDROXYBENZOATE-3-MONOOXYGENASE-RXN
ASE11_20540	Unknown	2-NITROPROPANE-DIOXYGENASE-RXN
ASE11_21895	Unknown	DAHPSYN-RXN
ASE11_23515	Unknown	RXN-17954;RXN-17957;RXN0-6732
ASE11_03720	Unknown	CYTOCHROME-C-OXIDASE-RXN;RXN-15830
ASE11_04270	Unknown	DIHYDROOROT-RXN
ASE11_07950	Unknown	3-DEHYDROQUINATE-DEHYDRATASE-RXN
ASE11_00600	Unknown	GAMMA-GLUTAMYLTRANSFERASE-RXN;RXN-18092;RXN-6601;RXN-9157;RXN66-336
ASE11_14880	Unknown	PHOSPHOGLUCMUT-RXN;RXN-16997;RXN-16998
ASE11_18345	Unknown	ACETYL-COA-CARBOXYLTRANSFER-RXN;RXN0-5055
ASE11_04540	Unknown	ACETYL-COA-CARBOXYLTRANSFER-RXN;RXN0-5055
ASE11_10965	Unknown	1.18.1.2-RXN
ASE11_04545	Unknown	DIENOYLCOAREDUCT-RXN;RXN-12521;RXN-14715;RXN-14776;RXN-14790;RXN-7835;RXN-7911
ASE11_03650	Unknown	1.17.1.1-RXN
ASE11_19140	Unknown	SUCCDIAMINOPIMDESUCC-RXN
ASE11_12180	Unknown	ACYLCOADEHYDROG-RXN;RXN-17775;RXN-17779;RXN-17783;RXN-17784;RXN-17788;RXN-17792;RXN-17796
ASE11_12740	Unknown	2.3.1.128-RXN
ASE11_05740	Unknown	2-NITROPROPANE-DIOXYGENASE-RXN
ASE11_17830	Unknown	HYDROXYMETHYLGLUTARYL-COA-LYASE-RXN
ASE11_14495	Unknown	ALLOPHANATE-HYDROLASE-RXN
ASE11_03490	lldD	L-LACTATE-DEHYDROGENASE-CYTOCHROME-RXN
ASE11_12900	Unknown	RXN-2
ASE11_13970	Unknown	3.6.3.12-RXN;TRANS-RXN-2
ASE11_11225	Unknown	DNA-DIRECTED-DNA-POLYMERASE-RXN
ASE11_10250	Unknown	CATAL-RXN;RXN-14189;RXN66-1
ASE11_09525	Unknown	1.4.1.21-RXN
ASE11_16775	Unknown	PGLYCDEHYDROG-RXN
ASE11_21595	Unknown	METHYLCROTONYL-COA-CARBOXYLASE-RXN
ASE11_17335	Unknown	GDPPYPHOSKIN-RXN;GTPPYPHOSKIN-RXN
ASE11_23390	Unknown	N-FORMYLGLUTAMATE-DEFORMYLASE-RXN
ASE11_11055	Unknown	2-ISOPROPYLMALATESYN-RXN
ASE11_15520	Unknown	THRESYN-RXN
ASE11_21125	Unknown	KANAMYCIN-KINASE-RXN
ASE11_17345	Unknown	3-HYDROXYBUTYRATE-DEHYDROGENASE-RXN
ASE11_11755	Unknown	RXN0-1281
ASE11_22320	Unknown	3.2.1.3-RXN;RXN-9024
ASE11_23245	Unknown	3.4.21.4-RXN;RXN-17832
ASE11_00130	Unknown	GSHTRAN-RXN;GST-RXN;RXN-11663;RXN-13673;RXN-15680;RXN-18405;RXN-18407;RXNQT-4363
ASE11_13235	Unknown	SERINE--GLYOXYLATE-AMINOTRANSFERASE-RXN;SERINE-GLYOXYLATE-AMINOTRANSFERASE-RXN
ASE11_22240	Unknown	H2NEOPTERINALDOL-RXN;RXN-10857
ASE11_01140	Unknown	METHIONYL-TRNA-FORMYLTRANSFERASE-RXN
ASE11_24850	Unknown	BENZENE-12-DIOXYGENASE-RXN
ASE11_24425	Unknown	ASPAMINOTRANS-RXN;RXN-10814;RXN-11737;RXN-13697
ASE11_23400	Unknown	IMIDAZOLONEPROPIONASE-RXN
ASE11_20570	Unknown	DTDPGLUCDEHYDRAT-RXN
ASE11_08545	ugpQ	GLYCPDIESTER-RXN;RXN-14073;RXN-14136;RXN-14160
ASE11_15325	Unknown	BTUR2-RXN;COBALADENOSYLTRANS-RXN;R344-RXN
ASE11_13425	Unknown	ACETYLHOMOSER-CYS-RXN;O-ACETYLHOMOSERINE-THIOL-LYASE-RXN
ASE11_10015	Unknown	PEPTIDYLPROLYL-ISOMERASE-RXN
ASE11_17890	Unknown	4.2.1.107-RXN;RXN-9847
ASE11_02425	Unknown	3-ISOPROPYLMALISOM-RXN;RXN-13163;RXN-8991
ASE11_13520	Unknown	RXN-11833
ASE11_09235	Unknown	2.7.13.3-RXN
ASE11_09400	Unknown	ACYLCOADEHYDROG-RXN;RXN-17775;RXN-17779;RXN-17783;RXN-17784;RXN-17788;RXN-17792;RXN-17796
ASE11_04710	Unknown	DIHYDROOROTATE-DEHYDROGENASE-RXN;RXN0-6491
ASE11_16790	Unknown	NITRIC-OXIDE-SYNTHASE-RXN;RXN-13564;RXN-13565
ASE11_01830	Unknown	FUMARYLACETOACETASE-RXN
ASE11_16645	Unknown	3.1.11.6-RXN
ASE11_11145	hppA	INORGPYROPHOSPHAT-RXN
ASE11_05940	Unknown	ACETYL-COA-CARBOXYLTRANSFER-RXN;RXN0-5055
ASE11_03985	Unknown	GSHTRAN-RXN;GST-RXN;RXN-11663;RXN-13673;RXN-15680;RXN-18405;RXN-18407;RXNQT-4363
ASE11_12135	Unknown	RXN0-5131
ASE11_03820	Unknown	KETOACYLCOATHIOL-RXN;RXN-10699;RXN-10700;RXN-10701;RXN-11246;RXN-12565;RXN-12710;RXN-13617;RXN-14268;RXN-14274;RXN-14277;RXN-14394;RXN-14774;RXN-14788;RXN-14793;RXN-14799;RXN-14803;RXN-16137;RXN-17116;RXN-17778;RXN-17782;RXN-17787;RXN-17791;RXN-17795;RXN-17799;RXN-3641
ASE11_22175	Unknown	GSAAMINOTRANS-RXN
ASE11_07075	Unknown	45-DIHYDROXYPHTHALATE-DECARBOXYLASE-RXN
ASE11_03615	Unknown	VALINE--TRNA-LIGASE-RXN
ASE11_24030	Unknown	SAICARSYN-RXN
ASE11_14895	Unknown	TRANSALDOL-RXN
ASE11_22065	Unknown	RXN-14480;RXN-14481;RXN0-5063
ASE11_04635	Unknown	ATPASE-RXN
ASE11_14550	Unknown	3.1.13.3-RXN
ASE11_11690	Unknown	2.6.1.57-RXN;PHEAMINOTRANS-RXN;RXN-14147;RXN-15200;TRYPTOPHAN-AMINOTRANSFERASE-RXN;TYROSINE-AMINOTRANSFERASE-RXN
ASE11_16665	Unknown	TETRAACYLDISACC4KIN-RXN
ASE11_08600	Unknown	GLUTKIN-RXN
ASE11_13965	Unknown	ATPASE-RXN
ASE11_07170	Unknown	RXN-10078;RXN-10079;RXN-9912;RXN-9914;SALICYLATE-1-MONOOXYGENASE-RXN
ASE11_05060	Unknown	DNA-DIRECTED-DNA-POLYMERASE-RXN
ASE11_23620	Unknown	BIOTIN-CARBOXYL-RXN;RXN0-5055
ASE11_16975	Unknown	RXN0-2281
ASE11_20090	Unknown	ENOYL-COA-HYDRAT-RXN;METHYLACYLYLCOA-HYDROXY-RXN;RXN-10697;RXN-10704;RXN-10705;RXN-11244;RXN-12567;RXN-13616;RXN-14266;RXN-14272;RXN-14273;RXN-16135;RXN-16558;RXN-17114;RXN-17475;RXN-17776;RXN-17780;RXN-17785;RXN-17789;RXN-17793;RXN-17797;RXN-2425;RXN0-5393;TIGLYLCOA-HYDROXY-RXN
ASE11_01725	Unknown	4.1.1.32-RXN;RXN-12481
ASE11_04085	Unknown	UDPACYLGLCNACDEACETYL-RXN
ASE11_18095	Unknown	RXN-14264;RXN0-2301
ASE11_07005	Unknown	ACETYL-COA-ACETYLTRANSFER-RXN;METHYLACETOACETYLCOATHIOL-RXN;RXN-12561
ASE11_03505	Unknown	DNA-DIRECTED-DNA-POLYMERASE-RXN
ASE11_04865	Unknown	GLUTATHIONE-REDUCT-NADPH-RXN
ASE11_17105	Unknown	ATPASE-RXN
ASE11_00745	Unknown	CYTOCHROME-C-OXIDASE-RXN
ASE11_03050	Unknown	2.1.1.44-RXN;RXN-14431;RXN-14437;RXN-14438
ASE11_24890	Unknown	ACETALD-DEHYDROG-RXN;RXN-13671
ASE11_12955	Unknown	PROTOCATECHUATE-34-DIOXYGENASE-RXN;RXN-9731
ASE11_24735	metX	HOMOSERINE-O-ACETYLTRANSFERASE-RXN
ASE11_13475	Unknown	3.1.11.2-RXN
ASE11_06070	Unknown	GLUC1PURIDYLTRANS-RXN
ASE11_08030	Unknown	R122-RXN
ASE11_03315	Unknown	ACYLCOADEHYDROG-RXN;RXN-17775;RXN-17779;RXN-17783;RXN-17784;RXN-17788;RXN-17792;RXN-17796
ASE11_11970	Unknown	CYTOCHROME-C-OXIDASE-RXN;RXN-15830
ASE11_06585	Unknown	CREATININASE-RXN
ASE11_23610	Unknown	METHYLCROTONYL-COA-CARBOXYLASE-RXN
ASE11_24395	Unknown	12-OXOPHYTODIENOATE-REDUCTASE-RXN
ASE11_04010	Unknown	URACIL-PRIBOSYLTRANS-RXN
ASE11_11910	Unknown	ISOCIT-CLEAV-RXN
ASE11_18295	Unknown	ACETOACETATE--COA-LIGASE-RXN
ASE11_19525	Unknown	RXN0-5131
ASE11_19240	Unknown	FGAMSYN-RXN
ASE11_09355	Unknown	ENOYL-COA-HYDRAT-RXN;METHYLACYLYLCOA-HYDROXY-RXN;RXN-10697;RXN-10704;RXN-10705;RXN-11244;RXN-12567;RXN-13616;RXN-14266;RXN-14272;RXN-14273;RXN-16135;RXN-16558;RXN-17114;RXN-17475;RXN-17776;RXN-17780;RXN-17785;RXN-17789;RXN-17793;RXN-17797;RXN-2425;RXN0-5393;TIGLYLCOA-HYDROXY-RXN
ASE11_16520	Unknown	PHTHALATE-45-DIOXYGENASE-RXN
ASE11_14380	Unknown	2.7.13.3-RXN
ASE11_14875	Unknown	PHOSPHOKETOLASE-RXN
ASE11_21605	Unknown	HYDROXYMETHYLGLUTARYL-COA-LYASE-RXN
ASE11_19980	Unknown	ACYLCOASYN-RXN;LINOLENOYL-RXN;R223-RXN;RXN-12184;RXN-12978;RXN-13290;RXN-13614;RXN-16380;RXN-16389;RXN-16393;RXN-16401;RXN-16402;RXN-16415;RXN-16418;RXN-7904;RXN-9623;RXN-9644;RXN-9673;RXN0-7238;RXN0-7239;RXN0-7248;RXN66-469;RXN66-477;RXN66-480;RXN66-483;RXN66-484;TRANS-RXN0-623
ASE11_05930	Unknown	RXN0-2382;TRYPSYN-RXN
ASE11_14455	Unknown	2.3.2.13-RXN;RXN-19236
ASE11_16670	Unknown	CPM-KDOSYNTH-RXN
ASE11_11765	Unknown	3-OXOACYL-ACP-REDUCT-RXN;RXN-12560;RXN-13279;RXN-5901
ASE11_07825	Unknown	RXN-7682;RXN0-901
ASE11_13560	Unknown	2.5.1.19-RXN;RXN-11832;RXN-12002;RXN-7913
ASE11_08620	Unknown	RXN-8992
ASE11_17320	rimO	RXN0-6366
ASE11_12725	Unknown	R4-RXN
ASE11_18010	Unknown	BIOTIN-CARBOXYL-RXN;RXN0-5055
ASE11_18185	Unknown	ACYLCOADEHYDROG-RXN;RXN-17775;RXN-17779;RXN-17783;RXN-17784;RXN-17788;RXN-17792;RXN-17796
ASE11_16705	Unknown	PGLYCDEHYDROG-RXN
ASE11_07355	Unknown	F16BDEPHOS-RXN
ASE11_15885	Unknown	2.1.1.79-RXN;RXN-7421;RXN1G-2544;RXN1G-3641
ASE11_18235	Unknown	ACYLCOADEHYDROG-RXN;RXN-17775;RXN-17779;RXN-17783;RXN-17784;RXN-17788;RXN-17792;RXN-17796
ASE11_15270	Unknown	3.4.11.18-RXN;RXN-17873;RXN-17874;RXN-17875;RXN-17876;RXN-17877;RXN-17878
ASE11_22720	Unknown	RXN-12093
ASE11_00730	Unknown	CYTOCHROME-C-OXIDASE-RXN;RXN-15830
ASE11_00865	Unknown	ADENOSYLHOMOCYSTEINE-NUCLEOSIDASE-RXN
ASE11_17480	Unknown	3.1.26.4-RXN
ASE11_15065	Unknown	CARBAMATE-KINASE-RXN
ASE11_17420	Unknown	RXN-11109
ASE11_14480	Unknown	UREA-CARBOXYLASE-RXN
ASE11_14265	Unknown	PROTEIN-KINASE-RXN
ASE11_02865	Unknown	AMINOCYL-TRNA-HYDROLASE-RXN;RXN-16637
ASE11_25065	Unknown	RXN0-5131
ASE11_21505	Unknown	CARBODEHYDRAT-RXN;RXN0-5224
ASE11_21295	Unknown	RXN-10642;UROGENDECARBOX-RXN
ASE11_18140	Unknown	METHYLCROTONYL-COA-CARBOXYLASE-RXN
ASE11_06290	Unknown	IMP-DEHYDROG-RXN
ASE11_03330	Unknown	FADSYN-RXN;RIBOFLAVINKIN-RXN;RXN-18510;RXN-18511
ASE11_22160	Unknown	RXN0-1281
ASE11_01525	Unknown	SUCCINATE-SEMIALDEHYDE-DEHYDROGENASE-RXN
ASE11_21580	Unknown	ACYLCOADEHYDROG-RXN;RXN-17775;RXN-17779;RXN-17783;RXN-17784;RXN-17788;RXN-17792;RXN-17796
ASE11_15525	Unknown	HOMOSERDEHYDROG-RXN
ASE11_21270	Unknown	RXN0-4261
ASE11_13495	glnA	GLUTAMINESYN-RXN
ASE11_13080	Unknown	RIBOFLAVINSYNDEAM-RXN
ASE11_11375	Unknown	PRODISULFREDUCT-RXN;RXN0-7271
ASE11_12795	Unknown	RXN-12263;RXN-13162;RXN-13724;RXN66-281
ASE11_06845	Unknown	PROTEIN-KINASE-RXN
ASE11_03880	Unknown	RXN0-5375
ASE11_08235	Unknown	2.7.13.3-RXN
ASE11_04595	Unknown	5-OXOPROLINASE-ATP-HYDROLYSING-RXN
ASE11_11010	Unknown	RXN-12720;SULFATE-ADENYLYLTRANS-RXN
ASE11_05370	Unknown	RXN-11109
ASE11_24655	gyrB	5.99.1.3-RXN
ASE11_08875	Unknown	RXN0-5131
ASE11_19470	Unknown	2.7.13.3-RXN
ASE11_03210	Unknown	PRODISULFREDUCT-RXN;RXN0-7271
ASE11_01105	Unknown	PHOSGLYPHOS-RXN
ASE11_09145	Unknown	RXN0-5100
ASE11_04015	Unknown	3.1.22.4-RXN
ASE11_24200	Unknown	AMINOBENZCOALIG-RXN
ASE11_17850	Unknown	R282-RXN
ASE11_10075	Unknown	ATPASE-RXN
ASE11_04940	Unknown	PROTEIN-KINASE-RXN
ASE11_05835	Unknown	ACONITATEDEHYDR-RXN;ACONITATEHYDR-RXN;RXN-14047
ASE11_05110	Unknown	PYROGLUTAMYL-PEPTIDASE-I-RXN
ASE11_19990	Unknown	GLUTAMATE-DEHYDROGENASE-NADP+-RXN;GLUTAMATE-DEHYDROGENASE-RXN;GLUTDEHYD-RXN
ASE11_08985	Unknown	S-ADENMETSYN-RXN
ASE11_23605	Unknown	ACYLCOASYN-RXN;LINOLENOYL-RXN;R223-RXN;RXN-12184;RXN-12978;RXN-13290;RXN-13614;RXN-16380;RXN-16389;RXN-16393;RXN-16401;RXN-16402;RXN-16415;RXN-16418;RXN-7904;RXN-9623;RXN-9644;RXN-9673;RXN0-7238;RXN0-7239;RXN0-7248;RXN66-469;RXN66-477;RXN66-480;RXN66-483;RXN66-484;TRANS-RXN0-623
ASE11_08050	Unknown	3.1.1.64-RXN;CARBOXYLESTERASE-RXN;RETINYL-PALMITATE-ESTERASE-RXN;RXN-10711;RXN-10767;RXN-12252;RXN-12575;RXNQT-4366
ASE11_07040	Unknown	QUINOPRIBOTRANS-RXN
ASE11_08130	Unknown	TRYPTOPHAN--TRNA-LIGASE-RXN
ASE11_04905	Unknown	PHOSPHASERDECARB-RXN
ASE11_08370	Unknown	PRODISULFREDUCT-RXN;RXN0-7271
ASE11_09050	Unknown	PEPTIDYLPROLYL-ISOMERASE-RXN
ASE11_14060	Unknown	RXN-11781
ASE11_13140	Unknown	3.1.2.23-RXN
ASE11_16990	Unknown	NICOTINATEPRIBOSYLTRANS-RXN
ASE11_05285	Unknown	ACYLCOASYN-RXN;LINOLENOYL-RXN;R223-RXN;RXN-12184;RXN-12978;RXN-13290;RXN-13614;RXN-16380;RXN-16389;RXN-16393;RXN-16401;RXN-16402;RXN-16415;RXN-16418;RXN-7904;RXN-9623;RXN-9644;RXN-9673;RXN0-7238;RXN0-7239;RXN0-7248;RXN66-469;RXN66-477;RXN66-480;RXN66-483;RXN66-484;TRANS-RXN0-623
ASE11_04555	Unknown	1.5.1.9-RXN
ASE11_24880	Unknown	GSHTRAN-RXN;GST-RXN;RXN-11663;RXN-13673;RXN-15680;RXN-18405;RXN-18407;RXNQT-4363
ASE11_08020	Unknown	GLYCERATE-DEHYDROGENASE-RXN;HYDROXYPYRUVATE-REDUCTASE-RXN;RXN0-300
ASE11_08670	argJ	GLUTAMATE-N-ACETYLTRANSFERASE-RXN;N-ACETYLTRANSFER-RXN;RXN0-6948
ASE11_11020	Unknown	1.18.1.2-RXN
ASE11_05880	gltA	CITSYN-RXN
ASE11_17870	Unknown	ACYLCOADEHYDROG-RXN;RXN-17775;RXN-17779;RXN-17783;RXN-17784;RXN-17788;RXN-17792;RXN-17796
ASE11_14145	Unknown	RXN0-5100
ASE11_02285	Unknown	1.11.1.15-RXN;RXN0-5468
ASE11_06425	Unknown	CARBOXYMETHYLENEBUTENOLIDASE-RXN;DIENELACHYDRO-RXN;RXN-9857;RXN-9868;RXN-9887;RXN-9890
ASE11_21305	Unknown	1.6.4.4-RXN
ASE11_13115	Unknown	RIBOFLAVIN-SYN-RXN
ASE11_07740	Unknown	3.6.1.41-RXN
ASE11_09030	Unknown	RXN0-5131
ASE11_19940	Unknown	RXN0-4961
ASE11_00500	Unknown	FMNREDUCT-RXN;NADPH-DEHYDROGENASE-FLAVIN-RXN;RXN-12444
ASE11_22475	Unknown	RXN0-5131
ASE11_08895	Unknown	SHIKIMATE-KINASE-RXN
ASE11_19960	Unknown	NQOR-RXN
ASE11_00515	Unknown	HYDROXYMETHYLGLUTARYL-COA-LYASE-RXN
ASE11_04680	Unknown	ACETYL-COA-ACETYLTRANSFER-RXN;METHYLACETOACETYLCOATHIOL-RXN;RXN-12561
ASE11_23510	Unknown	RXN-17956;RXN0-6734
ASE11_18020	Unknown	METHYLCROTONYL-COA-CARBOXYLASE-RXN
ASE11_00820	Unknown	RXN-14014
ASE11_17950	Unknown	NAPHTHOATE-SYN-RXN;R268-RXN
ASE11_11040	Unknown	ARGINYLTRANSFERASE-RXN;RXN-17888;RXN-17889;RXN-17890;RXN-17891
ASE11_00890	Unknown	PYRNUTRANSHYDROGEN-RXN;TRANS-RXN0-277
ASE11_05770	Unknown	ATPASE-RXN
ASE11_24095	Unknown	GSHTRAN-RXN;GST-RXN;RXN-11663;RXN-13673;RXN-15680;RXN-18405;RXN-18407;RXNQT-4363
ASE11_02030	Unknown	AGMATIN-RXN
ASE11_14110	Unknown	GLYOXIII-RXN
ASE11_05870	sdhB	RXN-14971;RXN-15378;SUCCINATE-DEHYDROGENASE-UBIQUINONE-RXN
ASE11_08555	Unknown	GLUTRNAREDUCT-RXN
ASE11_16905	Unknown	ACYLCOADEHYDROG-RXN;RXN-17775;RXN-17779;RXN-17783;RXN-17784;RXN-17788;RXN-17792;RXN-17796
ASE11_09650	Unknown	HCAMULTI-RXN;RXN-12072
ASE11_08995	Unknown	GLUCONATE-5-DEHYDROGENASE-RXN
ASE11_01920	Unknown	FMNREDUCT-RXN;NADPH-DEHYDROGENASE-FLAVIN-RXN;RXN-12444
ASE11_08645	Unknown	DEPHOSPHOCOAKIN-RXN
ASE11_19155	Unknown	SUCCINYLDIAMINOPIMTRANS-RXN
ASE11_07285	Unknown	ARGSUCCINSYN-RXN;RXN-10
ASE11_11005	Unknown	RXN-12720;SULFATE-ADENYLYLTRANS-RXN
ASE11_24180	Unknown	RXN-11740
ASE11_03665	Unknown	2.7.13.3-RXN
ASE11_08245	Unknown	CYTOCHROME-C-OXIDASE-RXN;RXN-15830
ASE11_05975	Unknown	3.1.26.3-RXN
ASE11_07060	Unknown	PHTHALATE-45-DIOXYGENASE-RXN
ASE11_08585	Unknown	PROLINE--TRNA-LIGASE-RXN
ASE11_03810	Unknown	CHLOROMALERED-RXN;MALEYLACETATE-REDUCTASE-RXN;RXN-9885;RXN-9891
ASE11_09215	Unknown	RXN0-5021
ASE11_23695	Unknown	GLYOXIII-RXN
ASE11_04965	Unknown	2.7.13.3-RXN
ASE11_03635	Unknown	ACSERLY-RXN;RXN-12726
ASE11_10875	Unknown	LYSDECARBOX-RXN
ASE11_06485	Unknown	RXN-11135
ASE11_04140	Unknown	UDP-NACMURALGLDAPLIG-RXN
ASE11_10515	Unknown	GLUCONOLACT-RXN;RXN-8783
ASE11_08350	Unknown	PANTOATE-BETA-ALANINE-LIG-RXN
ASE11_19385	Unknown	GSHTRAN-RXN;GST-RXN;RXN-11663;RXN-13673;RXN-15680;RXN-18405;RXN-18407;RXNQT-4363
ASE11_17860	Unknown	ACYLCOADEHYDROG-RXN;RXN-17775;RXN-17779;RXN-17783;RXN-17784;RXN-17788;RXN-17792;RXN-17796
ASE11_23945	Unknown	QUEUOSINE-TRNA-RIBOSYLTRANSFERASE-RXN;RXN0-1321
ASE11_17230	Unknown	3-HYDROXYDECANOYL-ACP-DEHYDR-RXN
ASE11_09730	Unknown	1.6.99.5-RXN;NADH-DEHYDROGENASE-QUINONE-RXN
ASE11_07090	Unknown	ACETOLACTSYN-RXN;ACETOOHBUTSYN-RXN
ASE11_21925	Unknown	BIOTIN-CARBOXYL-RXN
ASE11_12535	gudD	GLUCARDEHYDRA-RXN
ASE11_01260	Unknown	OROPRIBTRANS-RXN
ASE11_20510	Unknown	5.3.3.10-RXN
ASE11_08800	Unknown	HISTAMINOTRANS-RXN
ASE11_19180	Unknown	3.5.1.27-RXN;3.5.1.88-RXN
ASE11_16715	Unknown	3-HYDROXYBUTYRYL-COA-DEHYDROGENASE-RXN
ASE11_11140	Unknown	INORGPYROPHOSPHAT-RXN
ASE11_03465	Unknown	2.7.13.3-RXN
ASE11_23410	Unknown	HISTIDINE-AMMONIA-LYASE-RXN
ASE11_17780	Unknown	2.3.2.13-RXN;RXN-19236
ASE11_08765	Unknown	HISTPRATPHYD-RXN
ASE11_17785	Unknown	DIENOYLCOAREDUCT-RXN;RXN-12521;RXN-14715;RXN-14776;RXN-14790;RXN-7835;RXN-7911
ASE11_21600	Unknown	GLYCERATE-DEHYDROGENASE-RXN;HYDROXYPYRUVATE-REDUCTASE-RXN;RXN0-300
ASE11_20515	Unknown	1.13.11.15-RXN
ASE11_10610	Unknown	SUCCGLUDESUCC-RXN
ASE11_06160	Unknown	MALIC-NADP-RXN;OXALODECARB-RXN
ASE11_20225	Unknown	RXN-13037;RXN-13039;RXN-17127;RXN-8654;RXN-8655;RXN0-1141;RXN0-5098;RXN0-947
ASE11_11975	Unknown	ATPASE-RXN
ASE11_17045	Unknown	HISTIDINE--TRNA-LIGASE-RXN
ASE11_14090	Unknown	RXN0-1061
ASE11_01820	Unknown	GLUCONOLACT-RXN;RXN-8783
ASE11_15060	Unknown	ORNCARBAMTRANSFER-RXN;RXN-13482
ASE11_09805	Unknown	TRIOSEPISOMERIZATION-RXN
ASE11_03530	Unknown	ACETYLPUTRESCINE-DEACETYLASE-RXN
ASE11_18125	Unknown	3-OXOACYL-ACP-REDUCT-RXN;RXN-10060;RXN-10655;RXN-10659;RXN-11476;RXN-11480;RXN-13008;RXN-16616;RXN-16622;RXN-16626;RXN-16630;RXN-9514;RXN-9518;RXN-9524;RXN-9528;RXN-9532;RXN-9536;RXN-9540;RXN-9552;RXN-9556;RXN-9633;RXN0-2142;RXN1G-157;RXN1G-349;RXN1G-469;RXN1G-508
ASE11_04155	Unknown	RXN-11638
ASE11_12615	Unknown	PEPTIDYLPROLYL-ISOMERASE-RXN
ASE11_16785	sdhB	RXN-14971;RXN-15378;SUCCINATE-DEHYDROGENASE-UBIQUINONE-RXN
ASE11_05860	Unknown	RXN-14971;RXN-15378;SUCCINATE-DEHYDROGENASE-UBIQUINONE-RXN
ASE11_09360	Unknown	6.2.1.34-RXN
ASE11_11060	Unknown	2-ISOPROPYLMALATESYN-RXN
ASE11_24075	Unknown	DNA-DIRECTED-DNA-POLYMERASE-RXN;RXN0-4961
ASE11_17855	fadH	DIENOYLCOAREDUCT-RXN;RXN-12521;RXN-14715;RXN-14776;RXN-14790;RXN-7835;RXN-7911
ASE11_18355	Unknown	ACYLCOADEHYDROG-RXN;RXN-17775;RXN-17779;RXN-17783;RXN-17784;RXN-17788;RXN-17792;RXN-17796
ASE11_22530	Unknown	TRANSALDOL-RXN
ASE11_23320	Unknown	3-HYDROXYISOBUTYRATE-DEHYDROGENASE-RXN
ASE11_01795	Unknown	ACETOACETATE--COA-LIGASE-RXN
ASE11_14400	Unknown	ACYLCOADEHYDROG-RXN;RXN-17775;RXN-17779;RXN-17783;RXN-17784;RXN-17788;RXN-17792;RXN-17796
ASE11_05855	Unknown	RXN-14971;RXN-15378;SUCCINATE-DEHYDROGENASE-UBIQUINONE-RXN
ASE11_14180	Unknown	ACYLCOASYN-RXN;LINOLENOYL-RXN;R223-RXN;RXN-12184;RXN-12702;RXN-12746;RXN-12978;RXN-13290;RXN-13614;RXN-16380;RXN-16389;RXN-16393;RXN-16401;RXN-16402;RXN-16415;RXN-16418;RXN-7904;RXN-9623;RXN-9644;RXN-9673;RXN0-7238;RXN0-7239;RXN0-7248;RXN66-469;RXN66-477;RXN66-480;RXN66-483;RXN66-484;TRANS-RXN0-623
ASE11_23575	Unknown	1.1.1.34-RXN
ASE11_00685	Unknown	GLUTCYSLIG-RXN
ASE11_02525	Unknown	RXN-7682;RXN0-901
ASE11_02650	Unknown	GPPSYN-RXN
ASE11_08975	Unknown	MYRISTOYLACYLTRAN-RXN
ASE11_08275	Unknown	ENOYL-COA-HYDRAT-RXN;METHYLACYLYLCOA-HYDROXY-RXN;RXN-10697;RXN-10704;RXN-10705;RXN-11244;RXN-12567;RXN-13616;RXN-14266;RXN-14272;RXN-14273;RXN-16135;RXN-16558;RXN-17114;RXN-17475;RXN-17776;RXN-17780;RXN-17785;RXN-17789;RXN-17793;RXN-17797;RXN-2425;RXN0-5393;TIGLYLCOA-HYDROXY-RXN
ASE11_07175	Unknown	RXN-10078;RXN-10079;RXN-9912;RXN-9914;SALICYLATE-1-MONOOXYGENASE-RXN
ASE11_04205	Unknown	DIAMINOPIMEPIM-RXN
ASE11_08190	Unknown	URACIL-PRIBOSYLTRANS-RXN
ASE11_02715	Unknown	1TRANSKETO-RXN;2TRANSKETO-RXN
ASE11_17310	Unknown	RXN0-7023
ASE11_08330	Unknown	L-ASPARTATE-OXID-RXN;RXN-9772
ASE11_06915	Unknown	SUCCINATE-SEMIALDEHYDE-DEHYDROGENASE-RXN
ASE11_07730	rbcL	RIBULOSE-BISPHOSPHATE-CARBOXYLASE-RXN
ASE11_09195	Unknown	POLYPHOSPHATE-KINASE-RXN
ASE11_03270	Unknown	THIOREDOXIN-REDUCT-NADPH-RXN
ASE11_06075	cpsB	2.7.7.13-RXN
ASE11_13400	Unknown	CHORISMATE-SYNTHASE-RXN
ASE11_10795	Unknown	3-HYDROXYISOBUTYRYL-COA-HYDROLASE-RXN;RXN-13721;RXN-6384
ASE11_24675	Unknown	3.1.26.5-RXN
ASE11_02545	Unknown	GLYOXIII-RXN
ASE11_24510	Unknown	CARNDETRU-RXN
ASE11_10235	ligD	DNA-LIGASE-ATP-RXN;RXN-17917;RXN-17918;RXN-17919
ASE11_19860	Unknown	ORNITHINE-CYCLODEAMINASE-RXN
ASE11_09370	Unknown	1.1.1.178-RXN
ASE11_17020	Unknown	RXN0-5462
ASE11_11835	Unknown	5.3.3.10-RXN
ASE11_00235	Unknown	ETHAMLY-RXN
ASE11_13255	Unknown	ENOYL-COA-HYDRAT-RXN;METHYLACYLYLCOA-HYDROXY-RXN;RXN-10697;RXN-10704;RXN-10705;RXN-11244;RXN-12567;RXN-13616;RXN-14266;RXN-14272;RXN-14273;RXN-16135;RXN-16558;RXN-17114;RXN-17475;RXN-17776;RXN-17780;RXN-17785;RXN-17789;RXN-17793;RXN-17797;RXN-2425;RXN0-5393;TIGLYLCOA-HYDROXY-RXN
ASE11_21560	Unknown	2-HALOACID-DEHALOGENASE-RXN;3.8.1.11-RXN;RXN-6263;RXN-6264
ASE11_24870	Unknown	1.3.1.56-RXN;RXN-17340;RXN-17342
ASE11_16625	Unknown	ISOCITDEH-RXN;RXN-8642;RXN-9951
ASE11_24625	Unknown	3-OCTAPRENYL-4-OHBENZOATE-DECARBOX-RXN
ASE11_13315	Unknown	R4-RXN
ASE11_02010	Unknown	RXN0-3942
ASE11_19150	Unknown	TETHYDPICSUCC-RXN
ASE11_14135	Unknown	1.8.4.12-RXN
ASE11_00540	Unknown	2-HALOACID-DEHALOGENASE-RXN
ASE11_09095	Unknown	RXN0-2621
ASE11_06360	Unknown	PEPTIDYLPROLYL-ISOMERASE-RXN
ASE11_01205	Unknown	GCVT-RXN
ASE11_14345	Unknown	GLUCONOKIN-RXN
ASE11_01645	Unknown	R524-RXN;RXN-12893
ASE11_09365	Unknown	ACETYL-COA-ACETYLTRANSFER-RXN;METHYLACETOACETYLCOATHIOL-RXN;RXN-12561
ASE11_24085	Unknown	OROTPDECARB-RXN
ASE11_12545	Unknown	RXN0-5289;TSA-REDUCT-RXN
ASE11_12975	Unknown	RXN-1961
ASE11_09065	Unknown	RXN-8643;TARTRATE-DEHYDROGENASE-RXN
ASE11_20040	Unknown	FUMHYDR-RXN
ASE11_17050	ispG	RXN0-882
ASE11_11735	Unknown	2.1.3.1-RXN
ASE11_14745	Unknown	PHOSMANMUT-RXN;PHOSPHOGLUCMUT-RXN;RXN-16997;RXN-16998
ASE11_03310	Unknown	1.3.1.62-RXN
ASE11_16730	Unknown	KANAMYCIN-KINASE-RXN
ASE11_23505	Unknown	RXN-17956;RXN0-6734
ASE11_12310	Unknown	FUMHYDR-RXN
ASE11_10415	Unknown	3.1.21.1-RXN
ASE11_00080	Unknown	RXN0-5100
ASE11_16040	Unknown	RXN-10137;RXN-17556
ASE11_19290	Unknown	RXN0-5462
ASE11_01765	Unknown	GLY-X-CARBOXYPEPTIDASE-RXN
ASE11_20695	Unknown	1.2.7.8-RXN
ASE11_06105	Unknown	RXN-17884;RXN-2962
ASE11_05655	Unknown	5-OXOPROLINASE-ATP-HYDROLYSING-RXN
ASE11_14225	Unknown	NAPHTHALENE-12-DIOXYGENASE-RXN
ASE11_16375	Unknown	ALKAPHOSPHA-RXN;RXN-5822;RXN-8748
ASE11_15005	Unknown	2.1.1.100-RXN
ASE11_20970	Unknown	3.1.3.16-RXN
ASE11_19245	Unknown	1.14.11.18-RXN;RXN66-470
ASE11_14210	Unknown	NAPHTHALENE-12-DIOXYGENASE-RXN
ASE11_05220	dkgB	1.1.1.274-RXN
ASE11_03470	Unknown	ARGSUCCINLYA-RXN;RXN-22
ASE11_20560	Unknown	BRANCHED-CHAINAMINOTRANSFERILEU-RXN;BRANCHED-CHAINAMINOTRANSFERLEU-RXN;BRANCHED-CHAINAMINOTRANSFERVAL-RXN
ASE11_18265	Unknown	CITSYN-RXN
ASE11_21835	Unknown	GLYCOGEN-BRANCH-RXN;RXN-14371;RXN-14372;RXN-18777;RXN-7669;RXN-7710
ASE11_19595	Unknown	2.6.1.18-RXN
ASE11_08150	Unknown	RXN0-2161;SERINE--TRNA-LIGASE-RXN
ASE11_12010	Unknown	MALONYL-COA-DECARBOXYLASE-RXN
ASE11_03795	Unknown	RXN-10137;RXN-17556
ASE11_14560	Unknown	RXN-13908;RXN-7908
ASE11_07290	Unknown	UDPNACETYLMURAMATEDEHYDROG-RXN
ASE11_12970	Unknown	ASPARTATEKIN-RXN
ASE11_07320	Unknown	RXN1A0-6303
ASE11_22100	Unknown	ENOYL-COA-HYDRAT-RXN;METHYLACYLYLCOA-HYDROXY-RXN;RXN-10697;RXN-10704;RXN-10705;RXN-11244;RXN-12567;RXN-13616;RXN-14266;RXN-14272;RXN-14273;RXN-16135;RXN-16558;RXN-17114;RXN-17475;RXN-17776;RXN-17780;RXN-17785;RXN-17789;RXN-17793;RXN-17797;RXN-2425;RXN0-5393;TIGLYLCOA-HYDROXY-RXN
ASE11_18805	Unknown	RXN0-4261
ASE11_15800	Unknown	RXN-13179
ASE11_02005	Unknown	GLUTAMINESYN-RXN
ASE11_08980	Unknown	MYRISTOYLACYLTRAN-RXN
ASE11_01685	Unknown	HOMOCYSMETB12-RXN
ASE11_11825	Unknown	GLUTAMINESYN-RXN
ASE11_24875	Unknown	BIPHENYL-23-DIOL-12-DIOXYGENASE-RXN
ASE11_21040	Unknown	BIOTINLIG-RXN;RXN0-7192
ASE11_09715	Unknown	RXN0-1441
ASE11_06125	Unknown	RXN-7682;RXN0-901
ASE11_10030	Unknown	MYO-INOSITOL-1OR-4-MONOPHOSPHATASE-RXN;RXN-7253;RXN0-5408
ASE11_07675	Unknown	GLYOXI-RXN
ASE11_09665	Unknown	2.3.2.13-RXN;RXN-19236
ASE11_21680	Unknown	2-HALOACID-DEHALOGENASE-RXN;3.8.1.11-RXN;RXN-6263;RXN-6264
ASE11_13880	Unknown	PEPTIDYLPROLYL-ISOMERASE-RXN
ASE11_23415	Unknown	UROCANATE-HYDRATASE-RXN
ASE11_24445	Unknown	CYTOCHROME-C-OXIDASE-RXN;RXN-15830
ASE11_11905	Unknown	THREONINE--TRNA-LIGASE-RXN
ASE11_21865	Unknown	RXN0-4261
ASE11_03415	Unknown	SPERMIDINESYN-RXN
ASE11_09090	Unknown	PHOSPHAGLYPSYN-RXN
ASE11_16735	Unknown	ACYLCOADEHYDROG-RXN;RXN-17775;RXN-17779;RXN-17783;RXN-17784;RXN-17788;RXN-17792;RXN-17796
ASE11_22860	Unknown	GLYOXIII-RXN
ASE11_10585	Unknown	CYCLOHEXANONE-MONOOXYGENASE-RXN
ASE11_08160	Unknown	PEPTIDYLPROLYL-ISOMERASE-RXN
ASE11_05765	Unknown	ATPASE-RXN
ASE11_04810	Unknown	METHYLMALONYL-COA-MUT-RXN
ASE11_18285	Unknown	ACYLCOADEHYDROG-RXN;RXN-17775;RXN-17779;RXN-17783;RXN-17784;RXN-17788;RXN-17792;RXN-17796
ASE11_21135	Unknown	ASPARTATE-RACEMASE-RXN
ASE11_17805	Unknown	ACYLCOADEHYDROG-RXN;RXN-17775;RXN-17779;RXN-17783;RXN-17784;RXN-17788;RXN-17792;RXN-17796
ASE11_17160	Unknown	RXN0-1133
ASE11_13125	Unknown	LUMAZINESYN-RXN
ASE11_23335	Unknown	RXN0-305
ASE11_24845	Unknown	BENZENE-12-DIOXYGENASE-RXN
ASE11_09700	Unknown	GLUTAMATE-DEHYDROGENASE-RXN
ASE11_00885	Unknown	PYRNUTRANSHYDROGEN-RXN;TRANS-RXN0-277
ASE11_13530	Unknown	2-OCTAPRENYL-6-OHPHENOL-METHY-RXN;DHHB-METHYLTRANSFER-RXN
ASE11_20440	Unknown	RXNN-386
ASE11_20865	Unknown	GSADENYLATION-RXN
ASE11_00025	Unknown	RXN0-2584
ASE11_17840	Unknown	METHYLCROTONYL-COA-CARBOXYLASE-RXN
ASE11_10400	Unknown	DTMPKI-RXN
ASE11_07835	Unknown	GLYOXIII-RXN
ASE11_04070	Unknown	CDPDIGLYSYN-RXN;RXN0-5515
ASE11_11770	Unknown	ACETYL-COA-ACETYLTRANSFER-RXN;METHYLACETOACETYLCOATHIOL-RXN;RXN-12561
ASE11_14530	Unknown	GLYOXIII-RXN
ASE11_12445	Unknown	DNA-DIRECTED-DNA-POLYMERASE-RXN;RXN0-4961
ASE11_20250	Unknown	2.7.3.9-RXN;RXN-17354;RXN-17355
ASE11_14255	Unknown	RXN0-6274
ASE11_03815	Unknown	GDP-MANNOSE-6-DEHYDROGENASE-RXN
ASE11_07790	Unknown	ADDALT-RXN;ADENODEAMIN-RXN
ASE11_02420	Unknown	3-ISOPROPYLMALISOM-RXN;RXN-13163;RXN-8991
ASE11_05845	Unknown	MALATE-DEH-RXN
ASE11_07505	Unknown	THIAZOLSYN2-RXN
ASE11_21500	Unknown	RXN-14264;RXN0-2301
ASE11_03630	Unknown	RXN0-1441
ASE11_02730	Unknown	RXN0-5131
ASE11_02555	Unknown	RXN3DJ-170;RXN66-221
ASE11_06145	Unknown	ALLANTOINASE-RXN
ASE11_14955	Unknown	ATPASE-RXN
ASE11_07750	Unknown	RXN0-3221
ASE11_13385	Unknown	3-DEHYDROQUINATE-DEHYDRATASE-RXN
ASE11_19350	Unknown	ACETYL-COA-ACETYLTRANSFER-RXN;METHYLACETOACETYLCOATHIOL-RXN;RXN-12561
ASE11_13355	Unknown	GCVP-RXN
ASE11_03010	Unknown	2-HALOACID-DEHALOGENASE-RXN
ASE11_24860	Unknown	HCAMULTI-RXN;RXN-12072
ASE11_24040	Unknown	RXN0-743
ASE11_11430	Unknown	RIB5PISOM-RXN
ASE11_05470	Unknown	AIRS-RXN
ASE11_19475	Unknown	2.7.13.3-RXN
ASE11_18350	Unknown	METHYLCROTONYL-COA-CARBOXYLASE-RXN
ASE11_23910	Unknown	PYRROLINECARBREDUCT-RXN;RXN66-546
ASE11_12820	Unknown	PROTOHEMEFERROCHELAT-RXN
ASE11_14220	Unknown	RXN-10078;RXN-10079;RXN-9912;RXN-9914;SALICYLATE-1-MONOOXYGENASE-RXN
ASE11_01035	Unknown	PEPTIDYLPROLYL-ISOMERASE-RXN
ASE11_03685	Unknown	CYTOCHROME-C-OXIDASE-RXN;RXN-15830
ASE11_10545	Unknown	ACYLCOASYN-RXN;LINOLENOYL-RXN;R223-RXN;RXN-12184;RXN-12978;RXN-13290;RXN-13614;RXN-16380;RXN-16389;RXN-16393;RXN-16401;RXN-16402;RXN-16415;RXN-16418;RXN-7904;RXN-9623;RXN-9644;RXN-9673;RXN0-7238;RXN0-7239;RXN0-7248;RXN66-469;RXN66-477;RXN66-480;RXN66-483;RXN66-484;TRANS-RXN0-623
ASE11_06235	Unknown	ADPREDUCT-RXN;CDPREDUCT-RXN;GDPREDUCT-RXN;RIBONUCLEOSIDE-DIP-REDUCTI-RXN;RIBONUCLEOSIDE-DIP-REDUCTII-RXN;RXN0-722;RXN0-747;RXN0-748;UDPREDUCT-RXN
ASE11_23950	Unknown	AMIDASE-RXN;GUANIDINOBUTANAMIDE-NH3-RXN;PYRAZIN-RXN;R311-RXN;RXN-14727;RXN-14728;RXN-17608;RXNN-404
ASE11_22125	Unknown	5.3.4.1-RXN;DISULISOM-RXN
ASE11_03140	Unknown	4.2.1.41-RXN
ASE11_00965	Unknown	2.7.13.3-RXN
ASE11_18065	Unknown	ACYLCOASYN-RXN;LINOLENOYL-RXN;R223-RXN;RXN-12184;RXN-12702;RXN-12746;RXN-12978;RXN-13290;RXN-13614;RXN-16380;RXN-16389;RXN-16393;RXN-16401;RXN-16402;RXN-16415;RXN-16418;RXN-7904;RXN-9623;RXN-9644;RXN-9673;RXN0-7238;RXN0-7239;RXN0-7248;RXN66-469;RXN66-477;RXN66-480;RXN66-483;RXN66-484;TRANS-RXN0-623
ASE11_01025	Unknown	2-NITROPROPANE-DIOXYGENASE-RXN
ASE11_23640	Unknown	DIENOYLCOAREDUCT-RXN;RXN-12521;RXN-14715;RXN-14776;RXN-14790;RXN-7835;RXN-7911
ASE11_17745	Unknown	ACYLCOADEHYDROG-RXN;RXN-17775;RXN-17779;RXN-17783;RXN-17784;RXN-17788;RXN-17792;RXN-17796
ASE11_10620	Unknown	PENICILLIN-AMIDASE-RXN;RXN-17099
ASE11_09595	Unknown	ACYLCOADEHYDROG-RXN;RXN-17775;RXN-17779;RXN-17783;RXN-17784;RXN-17788;RXN-17792;RXN-17796
ASE11_07185	Unknown	GENTISATE-12-DIOXYGENASE-RXN;RXN-16945;RXN-16947
ASE11_16870	Unknown	ENOYL-COA-HYDRAT-RXN;METHYLACYLYLCOA-HYDROXY-RXN;RXN-10697;RXN-10704;RXN-10705;RXN-11244;RXN-12567;RXN-13616;RXN-14266;RXN-14272;RXN-14273;RXN-16135;RXN-16558;RXN-17114;RXN-17475;RXN-17776;RXN-17780;RXN-17785;RXN-17789;RXN-17793;RXN-17797;RXN-2425;RXN0-5393;TIGLYLCOA-HYDROXY-RXN
ASE11_11325	Unknown	POLYPHOSPHATE-KINASE-RXN
ASE11_10685	Unknown	4.2.3.12-RXN
ASE11_24715	Unknown	KDO-8PPHOSPHAT-RXN
ASE11_07590	Unknown	2.7.13.3-RXN
ASE11_08810	hisG	ATPPHOSPHORIBOSYLTRANS-RXN
ASE11_02960	Unknown	ACETATEKIN-RXN
ASE11_14305	Unknown	PGLUCONDEHYDRAT-RXN
ASE11_00030	trpC	IGPSYN-RXN
ASE11_15320	Unknown	2.8.1.6-RXN;RXN-17472;RXN-17473
ASE11_08865	gltD	GLUTAMATESYN-RXN;GLUTAMIN-RXN;GLUTDEHYD-RXN
ASE11_17810	Unknown	METHYLCROTONYL-COA-CARBOXYLASE-RXN
ASE11_07180	Unknown	FUMARYLACETOACETASE-RXN
ASE11_18160	Unknown	CARBPSYN-RXN;GLUTAMIN-RXN;RXN-13202;RXN-14196;RXN-16909;RXN-16910
ASE11_05970	Unknown	RXN0-5462
ASE11_23935	Unknown	RXN0-1342
ASE11_11845	Unknown	RXN0-1441
ASE11_20630	Unknown	UDPGLUCEPIM-RXN
ASE11_19355	Unknown	ACYLCOADEHYDROG-RXN;RXN-17775;RXN-17779;RXN-17783;RXN-17784;RXN-17788;RXN-17792;RXN-17796
ASE11_07890	Unknown	ARGININE-DEIMINASE-RXN
ASE11_09150	Unknown	GLYCERATE-DEHYDROGENASE-RXN;HYDROXYPYRUVATE-REDUCTASE-RXN
ASE11_11360	Unknown	RXN-982
ASE11_17965	Unknown	1.5.5.1-RXN;RXN66-550
ASE11_04700	Unknown	ACYLCOADEHYDROG-RXN;RXN-17775;RXN-17779;RXN-17783;RXN-17784;RXN-17788;RXN-17792;RXN-17796
ASE11_03430	Unknown	3.1.21.1-RXN
ASE11_21470	Unknown	RXN-9591
ASE11_08890	Unknown	3-DEHYDROQUINATE-SYNTHASE-RXN
ASE11_06030	fabG	3-OXOACYL-ACP-REDUCT-RXN;RXN-10060;RXN-10655;RXN-10659;RXN-11476;RXN-11480;RXN-13008;RXN-16616;RXN-16622;RXN-16626;RXN-16630;RXN-9514;RXN-9518;RXN-9524;RXN-9528;RXN-9532;RXN-9536;RXN-9540;RXN-9552;RXN-9556;RXN-9633;RXN0-2142;RXN1G-157;RXN1G-349;RXN1G-469;RXN1G-508
ASE11_25090	Unknown	2.7.13.3-RXN
ASE11_04005	pyrB	ASPCARBTRANS-RXN
ASE11_07470	Unknown	F16BDEPHOS-RXN
ASE11_09550	Unknown	3-OXOACYL-ACP-REDUCT-RXN;RXN-10060;RXN-10655;RXN-10659;RXN-11476;RXN-11480;RXN-13008;RXN-16616;RXN-16622;RXN-16626;RXN-16630;RXN-9514;RXN-9518;RXN-9524;RXN-9528;RXN-9532;RXN-9536;RXN-9540;RXN-9552;RXN-9556;RXN-9633;RXN0-2142;RXN1G-157;RXN1G-349;RXN1G-469;RXN1G-508
ASE11_14360	Unknown	ATPASE-RXN
ASE11_01270	gatB	6.3.5.7-RXN
ASE11_05950	Unknown	3.2.1.52-RXN;RXN-12625;RXN-12626;RXN-18082;RXN0-5226
ASE11_11320	Unknown	RXN-17131;RXN-17132;RXN-17133
ASE11_00050	Unknown	ANTHRANSYN-RXN
ASE11_15175	Unknown	RXN0-2621
ASE11_09335	Unknown	HOMOCYSMET-RXN;HOMOCYSMETB12-RXN
ASE11_00750	Unknown	CYTOCHROME-C-OXIDASE-RXN;RXN-15830
ASE11_20915	Unknown	GSHTRAN-RXN;GST-RXN;RXN-11663;RXN-13673;RXN-15680;RXN-18405;RXN-18407;RXNQT-4363
ASE11_01670	Unknown	2.7.13.3-RXN
ASE11_07645	Unknown	2.7.13.3-RXN
ASE11_24900	Unknown	3.7.1.8-RXN
ASE11_22170	purH	AICARTRANSFORM-RXN;IMPCYCLOHYDROLASE-RXN
ASE11_07940	Unknown	CYTDEAM-RXN;RXN-14129;RXN-14197
ASE11_19440	Unknown	GLYOXIII-RXN
ASE11_22405	Unknown	SUCCGLUDESUCC-RXN
ASE11_00555	Unknown	RXN-2
ASE11_20580	Unknown	DTDPGLUCOSEPP-RXN
ASE11_17370	Unknown	2.7.7.60-RXN
ASE11_19550	Unknown	ENOYL-COA-HYDRAT-RXN;METHYLACYLYLCOA-HYDROXY-RXN;RXN-10697;RXN-10704;RXN-10705;RXN-11244;RXN-12567;RXN-13616;RXN-14266;RXN-14272;RXN-14273;RXN-16135;RXN-16558;RXN-17114;RXN-17475;RXN-17776;RXN-17780;RXN-17785;RXN-17789;RXN-17793;RXN-17797;RXN-2425;RXN0-5393;TIGLYLCOA-HYDROXY-RXN
ASE11_18715	Unknown	ATPASE-RXN
ASE11_18850	Unknown	RXN0-5131
ASE11_11000	Unknown	1.8.4.8-RXN
ASE11_08815	Unknown	UDPNACETYLGLUCOSAMENOLPYRTRANS-RXN
ASE11_08770	hisI	HISTCYCLOHYD-RXN
ASE11_22265	Unknown	GLUCOKIN-RXN;HEXOKINASE-RXN
ASE11_22610	Unknown	RXN-15122;THREDEHYD-RXN
ASE11_12205	Unknown	ACYLCOADEHYDROG-RXN;RXN-17775;RXN-17779;RXN-17783;RXN-17784;RXN-17788;RXN-17792;RXN-17796
ASE11_17835	Unknown	CARBPSYN-RXN;GLUTAMIN-RXN;RXN-13202;RXN-14196;RXN-16909;RXN-16910
ASE11_01970	Unknown	GABATRANSAM-RXN;RXN-2901
ASE11_16500	Unknown	QUINOPRIBOTRANS-RXN
ASE11_23190	Unknown	2.7.13.3-RXN
ASE11_18390	Unknown	ACYLCOADEHYDROG-RXN;RXN-17775;RXN-17779;RXN-17783;RXN-17784;RXN-17788;RXN-17792;RXN-17796
ASE11_07255	Unknown	PRPPAMIDOTRANS-RXN
ASE11_02820	Unknown	RXN0-2661
ASE11_08510	Unknown	RXN-9235
ASE11_13730	Unknown	2.7.13.3-RXN
ASE11_07490	Unknown	OHMETPYRKIN-RXN;PYRIMSYN3-RXN
ASE11_05500	Unknown	ACETYLORNTRANSAM-RXN;RXN-15007
ASE11_02120	Unknown	RXN0-4961
ASE11_20445	Unknown	GLUCOSE-1-DEHYDROGENASE-RXN
ASE11_21300	Unknown	R4-RXN
ASE11_04855	Unknown	GSHTRAN-RXN;GST-RXN;RXN-11663;RXN-13673;RXN-15680;RXN-18405;RXN-18407;RXNQT-4363
ASE11_07165	Unknown	NAPHTHALENE-12-DIOXYGENASE-RXN
ASE11_06500	Unknown	RXN0-5289;TSA-REDUCT-RXN
ASE11_15220	Unknown	ASPAMINOTRANS-RXN;RXN-10814;RXN-11737;RXN-13697
ASE11_18260	Unknown	2.8.1.6-RXN;RXN-17472;RXN-17473
ASE11_09825	Unknown	ASPAMINOTRANS-RXN;RXN-10814;RXN-11737;RXN-13697
ASE11_18290	Unknown	RXN-10622
ASE11_07690	Unknown	R4-RXN
ASE11_21930	Unknown	RXN0-5419
