#
#  gca_001425625_1_root102cyc 1.0 Genes link table generated on Mon Dec 3, 2018
#  All columns are separated by tab characters.
#  Columns are: 
#
#  GENE-ID  EG#  b#  y-name  CGSC-ID  UniProt-ID  GENE-NAME  
#
#   GENE-ID      = Pathway Tools unique identifier for the gene
#   UniProt-ID = Swiss-Prot identifier
#   GENE-NAME    = Pathway Tools gene name
#
#
ASD12_23930			
ASD12_12785			
ASD12_27110			
ASD12_23935			
ASD12_23940			
ASD12_12790			
ASD12_12795			
ASD12_23945			
ASD12_29325		rpsJ	
ASD12_12800			
ASD12_29330			
ASD12_12805			
ASD12_12810			
ASD12_23955			
ASD12_29335			
ASD12_29340			
ASD12_12815			
ASD12_12820		ileS	
ASD12_29345		rplB	
ASD12_12825			
ASD12_23970			
ASD12_29350			
ASD12_04870			
ASD12_12830			
ASD12_29355			
ASD12_12835			
ASD12_23980			
ASD12_29360			
ASD12_23985			
ASD12_12840			
ASD12_29365			
ASD12_29370			
ASD12_12845			
ASD12_21880			
ASD12_29375			
ASD12_12850			
ASD12_29380			
ASD12_12855			
ASD12_29385			
ASD12_24005			
ASD12_12860			
ASD12_12865			
ASD12_29390			
ASD12_29395			
ASD12_12870			
ASD12_24020			
ASD12_29400			
ASD12_12875			
ASD12_29405			
ASD12_24025			
ASD12_22410			
ASD12_12885			
ASD12_29410			
ASD12_29415			
ASD12_12890			
ASD12_12895			
ASD12_29420			
ASD12_29425			
ASD12_12900			
ASD12_22635			
ASD12_12905			
ASD12_29430			
ASD12_28255			
ASD12_12910			
ASD12_29805			
ASD12_12915			
ASD12_29440			
ASD12_26360			
ASD12_12920			
ASD12_29445			
ASD12_12925			
ASD12_29450			
ASD12_06480		ispG	
ASD12_12930			
ASD12_12935			
ASD12_29460			
ASD12_12940			
ASD12_29465			
ASD12_12945			
ASD12_29475			
ASD12_12950			
ASD12_12955			
ASD12_29480			
ASD12_12960			
ASD12_29485			
ASD12_29490			
ASD12_12965			
ASD12_12970			
ASD12_29500			
ASD12_12975			
ASD12_29505			
ASD12_12980			
ASD12_29510			
ASD12_12985			
ASD12_12990			
ASD12_29515			
ASD12_12995			
ASD12_29520			
ASD12_13000			
ASD12_13005			
ASD12_29535			
ASD12_13010			
ASD12_29540			
ASD12_13015			
ASD12_29545			
ASD12_13020			
ASD12_13025		tdh	
ASD12_29550			
ASD12_29555			
ASD12_13030			
ASD12_13035			
ASD12_29560			
ASD12_13040			
ASD12_29565			
ASD12_29570			
ASD12_13045			
ASD12_29575			
ASD12_22785			
ASD12_13050			
ASD12_29580		sseA	
ASD12_13055			
ASD12_13060			
ASD12_29585			
ASD12_29590			
ASD12_13065			
ASD12_29595			
ASD12_13070			
ASD12_29600			
ASD12_13075			
ASD12_29605			
ASD12_13080			
ASD12_29610			
ASD12_13085			
ASD12_29615			
ASD12_13090			
ASD12_13095			
ASD12_29620			
ASD12_22015			
ASD12_29625		cpdB	
ASD12_13100			
ASD12_29630			
ASD12_13105			
ASD12_29635			
ASD12_13110			
ASD12_29640			
ASD12_13115			
ASD12_29645			
ASD12_13120			
ASD12_29650			
ASD12_13125			
ASD12_29655			
ASD12_29660		eno	
ASD12_13135			
ASD12_13140			
ASD12_29665			
ASD12_29830			
ASD12_13145			
ASD12_29670			
ASD12_13150			
ASD12_29675			
ASD12_13155			
ASD12_29685			
ASD12_13160			
ASD12_29690			
ASD12_13165			
ASD12_29695			
ASD12_13175			
ASD12_29700			
ASD12_13180			
ASD12_29705			
ASD12_13190			
ASD12_29710			
ASD12_29715			
ASD12_13195			
ASD12_29720		ispDF	
ASD12_13200			
ASD12_29725			
ASD12_13205			
ASD12_29730			
ASD12_13210			
ASD12_13215			
ASD12_29735			
ASD12_29740			
ASD12_13220			
ASD12_29745			
ASD12_13225			
ASD12_13230			
ASD12_29750			
ASD12_29755			
ASD12_13235			
ASD12_29760			
ASD12_13240			
ASD12_29765			
ASD12_29770			
ASD12_13250			
ASD12_13255			
ASD12_29775			
ASD12_29780			
ASD12_13260			
ASD12_29785			
ASD12_13265			
ASD12_29790			
ASD12_13270			
ASD12_29795			
ASD12_13275			
ASD12_13280			
ASD12_13285			
ASD12_29810			
ASD12_13290			
ASD12_29815			
ASD12_13295			
ASD12_13300			
ASD12_29820			
ASD12_29825			
ASD12_13305			
ASD12_13310			
ASD12_26740			
ASD12_29835			
ASD12_13315			
ASD12_22215			
ASD12_13320			
ASD12_29840			
ASD12_13325			
ASD12_22255			
ASD12_29850			
ASD12_13330			
ASD12_29855			
ASD12_13335			
ASD12_29860			
ASD12_13340			
ASD12_13345			
ASD12_29865			
ASD12_13350			
ASD12_29870			
ASD12_13355			
ASD12_28165			
ASD12_13360			
ASD12_29890			
ASD12_13365			
ASD12_29895			
ASD12_13370		glyA	
ASD12_13375			
ASD12_13380			
ASD12_05595			
ASD12_13385			
ASD12_13390			
ASD12_13395			
ASD12_22150			
ASD12_13400			
ASD12_13405			
ASD12_13415			
ASD12_13420			
ASD12_13425			
ASD12_13430			
ASD12_13435		hppA	
ASD12_13440			
ASD12_13445			
ASD12_13450			
ASD12_22745			
ASD12_13455			
ASD12_13460			
ASD12_22250			
ASD12_13465			
ASD12_21735			
ASD12_13470			
ASD12_13475			
ASD12_22415			
ASD12_13480			
ASD12_13485			
ASD12_13490			
ASD12_13495			
ASD12_22955			
ASD12_13500			
ASD12_13505			
ASD12_13510			
ASD12_22400			
ASD12_13515			
ASD12_13520			
ASD12_13535			
ASD12_23065			
ASD12_13540			
ASD12_13545			
ASD12_22705			
ASD12_13550			
ASD12_13555			
ASD12_13560			
ASD12_13565			
ASD12_13570			
ASD12_22820			
ASD12_13575			
ASD12_22165		narZ	
ASD12_13580			
ASD12_13585			
ASD12_13590			
ASD12_13595			
ASD12_13600			
ASD12_13605			
ASD12_13610			
ASD12_13615			
ASD12_21960			
ASD12_13620			
ASD12_13625			
ASD12_13630			
ASD12_13635			
ASD12_13640			
ASD12_13645			
ASD12_13650			
ASD12_21900			
ASD12_13655			
ASD12_13660			
ASD12_13665			
ASD12_21190			
ASD12_13670			
ASD12_13675			
ASD12_13680		clpP	
ASD12_13685			
ASD12_22795			
ASD12_13690			
ASD12_13695			
ASD12_13700			
ASD12_13705			
ASD12_13710			
ASD12_13715			
ASD12_22550			
ASD12_13720			
ASD12_29010			
ASD12_13725			
ASD12_29015			
ASD12_13730			
ASD12_13735			
ASD12_22535			
ASD12_29020			
ASD12_29025			
ASD12_13740			
ASD12_13755			
ASD12_29030			
ASD12_29035			
ASD12_22525			
ASD12_13760			
ASD12_29040			
ASD12_22530			
ASD12_13765			
ASD12_29045			
ASD12_13770			
ASD12_13775			
ASD12_22555			
ASD12_29050			
ASD12_22545			
ASD12_29055			
ASD12_13780			
ASD12_29060			
ASD12_13785			
ASD12_22560			
ASD12_13790			
ASD12_29070			
ASD12_13795			
ASD12_29075			
ASD12_22565			
ASD12_13800			
ASD12_29080			
ASD12_13805			
ASD12_22575			
ASD12_13810			
ASD12_29085		guaA	
ASD12_23320			
ASD12_29090			
ASD12_13815			
ASD12_13820			
ASD12_29095			
ASD12_22645			
ASD12_22590			
ASD12_29100			
ASD12_13825			
ASD12_27960			
ASD12_29105			
ASD12_13830			
ASD12_29110			
ASD12_13835			
ASD12_22605			
ASD12_13840			
ASD12_29115			
ASD12_13845		sufC	
ASD12_29120			
ASD12_13850			
ASD12_29125			
ASD12_22620			
ASD12_29130			
ASD12_13855			
ASD12_13860			
ASD12_22630			
ASD12_29135			
ASD12_29140			
ASD12_13865			
ASD12_29145			
ASD12_13870			
ASD12_29150			
ASD12_13875			
ASD12_22680			
ASD12_29155			
ASD12_22650			
ASD12_13880			
ASD12_29160			
ASD12_13885			
ASD12_29165			
ASD12_13890			
ASD12_29170			
ASD12_22665			
ASD12_13895			
ASD12_13900			
ASD12_29175			
ASD12_22670			
ASD12_13905			
ASD12_29180			
ASD12_13910			
ASD12_29185			
ASD12_22675			
ASD12_13915			
ASD12_29190			
ASD12_22685			
ASD12_29195			
ASD12_13920			
ASD12_22690			
ASD12_29200			
ASD12_13925			
ASD12_13930			
ASD12_27345			
ASD12_22695			
ASD12_29205			
ASD12_23035			
ASD12_27900			
ASD12_22700			
ASD12_29210			
ASD12_13935			
ASD12_29215			
ASD12_13940			
ASD12_29220			
ASD12_22710			
ASD12_13950			
ASD12_13945			
ASD12_29225			
ASD12_22715			
ASD12_22910			
ASD12_13955			
ASD12_29230			
ASD12_13960			
ASD12_22730			
ASD12_29235			
ASD12_29240			
ASD12_22735			
ASD12_13965			
ASD12_22755			
ASD12_29245			
ASD12_13970			
ASD12_29250			
ASD12_22750			
ASD12_13975			
ASD12_29255			
ASD12_13980			
ASD12_13985			
ASD12_29260			
ASD12_22760			
ASD12_13990			
ASD12_29265			
ASD12_22765			
ASD12_29270			
ASD12_13995			
ASD12_29275			
ASD12_14000			
ASD12_22860			
ASD12_29280			
ASD12_14005			
ASD12_29285			
ASD12_22780			
ASD12_14010			
ASD12_29290			
ASD12_22790			
ASD12_14015			
ASD12_29295			
ASD12_14020			
ASD12_29300			
ASD12_14025			
ASD12_29305			
ASD12_14030			
ASD12_22805			
ASD12_14035			
ASD12_29310			
ASD12_22810			
ASD12_14040			
ASD12_14045			
ASD12_22815			
ASD12_29320			
ASD12_22850			
ASD12_22875			
ASD12_14050			
ASD12_14055			
ASD12_20890			
ASD12_22830			
ASD12_14060			
ASD12_14065			
ASD12_22840			
ASD12_14070			
ASD12_22845			
ASD12_14075			
ASD12_14080			
ASD12_22855			
ASD12_14085			
ASD12_14090			
ASD12_14095			
ASD12_22870			
ASD12_14100			
ASD12_14105			
ASD12_22880			
ASD12_14110			
ASD12_22885			
ASD12_22890			
ASD12_14120			
ASD12_14125			
ASD12_14130			
ASD12_22900			
ASD12_22905			
ASD12_14135			
ASD12_14140			
ASD12_14145			
ASD12_22915			
ASD12_14150			
ASD12_22920			
ASD12_22930			
ASD12_22925			
ASD12_14155			
ASD12_14160			
ASD12_14165			
ASD12_23040			
ASD12_14170			
ASD12_14175			
ASD12_22950			
ASD12_14180			
ASD12_22960			
ASD12_14185			
ASD12_22965			
ASD12_14190			
ASD12_14195			
ASD12_14200			
ASD12_22975			
ASD12_14205			
ASD12_23160			
ASD12_14210			
ASD12_14215			
ASD12_23050			
ASD12_22990			
ASD12_14220			
ASD12_22995			
ASD12_14225			
ASD12_23000		metX	
ASD12_14230			
ASD12_14235			
ASD12_23010			
ASD12_23015			
ASD12_23240			
ASD12_23025			
ASD12_11985			
ASD12_23045			
ASD12_23055			
ASD12_23060			
ASD12_23070			
ASD12_23080			
ASD12_23100			
ASD12_23205			
ASD12_23285			
ASD12_23120			
ASD12_08840			
ASD12_23130			
ASD12_23135			
ASD12_23145			
ASD12_23200			
ASD12_23175			
ASD12_23155			
ASD12_23150			
ASD12_28705			
ASD12_28710		mscL	
ASD12_23170			
ASD12_28715			
ASD12_28720			
ASD12_23185			
ASD12_20940			
ASD12_23180			
ASD12_28725			
ASD12_28730			
ASD12_23190			
ASD12_28735			
ASD12_23195			
ASD12_28740			
ASD12_23210			
ASD12_28750			
ASD12_28755			
ASD12_23215			
ASD12_23220			
ASD12_28760			
ASD12_28765			
ASD12_23225			
ASD12_28775			
ASD12_28780			
ASD12_23290			
ASD12_28790			
ASD12_28795			
ASD12_23245			
ASD12_23270			
ASD12_23250			
ASD12_28800			
ASD12_23255			
ASD12_28805			
ASD12_28810			
ASD12_28815			
ASD12_23265			
ASD12_28820			
ASD12_28825			
ASD12_23280			
ASD12_28830		hslO	
ASD12_23295			
ASD12_28835			
ASD12_28840			
ASD12_28845			
ASD12_28850			
ASD12_23300			
ASD12_28855			
ASD12_23305			
ASD12_28860			
ASD12_23330			
ASD12_23315			
ASD12_28865			
ASD12_28870			
ASD12_28875			
ASD12_28880			
ASD12_23335			
ASD12_28885			
ASD12_23340			
ASD12_28890			
ASD12_28895		lysK	
ASD12_23350			
ASD12_28900			
ASD12_23355			
ASD12_28905			
ASD12_28910			
ASD12_23360			
ASD12_28915			
ASD12_28920			
ASD12_28925			
ASD12_28930			
ASD12_28935			
ASD12_28940			
ASD12_28945			
ASD12_28950			
ASD12_22430			
ASD12_28960			
ASD12_28965			
ASD12_28970			
ASD12_28975			
ASD12_28980			
ASD12_28985			
ASD12_28990			
ASD12_28995			
ASD12_29000			
ASD12_29005			
ASD12_26980			
ASD12_28370			
ASD12_28375			
ASD12_28380			
ASD12_28385		dppD	
ASD12_28390			
ASD12_28395			
ASD12_28405			
ASD12_28420			
ASD12_28425			
ASD12_28430			
ASD12_28435			
ASD12_28440			
ASD12_28445			
ASD12_28450			
ASD12_28455			
ASD12_28460			
ASD12_28465			
ASD12_28475			
ASD12_28480			
ASD12_28485			
ASD12_28490			
ASD12_28495			
ASD12_28500			
ASD12_28505			
ASD12_28510			
ASD12_28515			
ASD12_28525			
ASD12_28530			
ASD12_28535			
ASD12_28540			
ASD12_28545			
ASD12_28550			
ASD12_28555			
ASD12_25565			
ASD12_28560			
ASD12_28565			
ASD12_28570			
ASD12_28575			
ASD12_28580			
ASD12_28585			
ASD12_28590			
ASD12_28595			
ASD12_28600			
ASD12_28605			
ASD12_28610			
ASD12_28615			
ASD12_28620		prfC	
ASD12_28625			
ASD12_28630			
ASD12_28640			
ASD12_28645			
ASD12_28650			
ASD12_28655			
ASD12_28660			
ASD12_28665			
ASD12_28670			
ASD12_28675			
ASD12_28680			
ASD12_28685			
ASD12_28690			
ASD12_28695			
ASD12_23545			
ASD12_23515			
ASD12_21705			
ASD12_21710			
ASD12_21720			
ASD12_21725			
ASD12_21730			
ASD12_21740			
ASD12_21745			
ASD12_21750			
ASD12_21760			
ASD12_21765			
ASD12_21770			
ASD12_21775			
ASD12_21780			
ASD12_21785			
ASD12_21800			
ASD12_21795			
ASD12_21805			
ASD12_21810			
ASD12_21815			
ASD12_21820			
ASD12_21830			
ASD12_21825			
ASD12_21855			
ASD12_21835			
ASD12_21845			
ASD12_21850		pgi	
ASD12_21860			
ASD12_21865			
ASD12_21875			
ASD12_21885			
ASD12_21905			
ASD12_21890			
ASD12_23090			
ASD12_21895			
ASD12_21910			
ASD12_21915			
ASD12_21940			
ASD12_21930			
ASD12_21935			
ASD12_21945			
ASD12_21955			
ASD12_21970			
ASD12_21980			
ASD12_21985			
ASD12_22045			
ASD12_22005			
ASD12_22025			
ASD12_22020			
ASD12_28035			
ASD12_28040			
ASD12_28045			
ASD12_22030			
ASD12_28050			
ASD12_22035			
ASD12_28055			
ASD12_22060			
ASD12_22040			
ASD12_28060			
ASD12_28065			
ASD12_22050			
ASD12_28070			
ASD12_22055			
ASD12_28075			
ASD12_28080			
ASD12_22065			
ASD12_28085			
ASD12_22100			
ASD12_28090			
ASD12_22075			
ASD12_28095			
ASD12_28100			
ASD12_22085			
ASD12_28105			
ASD12_22090			
ASD12_28110			
ASD12_22095			
ASD12_28115			
ASD12_28120			
ASD12_28125			
ASD12_22110			
ASD12_28130			
ASD12_22115			
ASD12_28135			
ASD12_28140			
ASD12_22125			
ASD12_28145			
ASD12_22140			
ASD12_28155			
ASD12_28160			
ASD12_22460			
ASD12_28170			
ASD12_28175			
ASD12_22160		narH	
ASD12_28180			
ASD12_22170			
ASD12_28185			
ASD12_28190			
ASD12_22180			
ASD12_28195			
ASD12_28200			
ASD12_28205			
ASD12_22190			
ASD12_28210			
ASD12_28220			
ASD12_10645			
ASD12_22205			
ASD12_22220			
ASD12_28225			
ASD12_10650			
ASD12_28230			
ASD12_10655			
ASD12_28235			
ASD12_22235			
ASD12_28240			
ASD12_10660			
ASD12_22230			
ASD12_28245			
ASD12_10665			
ASD12_28250			
ASD12_10670			
ASD12_22240			
ASD12_10675			
ASD12_28260			
ASD12_10680			
ASD12_28265			
ASD12_10685			
ASD12_22260			
ASD12_10690			
ASD12_28270			
ASD12_22370			
ASD12_28275			
ASD12_10695			
ASD12_28280			
ASD12_22265			
ASD12_22305			
ASD12_10700			
ASD12_10705			
ASD12_22275			
ASD12_28285			
ASD12_22280			
ASD12_28290			
ASD12_10710			
ASD12_28295			
ASD12_28300			
ASD12_22300		fabG	
ASD12_10720			
ASD12_28305			
ASD12_22310			
ASD12_10725			
ASD12_28310			
ASD12_10730			
ASD12_28315			
ASD12_10735			
ASD12_28320			
ASD12_10740			
ASD12_28325			
ASD12_03905			
ASD12_10745			
ASD12_22315			
ASD12_10750			
ASD12_28330			
ASD12_22325			
ASD12_22320			
ASD12_28335			
ASD12_10755			
ASD12_28340			
ASD12_10760			
ASD12_28345			
ASD12_22330			
ASD12_22355			
ASD12_10765			
ASD12_28350			
ASD12_10770			
ASD12_22340			
ASD12_10775			
ASD12_28355			
ASD12_22345			
ASD12_10780			
ASD12_28360			
ASD12_22350			
ASD12_10785			
ASD12_10790			
ASD12_05935			
ASD12_10795			
ASD12_22365			
ASD12_10800			
ASD12_22395			
ASD12_10805			
ASD12_21055			
ASD12_10810			
ASD12_10815			
ASD12_22385			
ASD12_22390			
ASD12_10820			
ASD12_10825			
ASD12_10830			
ASD12_10835			
ASD12_22405			
ASD12_10840			
ASD12_10845			
ASD12_10850		dnaK	
ASD12_22420			
ASD12_22475			
ASD12_10855			
ASD12_10860			
ASD12_22435			
ASD12_10865			
ASD12_10870			
ASD12_22440			
ASD12_10875			
ASD12_10880			
ASD12_22445			
ASD12_10885			
ASD12_10890			
ASD12_10895			
ASD12_22470			
ASD12_10900			
ASD12_22485			
ASD12_10905			
ASD12_22480			
ASD12_10910			
ASD12_10915			
ASD12_10920			
ASD12_22495			
ASD12_10925			
ASD12_22500			
ASD12_10930			
ASD12_10935			
ASD12_10940			
ASD12_10945			
ASD12_11865			
ASD12_10955			
ASD12_10960			
ASD12_10965			
ASD12_10970			
ASD12_10980			
ASD12_25715			
ASD12_10985			
ASD12_10990			
ASD12_10995			
ASD12_11000			
ASD12_11005			
ASD12_11015			
ASD12_11020			
ASD12_11025			
ASD12_11030			
ASD12_11035			
ASD12_11040			
ASD12_11045			
ASD12_11050			
ASD12_11055			
ASD12_11060			
ASD12_11065			
ASD12_11070			
ASD12_11075			
ASD12_11080			
ASD12_11085			
ASD12_11090			
ASD12_11095			
ASD12_11100			
ASD12_11105			
ASD12_11110			
ASD12_11115			
ASD12_11120			
ASD12_11125			
ASD12_11130			
ASD12_11140			
ASD12_11145			
ASD12_11150		rnpA	
ASD12_11155			
ASD12_11160			
ASD12_11165			
ASD12_11170			
ASD12_11175			
ASD12_11180			
ASD12_11185			
ASD12_11190			
ASD12_11195			
ASD12_11200			
ASD12_03645			
ASD12_11205			
ASD12_11210			
ASD12_11215			
ASD12_11220			
ASD12_11225			
ASD12_11230			
ASD12_11235			
ASD12_11240			
ASD12_11245			
ASD12_11250			
ASD12_11255			
ASD12_11260			
ASD12_11265			
ASD12_11270			
ASD12_11275			
ASD12_21030			
ASD12_11280			
ASD12_11285			
ASD12_11290			
ASD12_11295			
ASD12_11300			
ASD12_11305			
ASD12_11310			
ASD12_11315			
ASD12_11320			
ASD12_11325			
ASD12_11330			
ASD12_21230			
ASD12_11340			
ASD12_11345			
ASD12_11350			
ASD12_11355			
ASD12_11360			
ASD12_11365			
ASD12_11370			
ASD12_11375			
ASD12_11380			
ASD12_11385			
ASD12_11390			
ASD12_11395			
ASD12_11400			
ASD12_11405			
ASD12_11410			
ASD12_11415			
ASD12_11420			
ASD12_11425			
ASD12_11430			
ASD12_11435			
ASD12_11440			
ASD12_11445			
ASD12_11450			
ASD12_11455			
ASD12_11460			
ASD12_11465			
ASD12_11470			
ASD12_11475			
ASD12_11480			
ASD12_11485			
ASD12_11490			
ASD12_11495			
ASD12_27340			
ASD12_11500			
ASD12_11505			
ASD12_27350			
ASD12_11510			
ASD12_27355			
ASD12_11515			
ASD12_27360			
ASD12_11520			
ASD12_27365			
ASD12_11525			
ASD12_27370			
ASD12_11530			
ASD12_27375			
ASD12_11535			
ASD12_27380			
ASD12_11540			
ASD12_27385			
ASD12_11545			
ASD12_27390		pyrB	
ASD12_11550			
ASD12_27395			
ASD12_11555			
ASD12_27400			
ASD12_27405			
ASD12_11560			
ASD12_11565			
ASD12_27410			
ASD12_11570			
ASD12_27415			
ASD12_11575			
ASD12_27420			
ASD12_23555			
ASD12_27425			
ASD12_21095			
ASD12_11585			
ASD12_27430			
ASD12_27435		gatA	
ASD12_11590			
ASD12_11595			
ASD12_27440			
ASD12_23020			
ASD12_27445			
ASD12_11605			
ASD12_27450			
ASD12_10560			
ASD12_27455			
ASD12_20985			
ASD12_27460			
ASD12_11615			
ASD12_20865			
ASD12_11620			
ASD12_27465			
ASD12_27470			
ASD12_11625			
ASD12_27475			
ASD12_11630			
ASD12_11635			
ASD12_27480			
ASD12_11640			
ASD12_27485		clpA	
ASD12_11645			
ASD12_27490			
ASD12_11650		ureC	
ASD12_27500			
ASD12_11655			
ASD12_27505			
ASD12_11660		ureB	
ASD12_11665			
ASD12_11670			
ASD12_27515			
ASD12_21115			
ASD12_11675		ureA	
ASD12_27520			
ASD12_20970			
ASD12_27525			
ASD12_11680			
ASD12_11685			
ASD12_27530			
ASD12_11690			
ASD12_27535			
ASD12_11695			
ASD12_27540			
ASD12_11700			
ASD12_27545		pyrH	
ASD12_11705			
ASD12_27550			
ASD12_11710			
ASD12_27555			
ASD12_11715			
ASD12_27560			
ASD12_11720			
ASD12_27565			
ASD12_20945			
ASD12_11730			
ASD12_27570			
ASD12_11735			
ASD12_27575			
ASD12_27580			
ASD12_11745			
ASD12_27585			
ASD12_27590			
ASD12_11755			
ASD12_27595			
ASD12_11760			
ASD12_21085			
ASD12_11765			
ASD12_21110			
ASD12_20835			
ASD12_27605			
ASD12_11770			
ASD12_27610			
ASD12_11775			
ASD12_27615			
ASD12_11780			
ASD12_27620			
ASD12_11785			
ASD12_27625			
ASD12_11790			
ASD12_27630			
ASD12_11795			
ASD12_27635			
ASD12_27640			
ASD12_11800			
ASD12_11805			
ASD12_27645		moaC	
ASD12_20980			
ASD12_11810			
ASD12_27650			
ASD12_11815			
ASD12_27655			
ASD12_11820			
ASD12_27660			
ASD12_11825			
ASD12_27665			
ASD12_20785			
ASD12_11830			
ASD12_27670			
ASD12_11835			
ASD12_27675			
ASD12_11840			
ASD12_27680			
ASD12_11845			
ASD12_27685			
ASD12_11850			
ASD12_27690			
ASD12_11855			
ASD12_11860			
ASD12_27700			
ASD12_20820			
ASD12_22200			
ASD12_27705			
ASD12_20795			
ASD12_11870			
ASD12_27710			
ASD12_11875			
ASD12_20790			
ASD12_27715			
ASD12_11880			
ASD12_27720			
ASD12_22225			
ASD12_11885			
ASD12_27725			
ASD12_27730			
ASD12_11890			
ASD12_20805			
ASD12_11895			
ASD12_20810			
ASD12_11900			
ASD12_27740			
ASD12_20815			
ASD12_27745			
ASD12_11910			
ASD12_27750			
ASD12_11915			
ASD12_27755			
ASD12_20830			
ASD12_27760			
ASD12_11920			
ASD12_08590			
ASD12_11925			
ASD12_27765			
ASD12_20840			
ASD12_32185			
ASD12_11930			
ASD12_27770			
ASD12_20855			
ASD12_20845			
ASD12_27775			
ASD12_11935			
ASD12_06950			
ASD12_20850			
ASD12_27780			
ASD12_11940			
ASD12_04920			
ASD12_11945			
ASD12_27785			
ASD12_20860			
ASD12_11950			
ASD12_20875			
ASD12_27790			
ASD12_11955			
ASD12_20870			
ASD12_13130			
ASD12_27795			
ASD12_11960			
ASD12_27800			
ASD12_20880			
ASD12_27805			
ASD12_11965			
ASD12_11970			
ASD12_20910			
ASD12_20885			
ASD12_27810			
ASD12_17915			
ASD12_27815			
ASD12_11975			
ASD12_11980			
ASD12_27820			
ASD12_27825			
ASD12_20900			
ASD12_27830			
ASD12_11990			
ASD12_20915			
ASD12_11995			
ASD12_27835			
ASD12_12000			
ASD12_20920			
ASD12_08440			
ASD12_27845			
ASD12_12005			
ASD12_12010			
ASD12_27850			
ASD12_12015			
ASD12_27855			
ASD12_20930			
ASD12_12020			
ASD12_27860			
ASD12_12025			
ASD12_27865			
ASD12_12030			
ASD12_20965			
ASD12_20955			
ASD12_27870			
ASD12_12035			
ASD12_27875			
ASD12_20950			
ASD12_04390			
ASD12_32215			
ASD12_25975			
ASD12_12040			
ASD12_27885			
ASD12_12045			
ASD12_20960			
ASD12_12050			
ASD12_27895			
ASD12_12055			
ASD12_27905			
ASD12_12060			
ASD12_20975			
ASD12_26010			
ASD12_03505			
ASD12_12065			
ASD12_27910			
ASD12_12070			
ASD12_26105			
ASD12_20995			
ASD12_27915			
ASD12_20990			
ASD12_11610			
ASD12_12075			
ASD12_27920			
ASD12_12080			
ASD12_27925			
ASD12_12085			
ASD12_07335			
ASD12_21000			
ASD12_27930			
ASD12_27880			
ASD12_27935			
ASD12_12090			
ASD12_09785			
ASD12_27940			
ASD12_21010			
ASD12_21015			
ASD12_27945			
ASD12_12100			
ASD12_12105			
ASD12_27950			
ASD12_12110			
ASD12_21025			
ASD12_27955			
ASD12_12115			
ASD12_26600			
ASD12_12120			
ASD12_21035			
ASD12_27965			
ASD12_21040			
ASD12_12125			
ASD12_27970			
ASD12_12130			
ASD12_21050			
ASD12_21045			
ASD12_27975			
ASD12_24135			
ASD12_22825			
ASD12_12135			
ASD12_27980			
ASD12_23605			
ASD12_12140			
ASD12_27985			
ASD12_12145			
ASD12_27990			
ASD12_21060			
ASD12_21065			
ASD12_12150			
ASD12_27995			
ASD12_21070			
ASD12_28000			
ASD12_12160			
ASD12_28005			
ASD12_12165			
ASD12_28010			
ASD12_21080			
ASD12_12170			
ASD12_21120			
ASD12_12175			
ASD12_28020			
ASD12_12180			
ASD12_28025			
ASD12_12185			
ASD12_21105			
ASD12_12190			
ASD12_07000			
ASD12_12195			
ASD12_12200			
ASD12_12365			
ASD12_12205			
ASD12_12210			
ASD12_27095			
ASD12_21130			
ASD12_23620			
ASD12_12215			
ASD12_21135			
ASD12_24520			
ASD12_12220			
ASD12_21145			
ASD12_12225			
ASD12_21150			
ASD12_12230			
ASD12_21155			
ASD12_21165			
ASD12_21160			
ASD12_24770			
ASD12_12235			
ASD12_21205		mraY	
ASD12_12240			
ASD12_21175			
ASD12_12245			
ASD12_21180			
ASD12_12250			
ASD12_21185			
ASD12_21200			
ASD12_12255			
ASD12_21195			
ASD12_12260			
ASD12_21210		murD	
ASD12_22775			
ASD12_12265			
ASD12_21215			
ASD12_17100			
ASD12_12270			
ASD12_12275			
ASD12_21220			
ASD12_21225		murC	
ASD12_12280			
ASD12_12285			
ASD12_16750			
ASD12_21240			
ASD12_21245			
ASD12_21250			
ASD12_04665			
ASD12_21255			
ASD12_23990			
ASD12_21260			
ASD12_21270			
ASD12_21280			
ASD12_21285			
ASD12_21290			
ASD12_21295			
ASD12_12590			
ASD12_21300			
ASD12_04925			
ASD12_21305			
ASD12_24625			
ASD12_26130			
ASD12_21310			
ASD12_32565			
ASD12_21315			
ASD12_10950			
ASD12_21320			
ASD12_32575			
ASD12_21325			
ASD12_32580			
ASD12_21330			
ASD12_32585			
ASD12_21335			
ASD12_21340			
ASD12_32255			
ASD12_21345			
ASD12_21350			
ASD12_14885			
ASD12_14500			
ASD12_22295			
ASD12_21360			
ASD12_12440			
ASD12_21365			
ASD12_21370			
ASD12_21375			
ASD12_21380			
ASD12_21385			
ASD12_21390			
ASD12_21395			
ASD12_21400			
ASD12_32530			
ASD12_32535			
ASD12_30010			
ASD12_21405			
ASD12_21410			
ASD12_32540			
ASD12_32545			
ASD12_11335			
ASD12_21415			
ASD12_32550			
ASD12_31880			
ASD12_21420			
ASD12_32555			
ASD12_21425			
ASD12_21430			
ASD12_21435			
ASD12_21440			
ASD12_21445			
ASD12_25005			
ASD12_28410			
ASD12_21450			
ASD12_21455			
ASD12_21460			
ASD12_21465			
ASD12_21470			
ASD12_21475			
ASD12_21480			
ASD12_32510			
ASD12_32515			
ASD12_06140			
ASD12_21485			
ASD12_32520			
ASD12_21490			
ASD12_21495			
ASD12_21500			
ASD12_21505			
ASD12_14115			
ASD12_21510			
ASD12_21515			
ASD12_21520			
ASD12_05210			
ASD12_21525			
ASD12_31095			
ASD12_21530			
ASD12_21535			
ASD12_21540			
ASD12_26580			
ASD12_21545			
ASD12_21550			
ASD12_21555			
ASD12_21170			
ASD12_21560			
ASD12_32475			
ASD12_21565			
ASD12_21570			
ASD12_24610			
ASD12_32480			
ASD12_32485			
ASD12_11740			
ASD12_21575			
ASD12_21580			
ASD12_32490			
ASD12_32495			
ASD12_21585			
ASD12_32500			
ASD12_21590			
ASD12_21595			
ASD12_21600			
ASD12_21610			
ASD12_21100			
ASD12_21615			
ASD12_21620			
ASD12_21625			
ASD12_21630			
ASD12_21635			
ASD12_21640			
ASD12_21645			
ASD12_21650			
ASD12_22895			
ASD12_21655			
ASD12_21660			
ASD12_21665			
ASD12_21670			
ASD12_21675			
ASD12_26985			
ASD12_21680			
ASD12_26810			
ASD12_21685			
ASD12_26815			
ASD12_26820			
ASD12_26825			
ASD12_09245			
ASD12_26830			
ASD12_26840			
ASD12_32365			
ASD12_26845			
ASD12_32370			
ASD12_26850			
ASD12_32375			
ASD12_26855			
ASD12_26860			
ASD12_32380			
ASD12_29845			
ASD12_09185			
ASD12_32385			
ASD12_32390			
ASD12_18285			
ASD12_26870			
ASD12_32395			
ASD12_26875			
ASD12_32400			
ASD12_24720			
ASD12_26880			
ASD12_32405			
ASD12_26885			
ASD12_26890			
ASD12_26895			
ASD12_05800			
ASD12_26900			
ASD12_32425			
ASD12_26905			
ASD12_32430			
ASD12_26910			
ASD12_26915			
ASD12_32435			
ASD12_26920			
ASD12_32440			
ASD12_32445			
ASD12_26925			
ASD12_32450			
ASD12_26930			
ASD12_15460			
ASD12_32455			
ASD12_26935			
ASD12_28635			
ASD12_26940			
ASD12_26865			
ASD12_32465			
ASD12_05570			
ASD12_26960			
ASD12_26965			
ASD12_26975			
ASD12_24615			
ASD12_26995			
ASD12_25695			
ASD12_27010			
ASD12_27015			
ASD12_25560			
ASD12_27020			
ASD12_27025			
ASD12_25365			
ASD12_32315			
ASD12_17265			
ASD12_32320			
ASD12_27035			
ASD12_32325			
ASD12_27040			
ASD12_32410			
ASD12_32330			
ASD12_27045			
ASD12_27050			
ASD12_32335			
ASD12_32340			
ASD12_27055			
ASD12_29530		glnA	
ASD12_27060			
ASD12_32345			
ASD12_32350			
ASD12_27065			
ASD12_32355			
ASD12_27070			
ASD12_32360			
ASD12_04350			
ASD12_27075			
ASD12_27080			
ASD12_27090			
ASD12_23310			
ASD12_27100			
ASD12_27105			
ASD12_30580			
ASD12_29525			
ASD12_27115			
ASD12_27120			
ASD12_27125			
ASD12_18290			
ASD12_27130			
ASD12_27135			
ASD12_27140			
ASD12_27145			
ASD12_16450			
ASD12_27150			
ASD12_27155			
ASD12_27160			
ASD12_27165			
ASD12_27170			
ASD12_27175			
ASD12_32260			
ASD12_32265			
ASD12_06020			
ASD12_27180			
ASD12_27185			
ASD12_32270			
ASD12_32275			
ASD12_27190			
ASD12_32280			
ASD12_27195			
ASD12_27200			
ASD12_32285			
ASD12_27205			
ASD12_32290			
ASD12_32295			
ASD12_27210			
ASD12_32300			
ASD12_27215			
ASD12_32305			
ASD12_27220			
ASD12_32310			
ASD12_27225			
ASD12_05655			
ASD12_09015			
ASD12_13245			
ASD12_27235			
ASD12_07380			
ASD12_27240			
ASD12_13185			
ASD12_27245			
ASD12_27250			
ASD12_27255			
ASD12_22285			
ASD12_27265			
ASD12_27840			
ASD12_27270			
ASD12_27275			
ASD12_27280			
ASD12_27285			
ASD12_27290			
ASD12_27295			
ASD12_27300			
ASD12_27305			
ASD12_25590			
ASD12_27315			
ASD12_27320			
ASD12_27330			
ASD12_32180			
ASD12_04995			
ASD12_23950			
ASD12_04620			
ASD12_24935			
ASD12_32195			
ASD12_32200			
ASD12_32205			
ASD12_25440			
ASD12_32210			
ASD12_27260			
ASD12_32220			
ASD12_30865			
ASD12_32225			
ASD12_32230			
ASD12_32235			
ASD12_07010			
ASD12_32240			
ASD12_30105			
ASD12_32245			
ASD12_32250			
ASD12_23670			
ASD12_15910			
ASD12_08880			
ASD12_06565			
ASD12_07600			
ASD12_21265			
ASD12_05135			
ASD12_04605			
ASD12_21920			
ASD12_30130			
ASD12_28785			
ASD12_32120			
ASD12_32125			
ASD12_26000			
ASD12_32130			
ASD12_08095			
ASD12_32135			
ASD12_32140			
ASD12_32145			
ASD12_32150			
ASD12_32155			
ASD12_32160			
ASD12_32165			
ASD12_32170			
ASD12_32175			
ASD12_05770			
ASD12_23925			
ASD12_01205			
ASD12_14855			
ASD12_22290			
ASD12_03775			
ASD12_04990			
ASD12_05625			
ASD12_24335			
ASD12_28015			
ASD12_26380			
ASD12_19810			
ASD12_16040			
ASD12_04545		sucC	
ASD12_19815			
ASD12_06125			
ASD12_19820			
ASD12_19825			
ASD12_23995			
ASD12_19830			
ASD12_19835			
ASD12_19840		gabD	
ASD12_19845			
ASD12_19850			
ASD12_19855			
ASD12_26275			
ASD12_19860			
ASD12_26280			
ASD12_19865			
ASD12_26285			
ASD12_19870			
ASD12_11010			
ASD12_26290			
ASD12_19875			
ASD12_26295			
ASD12_19880			
ASD12_26300			
ASD12_19885			
ASD12_12880			
ASD12_26305			
ASD12_19890			
ASD12_26310			
ASD12_19895			
ASD12_26315			
ASD12_19900			
ASD12_26320			
ASD12_19905			
ASD12_16330			
ASD12_26325			
ASD12_19910			
ASD12_26330			
ASD12_19915			
ASD12_19920			
ASD12_26335			
ASD12_11600			
ASD12_26340			
ASD12_19925			
ASD12_09410			
ASD12_26345			
ASD12_19930			
ASD12_26350			
ASD12_19935			
ASD12_25125			
ASD12_26355			
ASD12_19940			
ASD12_19945			
ASD12_04515			
ASD12_26365			
ASD12_19950			
ASD12_26370			
ASD12_26375			
ASD12_19960			
ASD12_19965			
ASD12_26385			
ASD12_19970			
ASD12_26970			
ASD12_26390			
ASD12_19975			
ASD12_26395			
ASD12_19980			
ASD12_26400			
ASD12_19985			
ASD12_12095			
ASD12_26405			
ASD12_19990			
ASD12_26410			
ASD12_18145			
ASD12_19995			
ASD12_26415			
ASD12_20000			
ASD12_07580			
ASD12_26420			
ASD12_20005			
ASD12_04090			
ASD12_20010			
ASD12_26430			
ASD12_20015			
ASD12_26435			
ASD12_20020			
ASD12_26440			
ASD12_20025			
ASD12_26445			
ASD12_20030			
ASD12_26450			
ASD12_20035			
ASD12_26455			
ASD12_20040			
ASD12_26460			
ASD12_20045			
ASD12_20050			
ASD12_26470			
ASD12_20055			
ASD12_26475			
ASD12_20060			
ASD12_26480			
ASD12_20065			
ASD12_26485			
ASD12_20070			
ASD12_20075			
ASD12_26495			
ASD12_20080			
ASD12_20085			
ASD12_20090			
ASD12_26510			
ASD12_20095			
ASD12_26515			
ASD12_20100			
ASD12_20105			
ASD12_20110			
ASD12_26530			
ASD12_20115			
ASD12_26535			
ASD12_20120			
ASD12_20125			
ASD12_26545			
ASD12_20130			
ASD12_26550			
ASD12_20135			
ASD12_26555			
ASD12_20140			
ASD12_26560			
ASD12_20145			
ASD12_26565			
ASD12_20150			
ASD12_26570		ndk	
ASD12_20155			
ASD12_26575			
ASD12_20160			
ASD12_20165			
ASD12_26585			
ASD12_20170			
ASD12_26590			
ASD12_20175			
ASD12_26595			
ASD12_20180			
ASD12_20185			
ASD12_26605			
ASD12_20190			
ASD12_26610			
ASD12_20195			
ASD12_26615			
ASD12_20200			
ASD12_26620			
ASD12_20205			
ASD12_26625			
ASD12_20210			
ASD12_26630			
ASD12_20215			
ASD12_26635			
ASD12_20220			
ASD12_26640			
ASD12_20225			
ASD12_26645			
ASD12_20230			
ASD12_26650			
ASD12_20235			
ASD12_26655			
ASD12_20240			
ASD12_26660			
ASD12_20245			
ASD12_20250			
ASD12_26670			
ASD12_20255			
ASD12_26675			
ASD12_07970			
ASD12_20260			
ASD12_26680			
ASD12_20265			
ASD12_26685			
ASD12_26690			
ASD12_20275			
ASD12_26695			
ASD12_20280			
ASD12_26700			
ASD12_20285			
ASD12_26705			
ASD12_20290			
ASD12_26710			
ASD12_20295			
ASD12_26715			
ASD12_20300			
ASD12_26720			
ASD12_20305			
ASD12_20310			
ASD12_26730			
ASD12_20315			
ASD12_26735			
ASD12_20320			
ASD12_20325			
ASD12_26745			
ASD12_20330			
ASD12_26755			
ASD12_20335			
ASD12_26765			
ASD12_20340			
ASD12_26770			
ASD12_20345			
ASD12_26775			
ASD12_20350			
ASD12_26780			
ASD12_20355			
ASD12_26785			
ASD12_20360			
ASD12_26790			
ASD12_20365			
ASD12_26795			
ASD12_20370			
ASD12_26800			
ASD12_20375			
ASD12_20380			
ASD12_20385			
ASD12_20390		flhB	
ASD12_20395			
ASD12_20400			
ASD12_20405			
ASD12_20410			
ASD12_20415			
ASD12_20420		flgF	
ASD12_20425		fliI	
ASD12_20430			
ASD12_20435		flgB	
ASD12_20440		flgC	
ASD12_20445			
ASD12_20450			
ASD12_20455			
ASD12_20460			
ASD12_20465			
ASD12_20470			
ASD12_20475			
ASD12_20480			
ASD12_20485			
ASD12_20490			
ASD12_20495			
ASD12_20500			
ASD12_20505			
ASD12_20510			
ASD12_20515			
ASD12_20520			
ASD12_20525			
ASD12_20530			
ASD12_20535		flgK	
ASD12_20540			
ASD12_20545			
ASD12_20550			
ASD12_20555		flgD	
ASD12_20560		fliQ	
ASD12_20565			
ASD12_20570			
ASD12_20575			
ASD12_20580			
ASD12_20585		flhA	
ASD12_20590			
ASD12_20595			
ASD12_20600			
ASD12_20605			
ASD12_20610			
ASD12_20615			
ASD12_20620			
ASD12_20625			
ASD12_20630			
ASD12_20635			
ASD12_20640			
ASD12_20645			
ASD12_20650			
ASD12_20655			
ASD12_20660			
ASD12_20665			
ASD12_20670			
ASD12_20675			
ASD12_20680			
ASD12_20685			
ASD12_20690			
ASD12_20695			
ASD12_20700			
ASD12_20705			
ASD12_20710			
ASD12_20715			
ASD12_20720			
ASD12_20725			
ASD12_20730			
ASD12_20735			
ASD12_20740			
ASD12_20745			
ASD12_20750			
ASD12_20755			
ASD12_20760			
ASD12_20765			
ASD12_20770			
ASD12_20775			
ASD12_20780		hemH	
ASD12_23140			
ASD12_03825			
ASD12_26245			
ASD12_18500			
ASD12_15740			
ASD12_17080			
ASD12_14250			
ASD12_14255			
ASD12_26185			
ASD12_05520			
ASD12_14260			
ASD12_14265			
ASD12_22800			
ASD12_14270			
ASD12_14275			
ASD12_15290			
ASD12_15645			
ASD12_13170			
ASD12_22570			
ASD12_13525			
ASD12_05610			
ASD12_13530			
ASD12_13745			
ASD12_03895			
ASD12_13750			
ASD12_11135			
ASD12_11725			
ASD12_10425			
ASD12_31895			
ASD12_07815			
ASD12_29880			
ASD12_28770			
ASD12_27890			
ASD12_28150			
ASD12_26750			
ASD12_26760			
ASD12_06365			
ASD12_03475			
ASD12_04165			
ASD12_05170			
ASD12_05560			
ASD12_06680			
ASD12_24845			
ASD12_24145			
ASD12_24500			
ASD12_24555			
ASD12_24560			
ASD12_22655			
ASD12_06590			
ASD12_22720			
ASD12_04950			
ASD12_23165			
ASD12_22210			
ASD12_22455			
ASD12_22515			
ASD12_21695			
ASD12_18610			
ASD12_18625			
ASD12_18800			
ASD12_06440			
ASD12_18890			
ASD12_08585			
ASD12_24010			
ASD12_19805			
ASD12_08595			
ASD12_00345			
ASD12_08600			
ASD12_05335		purH	
ASD12_00840			
ASD12_08605			
ASD12_08610			
ASD12_08615			
ASD12_10440			
ASD12_08620			
ASD12_08625			
ASD12_08630			
ASD12_08635			
ASD12_25880			
ASD12_08640			
ASD12_08645			
ASD12_08655			
ASD12_08660			
ASD12_24600			
ASD12_22135			
ASD12_08665			
ASD12_08670			
ASD12_08675			
ASD12_08680			
ASD12_08685			
ASD12_08695			
ASD12_08700			
ASD12_08705			
ASD12_08710			
ASD12_08715			
ASD12_08720			
ASD12_08725			
ASD12_25095			
ASD12_08730			
ASD12_08735			
ASD12_08740			
ASD12_08745			
ASD12_08750			
ASD12_22770			
ASD12_08755			
ASD12_08760			
ASD12_08765			
ASD12_08770			
ASD12_08775			
ASD12_08780			
ASD12_08785			
ASD12_08790			
ASD12_08795			
ASD12_08800			
ASD12_08805			
ASD12_08810			
ASD12_08815			
ASD12_08820			
ASD12_08825			
ASD12_08830			
ASD12_08835			
ASD12_08845			
ASD12_21990			
ASD12_08855			
ASD12_08860			
ASD12_08865			
ASD12_08870			
ASD12_08875			
ASD12_22625			
ASD12_08885			
ASD12_08890			
ASD12_08895			
ASD12_08900			
ASD12_08905			
ASD12_08910			
ASD12_08915			
ASD12_08920			
ASD12_08925			
ASD12_08930			
ASD12_08935			
ASD12_08940			
ASD12_08945			
ASD12_08950			
ASD12_08955			
ASD12_08960			
ASD12_08965			
ASD12_08970			
ASD12_08975			
ASD12_08980			
ASD12_08985			
ASD12_08990			
ASD12_08995			
ASD12_09000			
ASD12_09005			
ASD12_09010			
ASD12_18590			
ASD12_07985			
ASD12_18595			
ASD12_18600			
ASD12_18605			
ASD12_18615			
ASD12_09020			
ASD12_18620			
ASD12_18630			
ASD12_09025			
ASD12_18635			
ASD12_18640			
ASD12_18645			
ASD12_09030			
ASD12_18650			
ASD12_18655			
ASD12_09035			
ASD12_18660			
ASD12_09040		groEL	
ASD12_18665			
ASD12_18670			
ASD12_09045			
ASD12_18675			
ASD12_18680			
ASD12_09050			
ASD12_18685			
ASD12_09055			
ASD12_18690			
ASD12_18695			
ASD12_09060			
ASD12_18700			
ASD12_18705			
ASD12_09065			
ASD12_18710			
ASD12_18715			
ASD12_09070			
ASD12_18720			
ASD12_09075			
ASD12_18725			
ASD12_18730			
ASD12_09080			
ASD12_18735			
ASD12_18740		pcm	
ASD12_18745			
ASD12_18750			
ASD12_09090			
ASD12_18755			
ASD12_09095			
ASD12_18760			
ASD12_09100			
ASD12_18765			
ASD12_18770			
ASD12_09105			
ASD12_18775			
ASD12_18780			
ASD12_09110			
ASD12_09115			
ASD12_18785			
ASD12_18790			
ASD12_18795			
ASD12_18805			
ASD12_09120			
ASD12_18810			
ASD12_09125			
ASD12_18815			
ASD12_09130			
ASD12_18820			
ASD12_09135			
ASD12_18825			
ASD12_09140			
ASD12_18830			
ASD12_18835			
ASD12_18840			
ASD12_09145			
ASD12_09150			
ASD12_18845			
ASD12_18850			
ASD12_09155			
ASD12_18855			
ASD12_09160			
ASD12_18860			
ASD12_09165			
ASD12_18865			
ASD12_18870			
ASD12_18875			
ASD12_09170			
ASD12_18880			
ASD12_09175			
ASD12_18885			
ASD12_18895			
ASD12_09180			
ASD12_18900			
ASD12_18905			
ASD12_18910			
ASD12_18915			
ASD12_09190			
ASD12_18920			
ASD12_18925		glpX	
ASD12_18930			
ASD12_18935			
ASD12_18940			
ASD12_09200			
ASD12_18945			
ASD12_09205			
ASD12_18950			
ASD12_18955			
ASD12_09210			
ASD12_18960			
ASD12_18965			
ASD12_09215			
ASD12_18970			
ASD12_18975			
ASD12_09220			
ASD12_18980			
ASD12_09225			
ASD12_18985			
ASD12_18990			
ASD12_09230			
ASD12_18995			
ASD12_09240			
ASD12_19000			
ASD12_19005			
ASD12_19010			
ASD12_19015			
ASD12_09250			
ASD12_19020			
ASD12_19025			
ASD12_09255			
ASD12_19030			
ASD12_09260			
ASD12_19035			
ASD12_19040			
ASD12_19045			
ASD12_09265			
ASD12_19050			
ASD12_19055			
ASD12_09270			
ASD12_19060			
ASD12_09275			
ASD12_19065			
ASD12_19070			
ASD12_09280			
ASD12_19075			
ASD12_19080			
ASD12_19085			
ASD12_09290			
ASD12_09295			
ASD12_19090			
ASD12_19095			
ASD12_19100			
ASD12_09300			
ASD12_19105			
ASD12_09305			
ASD12_19110			
ASD12_19115			
ASD12_19120			
ASD12_19125			
ASD12_09310			
ASD12_19130			
ASD12_09315			
ASD12_19135			
ASD12_19140			
ASD12_19145			
ASD12_09320			
ASD12_19150			
ASD12_09325			
ASD12_19155			
ASD12_09330			
ASD12_19160			
ASD12_19165			
ASD12_09335			
ASD12_19170			
ASD12_19175			
ASD12_09340			
ASD12_04140			
ASD12_19180			
ASD12_19185			
ASD12_09350			
ASD12_19190			
ASD12_09355			
ASD12_19195			
ASD12_19200			
ASD12_19205			
ASD12_19210			
ASD12_09360			
ASD12_19215		pleD	
ASD12_09365			
ASD12_19220			
ASD12_19225			
ASD12_09370			
ASD12_19230			
ASD12_19235			
ASD12_19240			
ASD12_09380			
ASD12_19245			
ASD12_19250			
ASD12_09385			
ASD12_19255			
ASD12_09390			
ASD12_19260			
ASD12_09395			
ASD12_19265			
ASD12_19270			
ASD12_09400			
ASD12_19275			
ASD12_19280			
ASD12_19285			
ASD12_09405			
ASD12_19290			
ASD12_19295			
ASD12_19300			
ASD12_19305		glmU	
ASD12_09415			
ASD12_19310			
ASD12_19315			
ASD12_19320			
ASD12_09420			
ASD12_19325			
ASD12_19330			
ASD12_09425			
ASD12_19335			
ASD12_09430			
ASD12_19340			
ASD12_19345			
ASD12_19350			
ASD12_09435			
ASD12_19355			
ASD12_19360			
ASD12_09440			
ASD12_09445			
ASD12_19365			
ASD12_09450			
ASD12_19370			
ASD12_19375			
ASD12_19380			
ASD12_19385			
ASD12_09455			
ASD12_19390			
ASD12_09460			
ASD12_19395			
ASD12_19400			
ASD12_09465			
ASD12_19405			
ASD12_19410			
ASD12_09470			
ASD12_19415			
ASD12_09475			
ASD12_19420			
ASD12_09480			
ASD12_19425			
ASD12_19430			
ASD12_19435			
ASD12_09485			
ASD12_19440			
ASD12_19445			
ASD12_09490			
ASD12_19450			
ASD12_09495			
ASD12_19455			
ASD12_19460			
ASD12_19465			
ASD12_09500			
ASD12_19470			
ASD12_09505			
ASD12_19475			
ASD12_09510			
ASD12_09515			
ASD12_19480			
ASD12_19485			
ASD12_19490			
ASD12_09520			
ASD12_09525			
ASD12_19495			
ASD12_09530			
ASD12_19500			
ASD12_09535			
ASD12_19505			
ASD12_09540			
ASD12_19510			
ASD12_09545			
ASD12_19515			
ASD12_19520			
ASD12_19525			
ASD12_09550			
ASD12_19530			
ASD12_09555			
ASD12_19535			
ASD12_09560			
ASD12_19540			
ASD12_19545			
ASD12_19550			
ASD12_09565			
ASD12_19555			
ASD12_09570			
ASD12_19560			
ASD12_19565			
ASD12_09575			
ASD12_19570			
ASD12_19575			
ASD12_09580			
ASD12_19580			
ASD12_19585			
ASD12_09585			
ASD12_19590			
ASD12_19595			
ASD12_09590			
ASD12_19600			
ASD12_19605			
ASD12_09595			
ASD12_19610			
ASD12_09600			
ASD12_19615			
ASD12_09605			
ASD12_19620			
ASD12_19625			
ASD12_19630			
ASD12_19635			
ASD12_09610			
ASD12_19640			
ASD12_19645			
ASD12_09615			
ASD12_19650			
ASD12_19655			
ASD12_09620			
ASD12_19660			
ASD12_09625			
ASD12_19665			
ASD12_09630			
ASD12_19670			
ASD12_19675			
ASD12_19680			
ASD12_19685			
ASD12_19690			
ASD12_19695			
ASD12_09640			
ASD12_19700			
ASD12_19705			
ASD12_09650			
ASD12_19710			
ASD12_19715			
ASD12_19720			
ASD12_19725			
ASD12_09655			
ASD12_19730			
ASD12_19735			
ASD12_09660			
ASD12_19740			
ASD12_09665			
ASD12_19745			
ASD12_19750			
ASD12_19755			
ASD12_09670			
ASD12_19760			
ASD12_09675			
ASD12_19765			
ASD12_19770			
ASD12_09680			
ASD12_19775			
ASD12_19780			
ASD12_09685			
ASD12_19785			
ASD12_19790			
ASD12_19795			
ASD12_09690			
ASD12_19800			
ASD12_09695			
ASD12_09700			
ASD12_09705			
ASD12_09710			
ASD12_09715			
ASD12_09720			
ASD12_09725			
ASD12_09730			
ASD12_09735			
ASD12_09740			
ASD12_09745			
ASD12_09750			
ASD12_09755			
ASD12_09765			
ASD12_09770			
ASD12_09775			
ASD12_09780			
ASD12_09790			
ASD12_09795			
ASD12_09800			
ASD12_09805			
ASD12_09810			
ASD12_09815			
ASD12_09820			
ASD12_09825			
ASD12_09830			
ASD12_09835			
ASD12_09840			
ASD12_09845			
ASD12_09850			
ASD12_09855			
ASD12_09860			
ASD12_09865			
ASD12_09870			
ASD12_09875			
ASD12_09880			
ASD12_09885			
ASD12_09890			
ASD12_09895			
ASD12_09900			
ASD12_09905			
ASD12_09910			
ASD12_09915			
ASD12_24985			
ASD12_09920			
ASD12_09925			
ASD12_09930			
ASD12_09935			
ASD12_09940			
ASD12_09945			
ASD12_09950			
ASD12_09955			
ASD12_09960			
ASD12_09965			
ASD12_09970			
ASD12_09975			
ASD12_09980			
ASD12_09985			
ASD12_09990			
ASD12_09995			
ASD12_10000			
ASD12_10005			
ASD12_10010			
ASD12_10015			
ASD12_10020			
ASD12_17165			
ASD12_17170			
ASD12_10025			
ASD12_10030			
ASD12_17175			
ASD12_10035			
ASD12_17180			
ASD12_10040			
ASD12_17185			
ASD12_17190			
ASD12_10045			
ASD12_10050			
ASD12_17195			
ASD12_17200			
ASD12_10055			
ASD12_03800			
ASD12_17205			
ASD12_10060			
ASD12_17210			
ASD12_10070			
ASD12_17215			
ASD12_17220			
ASD12_10075			
ASD12_10080			
ASD12_17225			
ASD12_10085			
ASD12_17230			
ASD12_10090			
ASD12_17235			
ASD12_10095			
ASD12_24865			
ASD12_03570		hrcA	
ASD12_10100			
ASD12_17245			
ASD12_17250			
ASD12_10110			
ASD12_22615			
ASD12_17255			
ASD12_10115			
ASD12_17260			
ASD12_10120			
ASD12_10125			
ASD12_17270		rirA	
ASD12_17275			
ASD12_10130			
ASD12_10135			
ASD12_17280			
ASD12_17285			
ASD12_10140			
ASD12_10145			
ASD12_17290			
ASD12_17295			
ASD12_10150			
ASD12_17300			
ASD12_10155			
ASD12_23695			
ASD12_10160			
ASD12_17305			
ASD12_17310			
ASD12_10165			
ASD12_17315			
ASD12_23560			
ASD12_10170			
ASD12_10175			
ASD12_17320			
ASD12_10180			
ASD12_17325			
ASD12_10185			
ASD12_17330			
ASD12_10190			
ASD12_17335			
ASD12_10195			
ASD12_17340			
ASD12_10200			
ASD12_17345			
ASD12_10205			
ASD12_17350			
ASD12_10210			
ASD12_17355			
ASD12_10215			
ASD12_17360			
ASD12_17365		gabD	
ASD12_10220			
ASD12_10225			
ASD12_22520			
ASD12_17370			
ASD12_10230			
ASD12_17375			
ASD12_10235			
ASD12_17380			
ASD12_10240			
ASD12_17385			
ASD12_17390			
ASD12_10245			
ASD12_10250			
ASD12_17395			
ASD12_10255			
ASD12_17400			
ASD12_10260			
ASD12_17405			
ASD12_10265			
ASD12_17410			
ASD12_10270			
ASD12_17415			
ASD12_17420			
ASD12_10275			
ASD12_10280			
ASD12_17425			
ASD12_10285			
ASD12_17430			
ASD12_10290			
ASD12_17435			
ASD12_17440			
ASD12_10295			
ASD12_17445			
ASD12_10300			
ASD12_17450			
ASD12_17455			
ASD12_04020			
ASD12_10310			
ASD12_10315			
ASD12_17460			
ASD12_17465			
ASD12_10320			
ASD12_10325			
ASD12_17470			
ASD12_10330			
ASD12_17475			
ASD12_17480			
ASD12_10335			
ASD12_10340			
ASD12_17485			
ASD12_17490			
ASD12_10350			
ASD12_17495			
ASD12_10355			
ASD12_17500			
ASD12_10360			
ASD12_17505			
ASD12_10365			
ASD12_17510			
ASD12_17515			
ASD12_10370			
ASD12_10375			
ASD12_17520			
ASD12_17525			
ASD12_10380			
ASD12_17530			
ASD12_10385			
ASD12_10390			
ASD12_17535			
ASD12_10395			
ASD12_17540			
ASD12_17545			
ASD12_10400			
ASD12_10405			
ASD12_17550			
ASD12_10410			
ASD12_17555			
ASD12_17560			
ASD12_10415			
ASD12_17565			
ASD12_10420			
ASD12_10430			
ASD12_03655			
ASD12_17570			
ASD12_10435			
ASD12_17575			
ASD12_23755			
ASD12_25840			
ASD12_17580			
ASD12_10445			
ASD12_17585			
ASD12_17590			
ASD12_10450			
ASD12_10455			
ASD12_17595			
ASD12_17600			
ASD12_10460			
ASD12_17605			
ASD12_10465			
ASD12_10470			
ASD12_17610			
ASD12_10475			
ASD12_17615			
ASD12_10480			
ASD12_17620			
ASD12_10485			
ASD12_17625			
ASD12_17630			
ASD12_10490			
ASD12_22935			
ASD12_17635			
ASD12_10500			
ASD12_17640			
ASD12_10505			
ASD12_17645			
ASD12_10510			
ASD12_17650			
ASD12_10515			
ASD12_17655			
ASD12_10520			
ASD12_17660			
ASD12_10525			
ASD12_17665			
ASD12_10530			
ASD12_17670			
ASD12_17675			
ASD12_10540			
ASD12_17680			
ASD12_17685			
ASD12_10545			
ASD12_10550			
ASD12_17690			
ASD12_05010			
ASD12_10555			
ASD12_17695			
ASD12_17700			
ASD12_10565			
ASD12_17705			
ASD12_10570			
ASD12_17710			
ASD12_10575			
ASD12_17715			
ASD12_17720			
ASD12_10580			
ASD12_10585			
ASD12_17725			
ASD12_10590			
ASD12_17730			
ASD12_10595			
ASD12_17735			
ASD12_05600		proA	
ASD12_17740			
ASD12_10605			
ASD12_17745			
ASD12_17750			
ASD12_17755			
ASD12_10615			
ASD12_17760			
ASD12_10620			
ASD12_10625			
ASD12_17765			
ASD12_03440			
ASD12_17770			
ASD12_10630			
ASD12_03445			
ASD12_10635			
ASD12_17775			
ASD12_17780			
ASD12_10640			
ASD12_03455			
ASD12_03460			
ASD12_17785			
ASD12_17790			
ASD12_03465			
ASD12_17795			
ASD12_03470			
ASD12_17800			
ASD12_03480			
ASD12_17805			
ASD12_03485			
ASD12_17810			
ASD12_03490			
ASD12_17815			
ASD12_03495			
ASD12_17820			
ASD12_03500			
ASD12_24000			
ASD12_17825			
ASD12_17830			
ASD12_03510			
ASD12_17835			
ASD12_03515			
ASD12_17840			
ASD12_03520			
ASD12_17845			
ASD12_03525			
ASD12_17850			
ASD12_03530			
ASD12_17855			
ASD12_03535			
ASD12_03540			
ASD12_17860			
ASD12_03545			
ASD12_17865			
ASD12_17870			
ASD12_03550			
ASD12_06095			
ASD12_17875			
ASD12_03555			
ASD12_17880			
ASD12_03560			
ASD12_17885			
ASD12_03565			
ASD12_17890			
ASD12_32030			
ASD12_17895			
ASD12_03575			
ASD12_17900			
ASD12_03580			
ASD12_32035			
ASD12_17905			
ASD12_32040			
ASD12_03585			
ASD12_32045			
ASD12_03590			
ASD12_17910			
ASD12_32050			
ASD12_03595			
ASD12_17920			
ASD12_32055			
ASD12_03600			
ASD12_17925			
ASD12_32060			
ASD12_03605			
ASD12_17930			
ASD12_32065			
ASD12_03610			
ASD12_03615			
ASD12_17935			
ASD12_32075			
ASD12_03620			
ASD12_17940			
ASD12_03625			
ASD12_32080			
ASD12_17945			
ASD12_32085			
ASD12_17950			
ASD12_03630			
ASD12_32090			
ASD12_17955			
ASD12_03635			
ASD12_17960			
ASD12_32095			
ASD12_03640			
ASD12_32100			
ASD12_17965			
ASD12_17970			
ASD12_03650			
ASD12_32105			
ASD12_17975			
ASD12_03770			
ASD12_32110			
ASD12_17980			
ASD12_03660			
ASD12_17985			
ASD12_03665			
ASD12_17990			
ASD12_03670			
ASD12_03675			
ASD12_17995			
ASD12_18000			
ASD12_03680			
ASD12_18005			
ASD12_03685			
ASD12_18010			
ASD12_03690			
ASD12_18015			
ASD12_03695			
ASD12_03700			
ASD12_18020			
ASD12_18025			
ASD12_03705			
ASD12_03710			
ASD12_18030			
ASD12_18035			
ASD12_03715			
ASD12_18040			
ASD12_03725			
ASD12_18045			
ASD12_18050			
ASD12_03730			
ASD12_18055			
ASD12_03735			
ASD12_18060			
ASD12_03740			
ASD12_03745			
ASD12_31975			
ASD12_18065			
ASD12_31980			
ASD12_18070			
ASD12_03750			
ASD12_03755			
ASD12_31985		gltD	
ASD12_18075			
ASD12_18080			
ASD12_31990			
ASD12_03760			
ASD12_18085			
ASD12_31995			
ASD12_03765			
ASD12_18090			
ASD12_21925			
ASD12_32000			
ASD12_32005			
ASD12_18095			
ASD12_18100			
ASD12_32010			
ASD12_03780			
ASD12_18105			
ASD12_03785			
ASD12_32020			
ASD12_18110			
ASD12_03790			
ASD12_32025			
ASD12_03795			
ASD12_18115			
ASD12_18120			
ASD12_18125			
ASD12_03805			
ASD12_18130			
ASD12_03810			
ASD12_18135			
ASD12_03815			
ASD12_03820			
ASD12_18140			
ASD12_07540			
ASD12_18150			
ASD12_03830			
ASD12_18155			
ASD12_03835			
ASD12_03840			
ASD12_18160			
ASD12_18165			
ASD12_03845			
ASD12_03850			
ASD12_04275			
ASD12_18175			
ASD12_03855			
ASD12_18180			
ASD12_03860			
ASD12_18185			
ASD12_03865			
ASD12_18190			
ASD12_03870			
ASD12_18195			
ASD12_03875			
ASD12_18200			
ASD12_03880			
ASD12_18205			
ASD12_03885			
ASD12_18210			
ASD12_03890			
ASD12_18215			
ASD12_18220			
ASD12_03900			
ASD12_18225			
ASD12_18230			
ASD12_03910			
ASD12_31885			
ASD12_18235			
ASD12_03915			
ASD12_31890			
ASD12_03920			
ASD12_18240			
ASD12_18245			
ASD12_31900			
ASD12_03925			
ASD12_03930			
ASD12_31905			
ASD12_18250			
ASD12_03935			
ASD12_31910			
ASD12_18255			
ASD12_18260			
ASD12_31915			
ASD12_03945			
ASD12_18265			
ASD12_31920			
ASD12_18270			
ASD12_31925			
ASD12_03950			
ASD12_03955			
ASD12_31930			
ASD12_18275			
ASD12_31935			
ASD12_18280			
ASD12_03960			
ASD12_31940			
ASD12_03965			
ASD12_31945			
ASD12_03970			
ASD12_18295			
ASD12_31950			
ASD12_18300			
ASD12_03975			
ASD12_03980			
ASD12_31955			
ASD12_18305			
ASD12_31960			
ASD12_03985			
ASD12_18310			
ASD12_18315			
ASD12_31965			
ASD12_03990			
ASD12_31970		fusA	
ASD12_18320			
ASD12_03995			
ASD12_18325			
ASD12_04000			
ASD12_04005			
ASD12_18330			
ASD12_18335			
ASD12_04010			
ASD12_04015			
ASD12_18340			
ASD12_18345			
ASD12_04025			
ASD12_18350			
ASD12_18355			
ASD12_04030			
ASD12_18360			
ASD12_04035			
ASD12_04040			
ASD12_18365			
ASD12_18370			
ASD12_04045		holA	
ASD12_04050			
ASD12_18375			
ASD12_18380			
ASD12_04055			
ASD12_04060			
ASD12_18385			
ASD12_04065			
ASD12_18390			
ASD12_18395			
ASD12_04070			
ASD12_18400			
ASD12_04080			
ASD12_18405			
ASD12_04085			
ASD12_18410			
ASD12_18415			
ASD12_04095			
ASD12_18420			
ASD12_18425			
ASD12_04100			
ASD12_04105			
ASD12_18430			
ASD12_04110			
ASD12_18435			
ASD12_18440		cobH	
ASD12_04115			
ASD12_04120			
ASD12_18445			
ASD12_04125			
ASD12_18450			
ASD12_04130			
ASD12_18455			
ASD12_04135			
ASD12_18460			
ASD12_18465			
ASD12_31775			
ASD12_31780			
ASD12_18470			
ASD12_04145			
ASD12_18475			
ASD12_31785			
ASD12_04150			
ASD12_04155			
ASD12_31790			
ASD12_18480			
ASD12_31795			
ASD12_04160			
ASD12_18485			
ASD12_31800			
ASD12_26015			
ASD12_18490			
ASD12_04170			
ASD12_31805			
ASD12_04175			
ASD12_18495			
ASD12_31810			
ASD12_18505			
ASD12_04180			
ASD12_31815			
ASD12_18510			
ASD12_04185			
ASD12_18515			
ASD12_18520			
ASD12_31820			
ASD12_04190			
ASD12_31825			
ASD12_04195			
ASD12_31830			
ASD12_18525			
ASD12_04200			
ASD12_31835		ggt	
ASD12_04205			
ASD12_18530			
ASD12_04210			
ASD12_31840			
ASD12_18535			
ASD12_31845			
ASD12_18540			
ASD12_04215			
ASD12_31850			
ASD12_18545			
ASD12_04220			
ASD12_31855			
ASD12_04225			
ASD12_18555			
ASD12_18550			
ASD12_31860			
ASD12_04230			
ASD12_31865			
ASD12_18560			
ASD12_31870			
ASD12_24380			
ASD12_18565			
ASD12_04240			
ASD12_18570			
ASD12_31875			
ASD12_04245			
ASD12_04250			
ASD12_00005			
ASD12_18575			
ASD12_00010			
ASD12_04255			
ASD12_00015			
ASD12_24640			
ASD12_00020			
ASD12_04260			
ASD12_00025			
ASD12_00030			
ASD12_05720			
ASD12_00035			
ASD12_04265			
ASD12_00040			
ASD12_04270			
ASD12_26540			
ASD12_00045			
ASD12_00050			
ASD12_04280			
ASD12_04285			
ASD12_00055			
ASD12_00060			
ASD12_04290			
ASD12_00065			
ASD12_00070			
ASD12_04295			
ASD12_00075			
ASD12_00080			
ASD12_00085			
ASD12_04300			
ASD12_00090			
ASD12_00095			
ASD12_04305			
ASD12_00100			
ASD12_21995			
ASD12_00105			
ASD12_00110			
ASD12_04315			
ASD12_00115			
ASD12_00120			
ASD12_04320			
ASD12_00125			
ASD12_00130			
ASD12_04325			
ASD12_00135			
ASD12_00140			
ASD12_00145			
ASD12_04330			
ASD12_00150			
ASD12_00155			
ASD12_04335			
ASD12_00160			
ASD12_00165			
ASD12_04340			
ASD12_00170			
ASD12_04345			
ASD12_00175			
ASD12_00180			
ASD12_00185			
ASD12_00190			
ASD12_04355			
ASD12_00195			
ASD12_04360			
ASD12_00200			
ASD12_04365			
ASD12_00205			
ASD12_00210			
ASD12_04370			
ASD12_00215			
ASD12_04375			
ASD12_04380			
ASD12_00225			
ASD12_04385			
ASD12_00230			
ASD12_00240			
ASD12_00245			
ASD12_04395			
ASD12_00250			
ASD12_04400			
ASD12_00255			
ASD12_00260			
ASD12_00265			
ASD12_04405			
ASD12_00270			
ASD12_04410			
ASD12_00275			
ASD12_04415			
ASD12_00280			
ASD12_04420			
ASD12_00285			
ASD12_04425			
ASD12_00290			
ASD12_00295			
ASD12_00300			
ASD12_04430			
ASD12_00305			
ASD12_04435			
ASD12_00310			
ASD12_00315			
ASD12_04440			
ASD12_00320			
ASD12_00325			
ASD12_00330			
ASD12_04445			
ASD12_00335			
ASD12_04450			
ASD12_00340			
ASD12_00350			
ASD12_00355			
ASD12_04455			
ASD12_00360			
ASD12_00365			
ASD12_04460			
ASD12_00370			
ASD12_04465			
ASD12_00375			
ASD12_00380			
ASD12_31260			
ASD12_04470			
ASD12_00385			
ASD12_00390			
ASD12_00395			
ASD12_04475			
ASD12_00400			
ASD12_04480			
ASD12_00405			
ASD12_00410			
ASD12_04485			
ASD12_00415			
ASD12_00420			
ASD12_00425			
ASD12_04490			
ASD12_00430			
ASD12_04495			
ASD12_00435			
ASD12_00440			
ASD12_04500			
ASD12_00445			
ASD12_00450			
ASD12_00455			
ASD12_04505			
ASD12_00460		pepN	
ASD12_04510			
ASD12_00465			
ASD12_00470			
ASD12_00475			
ASD12_00480			
ASD12_04520			
ASD12_00485			
ASD12_04525			
ASD12_00490			
ASD12_00495			
ASD12_04530			
ASD12_00500			
ASD12_00505			
ASD12_31515			
ASD12_04535			
ASD12_31520			
ASD12_23125			
ASD12_00510			
ASD12_04540			
ASD12_31525			
ASD12_00515			
ASD12_31530			
ASD12_00520			
ASD12_00525			
ASD12_31535			
ASD12_04550			
ASD12_00530			
ASD12_00535			
ASD12_00540			
ASD12_31540			
ASD12_04560		sucA	
ASD12_00545			
ASD12_00550			
ASD12_31545			
ASD12_04565			
ASD12_00555			
ASD12_00565			
ASD12_00560			
ASD12_04570			
ASD12_31550			
ASD12_31555			
ASD12_04575			
ASD12_00570			
ASD12_00575			
ASD12_24970			
ASD12_31560			
ASD12_04580			
ASD12_00580			
ASD12_31565			
ASD12_31570			
ASD12_00585			
ASD12_04590			
ASD12_00590			
ASD12_31575			
ASD12_04595			
ASD12_00595			
ASD12_00600			
ASD12_04600			
ASD12_31580			
ASD12_31585		sucC	
ASD12_00605			
ASD12_00610			
ASD12_04610			
ASD12_31590			
ASD12_31595			
ASD12_00615			
ASD12_31600			
ASD12_05580			
ASD12_00620			
ASD12_00625			
ASD12_04625			
ASD12_31605			
ASD12_00630			
ASD12_31610			
ASD12_31615		glyA	
ASD12_00635			
ASD12_04630			
ASD12_00640			
ASD12_00645			
ASD12_04635			
ASD12_00650			
ASD12_31620			
ASD12_00655			
ASD12_04640			
ASD12_00660			
ASD12_00665			
ASD12_04645			
ASD12_00670			
ASD12_00675			
ASD12_31630			
ASD12_04650			
ASD12_00680			
ASD12_04655			
ASD12_00685			
ASD12_00690			
ASD12_04660			
ASD12_00695			
ASD12_00700			
ASD12_31645			
ASD12_00705			
ASD12_00710			
ASD12_00715			
ASD12_31650			
ASD12_00720			
ASD12_00725			
ASD12_31655			
ASD12_04675			
ASD12_00730			
ASD12_00735			
ASD12_31660			
ASD12_04680			
ASD12_00740			
ASD12_00745			
ASD12_31665			
ASD12_00755			
ASD12_00750			
ASD12_04690			
ASD12_31670			
ASD12_00760			
ASD12_31675			
ASD12_04695			
ASD12_00765			
ASD12_00770			
ASD12_00775			
ASD12_31680			
ASD12_00790			
ASD12_00780			
ASD12_00785			
ASD12_31685			
ASD12_04705			
ASD12_31690			
ASD12_00805			
ASD12_00795			
ASD12_04710			
ASD12_00800			
ASD12_04715			
ASD12_31695			
ASD12_00810			
ASD12_31700			
ASD12_00815			
ASD12_04720			
ASD12_00820			
ASD12_00825			
ASD12_31705			
ASD12_04725			
ASD12_31710			
ASD12_04730			
ASD12_00830			
ASD12_00835			
ASD12_31715			
ASD12_04735			
ASD12_00845			
ASD12_31720			
ASD12_00850			
ASD12_31725			
ASD12_00855			
ASD12_04740			
ASD12_00860			
ASD12_31730			
ASD12_00865			
ASD12_04745			
ASD12_00870			
ASD12_00880			
ASD12_00875			
ASD12_04750			
ASD12_31735			
ASD12_00885			
ASD12_00890			
ASD12_00895			
ASD12_31740			
ASD12_31745			
ASD12_00900			
ASD12_04765			
ASD12_00905			
ASD12_00910			
ASD12_31750			
ASD12_00925			
ASD12_00915			
ASD12_04770			
ASD12_00920			
ASD12_04775			
ASD12_31755			
ASD12_00930			
ASD12_31760			
ASD12_04780			
ASD12_00935			
ASD12_00940			
ASD12_31765			
ASD12_00945			
ASD12_04785			
ASD12_00950			
ASD12_00955			
ASD12_31770			
ASD12_04790			
ASD12_00960			
ASD12_04795			
ASD12_00965			
ASD12_00970			
ASD12_04800			
ASD12_00975			
ASD12_04805			
ASD12_00980			
ASD12_00985			
ASD12_04810			
ASD12_00990			
ASD12_00995			
ASD12_01000			
ASD12_04815			
ASD12_01005			
ASD12_01010			
ASD12_04820			
ASD12_01015			
ASD12_04825			
ASD12_01020			
ASD12_01025			
ASD12_04830			
ASD12_01030			
ASD12_01035			
ASD12_04835			
ASD12_01040			
ASD12_04840			
ASD12_01045			
ASD12_01050			
ASD12_04845			
ASD12_01055			
ASD12_01060			
ASD12_04850			
ASD12_01065			
ASD12_04855			
ASD12_01070			
ASD12_04860			
ASD12_01075			
ASD12_01080			
ASD12_04865			
ASD12_01090			
ASD12_23275			
ASD12_04875			
ASD12_01095			
ASD12_04880			
ASD12_01100			
ASD12_04885			
ASD12_01105			
ASD12_04890			
ASD12_26945			
ASD12_04895			
ASD12_01115			
ASD12_04900			
ASD12_01120			
ASD12_01125			
ASD12_04905			
ASD12_01130			
ASD12_01135			
ASD12_24540			
ASD12_01140			
ASD12_04910			
ASD12_01145			
ASD12_01150			
ASD12_04915			
ASD12_01155			
ASD12_01160			
ASD12_01165			
ASD12_21275			
ASD12_01170			
ASD12_26725			
ASD12_04930			
ASD12_01175			
ASD12_01180			
ASD12_04935			
ASD12_01185			
ASD12_01190			
ASD12_04940			
ASD12_01195			
ASD12_04945			
ASD12_01200			
ASD12_01210			
ASD12_21140			
ASD12_01215			
ASD12_01220			
ASD12_01225			
ASD12_04955			
ASD12_01230			
ASD12_04960			
ASD12_01235			
ASD12_01240			
ASD12_04965			
ASD12_01245			
ASD12_01265			
ASD12_01250			
ASD12_31365			
ASD12_01255			
ASD12_04970			
ASD12_01260			
ASD12_04975			
ASD12_31370			
ASD12_01270			
ASD12_31375			
ASD12_01275			
ASD12_04980			
ASD12_31380			
ASD12_04985			
ASD12_01280			
ASD12_01285			
ASD12_01290			
ASD12_31385			
ASD12_01295			
ASD12_01300			
ASD12_31390			
ASD12_01310			
ASD12_01305		rnhA	
ASD12_05000			
ASD12_31395			
ASD12_01320			
ASD12_01315			
ASD12_05005			
ASD12_31400			
ASD12_31405			
ASD12_01325			
ASD12_01330			
ASD12_01340			
ASD12_01335			
ASD12_05015			
ASD12_31410			
ASD12_01345			
ASD12_31415			
ASD12_05020			
ASD12_01350			
ASD12_01360			
ASD12_01355			
ASD12_05025			
ASD12_31420			
ASD12_31425			
ASD12_01365			
ASD12_05030			
ASD12_01370		tldD	
ASD12_01380			
ASD12_01375			
ASD12_05035			
ASD12_31430			
ASD12_01385			
ASD12_31435			
ASD12_05040			
ASD12_01390			
ASD12_31440			
ASD12_01395			
ASD12_05045			
ASD12_01400			
ASD12_01410			
ASD12_01405			
ASD12_31445			
ASD12_31450			
ASD12_05050			
ASD12_01415			
ASD12_05055			
ASD12_01420			
ASD12_01425			
ASD12_31455			
ASD12_05060			
ASD12_01430			
ASD12_01450			
ASD12_01435			
ASD12_31460			
ASD12_01440			
ASD12_05065			
ASD12_01445			
ASD12_31465			
ASD12_31470			
ASD12_05070			
ASD12_01455			
ASD12_05075			
ASD12_01460			
ASD12_01465			
ASD12_01470			
ASD12_31475			
ASD12_01490			
ASD12_01475			
ASD12_01480			
ASD12_31480			
ASD12_05085			
ASD12_01485			
ASD12_05090			
ASD12_31485			
ASD12_01500			
ASD12_01495			
ASD12_05095			
ASD12_31490			
ASD12_01510			
ASD12_01505			
ASD12_05100			
ASD12_31495			
ASD12_31500			
ASD12_01515			
ASD12_05105			
ASD12_01520		ubiA	
ASD12_01525			
ASD12_01530			
ASD12_05110			
ASD12_01535			
ASD12_01540			
ASD12_05115			
ASD12_01545			
ASD12_01550			
ASD12_23235			
ASD12_01555			
ASD12_01560			
ASD12_05125			
ASD12_01565			
ASD12_01570			
ASD12_05130			
ASD12_01575			
ASD12_01580			
ASD12_01585			
ASD12_05140			
ASD12_01590			
ASD12_01595			
ASD12_01600			
ASD12_05145			
ASD12_01605			
ASD12_01610			
ASD12_05150			
ASD12_01615			
ASD12_01620			
ASD12_05155			
ASD12_01625			
ASD12_05160			
ASD12_01630			
ASD12_01635			
ASD12_05165			
ASD12_01640			
ASD12_01645			
ASD12_01650			
ASD12_05175			
ASD12_01655			
ASD12_01660			
ASD12_05180			
ASD12_01665			
ASD12_05185			
ASD12_01670			
ASD12_01675			
ASD12_01680			
ASD12_05190			
ASD12_01685			
ASD12_05195			
ASD12_01690			
ASD12_01695			
ASD12_01700			
ASD12_05200			
ASD12_01705			
ASD12_01710			
ASD12_05205			
ASD12_01715			
ASD12_01720			
ASD12_01725			
ASD12_05215			
ASD12_01730			
ASD12_01735			
ASD12_05220			
ASD12_01740			
ASD12_01745			
ASD12_01750			
ASD12_05225			
ASD12_01755			
ASD12_05230			
ASD12_01760			
ASD12_01765			
ASD12_01770			
ASD12_01775			
ASD12_01780			
ASD12_05240			
ASD12_01785			
ASD12_05245			
ASD12_01790			
ASD12_01795			
ASD12_01800			
ASD12_05250			
ASD12_01805			
ASD12_05255			
ASD12_01810			
ASD12_01815			
ASD12_01820			
ASD12_05260			
ASD12_01825			
ASD12_05265			
ASD12_01830			
ASD12_01835			
ASD12_01840			
ASD12_05270			
ASD12_01845			
ASD12_05275			
ASD12_01850			
ASD12_05280			
ASD12_01855			
ASD12_01860			
ASD12_05285			
ASD12_01865			
ASD12_01870			
ASD12_05290			
ASD12_01875			
ASD12_01880			
ASD12_05295			
ASD12_01885			
ASD12_05300			
ASD12_01890			
ASD12_01895			
ASD12_05305			
ASD12_01900			
ASD12_01905			
ASD12_01910			
ASD12_05310			
ASD12_01915			
ASD12_01920			
ASD12_05315			
ASD12_01925			
ASD12_01930			
ASD12_05320			
ASD12_01935			
ASD12_05325			
ASD12_01940			
ASD12_01945			
ASD12_05330			
ASD12_01950			
ASD12_01960			
ASD12_01955			
ASD12_05340			
ASD12_31170			
ASD12_31175			
ASD12_01965			
ASD12_31180			
ASD12_01970			
ASD12_05345			
ASD12_01975			
ASD12_31185			
ASD12_01980			
ASD12_05350			
ASD12_01985			
ASD12_05355			
ASD12_01990			
ASD12_01995			
ASD12_31190			
ASD12_05360			
ASD12_02000			
ASD12_02005			
ASD12_31195			
ASD12_02020			
ASD12_02010			
ASD12_05365			
ASD12_02015			
ASD12_05370			
ASD12_31200			
ASD12_02035			
ASD12_02025			
ASD12_02030			
ASD12_31205			
ASD12_05375			
ASD12_31210			
ASD12_05380			
ASD12_02040			
ASD12_02045			
ASD12_05385			
ASD12_31220			
ASD12_05390			
ASD12_02050			
ASD12_31225			
ASD12_05395			
ASD12_02055			
ASD12_31230			
ASD12_05400			
ASD12_02060			
ASD12_02065			
ASD12_31235			
ASD12_05405			
ASD12_31240			
ASD12_05410			
ASD12_02070			
ASD12_02075			
ASD12_31245			
ASD12_05415			
ASD12_02080			
ASD12_05420			
ASD12_31250			
ASD12_31255			
ASD12_02085			
ASD12_05425			
ASD12_05430			
ASD12_02090			
ASD12_02095			
ASD12_31265			
ASD12_05435			
ASD12_31270			
ASD12_02100			
ASD12_05440			
ASD12_31275			
ASD12_05445			
ASD12_02105			
ASD12_02110			
ASD12_31280			
ASD12_05450			
ASD12_31285			
ASD12_02115			
ASD12_05455			
ASD12_31290			
ASD12_02120			
ASD12_05460			
ASD12_31295			
ASD12_05465			
ASD12_02125			
ASD12_31300			
ASD12_04700			
ASD12_31305			
ASD12_02130			
ASD12_05470			
ASD12_02135			
ASD12_05475			
ASD12_02140			
ASD12_02145			
ASD12_31310			
ASD12_02155			
ASD12_02150			
ASD12_05480			
ASD12_31315			
ASD12_02170			
ASD12_02160			
ASD12_05485			
ASD12_02165			
ASD12_05490			
ASD12_31320			
ASD12_02175			
ASD12_31325			
ASD12_02185			
ASD12_02180		murQ	
ASD12_05495			
ASD12_31330		groEL	
ASD12_02210			
ASD12_02190			
ASD12_05500			
ASD12_02195			
ASD12_02200			
ASD12_31335			
ASD12_05505			
ASD12_02205			
ASD12_26215			
ASD12_31340			
ASD12_05510			
ASD12_31345			
ASD12_05515			
ASD12_02215			
ASD12_02220			
ASD12_31350			
ASD12_21700			
ASD12_02225			
ASD12_02230			
ASD12_05525			
ASD12_02235			
ASD12_05530			
ASD12_02240			
ASD12_02245			
ASD12_05535			
ASD12_02250			
ASD12_02255			
ASD12_05540			
ASD12_02260			
ASD12_02265			
ASD12_05545			
ASD12_02270			
ASD12_02275			
ASD12_02280			
ASD12_05550			
ASD12_02285			
ASD12_05555			
ASD12_02290			
ASD12_20800			
ASD12_05565			
ASD12_02295			
ASD12_02300			
ASD12_05575			
ASD12_02305			
ASD12_02310			
ASD12_02315			
ASD12_02320			
ASD12_02325			
ASD12_05590		obgE	
ASD12_02330			
ASD12_02335			
ASD12_02340			
ASD12_02345			
ASD12_02350			
ASD12_02355			
ASD12_05605			
ASD12_02360			
ASD12_02365			
ASD12_02370			
ASD12_02375			
ASD12_02380			
ASD12_02385			
ASD12_02390			
ASD12_05620			
ASD12_02395			
ASD12_02400			
ASD12_02405			
ASD12_02410			
ASD12_05630			
ASD12_02415			
ASD12_21020			
ASD12_02420			
ASD12_05635			
ASD12_02425			
ASD12_02430			
ASD12_02435			
ASD12_02440			
ASD12_05645			
ASD12_02445			
ASD12_05650			
ASD12_02450			
ASD12_02455			
ASD12_02460			
ASD12_02465			
ASD12_02900			
ASD12_02470			
ASD12_02895			
ASD12_02475			
ASD12_05665			
ASD12_02480			
ASD12_02850			
ASD12_02485			
ASD12_02835			
ASD12_02490			
ASD12_05670			
ASD12_02495			
ASD12_02820			
ASD12_02500			
ASD12_02505			
ASD12_22070			
ASD12_05680			
ASD12_02510			
ASD12_02815			
ASD12_02515			
ASD12_05685			
ASD12_02520			
ASD12_02800			
ASD12_02525			
ASD12_02785			
ASD12_02530			
ASD12_05690			
ASD12_02535			
ASD12_05695			
ASD12_02540			
ASD12_02770			
ASD12_02545			
ASD12_02740			
ASD12_02550			
ASD12_05700			
ASD12_02555			
ASD12_02730			
ASD12_02560			
ASD12_02725			
ASD12_02565			
ASD12_05710			
ASD12_02570			
ASD12_02680			
ASD12_02575			
ASD12_02650			
ASD12_02580			
ASD12_05715			
ASD12_02585			
ASD12_02645			
ASD12_02590			
ASD12_02595			
ASD12_30990			
ASD12_05725			
ASD12_02600			
ASD12_02635			
ASD12_02605			
ASD12_02630			
ASD12_02610			
ASD12_05730			
ASD12_02615			
ASD12_31000			
ASD12_02620			
ASD12_05735			
ASD12_02625			
ASD12_05740			
ASD12_31005			
ASD12_15690			
ASD12_31010			
ASD12_05745			
ASD12_02640			
ASD12_15695			
ASD12_15700			
ASD12_31015			
ASD12_31020			
ASD12_05750			
ASD12_02655			
ASD12_05755			
ASD12_02660			
ASD12_15705			
ASD12_02665			
ASD12_05760			
ASD12_31025			
ASD12_15715			
ASD12_02675			
ASD12_31030			
ASD12_31035			
ASD12_05765			
ASD12_02685			
ASD12_02715			
ASD12_02690			
ASD12_02695			
ASD12_31040			
ASD12_02710			
ASD12_02700			
ASD12_15725			
ASD12_02705			
ASD12_15730			
ASD12_31045			
ASD12_15735			
ASD12_31050			
ASD12_23005			
ASD12_02720			
ASD12_05785			
ASD12_15745			
ASD12_05790			
ASD12_31055			
ASD12_15750			
ASD12_02735			
ASD12_05795			
ASD12_31060			
ASD12_02745			
ASD12_31065			
ASD12_15755			
ASD12_02750			
ASD12_02755			
ASD12_31070			
ASD12_05805			
ASD12_02760			
ASD12_15760			
ASD12_02765			
ASD12_15765			
ASD12_31075			
ASD12_05810			
ASD12_02775			
ASD12_02780			
ASD12_15770			
ASD12_05815			
ASD12_31085			
ASD12_05820			
ASD12_02790			
ASD12_15775			
ASD12_02795			
ASD12_15780			
ASD12_31090			
ASD12_05825			
ASD12_02805			
ASD12_05830			
ASD12_02810			
ASD12_15785			
ASD12_15790			
ASD12_05835			
ASD12_31100			
ASD12_02830			
ASD12_02825			
ASD12_15795			
ASD12_31105			
ASD12_05840			
ASD12_31110			
ASD12_02845			
ASD12_15800			
ASD12_05845			
ASD12_02840			
ASD12_15805			
ASD12_15810			
ASD12_05850			
ASD12_31120			
ASD12_05855			
ASD12_02855			
ASD12_02885			
ASD12_02860			
ASD12_15815			
ASD12_31125			
ASD12_05860			
ASD12_02865			
ASD12_15820			
ASD12_31130			
ASD12_31135			
ASD12_02870			
ASD12_05870			
ASD12_02875			
ASD12_15825			
ASD12_02880			
ASD12_15830			
ASD12_31140			
ASD12_05875			
ASD12_31145			
ASD12_05880			
ASD12_02890			
ASD12_15835			
ASD12_15840			
ASD12_05885			
ASD12_31150			
ASD12_31155			
ASD12_02905			
ASD12_15845			
ASD12_05890			
ASD12_02935			
ASD12_15850			
ASD12_02910			
ASD12_05895			
ASD12_02915			
ASD12_02920			
ASD12_15855			
ASD12_05900			
ASD12_02925			
ASD12_02930			
ASD12_05905			
ASD12_15860			
ASD12_15865			
ASD12_05910			
ASD12_02940			
ASD12_02955			
ASD12_02945			
ASD12_15870			
ASD12_02950			
ASD12_05915			
ASD12_15875			
ASD12_05920			
ASD12_02960			
ASD12_02965			
ASD12_15880			
ASD12_02970			
ASD12_05925			
ASD12_02975			
ASD12_15885			
ASD12_02980			
ASD12_05930			
ASD12_02985			
ASD12_02990			
ASD12_15890			
ASD12_02995			
ASD12_03000			
ASD12_05940			
ASD12_15895			
ASD12_03005			
ASD12_05945			
ASD12_03010			
ASD12_15900			
ASD12_03015			
ASD12_03020			
ASD12_05950			
ASD12_15905			
ASD12_03025			
ASD12_05955			
ASD12_03030			
ASD12_03035			
ASD12_15915			
ASD12_03040			
ASD12_05960			
ASD12_03045			
ASD12_15920			
ASD12_03050			
ASD12_05965			
ASD12_03055			
ASD12_05970			
ASD12_03060			
ASD12_03065			
ASD12_15930			
ASD12_05975			
ASD12_03070			
ASD12_05980			
ASD12_15935			
ASD12_03080			
ASD12_15940			
ASD12_03085			
ASD12_05990		rpmE	
ASD12_03095			
ASD12_15945			
ASD12_03090			
ASD12_15950			
ASD12_06000			
ASD12_05995			
ASD12_03100			
ASD12_15955			
ASD12_03110		cysW	
ASD12_03115			
ASD12_15960			
ASD12_03120			
ASD12_03135			
ASD12_03125			
ASD12_15965			
ASD12_03130			
ASD12_25260			
ASD12_15970			
ASD12_06015			
ASD12_03140			
ASD12_15975			
ASD12_03145			
ASD12_03235			
ASD12_15980			
ASD12_06025			
ASD12_03160			
ASD12_06030			
ASD12_03155			
ASD12_15985			
ASD12_06035			
ASD12_15990			
ASD12_03165			
ASD12_15995			
ASD12_03170			
ASD12_06040			
ASD12_03175			
ASD12_03230			
ASD12_03180			
ASD12_06045			
ASD12_03185			
ASD12_16000			
ASD12_03190			
ASD12_06050			
ASD12_03195			
ASD12_16005			
ASD12_03200			
ASD12_06055			
ASD12_03205			
ASD12_16010			
ASD12_03210			
ASD12_16015			
ASD12_03215			
ASD12_06060			
ASD12_03220			
ASD12_03225			
ASD12_16020			
ASD12_06065			
ASD12_26150			
ASD12_06085			
ASD12_16025			
ASD12_06070			
ASD12_03240			
ASD12_06075			
ASD12_03245			
ASD12_16030			
ASD12_03250			
ASD12_32015			
ASD12_03255			
ASD12_06080			
ASD12_03260			
ASD12_31115			
ASD12_03265			
ASD12_06090			
ASD12_03270			
ASD12_23485			
ASD12_03275			
ASD12_16045			
ASD12_03280			
ASD12_16050			
ASD12_03290			
ASD12_03295			
ASD12_06100			
ASD12_16055			
ASD12_03300			
ASD12_03305			
ASD12_06105			
ASD12_16060			
ASD12_03310			
ASD12_03315			
ASD12_06110			
ASD12_16065			
ASD12_03320			
ASD12_16070			
ASD12_03325			
ASD12_06115			
ASD12_03330			
ASD12_03335			
ASD12_06120		tolB	
ASD12_16075			
ASD12_03340			
ASD12_16080			
ASD12_03345			
ASD12_03350			
ASD12_06130			
ASD12_03355			
ASD12_16085			
ASD12_03360			
ASD12_06135			
ASD12_03365			
ASD12_16090			
ASD12_03370			
ASD12_03410			
ASD12_03405			
ASD12_16095			
ASD12_03375			
ASD12_03380			
ASD12_16100			
ASD12_06145			
ASD12_06150		glmM	
ASD12_16105			
ASD12_30765			
ASD12_03390			
ASD12_03385			
ASD12_06155			
ASD12_30770			
ASD12_16110			
ASD12_03395			
ASD12_06160			
ASD12_30775			
ASD12_16115			
ASD12_03400			
ASD12_06165			
ASD12_30780			
ASD12_16120			
ASD12_06170			
ASD12_30380			
ASD12_30785			
ASD12_16125			
ASD12_30790			
ASD12_06175			
ASD12_03415			
ASD12_16130			
ASD12_30795			
ASD12_16135			
ASD12_06180			
ASD12_03420			
ASD12_16140			
ASD12_30800			
ASD12_06185			
ASD12_30805			
ASD12_16145			
ASD12_03430			
ASD12_06190			
ASD12_06205			
ASD12_16150			
ASD12_30810			
ASD12_06195			
ASD12_16155			
ASD12_21755			
ASD12_30815			
ASD12_06200			
ASD12_30820			
ASD12_16160			
ASD12_16165			
ASD12_30825			
ASD12_06210		tbpA	
ASD12_06215			
ASD12_30830			
ASD12_16170			
ASD12_30835			
ASD12_16175			
ASD12_06220			
ASD12_30840			
ASD12_06225			
ASD12_06230			
ASD12_16180			
ASD12_30845			
ASD12_16185			
ASD12_30850			
ASD12_06235			
ASD12_16190			
ASD12_06240			
ASD12_16195			
ASD12_30855			
ASD12_30860			
ASD12_16200			
ASD12_06245			
ASD12_21790			
ASD12_16205			
ASD12_06250			
ASD12_06255			
ASD12_16210			
ASD12_30870			
ASD12_30875			
ASD12_16215			
ASD12_06260			
ASD12_06265			
ASD12_30880			
ASD12_16220			
ASD12_06270			
ASD12_16225			
ASD12_06275			
ASD12_30890			
ASD12_16230			
ASD12_06280			
ASD12_30895		gabD	
ASD12_16235			
ASD12_16240			
ASD12_30900			
ASD12_06285			
ASD12_16245			
ASD12_30905			
ASD12_06290			
ASD12_30910			
ASD12_06295			
ASD12_06300			
ASD12_30915			
ASD12_16255			
ASD12_30920			
ASD12_16260			
ASD12_06305			
ASD12_30925			
ASD12_06310			
ASD12_16265			
ASD12_30930			
ASD12_06315			
ASD12_16270			
ASD12_06320			
ASD12_30935			
ASD12_16275			
ASD12_06330			
ASD12_06325			
ASD12_30940			
ASD12_16280			
ASD12_30945			
ASD12_16285			
ASD12_30950			
ASD12_22640			
ASD12_16290			
ASD12_06335			
ASD12_30955			
ASD12_16295			
ASD12_06340			
ASD12_06345			
ASD12_30960			
ASD12_16300			
ASD12_16305			
ASD12_30965			
ASD12_06350			
ASD12_16310			
ASD12_06355			
ASD12_16315			
ASD12_16320			
ASD12_30975			
ASD12_06360			
ASD12_30980			
ASD12_24945			
ASD12_06370			
ASD12_16325			
ASD12_06375			
ASD12_30725			
ASD12_06380			
ASD12_16335			
ASD12_16340			
ASD12_06385			
ASD12_06390			
ASD12_16345			
ASD12_27510			
ASD12_06395		purE	
ASD12_16350			
ASD12_06400			
ASD12_16355			
ASD12_16360			
ASD12_06405			
ASD12_06410			
ASD12_16365			
ASD12_06415			
ASD12_16370			
ASD12_16375			
ASD12_06420			
ASD12_16380			
ASD12_06425			
ASD12_06430			
ASD12_16385			
ASD12_16390			
ASD12_06435			
ASD12_24725			
ASD12_16395			
ASD12_06445			
ASD12_16400			
ASD12_06450			
ASD12_16405			
ASD12_06455			
ASD12_16410			
ASD12_06460			
ASD12_16415			
ASD12_16420			
ASD12_06465			
ASD12_16425			
ASD12_06470			
ASD12_21235			
ASD12_16430			
ASD12_06475			
ASD12_16435			
ASD12_16440			
ASD12_16445			
ASD12_06490			
ASD12_06495			
ASD12_06500			
ASD12_16455			
ASD12_06505			
ASD12_16460			
ASD12_06510			
ASD12_16465			
ASD12_04555			
ASD12_06515			
ASD12_16470			
ASD12_06520			
ASD12_16475			
ASD12_06525			
ASD12_16480			
ASD12_24195			
ASD12_06530			
ASD12_16485			
ASD12_16490			
ASD12_06535			
ASD12_06540			
ASD12_16495			
ASD12_16500			
ASD12_06545			
ASD12_06550			
ASD12_16505			
ASD12_06555			
ASD12_16510			
ASD12_16515			
ASD12_16520			
ASD12_06570			
ASD12_16525			
ASD12_06575			
ASD12_16530			
ASD12_16535			
ASD12_06580			
ASD12_16540			
ASD12_06585			
ASD12_16545			
ASD12_06595			
ASD12_06600			
ASD12_16555			
ASD12_06605			
ASD12_16560			
ASD12_06610			
ASD12_16565			
ASD12_06615			
ASD12_16570			
ASD12_06620		pgk	
ASD12_16575			
ASD12_06625			
ASD12_16580			
ASD12_16585			
ASD12_06630		gapA	
ASD12_06635			
ASD12_16590			
ASD12_16595			
ASD12_06640			
ASD12_16600			
ASD12_06645			
ASD12_06650			
ASD12_16605			
ASD12_16610			
ASD12_06655			
ASD12_16615			
ASD12_30505			
ASD12_06660			
ASD12_06665			
ASD12_30510			
ASD12_16620			
ASD12_30515			
ASD12_16625			
ASD12_06670			
ASD12_06675			
ASD12_30520			
ASD12_16630			
ASD12_30525			
ASD12_16635			
ASD12_06685			
ASD12_16640			
ASD12_30530			
ASD12_06690			
ASD12_16645			
ASD12_30535			
ASD12_16650			
ASD12_30540			
ASD12_06700			
ASD12_30545			
ASD12_16655			
ASD12_06705			
ASD12_25510			
ASD12_16660			
ASD12_30550			
ASD12_30555			
ASD12_16665			
ASD12_30560			
ASD12_16670			
ASD12_30565			
ASD12_16675			
ASD12_16680			
ASD12_30570			
ASD12_30575			
ASD12_16685			
ASD12_16690			
ASD12_30585			
ASD12_16695			
ASD12_30590			
ASD12_16700			
ASD12_16705			
ASD12_30595			
ASD12_25325			
ASD12_30600			
ASD12_16710			
ASD12_30605			
ASD12_16715			
ASD12_16720			
ASD12_30610			
ASD12_16725			
ASD12_30615			
ASD12_30620			
ASD12_16730			
ASD12_16735			
ASD12_30625			
ASD12_30630			
ASD12_16740			
ASD12_30635			
ASD12_16745			
ASD12_30640			
ASD12_30645			
ASD12_16755			
ASD12_30650			
ASD12_25735			
ASD12_16760			
ASD12_30655			
ASD12_16765			
ASD12_30660			
ASD12_16770		clpS	
ASD12_30665			
ASD12_09635			
ASD12_16775			
ASD12_30670			
ASD12_16780			
ASD12_30675			
ASD12_16785			
ASD12_30680			
ASD12_16790			
ASD12_30685			
ASD12_16795			
ASD12_30690			
ASD12_16800			
ASD12_30695			
ASD12_21075			
ASD12_16805			
ASD12_30700			
ASD12_16810			
ASD12_30705			
ASD12_16815			
ASD12_16820			
ASD12_30710			
ASD12_30715			
ASD12_16825			
ASD12_22660			
ASD12_30720			
ASD12_16830			
ASD12_30195		ureC	
ASD12_16835			
ASD12_30730			
ASD12_16840			
ASD12_30735			
ASD12_16845			
ASD12_16850			
ASD12_30740			
ASD12_30745			
ASD12_16855			
ASD12_30750			
ASD12_16860			
ASD12_16865			
ASD12_30755			
ASD12_28745			
ASD12_16870			
ASD12_16875			
ASD12_16880			
ASD12_16885			
ASD12_16890			
ASD12_20905			
ASD12_16895			
ASD12_16900			
ASD12_27325			
ASD12_16905			
ASD12_16910			
ASD12_16915			
ASD12_16920			
ASD12_16925			
ASD12_16930			
ASD12_16935			
ASD12_16940			
ASD12_16945			
ASD12_16950			
ASD12_16955			
ASD12_16960			
ASD12_16965			
ASD12_16970			
ASD12_16975			
ASD12_16980			
ASD12_16985			
ASD12_16990			
ASD12_16995			
ASD12_17000			
ASD12_17005			
ASD12_17010			
ASD12_17015			
ASD12_17020			
ASD12_17025			
ASD12_17030			
ASD12_17035			
ASD12_17040			
ASD12_17045			
ASD12_17050			
ASD12_17055			
ASD12_17060			
ASD12_17065			
ASD12_17070			
ASD12_17075			
ASD12_17085			
ASD12_17090			
ASD12_17095			
ASD12_17105			
ASD12_17110			
ASD12_17115			
ASD12_17120			
ASD12_06005			
ASD12_17125			
ASD12_17130			
ASD12_17135			
ASD12_17140			
ASD12_22080			
ASD12_17145			
ASD12_17150			
ASD12_17155			
ASD12_25785			
ASD12_25790			
ASD12_25795			
ASD12_25800			
ASD12_25805			
ASD12_25810			
ASD12_25815			
ASD12_25825			
ASD12_25830			
ASD12_25835			
ASD12_25845			
ASD12_25850			
ASD12_25855			
ASD12_25860			
ASD12_25865			
ASD12_25870			
ASD12_25875			
ASD12_22585			
ASD12_25885			
ASD12_25890			
ASD12_25085			
ASD12_25895			
ASD12_25900			
ASD12_25905			
ASD12_25910			
ASD12_25915			
ASD12_25920			
ASD12_25925			
ASD12_25930			
ASD12_25935			
ASD12_25940			
ASD12_25945			
ASD12_21870			
ASD12_25950			
ASD12_25955			
ASD12_25960			
ASD12_24835			
ASD12_25970			
ASD12_23480			
ASD12_25980			
ASD12_25985			
ASD12_25990			
ASD12_25995			
ASD12_26005		pntB	
ASD12_25030			
ASD12_22595			
ASD12_26020			
ASD12_26025			
ASD12_26030			
ASD12_26035			
ASD12_26040			
ASD12_26045			
ASD12_26050			
ASD12_26055			
ASD12_26060			
ASD12_26065			
ASD12_26070			
ASD12_26075			
ASD12_26080			
ASD12_26085			
ASD12_26090			
ASD12_26095			
ASD12_21005			
ASD12_26100			
ASD12_26110			
ASD12_26115			
ASD12_26120		livF	
ASD12_26125			
ASD12_26135			
ASD12_26140			
ASD12_26145			
ASD12_26155		gabD	
ASD12_26160			
ASD12_26165			
ASD12_26170			
ASD12_26175			
ASD12_26180			
ASD12_26190			
ASD12_26200			
ASD12_26205			
ASD12_26210			
ASD12_26220			
ASD12_26225			
ASD12_25230			
ASD12_26230			
ASD12_24425			
ASD12_26235			
ASD12_26240			
ASD12_26250			
ASD12_23965			
ASD12_26265			
ASD12_07865			
ASD12_24465			
ASD12_24490			
ASD12_25110			
ASD12_24360			
ASD12_24740			
ASD12_05615			
ASD12_24980			
ASD12_23565			
ASD12_25310			
ASD12_25315			
ASD12_25330			
ASD12_25335			
ASD12_25340			
ASD12_25350			
ASD12_25355			
ASD12_25360			
ASD12_25370			
ASD12_25375			
ASD12_25380			
ASD12_25385			
ASD12_25390			
ASD12_25395			
ASD12_25400			
ASD12_25405			
ASD12_25410			
ASD12_25415			
ASD12_25420			
ASD12_25425			
ASD12_21090			
ASD12_25430			
ASD12_25435			
ASD12_25445			
ASD12_25450			
ASD12_25455			
ASD12_25460			
ASD12_25465			
ASD12_25470			
ASD12_25475			
ASD12_25490			
ASD12_25495			
ASD12_25500			
ASD12_25505			
ASD12_25515			
ASD12_25520			
ASD12_25525			
ASD12_25530		glnQ	
ASD12_25535			
ASD12_25540			
ASD12_25545			
ASD12_25550			
ASD12_23715			
ASD12_25570			
ASD12_25575			
ASD12_25580			
ASD12_25585			
ASD12_25595			
ASD12_25600			
ASD12_25605			
ASD12_25610			
ASD12_25615			
ASD12_25620			
ASD12_25625			
ASD12_25630			
ASD12_25635			
ASD12_27735			
ASD12_25640			
ASD12_08260			
ASD12_25645			
ASD12_04670			
ASD12_25650			
ASD12_25655			
ASD12_23075			
ASD12_25660			
ASD12_23685			
ASD12_25665			
ASD12_25670			
ASD12_25675			
ASD12_25680			
ASD12_24660			
ASD12_25685			
ASD12_25690			
ASD12_06485			
ASD12_25700			
ASD12_25705			
ASD12_25710			
ASD12_25720			
ASD12_25725			
ASD12_25730			
ASD12_14280			
ASD12_14285			
ASD12_25740			
ASD12_25745			
ASD12_14290			
ASD12_25750			
ASD12_14295			
ASD12_25755			
ASD12_14300			
ASD12_25760			
ASD12_14305			
ASD12_25765			
ASD12_14310			
ASD12_25770			
ASD12_14315			
ASD12_14320			
ASD12_25775			
ASD12_14325			
ASD12_14330			
ASD12_14335			
ASD12_14340			
ASD12_14350			
ASD12_14355			
ASD12_14360			
ASD12_14365			
ASD12_14370			
ASD12_14375			
ASD12_14380			
ASD12_14385			
ASD12_14390			
ASD12_14395			
ASD12_14400			
ASD12_14405			
ASD12_14410			
ASD12_14415			
ASD12_14420			
ASD12_14425			
ASD12_23975			
ASD12_14430			
ASD12_06710			
ASD12_14435			
ASD12_14440			
ASD12_06720			
ASD12_14445			
ASD12_14450			
ASD12_06725			
ASD12_06730			
ASD12_14455			
ASD12_06735			
ASD12_14460			
ASD12_14465			
ASD12_06740			
ASD12_14470			
ASD12_06745			
ASD12_14475			
ASD12_06750			
ASD12_06755			
ASD12_14480			
ASD12_06760			
ASD12_14485			
ASD12_06765			
ASD12_14490			
ASD12_06770			
ASD12_14495			
ASD12_06775			
ASD12_06695			
ASD12_14505			
ASD12_06780			
ASD12_06785			
ASD12_14510			
ASD12_06790			
ASD12_14515			
ASD12_06795			
ASD12_14520			
ASD12_06800			
ASD12_14525			
ASD12_20825			
ASD12_06805			
ASD12_14530			
ASD12_14535			
ASD12_06810			
ASD12_06815			
ASD12_14540			
ASD12_14545			
ASD12_06825			
ASD12_14550			
ASD12_06830			
ASD12_14555			
ASD12_06835			
ASD12_14560			
ASD12_06840			
ASD12_14565			
ASD12_14570			
ASD12_06845			
ASD12_14575			
ASD12_06850			
ASD12_06855			
ASD12_14580			
ASD12_06860			
ASD12_14585			
ASD12_14590			
ASD12_06865			
ASD12_14595			
ASD12_06870			
ASD12_06875			
ASD12_14600			
ASD12_06880			
ASD12_14605			
ASD12_06885			
ASD12_14610			
ASD12_06890			
ASD12_14615			
ASD12_06895			
ASD12_14620			
ASD12_06900			
ASD12_14625			
ASD12_28415			
ASD12_06905			
ASD12_14630			
ASD12_14635			
ASD12_06910			
ASD12_06915			
ASD12_14640			
ASD12_14645			
ASD12_06920			
ASD12_06925			
ASD12_14650			
ASD12_14655			
ASD12_06930			
ASD12_06935			
ASD12_14660			
ASD12_06940			
ASD12_14665		phnK	
ASD12_24130			
ASD12_06945			
ASD12_14670			
ASD12_14675			
ASD12_06955			
ASD12_14680			
ASD12_06960			
ASD12_14685			
ASD12_06965			
ASD12_14690			
ASD12_22610			
ASD12_06970			
ASD12_14695			
ASD12_06975			
ASD12_14700			
ASD12_06980			
ASD12_14705			
ASD12_06985			
ASD12_14710			
ASD12_06990			
ASD12_14715			
ASD12_06995			
ASD12_14720			
ASD12_20895			
ASD12_14725			
ASD12_14730			
ASD12_07005			
ASD12_14735			
ASD12_07015			
ASD12_14740			
ASD12_14745			
ASD12_07020			
ASD12_07025			
ASD12_14750			
ASD12_07030			
ASD12_14755			
ASD12_07035			
ASD12_14760			
ASD12_14765			
ASD12_07040			
ASD12_14770			
ASD12_07045			
ASD12_07050			
ASD12_14775			
ASD12_07055			
ASD12_14780			
ASD12_07060			
ASD12_14785			
ASD12_07065			
ASD12_14790			
ASD12_07070			
ASD12_14795			
ASD12_07075			
ASD12_14800			
ASD12_14805			
ASD12_07080			
ASD12_23590			
ASD12_14810			
ASD12_07085			
ASD12_14815			
ASD12_07090			
ASD12_23440			
ASD12_07095			
ASD12_14820			
ASD12_07100			
ASD12_06560			
ASD12_14825			
ASD12_21950			
ASD12_07105			
ASD12_14830			
ASD12_07110			
ASD12_14835			
ASD12_07115			
ASD12_14840			
ASD12_14845			
ASD12_07120			
ASD12_22335			
ASD12_14850			
ASD12_07125			
ASD12_07130		trpA	
ASD12_07135			
ASD12_14860			
ASD12_14865			
ASD12_07140			
ASD12_25115			
ASD12_07145			
ASD12_14870			
ASD12_07150			
ASD12_14875			
ASD12_07155			
ASD12_14880			
ASD12_07160			
ASD12_05120			
ASD12_07165			
ASD12_14890			
ASD12_14895			
ASD12_07170			
ASD12_07175			
ASD12_14900			
ASD12_07180			
ASD12_14905			
ASD12_14910			
ASD12_07185		rplT	
ASD12_07190			
ASD12_14915			
ASD12_07195			
ASD12_14920			
ASD12_07200			
ASD12_14925			
ASD12_07205			
ASD12_14930			
ASD12_14935			
ASD12_07210			
ASD12_07215			
ASD12_14940			
ASD12_14945			
ASD12_07220			
ASD12_07225			
ASD12_14950			
ASD12_07230			
ASD12_13410			
ASD12_14955			
ASD12_24700			
ASD12_07235			
ASD12_14960			
ASD12_24705			
ASD12_07240			
ASD12_14965			
ASD12_07245			
ASD12_14970			
ASD12_24715			
ASD12_24710			
ASD12_07250			
ASD12_14975			
ASD12_04755			
ASD12_14980			
ASD12_07255			
ASD12_14985			
ASD12_07260			
ASD12_07265			
ASD12_14990			
ASD12_24735			
ASD12_24730			
ASD12_07270			
ASD12_14995			
ASD12_15000			
ASD12_07275			
ASD12_24245			
ASD12_15005			
ASD12_07280			
ASD12_24745			
ASD12_07285			
ASD12_15010			
ASD12_24755			
ASD12_24750			
ASD12_07290			
ASD12_15015			
ASD12_15020			
ASD12_07295			
ASD12_24760			
ASD12_22940			
ASD12_15025			
ASD12_07300			
ASD12_24765			
ASD12_15030			
ASD12_07305			
ASD12_24185			
ASD12_15035			
ASD12_07310			
ASD12_24780			
ASD12_24775			
ASD12_07315			
ASD12_15040			
ASD12_07320			
ASD12_15045			
ASD12_07325			
ASD12_24785			
ASD12_15050			
ASD12_15055			
ASD12_07330			
ASD12_24790			
ASD12_24795			
ASD12_29435			
ASD12_15060			
ASD12_07340			
ASD12_24800			
ASD12_15065			
ASD12_24805			
ASD12_07345			
ASD12_15070			
ASD12_07350			
ASD12_24810			
ASD12_15075			
ASD12_07355			
ASD12_24815			
ASD12_15080			
ASD12_24820			
ASD12_07360			
ASD12_15085			
ASD12_24825			
ASD12_15090			
ASD12_07365			
ASD12_24830			
ASD12_07370			
ASD12_15095			
ASD12_15100			
ASD12_07375			
ASD12_24840			
ASD12_15105			
ASD12_24850			
ASD12_07385			
ASD12_15110			
ASD12_24860			
ASD12_24855			
ASD12_07390			
ASD12_15115			
ASD12_07395			
ASD12_15120			
ASD12_07400			
ASD12_15125			
ASD12_24870			
ASD12_24875			
ASD12_07405			
ASD12_15130			
ASD12_07410			
ASD12_15135			
ASD12_24880			
ASD12_15140			
ASD12_07415			
ASD12_24885			
ASD12_07420			
ASD12_15145			
ASD12_07425			
ASD12_24890			
ASD12_15150			
ASD12_07430			
ASD12_24895			
ASD12_15155			
ASD12_15160			
ASD12_24900			
ASD12_07435			
ASD12_24905			
ASD12_24910			
ASD12_07440			
ASD12_15165			
ASD12_07445			
ASD12_15170			
ASD12_24915			
ASD12_24920			
ASD12_07450			
ASD12_15175			
ASD12_07455			
ASD12_15180			
ASD12_24925			
ASD12_07460			
ASD12_24930			
ASD12_15185			
ASD12_15190			
ASD12_07465			
ASD12_05640			
ASD12_07470			
ASD12_15195			
ASD12_24940			
ASD12_15200			
ASD12_07475			
ASD12_07480			
ASD12_15205			
ASD12_15210			
ASD12_24950			
ASD12_07485			
ASD12_24955			
ASD12_24080			
ASD12_15215			
ASD12_07490			
ASD12_24960			
ASD12_15220			
ASD12_07495			
ASD12_15225			
ASD12_24965			
ASD12_07500			
ASD12_15230			
ASD12_07505			
ASD12_24975			
ASD12_15235			
ASD12_07510			
ASD12_07515			
ASD12_22010			
ASD12_15240			
ASD12_15245			
ASD12_24990			
ASD12_15250			
ASD12_07525			
ASD12_24995			
ASD12_07530			
ASD12_23880			
ASD12_15255			
ASD12_07535			
ASD12_25000			
ASD12_15260			
ASD12_15265			
ASD12_25015			
ASD12_25010			
ASD12_07545			
ASD12_15270			
ASD12_07550			
ASD12_15275			
ASD12_15280			
ASD12_07555			
ASD12_25020			
ASD12_07560			
ASD12_25025			
ASD12_15285			
ASD12_22600			
ASD12_25035			
ASD12_07565			
ASD12_15295			
ASD12_25040			
ASD12_07570			
ASD12_15300			
ASD12_15305			
ASD12_07575			
ASD12_15310			
ASD12_25045			
ASD12_07945			
ASD12_25050			
ASD12_15315			
ASD12_25055			
ASD12_07590			
ASD12_15320			
ASD12_25065			
ASD12_25060			
ASD12_07595			
ASD12_15325			
ASD12_25070			
ASD12_15330			
ASD12_07605			
ASD12_15335			
ASD12_25075			
ASD12_15340			
ASD12_07610			
ASD12_25080			
ASD12_15345			
ASD12_07615			
ASD12_23095			
ASD12_15350			
ASD12_07620			
ASD12_15355			
ASD12_25090			
ASD12_07625			
ASD12_25100			
ASD12_07630			
ASD12_15360			
ASD12_07635			
ASD12_15365			
ASD12_25105			
ASD12_07645			
ASD12_15375			
ASD12_07650			
ASD12_15380			
ASD12_25120			
ASD12_07655			
ASD12_15385			
ASD12_15390			
ASD12_07660			
ASD12_25130			
ASD12_07665			
ASD12_15395			
ASD12_25135		truB	
ASD12_07725			
ASD12_15400			
ASD12_07670			
ASD12_24410			
ASD12_07675			
ASD12_25140			
ASD12_25145			
ASD12_15405			
ASD12_07680			
ASD12_07685			
ASD12_25150			
ASD12_25155			
ASD12_15415			
ASD12_15420			
ASD12_07690			
ASD12_25160			
ASD12_07695			
ASD12_07700			
ASD12_25165			
ASD12_25170			
ASD12_15430			
ASD12_07705			
ASD12_15435			
ASD12_25175			
ASD12_07710			
ASD12_15440			
ASD12_25180			
ASD12_07715			
ASD12_15445			
ASD12_25185			
ASD12_15450			
ASD12_07720			
ASD12_25190			
ASD12_25195			
ASD12_15455			
ASD12_25200			
ASD12_07730			
ASD12_25205			
ASD12_07735			
ASD12_15465			
ASD12_07740			
ASD12_25210			
ASD12_25215			
ASD12_15470			
ASD12_07745			
ASD12_15475			
ASD12_15480			
ASD12_07750			
ASD12_25220			
ASD12_25225			
ASD12_15485			
ASD12_07755			
ASD12_21715			
ASD12_07760			
ASD12_15490			
ASD12_25235			
ASD12_07765			
ASD12_15495			
ASD12_15500			
ASD12_07770			
ASD12_25240			
ASD12_25245			
ASD12_07775			
ASD12_15505			
ASD12_15510			
ASD12_25250			
ASD12_07780			
ASD12_25255			
ASD12_07785			
ASD12_15515			
ASD12_07790			
ASD12_15520			
ASD12_07795			
ASD12_15525			
ASD12_25265			
ASD12_15530			
ASD12_25270			
ASD12_07800			
ASD12_04235			
ASD12_25275			
ASD12_07805			
ASD12_25280			
ASD12_07810			
ASD12_15540			
ASD12_15545			
ASD12_07820			
ASD12_25285			
ASD12_25290			
ASD12_15550			
ASD12_25295			
ASD12_07830			
ASD12_15555			
ASD12_25300			
ASD12_07835			
ASD12_15560			
ASD12_15565			
ASD12_07840			
ASD12_25305			
ASD12_07845			
ASD12_15570			
ASD12_07850			
ASD12_15575			
ASD12_07855			
ASD12_15580			
ASD12_07860			
ASD12_15585			
ASD12_15590			
ASD12_07870			
ASD12_15595			
ASD12_28955			
ASD12_07875			
ASD12_15600			
ASD12_15605			
ASD12_07880			
ASD12_07885			
ASD12_15610			
ASD12_07890			
ASD12_15615			
ASD12_15620			
ASD12_07895			
ASD12_15625			
ASD12_07900			
ASD12_07905			
ASD12_15630			
ASD12_07910			
ASD12_15635			
ASD12_07915			
ASD12_15640			
ASD12_07920			
ASD12_15650			
ASD12_27085			
ASD12_07925			
ASD12_15655			
ASD12_07930			
ASD12_15660			
ASD12_15665			
ASD12_07935			
ASD12_15670			
ASD12_07940			
ASD12_15675			
ASD12_15680			
ASD12_07950			
ASD12_22985			
ASD12_28215			
ASD12_07955			
ASD12_07960			
ASD12_23700			
ASD12_07965			
ASD12_07975		mscL	
ASD12_07980			
ASD12_22175			
ASD12_07990			
ASD12_07995			
ASD12_08000			
ASD12_03720			
ASD12_08020			
ASD12_08025			
ASD12_08030			
ASD12_08035			
ASD12_08040			
ASD12_08045			
ASD12_08050			
ASD12_08055			
ASD12_08060			
ASD12_08065			
ASD12_08070			
ASD12_08075			
ASD12_08080			
ASD12_08085			
ASD12_24635			
ASD12_08090			
ASD12_23870			
ASD12_08100			
ASD12_08105			
ASD12_08110			
ASD12_08115			
ASD12_08120			
ASD12_26835			
ASD12_08125			
ASD12_08130			
ASD12_22105			
ASD12_08135			
ASD12_08140			
ASD12_08145			
ASD12_08150			
ASD12_08155			
ASD12_08160			
ASD12_08165			
ASD12_08170			
ASD12_08175			
ASD12_08180			
ASD12_08185			
ASD12_08190			
ASD12_08195			
ASD12_08200			
ASD12_30970			
ASD12_29455			
ASD12_08205			
ASD12_08210			
ASD12_08215			
ASD12_08220			
ASD12_08225			
ASD12_08230			
ASD12_08235			
ASD12_08240			
ASD12_08245			
ASD12_08250			
ASD12_08255			
ASD12_08265			
ASD12_08270			
ASD12_08275			
ASD12_08280			
ASD12_08285			
ASD12_08290			
ASD12_08300			
ASD12_08305			
ASD12_08310			
ASD12_08315			
ASD12_08320			
ASD12_08325			
ASD12_08335		prpE	
ASD12_08340			
ASD12_08345			
ASD12_08350			
ASD12_08355			
ASD12_08360			
ASD12_08365			
ASD12_08370			
ASD12_08375			
ASD12_08380			
ASD12_08385			
ASD12_08390			
ASD12_08395			
ASD12_08400			
ASD12_08405			
ASD12_08410			
ASD12_08415			
ASD12_08420			
ASD12_08425			
ASD12_08430			
ASD12_08435			
ASD12_25480			
ASD12_08445			
ASD12_08450			
ASD12_08455		nhaA	
ASD12_08460			
ASD12_08465			
ASD12_08470			
ASD12_08475			
ASD12_08480			
ASD12_08485			
ASD12_08490			
ASD12_23840			
ASD12_08495			
ASD12_08500			
ASD12_24030			
ASD12_08505			
ASD12_08510			
ASD12_24035			
ASD12_08515			
ASD12_24040			
ASD12_24045			
ASD12_08520			
ASD12_24050			
ASD12_08525			
ASD12_20935			
ASD12_24055		dppD	
ASD12_08530			
ASD12_08535			
ASD12_24060			
ASD12_24065			
ASD12_08540			
ASD12_24070			
ASD12_08545			
ASD12_24075			
ASD12_22000			
ASD12_08555			
ASD12_08560			
ASD12_24085			
ASD12_24090			
ASD12_08565			
ASD12_08570			
ASD12_24095			
ASD12_24100			
ASD12_08575			
ASD12_08580			
ASD12_24110			
ASD12_24115			
ASD12_24125			
ASD12_24140			
ASD12_24150			
ASD12_24155			
ASD12_24160			
ASD12_24165			
ASD12_24170			
ASD12_27030			
ASD12_24175			
ASD12_24180			
ASD12_24190			
ASD12_24200			
ASD12_24205			
ASD12_24210			
ASD12_24215			
ASD12_24220			
ASD12_24225			
ASD12_24230			
ASD12_24235			
ASD12_24240			
ASD12_24250			
ASD12_24255			
ASD12_24260			
ASD12_24265			
ASD12_24270			
ASD12_24275			
ASD12_24280			
ASD12_24285			
ASD12_24290		gatB	
ASD12_24295			
ASD12_24300			
ASD12_24305			
ASD12_24310			
ASD12_24315			
ASD12_24320			
ASD12_24325			
ASD12_24330			
ASD12_24340			
ASD12_24345			
ASD12_24350			
ASD12_24355			
ASD12_24365			
ASD12_24370			
ASD12_24375			
ASD12_24385			
ASD12_24390			
ASD12_24395			
ASD12_24015			
ASD12_24400			
ASD12_22380			
ASD12_24405			
ASD12_24415			
ASD12_24420			
ASD12_24430			
ASD12_24435			
ASD12_24440			
ASD12_24445			
ASD12_30190			
ASD12_24450			
ASD12_30200			
ASD12_24455			
ASD12_24460			
ASD12_30205			
ASD12_30210			
ASD12_24470			
ASD12_30215			
ASD12_24475			
ASD12_30220			
ASD12_24480			
ASD12_30225			
ASD12_22155			
ASD12_24485			
ASD12_30230			
ASD12_21125			
ASD12_30235			
ASD12_30240			
ASD12_24495			
ASD12_24505			
ASD12_24510			
ASD12_30250			
ASD12_24515			
ASD12_30255			
ASD12_30260			
ASD12_30265			
ASD12_24525			
ASD12_24530			
ASD12_30270			
ASD12_24535			
ASD12_30275			
ASD12_22970			
ASD12_30280			
ASD12_30285			
ASD12_24545			
ASD12_24550			
ASD12_30290			
ASD12_24565			
ASD12_30295			
ASD12_30300			
ASD12_24570			
ASD12_30305			
ASD12_24575			
ASD12_30310			
ASD12_22540			
ASD12_24590			
ASD12_30320			
ASD12_30325			
ASD12_24605			
ASD12_30335			
ASD12_30340			
ASD12_30345			
ASD12_30350			
ASD12_24620			
ASD12_30355			
ASD12_24630			
ASD12_30360			
ASD12_30365			
ASD12_30370			
ASD12_24645			
ASD12_30375			
ASD12_24650			
ASD12_24655			
ASD12_30385			
ASD12_30390			
ASD12_24665			
ASD12_30395			
ASD12_24670			
ASD12_30400			
ASD12_24675			
ASD12_30405			
ASD12_24680			
ASD12_30410			
ASD12_24685			
ASD12_30415			
ASD12_30420			
ASD12_24690			
ASD12_30425			
ASD12_30430			
ASD12_30435			
ASD12_30440			
ASD12_30445			
ASD12_30450			
ASD12_30455			
ASD12_30460			
ASD12_10715			
ASD12_30465			
ASD12_30470			
ASD12_30475			
ASD12_30480			
ASD12_30485			
ASD12_30490			
ASD12_30495			
ASD12_24595			
ASD12_23260			
ASD12_22945			
ASD12_22725			
ASD12_22195			
ASD12_23510			
ASD12_21840			
ASD12_23325		fixJ	
ASD12_29900		hisG	
ASD12_29905		hisZ	
ASD12_29910			
ASD12_29915			
ASD12_29920			
ASD12_29925			
ASD12_29930			
ASD12_29935			
ASD12_29940			
ASD12_29950			
ASD12_29955			
ASD12_23085			
ASD12_29960			
ASD12_29965		lldD	
ASD12_29970			
ASD12_29975			
ASD12_29980			
ASD12_22835			
ASD12_29985			
ASD12_29990			
ASD12_29995			
ASD12_30000			
ASD12_30005			
ASD12_22375			
ASD12_30020			
ASD12_23030			
ASD12_30025			
ASD12_30030			
ASD12_30035			
ASD12_30040		eutB	
ASD12_30045			
ASD12_30050			
ASD12_30055			
ASD12_30060			
ASD12_30065			
ASD12_23230			
ASD12_30070			
ASD12_22425			
ASD12_30075			
ASD12_30080			
ASD12_30085			
ASD12_30090			
ASD12_30095			
ASD12_30100			
ASD12_30110			
ASD12_30115			
ASD12_22465			
ASD12_30120			
ASD12_30125			
ASD12_22490			
ASD12_30135			
ASD12_30140			
ASD12_04310			
ASD12_23110			
ASD12_22360			
ASD12_30145			
ASD12_30150			
ASD12_22740			
ASD12_30155			
ASD12_30160			
ASD12_30165			
ASD12_30170			
ASD12_04075			
ASD12_23370			
ASD12_23375			
ASD12_04685			
ASD12_23380			
ASD12_23385			
ASD12_23390			
ASD12_05660			
ASD12_23395			
ASD12_23400			
ASD12_23410			
ASD12_23415			
ASD12_23420			
ASD12_23425			
ASD12_23430			
ASD12_22145			
ASD12_23435			
ASD12_23450			
ASD12_12300			
ASD12_12305			
ASD12_28400			
ASD12_23455			
ASD12_12310			
ASD12_23460			
ASD12_12315			
ASD12_12320			
ASD12_23465			
ASD12_23960			
ASD12_23470			
ASD12_12325			
ASD12_23475			
ASD12_12330			
ASD12_23345			
ASD12_12335			
ASD12_23900			
ASD12_29065			
ASD12_12340			
ASD12_23490			
ASD12_12345			
ASD12_23495			
ASD12_12350			
ASD12_23500			
ASD12_12355			
ASD12_23505			
ASD12_12360			
ASD12_12370			
ASD12_23520			
ASD12_12375			
ASD12_23525			
ASD12_23530			
ASD12_12380			
ASD12_27230			
ASD12_12385			
ASD12_12390			
ASD12_23535			
ASD12_23540			
ASD12_12395			
ASD12_12400			
ASD12_23550			
ASD12_12405			
ASD12_12410			
ASD12_12415			
ASD12_12420			
ASD12_25965			
ASD12_23570			
ASD12_23575			
ASD12_12425			
ASD12_23580			
ASD12_12435			
ASD12_23585			
ASD12_12445			
ASD12_12450			
ASD12_23595			
ASD12_12455			
ASD12_22270			
ASD12_23600			
ASD12_12460			
ASD12_23610			
ASD12_03940			
ASD12_12465			
ASD12_12470			
ASD12_23615			
ASD12_12475			
ASD12_23625			
ASD12_12480			
ASD12_05080			
ASD12_23630			
ASD12_12485			
ASD12_12490			
ASD12_23635			
ASD12_23640			
ASD12_22120			
ASD12_12495			
ASD12_12500			
ASD12_26465			
ASD12_23645			
ASD12_23650			
ASD12_12505			
ASD12_23655			
ASD12_05585			
ASD12_12510			
ASD12_23660			
ASD12_12515			
ASD12_23665			
ASD12_12520			
ASD12_22980			
ASD12_29495			
ASD12_12525			
ASD12_12530			
ASD12_23675			
ASD12_23680			
ASD12_12535			
ASD12_12540		fumC	
ASD12_23690			
ASD12_12545			
ASD12_12550			
ASD12_23705			
ASD12_12560			
ASD12_23710			
ASD12_12565			
ASD12_12570			
ASD12_23720			
ASD12_12575			
ASD12_23725			
ASD12_23730			
ASD12_12580			
ASD12_12585			
ASD12_21975			
ASD12_12595			
ASD12_23740			
ASD12_23745			
ASD12_23750			
ASD12_12600			
ASD12_12605			
ASD12_12610			
ASD12_12615			
ASD12_23760			
ASD12_12620			
ASD12_23765			
ASD12_23770			
ASD12_23775			
ASD12_12625			
ASD12_22130			
ASD12_12630			
ASD12_23780			
ASD12_12635			
ASD12_23785			
ASD12_12640			
ASD12_12645			
ASD12_23790			
ASD12_23795			
ASD12_12650		groEL	
ASD12_11580			
ASD12_12655			
ASD12_23805			
ASD12_12665			
ASD12_23810			
ASD12_23815			
ASD12_12670			
ASD12_23820			
ASD12_12675			
ASD12_23825			
ASD12_12680			
ASD12_23830			
ASD12_12685			
ASD12_23835			
ASD12_12690			
ASD12_12695			
ASD12_23845			
ASD12_12700			
ASD12_23850			
ASD12_12705			
ASD12_23855			
ASD12_12710			
ASD12_23115			
ASD12_12715			
ASD12_23865			
ASD12_12720			
ASD12_12725			
ASD12_23875			
ASD12_12730			
ASD12_26490			
ASD12_12735			
ASD12_12740			
ASD12_23890			
ASD12_12745			
ASD12_12750			
ASD12_23895			
ASD12_23905			
ASD12_12755			
ASD12_12760			
ASD12_22245			
ASD12_12765			
ASD12_23910			
ASD12_12770			
ASD12_23915			
ASD12_29470			
ASD12_23920			
ASD12_12775			
ASD12_12780			
