# 
#
# Authors:
#
# Please see the license agreement regarding the use of and distribution of this file.
# The format of this file is defined at http://bioinformatics.ai.sri.com/ptools/flatfile-format.html .
#
# Species: Oerskovia sp. Root22
# Database: NIL
# Version: 1.0
# File Name: transunits.dat
# Date and time generated: December 3, 2018, 15:31:12
#
# Attributes:
#    UNIQUE-ID
#    TYPES
#    COMMON-NAME
#    CITATIONS
#    COMMENT
#    COMPONENT-OF
#    COMPONENTS
#    CREDITS
#    DATA-SOURCE
#    DBLINKS
#    DOCUMENTATION
#    EXTENT-UNKNOWN?
#    HIDE-SLOT?
#    INSTANCE-NAME-TEMPLATE
#    LEFT-END-POSITION
#    MEMBER-SORT-FN
#    PATHOLOGIC-NAME-MATCHER-EVIDENCE
#    PATHOLOGIC-PWY-EVIDENCE
#    REGULATED-BY
#    RIGHT-END-POSITION
#    SYNONYMS
#    UNMAPPED-COMPONENT-OF
#
# The GCA_001429135_1_ROOT22 database contains no Transcription-Units.