#
#  gca_001428525_1_root186cyc 1.0 Reactions link table generated on Mon Dec 3, 2018
#
RXN-14014	EC-1.17.1.8
GALACTOSE-OXIDASE-RXN	EC-1.1.3.9
RXN0-5257	
2.7.7.39-RXN	EC-2.7.7.39
RXN-1404	EC-3.5.5.1
2KETO-4METHYL-PENTANOATE-DEHYDROG-RXN	EC-1.2.1.25
METHYLGLUTACONYL-COA-HYDRATASE-RXN	EC-4.2.1.18
RXN0-2301	EC-1.3.8.4
KETOISOCAPROATE-RXN	EC-1.2.4.4
RIBOKIN-RXN	EC-2.7.1.15
TRANS-RXN-311	EC-3.6.3.44
ISOVALERYLCOA-DHLIPOAMIDE-RXN	EC-2.3.1.168
RXN-19301	EC-2.4.2.21
3.6.3.44-RXN	EC-3.6.3.44
RXN-17607	EC-3.5.5.1
UGD-RXN	EC-1.1.1.22
RXN-14223	EC-2.7.1.15
RXN-19299	EC-2.4.2.21
ASPARAGHYD-RXN	EC-3.5.1.38	EC-3.5.1.1
TREHALA-RXN	EC-3.2.1.28
RXN0-4961	EC-3.1.11
RXN-19306	EC-2.4.2.21
12-OXOPHYTODIENOATE-REDUCTASE-RXN	EC-1.3.1.42
RXN-14963	EC-1.3.5.4
RXN-19503	EC-1.2.7.7
RXN-14962	
6PFRUCTPHOS-RXN	EC-2.7.1.11
N-ACETYLGLUCOSAMINE-KINASE-RXN	EC-2.7.1.59
R601-RXN	EC-1.3.5.4
2OXOGLUTARATEDEH-RXN	EC-1.2.1
RXN0-1147	EC-2.3.1.61
5.3.3.10-RXN	EC-5.3.3.10
2OXOGLUTDECARB-RXN	EC-1.2.4.2
METHGLYSYN-RXN	EC-4.2.3.3
2-KETO-ADIPATE-DEHYDROG-RXN	EC-1.2.1
RXN-11026	EC-1.3.3.6
HYDROXYMETHYLGLUTARYL-COA-SYNTHASE-RXN	EC-2.3.3.10
RXN-12518	EC-1.3.3.6
ISOCHORSYN-RXN	EC-5.4.4.2
4.2.2.2-RXN	EC-4.2.2.2
RXN-9310	EC-4.2.99.20
RXN-12669	EC-1.3.3.6
3.4.11.1-RXN	EC-3.4.11.9	EC-3.4.11.1
NAPHTHOATE-SYN-RXN	EC-4.1.3.36
3.1.4.17-RXN	EC-3.1.4.17
RXN-19316	EC-2.4.2.21
RXN-9311	EC-3.1.2.28
RXN-16165	EC-6.1.1.10
ASPARTATEKIN-RXN	EC-2.7.2.4
RXN-14775	EC-1.3.3.6
METHIONINE--TRNA-LIGASE-RXN	EC-6.1.1.10
RXN-17362	EC-3.4.23.36
RXN-15910	EC-3.2.1.20
RXN-15977	EC-1.3.3.6
ISOLEUCINE--TRNA-LIGASE-RXN	EC-6.1.1.5
RXN-14282	EC-3.2.1.20
RXN-19295	EC-2.4.2.21
RXN-14796	EC-1.3.3.6
RXN0-5183	EC-3.2.1.20
RXN-19300	EC-2.4.2.21
RXN-14785	EC-1.3.3.6
GLUTAMATE-DEHYDROGENASE-NADP+-RXN	EC-1.4.1.3
RXN-14283	EC-3.2.1.20
RXN-14576	EC-1.3.3.6
GLUTAMATE-DEHYDROGENASE-RXN	EC-1.4.1.2
RXN-18461	EC-1.3.3.6
RXN-7682	EC-1.17.1.4
RXN-14771	EC-1.3.3.6
MALTODEXGLUCOSID-RXN	EC-3.2.1.20
GART-RXN	EC-2.1.2.2
RXN0-2161	EC-6.1.1.11
RXN-14281	EC-3.2.1.20
SERINE--TRNA-LIGASE-RXN	EC-6.1.1.11
RXN-10696	EC-1.3.3.6
PYRROLINECARBREDUCT-RXN	EC-1.5.1.2
NADPH-DEHYDROGENASE-FLAVIN-RXN	EC-1.5.1.30
RXN-18383	EC-1.3.3.6
RXN66-546	EC-1.5.1.2
RXN-12444	EC-1.5.1.38
RXN-16134	EC-1.3.3.6
FMNREDUCT-RXN	EC-1.5.1.39
RXN0-901	EC-1.17.1.4
3.1.11.2-RXN	EC-3.1.11.2
RXN-17113	EC-1.3.3.6
5-FORMYL-THF-CYCLO-LIGASE-RXN	EC-6.3.3.2
RXN0-279	EC-3.13.1
SUCCGLUDESUCC-RXN	EC-3.5.1.96
RXN-14789	EC-1.3.3.6
RXN-12979	EC-2.7.1.176
THREODEHYD-RXN	EC-1.1.1.103
RXN1A0-6303	EC-1.3.1
RXN-10706	EC-1.3.3.6
GLYOXIII-RXN	EC-4.2.1.130
HOMOGENTISATE-12-DIOXYGENASE-RXN	EC-1.13.11.5
RXN-10707	EC-1.3.3.6
4-HYDROXYPHENYLPYRUVATE-DIOXYGENASE-RXN	EC-1.13.11.27
RXN0-5131	EC-2.7.7
RXN-6341	EC-6.3.2.17
1.8.98.1-RXN	EC-1.8.98.1
RXN-10815	EC-1.13.11.27
RXN-12269	EC-4.2.2.25
FORMYLTHFGLUSYNTH-RXN	EC-6.3.2.17
RXN-8665	EC-1.13.11.11	EC-1.13.11.52
RXN0-2921	EC-6.3.2.17
FOLYLPOLYGLUTAMATESYNTH-RXN	EC-6.3.2.17
CHORISMATE-SYNTHASE-RXN	EC-4.2.3.5
PANTOATE-BETA-ALANINE-LIG-RXN	EC-6.3.2.1
APIGNAR-RXN	EC-5.5.1.6
RXN-11109	EC-3.6.4.13
RXN0-5234	EC-4.1.2
RXN-3221	EC-5.5.1.6
RXN-982	EC-1.20.4.1
FUMARYLACETOACETASE-RXN	EC-3.7.1.2
RXN-7647	EC-5.5.1.6
PYRUVFORMLY-RXN	EC-2.3.1.54
7KAPSYN-RXN	EC-2.3.1.47
IMIDAZOLONEPROPIONASE-RXN	EC-3.5.2.7
AGMATINE-DEIMINASE-RXN	EC-3.5.3.12
CHALCONE-ISOMERASE-RXN	EC-5.5.1.6
RXN-11484	EC-2.3.1.47
RIBOFLAVINKIN-RXN	EC-2.7.1.26
RXN-17792	EC-1.3.8
GUANYL-KIN-RXN	EC-2.7.4.8
NICONUCADENYLYLTRAN-RXN	EC-2.7.7.18
ARGSUCCINLYA-RXN	EC-4.3.2.1
RXN-17784	EC-1.3.8
NICOTINATEPRIBOSYLTRANS-RXN	EC-6.3.4.21
RXN-22	EC-4.3.2.1
ACETYLORNDEACET-RXN	EC-3.5.1.16
RXN-17796	EC-1.3.8
RXN-7933	EC-3.5.1.16
GPPSYN-RXN	EC-2.5.1.1
GLUCONOKIN-RXN	EC-2.7.1.12
1.1.1.264-RXN	EC-1.1.1.264
RXN-17788	EC-1.3.8
PHENYLALANINE--TRNA-LIGASE-RXN	EC-6.1.1.20
ERYTH4PDEHYDROG-RXN	EC-1.2.1.72
ACETYLGLUTKIN-RXN	EC-2.7.2.8
RXN-17779	EC-1.3.8
ERYTHRON4PDEHYDROG-RXN	EC-1.1.1.290
RXN-15005	EC-2.7.2.8
GLUTKIN-RXN	EC-2.7.2.11
ACYLCOADEHYDROG-RXN	EC-1.3.8
GLUTSEMIALDEHYDROG-RXN	EC-1.2.1.41
RXN-17783	EC-1.3.8
ACETYLORNTRANSAM-RXN	EC-2.6.1.11
RXN-7101	
RXN-17775	EC-1.3.8
RXN-15007	EC-2.6.1.11
THI-P-KIN-RXN	EC-2.7.4.16
2.7.13.3-RXN	EC-2.7.13.3
N-ACETYLGLUTPREDUCT-RXN	EC-1.2.1.38
GLYCINE--TRNA-LIGASE-RXN	EC-6.1.1.14
DALADALALIG-RXN	EC-6.3.2.4
RXN-15006	EC-1.2.1.38
PEPDEPHOS-RXN	EC-2.7.1.40
2.8.1.6-RXN	EC-2.8.1.6
RXN-17472	
RXN-14117	EC-2.7.1.40
ARGSUCCINSYN-RXN	EC-6.3.4.5
RXN-17473	
RXN-14207	EC-2.7.1.40
XYLULOKIN-RXN	EC-2.7.1.17
RXN-10	EC-6.3.4.5
RXN-14192	EC-2.7.1.40
DHBDEHYD-RXN	EC-1.3.1.28
2.3.1.128-RXN	EC-2.3.1.266
3.1.26.3-RXN	EC-3.1.26.3
ALTRODEHYDRAT-RXN	EC-4.2.1.7
RXN-9884	EC-1.13.11
RXN0-5100	EC-5.99.1
ASPCARBTRANS-RXN	EC-2.1.3.2
RXN-17155	EC-2.3.1
RXN-9886	EC-5.5.1.7
RXN-17092	
RXN-2043	EC-3.2.1.4
PMPOXI-RXN	EC-1.4.3.5
3.1.26.4-RXN	EC-3.1.26.4
3.2.1.89-RXN	EC-3.2.1.89
PNPOXI-RXN	EC-1.4.3.5
RXN-9885	EC-1.3.1.32
PRPPAMIDOTRANS-RXN	EC-2.4.2.14
2.1.1.77-RXN	EC-2.1.1.77
SUPEROX-DISMUT-RXN	EC-1.15.1.1
3.4.21.50-RXN	EC-3.4.21.50
RXN0-6274	EC-2.5.1.75
AMINOCYL-TRNA-HYDROLASE-RXN	EC-3.1.1.29
RXN-15513	EC-5.4.2.11
RXN-7902	EC-3.1.2.14
RXN-16637	EC-3.1.1.29
MALATE-DEH-RXN	EC-1.1.1.37
RXN-12199	EC-3.6.1.5
3.2.1.50-RXN	EC-3.2.1.50
DEPHOSPHOCOAKIN-RXN	EC-2.7.1.24
RXN0-743	EC-5.4.99.18
RXN-12200	EC-3.6.1.5
RXN-12198	EC-3.6.1.6
RXN-15650	EC-2.6.1
P-PANTOCYSDECARB-RXN	EC-4.1.1.36
RXN-12196	EC-3.6.1.15
RXN-12197	EC-3.6.1.6
AIRCARBOXY-RXN	EC-4.1.1.21
MYO-INOSITOL-OXYGENASE-RXN	EC-1.13.99.1
ENTDB-RXN	EC-2.7.8.7
GLUCOKIN-RXN	EC-2.7.1.1	EC-2.7.1.2
DIHYDRODIPICSYN-RXN	EC-4.3.3.7
HYPOXANPRIBOSYLTRAN-RXN	EC-2.4.2.8
ACETALD-DEHYDROG-RXN	EC-1.2.1.10
PROTEIN-TYROSINE-PHOSPHATASE-RXN	EC-3.1.3.48
GUANPRIBOSYLTRAN-RXN	EC-2.4.2.8
RXN-10837	EC-2.3.1.183
DNA-LIGASE-NAD+-RXN	EC-6.5.1.6	EC-6.5.1.2
1.1.1.39-RXN	EC-1.1.1.38	EC-1.1.1.39
ADENYL-KIN-RXN	EC-2.7.4.3
RXN-17920	
ALDOSE1EPIM-RXN	EC-5.1.3.3
RXN-9382	EC-2.3.1.183
HISTIDINE--TRNA-LIGASE-RXN	EC-6.1.1.21
RXN-18362	
RXN-2881	
ADDALT-RXN	EC-3.5.4.4
RXN-15509	
ARABISOM-RXN	EC-5.3.1.4
RXN-15510	
RXN-15511	
ADENODEAMIN-RXN	EC-3.5.4.4
3.2.1.55-RXN	EC-3.2.1.55
RXN-15512	
5.3.4.1-RXN	EC-5.3.4.1
TRIOSEPISOMERIZATION-RXN	EC-5.3.1.1
RXN0-5419	
RXN0-7081	
RXN-18707	EC-2.8.1
KDO-8PSYNTH-RXN	EC-2.5.1.55
MALEYLACETATE-REDUCTASE-RXN	EC-1.3.1.32
RXN-18708	EC-2.8.1
SELENOCYSTEINE-LYASE-RXN	EC-4.4.1.16
RXN-18709	EC-2.8.1
RXN-18710	
3.2.1.21-RXN	EC-3.2.1.21
2-NITROPROPANE-DIOXYGENASE-RXN	EC-1.13.12.16
ACETATEKIN-RXN	EC-2.7.2.1
PHOSACETYLTRANS-RXN	EC-2.3.1.8
RXN-8529	EC-5.3.2.6
4-CARBOXYMUCONOLACTONE-DECARBOXYLASE-RXN	EC-4.1.1.44
DEOXYCYTIDINE-KINASE-RXN	EC-2.7.1.74
RIB5PISOM-RXN	EC-5.3.1.6
PANTEPADENYLYLTRAN-RXN	EC-2.7.7.3
QOR-RXN	EC-1.6.5.5
GLUC1PADENYLTRANS-RXN	EC-2.7.7.27
OROPRIBTRANS-RXN	EC-2.4.2.10
RXN-13853	EC-1.7.1
RXN-18446	EC-6.2.1.1
BIOTINLIG-RXN	EC-6.3.4.15
1.5.1.20-RXN	EC-1.5.1.20
1.11.1.15-RXN	EC-1.11.1.15
GCVMULTI-RXN	
RXN0-7192	EC-6.3.4.15
FORMATETHFLIG-RXN	EC-6.3.4.3
CDPDIGLYSYN-RXN	EC-2.7.7.41
RXN-18447	EC-6.2.1.1
XANPRIBOSYLTRAN-RXN	EC-2.4.2.22
GCVP-RXN	EC-1.4.4.2
1.14.11.2-RXN	EC-1.14.11.2
RXN0-5515	EC-2.7.7.41
GCVT-RXN	EC-2.1.2.10
RXN-18448	EC-6.2.1.1
PHOSPHASERDECARB-RXN	EC-4.1.1.65
ACETATE--COA-LIGASE-RXN	EC-6.2.1.1
RXN-16283	EC-2.7.8.43
ADENOSYLHOMOCYSTEINE-NUCLEOSIDASE-RXN	EC-3.2.2.9
3.2.2.15-RXN	EC-3.2.2.15
THIOREDOXIN-RXN	
RIBOSYLHOMOCYSTEINASE-RXN	EC-4.4.1.21
ACETOLACTREDUCTOISOM-RXN	EC-1.1.1.86
O-SUCCHOMOSERLYASE-RXN	EC-2.5.1.48
RXN-16284	EC-2.7.8.43
RIBONUCLEOSIDE-DIP-REDUCTI-RXN	EC-1.17.4.1
RXN-16282	EC-2.7.8.43
ACETOOHBUTREDUCTOISOM-RXN	EC-1.1.1.86
RXN0-747	EC-1.17.4.1
ACETOLACTSYN-RXN	EC-2.2.1.6
NAD-SYNTH-GLN-RXN	EC-6.3.5.1
RXN0-722	EC-1.17.4.1
5.99.1.3-RXN	EC-5.99.1.3
ACETOOHBUTSYN-RXN	EC-2.2.1.6
RXN0-748	EC-1.17.4.1
HISTIDINE-AMMONIA-LYASE-RXN	EC-4.3.1.3
ADPREDUCT-RXN	EC-1.17.4.1
DIHYDROXYMETVALDEHYDRAT-RXN	EC-4.2.1.9
GDPREDUCT-RXN	EC-1.17.4.1
HOMOSERKIN-RXN	EC-2.7.1.39
RXN-14381	
CDPREDUCT-RXN	EC-1.17.4.1
DIHYDROXYISOVALDEHYDRAT-RXN	EC-4.2.1.9
RXN-14384	EC-2.8.1
THRESYN-RXN	EC-4.2.3.1
UDPREDUCT-RXN	EC-1.17.4.1
RXN-14386	EC-2.8.1
RXN-14387	
RXN-14388	
HISTCYCLOHYD-RXN	EC-3.5.4.19
RIBONUCLEOSIDE-DIP-REDUCTII-RXN	EC-1.17.4.1
RXN-14389	
CYTIKIN-RXN	EC-2.7.1.213
RXN-14362	EC-5.1.2.7
RXN-14390	
GALACTURAN-14-ALPHA-GALACTURONIDASE-RXN	EC-3.2.1.67
RXN-14391	EC-3.6.4
HISTPRATPHYD-RXN	EC-3.6.1.31
RXN-14753	
3.1.1.72-RXN	EC-3.1.1.72
ORNCARBAMTRANSFER-RXN	EC-2.1.3.3
METHYLCROTONYL-COA-CARBOXYLASE-RXN	EC-6.4.1.4
HISTIDPHOS-RXN	EC-3.1.3.15
RXN-2103	EC-3.2.1.15
2.4.1.129-RXN	EC-2.4.1.129
GLUCONOLACT-RXN	EC-3.1.1.17
IMIDPHOSDEHYD-RXN	EC-4.2.1.19
RXN-8783	EC-3.1.1.17
GALACTOKIN-RXN	EC-2.7.1.6
F16BDEPHOS-RXN	EC-3.1.3.11
RXN-2102	EC-3.1.1.11
DIHYDROOROT-RXN	EC-3.5.2.3
UDPNACETYLGLUCOSAMACYLTRANS-RXN	EC-2.3.1.129
PECTINESTERASE-RXN	EC-3.1.1.11
3.1.2.23-RXN	EC-3.1.2.23
RXN-12002	EC-2.7.4.22	EC-2.7.4.14
3.5.1.88-RXN	EC-3.5.1.88
RXN-14693	
RXN0-5062	EC-6.5.1
ACETYL-COA-CARBOXYLTRANSFER-RXN	EC-6.4.1.2
3.5.1.27-RXN	EC-3.5.1.88
UREIDOGLYCOLATE-LYASE-RXN	EC-4.3.2.3
3-HYDROXYDECANOYL-ACP-DEHYDR-RXN	EC-2.3.1.86	EC-2.3.1.85	EC-4.2.1.59
RXN-14971	EC-1.3.5.1
D-RIBULOKIN-RXN	EC-2.7.1.47
TETHYDPICSUCC-RXN	EC-2.3.1.117
SUCCINATE-DEHYDROGENASE-UBIQUINONE6-RXN	EC-1.3.5.1
CHLORIDE-PEROXIDASE-RXN	EC-1.11.1.10
RXN0-5244-yeast	
GLUCUROISOM-RXN	EC-5.3.1.12
SUCCINATE-DEHYDROGENASE-UBIQUINONE-RXN	EC-1.3.5.1
1.3.99.23-RXN	EC-1.3.99.23
GALACTUROISOM-RXN	EC-5.3.1.12
RXN0-5244	
DEOXYGLUCONOKIN-RXN	EC-2.7.1.178	EC-2.7.1.45
RXN-15378	EC-1.3.5.1
RXN-10819	EC-6.2.1.30
RXN-14451	
RXN0-5245	
SERINE-O-ACETTRAN-RXN	EC-2.3.1.30
CARBOXYMETHYLENEBUTENOLIDASE-RXN	EC-3.1.1.45
DTDPGLUCDEHYDRAT-RXN	EC-4.2.1.46
ASPARTATE-RACEMASE-RXN	EC-5.1.1.13
DIENELACHYDRO-RXN	EC-3.1.1.45
AKBLIG-RXN	EC-2.3.1.29
DUTP-PYROP-RXN	EC-3.6.1.23	EC-3.6.1.9
N-ACETYLNEURAMINATE-SYNTHASE-RXN	EC-2.5.1.56
RXN-9857	EC-3.1.1.45
RXN0-4641	EC-4.2.1.126
PGLUCISOM-RXN	EC-5.3.1.9
DETHIOBIOTIN-SYN-RXN	EC-6.3.3.3
RXN-9868	EC-3.1.1.45
PANTOTHENATE-KIN-RXN	EC-2.7.1.33
URACIL-PRIBOSYLTRANS-RXN	EC-2.4.2.9
RXN-13036	EC-2.3.1.204
5-NUCLEOTID-RXN	EC-3.1.3.5
DTDPDEHYDRHAMEPIM-RXN	EC-5.1.3.13
RXN-9890	EC-3.1.1.45
RXN0-5225	EC-3.5.1.28
XMPXAN-RXN	EC-3.1.3.5
2.3.1.157-RXN	EC-2.3.1.157
RXN0-5227	EC-3.4.17.13
RXN0-2361	EC-6.3.2.45
RXN-11791	EC-2.7.8.31
LONG-CHAIN-FATTY-ACYL-COA-REDUCTASE-RXN	EC-1.2.1.50
RXN-9887	EC-3.1.1.45
RXN-7609	EC-3.1.3.5
RXN-17107	EC-1.2.1.50
PSERTRANSAM-RXN	EC-2.6.1.52
RXN-14026	EC-3.1.3.91	EC-3.1.3.5
ISOCHORMAT-RXN	EC-3.3.2.1
RXN0-7023	EC-3.1.13
PSERTRANSAMPYR-RXN	EC-2.6.1.52
RXN0-1061	EC-3.6.4.9	EC-3.6.4.10
RXN-14227	EC-3.1.3.5
PGLYCDEHYDROG-RXN	EC-1.1.1.95
RXN-9990	EC-2.7.7.43
RXN-5841	EC-3.1.3.5
H2NEOPTERINALDOL-RXN	EC-4.1.2.25
6PGLUCONOLACT-RXN	EC-3.1.1.31
RXN-12178	EC-3.2.1.179
RXN-10857	EC-4.1.2.25
AMP-DEPHOSPHORYLATION-RXN	EC-3.1.3.5
PHOSPHASERSYN-RXN	EC-2.7.8.8
RXN-12270	EC-3.2.1.179
RXN-7607	EC-3.1.3.99	EC-3.1.3.5
4.2.99.18-RXN	EC-4.2.99.18
DARAB5PISOM-RXN	EC-5.3.1.13
RXN-14025	EC-3.1.3.5
NITRITE-REDUCTASE-CYTOCHROME-RXN	EC-1.7.2.1
TRYPTOPHAN--TRNA-LIGASE-RXN	EC-6.1.1.2
RXN-12098	EC-3.1.1.86
RXN-9591	EC-2.3.1
RXN-12097	EC-3.1.1.86
RXN0-2023	EC-2.8.1.13
ACETYLHOMOSER-CYS-RXN	EC-2.5.1.49
PYRUVATEORTHOPHOSPHATE-DIKINASE-RXN	EC-2.7.9.1
RXN-12088	EC-3.2.1.22
IPPISOM-RXN	EC-5.3.3.2
O-ACETYLHOMOSERINE-THIOL-LYASE-RXN	EC-2.5.1.49
RXN-17830	EC-3.2.1.22
CTPSYN-RXN	EC-6.3.4.2
SUCCDIAMINOPIMDESUCC-RXN	EC-3.5.1.18
RXN-14325	
ALPHAGALACTOSID-RXN	EC-3.2.1.22
SUCCINYLDIAMINOPIMTRANS-RXN	EC-2.6.1.17
DXS-RXN	EC-2.2.1.7
MANNPISOM-RXN	EC-5.3.1.8
3-CH3-2-OXOBUTANOATE-OH-CH3-XFER-RXN	EC-2.1.2.11
ARGININE--TRNA-LIGASE-RXN	EC-6.1.1.19
RXN-11502	EC-3.2.1
RXN-15635	EC-2.1.2.11
3.1.26.5-RXN	EC-3.1.26.5
RXN-13163	EC-4.2.1.33
RXN-17754	
RXN-8991	
3-ISOPROPYLMALISOM-RXN	
RXN-11843	EC-5.4.99.29
GLYCOGEN-BRANCH-RXN	EC-2.4.1.18
RXN-11501	EC-3.2.1.22
3.4.24.71-RXN	EC-3.4.24.71
RXN-14372	EC-2.4.1.18
RXN-7669	EC-2.4.1.18
MANNONOXIDOREDUCT-RXN	EC-1.1.1.57
RXN-7710	EC-2.4.1.18
PORPHOBILSYNTH-RXN	EC-4.2.1.24
NAG6PDEACET-RXN	EC-3.5.1.25
RXN-14371	EC-2.4.1.18
RXN-10053	EC-2.2.1.11
NAG1P-URIDYLTRANS-RXN	EC-2.7.7.23
1.6.99.5-RXN	EC-1.6.5.11
3.4.11.5-RXN	EC-3.4.11.5
RXN-18777	EC-2.4.1.18
NADH-DEHYDROGENASE-QUINONE-RXN	EC-1.6.5.11
TETRAACYLDISACC4KIN-RXN	EC-2.7.1.130
3.2.1.14-RXN	EC-3.2.1.14
3.4.21.53-RXN	EC-3.4.21.53
RXN-14957	EC-2.8.1.8
RXN-11832	EC-2.7.4.14	EC-2.7.4.25
1.13.11.6-RXN	EC-1.13.11.6
RXN-14370	EC-3.2.1.139
RXN0-949	EC-2.8.1.8
RXN-7913	EC-2.7.4.25	EC-2.7.4.14	EC-2.7.4.13
PRPPSYN-RXN	EC-2.7.6.1
RXN-14959	EC-2.8.1.8
3.2.1.139-RXN	EC-3.2.1.139
RIBULPEPIM-RXN	EC-5.1.3.4
RXN-14950	EC-2.8.1.8
FORMIMINOGLUTAMASE-RXN	EC-3.5.3.8
RXN0-5116	EC-2.7.1.16
OHMETHYLBILANESYN-RXN	EC-2.5.1.61
RIBULOKIN-RXN	EC-2.7.1.16
GLUTRNAREDUCT-RXN	EC-1.2.1.70
FPPSYN-RXN	EC-2.5.1.10
GALACTURIDYLYLTRANS-RXN	EC-2.7.7.12
PROTOHEMEFERROCHELAT-RXN	EC-4.99.1.1
KDO-8PPHOSPHAT-RXN	EC-3.1.3.45
PROTOPORGENOXI-RXN	EC-1.3.3.4
UDPNACETYLMURAMATEDEHYDROG-RXN	EC-1.3.1.98
2.5.1.64-RXN	EC-2.2.1.9
RXN1G-368	EC-2.3.1.41
RXN-9539	EC-2.3.1.179	EC-2.3.1.41
LUMAZINESYN-RXN	EC-2.5.1.78
RXN-10622	
RXN-10654	EC-2.3.1.179	EC-2.3.1.41
DMK-RXN	EC-2.5.1.74
RXN-9650	EC-2.3.1.86	EC-2.3.1.85	EC-2.3.1.41
THIOREDOXIN-REDUCT-NADPH-RXN	EC-1.8.1.9
RXN-11474	EC-2.3.1.179	EC-2.3.1.41
O-SUCCINYLBENZOATE-COA-SYN-RXN	EC-4.2.1.113
XANTHOSINEPHOSPHORY-RXN	EC-2.4.2.1
RXN-9653	EC-2.3.1.86	EC-2.3.1.85	EC-2.3.1.41
ADENYLATECYC-RXN	EC-4.6.1.1
RXN0-2141	EC-2.3.1.179	EC-2.3.1.41
ALANINE-DEHYDROGENASE-RXN	EC-1.4.1.1
RXN-16629	EC-2.3.1.179	EC-2.3.1.41
RXN-16457	
RXN-9413	EC-3.3.2.8
RXN-9535	EC-2.3.1.179	EC-2.3.1.41	EC-2.3.1.85	EC-2.3.1.86
RXN0-313	EC-4.1.2
RXN-16615	EC-2.3.1.179	EC-2.3.1.41
RXN-9464	EC-3.3.2.8
MANNONDEHYDRAT-RXN	EC-4.2.1.8
RXN1G-445	EC-2.3.1.41
3.3.2.8-RXN	EC-3.3.2.8
3-OXOACYL-ACP-SYNTH-RXN	EC-2.3.1.179	EC-2.3.1.41	EC-2.3.1.85	EC-2.3.1.86
1.5.1.9-RXN	EC-1.5.1.9
RXN-9523	EC-2.3.1.179	EC-2.3.1.41
RXN-9412	EC-3.3.2.8
RXN3O-1803	EC-2.3.1.179	EC-2.3.1.41	EC-2.3.1.86
SPERMIDINESYN-RXN	EC-2.5.1.16
RXN0-1001	EC-3.1.3.8
RXN-9527	EC-2.3.1.179	EC-2.3.1.41
2.3.1.41-RXN	EC-2.3.1.179	EC-2.3.1.41
RXN-16625	EC-2.3.1.179	EC-2.3.1.41
3.2.1.37-RXN	EC-3.2.1.37
RXN-9531	EC-2.3.1.179	EC-2.3.1.41
1.8.4.14-RXN	EC-1.8.4.14
3.1.22.4-RXN	EC-3.1.22.4
RXN-9648	EC-2.3.1.86	EC-2.3.1.85	EC-2.3.1.41
1.8.4.12-RXN	EC-1.8.4.12
2.5.1.46-RXN	EC-2.5.1.46
3.2.1.52-RXN	EC-3.2.1.52
RXN-9652	EC-2.3.1.86	EC-2.3.1.85	EC-2.3.1.41
RXN-13414	
RXN-13415	
RXN-12625	EC-3.2.1.52
RXN1G-499	EC-2.3.1.41
RXN-13416	
RXN-13417	
RXN-12626	EC-3.2.1.52
RXN-10059	EC-2.3.1.41
METHIONYL-TRNA-FORMYLTRANSFERASE-RXN	EC-2.1.2.9
N-SULFOGLUCOSAMINE-SULFOHYDROLASE-RXN	EC-3.10.1.1
RXN-9516	EC-2.3.1.179	EC-2.3.1.41
DISULFOGLUCOSAMINE-6-SULFATASE-RXN	EC-3.1.6.11
RXN0-5226	EC-3.2.1.52
DIHYDRONEOPTERIN-MONO-P-DEPHOS-RXN	EC-3.6.1
RXN-16484	EC-3.2.1.56
3-OXOACYL-ACP-SYNTH-BASE-RXN	EC-2.3.1.179	EC-2.3.1.41	EC-2.3.1.85	EC-2.3.1.86
UDPNACETYLGLUCOSAMENOLPYRTRANS-RXN	EC-2.5.1.7
4.2.2.7-RXN	EC-4.2.2.7
3-DEHYDROQUINATE-SYNTHASE-RXN	EC-4.2.3.4
RXN1G-460	EC-2.3.1.179	EC-2.3.1.41
H2NEOPTERINP3PYROPHOSPHOHYDRO-RXN	EC-3.6.1.67
RXN-18082	EC-3.2.1.52
3-DEHYDROQUINATE-DEHYDRATASE-RXN	EC-4.2.1.10
RXN-9386	EC-6.1.1.24
MEVALONATE-KINASE-RXN	EC-2.7.1.36
RXN-16621	EC-2.3.1.179	EC-2.3.1.41
RXN0-7008	EC-1.5.5.2
PHOSNACMURPENTATRANS-RXN	EC-2.7.8.13
RXN-10658	EC-2.3.1.179	EC-2.3.1.41
RXN-14903	EC-1.5.5.2
PHOSPHOGLUCMUT-RXN	EC-5.4.2.2
RXN0-7005	
RXN0-5298	EC-5.1.3.29
RXN-9632	EC-2.3.1.41
RXN-16997	
RXN-16998	
DIPHOSPHOMEVALONTE-DECARBOXYLASE-RXN	EC-4.1.1.33
RXN-9651	EC-2.3.1.86	EC-2.3.1.85	EC-2.3.1.41
DTDPGLUCOSEPP-RXN	EC-2.7.7.24
RXN-9654	EC-2.3.1.86	EC-2.3.1.85	EC-2.3.1.41
3.8.1.11-RXN	EC-3.8.1.11
CARBPSYN-RXN	EC-6.3.5.5
RXN-11479	EC-2.3.1.179	EC-2.3.1.41
RXN1F-93	EC-1.14.20.k
RXN-6263	EC-3.8.1.11
RXN-6264	EC-3.8.1.9	EC-3.8.1.10
ATPSYN-RXN	EC-3.6.3.14
RXN-13202	EC-6.3.4.16
RXN0-366	EC-3.2.2.1
RXN-16909	
RXN-527	EC-1.14.20.k
2-HALOACID-DEHALOGENASE-RXN	EC-3.8.1.10	EC-3.8.1.2
GLYRIBONUCSYN-RXN	EC-6.3.4.13
RXN-16910	
RXN-14196	EC-2.7.2
GLYCPDIESTER-RXN	EC-3.1.4.46
PHOSGLYPHOS-RXN	EC-2.7.2.3
RXN-19323	EC-3.1.3.73
RXN-14160	EC-3.1.4.46	EC-3.1.4.2
RXN-8631	EC-4.1.2.13
RXN-19310	EC-3.1.3.73
RXN-14073	EC-3.1.4.46
RXN-19319	EC-3.1.3.73
F16ALDOLASE-RXN	EC-4.1.2.13
RXN-19315	EC-3.1.3.73
RXN-14136	EC-3.1.4.46
RXN-19324	EC-3.1.3.73
UROGENDECARBOX-RXN	EC-4.1.1.37
RXN-19314	EC-3.1.3.73
RXN-10642	EC-4.1.1.37
RXN-19320	EC-3.1.3.73
MALTOSE-PHOSPHORYLASE-RXN	EC-2.4.1.8
RXN-19322	EC-3.1.3.73
PEPCARBOXYKIN-RXN	EC-4.1.1.49
PRIBFAICARPISOM-RXN	EC-5.3.1.16
RXN-16788	EC-3.1.3.73
BETA-PHOSPHOGLUCOMUTASE-RXN	EC-5.4.2.6
RXN-16995	
RXN-8770	EC-3.1.3.73
GLUTAMIDOTRANS-RXN	EC-4.3.2
RXN-16996	
RXN-17900	
RXN-19326	EC-3.1.3.73
1.17.4.2-RXN	EC-1.17.4.2
HISTAMINOTRANS-RXN	EC-2.6.1.9
RXN-19313	EC-3.1.3.73
LIPIDADISACCHARIDESYNTH-RXN	EC-2.4.1.182
RXN-8668	EC-1.8.4.11
RXN66-1	EC-1.11.1.6
COBALAMINSYN-RXN	EC-2.7.8.26
RXN-8001	EC-1.1.1.23
HISTOLDEHYD-RXN	
RXN-19304	EC-2.7.8.26
HISTALDEHYD-RXN	
RXN-19308	EC-2.7.8.26
CATAL-RXN	EC-1.11.1.6	EC-1.11.1.21
R311-RXN	EC-3.5.1.4
ATPPHOSPHORIBOSYLTRANS-RXN	EC-2.4.2.17
RXN-19305	EC-2.7.8.26
RXN-14189	EC-1.11.1.6
RXN-19297	EC-2.7.8.26
RXNN-404	EC-3.5.1.4
ARYLSULFAT-RXN	EC-3.1.6.1
3.1.30.1-RXN	EC-3.1.30.1
RXN-19302	EC-2.7.8.26
AMIDASE-RXN	EC-3.5.1.4
RXN-14728	EC-3.5.1.4
UDPACYLGLCNACDEACETYL-RXN	EC-3.5.1.108
RXN-19303	EC-2.7.8.26
RXN-17608	EC-3.5.1.4
UDPHYDROXYMYRGLUCOSAMNACETYLTRANS-RXN	EC-2.3.1.191
RXN-19318	EC-2.7.8.26
PYRAZIN-RXN	EC-3.5.1.4
ASPARTASE-RXN	EC-4.3.1.1
RXN-12539	
GMP-REDUCT-RXN	EC-1.7.1.7
RXN-12540	
RXN0-2584	EC-3.2.2.27
RXN-12541	
RXN-19307	EC-2.7.8.26
GUANIDINOBUTANAMIDE-NH3-RXN	EC-3.5.1.4
GLYOHMETRANS-RXN	EC-2.1.2.1
FERRIC-CHELATE-REDUCTASE-RXN	EC-1.16.1.7
RXN-14960	
GLUTATHIONE-PEROXIDASE-RXN	EC-1.11.1.9
3-HYDROXYBUTYRYL-COA-DEHYDROGENASE-RXN	EC-1.1.1.157
RXN-19296	EC-2.7.8.26
RXN-14727	EC-3.5.1.4
QUINOPRIBOTRANS-RXN	EC-2.4.2.19
COBALAMIN5PSYN-RXN	EC-2.7.8.26
2.7.7.8-RXN	EC-2.7.7.8
RXN-8675	
ADENPRIBOSYLTRAN-RXN	EC-2.4.2.7
GLYC3PDEHYDROGBIOSYN-RXN	EC-1.1.1.94
RXN-12721	EC-1.8.4.9
RXN-14270	EC-2.4.2.7
1-ACYLGLYCEROL-3-P-ACYLTRANSFER-RXN	EC-2.3.1.51
SHIKIMATE-5-DEHYDROGENASE-RXN	EC-1.1.1.25
RXN-9590	EC-2.3.1
ALKAPHOSPHA-RXN	EC-3.1.3.1
RXN-12864	
RXN-8771	EC-1.13.11.79
RXN-12867	EC-1.8.1
RXN-5822	EC-3.1.3.2	EC-3.1.3.1
RXN-12865	EC-1.8.1
3.4.21.83-RXN	EC-3.4.21.83
RXN-8748	EC-3.1.3.1
DEOXYRIBOSE-P-ALD-RXN	EC-4.1.2.4
RXNI-3	EC-1.1.5.4
2.7.1.156-RXN	EC-2.7.1.156
HEMEOSYN-RXN	EC-2.5.1.141
BETA-GLUCURONID-RXN	EC-3.2.1.31
MALATE-DEHYDROGENASE-ACCEPTOR-RXN	EC-1.1.5.4
COBINAMIDEKIN-RXN	EC-2.7.1.156
RXN0-5259	
RXN-14063	EC-2.7.1.156
RXN-15289	EC-3.2.1.31
RXN-16329	
ACSERLY-RXN	EC-2.5.1.47
RXN-15291	EC-3.2.1.31
RXN-19026	EC-4.1.99.3
RXN0-5330	EC-1.6.5.9
RXN-12726	EC-2.5.1.47
RXN-19025	EC-4.1.99.3
DIOHBUTANONEPSYN-RXN	EC-4.1.99.12
DEOXYRIBODIPYRIMIDINE-PHOTOLYASE-RXN	EC-4.1.99.3
GLUTRACE-RXN	EC-5.1.1.3
RXN-19243	EC-4.1.99.3
RXN0-5248	
OXALODECARB-RXN	EC-1.1.1.40	EC-4.1.1.3	EC-1.1.1.38
AICARTRANSFORM-RXN	EC-2.1.2.3
RXN-19248	EC-4.1.99.3
MALIC-NADP-RXN	EC-1.1.1.40
RXN-19245	EC-4.1.99.3
RXN0-5468	EC-1.11.1.15
CHLORAMPHENICOL-O-ACETYLTRANSFERASE-RXN	EC-2.3.1.28
NAD-KIN-RXN	EC-2.7.1.23
DTMPKI-RXN	EC-2.7.4.12	EC-2.7.4.13	EC-2.7.4.9
SULFITE-REDUCT-RXN	EC-1.8.1.2
RXN-12195	EC-3.6.1.15
3.4.21.92-RXN	EC-3.4.21.92
RXN-19242	EC-4.1.99.3
RXN0-5055	EC-2.1.3.15
PDXJ-RXN	EC-2.6.99.2
RXN-19247	EC-4.1.99.3
RXN-9235	EC-2.1.1.201
DNA-LIGASE-ATP-RXN	EC-6.5.1.7	EC-6.5.1.1	EC-6.5.1.6
ANTHRANSYN-RXN	EC-4.1.3.27
THIOSULFATE-SULFURTRANSFERASE-RXN	EC-2.8.1.1
RXN-17917	
RXN-19244	EC-4.1.99.3
RXN-17918	
RXN-19246	EC-4.1.99.3
RXN-19040	EC-2.8.1.1
RXN-17919	
RXN0-4621	EC-2.7.1.170
GLURS-RXN	EC-6.1.1.17
ASPARTATE--TRNA-LIGASE-RXN	EC-6.1.1.12
THREDEHYD-RXN	EC-4.3.1.19
RXN-13323	EC-2.5.1.32
RXN0-6359	EC-2.8.1.1
RXN-15122	
THYMIDYLATESYN-RXN	EC-2.1.1.45
RXN-16631	EC-4.2.1.59
RXNARA-8002	
RXN-15121	
RXN-16632	EC-1.3.1.9
RXN-15123	EC-3.5.99
2.5.1.32-RXN	
INORGPYROPHOSPHAT-RXN	EC-3.6.1.1
1.1.99.28-RXN	EC-1.1.99.28
RXN-17363	EC-2.3.1
RXN0-3201	EC-3.4.21
GSAAMINOTRANS-RXN	EC-5.4.3.8
RXN-11355	EC-1.3.5.5
RXN-12243	
PSERPHOSPHA-RXN	EC-3.1.3.3
2.7.1.145-RXN	EC-2.7.1.145
RXN-12244	
RXN0-5114	EC-3.1.3.3
DEOXYGUANOSINE-KINASE-RXN	EC-2.7.1.74	EC-2.7.1.113	EC-2.7.1.145
RXN0-5462	EC-3.6.5.1	EC-3.6.5.2	EC-3.6.5.3	EC-3.6.5.4	EC-3.6.5.5	EC-3.6.5.6	EC-3.6.1.15
RXN-9553	EC-4.2.1
DNA-DIRECTED-RNA-POLYMERASE-RXN	EC-2.7.7.6
DURIDKI-RXN	EC-2.7.1.145	EC-2.7.1.21
DTDPDEHYRHAMREDUCT-RXN	EC-1.1.1.133
RXN0-5061	EC-2.4.1
SHIKIMATE-KINASE-RXN	EC-2.7.1.71
3.6.3.12-RXN	EC-3.6.3.12
RXN-14093	EC-2.7.1.74	EC-2.7.1.145
TRANS-RXN-2	EC-3.6.3.12
THYKI-RXN	EC-2.7.1.145	EC-2.7.1.21
H2PTERIDINEPYROPHOSPHOKIN-RXN	EC-2.7.6.3
GLUCISOM-RXN	EC-5.3.1.5
XYLISOM-RXN	EC-5.3.1.5
DEOXYADENOSINE-KINASE-RXN	EC-2.7.1.74	EC-2.7.1.76	EC-2.7.1.145
RXN-7968	EC-1.1.1.282
RXN-15733	EC-2.7.6.3
THREONINE--TRNA-LIGASE-RXN	EC-6.1.1.3
1.8.1.4-RXN	EC-1.8.1.4
CYSTATHIONINE-BETA-LYASE-RXN	EC-4.4.1.13
RXN-15131	
RXN-8629	EC-1.8.1.4
RXNI-2	EC-2.8.3.5
RXN-15124	
RXN-9557	EC-4.2.1.59
RXN-15127	EC-3.5.99.10
RXN0-1132	EC-1.8.1.4
KDOTRANS-RXN	EC-2.4.99.12
DIAMINOPIMEPIM-RXN	EC-5.1.1.7
ADCLY-RXN	EC-4.1.3.38
RXN-7719	EC-1.8.1.4
RXN-7716	EC-1.8.1.4
UDPGLUCEPIM-RXN	EC-5.1.3.2
URIDINEKIN-RXN	EC-2.7.1.48
MALONYL-COA-ACP-TRANSACYL-RXN	EC-2.3.1.86	EC-2.3.1.85	EC-2.3.1.39
S-ADENMETSYN-RXN	EC-2.5.1.6
URKI-RXN	EC-2.7.1.48
GLUTAMATESYN-RXN	EC-1.4.1.13
RXN-10661	EC-1.3.1.9
BA7DEHYDRA-RXN	EC-4.2.1.106
GLUTDEHYD-RXN	EC-1.4.1.4
RXN-1961	EC-6.3.4.19
RXN-10660	EC-4.2.1.59
R15-RXN	EC-2.6.1.88
RXN-10657	EC-1.3.1.9
SUCCCOASYN-RXN	EC-6.2.1.5
RXN-10656	EC-4.2.1.59
HOMOSERINE-O-ACETYLTRANSFERASE-RXN	EC-2.3.1.31
RXN-9550	EC-3.1.2.14
RXN-17401	EC-4.2.1.106
HOMOSERDEHYDROG-RXN	EC-1.1.1.3
ISOCITDEH-RXN	EC-1.1.1.42
ISOCIT-CLEAV-RXN	EC-4.1.3.1
RXN-9951	
RXN-8642	
RXN-9384	EC-2.5.1.48
GLUTAMINE--TRNA-LIGASE-RXN	EC-6.1.1.18
AICARSYN-RXN	EC-4.3.2.2
AMPSYN-RXN	EC-4.3.2.2
1.8.4.8-RXN	EC-1.8.4.8
ADENYLYLSULFKIN-RXN	EC-2.7.1.25
R221-RXN	EC-1.1.99
R222-RXN	EC-1.2.1.3
RXN-11578	EC-2.1.1.170
3.4.11.4-RXN	EC-3.4.11.4
PROTOCATECHUATE-34-DIOXYGENASE-RXN	EC-1.13.11.3
R223-RXN	EC-6.2.1.3
5.5.1.2-RXN	EC-5.5.1.2
RUBREDOXIN--NAD+-REDUCTASE-RXN	EC-1.18.1.1
3-OXOADIPATE-ENOL-LACTONASE-RXN	EC-3.1.1.24
IMP-DEHYDROG-RXN	EC-1.1.1.205
RXN-19339	EC-2.5.1.17
RXN-19344	
PYRROLINECARBDEHYDROG-RXN	
SULFATE-ADENYLYLTRANS-RXN	EC-2.7.7.4
ADENYLOSUCCINATE-SYNTHASE-RXN	EC-6.3.4.4
R343-RXN	
SPONTPRO-RXN	
R344-RXN	
RXN-14116	EC-1.2.1.88
RXN-12720	EC-2.7.7.4
THIAZOLSYN3-RXN	EC-2.7.1.50
PROTEIN-KINASE-RXN	EC-2.7.11.21	EC-2.7.11.22	EC-2.7.11.13	EC-2.7.11.1	EC-2.7.11.17	EC-2.7.11.12
RXN-11737	EC-2.6.1.1
SIROHEME-FERROCHELAT-RXN	EC-4.99.1.4
RXN-19369	EC-2.5.1.17
RXN-19364	
RXN-17061	
DIMETHUROPORDEHYDROG-RXN	EC-1.3.1.76
RXN-10814	EC-2.6.1.1
BTUR2-RXN	EC-2.5.1.17
3PGAREARR-RXN	EC-5.4.2.12
RXN-19342	
RXN-19338	
GARTRANSFORMYL2-RXN	EC-2.1.2
UROPORIIIMETHYLTRANSA-RXN	
RXN66-470	EC-1.14.11
RXN-19343	
1.14.11.18-RXN	EC-1.14.11.18
ASPAMINOTRANS-RXN	EC-2.6.1.1
1.18.1.2-RXN	EC-1.18.1.2
RXNQT-4191	EC-3.1.3.100
RXN-15468	
RXN-13697	EC-2.6.1.1
RXN-924	
MYRISTOYLACYLTRAN-RXN	EC-2.3.1.243
HOMOCYSMETB12-RXN	EC-2.1.1.13
RXN-9634	EC-2.3.1.86	EC-4.2.1.59
GMP-SYN-GLUT-RXN	EC-6.3.5.2
RXN-19335	EC-2.5.1.17
RXN-9635	EC-1.3.1.9
DIAMINOPIMDECARB-RXN	EC-4.1.1.20
GLUTAMIN-RXN	EC-3.5.1.38	EC-3.5.1.2
RXN-19340	
RXN-9548	EC-3.1.2.14
GMP-SYN-NH3-RXN	
RXN-19366	
RXN-16380	EC-6.2.1.3
5.4.2.10-RXN	EC-5.4.2.10
HOMOCYSMET-RXN	EC-2.1.1.14
RXN-16424	
RXN0-7139	
2PGADEHYDRAT-RXN	EC-4.2.1.11
GMKALT-RXN	EC-2.7.4.13	EC-2.7.4.12
DEOXYADENYLATE-KINASE-RXN	EC-2.7.4.13	EC-2.7.4.11
CITSYN-RXN	EC-2.3.3.16	EC-2.3.3.1
RXN1G-320	EC-4.2.1.59
DGTPTRIPHYDRO-RXN	EC-3.1.5.1
3.1.4.14-RXN	EC-3.1.4.14
RXN-19368	EC-2.5.1.17
RXN-19349	
RXN1G-517	EC-4.2.1.59
RXN-19334	
GAMMA-GLUTAMYLTRANSFERASE-RXN	EC-2.3.2.2
RXN0-2621	EC-3.1.25
COBALADENOSYLTRANS-RXN	
RXN1G-72	EC-1.1.1
RXN-19365	
RXN-6601	EC-2.3.2.2
METHYLENETHFDEHYDROG-NADP-RXN	EC-1.5.1.5
RXN-18092	EC-2.3.2.2
THIAMIN-PYROPHOSPHOKINASE-RXN	EC-2.7.6.2
RXN1G-364	EC-1.1.1
METHENYLTHFCYCLOHYDRO-RXN	EC-3.5.4.9
RXN1G-240	EC-1.1.1
RXN0-6523	EC-3.1.26.12
NUCLEOSIDE-DIP-KIN-RXN	EC-2.7.4.6
RXN-18093	
3.4.11.18-RXN	EC-3.4.11.18
RXN0-2661	EC-3.2.2.31
RXN1G-163	EC-1.1.1
DTDPKIN-RXN	EC-2.7.4.6
RXN-17875	EC-3.4.11.18
RXN1G-260	EC-1.1.1
RXN-17874	EC-3.4.11.18
DCDPKIN-RXN	EC-2.7.4.6
RXN-11586	EC-2.1.1.192
RXN-17877	EC-3.4.11.18
RXN1G-358	EC-1.1.1
RXN-16804	
DADPKIN-RXN	EC-2.7.4.6
2TRANSKETO-RXN	EC-2.2.1.1
RXN-17878	EC-3.4.11.18
RXN-14228	EC-2.7.4.6
RXN1G-881	EC-1.1.1
R4-RXN	EC-1.8.1
RXN-17873	EC-3.4.11.18
1TRANSKETO-RXN	EC-2.2.1.1
RXN1G-1053	EC-1.1.1
ARYLESTERASE-RXN	EC-3.1.1.2
RXN-17876	EC-3.4.11.18
RXN0-5021	EC-2.7.7
RXN-19341	
DGDPKIN-RXN	EC-2.7.4.6
CPM-KDOSYNTH-RXN	EC-2.7.7.38
LEUCINE-DEHYDROGENASE-RXN	EC-1.4.1.9
RXN0-1321	EC-2.4.2.29
RXN1G-287	EC-1.1.1
UDPKIN-RXN	EC-2.7.4.6
RXN-14120	EC-2.7.4.6
QUEUOSINE-TRNA-RIBOSYLTRANSFERASE-RXN	EC-2.4.2.29
RXN0-1134	EC-1.2.4.1
NAD-SYNTH-NH3-RXN	EC-6.3.1.5
RXN-12583	
DUDPKIN-RXN	EC-2.7.4.6
RXN-12508	
GAPOXNPHOSPHN-RXN	EC-1.2.1.12
RXN-11638	EC-2.1.1.199
CDPKIN-RXN	EC-2.7.4.6
UDP-NACMURALGLDAPLIG-RXN	EC-6.3.2.13
GDPKIN-RXN	EC-2.7.4.6
METHYLMALONYL-COA-MUT-RXN	EC-5.4.99.2
CYTIDEAM2-RXN	EC-3.5.4.5
UDP-NACMURALA-GLU-LIG-RXN	EC-6.3.2.9
RXN-13182	EC-3.1.1.53
CYTIDEAM-RXN	EC-3.5.4.5
3-OXOACYL-ACP-REDUCT-RXN	EC-2.3.1.86	EC-2.3.1.85	EC-1.1.1.100
RXN-8976	EC-2.4.1.227
RXN-16616	EC-1.1.1.100
RXN-13181	EC-3.1.1.53
RXN-16226	EC-1.8.3.7
INOPHOSPHOR-RXN	EC-2.4.2.1
RXN-9524	EC-2.3.1.86	EC-2.3.1.85	EC-1.1.1.100
RXN0-5199	EC-2.4.2.15	EC-2.4.2.1
6.3.2.10-RXN	EC-6.3.2.10
RXN0-5410	EC-1.1.1
NACGLCTRANS-RXN	EC-2.4.1.227
RXN-9528	EC-2.3.1.86	EC-2.3.1.85	EC-1.1.1.100
RXN-16626	EC-1.1.1.100
3.2.1.25-RXN	EC-3.2.1.25
UDP-NACMUR-ALA-LIG-RXN	EC-6.3.2.8
UDP-NACMURALGLDAPAALIG-RXN	EC-6.3.2.10
RXN-9532	EC-2.3.1.86	EC-2.3.1.85	EC-1.1.1.100
RXN1G-508	EC-1.1.1.100
6.3.5.7-RXN	EC-6.3.5.7
DIHYDROOROTATE-DEHYDROGENASE-RXN	EC-1.3.5.2
RXN-9514	EC-2.3.1.86	EC-2.3.1.85	EC-1.1.1.100
3.1.6.13-RXN	EC-3.1.6.13
RXN0-6491	EC-1.3.5.2
RXN-10060	EC-1.1.1.100
RXN0-6366	EC-2.8.4.4
RXN-11569	EC-3.1.6.13
RXN0-6554	EC-1.3.5.2
RXN0-5254	
RXN-9518	EC-2.3.1.86	EC-2.3.1.85	EC-1.1.1.100
RXN-16483	EC-3.1.6.13
RXN0-6490	
RXN1G-157	EC-1.1.1.100
HYDROXYMETHYLGLUTARYL-COA-LYASE-RXN	EC-4.1.3.4
RXN-16622	EC-1.1.1.100
DIHYDROFOLATEREDUCT-RXN	EC-1.5.1.3
RXN-10659	EC-1.1.1.100
RXN-18399	EC-1.14.18
RXN-19329	EC-1.5.1.3
RXN-9633	EC-2.3.1.86	EC-1.1.1.100
RXN-18428	
GLUCOSYLCERAMIDASE-RXN	EC-3.2.1.45
RXN-18430	
RXN-9556	EC-1.1.1.100
RXN-18431	
DNA-CYTOSINE-5--METHYLTRANSFERASE-RXN	EC-2.1.1.37
RXN-18357	EC-1.5.1.3
RXN-11480	EC-1.1.1.100
ADENOSYLHOMOCYSTEINASE-RXN	EC-3.3.1.1
RXN-9540	EC-2.3.1.86	EC-2.3.1.85	EC-1.1.1.100
HOLO-ACP-SYNTH-RXN	EC-2.7.8.7
RXN-10655	EC-1.1.1.100
RXN0-6515	EC-2.1.1.171
RXN1F-20	EC-6.6.1.1
RXN-13008	EC-2.3.1.86	EC-2.3.1.85	EC-1.1.1.100
RXN1G-349	EC-1.1.1.100
2-DEHYDROPANTOATE-REDUCT-RXN	EC-1.1.1.169
PRAISOM-RXN	EC-5.3.1.24
RXN1G-469	EC-1.1.1.100
TRANS-RXN0-277	EC-1.6.1.5
IGPSYN-RXN	EC-4.1.1.48
ATPASE-RXN	EC-3.6.1.15	EC-3.6.1.3
RXN-9552	EC-1.1.1.100
RXN0-5063	EC-2.8.4.3
RXN-11476	EC-1.1.1.100
PRTRANS-RXN	EC-2.4.2.18
RXN-14480	
RXN-14481	
RXN0-2142	EC-1.1.1.100
RXN-17846	EC-2.3.2.6
RXN-16630	EC-1.1.1.100
RXN0-5266	EC-1.10.3.14
RXN-10061	EC-4.2.1.59
TRANS-RXN0-237	
RXN-17847	EC-2.3.2.6
RXN-9536	EC-2.3.1.86	EC-2.3.1.85	EC-1.1.1.100
RXN1G-363	EC-4.2.1.59
ARGINASE-RXN	EC-3.5.3.1
RXN-6883	EC-1.10.3.11
LEUCYLTRANSFERASE-RXN	EC-2.3.2.6
RXN-34	EC-3.5.3.1
RXN-17848	EC-2.3.2.6
PROLINE--TRNA-LIGASE-RXN	EC-6.1.1.15
THIAZOLSYN2-RXN	EC-2.8.1.10
RXN0-5144	EC-2.1.1.61
TRYPSYN-RXN	EC-4.2.1.20
RXN-14904	
RXN-17883	
RXN0-2381	EC-4.1.2.8
RXN-12611	EC-2.5.1.3
POLYPHOSPHATE-KINASE-RXN	EC-2.7.4.1
RXN0-2382	EC-4.2.1.122
RXN-7594	
RXN-17882	
RXN0-5305	
RXN-17133	EC-3.9.1.3
RXN-12610	EC-2.5.1.3
PABASYN-RXN	EC-2.6.1.85
RXN-10018	
RXN-17131	EC-3.9.1.3
RXN-14883	
RXN-10017	
OHMETPYRKIN-RXN	EC-2.7.1.49
D-PPENTOMUT-RXN	EC-5.4.2.7
RXN-17132	EC-3.9.1.3
FUMHYDR-RXN	EC-4.2.1.2
RXN-7592	
RXN-15346	
GPH-RXN	EC-3.1.3.18
RXN-10851	
PYRIMSYN3-RXN	EC-2.7.4.7
RIBONUCLEOSIDE-TRIP-REDUCT-RXN	EC-1.1.98.6
THI-P-SYN-RXN	EC-2.5.1.3
RXN0-6575	EC-4.3.99.3
RXN0-745	EC-1.1.98.6
RXN-9789	EC-2.7.7.73
ORNITHINE-GLU-AMINOTRANSFERASE-RXN	EC-2.6.1.13
RXN-9788	EC-2.8.1
RXN0-723	EC-1.1.98.6
RXN-14396	
RXN-11319	EC-4.1.99.19
RXN-16765	
RXN-15345	
KYNURENINE-3-MONOOXYGENASE-RXN	EC-1.14.13.9
RXN0-746	EC-1.1.98.6
ORNITHINE--OXO-ACID-AMINOTRANSFERASE-RXN	EC-2.6.1.13
RXN0-7080	
RXN-14290	
RXN-15139	
RXN0-724	EC-1.1.98.6
RXN-10015	
PENICILLIN-AMIDASE-RXN	EC-3.5.1.11
RXN-14503	
ACETYL-COA-ACETYLTRANSFER-RXN	EC-2.3.1.9
RXN-12753	
RNTRACTIV-RXN	EC-1.97.1
ASNSYNB-RXN	EC-6.3.5.4
RXN-17099	EC-3.5.1.11
RXN-11410	
RXN-17753	
QUINOLINATE-SYNTHA-RXN	EC-2.5.1.72
ASNSYNA-RXN	EC-6.3.1.1
RXN-12561	EC-2.3.1.9
RXN-16475	
ARYLFORMAMIDASE-RXN	EC-3.5.1.9
RXN-5721	
3.2.2.21-RXN	EC-3.2.2.21
RXN-11811	
METHYLACETOACETYLCOATHIOL-RXN	EC-2.3.1.9
KYNURENINASE-RXN	EC-3.7.1.3
RXN-14812	
RXN0-20	EC-2.5.1
RXN-2961	EC-4.4.1.22
RXN-12130	EC-1.7.2.4
RXN0-5222	
RXN-13581	
RXN-6081	
3-HYDROXY-KYNURENINASE-RXN	EC-3.7.1.3
RXN-9922	
GDPMANDEHYDRA-RXN	EC-4.2.1.47
RXN-8899	
CYSTEINE--TRNA-LIGASE-RXN	EC-6.1.1.16
RXN-3482	
L-ASPARTATE-OXID-RXN	EC-1.4.3.16
RXN-18392	
RXN-18031	
RXN-18232	
RXN0-1342	EC-2.4.99.17
RXN-9772	EC-1.5.99
RXN-18364	
VALINE--TRNA-LIGASE-RXN	EC-6.1.1.9
GLUCOSAMINE-6-P-DEAMIN-RXN	EC-3.5.99.6
RXN-11354	EC-5.2.1.12
RXN-9520	EC-2.3.1.86	EC-2.3.1.85	EC-4.2.1.59
2.5.1.19-RXN	EC-2.5.1.19
RXN-13329	
GLUCOSE-6-PHOSPHATE-1-EPIMERASE-RXN	EC-5.1.3.15
4.2.1.58-RXN	EC-2.3.1.86	EC-2.3.1.85	EC-4.2.1.59
5.99.1.2-RXN	EC-5.99.1.2
RXN-14515	
4.2.1.59-RXN	EC-2.3.1.86	EC-2.3.1.85	EC-4.2.1.59
SAICARSYN-RXN	EC-6.3.2.6
PRODISULFREDUCT-A-RXN	
RXN-8315	
3.6.1.41-RXN	EC-3.6.1.41
O-SUCCINYLBENZOATE-COA-LIG-RXN	EC-6.2.1.26
RXN-9537	EC-2.3.1.86	EC-2.3.1.85	EC-4.2.1.59
RXN-15830	EC-1.9.3.1
RXN-18032	
CYTOCHROME-C-OXIDASE-RXN	EC-1.9.3.1
4.2.1.61-RXN	EC-2.3.1.86	EC-2.3.1.85	EC-4.2.1.59
RXN-15651	
PHENYLPYRUVATE-TAUTOMERASE-RXN	EC-5.3.2.1
RXN-4821	EC-3.5.99
RXN-13519	
3.1.2.21-RXN	EC-3.1.2.21
RXN-14882	
DNA-DIRECTED-DNA-POLYMERASE-RXN	EC-2.7.7.7
RXN0-5265	
RXN-9655	EC-2.3.1.86	EC-2.3.1.85	EC-4.2.1.59
BRANCHED-CHAINAMINOTRANSFERILEU-RXN	EC-2.6.1.42
2.3.2.13-RXN	EC-2.3.2.13
RXN-15815	
RXN-10016	
RXN-8173	
RXN-9549	EC-3.1.2.14
BRANCHED-CHAINAMINOTRANSFERVAL-RXN	EC-2.6.1.42
RXN-19236	EC-2.3.2.13
RXN0-4261	
RXN-9657	EC-1.3.1.9
DAPASYN-RXN	EC-2.6.1.62
RXN-7593	
RXN-9658	EC-1.3.1.9
UNSPECIFIC-MONOOXYGENASE-RXN	EC-1.14.14.1
RXN-11409	
BRANCHED-CHAINAMINOTRANSFERLEU-RXN	EC-2.6.1.6	EC-2.6.1.42
RXN-9659	EC-1.3.1.9
RXN-14997	
RXN-9660	EC-1.3.1.9
RXN-12754	
PREPHENATEDEHYDRAT-RXN	EC-4.2.1.51
RXN-12104	EC-1.17.99.6
RXN-9661	EC-1.3.1.9
RXN-7587	
RXN-9662	EC-1.3.1.9
RXN-15348	
MANNURONATE-REDUCTASE-RXN	EC-1.1.1.131
CARBODEHYDRAT-RXN	EC-4.2.1.1
RXN-9663	EC-1.3.1.9
RXN-14409	
OROTPDECARB-RXN	EC-4.1.1.23
RXN-9623	EC-6.2.1.3
RXN-19022	
RXN-16393	EC-6.2.1.3
RXN-17881	
RXN-15745	EC-1.1.5.3
RXN0-5224	EC-4.2.1.1
THREOSPON-RXN	
RXN-14385	EC-2.8.1.7
3.6.3.16-RXN	EC-3.6.3.16
FORMYLTHFDEFORMYL-RXN	EC-3.5.1.10
RXN-12588	EC-2.8.1.7
RXN-12587	
GTP-CYCLOHYDRO-I-RXN	EC-3.5.4.16
RXN-15881	EC-2.8.1.7
RXN-12623	EC-3.2.1.202
GLUTAMINESYN-RXN	EC-6.3.1.2
TRANS-RXN-323	
RXN0-5507	EC-4.1.2.50
RXN-12093	EC-6.3.4.20
AIRS-RXN	EC-6.3.3.1
RXN-9787	EC-2.8.1.7
RXN0-308	
RXN-14382	
PEPTIDYLPROLYL-ISOMERASE-RXN	EC-5.2.1.8
RXN-9533	EC-2.3.1.86	EC-2.3.1.85	EC-4.2.1.59
RXN-9510	EC-1.5.1.42
ALTRO-OXIDOREDUCT-RXN	EC-1.1.1.58
EXOPOLYPHOSPHATASE-RXN	EC-3.6.1.11
ENOYL-ACP-REDUCT-NADPH-RXN	EC-1.3.1.39	EC-1.3.1.104	EC-2.3.1.86	EC-2.3.1.85	EC-1.3.1.10
3.2.1.8-RXN	EC-3.2.1.8
ENOYL-ACP-REDUCT-NADH-RXN	EC-1.3.1.9
TRNA-GUANINE-N7--METHYLTRANSFERASE-RXN	EC-2.1.1.33
RXN0-1661	EC-3.1.1
TYROSINE--TRNA-LIGASE-RXN	EC-6.1.1.1
RXN-14477	EC-3.1.1
RXN-14478	EC-3.1.1
2.4.1.83-RXN	EC-2.4.1.83
KDPGALDOL-RXN	EC-4.1.2.55	EC-4.1.2.14
ASPARTATE-SEMIALDEHYDE-DEHYDROGENASE-RXN	EC-1.2.1.11
RXN-14479	EC-3.1.1
RXN-16602	EC-2.4.1.83
ALARACECAT-RXN	EC-5.1.1.1
4OH2OXOGLUTARALDOL-RXN	EC-4.1.3.16
ALANINE--TRNA-LIGASE-RXN	EC-6.1.1.7
3.4.21.26-RXN	EC-3.4.21.26
UROGENIIISYN-RXN	EC-4.2.1.75
GLUCONATE-5-DEHYDROGENASE-RXN	EC-1.1.1.69
FGAMSYN-RXN	EC-6.3.5.3
R-2-METHYLMALATE-DEHYDRATASE-RXN	EC-4.2.1.35
LEUCINE--TRNA-LIGASE-RXN	EC-6.1.1.4
5.3.1.17-RXN	EC-5.3.1.17
3.1.21.1-RXN	EC-3.1.21.1
RXN-7744	
RXN66-569	EC-1.14.16.1
ALKANE-1-MONOOXYGENASE-RXN	EC-1.14.15.3
RXN0-1133	EC-2.3.1.12
PEPSYNTH-RXN	EC-2.7.9.2
RXN-14206	EC-1.14.16.1
2-ISOPROPYLMALATESYN-RXN	EC-2.3.3.13
RXN-13907	EC-1.14.16.1
RXN-13158	EC-1.1.1.85
3-ISOPROPYLMALDEHYDROG-RXN	
UROCANATE-HYDRATASE-RXN	EC-4.2.1.49
RXN-7800	
4.3.1.17-RXN	EC-4.3.1.17
RXN0-6259	EC-1.3.5.3
RXN-15125	
ASPARAGINE--TRNA-LIGASE-RXN	EC-6.1.1.22
HEMN-RXN	EC-1.3.98.3
RXNQT-4178	EC-1.1.1.85
RXN-18200	
RXN0-1461	EC-1.3.3.3
4.1.99.4-RXN	EC-3.5.99.7
RXN-18201	
ALDOSE-1-EPIMERASE-RXN	EC-5.1.3.3
RXN-15149	
RXN-16330	
LYSINE--TRNA-LIGASE-RXN	EC-6.1.1.6
RXNQT-4174	EC-1.1.1.85
RXN-18202	
HAONITRO-RXN	EC-1.7.2.6
RXN-13037	EC-2.3.1.181
RXN-18203	
RXN-13583	
RXN0-947	EC-2.3.1.181
RXN0-3221	EC-3.4.24
LIPIDXSYNTHESIS-RXN	EC-3.6.1.54
4.2.3.12-RXN	EC-4.2.3.12
RXNQT-4171	EC-1.1.1.85
RXN-18204	
DAHPSYN-RXN	EC-2.5.1.54
RXN-18205	
CYSTATHIONINE-BETA-SYNTHASE-RXN	EC-4.2.1.22
N-ACETYLTRANSFER-RXN	EC-2.3.1.1
RXN66-562	EC-4.2.1.22
RXNQT-4168	EC-1.1.1.85
RXN-18206	
RXN-19038	EC-4.2.1.22
RXN-18207	
SAMDECARB-RXN	EC-4.1.1.50
3.4.15.6-RXN	EC-3.4.15.6
RXN66-534	EC-4.2.1.22
RXN-9407	EC-1.14.13.107
RXN-9410	
RXN-9415	
RXN0-4022	EC-1.7.1.13
RXN-16650	EC-2.4.1.129
RXNQT-4165	EC-1.1.1.85
RXN-9417	
RXN-18208	
RXN-9406	
RXN-18209	
R309-RXN	EC-3.5.5.7
RXN-9949	EC-1.1.1.297
RXN-7605	EC-2.1.1
3.5.5.7-RXN	EC-3.5.5.7
RXN-14986	EC-1.1.1.85
RXN-18210	
RXN-19298	EC-2.4.2.21
RXN-18211	
RXN0-262	EC-2.7.7.77
BIOTIN-CARBOXYL-RXN	EC-6.3.4.14
RXN-16456	EC-2.7.7.77
RXN-13179	EC-1.1.1.262
TRNA-ADENINE-N6--METHYLTRANSFERASE-RXN	EC-2.1.1.55
DMBPPRIBOSYLTRANS-RXN	EC-2.4.2.21
RXN-16427	EC-2.7.7.77
RIBOFLAVIN-SYN-RXN	EC-2.5.1.9
METHYLMALONYL-COA-EPIM-RXN	EC-5.1.99.1
RXN-8667	EC-1.11.1.21
RXN-16391	EC-5.1.99.1
LYSOPHOSPHOLIPASE-RXN	EC-3.1.1.5
VALINE-PYRUVATE-AMINOTRANSFER-RXN	EC-2.6.1.66
RXN-19312	EC-3.1.1.5
RXN-15035	EC-3.1.1.5
NQOR-RXN	EC-1.6.5.2
RXN-16333	
RXN-9409	EC-1.14.13.107
RXN-9411	
RXN-14047	EC-4.2.1.3
RXN-9416	
ACONITATEDEHYDR-RXN	
3.5.5.1-RXN	EC-3.5.5.1
RXN-9418	
RXN0-5375	EC-1.7.1.f
ACONITATEHYDR-RXN	
RXN-9423	
RXN-18229	EC-3.5.5.1
RXN-9948	EC-1.1.1.297
