dbRef_id	Common name	Produced (p), Consumed (c), Both (cp)
CPD-15056	(2Z)-2-aminobut-2-enoate	cp
IMINOASPARTATE	2-iminosuccinate	cp
CARBAMYUL-L-ASPARTATE	N-carbamoyl-L-aspartate	cp
N-ACETYL-D-MANNOSAMINE	N-acetyl-&beta;-D-mannosamine	cp
Rhodoquinols	a rhodoquinol	c
Rhodoquinones	a rhodoquinone	p
CPD66-39	a 2,3,4-saturated fatty acid	c
Ribonucleoside-Diphosphates	a ribonucleoside diphosphate	cp
CPDN-384	2-hydroxychromene-2-carboxylate	c
CPD-15121	5-fluorocytosine	c
Ribonucleoside-Monophosphates	a ribonucleoside 5'-monophosphate	cp
DIMETHYL-D-RIBITYL-LUMAZINE	6,7-dimethyl-8-(1-D-ribityl)lumazine	cp
CPD-10791	6-deoxy-5-ketofructose 1-phosphate	p
APS	adenosine 5'-phosphosulfate	cp
PYRIDOXINE-5P	pyridoxine 5'-phosphate	cp
CPD-15159	(6R)-6,7-dihydrobiopterin	p
Ribonucleoside-Triphosphates	a ribonucleoside triphosphate	c
ACRYLATE	acrylate	p
Ribonucleosides	a ribonucleoside	p
CPDN-385	trans-O-hydroxybenzylidenepyruvate	p
DIMETHYLBENZIMIDAZOLE	5,6-dimethylbenzimidazole	c
Chitodextrins	a chitodextrin	cp
N-ACETYL-GLUTAMYL-P	N-acetylglutamyl-phosphate	cp
ARABINOSE-5P	aldehydo-D-arabinose 5-phosphate	cp
CPD-10806	4-hydroxy-2-nonenal	c
NICOTINAMIDE_NUCLEOTIDE	&beta;-nicotinamide D-ribonucleotide	cp
CARBON-DIOXIDE	CO2	cp
Chitosan	chitosan	c
Ribosomal-protein-L3-L-glutamine	a [ribosomal protein L3]-L-glutamine	c
SINAPATE	sinapate	c
Ribosomal-protein-L3-N5M-L-glutamine	a [ribosomal protein L3]-N5-methyl-L-glutamine	p
IMP	IMP	cp
CPDQT-27	6-(methylthio)-2-oxohexanoate	p
Ribosomal-protein-S12-3-methylthio-Asp89	a [ribosomal protein S12]-3-methylsulfanyl-L-aspartate89	p
SINAPOYL-COA	sinapoyl-CoA	p
NICOTINAMIDE_RIBOSE	1-(&beta;-D ribofuranosyl)nicotinamide	p
Ribosomal-protein-S12-Asp89	a [ribosomal protein S12] L-aspartate89	c
Chitosan-fragments	a chitosan fragment	p
CPD-15182	cob(II)yrinate c-monoamide	cp
CPD-10826	4-methyl-3-oxoadipate	c
S-2-Haloacids	an (S)-2-haloacid	c
S-2-Hydroxyacids1	an (S)-2-hydroxyacid	p
CPDQT-28	7-(methylthio)-2-oxoheptanoate	p
S-2-INDOL-3-YLACETYL-COA	S-2-(indol-3 yl)acetyl-CoA	cp
Chlorides	an organochlorine compound	p
Thi-S	a ThiS sulfur-carrier protein	p
CPD-1083	(E)-2-methylcrotonoyl-CoA	cp
CPD-15244	3-oxo-(5Z)-tetradecenoyl-CoA	c
CPD-10832	4-methyl-3-oxoadipyl-CoA	p
CPDQT-29	8-(methylthio)-2-oxooctanoate	p
PROPIONYL-COA	propanoyl-CoA	cp
FAD	FAD	cp
S-24-DINITROPHENYLGLUTATHIONE	2,4-dinitrophenyl-S-glutathione	cp
CPDQT-30	9-(methylthio)-2-oxononanoate	p
CPD-15280	hercynine	p
N-ACYL-D-AMINO-ACID	an N-acylated-D-amino acid	cp
HOMO-CYS	L-homocysteine	cp
CARBON-MONOXIDE	carbon monoxide	p
CPDQT-36	3-[(3'-methylthio)propyl]malate	cp
S-3-HYDROXYBUTANOYL-COA	(S)-3-hydroxybutanoyl-CoA	p
FADH2	FADH2	cp
SN-GLYCEROL-1-PHOSPHATE	sn-glycerol 1-phosphate	p
7-8-DIHYDROPTEROATE	7,8-dihydropteroate	c
CPD-7004	dihydrogeranylgeranyl chlorophyll a	cp
CPD-245	3-carboxy-cis,cis-muconate	cp
CPD-7005	geranylgeranyl chlorophyll a	c
CPD-270	an N-acyl-D-glucosamine	cp
CPD-17365	(4Z,7Z,10Z,13Z,16Z)-docosapentaenoyl-CoA	p
CPD-7006	tetrahydrogeranylgeranyl chlorophyll a	cp
CPD-294	2-maleylacetate	p
5-10-METHENYL-THF-GLU-N	a 5,10-methenyltetrahydrofolate	cp
CPD-7043	amylopectin	p
NICOTINATE_NUCLEOTIDE	&beta;-nicotinate D-ribonucleotide	cp
CPD-7066	(2R,3S)-3-methylmalate	p
METHIONYL-PEPTIDE	an N-terminal L-methionyl-[protein]	p
5-AMINO-LEVULINATE	5-aminolevulinate	cp
CPD-2961	D-gluconate 6-phosphate	cp
CPD-7076	2-methylbutanoate	c
5-BETA-L-THREO-PENTAPYRANOSYL-4-ULOSE-	UDP-&beta;-L-threo-pentapyranos-4-ulose	cp
CPD-17370	18-hydroxyoleoyl-CoA	cp
7-AMINOMETHYL-7-DEAZAGUANINE	preQ1	cp
Cis-Delta5-dodecenoyl-ACPs	a (5Z)-dodec-5-enoyl-[acp]	c
CPD-7100	(2S)-2-isopropyl-3-oxosuccinate	cp
CPD-17372	1-[18-hydroxyoleyl]-2-lyso-phosphatidate	p
CPD-31	(R)-citramalate	cp
7-CYANO-7-DEAZAGUANINE	preQ0	cp
CPD-316	reduced riboflavin	p
Cis-Delta7-tetradecenoyl-ACPs	a cis-&Delta;7-tetradecenoyl-[acp]	c
METHYL-GLYOXAL	methylglyoxal	cp
NITRIC-OXIDE	nitric oxide	p
Cis-delta-3-decenoyl-ACPs	a (3Z)-dec-3-enoyl-[acp]	c
CPD-7221	(3Z)-dodec-3-enoyl-CoA	p
Cis-vaccenoyl-ACPs	a cis-vaccenoyl-[acp]	c
CPD-17386	(2E,6Z,9Z,12Z,15Z,18Z,21Z)-tetracosaheptaenoyl-CoA	c
CPD-1302	5-methyltetrahydropteroyl tri-L-glutamate	cp
3-oxo-dodecanoyl-ACPs	a 3-oxo-dodecanoyl-[acp]	cp
rRNA-fragments	an rRNA fragment	p
DEOXYINOSINE	2'-deoxyinosine	p
ARG	L-arginine	cp
3-oxo-hexanoyl-ACPs	a 3-oxo-hexanoyl-[acp]	cp
CPD-13035	adenylyl molybdenum cofactor	p
3-oxo-lignoceroyl-ACPs	a 3-oxo-lignoceroyl-[acp]	c
BCAA-dehydrogenase-DH-lipoyl	an [apo BCAA dehydrogenase E2 protein] N6-dihydrolipoyl-L-lysine	cp
THYMINE	thymine	cp
HOMO-SER	L-homoserine	cp
GLYCEROL	glycerol	cp
ssDNA-RNA-primer-hybrid	an ssDNA/RNA primer hybrid	p
CPD-13043	7-carboxy-7-deazaguanine	cp
3-oxo-myristoyl-ACPs	a 3-oxo-myristoyl-[acp]	cp
BCAA-dehydrogenase-lipoyl	an [apo BCAA dehydrogenase E2 protein] N6-lipoyl-L-lysine	cp
ssRNAs	a single-stranded RNA	cp
3-oxo-palmitoyl-ACPs	a 3-oxo-palmitoyl-[acp]	cp
GLYCEROL-3P	sn-glycerol 3-phosphate	cp
2-Hydroxy-carboxylates	a 2-hydroxy carboxylate	p
3-oxo-petroselinoyl-ACPs	a 3-oxo-petroselinoyl-[acp]	cp
DEOXYURIDINE	2'-deoxyuridine	p
tRNA-2-thiouridine34	a 2-thiouridine34 in tRNA	p
CPD-13086	(9Z)-12,13-dihydroxyoctadeca-9-enoate	p
3-oxo-stearoyl-ACPs	a 3-oxo-stearoyl-[acp]	cp
2-KETO-3-DEOXY-6-P-GLUCONATE	2-dehydro-3-deoxy-D-gluconate 6-phosphate	cp
ARG-tRNAs	a tRNAArg	cp
3-terminal-unsaturated-sugars	a 3'-terminal unsaturated sugar	p
tRNA-Adenosines-37	an adenosine37 in tRNA	c
CPD-13089	(12Z,15Z)-9,10-epoxyoctadeca-12,15-dienoate	c
2-KETO-3-DEOXY-D-GLUCARATE	(2S,3S)-2,3-dihydroxy-5-oxohexanedioate	cp
tRNA-Containing-5MeAminoMe-2-ThioU	a 5-methylaminomethyl-2-thiouridine34 in tRNA	c
NITRITE	nitrite	cp
CPD-13090	(9Z,15Z)-12,13-epoxy-octadeca-9,15-dienoate	c
tRNA-Containing-N7-Methylguanine-46	an N7-methylguanine46 in tRNA	p
tRNA-Dihydrouridines	a 5,6-dihydrouridine in tRNA	p
GLUCONATE	D-gluconate	cp
CPD-13091	(9Z,12Z)-15,16-epoxyoctadeca-9,12-dienoate	c
BENZIMIDAZOLE	benzimidazole	c
RIBOSE-5P	D-ribose 5-phosphate	cp
PHOSPHO-ENOL-PYRUVATE	phosphoenolpyruvate	cp
DEOXYXYLULOSE-5P	1-deoxy-D-xylulose 5-phosphate	cp
CPD-13092	(9Z,15Z)-12,13-dihydroxyoctadeca-9,15-dienoate	p
DEPHOSPHO-COA	3'-dephospho-CoA	cp
Thiocarboxyadenylated-ThiS-Proteins	a thiocarboxy-[ThiS-Protein]	c
UROPORPHYRINOGEN-III	uroporphyrinogen-III	cp
METHYL-MALONYL-COA	(R)-methylmalonyl-CoA	cp
CPD-564	S-ribosyl-L-homocysteine	p
Thiols	a thiol	p
N-ALPHA-ACETYLORNITHINE	N-acetyl-L-ornithine	cp
ACYL-ACP	an acyl-[acyl-carrier protein]	cp
KDO-LIPID-IVA	&alpha;-Kdo-(2&rarr;6)-lipid IVA	p
Trans-3-enoyl-CoAs	a (3E)-alkan-3-enoyl-CoA	p
ACYL-COA	an acyl-CoA	c
CPD-5662	9-mercaptodethiobiotin	cp
DUMP	dUMP	cp
ACYL-SN-GLYCEROL-3P	a 1-acyl-sn-glycerol 3-phosphate	p
N-Acetyl-beta-D-Hexosaminides	an N-acetyl-&beta;-D-hexosaminide	c
KDO2-LAUROYL-LIPID-IVA	&alpha;-Kdo-(2->4)-&alpha;-Kdo-(2->6)-(lauroyl)-lipid IVA	c
UTP	UTP	cp
METHYL-THMPT	N5-methyltetrahydromethanopterin	cp
DUTP	dUTP	cp
CPD-568	N1-acetylspermidine	p
CPD-110	salicylate	p
N-Acylated-Aliphatic-Amino-Acids	an N-acylated aliphatic-L-amino acid	c
Triacylglycerols	a triacyl-sn-glycerol	p
CPD-1108	a 1-phosphatidyl-1D-myo-inositol 4-phosphate	p
CPD-1109	an N-acyl-D-mannosamine	cp
TMP	dTMP	cp
KDO2-LIPID-A	&alpha;-D-Kdo-(2&rarr;4)-&alpha;-D-Kdo-(2&rarr;6)-lipid A	p
FARNESYL-PP	(2E,6E)-farnesyl diphosphate	c
Truncated-Limit-Dextrins	a &alpha;-limit dextrin with short branches	cp
CPD-569	N-acetylputrescine	cp
TusE-L-cysteine	a [TusE sulfur carrier protein]-L-cysteine	p
TRANS-2-CHLORO-4-CARBOXYMETHYLENEBUT-2-E	2-chloro-trans-dienelactone	c
Cyclic-2-3-Ribonucleoside-Monophosphates	a ribonucleoside 2',3'-cyclic phosphate	c
Ubiquinols	an ubiquinol	cp
TusE-S-sulfanylcysteine	a [TusE sulfur carrier protein]-S-sulfanylcysteine	c
N-FORMIMINO-L-GLUTAMATE	N-formimino-L-glutamate	cp
Ubiquinones	a ubiquinone	cp
Cyclic-3-5-Nucleoside-Monophosphates	a nucleoside cyclic 3',5'-monophosphate	c
PROT-CYS	a [protein]-L-cysteine	c
CPD-320	ethylnitronate	c
CPDQT-37	3-[(4'-methylthio)butyl]malate	cp
DITP	dITP	cp
7Z-3-oxo-hexadec-7-enoyl-ACPs	a (7Z)-3-oxo-hexadec-7-enoyl-[acp]	cp
CPD0-1082	L-alanyl-&gamma;-D-glutamyl-meso-2,6-diaminopimeloyl-D-alanine	cp
7Z-hexadec-7-enoyl-ACPs	a (7Z)-hexadec-7-enoyl-[acp]	c
CPDQT-38	3-[(5'-methylthio)pentyl]malate	cp
CPD0-1096	glucosamine 1,6-diphosphate	cp
PROTEIN-L-BETA-ISOASPARTATES	a [protein]-L-&beta;-isoaspartate	c
SO3	sulfite	cp
8-AMINO-7-OXONONANOATE	8-amino-7-oxononanoate	p
Long-Chain-Acyl-CoAs	a long-chain acyl-CoA	p
GLYCEROPHOSPHOGLYCEROL	glycerophosphoglycerol	c
PROTEIN-L-BETA-ISOSPARTATE-METHYL-ESTERS	a protein L-&beta;-isoaspartate &alpha;-methyl ester	p
ALA-tRNAs	a tRNAAla	c
CPD-734	(-)-jasmonate	p
Cyclic-Phosphate-Terminated-RNAs	an [RNA]-3'-ribunucleoside-2',3'-cyclophosphate	p
CPDQT-39	3-[(6'-methylthio)hexyl]malate	cp
Long-Chain-Fatty-Acids	a long-chain fatty acid	c
PROTEIN-LIPOYLLYSINE	a [glycine-cleavage complex H protein] N6-lipoyl-L-lysine	cp
CPD0-1108	&beta;-D-ribofuranose	cp
CPD-7545	S-(phenylacetothiohydroximoyl)-L-cysteine	cp
Long-Chain-Polyphosphate	long chain polyphosphate	cp
CPDQT-40	3-[(7'-methylthio)heptyl]malate	cp
DNA-Adjacent-Pyrimidines	two adjacent pyrimidine nucleosides in DNA	p
CPDQT-406	S-5-methylthiopentylhydroximoyl-L-cysteine	cp
COB-I-ALAMIN	cob(I)alamin	c
PYRROLINE-HYDROXY-CARBOXYLATE	(3R,5S)-3-hydroxy-1-pyrroline-5-carboxylate	c
CPD-335	(R)-3-hydroxybutanoate	cp
CPD0-1110	&beta;-D-ribopyranose	cp
CPDQT-407	S-6-methylthiohexylhydroximoyl-L-cysteine	cp
DNA-Combined-With-Exogenous-DNA	DNA combined with exogenous DNA to form a recombinational junction	c
CPD-7546	S-(4-methylthiobutylhydroximoyl)-L-cysteine	cp
CPD-3462	N8-acetylspermidine	p
SORBITOL	D-sorbitol	cp
Long-linear-glucans	a long-linear &alpha;-D-glucan	cp
CPDQT-408	S-7-methylthioheptylhydroximoyl-L-cysteine	cp
CPD-763	arsenite	p
CPDQT-409	S-8-methylthiooctylhydroximoyl-L-cysteine	cp
CPD0-1112	&beta;-L-rhamnopyranose	p
L-LACTATE	(S)-lactate	c
DNA-Cytidines	a 2'-deoxycytidine in DNA	p
LysW-L-glutamate	a [2-aminoadipate carrier protein]-L-glutamate	c
RIBULOSE-5P	D-ribulose 5-phosphate	cp
LysW-L-glutamate-5-phosphate	a [2-aminoadipate carrier protein]-L-glutamate 5-phosphate	cp
9S-RRNA	a 9S rRNA	c
CPD-7671	methanethiol	c
LysW-L-glutamate-5-semialdehyde	a [2-aminoadipate carrier protein]-L-glutamate 5-semialdehyde	cp
P3I	PPPi	p
9Z-3-oxo-octadec-9-enoyl-ACPs	a (9Z)-3-oxo-octadec-9-enoyl-[acp]	cp
CPD0-1133	maltoheptaose	cp
A-5-prime-PP-5-prime-DNA	an adenosine-5'-diphospho-5'-[DNA]	cp
CPDQT-41	10-(methylthio)-2-oxodecanoate	p
PYRUVATE	pyruvate	cp
CPDQT-410	S-9-methylthiononylhydroximoyl-L-cysteine	cp
Cysteine-Desulfurase-L-cysteine	an [L-cysteine desulfurase]-L-cysteine	cp
CPD-7695	ditrans,octacis-undecaprenyldiphospho-N-acetyl-(N-acetyl-&beta;-D-glucosaminyl)muramoyl-L-alanyl-&gamma;-D-glutamyl-L-lysyl-D-alanyl-D-alanine	p
LysW-L-ornithine	a [2-aminoadipate carrier protein]-L-ornithine	cp
Cytidine-34-tRNAIle2	a cytidine34 in tRNAIle2	c
CPDQT-411	(E)-N-hydroxy-5-(methylsulfanyl)pentimidothioate	cp
Lysidine-tRNA-Ile2	a lysidine34 in tRNAIle2	p
CPD-355	D-arabinitol	c
CPD0-1147	methyl red	c
3OH-4P-OH-ALPHA-KETOBUTYRATE	(3R)-3-hydroxy-2-oxo-4 phosphooxybutanoate	cp
CPDQT-412	(E)-N-hydroxy-6-(methylsulfanyl)heximidothioate	cp
CPD-3617	decanoate	c
ACET	acetate	cp
SPERMIDINE	spermidine	cp
CPD-19162	(2E,9Z)-hexadecenoyl-CoA	cp
CPD-15285	N&alpha;-methyl-L-histidine	cp
INDOLE	indole	c
tRNA-Sec	a tRNAsec	c
5-DEHYDROGLUCONATE	5-dehydro-D-gluconate	c
INDOLE-3-GLYCEROL-P	(1S,2R)-1-C-(indol-3-yl)glycerol 3-phosphate	cp
2-KETO-3-METHYL-VALERATE	(S)-3-methyl-2-oxopentanoate	cp
CPD-13093	(9Z,12Z)-15,16-dihydroxyoctadeca-9,12-dienoate	p
CARBOXYPHENYLAMINO-DEOXYRIBULOSE-P	1-(o-carboxyphenylamino)-1'-deoxyribulose 5'-phosphate	cp
Cytochromes-C-Oxidized	an oxidized c-type cytochrome	cp
HOMOGENTISATE	homogentisate	cp
3-HYDROXY-L-KYNURENINE	3-hydroxy-L-kynurenine	c
CPD-19163	(2E,11Z)-octadecenoyl-CoA	cp
tRNA-pseudouridine-38-40	a pseudouridine38-40 in tRNA	p
CPD-15301	caldariellaquinol	p
CPD-13094	(12Z,15Z)-9,10-dihydroxyoctadeca-12,15-dienoate	p
S-ADENOSYLMETHIONINAMINE	S-adenosyl 3-(methylthio)propylamine	cp
tRNA-uridine-38-40	a uridine38-40 in tRNA	c
Cytochromes-C-Reduced	a reduced c-type cytochrome	cp
CPD-15317	D-ribofuranose 5-phosphate	p
INDOLEYL-CPD	(indole-3-yl)acetonitrile	c
CPD-19167	3-oxo-(7Z)-hexadecenoyl-CoA	c
tRNA-uridine34	a uridine34 in tRNA	c
CPD-13172	6-hydroxy-2-cyclohexen-one-carboxylate	p
3-HYDROXY-PROPIONATE	3-hydroxypropanoate	p
PROTOHEME	ferroheme b	cp
tRNA-uridines	a uridine in tRNA	c
INDOLE_ACETATE_AUXIN	(indol-3-yl)acetate	p
S-ADENOSYLMETHIONINE	S-adenosyl-L-methionine	cp
3-HYDROXY-PROPIONYL-COA	3-hydroxypropanoyl-CoA	c
tRNA-with-7-aminomethyl-7-deazaguanine	a 7-aminomethyl-7-deazaguanosine34 in tRNA	cp
2-KETO-ISOVALERATE	3-methyl-2-oxobutanoate	cp
CPD-19168	(S)-3-hydroxy-(7Z)-hexadecenoyl-CoA	p
CPD-13174	salicyl-6-hydroxy-2-cyclohexene-on-oyl	c
CPD-15360	2-sulfanyl-N6-dimethylallyladenosine37 in tRNA	cp
Negatively-super-coiled-DNAs	a negatively supercoiled DNA	cp
2-KETOGLUTARATE	2-oxoglutarate	cp
tRNAs	an uncharged tRNA	p
5-HYDROXY-FERULIC-ACID	5-hydroxyferulate	c
tRNAs-containing-epoxy-quenosine	an epoxyqueuosine34 in tRNA	cp
CPD-13205	cellotetraose	c
CPD-19169	3-oxo-(9Z)-octadecenoyl-CoA	c
INDOLE_PYRUVATE	(indol-3-yl)pyruvate	cp
2-METHYL-3-HYDROXY-BUTYRYL-COA	(2S,3S)-3-hydroxy-2-methylbutanoyl-CoA	cp
5-HYDROXY-FERULOYL-COA	5-hydroxy-feruloyl-CoA	p
CPD-13227	N,N',N''-triacetylchitotriose	c
RNA-3-prime-P-cyclase-L-His-adenylate	an [RNA 3'-phosphate cyclase]-N&tau;-(5'-adenylyl)-L-histidine	cp
CPD-19170	(2E,7Z)-hexadecenoyl-CoA	cp
D-3-HYDROXYACYL-COA	a (3R)-3-hydroxyacyl-CoA	cp
tRNAs-with-queuine	a queuosine34 in tRNA	p
3-HYDROXYADIPYL-COA	(3S)-hydroxyadipyl-CoA	cp
CPD-15382	keto-D-fructose	cp
5-HYDROXYISOURATE	(S)-5-hydroxyisourate	c
D-5-Monosubstituted-Hydantoins	a D-5-monosubstituted hydantoin	cp
CPD-13339	(2Z,4E)-2-hydroxyhexa-2,4-dienedioate	cp
2-METHYL-ACETO-ACETYL-COA	2-methylacetoacetyl-CoA	cp
CPD-19171	(S)-3-hydroxy-(9Z)-octadecenoyl-CoA	p
D-6-P-GLUCONO-DELTA-LACTONE	6-phospho D-glucono-1,5-lactone	cp
CPD-15436	(5Z)-tetradecenoyl-CoA	cp
CPD-13357	(2R)-2,3-dihydroxy-3-methylbutanoate	cp
5-KETO-4-DEOXY-D-GLUCARATE	5-dehydro-4-deoxy-D-glucarate	cp
11Z-3-oxo-icos-11-enoyl-ACPs	an (11Z)-3-oxo-icos-11-enoyl-[acp]	cp
CPD-15566	(2E,4E)-tetradecadienoyl-CoA	c
RNA-3-prime-P-cyclase-L-histidine	an [RNA 3'-phosphate cyclase]-L-histidine	cp
CPD-19172	(2E,9Z)-octadecenoyl-CoA	cp
5-L-GLUTAMYL-AMINO-ACID	an &alpha;-(5-L-glutamyl)-amino acid	p
Gcv-H	[glycine cleavage system lipoyl-carrier protein]-L-lysine	c
BETA-D-FRUCTOSE	&beta;-D-fructofuranose	c
D-ALA-D-ALA	D-alanyl-D-alanine	cp
General-Protein-Substrates	a protein	cp
GlgE-Glycogen	a GlgE-glycogen	p
Glucans	a glucan	cp
Glucopyranose	D-glucopyranose	cp
BIOTIN	biotin	p
DETHIOBIOTIN	dethiobiotin	c
PALMITATE	palmitate	cp
Glutamine-synthetase-Tyr	a [glutamine-synthetase]-L-tyrosine	c
Glutamine-synthetase-adenylyl-Tyr	a [glutamine synthetase]-O4-(5'-adenylyl)-L-tyrosine	p
PALMITYL-COA	palmitoyl-CoA	p
Glutaryl-ACP-methyl-esters	a glutaryl-[acp] methyl ester	c
D-ALANINE	D-alanine	cp
Decanoyl-ACPs	a decanoyl-[acp]	c
ATP	ATP	cp
GALACTOSE	&beta;-D-galactose	cp
Delta4-hexadecenoyl-ACPs	a (4Z)-hexadec-4-enoyl-[acp]	c
Glycerophosphodiesters	a glycerophosphodiester	c
DGDP	dGDP	cp
CPD-57	(R)-10-Hydroxystearate	c
UDP	UDP	cp
CPD-17387	(3S)-hydroxy-(6Z,9Z,12Z,15Z,18Z,21Z)-tetracosahexaenoyl-CoA	p
D-ALPHABETA-D-HEPTOSE-7-PHOSPHATE	D-glycero-D-manno-heptose 7-phosphate	p
ADENINE	adenine	cp
MAL	(S)-malate	cp
UDP-4-AMINO-4-DEOXY-L-ARABINOSE	UDP-4-amino-4-deoxy-&beta;-L-arabinopyranose	cp
L-Methionylaminoacyl-tRNAs	a L-methionylaminoacyl-tRNA	p
L-ORNITHINE	L-ornithine	cp
S-ALLANTOIN	(S)-(+)-allantoin	c
CPD-17388	3-oxo-(6Z,9Z,12Z,15Z,18Z,21Z)-tetracosahexaenoyl-CoA	c
CPD-582	guanylyl molybdenum cofactor	p
TRANS-23-DEHYDROADIPYL-COA	trans-2,3-dehydroadipyl-coA	cp
COBINAMIDE	cobinamide	c
CPD-5821	(S)-2-oxo-4-hydroxy-4-carboxy-5-ureidoimidazoline	p
FE+2	Fe2+	cp
METHYLENE-THF-GLU-N	a 5,10-methylene-tetrahydrofolate	cp
Non-Glucosylated-Glucose-Acceptors	a non glucosylated D-glucose acceptor	p
UDP-AA-GLUTAMATE	UDP-N-acetyl-&alpha;-D-muramoyl-L-alanyl-D-glutamate	p
L-PANTOATE	(R)-pantoate	cp
TRANS-3-METHYL-GLUTACONYL-COA	3-methylglutaconyl-CoA	p
UDP-AAGM-DIAMINOHEPTANEDIOATE	UDP-N-acetyl-&alpha;-D-muramoyl-L-alanyl-&gamma;-D-glutamyl-meso-2,6-diaminopimelate	cp
CPD-5881	(6R)-4a-hydroxy-tetrahydrobiopterin	p
S-Alkyl-L-Cysteines	an S-alkyl-L-cysteine	cp
16-HYDROXYPALMITATE	16-hydroxypalmitate	c
GLUCOSAMINE-1P	D-glucosamine 1-phosphate	cp
S-CD-S-SP-Complex	an S-sulfanyl-[cysteine desulfurase]-S-sulfanyl-[disordered-form scaffold protein] complex	p
UDP-ACETYL-CARBOXYVINYL-GLUCOSAMINE	UDP-N-acetyl-&alpha;-D-glucosamine-enolpyruvate	cp
Palmitoleoyl-ACPs	a palmitoleoyl-[acp]	c
METHYLENETETRAHYDROMETHANOPTERIN	5,10-methylene-tetrahydromethanopterin	cp
TRANS-D2-ENOYL-ACP	a trans-2-enoyl-[acyl-carrier protein]	p
FE+3	Fe3+	p
Palmitoyl-ACPs	a palmitoyl-[acp]	c
TRANS-D2-ENOYL-COA	a (2E)-alkan-2-enoyl-CoA	cp
MALONATE-S-ALD	3-oxopropanoate	cp
L-PHOSPHATIDATE	a 1,2-diacyl-sn-glycerol 3-phosphate	c
D-Amino-Acids	a D-amino acid	cp
CPD-17621	16-hydroxypalmitoyl-CoA	p
L-SELENOCYSTEINE	L-selenocysteine	p
UDP-D-GALACTO-14-FURANOSE	UDP-&alpha;-D-galactofuranose	cp
S-HYDROXYMETHYLGLUTATHIONE	S-(hydroxymethyl)glutathione	c
CPD-592	4-guanidinobutanoate	p
PANTETHEINE-P	4'-phosphopantetheine	cp
ADENOSINE	adenosine	cp
CPD-17624	&omega;-carboxy-(9Z)-octadec-9-enoyl-CoA	p
S-LACTOYL-GLUTATHIONE	(R)-S-lactoylglutathione	cp
ADENOSINE_DIPHOSPHATE_RIBOSE	ADP-D-ribose	c
CPD-17637	7-hydroxylaurate	c
CPD-600	N-formyl-L-glutamate	cp
COPROPORPHYRINOGEN_I	coproporphyrinogen I	p
L-arginyl-3-sulfino-L-alaninyl-Peptides	an N-terminal L-arginiyl-3-sulfino-L-alanyl-[protein]	p
COPROPORPHYRINOGEN_III	coproporphyrinogen III	cp
L-arginyl-3-sulfo-L-alaninyl-Peptides	an N-terminal L-arginiyl-3-sulfo-L-alanyl-[protein]	p
PROTON	H+	cp
Peptide-with-C-terminal-Glycine	a peptide with a C-terminal glycine	p
FERULIC-ACID	ferulate	cp
L-arginyl-L-Glutamyl-Peptides	an N-terminal L-arginiyl-L-glutamyl-[protein]	p
L-arginyl-L-aspartyl-Peptides	an N-terminal L-arginiyl-L-aspartyl-[protein]	p
Peptide-with-penultimate-Glycine	a peptide with a penultimate glycine	c
ACETALD	acetaldehyde	p
Unfolded-Proteins	an unfolded protein	cp
3R-11Z-3-hydroxy-icos-11-enoyl-ACPs	a (3R,11Z)-3-hydroxy-icos-11-enoyl-[acp]	p
16S-rRNA-N2-methylguanine966	an N2-methylguanine966 in 16S rRNA	p
PHOSPHORIBOSYL-AMP	1-(5-phospho-&beta;-D-ribosyl)-AMP	cp
Nonadjacent-pyrimidine-dimer-in-DNA	a dimer of non-adjacent pyrimidine nucleosides in DNA	c
CPD-19202	L-4-hydroxyphenylglycine-L-arginyl-D-4-hydroxyphenylglycine-L-seryl-L 4-hydroxyphenylglycine	c
3R-5Z-3-hydroxy-tetradec-5-enoyl-ACPs	a (3R,5Z)-3-hydroxy-tetradec-5-enoyl-[acp]	p
CPD-11244	an unsaturated pectate oligosaccharide	cp
CPD-15567	(3E)-tetradec-3-enoyl-CoA	p
16S-rRNA-N4-methylcytidine1402	an N4-methylcytidine1402  in 16S rRNA	p
GLYCOLALDEHYDE	glycolaldehyde	p
3R-7Z-3-hydroxy-hexadec-7-enoyl-ACPs	a (3R,7Z)-3-hydroxy-hexadec-7-enoyl-[acp]	p
CPD-11281	S-sulfanylglutathione	c
Unspecified-Degradation-Products	[unspecified degradation products]	p
CPD-3618	2-oxovalerate	p
CD-S-SP-Complex	a [cysteine desulfurase]-S-sulfanyl-[disordered-form scaffold protein] complex	c
Unsulfurated-Sulfur-Acceptors	an unsulfurated [sulfur carrier]	cp
16S-rRNA-N7-methylguanine527	an N7-methylguanine527 in 16S rRNA	p
CPD-19203	D-4-hydroxyphenylglycine-L-seryl-L 4-hydroxyphenylglycine	p
3R-9Z-3-hydroxy-octadec-9-enoyl-ACPs	a (3R,9Z)-3-hydroxy-octadec-9-enoyl-[acp]	p
Unwound-DNA	an unwound double-stranded DNA	p
N-FORMYLKYNURENINE	N-formylkynurenine	cp
16S-rRNA-cytidine1402	a cytidine1402 in 16S rRNA	c
PHOSPHORIBOSYL-ATP	1-(5-phospho-&beta;-D-ribosyl)-ATP	cp
CPD-15568	2E)-tetradec-2-enoyl-CoA	c
Nonmethylated-Ribosomal-Protein-L11s	a non-methylated ribosomal protein L11	c
Unwound-RNA	an unwound RNA	p
16S-rRNA-guanine-527	a guanine527 in 16S rRNA	c
3Z-dodec-3-enoyl-ACPs	a (3Z)-dodec-3-enoyl-[acp]	c
ACETAMIDE	acetamide	c
CPD-19205	L-4-hydroxyphenylglycine-L-arginine	p
CDP	CDP	cp
CPD-1130	3-ethylmalate	cp
16S-rRNA-guanine-966	a guanine966 in 16S rRNA	c
16S-rRNA-pseudouridine516	a 16S rRNA pseudouridine516	p
CDP-2-3-4-Saturated-Diacylglycerols	a CDP-2,3,4-saturated-diacylglycerol	p
4-AMINO-BUTYRATE	4-aminobutanoate	cp
CPD-19217	S-(hydroxysulfenamide)-glutathione	p
CPD-369	L-iditol	cp
CPD-15616	keto-L-sorbose	cp
SPERMINE	spermine	c
16S-rRNA-uridine516	a uridine516 in 16S rRNA	c
N-SUCCINYL-2-AMINO-6-KETOPIMELATE	N-succinyl-2-amino-6-ketopimelate	cp
CPD-11444	uroporphyrinogen-I	c
D-ERYTHRO-IMIDAZOLE-GLYCEROL-P	D-erythro-imidazole-glycerol-phosphate	c
SQUALENE	squalene	p
4-CARBOXYMETHYLENEBUT-2-EN-4-OLIDE	cis-dienelactone	c
CPD-19395	&gamma;-L-glutamyl-glycylglycine	p
CPD-15654	2-trans, 4-cis-undecadienoyl-CoA	c
VAL	L-valine	cp
D-GALACTARATE	D-galactarate	c
VAL-tRNAs	a tRNAVal	c
CPD-11495	(2-hydroxyphenyl)acetate	p
PHOSPHORIBOSYL-CARBOXY-AMINOIMIDAZOLE	5-amino-1-(5-phospho-D-ribosyl)imidazole-4-carboxylate	cp
Nucleoside-Diphosphates	a nucleoside diphosphate	cp
CPD-15655	(3E)-undec-3-enoyl-CoA	p
N-SUCCINYLLL-2-6-DIAMINOPIMELATE	N-succinyl-L,L-2,6-diaminopimelate	cp
CDPDIACYLGLYCEROL	a CDP-diacylglycerol	cp
CPD-3706	adenosine 3'-monophosphate	cp
CPD-19487	3-isopropyl-10-(methylthio)-2-oxodecanoate	cp
PANTOTHENATE	(R)-pantothenate	cp
CPD-15661	2-trans, 4-trans-undecadienoyl-CoA	c
CPD-19488	3-isopropyl-9-(methylthio)-2-oxononanoate	cp
Nucleoside-Monophosphates	a nucleoside 5'-monophosphate	p
GLYCOLLATE	glycolate	p
CPD-3707	adenosine 2',3'-cyclic monophosphate	c
CPD-11518	3-oxo-2-(cis-2'-pentenyl)-cyclopentane-1-(E-octa-2-enoyl)-CoA	c
18-HYDROXYOLEATE	18-hydroxyoleate	c
SS-Oligodeoxyribonucleotides	a single-stranded oligodeoxyribonucleotide	p
N-Substituted-Amino-Acids	an N-modified amino acid	p
CPD-19489	3-isopropyl-8-(methylthio)-2-oxooctanoate	cp
Nucleoside-Triphosphates	a nucleoside triphosphate	cp
STEARIC_ACID	stearate	c
CPD-15663	2-trans-nonenoyl-CoA	p
PHOSPHORIBOSYL-FORMAMIDO-CARBOXAMIDE	5-formamido-1-(5-phospho-D-ribosyl)-imidazole-4-carboxamide	cp
MALONYL-ACP	a malonyl-[acp]	cp
CPD0-1148	N,N'-dimethyl-p-phenylenediamine	p
DNA-Holder	DNA	p
RNA-DNA-hybrids	a RNA-DNA hybrid	c
D-GALACTONATE	D-galactonate	c
MALONYL-COA	malonyl-CoA	cp
RNA-Holder	a ribonucleic acid	cp
Deoxy-Ribonucleoside-Diphosphates	a 2'-deoxyribonucleoside 5'-diphosphate	p
INOSINE	inosine	p
Deoxy-Ribonucleoside-Monophosphates	a 2'-deoxyribonucleoside 5'-monophosphate	p
TARTRONATE-S-ALD	tartronate semialdehyde	cp
Deoxy-Ribonucleoside-Triphosphates	a 2'-deoxyribonucleoside 5'-triphosphate	c
CPD-7737	(2-carboxy-2,5-dihydro-5-oxofuran-2-yl)-acetate	cp
DGTP	dGTP	cp
RNA-with-3-prime-pp-5-prime-A-cap	an [RNA]-3'-ribonucleoside-3'-(5'-diphosphoadenosine)	cp
RNASE-E-DEGRADATION-SUBSTRATE-MRNA	RNase E degradation substrate mRNA	c
RNASE-E-MRNA-PROCESSING-SUBSTRATE	RNase E mRNA processing substrate	c
CPD-784	5-carboxymethyl-2-hydroxymuconate	c
RNASE-E-PROCESSING-PRODUCT-MRNA	RNase E processing product mRNA	p
GLUTAMATE-1-SEMIALDEHYDE	(S)-4-amino-5-oxopentanoate	cp
CPD0-1162	(2E,5Z)-tetradecenoyl-CoA	cp
RNASE-G-DEGRADATION-SUBSTRATE-MRNA	RNase G degradation substrate mRNA	c
PROTOPORPHYRINOGEN	protoporphyrinogen IX	p
RNASE-III-MRNA-PROCESSING-SUBSTRATE	RNase III mRNA processing substrate	c
2-3-4-Saturated-L-Phosphatidates	a 1,2-diacyl-sn-glycerol 3-phosphate	c
TAURINE	taurine	cp
Kanamycin-3-phosphates	a kanamycin 3'-phosphate	p
3-Hydroxy-Terminated-DNAs	a [DNA]-3'-hydroxyl	c
CPD-785	(3E,5R)-5-carboxy-2-oxohept-3-enedioate	p
RNASE-III-PROCESSING-PRODUCT-MRNA	RNase III processing product mRNA	p
CPD0-1163	(S)-3-hydroxy-(5Z)-tetradecenoyl-CoA	p
RNASE-R-DEGRADATION-SUBSTRATE-RNA	RNase R degradation substrate RNA	c
CPD-8123	MoO2-molybdopterin cofactor	c
3-Hydroxy-octanoyl-ACPs	a (3R)-3-hydroxyoctanoyl-[acp]	p
D-GALACTOSAMINE-6-PHOSPHATE	D-galactosamine 6-phosphate	p
O-PHOSPHO-L-HOMOSERINE	O-phospho-L-homoserine	cp
IS30-Insertion-Sequences	an insertion sequence element IS30	cp
CPD0-1327	5-fluorouracil	p
HS	hydrogen sulfide	cp
Kanamycins	a kanamycin	c
3-Hydroxyglutaryl-ACP-methyl-ester	a (3R)-3-hydroxyglutaryl-[acp] methyl ester	p
Diacylglycerol-Prolipoproteins	an [apolipoprotein]-(S-diacylglyceryl)-L-cysteine	p
CPD-8180	DNA with lesion	c
IS30-with-Integrated-Transposon	an insertion sequence IS30 with integrated transposon	cp
ALLANTOATE	allantoate	cp
ISOBUTYRATE	isobutanoate	c
RS-3-Sulfolactate	3-sulfolactate	c
Dihydro-Lipoyl-Proteins	a [lipoyl-carrier protein] N6-dihydrolipoyl-L-lysine	c
CPDQT-413	(E)-N-hydroxy-7-(methylsulfanyl)heptimidothioate	cp
BISOHMYR-GLC	lipid A disaccharide	cp
PAPS	3'-phosphoadenylyl-sulfate	cp
D-GLT	D-glutamate	c
CPDQT-414	(E)-N-hydroxy-8-(methylsulfanyl)octimidothioate	cp
5-L-GLUTAMYL-L-AMINO-ACID	an &alpha;-(&gamma;-L-glutamyl)-L-amino acid	p
2-5-TRIPHOSPHORIBOSYL-3-DEPHOSPHO-	2'-(5''-triphospho-&alpha;-D-ribosyl)-3'-dephospho-CoA	p
Glycogens	a glycogen	cp
BISOHMYR-GLUCOSAMINYL-1P	lipid X	cp
CPDQT-415	(E)-N-hydroxy-9-(methylsulfanyl)nonimidothioate	cp
L-1-GLYCEROPHOSPHORYLETHANOL-AMINE	sn-glycero-3-phosphoethanolamine	c
5-L-GLUTAMYL-PEPTIDE	a 5-L-glutamyl-[peptide]	c
Guanine34-in-tRNAs	a guanine34 in tRNA	c
CPDQT-429	indolylmethylisothiocyanate	c
CELLOBIOSE	&beta;-D-cellobiose	p
Guanine46-in-tRNA	a guanine46 in tRNA	c
5-METHYL-THF-GLU-N	a 5-methyltetrahydrofolate	c
DNA-Ligase-L-lysine	a [DNA ligase]-L-lysine	cp
L-1-LYSOPHOSPHATIDATE	1-oleyl-2-lyso-phosphatidate	p
5-METHYLTHIOADENOSINE	S-methyl-5'-thioadenosine	cp
CPDQT-434	indol-3-ylmethylisothiocyanate-glutathione	p
H2CO3	carbonic acid	cp
RX	RX	c
O-SUCCINYL-L-HOMOSERINE	O-succinyl-L-homoserine	cp
METOH	methanol	cp
CPDQT-520	phosphatidylglycerophosphate (1-octadecenoyl(9Z), 2-palmitoyl)	c
L-1-PHOSPHATIDYL-ETHANOLAMINE	an L-1-phosphatidylethanolamine	p
D-GLUCARATE	D-glucarate	c
CELLULOSE	cellulose	c
L-1-PHOSPHATIDYL-GLYCEROL	an L-1-phosphatidyl-sn-glycerol	cp
L-1-PHOSPHATIDYL-GLYCEROL-P	1-(3-sn-phosphatidyl)-sn-glycerol 3-phosphate	cp
CH3-MALONATE-S-ALD	(S)-methylmalonate-semialdehyde	c
D-GLUCOSAMINE-6-P	D-glucosamine 6-phosphate	cp
L-1-PHOSPHATIDYL-SERINE	a 3-O-sn-phosphatidyl-L-serine	cp
MALTOHEXAOSE	maltohexaose	cp
ACETOACETYL-COA	acetoacetyl-CoA	cp
L-1-phosphatidyl-inositols	a 1-phosphatidyl-1D-myo-inositol	c
236-TRICHLOROHYDROQUINONE	2,3,6-trichlorohydroquinone	c
DNA-Ligase-L-lysine-adenylate	a [DNA ligase]-N6-(5'-adenylyl)-L-lysine	cp
CH33ADO	5'-deoxyadenosine	p
O-UREIDOHOMOSERINE	O-ureido-L-homoserine	c
CTP	CTP	cp
L-3-HYDROXYACYL-COA	a (3S)-3-hydroxyacyl-CoA	p
PECTATE	a pectate	cp
L-5-Monosubstituted-Hydantoins	an L-5-monosubstituted hydantoin	cp
L-glutamyl-tRNAGln	an L-glutamyl-[tRNAGln]	c
CPD-17638	7-hydroxylauroyl-CoA	p
FERULOYL-COA	feruloyl-CoA	p
HSCN	thiocyanate	p
Peptides-holder	a peptide	p
PENICILLIN	a penicillin	cp
CPD-3708	guanosine 3'-monophosphate	cp
L-leucyl-L-arginyl-Protein	a [protein] N-terminal L-leucyl-L-arginine	p
ISOBUTYRYL-COA	isobutanoyl-CoA	p
CPD-17640	18-hydroxystearate	c
L-leucyl-L-lysyl-Protein	a [protein] N-terminal L-leucyl-L-lysine	p
Persulfurated-L-cysteine-desulfurases	an S-sulfanyl-[L-cysteine desulfurase]	p
COUMARATE	4-coumarate	c
STEAROYL-COA	stearoyl-CoA	p
L-methionyl-L-alanyl-Protein	an N-terminal-L-methionyl-L-alanyl-[protein]	c
L-methionyl-L-cysteinyl-Protein	an N-terminal-L-methionyl-L-cysteinyl-[protein]	c
CPD-17641	18-hydroxystearoyl-CoA	p
CPD-10019	(5S)-5-benzyl-hydantoin	cp
2-METHYL-BUTYRYL-COA	2-methylbutanoyl-CoA	p
OCTADEC-9-ENE-118-DIOIC-ACID	&alpha;,&omega;-9Z-octadecenedioate	c
L-methionyl-L-seryl-Protein	an N-terminal-L-methionyl-L-seryl-[protein]	c
CPD-13524	all-trans-retinol	p
L-methionyl-L-threonyl-Protein	an N-terminal-L-methionyl-L-threonyl-[protein]	c
2-METHYLMALEATE	citraconate	cp
L-methionyl-L-valyl-Protein	an N-terminal-L-methionyl-L-valyl-[protein]	c
PENICILLIN-G	penicillin G	cp
L-methionyl-glycyl-Protein	an N-terminal-L-methionyl-glycyl-[protein]	c
CPD-17813	(2E,11Z)-hexadec-2,11-dienoyl-CoA	c
ADENOSYL-HOMO-CYS	S-adenosyl-L-homocysteine	cp
Phenols	a phenol	p
L-methionyl-tRNAfmet	an L-methionyl-[initiator tRNAMet]	cp
MALTOPENTAOSE	maltopentaose	cp
OCTAPRENYL-DIPHOSPHATE	all-trans-octaprenyl diphosphate	cp
STRICTOSIDINE	3-&alpha;(S)-strictosidine	p
Phenyl-Acetates	a phenyl acetate	c
CPD-17814	(11Z)-(S)-3-hydroxyhexadec-11-enoyl-CoA	p
CPD-13533	(3R)-3-hydroxypentanoyl-CoA	c
CPD-3709	guanosine 2',3'-cyclic monophosphate	c
ADENOSYL-P4	5',5'''-diadenosine tetraphosphate	c
L-phenylalanyl-L-arginyl-Protein	L-phenylalanyl-L-arginyl-[protein]	p
2-ACETO-2-HYDROXY-BUTYRATE	(S)-2-aceto-2-hydroxybutanoate	cp
L-phenylalanyl-L-lysyl-Protein	L-phenylalanyl-L-lysyl-[protein]	p
CPD-10020	(5R)-5-benzyl-hydantoin	cp
D-HEXOSE-6-PHOSPHATE	D-hexose 6-phosphate	p
CPD-17927	a nascent peptidoglycan with (L-alanyl-&gamma;-D-glutamyl-meso-2,6-diaminopimeloyl-D-alanyl-D-alanine) pentapeptide	cp
FMN	FMN	cp
GLYCYLGLYCINE	glycyl-glycine	c
CPD-18	linoleoyl-CoA	p
L-seryl-SEC-tRNAs	an L-seryl-[tRNAsec]	cp
OCTAPRENYL-METHOXY-BENZOQUINONE	2-methoxy-6-all trans-octaprenyl-1,4-benzoquinol	p
2-Me-Branched-234-Sat-FA	a 2-methyl branched 2,3,4-saturated fatty acid	c
MALTOSE	maltose	cp
Acceptor	an oxidized electron acceptor	cp
2-Me-Branched-234-Sat-Fatty-Acyl-CoA	a 2-methyl branched 2,3,4-saturated fatty acyl-CoA	p
ISOCHORISMATE	isochorismate	c
CPD-13534	3-oxopentanoyl-CoA	cp
MALTOTETRAOSE	maltotetraose	cp
FMNH2	FMNH2	cp
ADENOSYLCOBALAMIN	adenosylcobalamin	p
2-ACETO-LACTATE	(S)-2-acetolactate	cp
LAUROYLCOA-CPD	lauroyl-CoA	p
CPD-3711	cytidine-3'-monophosphate	cp
SUC	succinate	cp
CPD-13575	2-[(2R,5Z)-2-carboxy-4-methylthiazol-5(2H)-ylidene]ethyl phosphate	p
CPD-18118	D-arabinofuranose 5-phosphate	c
HX	HX	p
SUC-COA	succinyl-CoA	cp
HYDROGEN-PEROXIDE	hydrogen peroxide	cp
Phosphoglucomutase	a phosphoglucomutase	cp
D-Hexoses	a D-hexose	c
ADENOSYLCOBINAMIDE	adenosylcobinamide	p
Phosphoglucosamine-Mutase	a phosphoglucosamine mutase	cp
SUCC-S-ALD	succinate semialdehyde	cp
ADENOSYLCOBINAMIDE-GDP	adenosylcobinamide-GDP	p
MALTOTRIOSE	maltotriose	cp
N-Substituted-Aminoacyl-tRNA	an N-modified aminoacyl-[tRNA]	c
CPD-11519	3-oxo-2-(cis-2'-pentenyl)-cyclopentane-1-(3R-hydroxyoctanoyl)-CoA	p
UDP-MURNAC-TETRAPEPTIDE	UDP-N-acetylmuramoyl-L-alanyl-&gamma;-D-glutamyl-meso-2,6-diaminopimeloyl-D-alanine	p
N-acetyl-D-glucosamine	N-acetyl-D-glucosamine	cp
23S-rRNA-2-methyladenine2503	a 2-methyladenine2503 in 23S rRNA	p
DI-H-OROTATE	(S)-dihydroorotate	cp
CPD0-1456	UDP-N-acetyl-&alpha;-D-muramoyl-L-alanine	cp
Acetoacetyl-ACPs	an acetoacetyl-[acp]	cp
CPD-602	5-amino-6-(5-phospho-D-ribosylamino)uracil	p
CPD-11520	3-oxo-2-(cis-2'-pentenyl)-cyclopentane-1-(3-oxooctanoyl)-CoA	c
D-LACTATE	(R)-lactate	p
N-acetyl-D-mannosamine	N-acetyl-D-mannosamine	cp
S-NITROSOGLUTATHIONE	S-nitrosoglutathione	c
Pyruvate-dehydrogenase-acetylDHlipoyl	a [pyruvate dehydrogenase E2 protein] N6-S-acetyldihydrolipoyl-L-lysine	c
23S-rRNA-adenine-2503	adenine2503 in 23S rRNA	c
4-CYTIDINE-5-DIPHOSPHO-2-C	4-(cytidine 5'-diphospho)-2-C-methyl-D-erythritol	cp
N-acetyl-beta-D-hexosamines	an N-acetyl-&beta;-D-hexosamine	p
CPD-11521	3-oxo-2-(cis-2'-pentenyl)-cyclopentane-1-hexanoyl-CoA	p
5-OXOPROLINE	5-oxo-L-proline	cp
23S-rRNA-pseudouridine955-2504-2580	a pseudouridine955/2504/2580 in 23S rRNA	p
UDP-N-ACETYL-D-GLUCOSAMINE	UDP-N-acetyl-&alpha;-D-glucosamine	cp
PROTOPORPHYRIN_IX	protoporphyrin IX	cp
DIACYLGLYCEROL	a 1,2-diacyl-sn-glycerol	c
Pyruvate-dehydrogenase-dihydrolipoate	a [pyruvate dehydrogenase E2 protein] N6-dihydrolipoyl-L-lysine	cp
CPD-618	(2R,3S)-2-methylisocitrate	cp
Pyruvate-dehydrogenase-lipoate	a [pyruvate dehydrogenase E2 protein] N6-lipoyl-L-lysine	p
5-P-BETA-D-RIBOSYL-AMINE	5-phospho-&beta;-D-ribosylamine	cp
UDP-N-ACETYLMURAMATE	UDP-N-acetyl-&alpha;-D-muramate	cp
23S-rRNA-uridine955-2504-2580	uridine955/2504/2580 in 23S rRNA	c
DNA-N	DNAn	cp
N-formyl-L-methionyl-tRNAfmet	an N-formyl-L-methionyl-[initiator tRNAmet]	p
VERY-LONG-CHAIN-FATTY-ACYL-COA	a very long chain fatty acyl-CoA	p
CPD0-1699	6-carboxy-5,6,7,8-tetrahydropterin	c
CPD-11522	3-oxo-2-(cis-2'-pentenyl)-cyclopentane-1-(E-hexa-2-enoyl)-CoA	c
4-FUMARYL-ACETOACETATE	4-fumaryl-acetoacetate	cp
S-Substituted-Glutathione	a glutathione-toxin conjugate	p
3-KETO-ADIPATE	3-oxoadipate	c
MONOMER0-4342	a [prolipoprotein]-(S-diacylglyceryl)-L-cysteine	cp
S-Substituted-L-Cysteines	an L-cysteine-S-conjugate	cp
N-terminal-L-Serine	an N-terminal L-seryl-[protein]	p
MONOMETHYL-ESTER-OF-TRANS-ACONITATE	(E)-3-(methoxycarbonyl)pent-2-enedioate	p
CPD-11523	3-oxo-2-(cis-2'-pentenyl)-cyclopentane-1-(3R-hydroxyhexanoyl)-CoA	p
CPD0-1718	7,8-dihydropterin	c
N-terminal-L-alanine	an N-terminal L-alanyl-[protein]	p
S18-N-terminal-L-alanine	an N-terminal L-alanyl-[S18 protein of 30S ribosome]	c
CPD-11524	3-oxo-2-(cis-2'-pentenyl)-cyclopentane-1-(3-oxohexanoyl)-CoA	c
CPD-642	precorrin-3A	p
S2O3	thiosulfate	cp
D-MANNONATE	D-mannonate	cp
N-terminal-L-cysteine	an N-terminal L-cysteinyl-[protein]	p
OCTAPRENYL-METHYL-METHOXY-BENZQ	6-methoxy-3-methyl-2-all-trans-octaprenyl-1,4-benzoquinol	c
CPD0-181	N5-carboxyaminoimidazole ribonucleotide	c
N-terminal-L-cysteine-sulfinate	an N-terminal 3-sulfino-L-alanyl-[protein]	c
N-terminal-L-cysteine-sulfonate	an N-terminal 3-sulfo-L-alanyl-[protein]	c
Acetylated-S18-N-terminal-L-alanine	an N-terminal N-acetyl-L-alanyl-[S18 protein of 30S ribosome]	p
CPD-11525	3-oxo-2-(cis-2'-pentenyl)-cyclopentane-1-butanoyl-CoA	p
5-P-RIBOSYL-N-FORMYLGLYCINEAMIDE	N2-formyl-N1-(5-phospho-&beta;-D-ribosyl)glycinamide	c
QUEUINE	queuine	c
2C-METH-D-ERYTHRITOL-CYCLODIPHOSPHATE	2-C-methyl-D-erythritol-2,4-cyclodiphosphate	c
MYO-INOSITOL	myo-inositol	p
N-terminal-L-valine	an N-terminal L-valyl-[protein]	p
5-PHOSPHO-RIBOSYL-GLYCINEAMIDE	N1-(5-phospho-&beta;-D-ribosyl)glycinamide	p
OCTAPRENYL-METHYL-OH-METHOXY-BENZQ	3-demethylubiquinol-8	cp
CPD-11526	3-oxo-2-(cis-2'-pentenyl)-cyclopentane-1-(E-buta-2-enoyl)-CoA	c
CPD0-1905	8-oxo-dGTP	c
CPD-6442	methylsalicylate	c
SACCHAROPINE	L-saccharopine	c
CPD-11527	3-oxo-2-(cis-2'-pentenyl)-cyclopentane-1-(3R-hydroxybutanoyl)-CoA	p
Vernolates	vernolate	c
DIAMINO-OH-PHOSPHORIBOSYLAMINO-PYR	2,5-diamino-6-(5-phospho-D-ribosylamino)pyrimidin-4(3H)-one	c
N-terminal-glycine	an N-terminal glycyl-[protein]	p
5-PHOSPHORIBOSYL-5-AMINOIMIDAZOLE	5-amino-1-(5-phospho-&beta;-D-ribosyl)imidazole	cp
CPD0-1958	3-(N-morpholino)propanesulfonate	c
4-GUANIDO-BUTYRAMIDE	4-guanidinobutyramide	c
N1-ACETYLSPERMINE	N1-acetylspermine	p
PRPP	5-phospho-&alpha;-D-ribose 1-diphosphate	cp
2K-4CH3-PENTANOATE	4-methyl-2-oxopentanoate	cp
CPD-19490	3-isopropyl-7-(methylthio)-2-oxoheptanoate	cp
D-METHYL-MALONYL-COA	(S)-methylmalonyl-CoA	cp
HCN	hydrogen cyanide	c
PHOSPHORIBOSYL-FORMIMINO-AICAR-P	1-(5-phospho-&beta;-D-ribosyl)-5-[(5-phosphoribosylamino)methylideneamino]imidazole-4-carboxamide	cp
Actinorhodin-Intermediate-2	9-hydroxy-3,5,7,11,13,15-hexaoxohexadecanoyl-[PKS-acp]	p
CPD-19491	3-isopropyl-6-(methylthio)-2-oxohexanoate	cp
CPD-19492	3-ethyl-2-oxosuccinate	cp
D-MYO-INOSITOL-1-MONOPHOSPHATE	1D-myo-inositol 1-monophosphate	c
DNA-Segment-Placeholder	a DNA segment	cp
ARSENATE	arsenate	c
CPD-19493	S-(mercaptomethyl)-L-cysteine	p
3-KETO-ADIPYL-COA	3-oxoadipyl-CoA	cp
TDP	dTDP	cp
CPD-195	octanoate	c
DNA-Segment-in-Reverse-Orientations	a DNA segment in reverse orientation	cp
Acyl-Phosphates	an acyl phosphate	c
DNA-With-GO	a 7,8-dihydro-8-oxoguanine in DNA	c
CPD-196	octanoyl-CoA	p
OH-ACYL-ACP	a (3R)-3-hydroxyacyl-[acyl-carrier protein]	cp
CPD-19695	UDP-4-amino-D-fucose	cp
DNA-With-GO-A-Mismatch	DNA with adenine:7,8-dihydro-8-oxoguanine mismatch	c
OH-HEXANOYL-COA	(S)-3-hydroxyhexanoyl-CoA	c
BUTANAL	butan-1-al	p
D-RIBULOSE-15-P2	D-ribulose-1,5-bisphosphate	cp
3-KETOACYL-COA	a 3-oxoacyl-CoA	cp
PHOSPHORIBULOSYL-FORMIMINO-AICAR-P	phosphoribulosylformimino-AICAR-phosphate	p
HCO3	hydrogencarbonate	cp
3-KETOBUTYRATE	acetoacetate	cp
BUTYRYL-COA	butanoyl-CoA	c
3-Ketoglutaryl-ACP-methyl-ester	a 3-oxo-glutaryl-[acp] methyl ester	cp
3-Ketopimeloyl-ACP-methyl-esters	a 3-oxo-pimeloyl-[acp] methyl ester	cp
DNA-With-Hypoxanthines	a DNA with hypoxanthine	c
TETRACHLOROHYDROQUINONE	2,3,5,6-tetrachlorohydroquinone	c
Adjacent-pyrimidine-dimer-in-DNA	a dimer of adjacent pyrimidine nucleosides in DNA	c
2-OCTAPRENYL-6-HYDROXYPHENOL	3-(all-trans-octaprenyl)benzene-1,2-diol	c
OH-MYRISTOYL	UDP-2-N,3-O-bis[(3R)-3-hydroxytetradecanoyl]-&alpha;-D-glucosamine	cp
ALLO-THR	DL-allothreonine	c
GAP	D-glyceraldehyde 3-phosphate	cp
ALLYSINE	(S)-2-amino-6-oxohexanoate	p
Phospholipid-Cyclopropane-Fatty-Acids	a [phospholipid] cyclopropane fatty acid	p
CPD-15667	6-cis, 3-oxo-tridecenoyl-CoA	c
Phospholipid-Olefinic-Fatty-Acids	a [phospholipid] olefinic fatty acid	c
GLYOX	glyoxylate	cp
ALPHA-D-GALACTOSE	&alpha;-D-galactose	cp
OH-PYR	hydroxypyruvate	cp
DNA-containing-a-Apyrimidinic-Sites	an apyrimidinic site in DNA	p
2-OCTAPRENYL-6-METHOXYPHENOL	2-methoxy-6-(all-trans-octaprenyl)phenol	cp
CPD-15668	4-cis-undecenoyl-CoA	p
Phosphorylated-Phosphoglucosamine-Mutase	a phosphorylated phosphoglucosamine mutase	cp
Phosphorylated-phosphoglucomutase	a phosphorylated phosphoglucomutase	cp
CPD-15676	6-trans-3-oxo-tridecenoyl-CoA	c
Phosphoserines	L(or D)-O-phosphoserine	c
Diribonucleotide	a diribonucleotide	p
CPD-15677	4-trans-undecenoyl-CoA	p
ALPHA-GLUCOSE	&alpha;-D-glucopyranose	cp
DNA-containing-aPurinic-Sites	an apurinic site within DNA	p
ALPHA-GLUCOSE-16-BISPHOSPHATE	&alpha;-glucose 1,6-bisphosphate	cp
CPD-15678	4-trans-3-oxo-undecenoyl-CoA	c
D-SEDOHEPTULOSE-7-P	D-sedoheptulose 7-phosphate	cp
Dodecanoyl-ACPs	a dodecanoyl-[acp]	c
Pi	phosphate	cp
DNA-containing-abasic-Sites	a DNA containing an apurinic/apyrimidinic site	cp
Donor-H2	a reduced electron acceptor	cp
CPD-15687	5-cis, 7-trans-3-oxo-tetradecadienoyl-CoA	c
2-OCTAPRENYLPHENOL	2-octaprenylphenol	p
FORMALDEHYDE	formaldehyde	p
Pimeloyl-ACPs	a pimeloyl-[acp]	c
Double-Stranded-DNAs	a double stranded DNA	cp
GDP	GDP	cp
CPD-15688	(3Z,5E)-dodeca-3,5-dienoyl-CoA	p
Double-helix-DNA	a double-helix DNA	c
Drugs	a drug	cp
D-XYLULOSE	D-xylulose	cp
ALPHA-RIBAZOLE-5-P	&alpha;-ribazole 5'-phosphate	p
GDP-MANNOSE	GDP-&alpha;-D-mannose	cp
2-OXOBUTANOATE	2-oxobutanoate	cp
CPD-15691	(5E)-3-oxo-dodec-5-enoyl-CoA	c
DNA-containing-diamino-hydro-formamidops	a ring-opened 7-methylguanine in DNA	c
CPD-15692	(3E)-dec-3-enoyl-CoA	p
4-HYDROXY-BUTYRATE	4-hydroxybutanoate	p
CPD-3713	cytidine 2',3'-cyclic monophosphate	c
CPD-13644	N5-acetyl-L-ornithine	p
Very-long-chain-fatty-acids	a very-long-chain fatty acid	c
PHYTYL-PYROPHOSPHATE	phytyl diphosphate	cp
DNA-deoxycytidine-dimer	a dimer of non-adjacent 2'-deoxycytidines in DNA	c
5-PHOSPHORIBOSYL-N-FORMYLGLYCINEAMIDINE	2-(formamido)-N1-(5-phospho-&beta;-D-ribosyl)acetamidine	cp
4-HYDROXY-L-PROLINE	trans-4-hydroxy-L-proline	p
LEU	L-leucine	cp
CHITIN	chitin	cp
CPD-8259	&beta;-D-ribosylnicotinate	p
CHITOBIOSE	N,N'-diacetylchitobiose	cp
CPD-3724	uridine 3'-monophosphate	cp
LEU-tRNAs	a tRNALeu	cp
CPD-13689	(25S)-3-oxocholest-4-en-26-oate	c
HYDROXY-METHYL-BUTENYL-DIP	(E)-4-hydroxy-3-methylbut-2-en-1-yl diphosphate	cp
ADENOSYLCOBINAMIDE-P	adenosyl-cobinamide phosphate	c
ACETONE	acetone	p
DNA-deoxycytidine-thymidine-dimer	a dimer of non-adjacent 2'-deoxycytidine and thymidine in DNA	c
HEXANOYL-COA	hexanoyl-CoA	cp
5-Phospho-terminated-DNAs	a 5'-phospho-[DNA]	cp
D-Xylopyranose	D-xylopyranose	cp
CPD-13691	(25S)-3-oxocholest-4-en-26-oyl-CoA	p
CPD-827	5-dehydro-2-deoxy-D-gluconate	c
DNA-pyrimidines	a pyrimidine nucleoside in DNA	p
WATER	H2O	cp
CPD-3725	uridine 2'3'-cyclic monophosphate	c
CPD-8534	DNA without lesion	p
CHLORITE	chlorite	cp
Malonyl-acp-methyl-ester	a malonyl-[acp] methyl ester	c
CPD-13699	3,22-dioxochol-4-en-24-oyl-CoA	c
5-phosphooligonucleotides	a 5'-phosphooligonucleotide	p
DNA-thymidine-deoxycytidine-dimer	a dimer of non-adjacent thymidine and 2'-deoxycytidine in DNA	c
CPD-8579	a [histone] N6-methyl-L-lysine	p
Maltodextrins	a maltodextrin	cp
CPD-8624	a [protein]-L-proline (&omega; = 180)	cp
DNA-thymidine-dimer	a dimer of non-adjacent thymidines in DNA	c
CPD-13700	3-oxo-4-pregnene-20-carboxyl-CoA	p
CPD-3734	thiophosphate	p
CPD-8625	a [protein]-L-proline (&omega; = 0)	cp
D-glucopyranose-6-phosphate	D-glucopyranose 6-phosphate	cp
CHLOROPHYLL-A	chlorophyll a	p
CPD-13711	3-[(3aS,4S,7aS)-7a-methyl-1,5-dioxo-octahydro-1H-inden-4-yl]propanoate	c
Wound-RNA	wound RNA	c
HYDROXYMETHYLBILANE	preuroporphyrinogen	cp
XANTHINE	xanthine	p
CPD-8742	(3E)-2-oxohex-3-enedioate	cp
DNA-thymidines	a thymidine in DNA	p
CPD-3736	lanthionine	p
POLY-GLUCOSYLATED-GLYCOGENINS	a glucosylated glycogenin	c
SE-2	selenide	c
CPD-3740	djenkolate	c
LEUKOTRIENE-C4	leukotriene-C4	c
DADP	dADP	cp
CPD-8978	ethylphosphate	c
DNA-with-Uracils	a uracil in DNA	c
HG+2	Hg2+	c
CPD-13717	L-selenocystathionine	c
CHOCOLA_A	all-trans-retinyl palmitate	c
CPD-645	5-dehydro-2-deoxy-D-gluconate 6-phosphate	p
QUINOLINATE	quinolinate	cp
CPD-10267	decanoyl-CoA	cp
OLEATE-CPD	oleate	cp
CPD-1828	GDP-&alpha;-D-mannuronate	p
CPD0-2015	N-acetyl-L-methionine	p
CPD-650	(3R)-3-hydroxybutanoyl-CoA	p
N2-SUCCINYLGLUTAMATE	N2-succinylglutamate	c
CPD-10269	palmitoleoyl-CoA	cp
CPD-18320	5-methylbenzimidazole	c
DODECANOATE	laurate	c
CPD-10284	3-oxo-myristoyl-CoA	c
CPD0-2018	5-methylcytosine	c
CPD-18321	5-methoxybenzimidazole	c
DPG	3-phospho-D-glyceroyl-phosphate	cp
CPD-18346	cis-vaccenoyl-CoA	cp
CPD-654	2,5-dioxopentanoate	p
CPD0-2030	glycerophosphoserine	c
UDP-OHMYR-ACETYLGLUCOSAMINE	UDP-3-O-[(3R)-3-hydroxymyristoyl]-N-acetyl-&alpha;-D-glucosamine	c
GDP-TP	pppGpp	p
CPD-18348	1-cis-vaccenoylglycerol-3-phosphate	p
N5-Formyl-THF-Glu-N	an (6S)-N5-formyl-tetrahydrofolate	cp
CPD-658	CDP-4-dehydro-6-deoxy-D-glucose	c
CPD0-2105	3-oxododecanoyl-CoA	cp
CPD-18379	1-myristoylglycerol 3-phosphate	p
CPD-10418	4-sulfocatechol	c
UDP-OHMYR-GLUCOSAMINE	UDP-3-O-(3-hydroxymyristoyl)-&alpha;-D-glucosamine	cp
QXC-ACP	a quinoxaline-2-carboxyl-[acyl-carrier protein]	p
CPD-66	2-hydroxy-3-oxosuccinate	cp
CPD0-2106	3-oxooctanoyl-CoA	cp
CPD-663	UDP-4-dehydro-6-deoxy-&alpha;-D-glucose	cp
GLUTARYL-COA	glutaryl-CoA	p
CPD-10419	3-sulfomuconate	p
NAD	NAD+	cp
CPD-11528	3-oxo-2-(cis-2'-pentenyl)-cyclopentane-1-(3-oxobutanoyl)-CoA	c
3-MERCAPTO-PYRUVATE	3-mercaptopyruvate	c
2K-ADIPATE	2-oxoadipate	cp
DTDP-D-GLUCOSE	dTDP-&alpha;-D-glucose	cp
CPD-11529	(+)-7-epi-jasmonoyl-CoA	p
3-METHYL-CROTONYL-COA	3-methylcrotonyl-CoA	cp
OLEOYL-COA	oleoyl-CoA	cp
CYS	L-cysteine	cp
CPD-11592	2-methylsulfanyl-N6-dimethylallyladenosine37 in tRNA	p
CYS-GLY	L-cysteinyl-glycine	p
CPD-11643	two adjacent thymidines in DNA	p
CPD-19761	2,6-dichloro-3-(glutathione-S-yl)-hydroquinone	p
Beta-3-hydroxybutyryl-ACPs	a (3R)-3-hydroxybutanoyl-[acp]	p
CPD-11740	carboxyphosphinopyruvate	cp
CPD-19763	2,3,5-trichloro-6-(glutathione-S-yl)-hydroquinone	p
LINOLEIC_ACID	linoleate	c
3-METHYLTHIOPROPYLHYDROXAMIC-ACID	(E)-N-hydroxy-4-(methylsulfanyl)butimidothioate	cp
3-Methyl-Saturated-Fatty-Acids	a 3-methyl-branched 2,3,4-saturated fatty acid	c
TETRADEHYDROACYL-COA	a (2E,4E)-alkane-2,4-dienoyl-CoA	c
Beta-D-glucosides	a &beta;-D glucoside	c
ACETYL-ACP	an acetyl-[acp]	c
3-Methyl-Saturated-Fatty-Acyl-CoA	a 3-methyl-branched 2,3,4-saturated fatty acyl-CoA	p
OLIGOPEPTIDES	an oligopeptide	c
CPD-11770	7,8-dihydromonapterin	c
CPD-19833	roseoflavin	c
CYS-tRNAs	a tRNACys	cp
Beta-hydroxydecanoyl-ACPs	a (3R)-3-hydroxydecanoyl-[acp]	p
THF-GLU-N	a tetrahydrofolate	cp
LINOLENIC_ACID	&alpha;-linolenate	c
CPD-19839	roseoflavin 5'-phosphate	cp
3-OCTAPRENYL-4-HYDROXYBENZOATE	3-octaprenyl-4-hydroxybenzoate	cp
DTDP-DEOH-DEOXY-GLUCOSE	dTDP-4-dehydro-6-deoxy-&alpha;-D-glucopyranose	cp
CPD-121	(R)-mandelate	c
CPD-12112	salicyloyl-CoA	c
THIAMINE-P	thiamine phosphate	c
CPD-19840	roseoflavin adenine dinucleotide	p
CPD-12115	demethylmenaquinol-8	c
DTDP-DEOH-DEOXY-MANNOSE	dTDP-4-dehydro-&beta;-L-rhamnose	cp
Butanoyl-ACPs	a butanoyl-[acp]	c
THIAMINE-PYROPHOSPHATE	thiamine diphosphate	p
XANTHOSINE	xanthosine	p
L-ALA-GAMMA-D-GLU-DAP	L-alanyl-&gamma;-D-glutamyl-meso-diaminopimelate	c
Quinones	a quinone	c
XANTHOSINE-5-PHOSPHATE	XMP	cp
ACETYL-COA	acetyl-CoA	cp
Poly-Hydroxybutyrate	poly-3-hydroxybutanoate	cp
L-ALPHA-ALANINE	L-alanine	cp
R-2-Haloacids	an (R)-2-haloacid	c
R-2-Hydroxyacids	an (R)-2-hydroxyacid	p
AMINO-HYDROXYMETHYL-METHYL-PYR-P	4-amino-2-methyl-5-(phosphooxymethyl)pyrimidine	cp
SECOLOGANIN-CPD	secologanin	c
2-Oxo-carboxylates	a 2-oxo carboxylate	cp
FORMAMIDE	formamide	c
DTDP-RHAMNOSE	dTDP-&beta;-L-rhamnose	p
R-3-Hydroxypalmitoyl-ACPs	a (3R)-3-hydroxypalmitoyl-[acp]	p
R-3-hydroxy-cis-vaccenoyl-ACPs	(R)-3-hydroxy-cis-vacc-11-enoyl-[acp]	p
2-PG	2-phospho-D-glycerate	cp
R-3-hydroxyarachidoyl-ACPs	a (3R)-3-hydroxyarachidoyl-[acp]	p
2-PHOSPHO-4-CYTIDINE-5-DIPHOSPHO-2-C-MET	2-phospho-4-(cytidine 5'-diphospho)-2-C-methyl-D-erythritol	p
R-3-hydroxybehenoyl-ACPs	a (3R)-3-hydroxybehenoyl-[acp]	p
DATP	dATP	p
AMINO-HYDROXYMETHYL-METHYLPYRIMIDINE-PP	4-amino-2-methyl-5-(diphosphomethyl)pyrimidine	p
R-3-hydroxycerotoyl-ACPs	a (3R)-3-hydroxycerotoyl-[acp]	p
R-3-hydroxydodecanoyl-ACPs	a (3R)-3-hydroxydodecanoyl-[acp]	p
FORMATE	formate	p
R-3-hydroxyhexanoyl-ACPs	a (3R)-3-hydroxyhexanoyl-[acp]	p
AMINO-OH-HYDROXYMETHYL-DIHYDROPTERIDINE	6-(hydroxymethyl)-7,8-dihydropterin	cp
SELENOHOMOCYSTEINE	seleno-L-homocysteine	p
L-ARGININO-SUCCINATE	L-arginino-succinate	cp
2-PROTOCATECHUOYLPHLOROGLUCINOLCARBOXYLA	2-protocatechuoylphloroglucinolcarboxylate	p
R-3-hydroxylignoceroyl-ACPs	a (3R)-3-hydroxylignoceroyl-[acp]	p
R-3-hydroxymyristoyl-ACPs	a (3R)-3-hydroxymyristoyl-[acp]	cp
R-3-hydroxypetroselinoyl-ACPs	a (3R)-3-hydroxypetroselinoyl-[acp]	p
DCDP	dCDP	cp
R-3-hydroxystearoyl-ACPs	a (3R)-3-hydroxystearoyl-[acp]	p
SEPO3	selenophosphate	cp
L-ASPARTATE	L-aspartate	cp
MANNOSE-1P	&alpha;-D-mannose 1-phosphate	cp
AMINO-RIBOSYLAMINO-1H-3H-PYR-DIONE	5-amino-6-(D-ribitylamino)uracil	cp
TRP	L-tryptophan	cp
CPD-9000	4-(&gamma;-L-glutamylamino)butanoate	c
CPD-3744	1-butanesulfonate	c
CPD-667	O-acetyl-L-homoserine	cp
CPD-3745	isethionate	c
CPD-13754	3-[(3aS,4S,7aS)-7a-methyl-1,5-dioxo-octahydro-1H-inden-4-yl]propanoyl-CoA	p
TRP-tRNAs	a tRNATrp	c
ISOVALERATE	isovalerate	c
CPD-15873	bis(guanylyl molybdopterin cofactor)	p
CPD-13847	UDP-2-acetamido-2,6-dideoxy-&alpha;-D-xylo-hex-4-ulose	cp
CPD-15874	bis(molybdenum cofactor)	c
CPD-67	2-phosphoglycolate	c
GERANYLGERANYL-PP	geranylgeranyl diphosphate	cp
CPD-672	(S)-3-aminobutanoyl-CoA	cp
HG0	Hg0	p
CPD-375	4-pyridoxolactone	p
CPD-6746	1D-myo-inositol 2-monophosphate	c
HIS	L-histidine	cp
HIS-tRNAs	a tRNAHis	c
CPD-3762	5-amino-4-imidazolecarboxyamide	c
GLC-1-P	&alpha;-D-glucopyranose 1-phosphate	cp
CPD-14018	icosapentaenoyl-CoA	p
CPD-159	(S)-5-amino-3-oxohexanoate	cp
PORPHOBILINOGEN	porphobilinogen	cp
CPD-3766	menadione	c
GLC-D-LACTONE	D-glucono-1,5-lactone	cp
CPD-14053	(6R)-L-erythro-5,6,7,8-tetrahydrobiopterin	c
CPD-676	trans-caffeate	c
CPD-9041	cobalt-precorrin-4	c
CPD-15979	D-mannopyranose 6-phosphate	cp
ISOVALERYL-COA	isovaleryl-CoA	cp
CPD-9042	cobalt-precorrin-5A	p
CPD-678	hydrogen selenide	c
Alcohols	an alcohol	p
DIHYDRO-DIOH-BENZOATE	(2S,3S)-2,3-dihydroxy-2,3-dihydrobenzoate	p
CPD0-2113	1-stearoyl-sn-glycerol 3-phosphate	p
CPD-12173	(S)-3-hydroxy-isobutanoyl-CoA	cp
Aldehydes	an aldehyde	p
ACETYL-GLU	N-acetyl-L-glutamate	cp
DIHYDRO-NEO-PTERIN	7,8-dihydroneopterin	c
CPD-105	(R)-4-hydroxymandelate	c
CPD-12175	(S)-3-hydroxy-isobutanoate	p
CPD0-2117	trans-hexadec-2-enoyl-CoA	c
GLUTATHIONE	glutathione	cp
CPD-10546	methyl (indol-3-yl)acetate	c
NAD-P-OR-NOP	NAD(P)+	cp
HYPOXANTHINE	hypoxanthine	p
4-IMIDAZOLONE-5-PROPIONATE	4-imidazolone-5-propanoate	cp
CPD0-2121	trans-hex-2-enoyl-CoA	p
4-MALEYL-ACETOACETATE	4-maleyl-acetoacetate	cp
GMP	GMP	cp
Halide-Anions	a halide anion	p
CPD-12179	methylmalonate semialdehyde	c
DIHYDROFOLATE	7,8-dihydrofolate monoglutamate	p
CPD0-2123	3-oxodecanoyl-CoA	c
CPD-106	(S)-4-hydroxymandelate	p
CPD-12199	3S-(4-hydroxyphenyl)-3-hydroxy-propanoyl-CoA	p
CPD-10600	4-hydroxybenzoyl-acetyl-CoA	c
DIHYDROFOLATE-GLU-N	a 7,8-dihydrofolate	p
CPD-10608	trans-dienelactone	c
OROTATE	orotate	cp
ACETYL-P	acetyl phosphate	cp
Aliphatic-Alpha-Omega-Diamines	an aliphatic &alpha;,&omega;-diamine	c
CPD0-2171	(S)-3-hydroxytetradecanoyl-CoA	p
4-NITROANILINE	4-nitroaniline	p
CPD-122	(S)-mandelate	p
NADH	NADH	cp
Hepta-oxo-hexadecanoyl-ACPs	a 3,5,7,9,11,13,15-hepta-oxo-hexadecanoyl-[PKS-acp]	c
CHORISMATE	chorismate	cp
L-ASPARTATE-SEMIALDEHYDE	L-aspartate-semialdehyde	cp
SER	L-serine	cp
FORMYL-L-METHIONYL-PEPTIDE	a [protein] N-terminal-formyl-L-methionine	c
C1	UDP-N-acetyl-&alpha;-D-muramoyl-L-alanyl-&gamma;-D-glutamyl-meso-2,6-diaminopimeloyl-D-alanyl-D-alanine	p
ADENYLOSUCC	adenylo-succinate	cp
XYLULOSE-5-PHOSPHATE	D-xylulose 5-phosphate	cp
CPD-18492	(2E,6Z,9Z,12Z,15Z,18Z)-tetracosahexaenoyl-CoA	c
FORMYL-THF-GLU-N	an N10-formyl-tetrahydrofolate	cp
SER-tRNAs	a tRNAser	c
FORMYL-THMPT	5-formyl-tetrahydromethanopterin	cp
Menaquinols	a menaquinol	cp
CPD-18493	(3S)-hydroxy-(6Z,9Z,12Z,15Z,18Z)-tetracosapentaenoyl-CoA	p
MENADIOL	menadiol	p
Menaquinones	a menaquinone	cp
3-4-DIHYDROXYBENZOATE	protocatechuate	cp
Mercapturates	a mercapturate	c
C4	undecaprenyl-diphospho-N-acetylmuramoyl-L-alanyl-&gamma;-D-glutamyl-L-lysyl- D-alanyl-D-alanine	c
Xenobiotic	a xenobiotic	cp
CPD-18494	3-oxo-(6Z,9Z,12Z,15Z,18Z)-tetracosapentaenoyl-CoA	c
ERYTHROSE-4P	D-erythrose 4-phosphate	cp
CPD-18495	5-methoxy-6-methylbenzimidazole	c
L-BETA-ASPARTYL-P	L-aspartyl-4-phosphate	cp
C5	undecaprenyldiphospho-N-acetylmuramoyl-L-alanyl-&gamma;-D-glutamyl-meso-2,6-diaminopimeloyl-D-alanyl-D-alanine	cp
CPD-18497	5-hydroxy-benzimidazole	c
Methanofurans	a methanofuran	cp
3-5-ADP	adenosine 3',5'-bisphosphate	cp
L-CANALINE	L-canaline	p
C6	ditrans,octacis-undecaprenyldiphospho-[(N-acetyl-&beta;-D-glucosaminyl)-(1,4)-]-N-acetyl-&alpha;-D-muramoyl-L-alanyl-&gamma;-D-glutamyl-meso-2,6-diaminopimeloyl-D-alanyl-D-alanine	cp
OROTIDINE-5-PHOSPHATE	orotidine 5'-phosphate	cp
ETF-Oxidized	an oxidized electron-transfer flavoprotein	cp
CPD-18532	(R)-&beta;-hydroxy-L-kynurenine	p
DUDP	dUDP	cp
CADAVERINE	cadaverine	p
CPD-18539	(R)-N-formyl-&beta;-hydroxy-L-kynurenine	c
5S-rRNAs	a 5S rRNA	p
L-CITRULLINE	L-citrulline	cp
CPD-18550	quinoxaline-2-carboxyl adenylate	c
CPD-201	4-hydroxybenzoyl-CoA	cp
Polysaccharides	a polysaccharide	p
CPD-14268	(15Z)-tetracosenoate	c
LINOLENOYL-COA	&alpha;-linolenoyl-CoA	p
Hexanoyl-ACPs	a hexanoyl-[acyl-carrier-protein]	c
CPD-14269	(Z)-15-tetracosenoyl-CoA	p
CPD-16458	7,8-dihydrolumazine	p
CPD-16491	2,6-diamino-4-hydroxy-5-(N-methyl)formamidopyrimidine	p
CPD-14443	(2S,4S)-4-hydroxy-2,3,4,5-tetrahydrodipicolinate	cp
Prolipoprotein-Cysteines	a [prolipoprotein]-L-cysteine	c
ITP	ITP	cp
LIPID-IV-A	lipid IVA	cp
Histone-L-lysine	a [histone]-L-lysine	c
DIHYDROLIPOYL-GCVH	a [glycine-cleavage complex H protein] N6-dihydrolipoyl-L-lysine	cp
CPD-20735	two adjacent 2'-deoxycytidines in DNA	p
CPD-16549	3-(N-morpholino)propanal	p
DIHYDRONEOPTERIN-P3	7,8-dihydroneopterin 3'-triphosphate	c
CPD-14553	UDP-&alpha;-D-galactose	cp
CPD-20736	adjacent 2'-deoxycytidine-thymidine in DNA	p
CPD-20737	adjacent thymidine-2'-deoxycytidine in DNA	p
Hpr-Histidine	an [HPr]-L-histidine	c
AMINOMETHYLDIHYDROLIPOYL-GCVH	a [glycine-cleavage complex H protein] N6-aminomethyldihydrolipoyl-L-lysine	cp
CPD-20741	a dimer of adjacent 2'-deoxycytidines in DNA	c
Hpr-pi-phospho-L-histidines	an [HPr protein]-N&pi;-phospho-L-histidine	p
Protein-Disulfides	a protein disulfide	cp
CPD-20742	a dimer of adjacent thymidines in DNA	c
SUPER-OXIDE	superoxide	c
HISTIDINAL	histidinal	cp
Protein-Dithiols	a protein dithiol	cp
CPD-20743	a dimer of adjacent 2'-deoxycytidine and thymidine in DNA	c
CPD-20744	a dimer of adjacent thymidine and 2'-deoxycytidine in DNA	c
CPD-20826	7-(5-phospho-&alpha;-D-ribosyl)adenine	p
CPD-16606	UDP-2-acetamido-4-amino-2,4,6-trideoxy-&alpha;-D-galactose	cp
Protein-Histidines	a [protein]-L-histidine	cp
CPD-14675	pristanoyl-CoA	p
CPD-20829	[(2R,3S,4R,5S)-5-(1,3-benzodiazol-1-yl)-3,4-dihydroxyoxolan-2-yl]methyl phosphate	p
CPD-20830	[(2R,3S,4R,5S)-3,4-dihydroxy-5-(5-hydroxy-1,3-benzodiazol-1-yl)oxolan-2-yl]methyl phosphate	p
Initiation-tRNAmet	initiator tRNAMet	c
CPD-20831	[(2R,3S,4R,5S)-3,4-dihydroxy-5-(5-methoxy-1,3-benzodiazol-1-yl)oxolan-2-yl]methyl phosphate	p
LIPOIC-ACID	(R)-lipoate	c
CPD-20832	[(2R,3S,4R,5S)-3,4-dihydroxy-5-(5-methoxy-6-methyl-1,3-benzodiazol-1-yl)oxolan-2-yl]methyl phosphate	p
CPD-14704	4-hydroxy-2-nonenal-glutathione conjugate	p
CPD-16953	2-amino-6-[1-hydroxyethyl]-7-methyl-7,8-dihydropterin	c
CPD-9043	cobalt-precorrin-6A	p
2-hydroxyacyl-glutathiones	S-(2-hydroxyacyl)glutathione	c
2-trans-4-cis-dienoyl-CoAs	a 2-trans-4-cis-dienoyl-CoA	c
OXALACETIC_ACID	oxaloacetate	cp
3-OXO-EICOSAPENTAENOYL-ACP	a 3-oxo-docosapentaenoyl [acp]	c
DCMP	dCMP	c
CIS-2-CHLORO-4-CARBOXYMETHYLENEBUT-2-EN-	2-chloro-cis-dienelactone	c
CPD-10633	5-chloro-trans-dienelactone	c
TRYPTAMINE	tryptamine	c
DCTP	dCTP	p
CPD-10634	5-chloromaleylacetate	p
CIS-ACONITATE	cis-aconitate	cp
CPD-10636	2,5-dichloro-trans-dienelactone	c
OXALO-SUCCINATE	oxalosuccinate	cp
CPD-9047	cobalt-precorrin-5B	c
CPD-10637	2,5-dichloromaleylacetate	p
GLN	L-glutamine	cp
GLN-tRNAs	a tRNAGln	c
CIS-D2-ENOYL-COA	a cis-2-enoyl-CoA	cp
CPD-9049	cobyrinate	c
DEAMIDO-NAD	nicotinate adenine dinucleotide	cp
GLT	L-glutamate	cp
CPD-9245	palmitoleate	c
GLT-tRNAs	a tRNAglu	p
CPD-9247	cis-vaccenate	c
CIT	citrate	cp
THMPT	tetrahydromethanopterin	cp
3-CARBOXY-3-HYDROXY-ISOCAPROATE	(2S)-2-isopropylmalate	cp
CPD-10750	UDP-2-acetamido-2,6-dideoxy-&beta;-L-arabino-hex-4-ulose	cp
ETF-Reduced	a reduced electron-transfer flavoprotein	cp
a-2-oxoglutarate-dehydrogenase-E2-protei	a [2-oxoglutarate-dehydrogenase E2 protein] N6-octanoyl-L-lysine	c
MESO-DIAMINOPIMELATE	meso-diaminopimelate	cp
CPD-12279	2-iminoacetate	c
Methylated-Ribosomal-Protein-L11s	a methylated ribosomal protein L11	p
Aliphatic-L-Amino-Acids	an aliphatic L-amino acid	p
CPD0-2231	dIDP	cp
CPD-380	3-sulfopyruvate	cp
Aliphatic-N-Acetyl-Diamines	Unknown	p
a-pyruvate-dehydrogenase-E2-protein-Nsup	a [pyruvate dehydrogenase E2 protein] N6-octanoyl-L-lysine	c
PHE	L-phenylalanine	cp
FRU1P	&beta;-D-fructofuranose 1-phosphate	c
MESO-TARTRATE	meso-tartrate	cp
apo-ACP	an apo-[acyl-carrier protein]	cp
ETHANOL-AMINE	ethanolamine	cp
4-P-PANTOTHENATE	(R)-4'-phosphopantothenate	p
UMP	UMP	cp
CPD-12365	8-oxo-dGMP	p
CPD-19014	2-hydroxy-2-methylpropanoate	p
Alkanesulfonates	an alkylsulfonate	c
b-Hydroxy-cis-D5-dodecenoyl-ACPs	a (3R,5Z)-3-hydroxy-dodec-5-enoyl-[acp]	p
b-Keto-cis-D5-dodecenoyl-ACPs	a (5Z)-3-oxo-dodec-5-enoyl-[acp]	cp
CPD0-2232	(S)-3-hydroxyhexadecanoyl-CoA	p
Mnm5Se2U-containing-tRNAs	a 5-methylaminomethyl-2-selenouridine in tRNA	p
UNDECAPRENYL-DIPHOSPHATE	di-trans,octa-cis-undecaprenyl diphosphate	p
biotin-L-lysine-in-BCCP-dimers	a [biotin carboxyl-carrier-protein dimer]-N6-biotinyl-L-lysine	cp
Alkyl-Hydro-Peroxides	an organic hydroperoxide	c
4-PHOSPHONOOXY-THREONINE	4-phosphooxy-L-threonine	cp
FRUCTOSE-16-DIPHOSPHATE	&beta;-D-fructose 1,6-bisphosphate	cp
PHE-tRNAs	a tRNAPhe	p
CPD-19042	2-hydroxyisobutyramide	c
PPI	diphosphate	cp
carboxybiotin-L-lysine-in-BCCP-dimers	a [carboxyl-carrier protein dimer]-N6-carboxybiotinyl-L-lysine	cp
4-hydroxybenzoate	4-hydroxybenzoate	cp
CPD-19144	(7Z)-hexadecenoyl-CoA	cp
CPD0-2244	(S)-3-hydroxydecanoyl-CoA	p
Alkyl-Thiols	an alkyl-thiol	cp
cis-19-CP-37-Mex-38-Me-C59-ACPs	a cis-methoxy-C59-meroacyl-[acp]	p
MET	L-methionine	cp
FRUCTOSE-6P	&beta;-D-fructofuranose 6-phosphate	cp
CPD-19147	(7Z)-tetradecenoyl-CoA	cp
Alkylated-Bases	an alkylated nucleobase	p
CPD-4211	dimethylallyl diphosphate	cp
cis-21-CP-39-keto-40-Me-C60-ACPs	a cis-keto-C60-meroacyl-[acp]	p
cis-D19-37-MOH-38-Me-C57-1-ACPs	a cis-delta19-37-methoxy-38-methyl-C57:1-[acp]	c
cis-D21-39-oxo-40-Me-C59-1-ACPs	a cis-delta21-39-oxo-40-methyl-C59:1-[acp]	c
Alkylated-DNAs	an alkylated DNA	c
URACIL	uracil	cp
CPD0-2298	(S)-ureidoglycine	p
CPD-19148	(5Z)-dodecenoyl-CoA	cp
CPD-19150	(2E,5Z)-dodecenoyl-CoA	cp
CPD0-2350	a polycistronic tRNA precursor	cp
CPD0-2351	a tRNA precursor with a 5' extension and a long 3' trailer	p
METHACRYLYL-COA	methylacrylyl-CoA	cp
CPD0-2352	a tRNA precursor with a 5' extension and a short 3' extension	cp
CPD-12427	7,8-dihydro-8-oxoguanine	p
CPD0-2353	a tRNA precursor with a short 3' extension	c
Monocarboxylates	a monocarboxylate	p
CPD0-2354	a tRNA precursor with a 5' extension	p
ETOH	ethanol	cp
HISTIDINOL	histidinol	cp
Monocarboxylic-Acid-Amides	a monocarboxylic acid amide	c
CPD-19151	(S)-3-hydroxy-(5Z)-dodecenoyl-CoA	p
LIPOYL-AMP	lipoyl-adenylate	cp
PTS-I-Histidines	a [PTS enzyme I]-L-histidine	cp
PTS-I-pi-phospho-L-histidines	a [PTS enzyme I]-N&pi;-phospho-L-histidine	cp
SEROTONIN	serotonin	c
CPD-679	precorrin-6B	c
PUTRESCINE	putrescine	cp
AMMONIUM	ammonium	cp
5Z-3-oxo-tetradec-5-enoyl-ACPs	a (5Z)-3-oxo-tetradec-5-enoyl-[acp]	cp
PHENYL-PYRUVATE	keto-phenylpyruvate	cp
LL-DIAMINOPIMELATE	L,L-diaminopimelate	cp
NADH-P-OR-NOP	NAD(P)H	cp
ADP	ADP	cp
CAFFEOYL-COA	trans-caffeoyl-CoA	p
PYRAZINAMIDE	pyrazinamide	c
AMP	AMP	cp
ADP-D-GLUCOSE	ADP-&alpha;-D-glucose	p
3-OXOADIPATE-ENOL-LACTONE	(4,5-dihydro-5-oxofuran-2-yl)-acetate	p
5Z-tetradec-5-enoyl-ACPs	a (5Z)-tetradec-5-enoyl-[acp]	c
PHENYLACETATE	phenylacetate	cp
5Z8Z11Z14Z17Z-EICOSAPENTAENOATE	icosapentaenoate	c
CPD-686	precorrin-8x	cp
PYRAZINOIC-ACID	pyrazine-2-carboxylate	p
6-AMINOPENICILLANATE	6-aminopenicillanate	cp
OXIDIZED-GLUTATHIONE	glutathione disulfide	cp
ADP-D-GLYCERO-D-MANNO-HEPTOSE	ADP-D-glycero-&beta;-D-manno-heptose	c
CAMP	cyclic-AMP	p
CPD-687	hydrogenobyrinate	cp
NADP	NADP+	cp
CYTIDINE	cytidine	cp
CANAVANINE	L-canavanine	cp
LYS	L-lysine	cp
LYS-tRNAs	a tRNALys	c
ADP-L-GLYCERO-D-MANNO-HEPTOSE	ADP-L-glycero-&beta;-D-manno-heptose	p
GTP	GTP	cp
CPD-688	hydrogenobyrinate a,c-diamide	p
L-CYSTATHIONINE	L-cystathionine	cp
TTP	dTTP	cp
Protein-L-glutamine	a [protein]-L-glutamine	c
OXYGEN-MOLECULE	oxygen	cp
Protein-L-lysine	a [protein]-L-lysine	c
Saturated-Fatty-Acyl-ACPs	a 2,3,4-saturated fatty acyl-[acp]	c
Protein-L-methionine	a [protein]-L-methionine	cp
PREPHENATE	prephenate	cp
NADPH	NADPH	cp
Saturated-Fatty-Acyl-CoA	a 2,3,4-saturated fatty acyl CoA	cp
Protein-L-methionine-R-S-oxides	a protein-L-methionine-(R)-S-oxide	cp
Protein-L-methionine-S-S-oxides	a protein-L-methionine-(S)-S-oxide	c
3-DEHYDRO-SHIKIMATE	3-dehydroshikimate	cp
L-CYSTEATE	L-cysteate	cp
TUM1-L-cysteine	a [3-mercaptopyruvate sulfurtransferase]-L-cysteine	cp
Protein-L-serine-or-L-threonine	a [protein]-(L-serine/L-threonine)	cp
L-Cysteine-Desulfurase-persulfide	an [L-cysteine desulfurase]-S-sulfanyl-L-cysteine	cp
3-Oxo-octanoyl-ACPs	a 3-oxo-octanoyl-[acp]	cp
TUM1-S-sulfanylcysteine	a [3-mercaptopyruvate sulfurtransferase]-S-sulfanyl-L-cysteine	cp
TYR	L-tyrosine	cp
3-P-HYDROXYPYRUVATE	3-phosphooxypyruvate	cp
TYR-tRNAs	a tRNATyr	c
3-P-SERINE	3-phospho-L-serine	cp
Semiquinones	a semiquinone	p
Protein-N-terminal-5-oxo-prolines	an N-terminal 5-oxo-L-prolyl-[protein]	c
L-Cysteine-Desulfurases	an [L-cysteine desulfurase]	c
3-Phosphomonucleotides	a ribonucleoside 3'-phosphate	cp
L-DELTA1-PYRROLINE_5-CARBOXYLATE	(S)-1-pyrroline-5-carboxylate	c
Protein-N-terminal-L-Arginine	an N-terminal arginyl-[protein]	cp
Octanoyl-ACPs	an octanoyl-[acp]	c
L-GAMMA-GLUTAMYLCYSTEINE	&gamma;-L-glutamyl-L-cysteine	cp
Octanoylated-Gcv-H	a [glycine-cleavage complex H protein] N6-octanoyl-L-lysine	cp
Protein-N-terminal-L-Lysine	an N-terminal L-lysyl-[protein]	c
PRISTANATE	pristanate	c
Serines	serine	p
Octanoylated-domains	a [lipoyl-carrier protein] N6-octanoyl-L-lysine	cp
UREA	urea	cp
Protein-N-terminal-L-threonine	an N-terminal L-threonyl-[protein]	p
Protein-N6-5-glutamyl-lysine-crosslinks	a protein with an N6-(&gamma;-glutamyl)-L-lysine crosslink	p
FRUCTURONATE	D-fructuronate	cp
2-AMINOACRYLATE	2-aminoprop-2-enoate	p
Odd-Saturated-Fatty-Acyl-CoA	an odd numbered straight chain 2,3,4-saturated fatty acyl CoA	p
Odd-Straight-Chain-234-Sat-FA	an odd numbered straight chain 2,3,4-saturated fatty acid	c
DEHYDRO-DEOXY-GALACTONATE-PHOSPHATE	2-dehydro-3-deoxy-D-galactonate 6-phosphate	cp
ACETYLSERINE	O-acetyl-L-serine	cp
CPD-10751	UDP-4-amino-4,6-dideoxy-N-acetyl-&beta;-L-altrosamine	cp
All-trans-Retinyl-Esters	an all-trans-retinyl ester	c
CPD-9385	&gamma;-glutamyl-p-nitroanilide	c
CPD-16954	[1-(2-amino-7-methyl-4-oxo-7,8-dihydro-3H-pteridin-6-yl)]ethyl diphosphate	p
THR	L-threonine	cp
ETR-Quinols	an electron-transfer quinol	cp
Alpha-6-alpha-14-glucans	a (1,6)-&alpha;-D-glucosyl-(1,4)-&alpha;-glucan	p
THR-tRNAs	a tRNAThr	c
ETR-Quinones	an electron-transfer quinone	cp
CPD-17045	3-benzyl-3,6-dihydroxy-6-(hydroxymethyl)-diketopiperazine	c
Alpha-Amyloses	&alpha;-amylose	c
IDP	IDP	cp
Oleoyl-ACPs	an oleoyl-[acp]	c
DEHYDROQUINATE	3-dehydroquinate	cp
CPD-9451	2-isopropylmaleate	cp
CPD-17046	3-benzyl-3,6 -bis(glutathione)- 6-(hydroxymethyl)-diketopiperazine	p
THREO-DS-ISO-CITRATE	D-threo-isocitrate	cp
DELTA1-PIPERIDEINE-2-6-DICARBOXYLATE	(S)-2,3,4,5-tetrahydrodipicolinate	cp
6-CARBOXYHEX-2-ENOYL-COA	6-carboxyhex-2-enoyl-CoA	p
Oleoyl-lipid	a [glycerolipid]-oleate	c
FUM	fumarate	cp
CPD-17063	ferroheme o	p
2-AMINOBENZOYL-COA	anthraniloyl-CoA	p
DIHYDROPTERIN-CH2OH-PP	(7,8-dihydropterin-6-yl)methyl diphosphate	p
CYTOSINE	cytosine	c
CPD-9612	caldariellaquinone	c
AGMATHINE	agmatine	c
DELTA3-ISOPENTENYL-PP	isopentenyl diphosphate	cp
Oligonucleotides	an oligonucleotide	c
ILE	L-isoleucine	cp
K+	K+	cp
Amino-Acids	an amino acid	cp
2-C-METHYL-D-ERYTHRITOL-4-PHOSPHATE	2-C-methyl-D-erythritol 4-phosphate	cp
CPD-173	salicyl alcohol	p
Amino-Acids-20	a proteinogenic amino acid	cp
ILE-tRNAs	a tRNAIle	c
CPD-17312	docosahexaenoyl-CoA	p
CL-	chloride	cp
CPD-9646	di-trans,octa-cis-undecaprenyl phosphate	c
Elongation-tRNAMet	elongator tRNAMet	c
1-4-alpha-D-Glucan	a 1,4-&alpha;-D-glucan	cp
DIHYDROSIROHYDROCHLORIN	precorrin-2	c
6-Dimethylallyladenosine37-tRNAs	N6-dimethylallyladenosine37 in tRNA	cp
CPD-1078	CDP-4-dehydro-3,6-dideoxy-D-glucose	p
CPD-10789	7,8-dihydromethanopterin	cp
2-CHLOROMALEYLACETATE	2-chloromaleylacetate	p
AICAR	5-amino-1-(5-phospho-D-ribosyl)imidazole-4-carboxamide	cp
CPD-9699	hypoglycin A	c
1-AMINO-PROPAN-2-ONE-3-PHOSPHATE	3-amino-1-hydroxyacetone 1-phosphate	cp
K-HEXANOYL-COA	3-oxohexanoyl-CoA	p
CPD-9700	hypoglycin B	p
DIHYDROXY-ACETONE-PHOSPHATE	glycerone phosphate	cp
6-PYRUVOYL-5678-TETRAHYDROPTERIN	(6R)-6-pyruvoyl-5,6,7,8-tetrahydropterin	p
CPD-14736	L-kynurenine	cp
CPD-465	presqualene diphosphate	cp
Short-glucans	a short glucan	cp
PYRIDOXAL	pyridoxal	c
Red-Glutaredoxins	a reduced glutaredoxin	c
CPD-20838	[(2R,3S,4R,5S)-3,4-dihydroxy-5-(5-methyl-1,3-benzodiazol-1-yl)oxolan-2-yl]methyl phosphate	p
CANAVANINOSUCCINATE	canavaninosuccinate	cp
1-CARBOXYVINYL-CARBOXYPHOSPHONATE	1-carboxyvinyl carboxyphosphonate	cp
Red-Thioredoxin	a reduced thioredoxin	cp
PRO	L-proline	cp
CPD-14772	hexadecanedioyl-CoA	cp
PYRIDOXAL_PHOSPHATE	pyridoxal 5'-phosphate	p
CARBAMATE	carbamate	p
PRO-tRNAs	a tRNAPro	c
Single-Stranded-DNAs	a single stranded DNA	cp
GUANINE	guanine	cp
Reduced-2Fe-2S-Ferredoxins	a reduced [2Fe-2S] ferredoxin	c
CPD-2183	1-oleoyl-2-palmitoyl-phosphatidylglycerol	p
CPD-14828	1-C16:0-&alpha;,&omega;-dicarboxyl-2-lysophosphatidate	cp
Reduced-CycA1-cytochromes	a reduced CycA1 cytochrome	c
Reduced-Factor-F420	a reduced coenzyme F420	cp
1-CHLORO-24-DINITROBENZENE	1-chloro-2,4-dinitrobenzene	cp
CPD-468	L-2-aminoadipate	cp
CPD-14845	precorrin-7	cp
CPD-225	trans-aconitate	c
Soluble-Heteroglycans	a plant soluble heteroglycan	cp
Reduced-NrdH-Proteins	a reduced NrdH glutaredoxin-like protein	c
CPD-469	N-acetyl-L-glutamate 5-semialdehyde	cp
1-KETO-2-METHYLVALERATE	(R)-2,3-dihydroxy-3-methylpentanoate	cp
CPD-14925	(3Z)-dec-3-enoyl-CoA	p
CARBAMOYL-P	carbamoyl phosphate	cp
CPD-14927	phytenate	c
Reduced-ferredoxins	a reduced ferredoxin [iron-sulfur] cluster	cp
1-L-MYO-INOSITOL-1-P	1D-myo-inositol 3-monophosphate	c
PYRIDOXAMINE-5P	pyridoxamine 5'-phosphate	c
PROPIONAMIDE	propionamide	c
CPD-14928	phytenoyl-CoA	p
Starch	starch	p
Relaxed-DNAs	a relaxed DNA	cp
Resolution-of-Recombinational-Junction	resolution of recombinational junction formation of two intact strands	p
1-PALMITOYLGLYCEROL-3-PHOSPHATE	1-palmitoylglycerol 3-phosphate	p
CPD-237	(indol-3-yl)acetamide	c
ANTHRANILATE	anthranilate	cp
Retinols	a retinol	p
HMP	4-amino-2-methyl-5-pyrimidinemethanol	c
Orthophosphoric-Monoesters	a phosphate monoester	c
CPD-14931	a 10-formyltetrahydrofolate-4a-carbinolamine	p
PROPIONATE	propanoate	cp
CPD-479	4-(methylsulfanyl)-2-oxobutanoate	cp
CPD-15015	4-hydroxy-2-oxoglutarate	cp
Stearoyl-ACPs	a stearoyl-[acp]	c
CPD-689	cob(II)yrinate a,c-diamide	p
CPD-12575	UDP-&alpha;-D-glucose	cp
SHIKIMATE	shikimate	cp
CPD-19153	3-oxo-(5Z)-dodecenoyl-CoA	c
REDUCED-MENAQUINONE	menaquinol-8	p
3-DEOXY-D-ARABINO-HEPTULOSONATE-7-P	3-deoxy-D-arabino-heptulosonate 7-phosphate	cp
GUANOSINE	guanosine	p
IMIDAZOLE-ACETOL-P	imidazole acetol-phosphate	cp
CPD-19154	(S)-3-hydroxy-(7Z)-tetradecenoyl-CoA	p
GUANOSINE-5DP-3DP	ppGpp	cp
Ox-Glutaredoxins	an oxidized glutaredoxin	p
CPD-69	cyanate	c
L-GLUTAMATE-5-P	&gamma;-L-glutamyl 5-phosphate	cp
Myristoyl-ACPs	a myristoyl-[acp]	c
CPD-12634	(glutathion-S-yl)(1H-indol-3-yl)acetonitrile	p
CPD-690	adenosyl-cobyrinate a,c-diamide	p
CPD0-881	N-acetyl-D-muramate 6-phosphate	p
CPD-19155	(S)-3-hydroxy-(9Z)-hexadecenoyl-CoA	p
N-5-PHOSPHORIBOSYL-ANTHRANILATE	N-(5-phosphoribosyl)-anthranilate	cp
CMP	CMP	cp
CMP-KDO	CMP-3-deoxy-&beta;-D-manno-octulosonate	cp
Carboxylates	a carboxylate	cp
Ox-Thioredoxin	an oxidized thioredoxin	cp
SHIKIMATE-5P	shikimate 3-phosphate	cp
CPD-19157	3-oxo-(7Z)-tetradecenoyl-CoA	c
N-ACETYL-D-GALACTOSAMINE-6-PHOSPHATE	N-acetyl-D-galactosamine 6-phosphate	c
CPD-12703	gentisyl-CoA	p
CPD0-882	1,6-anhydro-N-acetyl-&beta;-muramate	cp
CPD-694	cob(I)yrinate a,c-diamide	c
Carboxylic-esters	a carboxylic ester	c
RH-Group	an organic molecule	c
NALPHANALPHA-DIMETHYL-L-HISTIDINE	N&alpha;,N&alpha;-dimethyl-L-histidine	cp
URIDINE	uridine	p
CPD-19158	3-oxo-(9Z)-hexadecenoyl-CoA	c
Oxidized-2Fe-2S-Ferredoxins	an oxidized [2Fe-2S] ferredoxin	p
CPD-12760	(R)-4-phosphopantoate	c
Oxidized-CycA1-cytochromes	an oxidized CycA1 cytochrome	p
CPD-19159	(S)-3-hydroxy-(11Z)-octadecenoyl-CoA	p
N-ACETYL-D-GLUCOSAMINE	N-acetyl-&beta;-D-glucosamine	cp
L-GLUTAMATE_GAMMA-SEMIALDEHYDE	L-glutamate-5-semialdehyde	cp
CPD0-971	an &alpha;-limit dextrin	cp
Oxidized-Factor-F420	an oxidized coenzyme F420	cp
RHAMNOSE	&alpha;-L-rhamnopyranose	c
N-ACETYL-D-GLUCOSAMINE-1-P	N-acetyl-&alpha;-D-glucosamine 1-phosphate	p
CPD1F-2	(-)-methyl jasmonate	c
CPD-12773	&alpha;-D-glucopyranosyl-diphosphoundecaprenol	p
3-ENOLPYRUVYL-SHIKIMATE-5P	5-enolpyruvoyl-shikimate 3-phosphate	cp
CPD-19160	3-oxo-(11Z)-octadecenoyl-CoA	c
3-HYDROHYDROXYPHOSPHORYLPYRUVATE	3-(hydroxyphosphinoyl)pyruvate	cp
CPD-7002	dihydrogeranylgeranyl diphosphate	cp
N-ACETYL-D-GLUCOSAMINE-6-P	N-acetyl-D-glucosamine 6-phosphate	c
CPD-1301	tetrahydropteroyl tri-L-glutamate	cp
CPD-19161	(2E,7Z)-tetradecenoyl-CoA	cp
Oxidized-NrdH-Proteins	an oxidized NrdH glutaredoxin-like protein	p
CPD-7003	tetrahydrogeranylgeranyl diphosphate	cp
CPD66-21	leukotriene-D4	p
RIBOFLAVIN	riboflavin	cp
Cellodextrins	a cellodextrin	cp
DIHYDROXY-BUTANONE-P	1-deoxy-L-glycero-tetrulose 4-phosphate	cp
DEOXY-D-RIBOSE-1-PHOSPHATE	2-deoxy-&alpha;-D-ribose 1-phosphate	cp
Oxidized-ferredoxins	an oxidized ferredoxin [iron-sulfur] cluster	cp
Charged-ALA-tRNAs	an L-alanyl-[tRNAAla]	p
DEOXYADENOSINE	2'-deoxyadenosine	c
mRNA-Fragments	an mRNA fragment	p
Charged-ARG-tRNAs	an L-arginyl-[tRNAArg]	cp
METHENYLTETRAHYDROMETHANOPTERIN	5,10-methenyltetrahydromethanopterin	cp
Light	h&nu;	c
mRNAs	an mRNA	cp
Linear-Malto-Oligosaccharides	a linear malto-oligosaccharide	cp
Fatty-Acids	a fatty acid	p
mRNAs-with-5-monophosphate	a 5'-phospho-[mRNA]	p
GLY	glycine	cp
Oxo-glutarate-dehydro-suc-DH-lipoyl	a [2-oxoglutarate dehydrogenase E2 protein] N6-S-succinyldihydrolipoyl-L-lysine	cp
mRNAs-with-5-triphosphate	a 5' triphospho-[mRNA]	c
Oxo-glutarate-dehydrogenase-DH-lipoyl	a [2-oxoglutarate dehydrogenase E2 protein] N6-dihydrolipoyl-L-lysine	cp
Lipid-dihydrosterculate	a [glycerolipid]-dihydrosterculate	p
UROCANATE	urocanate	cp
DEOXYCYTIDINE	2'-deoxycytidine	c
Charged-CYS-tRNAs	an L-cysteinyl-[tRNACys]	cp
ACP	a holo-[acyl-carrier protein]	cp
GLYCERALD	D-glyceraldehyde	p
Oxo-glutarate-dehydrogenase-lipoyl	a [2-oxoglutarate dehydrogenase E2 protein] N6-lipoyl-L-lysine	cp
CO-A	coenzyme A	cp
Charged-GLN-tRNAs	an L-glutaminyl-[tRNAGln]	p
Sulfur-Carrier-Proteins-ThiI	a [ThiI sulfur-carrier protein]-L-cysteine	cp
Lipoprotein-signal-peptide	a lipoprotein signal peptide	p
Charged-GLT-tRNAs	an L-glutamyl-[tRNAGlu]	c
ACRYLAMIDE	acrylamide	c
DEOXYGUANOSINE	2'-deoxyguanosine	p
Lipoyl-Protein-L-Lysine	a [lipoyl-carrier protein]-L-lysine	c
Lipoyl-Protein-N6-lipoyllysine	a [lipoyl-carrier protein]-N6-lipoyl-L-lysine	p
GLYCERATE	D-glycerate	cp
P-COUMAROYL-COA	4-coumaroyl-CoA	cp
Sulfurated-Sulfur-Acceptors	a sulfurated [sulfur carrier]	cp
Charged-HIS-tRNAs	an L-histidyl-[tRNAHis]	p
3-HYDROXY-3-METHYL-GLUTARYL-COA	(S)-3-hydroxy-3-methylglutaryl-CoA	c
Sulfurylated-ThiI	a [ThiI sulfur-carrier protein]-S-sulfanyl-L-cysteine	cp
2-D-THREO-HYDROXY-3-CARBOXY-ISOCAPROATE	(2R,3S)-3-isopropylmalate	cp
PHENYLACETOTHIOHYDROXIMATE	(Z)-N-hydroxy-2-phenylacetimidothioate	cp
Protein-N6-5-glutamyl-serotonin	a [protein] N6-[(5-hydroxy-1H-indol-3-yl)ethyl]-L-glutamine	p
Charged-ILE-tRNAs	an L-isoleucyl-[tRNAIle]	p
L-GLYCERALDEHYDE-3-PHOSPHATE	L-glyceraldehyde 3-phosphate	c
Charged-LEU-tRNAs	an L-leucyl-[tRNALeu]	cp
2-DEHYDRO-3-DEOXY-D-GALACTONATE	2-dehydro-3-deoxy-D-galactonate	p
CPD-520	quercetin	c
Protein-Ser-or-Thr-phosphate	a [protein] (L-serine/L-threonine) phosphate	cp
CPD-9869	all trans-decaprenyl-2-methoxy-6-1,4-benzoquinol	c
Charged-LYS-tRNAs	an L-lysyl-[tRNALys]	p
Protein-Tyrosines	a [protein]-L-tyrosine	cp
3-Prime-Phosphate-Terminated-RNAs	an [RNA]-3'-ribonucleoside-3'-phosphate	c
3-HYDROXY-ANTHRANILATE	3-hydroxyanthranilate	p
Charged-MET-tRNAs	an L-methionyl-[elongator tRNAMet]	p
3-SULFINOALANINE	3-sulfinoalanine	p
Protein-With-N-Terminal-Met	a peptide with an N-terminal L-methionine	c
Aromatic-Amino-Acids	an aromatic amino acid	cp
Charged-PHE-tRNAs	an L-phenylalanyl-[tRNAPhe]	c
Supercoiled-Duplex-DNAs	a supercoiled duplex DNA	c
Protein-With-N-Terminal-Pro	a peptide with an N-terminal L-proline	cp
3-hydroxy-cis-D7-tetraecenoyl-ACPs	a (3R)-3-hydroxy cis &Delta;7-tetradecenoyl-[acp]	p
Protein-With-N-Terminal-X-Pro	a peptide with an N-terminal X-L-proline	c
Aromatic-Oxoacids	an aromatic 2-oxo-acid	cp
CPD-9871	6-methoxy-3-methyl-2-all-trans-decaprenyl-1,4-benzoquinol	p
THYMIDINE	thymidine	cp
3-hydroxy-cis-D9-hexaecenoyl-ACPs	a (3R)-3-hydroxy cis &Delta;9-hexadecenoyl-[acp]	p
T2-C4-DECADIENYL-COA	trans-&Delta;2, cis-&Delta;4-decadienoyl-CoA	c
L-GULONATE	L-gulonate	p
Feruloyl-polysaccharides	a feruloyl-polysaccharide	c
Charged-PRO-tRNAs	an L-prolyl-[tRNAPro]	p
NIACINE	nicotinate	cp
P-HYDROXY-PHENYLPYRUVATE	4-hydroxyphenylpyruvate	cp
Charged-SEC-tRNAs	an L-selenocysteinyl-[tRNAsec]	p
CPD-9956	ubiquinol-8	p
Protein-phospho-L-histidines	a [protein]-N-phospho-L-histidine	cp
2-DEHYDROPANTOATE	2-dehydropantoate	cp
Charged-SER-tRNAs	an L-seryl-[tRNAser]	p
Protein-pi-phospho-L-histidines	a [protein]-N&pi;-phospho-L-histidine	c
T2-DECENOYL-COA	(2E)-dec-2-enoyl-CoA	cp
L-GULONO-1-4-LACTONE	L-gulono-1,4-lactone	c
3-hydroxypimeloyl-ACP-methyl-esters	a (3R)-3-hydroxypimeloyl-[acp] methyl ester	p
Protein-tauphospho-L-histidines	a [protein]-N&tau;-phospho-L-histidine	c
Protein-tyrosine-phosphates	a [protein]-L-tyrosine phosphate	cp
CPD-535	&beta;-D-fructose 2,6-bisphosphate	c
3-oxo-arachidoyl-ACPs	a 3-oxo-arachidoyl-[acp]	c
KDO	3-deoxy-&alpha;-D-manno-2-octulosonate	cp
Charged-THR-tRNAs	an L-threonyl-[tRNAThr]	p
Formyl-methanofurans	a formylmethanofuran	cp
CPD-9965	icosanoyl-CoA	cp
TARTRATE	L-tartrate	cp
KDO-8P	3-deoxy-D-manno-octulosonate 8-phosphate	cp
3-HYDROXY-DOCOSAPENTAENOYL-ACP	a (3R)-3-hydroxy-docosapentaenoyl-[acp]	p
Charged-TRP-tRNAs	an L-tryptophanyl-[tRNATrp]	p
3-oxo-behenoyl-ACPs	a 3-oxo-behenoyl-[acp]	cp
3-HYDROXY-ISOBUTYRATE	3-hydroxy-isobutanoate	p
3-HYDROXY-ISOBUTYRYL-COA	3-hydroxy-isobutanoyl-CoA	c
Charged-TYR-tRNAs	an L-tyrosyl-[tRNATyr]	p
Proteins-With-N-Terminal-Asp	an N-terminal L-aspartyl-[protein]	c
B-ALANINE	&beta;-alanine	cp
P-RIBOSYL-4-SUCCCARB-AMINOIMIDAZOLE	5'-phosphoribosyl-4-(N-succinocarboxamide)-5-aminoimidazole	cp
3-oxo-cerotoyl-ACPs	a 3-oxo-cerotoyl-[acp]	c
CPD-548	S-formylglutathione	cp
G3P	3-phospho-D-glycerate	cp
L-Glutamyl-Peptides	an N-terminal L-glutamyl-[protein]	c
Charged-VAL-tRNAs	an L-valyl-[tRNAVal]	p
Proteins-with-correct-disulfides	a protein with correct disulfide bonds	cp
3-HYDROXY-ISOVALERYL-COA	3-hydroxyisovaleryl-CoA	cp
CPD0-1027	a debranched &alpha;-limit dextrin	c
3-oxo-cis-D7-tetradecenoyl-ACPs	a 3-oxo-cis-&Delta;7-tetradecenoyl-[acp]	cp
Proteins-with-incorrect-disulfides	a protein with incorrect disulfide bonds	cp
3-oxo-cis-D9-hexadecenoyl-ACPs	a 3-oxo-cis-&Delta;9-hexadecenoyl-[acp]	cp
Charged-fMET-tRNAs	an N-formyl-L-methionylaminoacyl-tRNA	c
CPD0-1080	GlcNAc-1,6-anhMurNAc-L-Ala-&gamma;-D-Glu-DAP-D-Ala	c
L-HISTIDINOL-P	L-histidinol phosphate	cp
3-oxo-cis-vaccenoyl-ACPs	a 3-oxo-cis-vacc-11-enoyl-[acp]	cp
CPD-558	pimeloyl-CoA	c
CPD0-1081	N-acetyl-&beta;-D-glucosamine-1,6-anhydro-N-acetyl-&beta;-D-muramate	cp
3-oxo-decanoyl-ACPs	a 3-oxo-decanoyl-[acp]	cp
B-KETOACYL-ACP	a 3-oxoacyl-[acp]	cp
