id	Common name	linked reactions
ASD87_12370	gudD	GLUCARDEHYDRA-RXN
ASD87_13630	Unknown	DIHYDRODIPICSYN-RXN
ASD87_07700	Unknown	ATPASE-RXN
ASD87_00780	Unknown	GLUTATHIONE-SYN-RXN
ASD87_12170	Unknown	ASPARTATEKIN-RXN
ASD87_24935	Unknown	RXN-8992
ASD87_12775	Unknown	MALONYL-COA-DECARBOXYLASE-RXN
ASD87_01135	Unknown	2.7.1.148-RXN
ASD87_02900	Unknown	ADENYLATECYC-RXN
ASD87_23430	trpC	IGPSYN-RXN
ASD87_16915	Unknown	RXN-7682;RXN0-901
ASD87_06715	Unknown	KANAMYCIN-KINASE-RXN
ASD87_23630	Unknown	RXN0-5100
ASD87_19290	Unknown	1.6.4.4-RXN
ASD87_18150	Unknown	SIROHEME-FERROCHELAT-RXN
ASD87_24700	Unknown	3-OXOACYL-ACP-REDUCT-RXN;RXN-10060;RXN-10655;RXN-10659;RXN-11476;RXN-11480;RXN-13008;RXN-16616;RXN-16622;RXN-16626;RXN-16630;RXN-9514;RXN-9518;RXN-9524;RXN-9528;RXN-9532;RXN-9536;RXN-9540;RXN-9552;RXN-9556;RXN-9633;RXN0-2142;RXN1G-157;RXN1G-349;RXN1G-469;RXN1G-508
ASD87_18775	Unknown	POLYPHOSPHATE-KINASE-RXN
ASD87_25850	Unknown	GSHTRAN-RXN;GST-RXN;RXN-11663;RXN-13673;RXN-15680;RXN-18405;RXN-18407;RXNQT-4363
ASD87_18005	Unknown	CARBOXYMETHYLENEBUTENOLIDASE-RXN;DIENELACHYDRO-RXN;RXN-9857;RXN-9868;RXN-9887;RXN-9890
ASD87_06385	Unknown	DIHYDROOROT-RXN
ASD87_24730	Unknown	3-OCTAPRENYL-4-OHBENZOATE-DECARBOX-RXN
ASD87_22110	Unknown	RIBOFLAVINSYNDEAM-RXN
ASD87_15955	Unknown	CYSTATHIONINE-BETA-LYASE-RXN;RXN-15131
ASD87_16700	Unknown	R601-RXN;RXN-14963
ASD87_05465	Unknown	METHIONINE-GAMMA-LYASE-RXN;RXN-14301
ASD87_25180	Unknown	ARGSUCCINSYN-RXN;RXN-10
ASD87_09845	ispH	ISPH2-RXN;RXN0-884
ASD87_17210	Unknown	RXN0-5268
ASD87_07695	Unknown	ATPASE-RXN
ASD87_25760	Unknown	HISTAMINOTRANS-RXN
ASD87_23960	pyrE	OROPRIBTRANS-RXN
ASD87_08045	Unknown	HYDROXYMETHYLGLUTARYL-COA-LYASE-RXN
ASD87_02760	Unknown	3-HYDROXYISOBUTYRATE-DEHYDROGENASE-RXN
ASD87_25745	Unknown	UDPNACETYLGLUCOSAMENOLPYRTRANS-RXN
ASD87_21805	aroE	SHIKIMATE-5-DEHYDROGENASE-RXN
ASD87_20930	Unknown	ENOYL-COA-HYDRAT-RXN;METHYLACYLYLCOA-HYDROXY-RXN;RXN-10697;RXN-10704;RXN-10705;RXN-11244;RXN-12567;RXN-13616;RXN-14266;RXN-14272;RXN-14273;RXN-16135;RXN-16558;RXN-17114;RXN-17475;RXN-17776;RXN-17780;RXN-17785;RXN-17789;RXN-17793;RXN-17797;RXN-2425;RXN0-5393;TIGLYLCOA-HYDROXY-RXN
ASD87_25915	Unknown	3-OXOACYL-ACP-REDUCT-RXN;RXN-10060;RXN-10655;RXN-10659;RXN-11476;RXN-11480;RXN-13008;RXN-16616;RXN-16622;RXN-16626;RXN-16630;RXN-9514;RXN-9518;RXN-9524;RXN-9528;RXN-9532;RXN-9536;RXN-9540;RXN-9552;RXN-9556;RXN-9633;RXN0-2142;RXN1G-157;RXN1G-349;RXN1G-469;RXN1G-508
ASD87_00070	Unknown	GLYRIBONUCSYN-RXN
ASD87_21325	Unknown	GLUCONATE-5-DEHYDROGENASE-RXN
ASD87_15460	Unknown	OCTAPRENYL-METHYL-METHOXY-BENZOQ-OH-RXN
ASD87_00685	Unknown	DIHYDROXYISOVALDEHYDRAT-RXN;DIHYDROXYMETVALDEHYDRAT-RXN
ASD87_07805	Unknown	RXN0-2161;SERINE--TRNA-LIGASE-RXN
ASD87_12160	Unknown	ACETYL-COA-CARBOXYLTRANSFER-RXN;RXN0-5055
ASD87_08890	Unknown	MALONYL-COA-ACP-TRANSACYL-RXN
ASD87_17970	Unknown	RXN-16427;RXN-16456;RXN0-262
ASD87_24580	Unknown	CARBODEHYDRAT-RXN;RXN0-5224
ASD87_23975	gatB	6.3.5.7-RXN
ASD87_23675	Unknown	2.7.13.3-RXN
ASD87_20190	Unknown	ISOCHORMAT-RXN
ASD87_16525	Unknown	AMIDASE-RXN;GUANIDINOBUTANAMIDE-NH3-RXN;PYRAZIN-RXN;R311-RXN;RXN-14727;RXN-14728;RXN-17608;RXNN-404
ASD87_04565	Unknown	AMYLOMALT-RXN;MALTODEG-RXN;RXN-12193;RXN-12391;RXN-14260;RXN-14261;RXN-14354;RXN-1828;RXN-9023
ASD87_04055	Unknown	GUANYL-KIN-RXN
ASD87_05000	Unknown	2.7.13.3-RXN
ASD87_12715	Unknown	ACYLCOADEHYDROG-RXN;RXN-17775;RXN-17779;RXN-17783;RXN-17784;RXN-17788;RXN-17792;RXN-17796
ASD87_13645	Unknown	DIHYDROXYISOVALDEHYDRAT-RXN;DIHYDROXYMETVALDEHYDRAT-RXN
ASD87_25065	Unknown	2.1.1.44-RXN;RXN-14431;RXN-14437;RXN-14438
ASD87_17740	Unknown	RXN-8643;TARTRATE-DEHYDROGENASE-RXN
ASD87_09440	Unknown	3-OXOACYL-ACP-REDUCT-RXN;RXN-12560;RXN-13279;RXN-5901
ASD87_10320	Unknown	ALANINE-AMINOTRANSFERASE-RXN
ASD87_04970	Unknown	RXN-982
ASD87_03375	Unknown	R4-RXN
ASD87_15425	Unknown	1.2.1.27-RXN;RXN-11213;RXN-2902
ASD87_07525	Unknown	UDPNACETYLMURAMATEDEHYDROG-RXN
ASD87_20000	Unknown	TRNA-CYTIDYLYLTRANSFERASE-RXN
ASD87_04895	Unknown	R601-RXN;RXN-14963
ASD87_17200	Unknown	RXN0-5268
ASD87_14615	Unknown	GSHTRAN-RXN;GST-RXN;RXN-11663;RXN-13673;RXN-15680;RXN-18405;RXN-18407;RXNQT-4363
ASD87_01405	Unknown	QUERCETIN-23-DIOXYGENASE-RXN
ASD87_15370	gcvT	GCVT-RXN
ASD87_16170	Unknown	ACYLCOADEHYDROG-RXN;RXN-17775;RXN-17779;RXN-17783;RXN-17784;RXN-17788;RXN-17792;RXN-17796
ASD87_18370	Unknown	ATPASE-RXN
ASD87_19650	Unknown	6.3.4.10-RXN;6.3.4.11-RXN;6.3.4.9-RXN;BIOTINLIG-RXN
ASD87_03855	Unknown	2.1.1.77-RXN
ASD87_26035	Unknown	CHORISMATEMUT-RXN
ASD87_21870	Unknown	BIOTIN-CARBOXYL-RXN
ASD87_20415	Unknown	RXN0-2661
ASD87_09705	Unknown	RXN-12720;SULFATE-ADENYLYLTRANS-RXN
ASD87_05570	Unknown	3.4.11.18-RXN;RXN-17873;RXN-17874;RXN-17875;RXN-17876;RXN-17877;RXN-17878
ASD87_07415	Unknown	BRANCHED-CHAINAMINOTRANSFERILEU-RXN;BRANCHED-CHAINAMINOTRANSFERLEU-RXN;BRANCHED-CHAINAMINOTRANSFERVAL-RXN
ASD87_04530	Unknown	5.99.1.2-RXN
ASD87_17410	Unknown	1.14.11.2-RXN
ASD87_19640	Unknown	KDOTRANS-RXN
ASD87_00770	Unknown	THREONINE--TRNA-LIGASE-RXN
ASD87_06910	Unknown	ITACONYL-COA-HYDRATASE-RXN
ASD87_08510	Unknown	NADH-DEHYDROG-A-RXN
ASD87_07550	ppnK	NAD-KIN-RXN
ASD87_01345	Unknown	ENOYL-COA-HYDRAT-RXN;METHYLACYLYLCOA-HYDROXY-RXN;RXN-10697;RXN-10704;RXN-10705;RXN-11244;RXN-12567;RXN-13616;RXN-14266;RXN-14272;RXN-14273;RXN-16135;RXN-16558;RXN-17114;RXN-17475;RXN-17776;RXN-17780;RXN-17785;RXN-17789;RXN-17793;RXN-17797;RXN-2425;RXN0-5393;TIGLYLCOA-HYDROXY-RXN
ASD87_16295	Unknown	1.14.19.1-RXN;RXN-10664
ASD87_11770	Unknown	NAD-SYNTH-NH3-RXN
ASD87_09230	prpD	2-METHYLCITRATE-DEHYDRATASE-RXN
ASD87_08785	Unknown	ACETYLORNDEACET-RXN;RXN-7933
ASD87_20770	Unknown	ACYLCOADEHYDROG-RXN;RXN-17775;RXN-17779;RXN-17783;RXN-17784;RXN-17788;RXN-17792;RXN-17796
ASD87_19015	Unknown	GSHTRAN-RXN;GST-RXN;RXN-11663;RXN-13673;RXN-15680;RXN-18405;RXN-18407;RXNQT-4363
ASD87_25325	Unknown	GLUTAMATE-N-ACETYLTRANSFERASE-RXN;N-ACETYLTRANSFER-RXN;RXN0-6948
ASD87_12320	Unknown	1.11.1.15-RXN;RXN0-5468
ASD87_15095	Unknown	1.11.1.15-RXN;RXN0-5468
ASD87_24635	Unknown	GSHTRAN-RXN;GST-RXN;RXN-11663;RXN-13673;RXN-15680;RXN-18405;RXN-18407;RXNQT-4363
ASD87_24265	Unknown	METHIONYL-TRNA-FORMYLTRANSFERASE-RXN
ASD87_23895	Unknown	CHLORIDE-PEROXIDASE-RXN
ASD87_04020	Unknown	5-OXOPROLINASE-ATP-HYDROLYSING-RXN
ASD87_16715	Unknown	3-OXOACYL-ACP-REDUCT-RXN;RXN-10060;RXN-10655;RXN-10659;RXN-11476;RXN-11480;RXN-13008;RXN-16616;RXN-16622;RXN-16626;RXN-16630;RXN-9514;RXN-9518;RXN-9524;RXN-9528;RXN-9532;RXN-9536;RXN-9540;RXN-9552;RXN-9556;RXN-9633;RXN0-2142;RXN1G-157;RXN1G-349;RXN1G-469;RXN1G-508
ASD87_15360	Unknown	SUPEROX-DISMUT-RXN
ASD87_04195	Unknown	1.18.1.2-RXN
ASD87_17180	Unknown	PRPPSYN-RXN
ASD87_24420	Unknown	PRODISULFREDUCT-RXN;RXN0-7271
ASD87_21580	Unknown	CYSTATHIONINE-BETA-LYASE-RXN;RXN-15131
ASD87_08440	Unknown	GAMMA-GLUTAMYLTRANSFERASE-RXN;RXN-18092;RXN-6601;RXN-9157;RXN66-336
ASD87_04330	Unknown	GSHTRAN-RXN;GST-RXN;RXN-11663;RXN-13673;RXN-15680;RXN-18405;RXN-18407;RXNQT-4363
ASD87_19065	Unknown	ACETYL-COA-HYDROLASE-RXN
ASD87_06425	Unknown	UDP-NACMURALA-GLU-LIG-RXN
ASD87_12920	uvrC	RXN0-2621
ASD87_06810	Unknown	HISTALDEHYD-RXN;HISTOLDEHYD-RXN;RXN-8001
ASD87_10290	Unknown	INORGPYROPHOSPHAT-RXN
ASD87_09850	Unknown	MALEYLACETOACETATE-ISOMERASE-RXN
ASD87_18870	Unknown	HYDROXYMETHYLGLUTARYL-COA-LYASE-RXN
ASD87_16325	Unknown	2.1.1.79-RXN;RXN-7421;RXN1G-2544;RXN1G-3641
ASD87_23795	Unknown	2.7.13.3-RXN
ASD87_20860	Unknown	RXN0-4261
ASD87_13310	Unknown	RXN0-5131
ASD87_16955	Unknown	3.1.1.69-RXN
ASD87_10525	Unknown	GLUTSEMIALDEHYDROG-RXN
ASD87_20575	Unknown	ALLOPHANATE-HYDROLASE-RXN
ASD87_23425	trpD	PRTRANS-RXN
ASD87_10325	Unknown	HOMOSERDEHYDROG-RXN
ASD87_12850	Unknown	SAMDECARB-RXN
ASD87_15790	Unknown	LUMAZINESYN-RXN
ASD87_19025	Unknown	RXN0-4961
ASD87_15780	Unknown	2-HALOACID-DEHALOGENASE-RXN;3.8.1.11-RXN;RXN-6263;RXN-6264
ASD87_08305	Unknown	2.7.13.3-RXN
ASD87_09045	prpE	PROPIONATE--COA-LIGASE-RXN
ASD87_12280	Unknown	GLUTACONATE-COA-TRANSFERASE-RXN;RXN-1082
ASD87_14885	Unknown	2.7.13.3-RXN
ASD87_00195	Unknown	R101-RXN
ASD87_18285	Unknown	PHOSACETYLTRANS-RXN
ASD87_14775	Unknown	4-CARBOXYMUCONOLACTONE-DECARBOXYLASE-RXN
ASD87_20780	Unknown	2-NITROPROPANE-DIOXYGENASE-RXN
ASD87_18130	Unknown	QUEUOSINE-TRNA-RIBOSYLTRANSFERASE-RXN;RXN0-1321
ASD87_11150	Unknown	4-CARBOXYMUCONOLACTONE-DECARBOXYLASE-RXN
ASD87_05035	Unknown	SUCCINATE-SEMIALDEHYDE-DEHYDROGENASE-RXN
ASD87_20470	Unknown	THIAZOLSYN2-RXN
ASD87_20235	Unknown	ACYLCOADEHYDROG-RXN;RXN-17775;RXN-17779;RXN-17783;RXN-17784;RXN-17788;RXN-17792;RXN-17796
ASD87_12725	Unknown	ACETYL-COA-ACETYLTRANSFER-RXN;METHYLACETOACETYLCOATHIOL-RXN;RXN-12561
ASD87_18105	Unknown	GLYOXIII-RXN
ASD87_07375	Unknown	3.6.3.2-RXN;TRANS-RXN-250
ASD87_07925	Unknown	2.7.7.8-RXN
ASD87_06465	Unknown	UDPACYLGLCNACDEACETYL-RXN
ASD87_07250	Unknown	ISOCHORMAT-RXN
ASD87_23705	Unknown	3.5.1.77-RXN
ASD87_24055	Unknown	RXN0-4301
ASD87_25700	Unknown	2-NITROPROPANE-DIOXYGENASE-RXN;RXN-16322
ASD87_08240	Unknown	GLYOXIII-RXN
ASD87_06090	Unknown	2-OCTAPRENYL-6-OHPHENOL-METHY-RXN;DHHB-METHYLTRANSFER-RXN
ASD87_10330	Unknown	THRESYN-RXN
ASD87_24260	Unknown	3.5.1.27-RXN;3.5.1.88-RXN
ASD87_11755	Unknown	GLUC1PURIDYLTRANS-RXN
ASD87_00280	Unknown	ALANINE--TRNA-LIGASE-RXN
ASD87_18670	Unknown	2.7.13.3-RXN
ASD87_16785	Unknown	GLYOXIII-RXN
ASD87_22000	Unknown	3.1.1.64-RXN;CARBOXYLESTERASE-RXN;RETINYL-PALMITATE-ESTERASE-RXN;RXN-10711;RXN-10767;RXN-12252;RXN-12575;RXNQT-4366
ASD87_26050	Unknown	GENTISATE-12-DIOXYGENASE-RXN;RXN-16945;RXN-16947
ASD87_15455	Unknown	1.11.1.15-RXN;RXN0-5468
ASD87_19300	Unknown	PORPHOBILSYNTH-RXN
ASD87_06435	Unknown	NACGLCTRANS-RXN;RXN-8976
ASD87_25215	Unknown	ACETYLORNTRANSAM-RXN;RXN-15007
ASD87_21790	Unknown	3.6.1.41-RXN
ASD87_02130	Unknown	METHENYLTHFCYCLOHYDRO-RXN;METHYLENETHFDEHYDROG-NADP-RXN
ASD87_12720	Unknown	ACYLCOADEHYDROG-RXN;RXN-17775;RXN-17779;RXN-17783;RXN-17784;RXN-17788;RXN-17792;RXN-17796
ASD87_14305	Unknown	HCAMULTI-RXN;RXN-12072
ASD87_21595	argS	ARGININE--TRNA-LIGASE-RXN
ASD87_10295	Unknown	5.3.3.10-RXN
ASD87_12110	Unknown	RXN-12130
ASD87_01205	Unknown	1TRANSKETO-RXN;2TRANSKETO-RXN
ASD87_02780	Unknown	ADCLY-RXN
ASD87_08165	Unknown	3.5.1.77-RXN
ASD87_00410	Unknown	ADENYLOSUCCINATE-SYNTHASE-RXN
ASD87_10530	Unknown	DNA-DIRECTED-DNA-POLYMERASE-RXN
ASD87_22810	Unknown	CYCPHOSDIESTER-RXN;RXN-14064;RXN-14091;RXN-14112;RXN-14113
ASD87_24135	Unknown	DARAB5PISOM-RXN
ASD87_25590	Unknown	HEMEOSYN-RXN
ASD87_11035	Unknown	3.5.1.77-RXN
ASD87_08650	Unknown	1.8.4.12-RXN
ASD87_18820	Unknown	ORNITHINE--OXO-ACID-AMINOTRANSFERASE-RXN;ORNITHINE-GLU-AMINOTRANSFERASE-RXN
ASD87_20170	Unknown	GSAAMINOTRANS-RXN
ASD87_20630	Unknown	GALACTARDEHYDRA-RXN
ASD87_18145	upp	URACIL-PRIBOSYLTRANS-RXN
ASD87_17330	Unknown	2.7.13.3-RXN
ASD87_09365	Unknown	1.8.1.4-RXN;2OXOGLUTARATEDEH-RXN;2OXOGLUTDECARB-RXN;RXN-7716;RXN-7719;RXN-8629;RXN0-1132;RXN0-1147
ASD87_15325	dcd	DCTP-DEAM-RXN;RXN-14118
ASD87_12710	Unknown	2.7.13.3-RXN
ASD87_24735	Unknown	PRODISULFREDUCT-RXN;RXN0-7271
ASD87_12530	cpsB	2.7.7.13-RXN
ASD87_07390	Unknown	GLUC1PURIDYLTRANS-RXN
ASD87_06120	Unknown	DIHYDROFOLATEREDUCT-RXN;RXN-18357
ASD87_21060	Unknown	DNA-DIRECTED-DNA-POLYMERASE-RXN
ASD87_19530	Unknown	DTDPGLUCDEHYDRAT-RXN
ASD87_17755	Unknown	RXN-982
ASD87_23495	Unknown	2.9.1.1-RXN
ASD87_08755	Unknown	NICOTINATEPRIBOSYLTRANS-RXN
ASD87_01055	fabG	3-OXOACYL-ACP-REDUCT-RXN;RXN-10060;RXN-10655;RXN-10659;RXN-11476;RXN-11480;RXN-13008;RXN-16616;RXN-16622;RXN-16626;RXN-16630;RXN-9514;RXN-9518;RXN-9524;RXN-9528;RXN-9532;RXN-9536;RXN-9540;RXN-9552;RXN-9556;RXN-9633;RXN0-2142;RXN1G-157;RXN1G-349;RXN1G-469;RXN1G-508
ASD87_26335	Unknown	FMNREDUCT-RXN;RXN-9510
ASD87_13555	Unknown	RXN-12263;RXN-13162;RXN-13724;RXN66-281
ASD87_14850	Unknown	3-OXOACYL-ACP-REDUCT-RXN
ASD87_21305	Unknown	HISTONE-LYSINE-N-METHYLTRANSFERASE-RXN
ASD87_14465	Unknown	2-HALOACID-DEHALOGENASE-RXN
ASD87_13400	Unknown	GSHTRAN-RXN;GST-RXN;RXN-11663;RXN-13673;RXN-15680;RXN-18405;RXN-18407;RXNQT-4363
ASD87_22885	Unknown	RIBULOSE-BISPHOSPHATE-CARBOXYLASE-RXN
ASD87_15195	Unknown	GSHTRAN-RXN;GST-RXN;RXN-11663;RXN-13673;RXN-15680;RXN-18405;RXN-18407;RXNQT-4363
ASD87_16595	Unknown	2.7.13.3-RXN
ASD87_21320	Unknown	ACETOLACTSYN-RXN;ACETOOHBUTSYN-RXN
ASD87_13985	Unknown	RXN-17362
ASD87_05085	Unknown	POLYPHOSPHATE-KINASE-RXN
ASD87_13685	Unknown	ADENYL-KIN-RXN
ASD87_00360	Unknown	HISTIDINE--TRNA-LIGASE-RXN
ASD87_02220	Unknown	CDP-GLUCOSE-46-DEHYDRATASE-RXN
ASD87_09315	Unknown	MALIC-NADP-RXN;OXALODECARB-RXN
ASD87_01190	Unknown	PMPOXI-RXN;PNPOXI-RXN
ASD87_10010	Unknown	PHOSPHONOACETALDEHYDE-HYDROLASE-RXN
ASD87_22070	Unknown	RXN0-4621
ASD87_13560	Unknown	ALARACECAT-RXN
ASD87_17655	Unknown	3-HYDROXY-KYNURENINASE-RXN;KYNURENINASE-RXN
ASD87_08585	Unknown	4-CARBOXYMUCONOLACTONE-DECARBOXYLASE-RXN
ASD87_02595	Unknown	3.4.11.18-RXN;RXN-17873;RXN-17874;RXN-17875;RXN-17876;RXN-17877;RXN-17878
ASD87_24425	Unknown	RXN-19040;RXN0-6359;THIOSULFATE-SULFURTRANSFERASE-RXN
ASD87_06315	Unknown	PGLYCDEHYDROG-RXN
ASD87_18095	Unknown	RXN-14480;RXN-14481;RXN0-5063
ASD87_17120	Unknown	RXN1A0-6303
ASD87_24875	Unknown	DTDPGLUCDEHYDRAT-RXN
ASD87_14800	Unknown	6-CARBOXYHEXANOATE--COA-LIGASE-RXN
ASD87_01035	Unknown	DNA-DIRECTED-DNA-POLYMERASE-RXN
ASD87_01290	Unknown	GLUTATHIONE-REDUCT-NADPH-RXN
ASD87_04090	rph	RXN0-6481;RXN0-6482;TRNA-NUCLEOTIDYLTRANSFERASE-RXN
ASD87_23475	Unknown	2.3.2.13-RXN;RXN-19236
ASD87_16945	Unknown	ENOYL-COA-HYDRAT-RXN;METHYLACYLYLCOA-HYDROXY-RXN;RXN-10697;RXN-10704;RXN-10705;RXN-11244;RXN-12567;RXN-13616;RXN-14266;RXN-14272;RXN-14273;RXN-16135;RXN-16558;RXN-17114;RXN-17475;RXN-17776;RXN-17780;RXN-17785;RXN-17789;RXN-17793;RXN-17797;RXN-2425;RXN0-5393;TIGLYLCOA-HYDROXY-RXN
ASD87_08495	Unknown	1.6.99.5-RXN;NADH-DEHYDROGENASE-QUINONE-RXN
ASD87_05970	Unknown	CYTOCHROME-C-OXIDASE-RXN;RXN-15830
ASD87_25200	Unknown	4-CARBOXYMUCONOLACTONE-DECARBOXYLASE-RXN
ASD87_13055	Unknown	GLYOXIII-RXN
ASD87_16690	Unknown	RXN-14971;RXN-15378;SUCCINATE-DEHYDROGENASE-UBIQUINONE-RXN
ASD87_02930	Unknown	PHOSACETYLTRANS-RXN
ASD87_18330	Unknown	5.3.4.1-RXN;DISULISOM-RXN
ASD87_21045	rnpA	3.1.26.5-RXN;RXN0-6480
ASD87_04300	Unknown	GLUTRACE-RXN
ASD87_14985	Unknown	1.2.7.8-RXN
ASD87_18555	Unknown	ACYLCOADEHYDROG-RXN;RXN-17775;RXN-17779;RXN-17783;RXN-17784;RXN-17788;RXN-17792;RXN-17796
ASD87_04455	Unknown	ATPASE-RXN
ASD87_07120	Unknown	DEOXYGLUCONOKIN-RXN
ASD87_23180	Unknown	RXN-2462
ASD87_15590	Unknown	HOMOGENTISATE-12-DIOXYGENASE-RXN
ASD87_22815	Unknown	THIAZOLSYN3-RXN
ASD87_20100	Unknown	ACYLCOASYN-RXN;LINOLENOYL-RXN;R223-RXN;RXN-12184;RXN-12978;RXN-13290;RXN-13614;RXN-16380;RXN-16389;RXN-16393;RXN-16401;RXN-16402;RXN-16415;RXN-16418;RXN-7904;RXN-9623;RXN-9644;RXN-9673;RXN0-7238;RXN0-7239;RXN0-7248;RXN66-469;RXN66-477;RXN66-480;RXN66-483;RXN66-484;TRANS-RXN0-623
ASD87_20845	Unknown	TETHYDPICSUCC-RXN
ASD87_24130	Unknown	PHENYLPCARB-RXN
ASD87_16635	Unknown	ACETOLACTSYN-RXN;ACETOOHBUTSYN-RXN
ASD87_25870	Unknown	1.2.4.4-RXN;2.3.1.168-RXN;KETOISOCAPROATE-RXN;METHYLVALERATE-RXN;RXN-7790
ASD87_02625	Unknown	CDPDIGLYSYN-RXN;RXN0-5515
ASD87_19815	Unknown	AMIDASE-RXN;GUANIDINOBUTANAMIDE-NH3-RXN;PYRAZIN-RXN;R311-RXN;RXN-14727;RXN-14728;RXN-17608;RXNN-404
ASD87_05400	Unknown	AMIDASE-RXN;GUANIDINOBUTANAMIDE-NH3-RXN;PYRAZIN-RXN;R311-RXN;RXN-14727;RXN-14728;RXN-17608;RXNN-404
ASD87_15395	Unknown	AMIDASE-RXN;GUANIDINOBUTANAMIDE-NH3-RXN;PYRAZIN-RXN;R311-RXN;RXN-14727;RXN-14728;RXN-17608;RXNN-404
ASD87_03315	Unknown	SERINE--GLYOXYLATE-AMINOTRANSFERASE-RXN;SERINE-GLYOXYLATE-AMINOTRANSFERASE-RXN
ASD87_25350	Unknown	3.5.1.77-RXN
ASD87_14530	Unknown	DEHYDDEOXPHOSGALACT-ALDOL-RXN
ASD87_16105	Unknown	AMIDASE-RXN;GUANIDINOBUTANAMIDE-NH3-RXN;PYRAZIN-RXN;R311-RXN;RXN-14727;RXN-14728;RXN-17608;RXNN-404
ASD87_08745	Unknown	1.18.1.2-RXN
ASD87_18260	gapA	GAPOXNPHOSPHN-RXN
ASD87_14195	Unknown	PYRROLINECARBREDUCT-RXN;RXN66-546
ASD87_06110	Unknown	3-OXOACYL-ACP-REDUCT-RXN;RXN-10060;RXN-10655;RXN-10659;RXN-11476;RXN-11480;RXN-13008;RXN-16616;RXN-16622;RXN-16626;RXN-16630;RXN-9514;RXN-9518;RXN-9524;RXN-9528;RXN-9532;RXN-9536;RXN-9540;RXN-9552;RXN-9556;RXN-9633;RXN0-2142;RXN1G-157;RXN1G-349;RXN1G-469;RXN1G-508
ASD87_05725	Unknown	1.17.4.2-RXN;RIBONUCLEOSIDE-TRIP-REDUCT-RXN;RXN0-723;RXN0-724;RXN0-745;RXN0-746
ASD87_04580	Unknown	GLYCOGEN-BRANCH-RXN;RXN-14371;RXN-14372;RXN-18777;RXN-7669;RXN-7710
ASD87_14225	Unknown	ISOCIT-CLEAV-RXN
ASD87_12135	Unknown	LIPIDXSYNTHESIS-RXN
ASD87_09710	Unknown	RXN-12720;SULFATE-ADENYLYLTRANS-RXN
ASD87_10670	Unknown	ACETYLPUTRESCINE-DEACETYLASE-RXN
ASD87_22655	Unknown	METHGLYSYN-RXN
ASD87_12905	Unknown	PDXJ-RXN
ASD87_10395	Unknown	PYRNUTRANSHYDROGEN-RXN;TRANS-RXN0-277
ASD87_23335	Unknown	IMP-DEHYDROG-RXN
ASD87_14020	Unknown	RXN-11135
ASD87_03505	Unknown	RXN0-6575
ASD87_14795	Unknown	ACYLCOADEHYDROG-RXN;RXN-17775;RXN-17779;RXN-17783;RXN-17784;RXN-17788;RXN-17792;RXN-17796
ASD87_24300	rimO	RXN0-6366
ASD87_10790	Unknown	6-CARBOXYHEXANOATE--COA-LIGASE-RXN
ASD87_10860	Unknown	ASPAMINOTRANS-RXN;RXN-10814;RXN-11737;RXN-13697
ASD87_20700	Unknown	GENTISATE-12-DIOXYGENASE-RXN;RXN-16945;RXN-16947
ASD87_11685	Unknown	RXN0-5061
ASD87_04010	Unknown	NADPYROPHOSPHAT-RXN;RXN0-4401
ASD87_11430	Unknown	3.1.1.69-RXN
ASD87_14160	Unknown	RXN0-5131
ASD87_21850	Unknown	RXN0-2361;RXN0-7022
ASD87_12565	Unknown	UDPGLUCEPIM-RXN
ASD87_18935	Unknown	THIOPURINE-S-METHYLTRANSFERASE-RXN
ASD87_10340	Unknown	F16BDEPHOS-RXN
ASD87_07115	Unknown	KDPGALDOL-RXN
ASD87_24025	Unknown	DIHYDROOROTATE-DEHYDROGENASE-RXN;RXN0-6491
ASD87_06995	Unknown	GAMMA-GLUTAMYLTRANSFERASE-RXN;RXN-18092;RXN-6601;RXN-9157;RXN66-336
ASD87_20680	Unknown	SUCCGLUDESUCC-RXN
ASD87_05550	Unknown	RXN0-5061
ASD87_16565	Unknown	DEOXYRIBODIPYRIMIDINE-PHOTOLYASE-RXN;RXN-19025;RXN-19026;RXN-19242;RXN-19243;RXN-19244;RXN-19245;RXN-19246;RXN-19247;RXN-19248
ASD87_05025	Unknown	CARBODEHYDRAT-RXN;RXN0-5224
ASD87_14650	Unknown	3.4.11.5-RXN
ASD87_16185	Unknown	ACYLCOADEHYDROG-RXN;RXN-17775;RXN-17779;RXN-17783;RXN-17784;RXN-17788;RXN-17792;RXN-17796
ASD87_20570	Unknown	GLYOXIII-RXN
ASD87_24790	Unknown	RXN0-305
ASD87_01245	Unknown	ACYLCOASYN-RXN;LINOLENOYL-RXN;R223-RXN;RXN-12184;RXN-12702;RXN-12746;RXN-12978;RXN-13290;RXN-13614;RXN-16380;RXN-16389;RXN-16393;RXN-16401;RXN-16402;RXN-16415;RXN-16418;RXN-7904;RXN-9623;RXN-9644;RXN-9673;RXN0-7238;RXN0-7239;RXN0-7248;RXN66-469;RXN66-477;RXN66-480;RXN66-483;RXN66-484;TRANS-RXN0-623
ASD87_17790	Unknown	UREA-CARBOXYLASE-RXN
ASD87_00335	Unknown	VALINE--TRNA-LIGASE-RXN
ASD87_20140	Unknown	ASPCARBTRANS-RXN
ASD87_15975	Unknown	5-OXOPROLINASE-ATP-HYDROLYSING-RXN
ASD87_20225	Unknown	3.1.2.23-RXN
ASD87_10250	sucC	SUCCCOASYN-RXN
ASD87_00200	ectC	R103-RXN
ASD87_23015	Unknown	FGAMSYN-RXN
ASD87_03845	Unknown	RXN-10462;RXN-13805;RXN-1381;RXN-15045;RXN-16024;RXN-16117;RXN-17016;RXN-17017;RXN-17018
ASD87_22460	Unknown	RXN0-5510
ASD87_02555	Unknown	DIHYDROFOLATESYNTH-RXN;FOLYLPOLYGLUTAMATESYNTH-RXN;FORMYLTHFGLUSYNTH-RXN;RXN-6341;RXN0-2921
ASD87_14670	Unknown	HYDROXYMETHYLGLUTARYL-COA-LYASE-RXN
ASD87_13210	Unknown	3.1.1.64-RXN;CARBOXYLESTERASE-RXN;RETINYL-PALMITATE-ESTERASE-RXN;RXN-10711;RXN-10767;RXN-12252;RXN-12575;RXNQT-4366
ASD87_11050	Unknown	3.5.1.81-RXN
ASD87_09100	Unknown	RXNI-2
ASD87_20640	Unknown	PGLYCDEHYDROG-RXN
ASD87_01725	Unknown	N-FORMYLGLUTAMATE-DEFORMYLASE-RXN
ASD87_08950	Unknown	RXN0-5462
ASD87_09265	Unknown	R601-RXN;RXN-14963
ASD87_07855	Unknown	3.5.5.1-RXN;RXN-1404;RXN-17607;RXN-18229
ASD87_15635	ipk	2.7.1.148-RXN
ASD87_25865	Unknown	1.8.1.4-RXN;2OXOGLUTARATEDEH-RXN;2OXOGLUTDECARB-RXN;RXN-7716;RXN-7719;RXN-8629;RXN0-1132;RXN0-1147
ASD87_15860	Unknown	GALACTONDEHYDRAT-RXN
ASD87_08095	Unknown	TRIOSEPISOMERIZATION-RXN
ASD87_18530	Unknown	ENOYL-COA-HYDRAT-RXN;METHYLACYLYLCOA-HYDROXY-RXN;RXN-10697;RXN-10704;RXN-10705;RXN-11244;RXN-12567;RXN-13616;RXN-14266;RXN-14272;RXN-14273;RXN-16135;RXN-16558;RXN-17114;RXN-17475;RXN-17776;RXN-17780;RXN-17785;RXN-17789;RXN-17793;RXN-17797;RXN-2425;RXN0-5393;TIGLYLCOA-HYDROXY-RXN
ASD87_10510	Unknown	AMIDASE-RXN;GUANIDINOBUTANAMIDE-NH3-RXN;PYRAZIN-RXN;R311-RXN;RXN-14727;RXN-14728;RXN-17608;RXNN-404
ASD87_16010	Unknown	ACYLCOADEHYDROG-RXN;RXN-17775;RXN-17779;RXN-17783;RXN-17784;RXN-17788;RXN-17792;RXN-17796
ASD87_06975	Unknown	FUMHYDR-RXN
ASD87_16695	Unknown	RXN-14971;RXN-15378;SUCCINATE-DEHYDROGENASE-UBIQUINONE-RXN
ASD87_03110	Unknown	RXN-8668
ASD87_08945	Unknown	3.1.26.3-RXN
ASD87_05215	Unknown	GLUCONOLACT-RXN;RXN-8783
ASD87_12520	Unknown	GDPMANDEHYDRA-RXN
ASD87_21935	Unknown	PYFLAVOXRE-RXN;PYRUFLAVREDUCT-RXN
ASD87_16675	Unknown	FUMHYDR-RXN
ASD87_22580	Unknown	3.4.21.92-RXN
ASD87_04225	Unknown	RXN0-4261
ASD87_15510	Unknown	PGLUCISOM-RXN
ASD87_08575	Unknown	2.7.7.60-RXN
ASD87_02845	Unknown	6.3.4.10-RXN;6.3.4.11-RXN;6.3.4.9-RXN;BIOTINLIG-RXN
ASD87_03925	Unknown	PEPTIDYLPROLYL-ISOMERASE-RXN
ASD87_10890	Unknown	2-DEHYDROPANTOATE-REDUCT-RXN
ASD87_18255	Unknown	1TRANSKETO-RXN;2TRANSKETO-RXN
ASD87_03775	Unknown	CYTIDEAM-RXN;CYTIDEAM2-RXN
ASD87_25790	Unknown	HISTPRATPHYD-RXN
ASD87_03390	Unknown	ADOMET-DMK-METHYLTRANSFER-RXN
ASD87_19445	Unknown	1.5.1.9-RXN
ASD87_02155	Unknown	1.8.1.4-RXN;2OXOGLUTARATEDEH-RXN;2OXOGLUTDECARB-RXN;RXN-7716;RXN-7719;RXN-8629;RXN0-1132;RXN0-1147
ASD87_15150	Unknown	RXN-2462
ASD87_09355	sucA	2-KETO-ADIPATE-DEHYDROG-RXN;2OXOGLUTARATEDEH-RXN;2OXOGLUTDECARB-RXN;RXN-7716;RXN0-1147
ASD87_20205	Unknown	CARBOXYMETHYLENEBUTENOLIDASE-RXN;DIENELACHYDRO-RXN;RXN-9857;RXN-9868;RXN-9887;RXN-9890
ASD87_21345	Unknown	5.99.1.2-RXN
ASD87_02080	Unknown	2.7.8.23-RXN;RXN-10827;RXN-10828
ASD87_21160	Unknown	GLYCERATE-DEHYDROGENASE-RXN;HYDROXYPYRUVATE-REDUCTASE-RXN;RXN0-300
ASD87_06685	Unknown	RXN-13908;RXN-7908
ASD87_15140	Unknown	GSHTRAN-RXN;GST-RXN;RXN-11663;RXN-13673;RXN-15680;RXN-18405;RXN-18407;RXNQT-4363
ASD87_01845	Unknown	1.8.1.4-RXN;2OXOGLUTARATEDEH-RXN;2OXOGLUTDECARB-RXN;RXN-7716;RXN-7719;RXN-8629;RXN0-1132;RXN0-1147
ASD87_14430	Unknown	3.1.1.69-RXN
ASD87_24340	Unknown	AMIDASE-RXN;GUANIDINOBUTANAMIDE-NH3-RXN;PYRAZIN-RXN;R311-RXN;RXN-14727;RXN-14728;RXN-17608;RXNN-404
ASD87_17085	Unknown	GSHTRAN-RXN;GST-RXN;RXN-11663;RXN-13673;RXN-15680;RXN-18405;RXN-18407;RXNQT-4363
ASD87_19975	Unknown	2.3.2.13-RXN;RXN-19236
ASD87_24480	Unknown	DIHYDROXYISOVALDEHYDRAT-RXN;DIHYDROXYMETVALDEHYDRAT-RXN
ASD87_26300	Unknown	4.1.3.17-RXN;RXN-12074;RXN-2464
ASD87_15535	Unknown	2.7.13.3-RXN
ASD87_23585	Unknown	ORNITHINE-CYCLODEAMINASE-RXN
ASD87_21860	Unknown	3-DEHYDROQUINATE-DEHYDRATASE-RXN
ASD87_19020	Unknown	2.7.13.3-RXN
ASD87_05840	Unknown	PEPTIDYLPROLYL-ISOMERASE-RXN
ASD87_14825	Unknown	FMNREDUCT-RXN;NADPH-DEHYDROGENASE-FLAVIN-RXN;RXN-12444
ASD87_13200	Unknown	1.4.1.21-RXN
ASD87_01255	Unknown	ASPARTATE-RACEMASE-RXN
ASD87_06550	Unknown	ACYLCOASYN-RXN;LINOLENOYL-RXN;R223-RXN;RXN-12184;RXN-12978;RXN-13290;RXN-13614;RXN-16380;RXN-16389;RXN-16393;RXN-16401;RXN-16402;RXN-16415;RXN-16418;RXN-7904;RXN-9623;RXN-9644;RXN-9673;RXN0-7238;RXN0-7239;RXN0-7248;RXN66-469;RXN66-477;RXN66-480;RXN66-483;RXN66-484;TRANS-RXN0-623
ASD87_00375	Unknown	RXN0-5462
ASD87_08790	Unknown	RXN0-2382;TRYPSYN-RXN
ASD87_24520	Unknown	3-HYDROXYBUTYRYL-COA-DEHYDROGENASE-RXN
ASD87_15175	Unknown	ENOYL-COA-HYDRAT-RXN;METHYLACYLYLCOA-HYDROXY-RXN;RXN-10697;RXN-10704;RXN-10705;RXN-11244;RXN-12567;RXN-13616;RXN-14266;RXN-14272;RXN-14273;RXN-16135;RXN-16558;RXN-17114;RXN-17475;RXN-17776;RXN-17780;RXN-17785;RXN-17789;RXN-17793;RXN-17797;RXN-2425;RXN0-5393;TIGLYLCOA-HYDROXY-RXN
ASD87_16160	Unknown	6-CARBOXYHEXANOATE--COA-LIGASE-RXN
ASD87_02715	Unknown	GLUTAMIN-RXN;GMP-SYN-GLUT-RXN;GMP-SYN-NH3-RXN
ASD87_08775	Unknown	GDPPYPHOSKIN-RXN;GTPPYPHOSKIN-RXN
ASD87_21030	Unknown	CATAL-RXN;RXN-14189;RXN66-1
ASD87_07080	Unknown	RXN-10078;RXN-10079;RXN-9912;RXN-9914;SALICYLATE-1-MONOOXYGENASE-RXN
ASD87_10605	Unknown	2.1.1.79-RXN;RXN-7421;RXN1G-2544;RXN1G-3641
ASD87_11260	pdxK	PNKIN-RXN;PYRAMKIN-RXN;PYRIDOXKIN-RXN
ASD87_23370	Unknown	H2NEOPTERINALDOL-RXN;RXN-10857
ASD87_21475	Unknown	CATAL-RXN;RXN-14189;RXN66-1
ASD87_05445	Unknown	PGLYCDEHYDROG-RXN
ASD87_14285	Unknown	R125-RXN
ASD87_19350	Unknown	DGTPTRIPHYDRO-RXN
ASD87_20615	metX	HOMOSERINE-O-ACETYLTRANSFERASE-RXN
ASD87_01560	Unknown	AMIDASE-RXN;GUANIDINOBUTANAMIDE-NH3-RXN;PYRAZIN-RXN;R311-RXN;RXN-14727;RXN-14728;RXN-17608;RXNN-404
ASD87_15735	Unknown	PANTEPADENYLYLTRAN-RXN
ASD87_21010	Unknown	RXN0-299
ASD87_22275	Unknown	RXN0-4961
ASD87_22610	Unknown	PROTEIN-TYROSINE-PHOSPHATASE-RXN
ASD87_11450	Unknown	GLUTAMIN-RXN;GMP-SYN-GLUT-RXN;GMP-SYN-NH3-RXN
ASD87_18420	Unknown	F16ALDOLASE-RXN;RXN-10053;RXN-8631
ASD87_06930	Unknown	H2PTERIDINEPYROPHOSPHOKIN-RXN;RXN-15733
ASD87_25355	Unknown	DIHYDROPYRIMIDINASE-RXN;RXN-11211;RXN-11217
ASD87_09570	Unknown	PSERTRANSAM-RXN;PSERTRANSAMPYR-RXN
ASD87_10975	Unknown	DIHYDROOROT-RXN
ASD87_24940	Unknown	FUMARYLACETOACETASE-RXN
ASD87_24690	Unknown	ACYLCOASYN-RXN;LINOLENOYL-RXN;R223-RXN;RXN-12184;RXN-12978;RXN-13290;RXN-13614;RXN-16380;RXN-16389;RXN-16393;RXN-16401;RXN-16402;RXN-16415;RXN-16418;RXN-7904;RXN-9623;RXN-9644;RXN-9673;RXN0-7238;RXN0-7239;RXN0-7248;RXN66-469;RXN66-477;RXN66-480;RXN66-483;RXN66-484;TRANS-RXN0-623
ASD87_16650	Unknown	1.2.1.27-RXN;RXN-11213;RXN-2902
ASD87_23715	Unknown	NQOR-RXN
ASD87_04870	Unknown	PEPTIDYLPROLYL-ISOMERASE-RXN
ASD87_01875	nadE	NAD-SYNTH-GLN-RXN;NAD-SYNTH-NH3-RXN
ASD87_19460	Unknown	4OHBENZOATE-OCTAPRENYLTRANSFER-RXN
ASD87_24885	Unknown	4.2.2.2-RXN
ASD87_02050	Unknown	3-ISOPROPYLMALISOM-RXN;RXN-13163;RXN-8991
ASD87_08970	Unknown	SUCCGLUDESUCC-RXN
ASD87_01520	Unknown	2.7.13.3-RXN
ASD87_19080	tuf	RXN0-5462
ASD87_23710	Unknown	ORNITHINE-CYCLODEAMINASE-RXN
ASD87_24365	Unknown	2.7.13.3-RXN
ASD87_06825	Unknown	R4-RXN
ASD87_24270	Unknown	ADENYLATECYC-RXN
ASD87_22180	Unknown	HYDROXYMETHYLGLUTARYL-COA-LYASE-RXN
ASD87_24545	Unknown	3-OXOADIPATE-COA-TRANSFERASE-RXN;RXN-10085
ASD87_23220	Unknown	R4-RXN
ASD87_11240	Unknown	GSHTRAN-RXN;GST-RXN;RXN-11663;RXN-13673;RXN-15680;RXN-18405;RXN-18407;RXNQT-4363
ASD87_05060	ligD	DNA-LIGASE-ATP-RXN;RXN-17917;RXN-17918;RXN-17919
ASD87_24035	Unknown	ACETYLGLUTKIN-RXN;RXN-15005
ASD87_08270	Unknown	PENICILLIN-AMIDASE-RXN;RXN-17099
ASD87_15930	Unknown	ASPAMINOTRANS-RXN;RXN-10814;RXN-11737;RXN-13697
ASD87_02150	Unknown	RXN0-1133
ASD87_13690	Unknown	CPM-KDOSYNTH-RXN
ASD87_21530	Unknown	ACETYL-COA-ACETYLTRANSFER-RXN;METHYLACETOACETYLCOATHIOL-RXN;RXN-12561
ASD87_08170	Unknown	3.5.1.81-RXN
ASD87_06445	Unknown	DALADALALIG-RXN
ASD87_20145	Unknown	3.1.22.4-RXN
ASD87_22090	glyA	GLYOHMETRANS-RXN;RXN0-5234
ASD87_12945	Unknown	ISOCIT-CLEAV-RXN
ASD87_06400	Unknown	RXN-11638
ASD87_12590	Unknown	GABATRANSAM-RXN;RXN-2901
ASD87_12665	acnA	ACONITATEDEHYDR-RXN;ACONITATEHYDR-RXN;RXN-14047
ASD87_22055	Unknown	N-ACETYLGLUTPREDUCT-RXN;RXN-15006
ASD87_03000	Unknown	GTP-CYCLOHYDRO-I-RXN
ASD87_22730	Unknown	LYSINE--TRNA-LIGASE-RXN
ASD87_19270	Unknown	DNA-DIRECTED-RNA-POLYMERASE-RXN
ASD87_02670	rnhB	3.1.26.4-RXN
ASD87_24695	Unknown	CITSYN-RXN
ASD87_17205	Unknown	RXN0-5268
ASD87_21710	Unknown	AMINOPARATHION-PHOSPHATASE-RXN;ARYLDIALKYL-PHOSPHATASE-RXN;ARYLDIALKYLPHOSPHATASE-RXN;RXN-8743;RXN-8746
ASD87_08485	Unknown	1.6.99.5-RXN;NADH-DEHYDROGENASE-QUINONE-RXN
ASD87_26400	Unknown	PROTEIN-KINASE-RXN
ASD87_00715	Unknown	ACETYLPUTRESCINE-DEACETYLASE-RXN
ASD87_26190	Unknown	2.7.13.3-RXN
ASD87_05315	Unknown	ISOCITDEH-RXN;RXN-8642;RXN-9951
ASD87_15225	Unknown	RXN-12560;RXN-13279;RXN-5901
ASD87_02925	Unknown	RXN-2364
ASD87_14965	Unknown	3-OXOADIPATE-ENOL-LACTONASE-RXN;RXN-10083
ASD87_12080	Unknown	MYO-INOSITOL-1OR-4-MONOPHOSPHATASE-RXN;RXN-7253;RXN0-5408
ASD87_05705	Unknown	1.1.1.34-RXN
ASD87_15055	fabG	3-OXOACYL-ACP-REDUCT-RXN;RXN-10060;RXN-10655;RXN-10659;RXN-11476;RXN-11480;RXN-13008;RXN-16616;RXN-16622;RXN-16626;RXN-16630;RXN-9514;RXN-9518;RXN-9524;RXN-9528;RXN-9532;RXN-9536;RXN-9540;RXN-9552;RXN-9556;RXN-9633;RXN0-2142;RXN1G-157;RXN1G-349;RXN1G-469;RXN1G-508
ASD87_07195	Unknown	1.2.7.8-RXN
ASD87_09515	Unknown	RXN-8351
ASD87_15950	Unknown	CYSTEINE-DIOXYGENASE-RXN
ASD87_05390	Unknown	RXN0-4261
ASD87_02825	Unknown	FORMIMINOGLUTAMASE-RXN
ASD87_22775	Unknown	2.7.13.3-RXN
ASD87_16310	Unknown	2.1.1.79-RXN;RXN-7421;RXN1G-2544;RXN1G-3641
ASD87_06895	Unknown	ACYLCOADEHYDROG-RXN;RXN-17775;RXN-17779;RXN-17783;RXN-17784;RXN-17788;RXN-17792;RXN-17796
ASD87_07085	Unknown	RXN-10078;RXN-10079;RXN-9912;RXN-9914;SALICYLATE-1-MONOOXYGENASE-RXN
ASD87_26020	Unknown	RXN-10078;RXN-10079;RXN-9912;RXN-9914;SALICYLATE-1-MONOOXYGENASE-RXN
ASD87_09925	truB	TRNA-PSEUDOURIDINE-SYNTHASE-I-RXN
ASD87_24235	Unknown	2-AMINOADIPATE-AMINOTRANSFERASE-RXN
ASD87_23225	Unknown	PALMITOYL-COA-HYDROLASE-RXN;RXN-13430;RXN-13435;RXN-16063;RXN-16395;RXN-9624;RXN-9626;RXN-9627;RXN-9628;RXN-9629;RXN-9666;THIOESTER-RXN
ASD87_10105	Unknown	RXN-13179
ASD87_02705	Unknown	PEPSYNTH-RXN
ASD87_21735	Unknown	RXN0-5462
ASD87_19735	Unknown	3.4.25.1-RXN
ASD87_17785	Unknown	ALLOPHANATE-HYDROLASE-RXN
ASD87_12980	Unknown	CYTOCHROME-C-OXIDASE-RXN;RXN-15830
ASD87_22165	Unknown	ATPASE-RXN
ASD87_26150	Unknown	RXN-11578
ASD87_02055	Unknown	3-ISOPROPYLMALISOM-RXN;RXN-13163;RXN-8991
ASD87_07910	Unknown	PHOSPHASERSYN-RXN
ASD87_02785	Unknown	DTMPKI-RXN
ASD87_01790	Unknown	DIAMACTRANS-RXN;RXN-0;RXN-12667;RXN-9939;RXN0-7165;SPERMACTRAN-RXN
ASD87_00095	emrB	3.6.3.44-RXN;TRANS-RXN-311
ASD87_22470	Unknown	2.7.13.3-RXN
ASD87_20035	Unknown	3.6.1.41-RXN
ASD87_04375	rocD	ORNITHINE--OXO-ACID-AMINOTRANSFERASE-RXN;ORNITHINE-GLU-AMINOTRANSFERASE-RXN
ASD87_07465	Unknown	DIHYDROOROTATE-DEHYDROGENASE-RXN;RXN0-6491;RXN0-6554
ASD87_02540	Unknown	ACETYL-COA-ACETYLTRANSFER-RXN;METHYLACETOACETYLCOATHIOL-RXN;RXN-12561
ASD87_16875	Unknown	ALKAPHOSPHA-RXN;RXN-5822;RXN-8748
ASD87_16860	Unknown	CATECHOL-12-DIOXYGENASE-RXN
ASD87_02830	Unknown	GLUTAMATE-DEHYDROGENASE-NADP+-RXN;GLUTAMATE-DEHYDROGENASE-RXN;GLUTDEHYD-RXN
ASD87_02790	Unknown	DNA-DIRECTED-DNA-POLYMERASE-RXN
ASD87_06955	Unknown	RXN0-6274
ASD87_25565	glmU	2.3.1.157-RXN;NAG1P-URIDYLTRANS-RXN
ASD87_01045	Unknown	RXN0-2621
ASD87_05355	Unknown	3-OXOACYL-ACP-REDUCT-RXN;RXN-10060;RXN-10655;RXN-10659;RXN-11476;RXN-11480;RXN-13008;RXN-16616;RXN-16622;RXN-16626;RXN-16630;RXN-9514;RXN-9518;RXN-9524;RXN-9528;RXN-9532;RXN-9536;RXN-9540;RXN-9552;RXN-9556;RXN-9633;RXN0-2142;RXN1G-157;RXN1G-349;RXN1G-469;RXN1G-508
ASD87_15895	Unknown	RXN0-299
ASD87_14620	Unknown	RXN0-5225
ASD87_07025	Unknown	FORMYLTHFDEFORMYL-RXN
ASD87_19810	Unknown	S-ADENMETSYN-RXN
ASD87_24550	Unknown	MUCONOLACTONE-DELTA-ISOMERASE-RXN;RXN-10082
ASD87_04570	Unknown	3.2.1.141-RXN
ASD87_07040	Unknown	PMPOXI-RXN;PNPOXI-RXN
ASD87_17360	Unknown	ACONITATEDEHYDR-RXN;ACONITATEHYDR-RXN;RXN-14047
ASD87_20435	Unknown	MANNONDEHYDRAT-RXN
ASD87_14045	dapD	TETHYDPICSUCC-RXN
ASD87_22250	Unknown	GLYOXII-RXN;RXN-7919
ASD87_18030	Unknown	2.8.1.6-RXN;RXN-17472;RXN-17473
ASD87_11935	Unknown	ALDOSE1EPIM-RXN
ASD87_10365	Unknown	DAHPSYN-RXN
ASD87_04880	Unknown	2-HALOACID-DEHALOGENASE-RXN
ASD87_02980	Unknown	2-AMINOADIPATE-AMINOTRANSFERASE-RXN
ASD87_13335	Unknown	FORMAMIDASE-RXN
ASD87_01425	Unknown	RXN-8358
ASD87_06080	Unknown	TRANS-RXN-283
ASD87_10420	mnmA	RXN0-2023
ASD87_00630	Unknown	ASPARTATE-SEMIALDEHYDE-DEHYDROGENASE-RXN
ASD87_00225	Unknown	1.17.1.1-RXN
ASD87_09755	Unknown	RXN-12752;RXN-13142
ASD87_01350	Unknown	DIENOYLCOAREDUCT-RXN;RXN-12521;RXN-14715;RXN-14776;RXN-14790;RXN-7835;RXN-7911
ASD87_11735	Unknown	GALPMUT-RXN
ASD87_10095	Unknown	RXN0-4261
ASD87_09280	gltA	CITSYN-RXN
ASD87_10655	Unknown	DNA-LIGASE-NAD+-RXN;RXN-17918;RXN-17919;RXN-17920
ASD87_08635	Unknown	PEPTIDYLPROLYL-ISOMERASE-RXN
ASD87_14115	Unknown	ALARACECAT-RXN
ASD87_16680	Unknown	FUMHYDR-RXN
ASD87_21105	Unknown	ACYLPHOSPHATASE-RXN
ASD87_19940	Unknown	GLUCISOM-RXN;XYLISOM-RXN
ASD87_18590	Unknown	ARYLSULFATE-SULFOTRANSFERASE-RXN
ASD87_14770	Unknown	AMIDASE-RXN;GUANIDINOBUTANAMIDE-NH3-RXN;PYRAZIN-RXN;R311-RXN;RXN-14727;RXN-14728;RXN-17608;RXNN-404
ASD87_03500	Unknown	RXN0-5507
ASD87_07660	Unknown	DIHYDRODIPICSYN-RXN
ASD87_14570	Unknown	2.7.13.3-RXN
ASD87_22890	Unknown	GLYOXIII-RXN
ASD87_16020	Unknown	RXN0-5289;TSA-REDUCT-RXN
ASD87_02840	Unknown	RXN-13039;RXN-17127;RXN-8654;RXN-8655;RXN0-1141;RXN0-5098
ASD87_26395	Unknown	2.7.13.3-RXN
ASD87_07305	Unknown	ATPASE-RXN
ASD87_07075	Unknown	NAPHTHALENE-12-DIOXYGENASE-RXN
ASD87_17110	Unknown	RXN0-2621
ASD87_01840	Unknown	1.2.4.4-RXN;2.3.1.168-RXN;KETOISOCAPROATE-RXN;METHYLVALERATE-RXN;RXN-7790
ASD87_19785	Unknown	RXN0-5100
ASD87_09665	Unknown	ASPARTATE-4-DECARBOXYLASE-RXN
ASD87_11570	Unknown	2.7.13.3-RXN
ASD87_16710	Unknown	HISTALDEHYD-RXN;HISTOLDEHYD-RXN;RXN-8001
ASD87_03140	Unknown	2.7.13.3-RXN
ASD87_16150	Unknown	GABATRANSAM-RXN;RXN-2901
ASD87_08520	Unknown	1.6.99.5-RXN;NADH-DEHYDROGENASE-QUINONE-RXN
ASD87_25675	gltD	GLUTAMATESYN-RXN;GLUTAMIN-RXN;GLUTDEHYD-RXN
ASD87_03595	Unknown	GPPSYN-RXN
ASD87_13790	putA	PYRROLINECARBDEHYDROG-RXN;RXN-14116;RXN-14903;RXN0-7008
ASD87_20760	Unknown	3-HYDROXYBUTYRYL-COA-DEHYDROGENASE-RXN
ASD87_15805	Unknown	PGPPHOSPHA-RXN;RXN-13313
ASD87_00380	Unknown	HISTAMINOTRANS-RXN
ASD87_18980	Unknown	R125-RXN
ASD87_04785	Unknown	2.7.13.3-RXN
ASD87_14075	Unknown	KDO-8PSYNTH-RXN
ASD87_11410	Unknown	CYTOCHROME-C-OXIDASE-RXN;RXN-15830
ASD87_09320	Unknown	2OXOGLUTARATEDEH-RXN;2OXOGLUTDECARB-RXN;RXN-7716;RXN0-1147
ASD87_13995	Unknown	FADSYN-RXN;RIBOFLAVINKIN-RXN;RXN-18510;RXN-18511
ASD87_08570	Unknown	2.7.7.60-RXN
ASD87_20385	Unknown	PANTOATE-BETA-ALANINE-LIG-RXN
ASD87_18680	Unknown	TRANSALDOL-RXN
ASD87_01575	Unknown	DIHYDROXYISOVALDEHYDRAT-RXN;DIHYDROXYMETVALDEHYDRAT-RXN
ASD87_00190	Unknown	R102-RXN
ASD87_18265	Unknown	PHOSGLYPHOS-RXN
ASD87_17475	Unknown	CARBODEHYDRAT-RXN;RXN0-5224
ASD87_11495	Unknown	RXN0-5289;TSA-REDUCT-RXN
ASD87_00795	Unknown	2.7.3.9-RXN;RXN-17354;RXN-17355
ASD87_05740	Unknown	CATAL-RXN;RXN-14189;RXN66-1
ASD87_11475	Unknown	GAMMA-GLUTAMYLTRANSFERASE-RXN;RXN-18092;RXN-6601;RXN-9157;RXN66-336
ASD87_19435	Unknown	MALSYN-RXN
ASD87_24195	Unknown	RXN-15122;THREDEHYD-RXN
ASD87_06310	Unknown	N-ACETYLGLUTPREDUCT-RXN;RXN-15006
ASD87_25120	Unknown	RXN0-7023
ASD87_10270	Unknown	OHMETHYLBILANESYN-RXN
ASD87_23655	Unknown	RXN-17884;RXN-2962
ASD87_23565	Unknown	1.17.1.1-RXN
ASD87_05350	Unknown	RXN0-5131
ASD87_12750	Unknown	ACYLCOADEHYDROG-RXN;RXN-17775;RXN-17779;RXN-17783;RXN-17784;RXN-17788;RXN-17792;RXN-17796
ASD87_03430	Unknown	DNA-DIRECTED-DNA-POLYMERASE-RXN;RXN0-4961
ASD87_00345	Unknown	RXN-11586
ASD87_01595	Unknown	3-OXOACYL-ACP-REDUCT-RXN
ASD87_07035	Unknown	FMNREDUCT-RXN;NADPH-DEHYDROGENASE-FLAVIN-RXN;RXN-12444
ASD87_21285	Unknown	FMNREDUCT-RXN;NADPH-DEHYDROGENASE-FLAVIN-RXN;RXN-12444
ASD87_02885	Unknown	DEOXYRIBODIPYRIMIDINE-PHOTOLYASE-RXN;RXN-19025;RXN-19026;RXN-19242;RXN-19243;RXN-19244;RXN-19245;RXN-19246;RXN-19247;RXN-19248
ASD87_19540	Unknown	DTDPDEHYDRHAMEPIM-RXN
ASD87_18155	Unknown	2.7.13.3-RXN
ASD87_25480	Unknown	CHLORIDE-PEROXIDASE-RXN
ASD87_12915	Unknown	3.2.1.52-RXN;RXN-12625;RXN-12626;RXN-18082;RXN0-5226
ASD87_04875	Unknown	ARYLSULFAT-RXN
ASD87_22485	Unknown	GLYCERATE-DEHYDROGENASE-RXN;HYDROXYPYRUVATE-REDUCTASE-RXN;RXN0-300
ASD87_25250	Unknown	RXN-11328;RXN-16750
ASD87_22715	Unknown	ACETYL-COA-ACETYLTRANSFER-RXN;METHYLACETOACETYLCOATHIOL-RXN;RXN-12561
ASD87_25785	hisI	HISTCYCLOHYD-RXN
ASD87_22600	Unknown	2.6.1.57-RXN;PHEAMINOTRANS-RXN;RXN-14147;RXN-15200;TRYPTOPHAN-AMINOTRANSFERASE-RXN;TYROSINE-AMINOTRANSFERASE-RXN
ASD87_08505	Unknown	1.6.99.5-RXN;NADH-DEHYDROGENASE-QUINONE-RXN
ASD87_18015	Unknown	1.11.1.15-RXN;RXN0-5468
ASD87_23420	Unknown	ANTHRANSYN-RXN
ASD87_10705	Unknown	DNA-LIGASE-ATP-RXN;RXN-17917;RXN-17918;RXN-17919
ASD87_15785	Unknown	DIOHBUTANONEPSYN-RXN
ASD87_23415	Unknown	ANTHRANSYN-RXN
ASD87_10445	Unknown	RXN0-5131
ASD87_12910	Unknown	HOLO-ACP-SYNTH-RXN
ASD87_15380	Unknown	GCVP-RXN
ASD87_20405	glpK	GLYCEROL-KIN-RXN
ASD87_10310	Unknown	R4-RXN
ASD87_11375	Unknown	2-NITROPROPANE-DIOXYGENASE-RXN
ASD87_07935	Unknown	RXN-15122;THREDEHYD-RXN
ASD87_06875	Unknown	ACYLCOASYN-RXN;LINOLENOYL-RXN;R223-RXN;RXN-12184;RXN-12978;RXN-13290;RXN-13614;RXN-16380;RXN-16389;RXN-16393;RXN-16401;RXN-16402;RXN-16415;RXN-16418;RXN-7904;RXN-9623;RXN-9644;RXN-9673;RXN0-7238;RXN0-7239;RXN0-7248;RXN66-469;RXN66-477;RXN66-480;RXN66-483;RXN66-484;TRANS-RXN0-623
ASD87_16880	Unknown	2.7.13.3-RXN
ASD87_10055	Unknown	DXS-RXN
ASD87_20015	Unknown	RXN0-2584
ASD87_21065	gyrB	5.99.1.3-RXN
ASD87_10400	Unknown	PYRNUTRANSHYDROGEN-RXN;TRANS-RXN0-277
ASD87_09700	Unknown	1.8.4.8-RXN
ASD87_18675	Unknown	4-CARBOXYMUCONOLACTONE-DECARBOXYLASE-RXN
ASD87_17860	Unknown	GLUTRACE-RXN
ASD87_18430	Unknown	SAICARSYN-RXN
ASD87_07290	Unknown	RXN0-4261
ASD87_18620	Unknown	DNA-DIRECTED-DNA-POLYMERASE-RXN
ASD87_13980	Unknown	RXN-11781
ASD87_17600	Unknown	2.7.13.3-RXN
ASD87_10050	Unknown	FPPSYN-RXN
ASD87_08820	Unknown	DIHYDRODIPICSYN-RXN
ASD87_14330	Unknown	GLYCERATE-DEHYDROGENASE-RXN;HYDROXYPYRUVATE-REDUCTASE-RXN
ASD87_17395	Unknown	GLYOXIII-RXN
ASD87_11125	Unknown	FUMHYDR-RXN
ASD87_07315	Unknown	4.3.1.17-RXN;RXN-15122;RXN-15125;THREDEHYD-RXN
ASD87_09260	Unknown	RXN-14971;RXN-15378;SUCCINATE-DEHYDROGENASE-UBIQUINONE-RXN
ASD87_02125	Unknown	3.4.24.70-RXN
ASD87_08455	Unknown	ACID-PHOSPHATASE-RXN;RXN-5822
ASD87_14290	Unknown	PEPTIDYLPROLYL-ISOMERASE-RXN
ASD87_11895	Unknown	DIHYDRODIPICSYN-RXN
ASD87_10540	leuS	LEUCINE--TRNA-LIGASE-RXN
ASD87_09550	Unknown	GPH-RXN
ASD87_20475	Unknown	OHMETPYRKIN-RXN;PYRIMSYN3-RXN
ASD87_09060	Unknown	ACETATE--COA-LIGASE-RXN;RXN-18446;RXN-18447;RXN-18448
ASD87_24620	Unknown	3-OXOACYL-ACP-REDUCT-RXN;RXN-10060;RXN-10655;RXN-10659;RXN-11476;RXN-11480;RXN-13008;RXN-16616;RXN-16622;RXN-16626;RXN-16630;RXN-9514;RXN-9518;RXN-9524;RXN-9528;RXN-9532;RXN-9536;RXN-9540;RXN-9552;RXN-9556;RXN-9633;RXN0-2142;RXN1G-157;RXN1G-349;RXN1G-469;RXN1G-508
ASD87_06195	Unknown	CHLORIDE-PEROXIDASE-RXN
ASD87_23055	Unknown	PALMITOYL-COA-HYDROLASE-RXN
ASD87_08800	Unknown	ACETYL-COA-CARBOXYLTRANSFER-RXN;RXN0-5055
ASD87_09565	Unknown	5.99.1.3-RXN
ASD87_05275	Unknown	2.7.13.3-RXN
ASD87_00625	Unknown	3-ISOPROPYLMALDEHYDROG-RXN;RXN-13158;RXN-14986;RXN-18200;RXN-18202;RXN-18204;RXN-18206;RXN-18208;RXN-18210;RXNQT-4165;RXNQT-4168;RXNQT-4171;RXNQT-4174;RXNQT-4178
ASD87_01630	Unknown	ACYLCOASYN-RXN;LINOLENOYL-RXN;R223-RXN;RXN-12184;RXN-12702;RXN-12746;RXN-12978;RXN-13290;RXN-13614;RXN-16380;RXN-16389;RXN-16393;RXN-16401;RXN-16402;RXN-16415;RXN-16418;RXN-7904;RXN-9623;RXN-9644;RXN-9673;RXN0-7238;RXN0-7239;RXN0-7248;RXN66-469;RXN66-477;RXN66-480;RXN66-483;RXN66-484;TRANS-RXN0-623
ASD87_20250	Unknown	RXN-11740
ASD87_00125	Unknown	NQOR-RXN
ASD87_12735	Unknown	ENOYL-COA-HYDRAT-RXN;METHYLACYLYLCOA-HYDROXY-RXN;RXN-10697;RXN-10704;RXN-10705;RXN-11244;RXN-12567;RXN-13616;RXN-14266;RXN-14272;RXN-14273;RXN-16135;RXN-16558;RXN-17114;RXN-17475;RXN-17776;RXN-17780;RXN-17785;RXN-17789;RXN-17793;RXN-17797;RXN-2425;RXN0-5393;TIGLYLCOA-HYDROXY-RXN
ASD87_05850	Unknown	CARBODEHYDRAT-RXN;RXN0-5224
ASD87_07170	Unknown	ACETYL-COA-ACETYLTRANSFER-RXN;METHYLACETOACETYLCOATHIOL-RXN;RXN-12561
ASD87_07105	Unknown	RXN0-2621
ASD87_14740	Unknown	3-ISOPROPYLMALDEHYDROG-RXN;RXN-13158;RXN-14986;RXN-18200;RXN-18202;RXN-18204;RXN-18206;RXN-18208;RXN-18210;RXNQT-4165;RXNQT-4168;RXNQT-4171;RXNQT-4174;RXNQT-4178
ASD87_12380	Unknown	RXN-13179
ASD87_22605	Unknown	RXN0-2621
ASD87_25755	Unknown	HISTALDEHYD-RXN;HISTOLDEHYD-RXN;RXN-8001
ASD87_12560	Unknown	PGLUCISOM-RXN
ASD87_24670	Unknown	NADPH-DEHYDROGENASE-FLAVIN-RXN
ASD87_17375	Unknown	2-HALOACID-DEHALOGENASE-RXN;3.8.1.11-RXN;RXN-6263;RXN-6264
ASD87_05530	Unknown	SUPEROX-DISMUT-RXN
ASD87_05310	Unknown	RXN-15122;THREDEHYD-RXN
ASD87_26095	Unknown	GLUTAMINESYN-RXN
ASD87_00550	Unknown	CHORISMATE-SYNTHASE-RXN
ASD87_24900	Unknown	ATPASE-RXN
ASD87_00415	Unknown	NICOTINATEPRIBOSYLTRANS-RXN
ASD87_15815	pyrF	OROTPDECARB-RXN
ASD87_08595	Unknown	2.7.13.3-RXN
ASD87_11945	Unknown	QOR-RXN
ASD87_08830	Unknown	3.1.26.12-RXN;RXN0-6478;RXN0-6485;RXN0-6521;RXN0-6522;RXN0-6523
ASD87_18995	Unknown	1TRANSKETO-RXN;2TRANSKETO-RXN
ASD87_08610	Unknown	DNA-DIRECTED-DNA-POLYMERASE-RXN;RXN0-4961
ASD87_21185	Unknown	5-OXOPROLINASE-ATP-HYDROLYSING-RXN
ASD87_21290	Unknown	NUCLEOSIDE-DEOXYRIBOSYLTRANSFERASE-RXN
ASD87_14385	Unknown	ASPAMINOTRANS-RXN;RXN-10814;RXN-11737;RXN-13697
ASD87_16730	Unknown	MHPELY-RXN
ASD87_07880	Unknown	3-HYDROXYBUTYRATE-DEHYDROGENASE-RXN
ASD87_10970	Unknown	ACONITATEDEHYDR-RXN;ACONITATEHYDR-RXN;RXN-14047
ASD87_13525	Unknown	RXN0-1382
ASD87_23985	Unknown	6.3.5.7-RXN
ASD87_25645	Unknown	3.1.4.17-RXN
ASD87_05175	Unknown	RXN0-5433
ASD87_06755	Unknown	3.5.1.27-RXN;3.5.1.88-RXN
ASD87_13150	Unknown	METHIONINE-GAMMA-LYASE-RXN;RXN-14301
ASD87_18770	Unknown	EXOPOLYPHOSPHATASE-RXN
ASD87_03215	Unknown	ADENPHOSPHOR-RXN;DEOXYADENPHOSPHOR-RXN;DEOXYGUANPHOSPHOR-RXN;DEOXYINOPHOSPHOR-RXN;INOPHOSPHOR-RXN;PNP-RXN;RXN-11715;RXN-11743;RXN-14029;RXN-7001;RXN0-5199;XANTHOSINEPHOSPHORY-RXN
ASD87_01365	Unknown	4.1.1.32-RXN;RXN-12481
ASD87_07345	Unknown	RXN0-1281
ASD87_11395	Unknown	UROCANATE-HYDRATASE-RXN
ASD87_11265	Unknown	R524-RXN;RXN-12893
ASD87_19605	Unknown	UDPGLUCEPIM-RXN
ASD87_22495	Unknown	RXN0-5375
ASD87_20810	Unknown	SUCCGLUDESUCC-RXN
ASD87_12940	Unknown	RXN0-4022
ASD87_00340	Unknown	CDPKIN-RXN;DADPKIN-RXN;DCDPKIN-RXN;DGDPKIN-RXN;DTDPKIN-RXN;DUDPKIN-RXN;GDPKIN-RXN;NUCLEOSIDE-DIP-KIN-RXN;RXN-14120;RXN-14228;UDPKIN-RXN
ASD87_13700	Unknown	TETRAACYLDISACC4KIN-RXN
ASD87_04855	Unknown	GLUCONOLACT-RXN;RXN-8783
ASD87_03705	Unknown	RXN-15849;RXN-7563
ASD87_25765	Unknown	IMIDPHOSDEHYD-RXN
ASD87_16230	Unknown	ARGSUCCINLYA-RXN;RXN-22
ASD87_10680	Unknown	QOR-RXN
ASD87_18390	Unknown	GAMMA-GLUTAMYLTRANSFERASE-RXN;RXN-18092;RXN-6601;RXN-9157;RXN66-336
ASD87_10405	Unknown	N-FORMYLGLUTAMATE-DEFORMYLASE-RXN
ASD87_23075	Unknown	UDPNACETYLGLUCOSAMENOLPYRTRANS-RXN
ASD87_14025	Unknown	CHORISMATEMUT-RXN
ASD87_21115	lldD	L-LACTATE-DEHYDROGENASE-CYTOCHROME-RXN
ASD87_05245	Unknown	ASPAMINOTRANS-RXN;RXN-10814;RXN-11737;RXN-13697
ASD87_20010	Unknown	RXN-11109
ASD87_09575	Unknown	CHORISMATEMUT-RXN
ASD87_14190	Unknown	1.14.11.18-RXN;RXN66-470
ASD87_00535	Unknown	2.7.13.3-RXN
ASD87_24280	Unknown	2-HALOACID-DEHALOGENASE-RXN;3.8.1.11-RXN;RXN-6263;RXN-6264
ASD87_00355	ispG	RXN0-882
ASD87_19400	Unknown	HYDROXY-MANDELATE-RACEMASE-RXN;MANDELATE-RACEMASE-RXN
ASD87_07825	Unknown	CYTDEAM-RXN;RXN-14129;RXN-14197
ASD87_02535	Unknown	ACYLCOADEHYDROG-RXN;RXN-17775;RXN-17779;RXN-17783;RXN-17784;RXN-17788;RXN-17792;RXN-17796
ASD87_08560	Unknown	PSERPHOSPHA-RXN;RXN0-5114
ASD87_25275	Unknown	RXN-982
ASD87_11350	Unknown	CITRAMALATE-LYASE-RXN
ASD87_09415	Unknown	RXN0-4261
ASD87_09805	Unknown	RXN-10819
ASD87_14805	Unknown	ENOYL-COA-HYDRAT-RXN;METHYLACYLYLCOA-HYDROXY-RXN;RXN-10697;RXN-10704;RXN-10705;RXN-11244;RXN-12567;RXN-13616;RXN-14266;RXN-14272;RXN-14273;RXN-16135;RXN-16558;RXN-17114;RXN-17475;RXN-17776;RXN-17780;RXN-17785;RXN-17789;RXN-17793;RXN-17797;RXN-2425;RXN0-5393;TIGLYLCOA-HYDROXY-RXN
ASD87_18910	Unknown	RXN1A0-6303
ASD87_24540	Unknown	3-OXOADIPATE-COA-TRANSFERASE-RXN;RXN-10085
ASD87_21430	argD	ACETYLORNTRANSAM-RXN;RXN-15007
ASD87_24560	Unknown	3-OXOADIPATE-ENOL-LACTONASE-RXN;RXN-10083
ASD87_09985	Unknown	MERCAPYSTRANS-RXN;RXN-18702;RXN-18703;RXN0-6945
ASD87_05715	Unknown	RNTRACTIV-RXN
ASD87_19870	Unknown	3-ISOPROPYLMALISOM-RXN;R-2-METHYLMALATE-DEHYDRATASE-RXN;RXN-13163;RXN-7744;RXN-8991
ASD87_13960	Unknown	3.4.13.21-RXN
ASD87_13295	Unknown	RXN0-5131
ASD87_13715	Unknown	3.1.11.6-RXN
ASD87_09830	Unknown	ARYLFORMAMIDASE-RXN;RXN-17150
ASD87_04060	Unknown	3-OXOACYL-ACP-REDUCT-RXN;RXN-10060;RXN-10655;RXN-10659;RXN-11476;RXN-11480;RXN-13008;RXN-16616;RXN-16622;RXN-16626;RXN-16630;RXN-9514;RXN-9518;RXN-9524;RXN-9528;RXN-9532;RXN-9536;RXN-9540;RXN-9552;RXN-9556;RXN-9633;RXN0-2142;RXN1G-157;RXN1G-349;RXN1G-469;RXN1G-508
ASD87_19895	Unknown	ADENOSYLHOMOCYSTEINASE-RXN
ASD87_14050	Unknown	SUCCINYLDIAMINOPIMTRANS-RXN
ASD87_13990	Unknown	ISOLEUCINE--TRNA-LIGASE-RXN
ASD87_06950	Unknown	AIRS-RXN
ASD87_06890	Unknown	1.3.1.62-RXN
ASD87_23980	Unknown	6.3.5.7-RXN
ASD87_09360	Unknown	RXN0-1147
ASD87_21110	Unknown	1.14.11.18-RXN;RXN66-470
ASD87_18465	Unknown	3-OXOADIPATE-COA-TRANSFERASE-RXN;RXN-10085
ASD87_09590	Unknown	2.5.1.19-RXN
ASD87_10855	Unknown	ADOMET-DMK-METHYLTRANSFER-RXN
ASD87_07680	Unknown	2.7.13.3-RXN
ASD87_22315	Unknown	2.4.1.109-RXN
ASD87_19355	Unknown	GSHTRAN-RXN;GST-RXN;RXN-11663;RXN-13673;RXN-15680;RXN-18405;RXN-18407;RXNQT-4363
ASD87_07310	Unknown	RXN0-4261
ASD87_02570	Unknown	PRPPAMIDOTRANS-RXN
ASD87_14925	Unknown	ACETATE--COA-LIGASE-RXN;RXN-18446;RXN-18447;RXN-18448
ASD87_12435	Unknown	ACETYL-COA-ACETYLTRANSFER-RXN;METHYLACETOACETYLCOATHIOL-RXN;RXN-12561
ASD87_15350	Unknown	LYSDECARBOX-RXN
ASD87_04400	Unknown	PHOSPHASERDECARB-RXN
ASD87_12535	Unknown	GDPMANMANHYDRO-RXN
ASD87_00885	Unknown	SUCCGLUDESUCC-RXN
ASD87_08840	Unknown	2-HALOACID-DEHALOGENASE-RXN;3.8.1.11-RXN;RXN-6263;RXN-6264
ASD87_05900	Unknown	ACETYLHOMOSER-CYS-RXN;O-ACETYLHOMOSERINE-THIOL-LYASE-RXN
ASD87_15575	Unknown	ARYLSULFAT-RXN
ASD87_07560	Unknown	PROTOHEMEFERROCHELAT-RXN
ASD87_20670	Unknown	GLUTCYSLIG-RXN
ASD87_07285	Unknown	CYTOCHROME-C-OXIDASE-RXN;RXN-15830
ASD87_12150	Unknown	CYSTEINE--TRNA-LIGASE-RXN
ASD87_19185	Unknown	SUCCINATE-SEMIALDEHYDE-DEHYDROGENASE-RXN
ASD87_09860	Unknown	2.7.13.3-RXN
ASD87_12690	Unknown	ACONITATEDEHYDR-RXN;ACONITATEHYDR-RXN;RXN-14047
ASD87_04790	Unknown	2.7.13.3-RXN
ASD87_13115	ampC	BETA-LACTAMASE-RXN
ASD87_23470	Unknown	2.7.9.3-RXN
ASD87_20410	Unknown	1.2.7.8-RXN
ASD87_03975	Unknown	AMIDASE-RXN;GUANIDINOBUTANAMIDE-NH3-RXN;PYRAZIN-RXN;R311-RXN;RXN-14727;RXN-14728;RXN-17608;RXNN-404
ASD87_03115	Unknown	1.8.4.12-RXN
ASD87_15655	Unknown	AMINOCYL-TRNA-HYDROLASE-RXN;RXN-16637
ASD87_10390	Unknown	NAD-SYNTH-GLN-RXN;NAD-SYNTH-NH3-RXN
ASD87_04905	Unknown	2.7.13.3-RXN
ASD87_13355	Unknown	1.11.1.15-RXN;RXN0-5468
ASD87_22115	Unknown	PROTEIN-KINASE-RXN
ASD87_08900	Unknown	RXN-17155
ASD87_24860	Unknown	4-CARBOXYMUCONOLACTONE-DECARBOXYLASE-RXN
ASD87_10625	Unknown	RXN-8529
ASD87_21895	Unknown	RXN-17155
ASD87_18440	Unknown	RXN0-743
ASD87_24275	Unknown	PMPOXI-RXN;PNPOXI-RXN
ASD87_23410	Unknown	GPH-RXN
ASD87_09095	Unknown	RXNI-2
ASD87_13550	Unknown	RXN-12263;RXN-13162;RXN-13724;RXN66-281
ASD87_26100	Unknown	HISTIDPHOS-RXN
ASD87_01655	Unknown	DIMETHYLGLYCINE-DEHYDROGENASE-RXN
ASD87_23950	Unknown	GLUTAMATE-DEHYDROGENASE-NADP+-RXN;GLUTAMATE-DEHYDROGENASE-RXN;GLUTDEHYD-RXN
ASD87_01610	Unknown	RXN0-1441
ASD87_09200	Unknown	LIPIDXSYNTHESIS-RXN
ASD87_00405	hisZ	ATPPHOSPHORIBOSYLTRANS-RXN
ASD87_03665	Unknown	3.2.1.3-RXN;RXN-9024
ASD87_00565	Unknown	2.3.2.13-RXN;RXN-19236
ASD87_14895	Unknown	ARGSUCCINLYA-RXN;RXN-22
ASD87_09240	prpB	METHYLISOCITRATE-LYASE-RXN
ASD87_21640	Unknown	AMIDASE-RXN;GUANIDINOBUTANAMIDE-NH3-RXN;PYRAZIN-RXN;R311-RXN;RXN-14727;RXN-14728;RXN-17608;RXNN-404
ASD87_06335	Unknown	R4-RXN
ASD87_26240	Unknown	ATPASE-RXN
ASD87_09370	Unknown	ATPASE-RXN
ASD87_19325	Unknown	DIAMINOPIMDECARB-RXN
ASD87_26045	Unknown	5.3.3.10-RXN
ASD87_01115	Unknown	RXN-17155
ASD87_19715	Unknown	DTDPDEHYRHAMREDUCT-RXN
ASD87_22710	Unknown	ACYLCOASYN-RXN;LINOLENOYL-RXN;R223-RXN;RXN-12184;RXN-12978;RXN-13290;RXN-13614;RXN-16380;RXN-16389;RXN-16393;RXN-16401;RXN-16402;RXN-16415;RXN-16418;RXN-7904;RXN-9623;RXN-9644;RXN-9673;RXN0-7238;RXN0-7239;RXN0-7248;RXN66-469;RXN66-477;RXN66-480;RXN66-483;RXN66-484;TRANS-RXN0-623
ASD87_21270	Unknown	2-DEHYDROPANTOATE-REDUCT-RXN
ASD87_20870	Unknown	RXN-10642;UROGENDECARBOX-RXN
ASD87_23670	Unknown	RXN0-5462
ASD87_21525	Unknown	METHYLCROTONYL-COA-CARBOXYLASE-RXN
ASD87_05910	Unknown	ATPSYN-RXN
ASD87_09235	Unknown	2-METHYLCITRATE-SYNTHASE-RXN
ASD87_19875	Unknown	3-ISOPROPYLMALISOM-RXN;RXN-13163;RXN-8991
ASD87_07435	Unknown	5.3.4.1-RXN
ASD87_10275	Unknown	UROGENIIISYN-RXN
ASD87_09935	Unknown	RXN-8529
ASD87_01410	Unknown	3.2.2.15-RXN
ASD87_19795	Unknown	DIAMINOPIMEPIM-RXN
ASD87_05430	Unknown	MCPMETEST-RXN
ASD87_10190	Unknown	ASPCARBTRANS-RXN
ASD87_16855	Unknown	MUCONATE-CYCLOISOMERASE-RXN
ASD87_15000	Unknown	3-ISOPROPYLMALISOM-RXN;RXN-13163;RXN-8991
ASD87_18760	glmM	5.4.2.10-RXN;RXN-16424;RXN0-7139
ASD87_18515	Unknown	4-HYDROXYBENZOATE--COA-LIGASE-RXN
ASD87_04370	Unknown	ARGINASE-RXN;RXN-34
ASD87_16845	Unknown	HYDROXY-MANDELATE-RACEMASE-RXN;MANDELATE-RACEMASE-RXN;MUCONATE-CYCLOISOMERASE-RXN
ASD87_09340	Unknown	ALLANTOINASE-RXN
ASD87_07905	Unknown	ACETOLACTREDUCTOISOM-RXN;ACETOOHBUTREDUCTOISOM-RXN
ASD87_23810	Unknown	SPERMIDINESYN-RXN
ASD87_15885	Unknown	RXN0-1061
ASD87_00205	Unknown	RXN-18394
ASD87_20275	Unknown	2.7.13.3-RXN
ASD87_26325	Unknown	HOMOCYSMET-RXN;RXN-12730
ASD87_22535	Unknown	RXN0-20
ASD87_01050	Unknown	2.3.1.41-RXN;3-OXOACYL-ACP-SYNTH-BASE-RXN;3-OXOACYL-ACP-SYNTH-RXN;RXN-10059;RXN-10654;RXN-10658;RXN-11474;RXN-11479;RXN-16615;RXN-16621;RXN-16625;RXN-16629;RXN-9516;RXN-9523;RXN-9527;RXN-9531;RXN-9535;RXN-9539;RXN-9632;RXN-9648;RXN-9650;RXN-9651;RXN-9652;RXN-9653;RXN-9654;RXN0-2141;RXN1G-368;RXN1G-445;RXN1G-460;RXN1G-499;RXN3O-1803
ASD87_01780	Unknown	RIBOFLAVIN-SYN-RXN
ASD87_21375	Unknown	ALARACECAT-RXN
ASD87_03670	Unknown	ACYLCOADEHYDROG-RXN;RXN-17775;RXN-17779;RXN-17783;RXN-17784;RXN-17788;RXN-17792;RXN-17796
ASD87_04305	Unknown	3.5.1.81-RXN
ASD87_06115	Unknown	FUMARYLACETOACETASE-RXN
ASD87_18100	Unknown	ACID-PHOSPHATASE-RXN;RXN-5822
ASD87_15585	Unknown	FUMARYLACETOACETASE-RXN
ASD87_20045	Unknown	POLYPHOSPHATE-KINASE-RXN
ASD87_10045	Unknown	3.1.11.6-RXN
ASD87_23740	dkgB	1.1.1.274-RXN
ASD87_11380	Unknown	IMIDAZOLONEPROPIONASE-RXN
ASD87_14275	Unknown	3-OXOACYL-ACP-REDUCT-RXN
ASD87_18940	Unknown	3-OXOACYL-ACP-REDUCT-RXN
ASD87_25305	Unknown	RIB5PISOM-RXN
ASD87_10695	Unknown	DAHPSYN-RXN
ASD87_04885	Unknown	RXN1-42
ASD87_11970	Unknown	FMNREDUCT-RXN;NADPH-DEHYDROGENASE-FLAVIN-RXN;RXN-12444
ASD87_03395	Unknown	ASPAMINOTRANS-RXN;RXN-10814;RXN-11737;RXN-13697
ASD87_26115	Unknown	CYSTATHIONINE-BETA-LYASE-RXN;RXN-15131
ASD87_09190	Unknown	CARBODEHYDRAT-RXN;RXN0-5224
ASD87_00135	Unknown	GLUTAMINESYN-RXN
ASD87_15440	Unknown	DIHYDROFOLATEREDUCT-RXN;RXN-18357
ASD87_10215	Unknown	2.7.13.3-RXN
ASD87_18975	Unknown	OHACYL-COA-DEHYDROG-RXN;RXN-10698;RXN-10702;RXN-10703;RXN-11245;RXN-11662;RXN-12490;RXN-12570;RXN-12705;RXN-12750;RXN-16133;RXN-17777;RXN-17781;RXN-17786;RXN-17790;RXN-17794;RXN-17798;RXN0-2044
ASD87_09185	Unknown	RXN0-1061
ASD87_04425	Unknown	DAHPSYN-RXN
ASD87_12990	Unknown	CYTOCHROME-C-OXIDASE-RXN;RXN-15830
ASD87_08965	Unknown	THRESYN-RXN
ASD87_20320	argJ	GLUTAMATE-N-ACETYLTRANSFERASE-RXN;N-ACETYLTRANSFER-RXN;RXN0-6948
ASD87_24100	Unknown	PROTEIN-KINASE-RXN
ASD87_00390	Unknown	RXN0-5462
ASD87_13540	Unknown	4-CARBOXYMUCONOLACTONE-DECARBOXYLASE-RXN
ASD87_05635	Unknown	AMIDASE-RXN;GUANIDINOBUTANAMIDE-NH3-RXN;PYRAZIN-RXN;R311-RXN;RXN-14727;RXN-14728;RXN-17608;RXNN-404
ASD87_13655	Unknown	DIAMINOPIMDECARB-RXN
ASD87_05920	Unknown	DIHYDROXYISOVALDEHYDRAT-RXN;DIHYDROXYMETVALDEHYDRAT-RXN
ASD87_09085	Unknown	1.5.5.1-RXN;RXN66-550
ASD87_19340	Unknown	SHIKIMATE-KINASE-RXN
ASD87_12585	gabD	RXN0-5293;SUCCINATE-SEMIALDEHYDE-DEHYDROGENASE-RXN
ASD87_22980	Unknown	2.1.1.79-RXN;RXN-7421;RXN1G-2544;RXN1G-3641
ASD87_05860	Unknown	2.7.13.3-RXN
ASD87_06935	Unknown	POLYNUCLEOTIDE-ADENYLYLTRANSFERASE-RXN
ASD87_06635	Unknown	ARYLSULFAT-RXN
ASD87_02665	Unknown	LIPIDADISACCHARIDESYNTH-RXN
ASD87_15645	Unknown	PRPPSYN-RXN
ASD87_19465	Unknown	2-AMINOADIPATE-AMINOTRANSFERASE-RXN
ASD87_07335	purH	AICARTRANSFORM-RXN;IMPCYCLOHYDROLASE-RXN
ASD87_26040	Unknown	MALEYLACETOACETATE-ISOMERASE-RXN
ASD87_06835	Unknown	4.2.1.107-RXN;RXN-9847
ASD87_08905	Unknown	2.3.1.179-RXN;2.3.1.41-RXN;3-OXOACYL-ACP-SYNTH-BASE-RXN;3-OXOACYL-ACP-SYNTH-RXN;RXN-10654;RXN-10658;RXN-11474;RXN-11479;RXN-16615;RXN-16621;RXN-16625;RXN-16629;RXN-8391;RXN-9516;RXN-9523;RXN-9527;RXN-9531;RXN-9535;RXN-9539;RXN0-2141;RXN1G-460;RXN3O-1803
ASD87_18550	Unknown	3.4.21.89-RXN
ASD87_04635	Unknown	BIOTIN-CARBOXYL-RXN;RXN0-5055
ASD87_03920	Unknown	3.4.17.11-RXN
ASD87_05490	Unknown	ACYLCOASYN-RXN;LINOLENOYL-RXN;R223-RXN;RXN-12184;RXN-12702;RXN-12746;RXN-12978;RXN-13290;RXN-13614;RXN-16380;RXN-16389;RXN-16393;RXN-16401;RXN-16402;RXN-16415;RXN-16418;RXN-7904;RXN-9623;RXN-9644;RXN-9673;RXN0-7238;RXN0-7239;RXN0-7248;RXN66-469;RXN66-477;RXN66-480;RXN66-483;RXN66-484;TRANS-RXN0-623
ASD87_18570	Unknown	RXN0-5100
ASD87_02895	Unknown	1.11.1.15-RXN;RXN0-5468
ASD87_12310	Unknown	R4-RXN
ASD87_03010	Unknown	2.7.13.3-RXN
ASD87_07530	Unknown	RXN-14014
ASD87_03435	Unknown	DNA-DIRECTED-DNA-POLYMERASE-RXN;RXN0-4961
ASD87_23455	Unknown	RXNN-386
ASD87_06125	Unknown	CITSYN-RXN
ASD87_21300	Unknown	DIOHBUTANONEPSYN-RXN
ASD87_09405	Unknown	TRYPTOPHAN--TRNA-LIGASE-RXN
ASD87_20480	Unknown	2.1.1.77-RXN
ASD87_22505	Unknown	GAMMA-GLUTAMYLTRANSFERASE-RXN;RXN-18092;RXN-6601;RXN-9157;RXN66-336
ASD87_14525	Unknown	GALACTONDEHYDRAT-RXN
ASD87_22455	Unknown	PROLINE--TRNA-LIGASE-RXN
ASD87_22555	Unknown	4-HYDROXYPHENYLPYRUVATE-DIOXYGENASE-RXN;RXN-10815
ASD87_17185	Unknown	NICOTINATEPRIBOSYLTRANS-RXN
ASD87_16775	Unknown	1.13.11.41-RXN
ASD87_19855	Unknown	FMNREDUCT-RXN;NADPH-DEHYDROGENASE-FLAVIN-RXN;RXN-12444
ASD87_07470	Unknown	ARGINYLTRANSFERASE-RXN;RXN-17888;RXN-17889;RXN-17890;RXN-17891
ASD87_23100	Unknown	CYTIDEAM-RXN;CYTIDEAM2-RXN
ASD87_12755	Unknown	ACYLCOADEHYDROG-RXN;RXN-17775;RXN-17779;RXN-17783;RXN-17784;RXN-17788;RXN-17792;RXN-17796
ASD87_07735	Unknown	THIOREDOXIN-REDUCT-NADPH-RXN
ASD87_05505	Unknown	ACETYL-COA-ACETYLTRANSFER-RXN;METHYLACETOACETYLCOATHIOL-RXN;RXN-12561
ASD87_08630	ligA	DNA-LIGASE-NAD+-RXN;RXN-17918;RXN-17919;RXN-17920
ASD87_09795	Unknown	ENOYL-COA-HYDRAT-RXN;METHYLACYLYLCOA-HYDROXY-RXN;RXN-10697;RXN-10704;RXN-10705;RXN-11244;RXN-12567;RXN-13616;RXN-14266;RXN-14272;RXN-14273;RXN-16135;RXN-16558;RXN-17114;RXN-17475;RXN-17776;RXN-17780;RXN-17785;RXN-17789;RXN-17793;RXN-17797;RXN-2425;RXN0-5393;TIGLYLCOA-HYDROXY-RXN
ASD87_01415	Unknown	RXN-8358
ASD87_12580	Unknown	MYO-INOSITOL-1OR-4-MONOPHOSPHATASE-RXN;RXN-7253;RXN0-5408
ASD87_10240	Unknown	HOMOCYSMET-RXN
ASD87_25835	Unknown	1.10.2.2-RXN;RXN-15829
ASD87_20365	Unknown	DEPHOSPHOCOAKIN-RXN
ASD87_09345	Unknown	4.1.99.4-RXN;RXN-15149
ASD87_25515	Unknown	GSHTRAN-RXN;GST-RXN;RXN-11663;RXN-13673;RXN-15680;RXN-18405;RXN-18407;RXNQT-4363
ASD87_24710	Unknown	HYDROXY-MANDELATE-RACEMASE-RXN;MANDELATE-RACEMASE-RXN
ASD87_11120	Unknown	FUMHYDR-RXN
ASD87_03365	Unknown	2-OCTAPRENYL-6-OHPHENOL-METHY-RXN;DHHB-METHYLTRANSFER-RXN
ASD87_18295	Unknown	GSHTRAN-RXN;GST-RXN;RXN-11663;RXN-13673;RXN-15680;RXN-18405;RXN-18407;RXNQT-4363
ASD87_13725	Unknown	SUPEROX-DISMUT-RXN
ASD87_06765	Unknown	2.6.1.37-RXN
ASD87_08895	fabG	3-OXOACYL-ACP-REDUCT-RXN;RXN-10060;RXN-10655;RXN-10659;RXN-11476;RXN-11480;RXN-13008;RXN-16616;RXN-16622;RXN-16626;RXN-16630;RXN-9514;RXN-9518;RXN-9524;RXN-9528;RXN-9532;RXN-9536;RXN-9540;RXN-9552;RXN-9556;RXN-9633;RXN0-2142;RXN1G-157;RXN1G-349;RXN1G-469;RXN1G-508
ASD87_10140	Unknown	2-AMINOADIPATE-AMINOTRANSFERASE-RXN
ASD87_26165	Unknown	AMONITRO-RXN
ASD87_15100	Unknown	ADENOSYLHOMOCYSTEINE-NUCLEOSIDASE-RXN
ASD87_10435	Unknown	AICARSYN-RXN;AMPSYN-RXN
ASD87_22770	Unknown	3.1.21.1-RXN
ASD87_00065	Unknown	RXN0-1461
ASD87_01850	Unknown	PYRUVATEORTHOPHOSPHATE-DIKINASE-RXN
ASD87_04050	Unknown	DNA-DIRECTED-RNA-POLYMERASE-RXN
ASD87_14040	Unknown	SUCCDIAMINOPIMDESUCC-RXN
ASD87_02590	Unknown	URITRANS-RXN
ASD87_09740	Unknown	RXN0-5462
ASD87_15105	Unknown	ATPASE-RXN
ASD87_21505	Unknown	GLYOXIII-RXN
ASD87_10430	Unknown	GSHTRAN-RXN;GST-RXN;RXN-11663;RXN-13673;RXN-15680;RXN-18405;RXN-18407;RXNQT-4363
ASD87_01835	Unknown	1.2.1.25-RXN;1.2.4.4-RXN;2.3.1.168-RXN;2KETO-3METHYLVALERATE-RXN;2KETO-4METHYL-PENTANOATE-DEHYDROG-RXN;ISOVALERYLCOA-DHLIPOAMIDE-RXN;KETOISOCAPROATE-RXN;MBCOA-DHLIPOAMIDE-RXN;METHYLVALERATE-RXN;RXN-7719
ASD87_24250	Unknown	HYDROXYMETHYLGLUTARYL-COA-LYASE-RXN
ASD87_09025	Unknown	1.2.1.27-RXN;RXN-11213;RXN-2902
ASD87_22260	rnhA	3.1.26.4-RXN
ASD87_02610	Unknown	RXN-12002
ASD87_20790	Unknown	ENOYL-COA-HYDRAT-RXN;METHYLACYLYLCOA-HYDROXY-RXN;RXN-10697;RXN-10704;RXN-10705;RXN-11244;RXN-12567;RXN-13616;RXN-14266;RXN-14272;RXN-14273;RXN-16135;RXN-16558;RXN-17114;RXN-17475;RXN-17776;RXN-17780;RXN-17785;RXN-17789;RXN-17793;RXN-17797;RXN-2425;RXN0-5393;TIGLYLCOA-HYDROXY-RXN
ASD87_11155	Unknown	NQOR-RXN
ASD87_02630	Unknown	DXPREDISOM-RXN
ASD87_20230	Unknown	AMINOBENZCOALIG-RXN
ASD87_00930	Unknown	N-ACYLGLUCOSAMINE-2-EPIMERASE-RXN;R381-RXN;RXN-16006
ASD87_00500	Unknown	HOMOSERKIN-RXN
ASD87_20160	Unknown	OHMETPYRKIN-RXN;PYRIMSYN3-RXN
ASD87_04960	Unknown	ADOMET-DMK-METHYLTRANSFER-RXN
ASD87_25395	dnaE	DNA-DIRECTED-DNA-POLYMERASE-RXN
ASD87_03510	Unknown	AMINOCYL-TRNA-HYDROLASE-RXN;RXN-16637
ASD87_06740	Unknown	PEPDEPHOS-RXN;RXN-14117;RXN-14192;RXN-14207
ASD87_01855	Unknown	RXN0-5509;RXN0-6381
ASD87_10640	Unknown	ACETYL-COA-ACETYLTRANSFER-RXN;METHYLACETOACETYLCOATHIOL-RXN;RXN-12561
ASD87_23340	guaA	GLUTAMIN-RXN;GMP-SYN-GLUT-RXN;GMP-SYN-NH3-RXN
ASD87_01160	Unknown	RXN-14903;RXN0-7008
ASD87_03455	Unknown	3-OXOACYL-ACP-REDUCT-RXN;RXN-10060;RXN-10655;RXN-10659;RXN-11476;RXN-11480;RXN-13008;RXN-16616;RXN-16622;RXN-16626;RXN-16630;RXN-9514;RXN-9518;RXN-9524;RXN-9528;RXN-9532;RXN-9536;RXN-9540;RXN-9552;RXN-9556;RXN-9633;RXN0-2142;RXN1G-157;RXN1G-349;RXN1G-469;RXN1G-508
ASD87_21180	Unknown	5-OXOPROLINASE-ATP-HYDROLYSING-RXN
ASD87_15300	metG	METHIONINE--TRNA-LIGASE-RXN;RXN-16165
ASD87_26270	Unknown	FORMAMIDASE-RXN
ASD87_21520	Unknown	METHYLCROTONYL-COA-CARBOXYLASE-RXN
ASD87_09245	Unknown	MALATE-DEH-RXN
ASD87_00085	Unknown	RXN-8643;TARTRATE-DEHYDROGENASE-RXN
ASD87_04320	Unknown	GSHTRAN-RXN;GST-RXN;RXN-11663;RXN-13673;RXN-15680;RXN-18405;RXN-18407;RXNQT-4363
ASD87_15145	Unknown	4-CARBOXYMUCONOLACTONE-DECARBOXYLASE-RXN
ASD87_15260	Unknown	2.7.13.3-RXN
ASD87_19990	Unknown	5-FORMYL-THF-CYCLO-LIGASE-RXN
ASD87_12555	Unknown	PHOSMANMUT-RXN;PHOSPHOGLUCMUT-RXN;RXN-16997;RXN-16998
ASD87_01185	Unknown	GSHTRAN-RXN;GST-RXN;RXN-11663;RXN-13673;RXN-15680;RXN-18405;RXN-18407;RXNQT-4363
ASD87_18135	Unknown	RXN0-1342
ASD87_12165	Unknown	RXN-1961
ASD87_11290	Unknown	2.7.13.3-RXN
ASD87_21645	Unknown	2-ISOPROPYLMALATESYN-RXN
ASD87_17385	Unknown	GLUCOSE-1-DEHYDROGENASE-RXN
ASD87_21695	Unknown	RXN-11109
ASD87_11665	Unknown	2-HALOACID-DEHALOGENASE-RXN;3.8.1.11-RXN;RXN-6263;RXN-6264
ASD87_08515	Unknown	1.6.99.5-RXN;NADH-DEHYDROGENASE-QUINONE-RXN
ASD87_12415	Unknown	ACETYL-COA-ACETYLTRANSFER-RXN;METHYLACETOACETYLCOATHIOL-RXN;RXN-12561
ASD87_06780	Unknown	RXN0-4361
ASD87_00650	Unknown	PRAISOM-RXN
ASD87_04705	Unknown	R4-RXN
ASD87_24750	Unknown	GLUTRNAREDUCT-RXN
ASD87_20645	Unknown	RXN-11738
ASD87_20165	Unknown	RXN-12610;RXN-12611;THI-P-SYN-RXN
ASD87_09170	eno	2PGADEHYDRAT-RXN
ASD87_13935	Unknown	DUTP-PYROP-RXN
ASD87_24505	Unknown	RXN-12093
ASD87_05545	Unknown	2.7.13.3-RXN
ASD87_01965	Unknown	GAMMA-GLUTAMYLTRANSFERASE-RXN;RXN-18092;RXN-6601;RXN-9157;RXN66-336
ASD87_00950	Unknown	N-FORMYLGLUTAMATE-DEFORMYLASE-RXN
ASD87_05685	Unknown	GPH-RXN
ASD87_19695	Unknown	RXN-13037;RXN-13039;RXN-17127;RXN-8654;RXN-8655;RXN0-1141;RXN0-5098;RXN0-947
ASD87_01755	Unknown	3.1.11.2-RXN
ASD87_09580	Unknown	ASPAMINOTRANS-RXN;RXN-10814;RXN-11737;RXN-13697
ASD87_00505	Unknown	RXN0-1281
ASD87_22855	Unknown	R4-RXN
ASD87_22080	Unknown	TYROSINE--TRNA-LIGASE-RXN
ASD87_09970	Unknown	4.3.1.17-RXN;RXN-15125
ASD87_06285	Unknown	2.7.13.3-RXN
ASD87_09255	Unknown	RXN-14971;RXN-15378;SUCCINATE-DEHYDROGENASE-UBIQUINONE-RXN
ASD87_09750	Unknown	3.1.13.3-RXN
ASD87_18205	Unknown	3-OCTAPRENYL-4-OHBENZOATE-DECARBOX-RXN
ASD87_19475	Unknown	DIHYDRODIPICSYN-RXN
ASD87_21490	Unknown	PRODISULFREDUCT-RXN;RXN0-7271
ASD87_03025	Unknown	RXN-19040;RXN0-6359;THIOSULFATE-SULFURTRANSFERASE-RXN
ASD87_17840	Unknown	3-OXOACYL-ACP-REDUCT-RXN;RXN-10060;RXN-10655;RXN-10659;RXN-11476;RXN-11480;RXN-13008;RXN-16616;RXN-16622;RXN-16626;RXN-16630;RXN-9514;RXN-9518;RXN-9524;RXN-9528;RXN-9532;RXN-9536;RXN-9540;RXN-9552;RXN-9556;RXN-9633;RXN0-2142;RXN1G-157;RXN1G-349;RXN1G-469;RXN1G-508
ASD87_13110	Unknown	CYTDEAM-RXN;RXN-14129;RXN-14197
ASD87_00615	Unknown	3-ISOPROPYLMALISOM-RXN;R-2-METHYLMALATE-DEHYDRATASE-RXN;RXN-13163;RXN-7744;RXN-8991
ASD87_19075	Unknown	ISOLEUCINE--TRNA-LIGASE-RXN
ASD87_12570	Unknown	SERINE-O-ACETTRAN-RXN
ASD87_11990	Unknown	AMIDASE-RXN;GUANIDINOBUTANAMIDE-NH3-RXN;PYRAZIN-RXN;R311-RXN;RXN-14727;RXN-14728;RXN-17608;RXNN-404
ASD87_02215	Unknown	DTDPDEHYDRHAMEPIM-RXN
ASD87_04120	glnA	GLUTAMINESYN-RXN
ASD87_13380	Unknown	RXN0-1441
ASD87_22620	Unknown	RXN-12587;RXN-12588;RXN-14382;RXN-14385;RXN-15881;RXN-9787;RXN0-308
ASD87_13520	Unknown	CITRYLY-RXN;RXN-7929
ASD87_16830	Unknown	2.7.13.3-RXN
ASD87_12190	Unknown	RXN0-2281
ASD87_05935	Unknown	GPH-RXN
ASD87_15615	Unknown	3.2.2.23-RXN;RXN-18435
ASD87_09555	Unknown	2-OCTAPRENYL-6-OHPHENOL-METHY-RXN;DHHB-METHYLTRANSFER-RXN
ASD87_22670	Unknown	RXN0-1382
ASD87_12605	Unknown	RXN0-4261
ASD87_23350	Unknown	GSADENYLATION-RXN
ASD87_25300	Unknown	ACYLCOADEHYDROG-RXN;RXN-17775;RXN-17779;RXN-17783;RXN-17784;RXN-17788;RXN-17792;RXN-17796
ASD87_07275	Unknown	GLUTAMINE--TRNA-LIGASE-RXN
ASD87_09950	Unknown	DNA-DIRECTED-DNA-POLYMERASE-RXN
ASD87_13215	Unknown	ADDALT-RXN;ADENODEAMIN-RXN
ASD87_13680	Unknown	1.1.1.178-RXN
ASD87_17220	Unknown	ACETYLPUTRESCINE-DEACETYLASE-RXN
ASD87_25025	Unknown	6PFRUCTPHOS-RXN
ASD87_16685	Unknown	R601-RXN;RXN-14963
ASD87_07200	Unknown	1.2.7.8-RXN
ASD87_09635	Unknown	ACSERLY-RXN;RXN-12726
ASD87_25775	Unknown	PRIBFAICARPISOM-RXN
ASD87_09160	pyrG	CTPSYN-RXN;GLUTAMIN-RXN;RXN-14325
ASD87_25750	hisG	ATPPHOSPHORIBOSYLTRANS-RXN
ASD87_20560	Unknown	PGLYCDEHYDROG-RXN
ASD87_13360	Unknown	ISOCHORMAT-RXN
ASD87_24630	Unknown	R601-RXN;RXN-14963
ASD87_14435	Unknown	4.1.3.17-RXN;OXALODECARB-RXN;RXN-12074;RXN-2464
ASD87_25555	Unknown	UGD-RXN
ASD87_16870	Unknown	1.3.1.25-RXN
ASD87_19000	Unknown	1TRANSKETO-RXN;2TRANSKETO-RXN
ASD87_25365	Unknown	DIHYDRODIPICSYN-RXN
ASD87_05535	Unknown	GSHTRAN-RXN;GST-RXN;RXN-11663;RXN-13673;RXN-15680;RXN-18405;RXN-18407;RXNQT-4363
ASD87_14035	Unknown	RXN0-1241
ASD87_07280	Unknown	CYTOCHROME-C-OXIDASE-RXN;RXN-15830
ASD87_05220	garD	GALACTARDEHYDRA-RXN
ASD87_18970	Unknown	3-OXOACYL-ACP-REDUCT-RXN
ASD87_01390	Unknown	NQOR-RXN
ASD87_01210	Unknown	1TRANSKETO-RXN;2TRANSKETO-RXN
ASD87_18520	Unknown	RXN-8846
ASD87_24960	Unknown	RXN0-5462
ASD87_15515	Unknown	PHOSMANMUT-RXN;PHOSPHOGLUCMUT-RXN;RXN-16997;RXN-16998
ASD87_20455	Unknown	HOMOCYSMET-RXN;HOMOCYSMETB12-RXN
ASD87_06415	Unknown	6.3.2.10-RXN;UDP-NACMURALGLDAPAALIG-RXN
ASD87_04140	Unknown	QUERCETIN-23-DIOXYGENASE-RXN
ASD87_11345	Unknown	ACYLCOASYN-RXN;LINOLENOYL-RXN;R223-RXN;RXN-12184;RXN-12978;RXN-13290;RXN-13614;RXN-16380;RXN-16389;RXN-16393;RXN-16401;RXN-16402;RXN-16415;RXN-16418;RXN-7904;RXN-9623;RXN-9644;RXN-9673;RXN0-7238;RXN0-7239;RXN0-7248;RXN66-469;RXN66-477;RXN66-480;RXN66-483;RXN66-484;TRANS-RXN0-623
ASD87_04100	Unknown	ACYLCOADEHYDROG-RXN;RXN-17775;RXN-17779;RXN-17783;RXN-17784;RXN-17788;RXN-17792;RXN-17796
ASD87_01765	fabG	3-OXOACYL-ACP-REDUCT-RXN;RXN-10060;RXN-10655;RXN-10659;RXN-11476;RXN-11480;RXN-13008;RXN-16616;RXN-16622;RXN-16626;RXN-16630;RXN-9514;RXN-9518;RXN-9524;RXN-9528;RXN-9532;RXN-9536;RXN-9540;RXN-9552;RXN-9556;RXN-9633;RXN0-2142;RXN1G-157;RXN1G-349;RXN1G-469;RXN1G-508
ASD87_07100	Unknown	PABASYN-RXN
ASD87_03815	Unknown	THYMIDYLATESYN-RXN
ASD87_04955	Unknown	ASPAMINOTRANS-RXN;RXN-10814;RXN-11737;RXN-13697
ASD87_22540	Unknown	DIHYDROXYISOVALDEHYDRAT-RXN;DIHYDROXYMETVALDEHYDRAT-RXN
ASD87_20335	Unknown	AMIDASE-RXN;GUANIDINOBUTANAMIDE-NH3-RXN;PYRAZIN-RXN;R311-RXN;RXN-14727;RXN-14728;RXN-17608;RXNN-404
ASD87_03890	Unknown	ATPASE-RXN
ASD87_20240	Unknown	ENOYL-COA-HYDRAT-RXN;METHYLACYLYLCOA-HYDROXY-RXN;RXN-10697;RXN-10704;RXN-10705;RXN-11244;RXN-12567;RXN-13616;RXN-14266;RXN-14272;RXN-14273;RXN-16135;RXN-16558;RXN-17114;RXN-17475;RXN-17776;RXN-17780;RXN-17785;RXN-17789;RXN-17793;RXN-17797;RXN-2425;RXN0-5393;TIGLYLCOA-HYDROXY-RXN
ASD87_20535	Unknown	ATPASE-RXN
ASD87_20515	Unknown	RXN-9235
ASD87_13740	Unknown	KETOACYLCOATHIOL-RXN;RXN-10699;RXN-10700;RXN-10701;RXN-11246;RXN-12565;RXN-12710;RXN-13617;RXN-14268;RXN-14274;RXN-14277;RXN-14394;RXN-14774;RXN-14788;RXN-14793;RXN-14799;RXN-14803;RXN-16137;RXN-17116;RXN-17778;RXN-17782;RXN-17787;RXN-17791;RXN-17795;RXN-17799;RXN-3641
ASD87_25170	Unknown	2.7.13.3-RXN
ASD87_25530	Unknown	L-GLN-FRUCT-6-P-AMINOTRANS-RXN
ASD87_03655	Unknown	THIOREDOXIN-REDUCT-NADPH-RXN
ASD87_18460	Unknown	3-OXOADIPATE-COA-TRANSFERASE-RXN;RXN-10085
ASD87_08730	Unknown	4.2.99.18-RXN
ASD87_26460	Unknown	25-DIOXOVALERATE-DEHYDROGENASE-RXN;RXN-8775
ASD87_02855	Unknown	GSHTRAN-RXN;GST-RXN;RXN-11663;RXN-13673;RXN-15680;RXN-18405;RXN-18407;RXNQT-4363
ASD87_02225	Unknown	2.7.7.33-RXN
ASD87_04170	Unknown	3-OXOACYL-ACP-REDUCT-RXN;RXN-10060;RXN-10655;RXN-10659;RXN-11476;RXN-11480;RXN-13008;RXN-16616;RXN-16622;RXN-16626;RXN-16630;RXN-9514;RXN-9518;RXN-9524;RXN-9528;RXN-9532;RXN-9536;RXN-9540;RXN-9552;RXN-9556;RXN-9633;RXN0-2142;RXN1G-157;RXN1G-349;RXN1G-469;RXN1G-508
ASD87_03465	Unknown	ACETOLACTSYN-RXN;ACETOOHBUTSYN-RXN
ASD87_07475	Unknown	LEUCYLTRANSFERASE-RXN;RXN-17846;RXN-17847;RXN-17848
ASD87_15750	Unknown	ADENYLATECYC-RXN
ASD87_13650	Unknown	4.1.2.20-RXN;KDGALDOL-RXN
ASD87_18415	Unknown	GLUCONOLACT-RXN;RXN-8783
ASD87_06815	Unknown	ENOYL-COA-HYDRAT-RXN;METHYLACYLYLCOA-HYDROXY-RXN;RXN-10697;RXN-10704;RXN-10705;RXN-11244;RXN-12567;RXN-13616;RXN-14266;RXN-14272;RXN-14273;RXN-16135;RXN-16558;RXN-17114;RXN-17475;RXN-17776;RXN-17780;RXN-17785;RXN-17789;RXN-17793;RXN-17797;RXN-2425;RXN0-5393;TIGLYLCOA-HYDROXY-RXN
ASD87_06500	Unknown	ACETOLACTSYN-RXN;ACETOOHBUTSYN-RXN
ASD87_06820	Unknown	FUMHYDR-RXN
ASD87_03145	Unknown	PEPSYNTH-RXN
ASD87_04965	Unknown	FMNREDUCT-RXN;NADPH-DEHYDROGENASE-FLAVIN-RXN;RXN-12444
ASD87_04560	Unknown	5.4.99.15-RXN
ASD87_02750	Unknown	ACYLCOADEHYDROG-RXN;RXN-17775;RXN-17779;RXN-17783;RXN-17784;RXN-17788;RXN-17792;RXN-17796
ASD87_01420	Unknown	RXN-8358
ASD87_09840	Unknown	PEPTIDYLPROLYL-ISOMERASE-RXN
ASD87_14845	Unknown	R125-RXN
ASD87_18070	Unknown	RXN1A0-6303
ASD87_12550	Unknown	2.7.10.1-RXN
ASD87_14685	Unknown	GLYOXIII-RXN
ASD87_01040	Unknown	6.3.5.7-RXN
ASD87_19710	Unknown	RXN-14950;RXN-14957;RXN-14959;RXN0-949
ASD87_08815	Unknown	GALACTONDEHYDRAT-RXN
ASD87_15165	Unknown	ACYLCOADEHYDROG-RXN;RXN-17775;RXN-17779;RXN-17783;RXN-17784;RXN-17788;RXN-17792;RXN-17796
ASD87_14595	Unknown	ADOMET-DMK-METHYLTRANSFER-RXN;RXN-11046;RXN-14177;RXN-9191;RXN-9205;RXN-9220;RXN-9361;RXN-9362;RXN-9363;RXN-9366
ASD87_03080	Unknown	AMIDASE-RXN;GUANIDINOBUTANAMIDE-NH3-RXN;PYRAZIN-RXN;R311-RXN;RXN-14727;RXN-14728;RXN-17608;RXNN-404
ASD87_14535	Unknown	DEHYDDEOXGALACTKIN-RXN
ASD87_05170	Unknown	GALACTONDEHYDRAT-RXN
ASD87_11390	Unknown	HISTIDINE-AMMONIA-LYASE-RXN
ASD87_01690	Unknown	3-OXOACYL-ACP-REDUCT-RXN;RXN-10060;RXN-10655;RXN-10659;RXN-11476;RXN-11480;RXN-13008;RXN-16616;RXN-16622;RXN-16626;RXN-16630;RXN-9514;RXN-9518;RXN-9524;RXN-9528;RXN-9532;RXN-9536;RXN-9540;RXN-9552;RXN-9556;RXN-9633;RXN0-2142;RXN1G-157;RXN1G-349;RXN1G-469;RXN1G-508
ASD87_07755	Unknown	3.5.1.81-RXN
ASD87_18445	Unknown	AIRCARBOXY-RXN
ASD87_15560	Unknown	GLUCONOLACT-RXN;RXN-8783
ASD87_01830	Unknown	1.2.1.25-RXN;1.2.4.4-RXN;2.3.1.168-RXN;2KETO-3METHYLVALERATE-RXN;2KETO-4METHYL-PENTANOATE-DEHYDROG-RXN;ISOVALERYLCOA-DHLIPOAMIDE-RXN;KETOISOCAPROATE-RXN;MBCOA-DHLIPOAMIDE-RXN;METHYLVALERATE-RXN;RXN-7719
ASD87_15450	thyA	THYMIDYLATESYN-RXN
ASD87_02650	Unknown	UDPHYDROXYMYRGLUCOSAMNACETYLTRANS-RXN
ASD87_05045	Unknown	3.6.1.41-RXN
ASD87_15740	Unknown	RXN0-6515
ASD87_22220	Unknown	QUINOPRIBOTRANS-RXN
ASD87_08985	Unknown	RXN1A0-6303
ASD87_04045	Unknown	PPGPPSYN-RXN
ASD87_06760	Unknown	GLYOXI-RXN
ASD87_10960	Unknown	2.7.8.23-RXN;RXN-10827;RXN-10828
ASD87_08590	Unknown	R4-RXN
ASD87_09825	Unknown	RXN-8665
ASD87_12155	Unknown	3.2.2.21-RXN
ASD87_07325	Unknown	RXN0-4261
ASD87_09960	Unknown	CARBOXYMETHYLENEBUTENOLIDASE-RXN;DIENELACHYDRO-RXN;RXN-9857;RXN-9868;RXN-9887;RXN-9890
ASD87_14510	Unknown	1-PHOSPHATIDYLINOSITOL-KINASE-RXN
ASD87_25660	Unknown	S-FORMYLGLUTATHIONE-HYDROLASE-RXN
ASD87_21540	Unknown	RXN-14264;RXN0-2301
ASD87_19535	Unknown	DTDPGLUCOSEPP-RXN
ASD87_19345	Unknown	3-DEHYDROQUINATE-SYNTHASE-RXN
ASD87_06865	Unknown	2-NITROPROPANE-DIOXYGENASE-RXN
ASD87_04075	Unknown	AMP-NUCLEOSID-RXN
ASD87_25935	Unknown	RXN0-5062
ASD87_12965	Unknown	DETHIOBIOTIN-SYN-RXN
ASD87_09000	Unknown	DNA-DIRECTED-DNA-POLYMERASE-RXN
ASD87_00425	Unknown	RXN0-5021
ASD87_06200	Unknown	LYSOPHOSPHOLIPASE-RXN;RXN-15035;RXN-19312
ASD87_06320	Unknown	PGLYCDEHYDROG-RXN
ASD87_20440	Unknown	1.1.1.264-RXN;L-IDONATE-2-DEHYDROGENASE-RXN;RXN-12107
ASD87_21800	Unknown	RXN-16650
ASD87_15430	Unknown	2.6.1.18-RXN
ASD87_12925	Unknown	PHOSPHAGLYPSYN-RXN
ASD87_11145	Unknown	SUCCINATE-SEMIALDEHYDE-DEHYDROGENASE-RXN
ASD87_24880	Unknown	RXN0-5061
ASD87_12440	Unknown	ACYLCOADEHYDROG-RXN;RXN-17775;RXN-17779;RXN-17783;RXN-17784;RXN-17788;RXN-17792;RXN-17796
ASD87_21240	Unknown	CYTDEAM-RXN;RXN-14129;RXN-14197
ASD87_12760	Unknown	SPERMIDINESYN-RXN
ASD87_12995	Unknown	CYTOCHROME-C-OXIDASE-RXN;RXN-15830
ASD87_14655	Unknown	TRNA-GUANINE-N7--METHYLTRANSFERASE-RXN
ASD87_01120	Unknown	RXN-17155
ASD87_09625	Unknown	5.1.3.20-RXN
ASD87_07645	Unknown	ISOCITDEH-RXN;RXN-8642;RXN-9951
ASD87_24175	Unknown	ADENPRIBOSYLTRAN-RXN;RXN-14270
ASD87_06375	Unknown	5.99.1.2-RXN
ASD87_05625	Unknown	DSERDEAM-RXN;RXN-15581
ASD87_23955	Unknown	3.1.11.2-RXN
ASD87_00640	Unknown	TRNA-PSEUDOURIDINE-SYNTHASE-I-RXN
ASD87_01815	Unknown	ATPASE-RXN
ASD87_02795	Unknown	3.1.21.1-RXN
ASD87_21875	Unknown	RXN0-5419
ASD87_12830	Unknown	SPERMIDINESYN-RXN
ASD87_08885	Unknown	2.3.1.180-RXN
ASD87_10720	Unknown	ACYLCOADEHYDROG-RXN;RXN-17775;RXN-17779;RXN-17783;RXN-17784;RXN-17788;RXN-17792;RXN-17796
ASD87_08540	Unknown	1.6.99.5-RXN;NADH-DEHYDROGENASE-QUINONE-RXN
ASD87_19805	Unknown	LAUROYLACYLTRAN-RXN
ASD87_20020	Unknown	RXN-12613;RXN-14857;RXN-14858;THIAMINASE-RXN
ASD87_00620	Unknown	3-ISOPROPYLMALISOM-RXN;RXN-13163;RXN-8991
ASD87_07360	Unknown	3.4.11.1-RXN
ASD87_23195	Unknown	FMNREDUCT-RXN;NADPH-DEHYDROGENASE-FLAVIN-RXN;RXN-12444
ASD87_06555	Unknown	MYO-INOSITOL-1OR-4-MONOPHOSPHATASE-RXN;RXN-7253;RXN0-5408
ASD87_06440	murC	UDP-NACMUR-ALA-LIG-RXN
ASD87_01865	Unknown	ARGSUCCINLYA-RXN;RXN-22
ASD87_01400	Unknown	RXN0-5131
ASD87_12245	Unknown	CYSTEINE-DIOXYGENASE-RXN
ASD87_07330	Unknown	3.1.22.4-RXN
ASD87_08320	Unknown	3-OXOACYL-ACP-REDUCT-RXN;RXN-12560;RXN-13279;RXN-5901
ASD87_12255	Unknown	GLYOXII-RXN;RXN-7919
ASD87_20135	Unknown	DIHYDROOROT-RXN
ASD87_03905	Unknown	1.8.1.4-RXN;2OXOGLUTARATEDEH-RXN;2OXOGLUTDECARB-RXN;RXN-7716;RXN-7719;RXN-8629;RXN0-1132;RXN0-1147
ASD87_09945	Unknown	METHIONYL-TRNA-FORMYLTRANSFERASE-RXN
ASD87_03645	Unknown	CARBOXYMETHYLENEBUTENOLIDASE-RXN;DIENELACHYDRO-RXN;RXN-9857;RXN-9868;RXN-9887;RXN-9890
ASD87_09595	Unknown	RXN-11832;RXN-12002;RXN-7913
ASD87_06775	Unknown	RXN-9591
ASD87_17195	Unknown	RXN0-5268
ASD87_15800	Unknown	THI-P-KIN-RXN
ASD87_01240	Unknown	ACYLCOADEHYDROG-RXN;RXN-17775;RXN-17779;RXN-17783;RXN-17784;RXN-17788;RXN-17792;RXN-17796
ASD87_25360	Unknown	3-OXOACYL-ACP-REDUCT-RXN;RXN-10060;RXN-10655;RXN-10659;RXN-11476;RXN-11480;RXN-13008;RXN-16616;RXN-16622;RXN-16626;RXN-16630;RXN-9514;RXN-9518;RXN-9524;RXN-9528;RXN-9532;RXN-9536;RXN-9540;RXN-9552;RXN-9556;RXN-9633;RXN0-2142;RXN1G-157;RXN1G-349;RXN1G-469;RXN1G-508
ASD87_24965	Unknown	GLUTKIN-RXN
ASD87_09270	sdhB	RXN-14971;RXN-15378;SUCCINATE-DEHYDROGENASE-UBIQUINONE-RXN
ASD87_00060	Unknown	NICONUCADENYLYLTRAN-RXN
ASD87_01590	Unknown	ENOYL-COA-HYDRAT-RXN;METHYLACYLYLCOA-HYDROXY-RXN;RXN-10697;RXN-10704;RXN-10705;RXN-11244;RXN-12567;RXN-13616;RXN-14266;RXN-14272;RXN-14273;RXN-16135;RXN-16558;RXN-17114;RXN-17475;RXN-17776;RXN-17780;RXN-17785;RXN-17789;RXN-17793;RXN-17797;RXN-2425;RXN0-5393;TIGLYLCOA-HYDROXY-RXN
ASD87_05690	Unknown	2-NITROPROPANE-DIOXYGENASE-RXN
ASD87_25290	Unknown	RXN0-5100
ASD87_18280	Unknown	ACETATEKIN-RXN
