id	Common name	linked reactions
ASE14_14715	Unknown	PSERTRANSAM-RXN;PSERTRANSAMPYR-RXN
ASE14_04610	Unknown	PANTEPADENYLYLTRAN-RXN
ASE14_14645	Unknown	ALANINE-DEHYDROGENASE-RXN
ASE14_14605	Unknown	5-FORMYL-THF-CYCLO-LIGASE-RXN
ASE14_06285	Unknown	6-PHOSPHO-BETA-GLUCOSIDASE-RXN;RXN0-5295;RXN0-5297;RXN0-6994;RXN0-7002
ASE14_10175	Unknown	GLYRIBONUCSYN-RXN
ASE14_15170	Unknown	STRICTOSIDINE-SYNTHASE-RXN
ASE14_01405	Unknown	3.5.1.27-RXN;3.5.1.88-RXN
ASE14_01845	Unknown	3.4.11.18-RXN;RXN-17873;RXN-17874;RXN-17875;RXN-17876;RXN-17877;RXN-17878
ASE14_05535	Unknown	DTDPGLUCOSEPP-RXN
ASE14_11885	Unknown	RXN0-5100
ASE14_09995	Unknown	SAICARSYN-RXN
ASE14_01870	Unknown	GLUTAMINESYN-RXN
ASE14_00880	vanB	DALADALALIG-RXN
ASE14_01895	Unknown	RXN-13037;RXN0-947
ASE14_03270	Unknown	SUPEROX-DISMUT-RXN
ASE14_14440	Unknown	UDPNACETYLMURAMATEDEHYDROG-RXN
ASE14_05875	Unknown	1.8.4.8-RXN
ASE14_17820	Unknown	DXPREDISOM-RXN
ASE14_16980	Unknown	IMIDPHOSDEHYD-RXN
ASE14_11310	Unknown	PROTEIN-KINASE-RXN
ASE14_19575	Unknown	PRPPSYN-RXN
ASE14_10155	Unknown	SHIKIMATE-5-DEHYDROGENASE-RXN
ASE14_08060	Unknown	GUANPRIBOSYLTRAN-RXN;HYPOXANPRIBOSYLTRAN-RXN
ASE14_03530	Unknown	3-DEHYDROQUINATE-DEHYDRATASE-RXN
ASE14_13390	Unknown	GLUTAMATE-DEHYDROGENASE-NADP+-RXN;GLUTAMATE-DEHYDROGENASE-RXN;GLUTDEHYD-RXN
ASE14_17230	Unknown	1.2.4.4-RXN;2.3.1.168-RXN;KETOISOCAPROATE-RXN;METHYLVALERATE-RXN;RXN-7790
ASE14_13445	Unknown	GLYOXIII-RXN
ASE14_05960	Unknown	1.1.1.178-RXN
ASE14_06710	Unknown	BRANCHED-CHAINAMINOTRANSFERILEU-RXN;BRANCHED-CHAINAMINOTRANSFERLEU-RXN;BRANCHED-CHAINAMINOTRANSFERVAL-RXN
ASE14_17235	Unknown	1.2.1.25-RXN;1.2.4.4-RXN;2.3.1.168-RXN;2KETO-3METHYLVALERATE-RXN;2KETO-4METHYL-PENTANOATE-DEHYDROG-RXN;ISOVALERYLCOA-DHLIPOAMIDE-RXN;KETOISOCAPROATE-RXN;MBCOA-DHLIPOAMIDE-RXN;METHYLVALERATE-RXN;RXN-7719
ASE14_04830	Unknown	3-ISOPROPYLMALDEHYDROG-RXN;RXN-13158;RXN-14986;RXN-18200;RXN-18202;RXN-18204;RXN-18206;RXN-18208;RXN-18210;RXNQT-4165;RXNQT-4168;RXNQT-4171;RXNQT-4174;RXNQT-4178
ASE14_02570	Unknown	GLUC1PADENYLTRANS-RXN
ASE14_08025	Unknown	H2PTERIDINEPYROPHOSPHOKIN-RXN;RXN-15733
ASE14_08995	Unknown	RXN-12610;RXN-12611;THI-P-SYN-RXN
ASE14_02290	Unknown	RXN-11109
ASE14_03215	Unknown	1TRANSKETO-RXN;2TRANSKETO-RXN
ASE14_06775	Unknown	GALACTOKIN-RXN
ASE14_00715	murD	UDP-NACMURALA-GLU-LIG-RXN
ASE14_08545	Unknown	RXN1A0-6303
ASE14_00685	Unknown	RXN-11638
ASE14_07260	Unknown	HOLO-ACP-SYNTH-RXN
ASE14_00465	Unknown	RXN-8668
ASE14_00820	Unknown	TRANS-RXN-283
ASE14_03550	Unknown	CHORISMATE-SYNTHASE-RXN
ASE14_17035	Unknown	RXN-14480;RXN-14481;RXN0-5063
ASE14_15915	Unknown	RXN-12587;RXN-12588;RXN-14382;RXN-14385;RXN-15881;RXN-9787;RXN0-308
ASE14_18035	Unknown	ACSERLY-RXN;RXN-12726
ASE14_09285	Unknown	ATPASE-RXN
ASE14_16155	Unknown	RXN-14971;RXN-15378;SUCCINATE-DEHYDROGENASE-UBIQUINONE-RXN
ASE14_17565	Unknown	RXN0-4261
ASE14_14400	Unknown	SUCCINATE-SEMIALDEHYDE-DEHYDROGENASE-RXN
ASE14_02615	Unknown	GLYOXIII-RXN
ASE14_15705	Unknown	RXN1A0-6303
ASE14_15605	Unknown	4-CARBOXYMUCONOLACTONE-DECARBOXYLASE-RXN
ASE14_14010	Unknown	NAPHTHOATE-SYN-RXN
ASE14_03685	Unknown	PYRAMKIN-RXN
ASE14_02020	Unknown	CYSTATHIONINE-BETA-LYASE-RXN;RXN-15131
ASE14_13100	Unknown	3.1.2.23-RXN
ASE14_00890	Unknown	2.7.13.3-RXN
ASE14_01635	Unknown	MALONYL-COA-ACP-TRANSACYL-RXN
ASE14_17290	Unknown	2.7.7.8-RXN
ASE14_05580	Unknown	AIRCARBOXY-RXN
ASE14_09055	Unknown	3.1.4.17-RXN
ASE14_08065	Unknown	RXN-1961
ASE14_00565	Unknown	GLYOXIII-RXN
ASE14_05740	Unknown	R601-RXN;RXN-14963
ASE14_01550	Unknown	3.4.11.1-RXN
ASE14_00780	Unknown	HISTALDEHYD-RXN;HISTOLDEHYD-RXN;RXN-8001
ASE14_12445	Unknown	3-HYDROXYISOBUTYRATE-DEHYDROGENASE-RXN
ASE14_00745	Unknown	ALARACECAT-RXN
ASE14_03495	Unknown	DIHYDROOROT-RXN
ASE14_02015	Unknown	1.10.2.2-RXN;RXN-15829
ASE14_09925	Unknown	RXN0-4641
ASE14_09085	Unknown	CARBOXYMETHYLENEBUTENOLIDASE-RXN;DIENELACHYDRO-RXN;RXN-9857;RXN-9868;RXN-9887;RXN-9890
ASE14_06810	Unknown	RXN-9990
ASE14_17135	Unknown	1.11.1.15-RXN;RXN0-5468
ASE14_17735	Unknown	RXNI-2
ASE14_03565	Unknown	3.1.22.4-RXN
ASE14_17840	Unknown	1.11.1.15-RXN;RXN0-5468
ASE14_04665	Unknown	3-ISOPROPYLMALISOM-RXN;RXN-13163;RXN-8991
ASE14_07940	Unknown	GLUTAMATE-N-ACETYLTRANSFERASE-RXN;N-ACETYLTRANSFER-RXN;RXN0-6948
ASE14_07770	Unknown	DNA-DIRECTED-DNA-POLYMERASE-RXN
ASE14_12730	Unknown	GLYCINE--TRNA-LIGASE-RXN
ASE14_08575	Unknown	2-OCTAPRENYL-6-OHPHENOL-METHY-RXN;DHHB-METHYLTRANSFER-RXN
ASE14_03540	Unknown	3-DEHYDROQUINATE-SYNTHASE-RXN
ASE14_13615	Unknown	2-HALOACID-DEHALOGENASE-RXN
ASE14_12585	Unknown	GLYCEROL-KIN-RXN
ASE14_06625	Unknown	RXN0-302
ASE14_11880	Unknown	DNA-DIRECTED-DNA-POLYMERASE-RXN
ASE14_04195	Unknown	GLYCOPHOSPHORYL-RXN;GLYMALTOPHOSPHORYL-RXN;RXN-12171;RXN-12392;RXN-14284;RXN-14285;RXN-14286;RXN-14353;RXN-1826;RXN-9025;RXN0-5182;RXN0-5184
ASE14_12880	Unknown	UROGENIIISYN-RXN
ASE14_14020	Unknown	DMK-RXN
ASE14_14480	Unknown	1.1.1.274-RXN
ASE14_14630	Unknown	COA-DISULFIDE-REDUCTASE-NADH-RXN
ASE14_11600	Unknown	RXN-12508;RXN-12583;RXN0-1134
ASE14_06050	Unknown	1.13.11.15-RXN
ASE14_17850	Unknown	ASPARAGHYD-RXN
ASE14_03590	Unknown	PEPTIDYLPROLYL-ISOMERASE-RXN
ASE14_00790	Unknown	DIHYDROOROTATE-DEHYDROGENASE-RXN;RXN0-6491;RXN0-6554
ASE14_19085	Unknown	QUINOPRIBOTRANS-RXN
ASE14_03900	Unknown	QOR-RXN
ASE14_06400	Unknown	ATPSYN-RXN
ASE14_10460	Unknown	2-HALOACID-DEHALOGENASE-RXN;3.8.1.11-RXN;RXN-6263;RXN-6264
ASE14_03370	gltD	GLUTAMATESYN-RXN;GLUTAMIN-RXN;GLUTDEHYD-RXN
ASE14_03065	Unknown	GLUTSEMIALDEHYDROG-RXN
ASE14_06715	Unknown	DNA-DIRECTED-RNA-POLYMERASE-RXN
ASE14_00775	Unknown	DNA-DIRECTED-DNA-POLYMERASE-RXN
ASE14_05880	Unknown	NADPH-DEHYDROGENASE-FLAVIN-RXN
ASE14_03455	Unknown	S-ADENMETSYN-RXN
ASE14_03240	Unknown	6PGLUCONOLACT-RXN
ASE14_04935	Unknown	ACETYL-COA-ACETYLTRANSFER-RXN;METHYLACETOACETYLCOATHIOL-RXN;RXN-12561
ASE14_03500	Unknown	ASPCARBTRANS-RXN
ASE14_06045	Unknown	1.2.1.32-RXN;BADH-RXN;RXN-8831;RXN-8837
ASE14_12070	Unknown	3.1.3.16-RXN
ASE14_16045	Unknown	AGMATINE-DEIMINASE-RXN
ASE14_05545	Unknown	DTDPGLUCDEHYDRAT-RXN
ASE14_04825	Unknown	BRANCHED-CHAINAMINOTRANSFERILEU-RXN;BRANCHED-CHAINAMINOTRANSFERLEU-RXN;BRANCHED-CHAINAMINOTRANSFERVAL-RXN
ASE14_17625	Unknown	DEOXYRIBOSE-P-ALD-RXN
ASE14_03330	Unknown	DNA-DIRECTED-DNA-POLYMERASE-RXN
ASE14_03800	Unknown	DXS-RXN
ASE14_19290	glpX	F16BDEPHOS-RXN
ASE14_11725	Unknown	2.7.13.3-RXN
ASE14_07130	guaA	GLUTAMIN-RXN;GMP-SYN-GLUT-RXN;GMP-SYN-NH3-RXN
ASE14_07650	Unknown	ALLOPHANATE-HYDROLASE-RXN
ASE14_01850	Unknown	3.4.11.18-RXN;RXN-17873;RXN-17874;RXN-17875;RXN-17876;RXN-17877;RXN-17878
ASE14_19440	Unknown	ALARACECAT-RXN
ASE14_03830	Unknown	DUTP-PYROP-RXN
ASE14_12865	Unknown	1.13.11.49-RXN
ASE14_07150	Unknown	IMP-DEHYDROG-RXN
ASE14_05345	Unknown	RXN-15376;RXN-18319;RXN-9999;RXN0-1863
ASE14_04640	Unknown	DALADALALIG-RXN
ASE14_03305	Unknown	DEPHOSPHOCOAKIN-RXN
ASE14_03220	Unknown	TRANSALDOL-RXN
ASE14_08865	Unknown	RXN-11135
ASE14_17080	Unknown	HISTONE-ACETYLTRANSFERASE-RXN
ASE14_01625	Unknown	RXN-17155
ASE14_08535	Unknown	PHOSPHOKETOLASE-RXN
ASE14_03120	ileS	ISOLEUCINE--TRNA-LIGASE-RXN
ASE14_04575	Unknown	3.2.2.23-RXN;RXN-18435
ASE14_11535	Unknown	GLUTDECARBOX-RXN
ASE14_00045	Unknown	NAD-KIN-RXN
ASE14_17905	Unknown	PROTEIN-KINASE-RXN
ASE14_06390	Unknown	PHOSACETYLTRANS-RXN
ASE14_17175	Unknown	CITLY-RXN;CITRYLY-RXN;CITTRANS-RXN
ASE14_15755	Unknown	GLUCARDEHYDRA-RXN
ASE14_12675	Unknown	ATPASE-RXN
ASE14_10670	Unknown	GLYOXIII-RXN
ASE14_12045	Unknown	PABASYN-RXN
ASE14_19455	Unknown	EXOPOLYPHOSPHATASE-RXN
ASE14_01945	Unknown	5.99.1.2-RXN
ASE14_03380	Unknown	RXN0-20
ASE14_02705	Unknown	KETOACYLCOATHIOL-RXN;RXN-10699;RXN-10700;RXN-10701;RXN-11246;RXN-12565;RXN-12710;RXN-13617;RXN-14268;RXN-14274;RXN-14277;RXN-14394;RXN-14774;RXN-14788;RXN-14793;RXN-14799;RXN-14803;RXN-16137;RXN-17116;RXN-17778;RXN-17782;RXN-17787;RXN-17791;RXN-17795;RXN-17799;RXN-3641
ASE14_12640	tdh	RXN-14249;THREODEHYD-RXN
ASE14_01165	Unknown	3.4.17.13-RXN;RXN-16664;RXN0-5227
ASE14_18965	Unknown	SUCCINYLDIAMINOPIMTRANS-RXN
ASE14_14155	Unknown	MYO-INOSITOL-1OR-4-MONOPHOSPHATASE-RXN;RXN-7253;RXN0-5408
ASE14_08405	Unknown	ATPASE-RXN
ASE14_07810	Unknown	KANAMYCIN-KINASE-RXN
ASE14_19280	Unknown	GLYOXIII-RXN
ASE14_05940	Unknown	4.1.1.32-RXN;RXN-12481
ASE14_17895	Unknown	ATPASE-RXN
ASE14_15655	Unknown	R101-RXN
ASE14_12875	Unknown	OHMETHYLBILANESYN-RXN
ASE14_09250	Unknown	RXN-19040;RXN0-6359;RXN0-6385;THIOSULFATE-SULFURTRANSFERASE-RXN
ASE14_14050	Unknown	RXN-9235
ASE14_07725	Unknown	RXN0-1441
ASE14_00055	Unknown	CTPSYN-RXN;GLUTAMIN-RXN;RXN-14325
ASE14_09960	Unknown	ALCOHOL-DEHYDROG-GENERIC-RXN;ALCOHOL-DEHYDROGENASE-NADPORNOP+-RXN;RXN-12448
ASE14_18560	Unknown	PROTOCATECHUATE-34-DIOXYGENASE-RXN;RXN-9731
ASE14_19090	Unknown	RXN-12587;RXN-12588;RXN-14382;RXN-14385;RXN-15881;RXN-9787;RXN0-308
ASE14_04160	Unknown	6.3.5.7-RXN
ASE14_01905	Unknown	RXN0-1147
ASE14_05730	Unknown	RXN-14971;RXN-15378;SUCCINATE-DEHYDROGENASE-UBIQUINONE-RXN
ASE14_18320	Unknown	NICOTINATEPRIBOSYLTRANS-RXN
ASE14_11660	Unknown	GLYOXIII-RXN
ASE14_05770	Unknown	TRYPTOPHAN--TRNA-LIGASE-RXN
ASE14_12820	ubiA	FPPSYN-RXN;GPPSYN-RXN
ASE14_14405	Unknown	PUTRESCINE-OXIDASE-RXN
ASE14_12710	Unknown	NUCLEOTIDE-PYROPHOSPHATASE-RXN
ASE14_10135	Unknown	ADENPRIBOSYLTRAN-RXN;RXN-14270
ASE14_04230	Unknown	GLYCOGEN-BRANCH-RXN;RXN-14371;RXN-14372;RXN-18777;RXN-7669;RXN-7710
ASE14_04955	Unknown	ALARACECAT-RXN
ASE14_04950	Unknown	NACGLCTRANS-RXN;RXN-8976
ASE14_15775	Unknown	MANNONDEHYDRAT-RXN
ASE14_11470	Unknown	RXN0-4261
ASE14_04150	Unknown	6.3.5.7-RXN
ASE14_13225	rocD	ORNITHINE--OXO-ACID-AMINOTRANSFERASE-RXN;ORNITHINE-GLU-AMINOTRANSFERASE-RXN
ASE14_14530	Unknown	ACYLCOADEHYDROG-RXN;RXN-17775;RXN-17779;RXN-17783;RXN-17784;RXN-17788;RXN-17792;RXN-17796
ASE14_08495	Unknown	3-NUCLEOTID-RXN;5-NUCLEOTID-RXN;AMP-DEPHOSPHORYLATION-RXN;CYCPHOSDIESTER-RXN;RXN-14025;RXN-14026;RXN-14064;RXN-14090;RXN-14091;RXN-14112;RXN-14113;RXN-14115;RXN-14124;RXN-14126;RXN-14227;RXN-5841;RXN-7607;RXN-7609;XMPXAN-RXN
ASE14_03965	Unknown	3.4.11.2-RXN
ASE14_10275	Unknown	CHORISMATEMUT-RXN
ASE14_05605	Unknown	2.1.3.1-RXN
ASE14_03950	Unknown	RIB5PISOM-RXN
ASE14_19340	Unknown	3.1.11.6-RXN
ASE14_09970	Unknown	PRPPAMIDOTRANS-RXN
ASE14_03760	Unknown	RXN-19040;RXN0-6359;RXN0-6385;THIOSULFATE-SULFURTRANSFERASE-RXN
ASE14_00545	Unknown	GDPPYPHOSKIN-RXN;GTPPYPHOSKIN-RXN
ASE14_14390	Unknown	GABATRANSAM-RXN;RXN-2901
ASE14_01325	Unknown	RXN0-5021
ASE14_04410	Unknown	3.4.11.5-RXN
ASE14_01960	Unknown	5.99.1.2-RXN
ASE14_19165	Unknown	DNA-DIRECTED-RNA-POLYMERASE-RXN
ASE14_14395	Unknown	GLUTAMATE-DEHYDROGENASE-NADP+-RXN;GLUTAMATE-DEHYDROGENASE-RXN;GLUTDEHYD-RXN
ASE14_03675	Unknown	GLUTAMIN-RXN;RXN-11322;RXN-12590
ASE14_15745	Unknown	4.2.1.41-RXN
ASE14_10030	Unknown	FGAMSYN-RXN
ASE14_09740	Unknown	FORMIMINOGLUTAMASE-RXN
ASE14_05510	Unknown	GALPMUT-RXN
ASE14_04135	Unknown	DNA-DIRECTED-DNA-POLYMERASE-RXN
ASE14_18565	Unknown	4-HYDROXYBENZOATE-3-MONOOXYGENASE-RXN
ASE14_17205	Unknown	RXN-11109;RXN-11135
ASE14_06100	Unknown	NICOTINAMID-RXN
ASE14_05970	Unknown	GAPOXNPHOSPHN-RXN
ASE14_01855	Unknown	3-CH3-2-OXOBUTANOATE-OH-CH3-XFER-RXN;RXN-15635
ASE14_00655	Unknown	PROTEIN-KINASE-RXN
ASE14_02030	Unknown	PRTRANS-RXN
ASE14_03210	Unknown	HEMEOSYN-RXN
ASE14_17845	Unknown	GABATRANSAM-RXN;RXN-2901
ASE14_18040	Unknown	SERINE-O-ACETTRAN-RXN
ASE14_07170	Unknown	IMP-DEHYDROG-RXN
ASE14_18070	Unknown	DIAMINOPIMDECARB-RXN
ASE14_08430	Unknown	MALATE-DEH-RXN
ASE14_19080	Unknown	L-ASPARTATE-OXID-RXN;RXN-9772
ASE14_13495	Unknown	LYSOPHOSPHOLIPASE-RXN;RXN-15035;RXN-19312
ASE14_19535	Unknown	AMINOCYL-TRNA-HYDROLASE-RXN;RXN-16637
ASE14_09955	Unknown	AIRS-RXN
ASE14_00475	Unknown	HOMOCYSMET-RXN;HOMOCYSMETB12-RXN
ASE14_02870	Unknown	NAG1P-URIDYLTRANS-RXN
ASE14_04180	Unknown	RXN-12587;RXN-12588;RXN-14382;RXN-14385;RXN-15881;RXN-9787;RXN0-308
ASE14_09725	Unknown	IMIDAZOLONEPROPIONASE-RXN
ASE14_11020	Unknown	IMP-DEHYDROG-RXN
ASE14_12890	Unknown	PORPHOBILSYNTH-RXN
ASE14_00560	Unknown	4-CARBOXYMUCONOLACTONE-DECARBOXYLASE-RXN
ASE14_02660	Unknown	1.2.1.25-RXN;1.2.4.4-RXN;2.3.1.168-RXN;2KETO-3METHYLVALERATE-RXN;2KETO-4METHYL-PENTANOATE-DEHYDROG-RXN;ISOVALERYLCOA-DHLIPOAMIDE-RXN;KETOISOCAPROATE-RXN;MBCOA-DHLIPOAMIDE-RXN;METHYLVALERATE-RXN;RXN-7719
ASE14_01645	Unknown	2OXOGLUTARATEDEH-RXN;2OXOGLUTDECARB-RXN;RXN-7716;RXN0-1147
ASE14_03055	Unknown	NICONUCADENYLYLTRAN-RXN
ASE14_16055	Unknown	AMIDASE-RXN;GUANIDINOBUTANAMIDE-NH3-RXN;PYRAZIN-RXN;R311-RXN;RXN-14727;RXN-14728;RXN-17608;RXNN-404
ASE14_03390	Unknown	RXN0-2382;TRYPSYN-RXN
ASE14_07340	Unknown	3.4.11.18-RXN;RXN-17873;RXN-17874;RXN-17875;RXN-17876;RXN-17877;RXN-17878
ASE14_04465	Unknown	RXN-14903;RXN0-7008
ASE14_08550	Unknown	GLYOXIII-RXN
ASE14_07980	Unknown	LYSINE--TRNA-LIGASE-RXN
ASE14_01270	Unknown	RXN-8999
ASE14_02595	Unknown	3-OXOACYL-ACP-REDUCT-RXN;RXN-10060;RXN-10655;RXN-10659;RXN-11476;RXN-11480;RXN-13008;RXN-16616;RXN-16622;RXN-16626;RXN-16630;RXN-9514;RXN-9518;RXN-9524;RXN-9528;RXN-9532;RXN-9536;RXN-9540;RXN-9552;RXN-9556;RXN-9633;RXN0-2142;RXN1G-157;RXN1G-349;RXN1G-469;RXN1G-508
ASE14_06140	Unknown	DTMPKI-RXN
ASE14_03535	Unknown	GLYCPDIESTER-RXN;RXN-14073;RXN-14136;RXN-14160
ASE14_11845	Unknown	RXN-11578
ASE14_16670	Unknown	1.2.1.27-RXN;RXN-11213;RXN-2902
ASE14_00095	Unknown	RXN-11832;RXN-12002;RXN-7913
ASE14_17105	Unknown	DIHYDRODIPICSYN-RXN
ASE14_02745	Unknown	ACYLCOADEHYDROG-RXN;RXN-17775;RXN-17779;RXN-17783;RXN-17784;RXN-17788;RXN-17792;RXN-17796
ASE14_17830	Unknown	RXN-9591
ASE14_17560	Unknown	6PFRUCTPHOS-RXN
ASE14_16085	Unknown	ACYLCOADEHYDROG-RXN;RXN-17775;RXN-17779;RXN-17783;RXN-17784;RXN-17788;RXN-17792;RXN-17796
ASE14_09670	Unknown	ALANINE-DEHYDROGENASE-RXN
ASE14_16495	Unknown	QOR-RXN
ASE14_17495	aspA	ASPARTASE-RXN
ASE14_03430	hisE	HISTPRATPHYD-RXN
ASE14_03605	Unknown	GDPPYPHOSKIN-RXN;GTPPYPHOSKIN-RXN
ASE14_03255	Unknown	TRIOSEPISOMERIZATION-RXN
ASE14_17325	Unknown	FMNREDUCT-RXN;NADPH-DEHYDROGENASE-FLAVIN-RXN;RXN-12444
ASE14_09570	Unknown	3.4.11.18-RXN;RXN-17873;RXN-17874;RXN-17875;RXN-17876;RXN-17877;RXN-17878
ASE14_09990	Unknown	GLYRIBONUCSYN-RXN
ASE14_05350	Unknown	RXN-10002
ASE14_04440	Unknown	PROLINE-RACEMASE-RXN
ASE14_06660	Unknown	GCVT-RXN
ASE14_07720	Unknown	HISTONE-ACETYLTRANSFERASE-RXN
ASE14_01740	Unknown	GALACTONDEHYDRAT-RXN
ASE14_03740	Unknown	GLYOXIII-RXN
ASE14_12620	Unknown	2-HALOACID-DEHALOGENASE-RXN
ASE14_15050	Unknown	DNA-LIGASE-NAD+-RXN;RXN-17918;RXN-17919;RXN-17920
ASE14_13575	Unknown	PHOSPHOGLUCMUT-RXN;RXN-16997;RXN-16998
ASE14_11075	Unknown	ALKANE-1-MONOOXYGENASE-RXN
ASE14_04315	Unknown	3.1.4.17-RXN
ASE14_02725	Unknown	DHBAMPLIG-RXN
ASE14_15545	Unknown	RXN0-4621
ASE14_04010	Unknown	PMPOXI-RXN;PNPOXI-RXN
ASE14_00870	Unknown	LEUCINE--TRNA-LIGASE-RXN
ASE14_18930	Unknown	SUCCDIAMINOPIMDESUCC-RXN
ASE14_02010	Unknown	1.10.2.2-RXN;RXN-15829
ASE14_03095	Unknown	RXN0-6523
ASE14_05165	Unknown	ATPASE-RXN
ASE14_02740	Unknown	KANAMYCIN-KINASE-RXN
ASE14_18315	Unknown	GLUTRACE-RXN
ASE14_12955	Unknown	RXN-12587;RXN-12588;RXN-14382;RXN-14385;RXN-15881;RXN-9787;RXN0-308
ASE14_18290	Unknown	1.11.1.15-RXN;RXN0-5468
ASE14_15710	Unknown	ADOMET-DMK-METHYLTRANSFER-RXN
ASE14_10405	Unknown	ARGSUCCINSYN-RXN;RXN-10
ASE14_04605	Unknown	ATPASE-RXN
ASE14_13235	Unknown	RXN-11329
ASE14_02145	Unknown	ISOCHORMAT-RXN
ASE14_12840	Unknown	2.5.1.32-RXN;RXN-13323;RXNARA-8002
ASE14_02275	Unknown	GLYCPDIESTER-RXN;RXN-14073;RXN-14136;RXN-14160
ASE14_01665	Unknown	3.2.1.21-RXN
ASE14_03470	Unknown	GUANYL-KIN-RXN
ASE14_14035	Unknown	2.5.1.64-RXN
ASE14_06490	Unknown	ATPASE-RXN
ASE14_09375	Unknown	RXN-10819
ASE14_19055	Unknown	GCVP-RXN
ASE14_03820	Unknown	DUTP-PYROP-RXN
ASE14_03365	Unknown	PEPDEPHOS-RXN;RXN-14117;RXN-14192;RXN-14207
ASE14_17240	Unknown	RXN-12508;RXN-12583;RXN0-1134
ASE14_19255	Unknown	RXN0-4961
ASE14_00595	Unknown	PHOSPHAGLYPSYN-RXN
ASE14_11025	Unknown	3.1.1.64-RXN;CARBOXYLESTERASE-RXN;RETINYL-PALMITATE-ESTERASE-RXN;RXN-10711;RXN-10767;RXN-12252;RXN-12575;RXNQT-4366
ASE14_11590	Unknown	1.2.4.4-RXN;2.3.1.168-RXN;KETOISOCAPROATE-RXN;METHYLVALERATE-RXN;RXN-7790
ASE14_16520	Unknown	ISOCIT-CLEAV-RXN
ASE14_00100	Unknown	RXN0-5462
ASE14_11670	Unknown	PYRNUTRANSHYDROGEN-RXN;TRANS-RXN0-277
ASE14_15140	Unknown	GLYOXIII-RXN
ASE14_10045	Unknown	CHOLESTEROL-OXIDASE-RXN;RXN-12694;RXN-12778
ASE14_09435	Unknown	KETOACYLCOATHIOL-RXN;RXN-10699;RXN-10700;RXN-10701;RXN-11246;RXN-12565;RXN-12710;RXN-13617;RXN-14268;RXN-14274;RXN-14277;RXN-14394;RXN-14774;RXN-14788;RXN-14793;RXN-14799;RXN-14803;RXN-16137;RXN-17116;RXN-17778;RXN-17782;RXN-17787;RXN-17791;RXN-17795;RXN-17799;RXN-3641
ASE14_02800	Unknown	RXN0-5306
ASE14_04175	Unknown	RXN0-2023
ASE14_03635	Unknown	3.1.22.4-RXN
ASE14_16885	Unknown	GLUTAMATE-N-ACETYLTRANSFERASE-RXN;N-ACETYLTRANSFER-RXN;RXN0-6948
ASE14_07315	Unknown	DNA-DIRECTED-RNA-POLYMERASE-RXN
ASE14_17580	Unknown	CARBODEHYDRAT-RXN;RXN0-5224
ASE14_10015	Unknown	RXN-8665
ASE14_02825	Unknown	HYDROXY-MANDELATE-RACEMASE-RXN;MANDELATE-RACEMASE-RXN
ASE14_05785	glpK	GLYCEROL-KIN-RXN
ASE14_06950	Unknown	ISOCITDEH-RXN;RXN-8642;RXN-9951
ASE14_00455	Unknown	3.1.1.64-RXN;CARBOXYLESTERASE-RXN;RETINYL-PALMITATE-ESTERASE-RXN;RXN-10711;RXN-10767;RXN-12252;RXN-12575;RXNQT-4366
ASE14_14310	Unknown	3.1.4.17-RXN
ASE14_11665	pntB	PYRNUTRANSHYDROGEN-RXN;TRANS-RXN0-277
ASE14_01225	Unknown	RXN0-5462
ASE14_11370	Unknown	DCTP-DEAM-RXN;RXN-14118
ASE14_02605	Unknown	6.4.1.6-RXN;RXN-17566
ASE14_16660	Unknown	GLYOXIII-RXN
ASE14_13085	Unknown	METHYLISOCITRATE-LYASE-RXN
ASE14_02695	Unknown	2-NITROPROPANE-DIOXYGENASE-RXN
ASE14_16710	Unknown	ACYLCOADEHYDROG-RXN;RXN-17775;RXN-17779;RXN-17783;RXN-17784;RXN-17788;RXN-17792;RXN-17796
ASE14_00840	Unknown	RXN-6883;RXN0-5266
ASE14_12870	Unknown	PROTOHEMEFERROCHELAT-RXN
ASE14_03785	Unknown	ACETYL-COA-ACETYLTRANSFER-RXN;METHYLACETOACETYLCOATHIOL-RXN;RXN-12561
ASE14_04085	Unknown	3.1.13.3-RXN
ASE14_00730	Unknown	UDP-NACMUR-ALA-LIG-RXN
ASE14_05670	Unknown	PHOSMANMUT-RXN
ASE14_16760	Unknown	ACYLPHOSPHATASE-RXN
ASE14_11165	Unknown	RXN-12134;RXN-12140;RXN-12141;RXN-12142
ASE14_18760	Unknown	RXN-11109
ASE14_07345	Unknown	ADENYL-KIN-RXN
ASE14_15640	Unknown	2-OCTAPRENYL-6-OHPHENOL-METHY-RXN;DHHB-METHYLTRANSFER-RXN
ASE14_02160	Unknown	ATPASE-RXN
ASE14_11680	Unknown	PHENOL-2-MONOOXYGENASE-RXN;RXN-10125;RXN-10127;RXN-10128;RXN-10129
ASE14_16590	Unknown	ISOCHORMAT-RXN
ASE14_16840	Unknown	ACYLCOASYN-RXN;LINOLENOYL-RXN;R223-RXN;RXN-12184;RXN-12978;RXN-13290;RXN-13614;RXN-16380;RXN-16389;RXN-16393;RXN-16401;RXN-16402;RXN-16415;RXN-16418;RXN-7904;RXN-9623;RXN-9644;RXN-9673;RXN0-7238;RXN0-7239;RXN0-7248;RXN66-469;RXN66-477;RXN66-480;RXN66-483;RXN66-484;TRANS-RXN0-623
ASE14_14600	Unknown	GLUC1PURIDYLTRANS-RXN
ASE14_13030	Unknown	AMINOBUTDEHYDROG-RXN
ASE14_18270	Unknown	RXN-7774
ASE14_01320	Unknown	DGTPTRIPHYDRO-RXN
ASE14_16250	Unknown	GLYOXIII-RXN
ASE14_10025	Unknown	3-HYDROXY-KYNURENINASE-RXN;KYNURENINASE-RXN
ASE14_05665	Unknown	ADENPHOSPHOR-RXN;DEOXYADENPHOSPHOR-RXN;DEOXYGUANPHOSPHOR-RXN;DEOXYINOPHOSPHOR-RXN;INOPHOSPHOR-RXN;PNP-RXN;RXN-11715;RXN-11743;RXN-14029;RXN-7001;RXN0-5199;XANTHOSINEPHOSPHORY-RXN
ASE14_05820	Unknown	LUMAZINESYN-RXN
ASE14_19300	Unknown	F16ALDOLASE-RXN;RXN-8631
ASE14_17675	Unknown	RXN0-2661
ASE14_06805	Unknown	N-ACETYLNEURAMINATE-SYNTHASE-RXN
ASE14_00650	Unknown	DAHPSYN-RXN
ASE14_05690	Unknown	THYM-PHOSPH-RXN;URA-PHOSPH-RXN;URPHOS-RXN
ASE14_04275	Unknown	CDPDIGLYSYN-RXN;RXN0-5515
ASE14_12830	Unknown	RXN18HP-6
ASE14_19580	glmU	2.3.1.157-RXN;NAG1P-URIDYLTRANS-RXN
ASE14_12850	Unknown	IPPISOM-RXN
ASE14_13160	Unknown	PYRROLINECARBDEHYDROG-RXN;RXN-14116
ASE14_18285	Unknown	RXN0-5462
ASE14_03015	Unknown	DIHYDROPYRIMIDINASE-RXN;RXN-11211;RXN-11217
ASE14_03150	valS	VALINE--TRNA-LIGASE-RXN
ASE14_05685	Unknown	ADDALT-RXN;ADENODEAMIN-RXN
ASE14_17120	Unknown	THYMIDYLATESYN-RXN
ASE14_06180	Unknown	ACETATE--COA-LIGASE-RXN;RXN-18446;RXN-18447;RXN-18448
ASE14_11770	Unknown	RXN0-4261
ASE14_00725	Unknown	NACGLCTRANS-RXN;RXN-8976
ASE14_17725	Unknown	RXN0-882
ASE14_16845	Unknown	TYROSINE--TRNA-LIGASE-RXN
ASE14_18110	Unknown	ARGINASE-RXN;RXN-34
ASE14_15925	Unknown	2PGADEHYDRAT-RXN
ASE14_12090	Unknown	2-HALOACID-DEHALOGENASE-RXN
ASE14_17660	Unknown	2-DEHYDROPANTOATE-REDUCT-RXN
ASE14_04630	Unknown	THI-P-KIN-RXN
ASE14_09140	Unknown	AMIDASE-RXN;GUANIDINOBUTANAMIDE-NH3-RXN;PYRAZIN-RXN;R311-RXN;RXN-14727;RXN-14728;RXN-17608;RXNN-404
ASE14_15550	Unknown	RXN0-4641
ASE14_07165	Unknown	ASPAMINOTRANS-RXN;RXN-10814;RXN-11737;RXN-13697
ASE14_17065	Unknown	PHOSPHAGLYPSYN-RXN
ASE14_07115	Unknown	GLYCPDIESTER-RXN;RXN-14073;RXN-14136;RXN-14160
ASE14_12645	Unknown	AKBLIG-RXN
ASE14_05300	Unknown	UDPGLUCEPIM-RXN
ASE14_11630	Unknown	PROTEIN-TYROSINE-PHOSPHATASE-RXN
ASE14_03445	Unknown	METHIONYL-TRNA-FORMYLTRANSFERASE-RXN
ASE14_11795	Unknown	TRNA-CYTIDYLYLTRANSFERASE-RXN
ASE14_06875	Unknown	ALKAPHOSPHA-RXN;RXN-5822;RXN-8748
ASE14_04685	Unknown	ATPASE-RXN
ASE14_03115	Unknown	DIHYDROFOLATESYNTH-RXN
ASE14_05965	Unknown	ACETYL-COA-ACETYLTRANSFER-RXN;METHYLACETOACETYLCOATHIOL-RXN;RXN-12561
ASE14_01045	Unknown	3.1.1.64-RXN;CARBOXYLESTERASE-RXN;RETINYL-PALMITATE-ESTERASE-RXN;RXN-10711;RXN-10767;RXN-12252;RXN-12575;RXNQT-4366
ASE14_16975	Unknown	GLUTAMIDOTRANS-RXN;GLUTAMIN-RXN;RXN-17900
ASE14_01910	Unknown	1.8.1.4-RXN;2OXOGLUTARATEDEH-RXN;2OXOGLUTDECARB-RXN;RXN-7716;RXN-7719;RXN-8629;RXN0-1132;RXN0-1147
ASE14_17790	Unknown	ACETYL-COA-ACETYLTRANSFER-RXN;METHYLACETOACETYLCOATHIOL-RXN;RXN-12561
ASE14_02750	Unknown	3-OXOACYL-ACP-REDUCT-RXN
ASE14_10505	Unknown	OROPRIBTRANS-RXN
ASE14_06350	Unknown	DNA-DIRECTED-DNA-POLYMERASE-RXN
ASE14_10355	Unknown	2.7.13.3-RXN
ASE14_02655	Unknown	RXN-12508;RXN-12583;RXN0-1134
ASE14_16065	Unknown	2.7.13.3-RXN
ASE14_18155	Unknown	RXN-10837;RXN-9382
ASE14_08195	Unknown	INORGPYROPHOSPHAT-RXN
ASE14_04310	Unknown	RXN0-5100
ASE14_19570	Unknown	ACYLCOASYN-RXN;LINOLENOYL-RXN;R223-RXN;RXN-12184;RXN-12978;RXN-13290;RXN-13614;RXN-16380;RXN-16389;RXN-16393;RXN-16401;RXN-16402;RXN-16415;RXN-16418;RXN-7904;RXN-9623;RXN-9644;RXN-9673;RXN0-7238;RXN0-7239;RXN0-7248;RXN66-469;RXN66-477;RXN66-480;RXN66-483;RXN66-484;TRANS-RXN0-623
ASE14_15225	Unknown	RXN0-5131
ASE14_05640	Unknown	PROPIONYL-COA-CARBOXY-RXN;RXN0-5055;RXN1G-4355
ASE14_07010	Unknown	GLUTAMATE-DEHYDROGENASE-NADP+-RXN;GLUTAMATE-DEHYDROGENASE-RXN;GLUTDEHYD-RXN
ASE14_04975	Unknown	HISTIDPHOS-RXN
ASE14_15900	Unknown	3-OXOSTEROID-1-DEHYDROGENASE-RXN;RXN-12690;RXN-12714;RXN-12741
ASE14_01315	Unknown	RXN0-1281
ASE14_12835	Unknown	RXN-11355;RXN-12243;RXN-12244
ASE14_03395	Unknown	IGPSYN-RXN
ASE14_03780	Unknown	3.1.13.5-RXN;RXN0-6483;RXN0-6484
ASE14_04285	pyrH	RXN-12002
ASE14_05270	manB	5.4.2.10-RXN;RXN-16424;RXN0-7139
ASE14_01865	Unknown	GLUTAMINESYN-RXN
ASE14_10335	Unknown	1.8.1.4-RXN;RXN-7716;RXN-7719;RXN-8629;RXN0-1132
ASE14_17025	Unknown	DIAMINOPIMEPIM-RXN
ASE14_17150	Unknown	RXN-14014
ASE14_03990	Unknown	3.4.11.2-RXN
ASE14_04355	Unknown	3.1.26.4-RXN
ASE14_13940	Unknown	ACID-PHOSPHATASE-RXN;RXN-5822
ASE14_13070	Unknown	3-HYDROXYISOBUTYRYL-COA-HYDROLASE-RXN;RXN-13721;RXN-6384
ASE14_10395	Unknown	ADENYLOSUCCINATE-SYNTHASE-RXN
ASE14_05870	Unknown	RXN-12720;SULFATE-ADENYLYLTRANS-RXN
ASE14_09000	Unknown	OHMETPYRKIN-RXN
ASE14_12470	Unknown	ATPASE-RXN
ASE14_02735	Unknown	ACETYL-COA-ACETYLTRANSFER-RXN;METHYLACETOACETYLCOATHIOL-RXN;RXN-12561
ASE14_03460	Unknown	P-PANTOCYSDECARB-RXN
ASE14_17005	Unknown	HOMOCYSMET-RXN
ASE14_18960	Unknown	CITSYN-RXN
ASE14_07075	Unknown	RXN0-4261
ASE14_13725	Unknown	DNA-LIGASE-ATP-RXN;RXN-17917;RXN-17918;RXN-17919
ASE14_03695	thrS	THREONINE--TRNA-LIGASE-RXN
ASE14_08315	Unknown	ALPHAGALACTOSID-RXN;RXN-11501;RXN-11502;RXN-12088;RXN-17754;RXN-17830
ASE14_18540	Unknown	RXNI-2
ASE14_03630	Unknown	RXN0-4261
ASE14_05745	Unknown	RXN-14971;RXN-15378;SUCCINATE-DEHYDROGENASE-UBIQUINONE-RXN
ASE14_19705	Unknown	ACETYLHOMOSER-CYS-RXN;O-ACETYLHOMOSERINE-THIOL-LYASE-RXN
ASE14_07995	Unknown	LYSINE--TRNA-LIGASE-RXN
ASE14_19645	Unknown	METHIONINE--TRNA-LIGASE-RXN;RXN-16165
ASE14_06385	Unknown	ACETATEKIN-RXN
ASE14_07645	Unknown	ALLOPHANATE-HYDROLASE-RXN
ASE14_18720	Unknown	RXN0-4261
ASE14_07275	Unknown	5.4.2.10-RXN;RXN-16424;RXN0-7139
ASE14_04650	Unknown	RXN-9591
ASE14_06835	Unknown	GLYOXIII-RXN
ASE14_01890	Unknown	RXN-14950;RXN-14957;RXN-14959;RXN0-949
ASE14_06830	Unknown	3.2.1.52-RXN;RXN-12625;RXN-12626;RXN-18082;RXN0-5226
ASE14_18530	Unknown	ACETYL-COA-ACETYLTRANSFER-RXN;METHYLACETOACETYLCOATHIOL-RXN;RXN-12561
ASE14_19490	eno	2PGADEHYDRAT-RXN
ASE14_02360	Unknown	DNA-DIRECTED-DNA-POLYMERASE-RXN
ASE14_05265	Unknown	ADENOSYLHOMOCYSTEINASE-RXN
ASE14_06870	Unknown	F16ALDOLASE-RXN;RXN-8631
ASE14_14710	Unknown	DIHYDROFOLATEREDUCT-RXN;RXN-18357
ASE14_00345	Unknown	2.7.13.3-RXN
ASE14_09680	Unknown	HISTIDINE-AMMONIA-LYASE-RXN
ASE14_10575	Unknown	RXN0-275
ASE14_18950	Unknown	TETHYDPICSUCC-RXN
ASE14_14765	Unknown	2.7.13.3-RXN
ASE14_00275	Unknown	GLUCISOM-RXN;XYLISOM-RXN
ASE14_09160	Unknown	PMPOXI-RXN;PNPOXI-RXN
ASE14_00030	Unknown	2-HALOACID-DEHALOGENASE-RXN
ASE14_18080	Unknown	ARGININE--TRNA-LIGASE-RXN
ASE14_02545	Unknown	RXN0-4961
ASE14_18655	Unknown	THIOREDOXIN-REDUCT-NADPH-RXN
ASE14_01700	Unknown	RXN1A0-6303
ASE14_06230	Unknown	DURIDKI-RXN;THYKI-RXN
ASE14_04450	Unknown	PROLINE-RACEMASE-RXN
ASE14_00795	Unknown	HOLO-ACP-SYNTH-RXN
ASE14_15395	Unknown	CARBOXYMETHYLENEBUTENOLIDASE-RXN;DIENELACHYDRO-RXN;RXN-9857;RXN-9868;RXN-9887;RXN-9890
ASE14_13090	Unknown	CITSYN-RXN
ASE14_03570	Unknown	ALANINE--TRNA-LIGASE-RXN
ASE14_11900	Unknown	5.99.1.3-RXN
ASE14_16995	Unknown	3.4.21.88-RXN
ASE14_18735	Unknown	RXN0-4261
ASE14_07640	Unknown	SPERMINE-SYNTHASE-RXN
ASE14_10615	Unknown	RXN-8078
ASE14_05470	Unknown	GDPMANDEHYDRA-RXN
ASE14_17640	Unknown	FADSYN-RXN;RIBOFLAVINKIN-RXN;RXN-18510;RXN-18511
ASE14_19725	Unknown	RXN0-5131
ASE14_10665	Unknown	GAMMA-GLUTAMYLTRANSFERASE-RXN;RXN-18092;RXN-6601;RXN-9157;RXN66-336
ASE14_16865	Unknown	ARGSUCCINLYA-RXN;RXN-22
ASE14_02720	Unknown	RXN-698;RXN-7973;RXN-7974
ASE14_08700	Unknown	GLYOXIII-RXN
ASE14_02575	Unknown	PSERPHOSPHA-RXN;RXN0-5114
ASE14_00420	Unknown	SUPEROX-DISMUT-RXN
ASE14_12350	Unknown	DIHYDRODIPICSYN-RXN
ASE14_04655	Unknown	UDPNACETYLGLUCOSAMENOLPYRTRANS-RXN
ASE14_03625	ruvB	RXN0-4261
ASE14_05540	Unknown	DTDPDEHYDRHAMEPIM-RXN
ASE14_19075	Unknown	QUINOLINATE-SYNTHA-RXN
ASE14_04890	Unknown	DIHYDROXYISOVALDEHYDRAT-RXN;DIHYDROXYMETVALDEHYDRAT-RXN
ASE14_06680	Unknown	POLYPHOSPHATE-KINASE-RXN
ASE14_02680	Unknown	CYTIDEAM-RXN;CYTIDEAM2-RXN
ASE14_18955	Unknown	PENICILLIN-AMIDASE-RXN;RXN-17099
ASE14_04875	Unknown	ACETOLACTREDUCTOISOM-RXN;ACETOOHBUTREDUCTOISOM-RXN
ASE14_18405	Unknown	NAG1P-URIDYLTRANS-RXN
ASE14_06890	purU	FORMYLTHFDEFORMYL-RXN
ASE14_06000	Unknown	RXN-1;RXN-10778;RXN-10817;RXN-10907;RXN-10908;RXN-10910;RXN-10913;RXN-11067;RXN-1401;RXN-5821;RXN-9598;RXN6666-4
ASE14_19395	Unknown	RXN-15122;THREDEHYD-RXN
ASE14_03475	Unknown	OROTPDECARB-RXN
ASE14_10100	Unknown	CATAL-RXN;RXN-14189;RXN66-1
ASE14_15610	Unknown	QOR-RXN
ASE14_19210	Unknown	GLYOXIII-RXN
ASE14_15935	Unknown	MANNONDEHYDRAT-RXN
ASE14_18145	Unknown	AMIDASE-RXN;GUANIDINOBUTANAMIDE-NH3-RXN;PYRAZIN-RXN;R311-RXN;RXN-14727;RXN-14728;RXN-17608;RXNN-404
ASE14_17750	Unknown	3-HYDROXYBUTYRATE-DEHYDROGENASE-RXN
ASE14_10235	Unknown	2-HALOACID-DEHALOGENASE-RXN
ASE14_01130	Unknown	DNA-DIRECTED-DNA-POLYMERASE-RXN
ASE14_03945	Unknown	RXN0-2601
ASE14_03465	Unknown	DNA-DIRECTED-RNA-POLYMERASE-RXN
ASE14_16985	Unknown	ASPAMINOTRANS-RXN;RXN-10814;RXN-11737;RXN-13697
ASE14_06145	Unknown	5.99.1.2-RXN
ASE14_10910	Unknown	3.4.13.19-RXN;RXN-15682;RXN66-337
ASE14_19355	aspA	ASPARTASE-RXN
ASE14_17505	Unknown	GLUTAMINESYN-RXN
ASE14_12050	Unknown	PROTEIN-KINASE-RXN
ASE14_06260	Unknown	MALATE-DEHYDROGENASE-ACCEPTOR-RXN;RXNI-3
ASE14_02035	glpK	GLYCEROL-KIN-RXN
ASE14_14000	Unknown	O-SUCCINYLBENZOATE-COA-SYN-RXN
ASE14_04155	Unknown	6.3.5.7-RXN
ASE14_16110	Unknown	ACYLCOADEHYDROG-RXN;RXN-17775;RXN-17779;RXN-17783;RXN-17784;RXN-17788;RXN-17792;RXN-17796
ASE14_15015	Unknown	GLUCONOKIN-RXN
ASE14_11825	Unknown	DALADALALIG-RXN
ASE14_13255	Unknown	3.1.1.64-RXN;CARBOXYLESTERASE-RXN;RETINYL-PALMITATE-ESTERASE-RXN;RXN-10711;RXN-10767;RXN-12252;RXN-12575;RXNQT-4366
ASE14_16320	Unknown	CYSTATHIONINE-BETA-SYNTHASE-RXN;RXN-19038;RXN66-534;RXN66-562
ASE14_17160	Unknown	RXN-17131;RXN-17132;RXN-17133
ASE14_09155	Unknown	RXN-11135
ASE14_13950	Unknown	RXN-16226
ASE14_01250	Unknown	2-ISOPROPYLMALATESYN-RXN
ASE14_19720	Unknown	RXN0-5131
ASE14_17470	Unknown	RXN1A0-6303
ASE14_18665	Unknown	RXN-982
ASE14_14935	Unknown	RXN-12134;RXN-12140;RXN-12141;RXN-12142
ASE14_08935	Unknown	UROGENIIISYN-RXN
ASE14_03755	Unknown	ATPASE-RXN
ASE14_13585	Unknown	PREPHENATEDEHYDRAT-RXN
ASE14_17115	Unknown	DIHYDROFOLATEREDUCT-RXN;RXN-18357
ASE14_04660	Unknown	3-ISOPROPYLMALISOM-RXN;R-2-METHYLMALATE-DEHYDRATASE-RXN;RXN-13163;RXN-7744;RXN-8991
ASE14_19625	Unknown	2.7.1.148-RXN
ASE14_06330	Unknown	ASPARTATEKIN-RXN
ASE14_15290	Unknown	4-CARBOXYMUCONOLACTONE-DECARBOXYLASE-RXN
ASE14_09425	Unknown	3-HYDROXYBUTYRYL-COA-DEHYDROGENASE-RXN
ASE14_04070	Unknown	NAD-SYNTH-NH3-RXN
ASE14_19170	Unknown	3.2.2.23-RXN;RXN-18435
ASE14_09145	Unknown	AGMATINE-DEIMINASE-RXN
ASE14_12290	Unknown	ATPASE-RXN
ASE14_08445	Unknown	ACYLCOADEHYDROG-RXN;RXN-17775;RXN-17779;RXN-17783;RXN-17784;RXN-17788;RXN-17792;RXN-17796
ASE14_16890	Unknown	N-ACETYLGLUTPREDUCT-RXN;RXN-15006
ASE14_05575	Unknown	RXN0-743
ASE14_01510	Unknown	DIHYDROFOLATEREDUCT-RXN;RXN-18357
ASE14_06895	Unknown	RXN0-2001
ASE14_12055	Unknown	PROTEIN-KINASE-RXN
ASE14_03070	Unknown	GLUTKIN-RXN
ASE14_19350	Unknown	CARBODEHYDRAT-RXN;RXN0-5224
ASE14_13510	Unknown	RXN-13039;RXN-17127;RXN-8654;RXN-8655;RXN0-1141;RXN0-5098
ASE14_15100	Unknown	AMIDASE-RXN;GUANIDINOBUTANAMIDE-NH3-RXN;PYRAZIN-RXN;R311-RXN;RXN-14727;RXN-14728;RXN-17608;RXNN-404
ASE14_01820	Unknown	TRANSALDOL-RXN
ASE14_03805	acnA	ACONITATEDEHYDR-RXN;ACONITATEHYDR-RXN;RXN-14047
ASE14_12745	Unknown	GLUTRNAREDUCT-RXN
ASE14_18310	rph	RXN0-6481;RXN0-6482;TRNA-NUCLEOTIDYLTRANSFERASE-RXN
ASE14_04455	Unknown	DIHYDRODIPICSYN-RXN
ASE14_19225	Unknown	3.11.1.2-RXN
ASE14_12025	Unknown	PEPTIDYLPROLYL-ISOMERASE-RXN
ASE14_07255	Unknown	ALARACECAT-RXN
ASE14_19495	Unknown	HISTIDINE--TRNA-LIGASE-RXN
ASE14_16945	Unknown	ATPASE-RXN
ASE14_04625	Unknown	RXN0-6515
ASE14_18280	Unknown	2.5.1.19-RXN
ASE14_13860	Unknown	2.7.13.3-RXN
ASE14_11120	Unknown	NARINGENIN-CHALCONE-SYNTHASE-RXN;RXN-11468
ASE14_15945	Unknown	ADOMET-DMK-METHYLTRANSFER-RXN
ASE14_07015	purH	AICARTRANSFORM-RXN;IMPCYCLOHYDROLASE-RXN
ASE14_05805	Unknown	RIBOFLAVINSYNDEAM-RXN;RIBOFLAVINSYNREDUC-RXN
ASE14_02240	Unknown	GLYOXIII-RXN
ASE14_00635	Unknown	ACYLCOASYN-RXN;LINOLENOYL-RXN;R223-RXN;RXN-12184;RXN-12978;RXN-13290;RXN-13614;RXN-16380;RXN-16389;RXN-16393;RXN-16401;RXN-16402;RXN-16415;RXN-16418;RXN-7904;RXN-9623;RXN-9644;RXN-9673;RXN0-7238;RXN0-7239;RXN0-7248;RXN66-469;RXN66-477;RXN66-480;RXN66-483;RXN66-484;TRANS-RXN0-623
ASE14_09710	Unknown	2.7.13.3-RXN
ASE14_11635	Unknown	AICARSYN-RXN;AMPSYN-RXN
ASE14_13790	Unknown	URACIL-PRIBOSYLTRANS-RXN
ASE14_17185	Unknown	ACYLCOADEHYDROG-RXN;RXN-17775;RXN-17779;RXN-17783;RXN-17784;RXN-17788;RXN-17792;RXN-17796
ASE14_03425	Unknown	ATPPHOSPHORIBOSYLTRANS-RXN
ASE14_03420	Unknown	GLUTAMIDOTRANS-RXN;GLUTAMIN-RXN;RXN-17900
ASE14_04580	Unknown	3.1.26.3-RXN
ASE14_14045	Unknown	ISOCHORSYN-RXN
ASE14_01620	Unknown	2.3.1.179-RXN;2.3.1.41-RXN;3-OXOACYL-ACP-SYNTH-BASE-RXN;3-OXOACYL-ACP-SYNTH-RXN;RXN-10654;RXN-10658;RXN-11474;RXN-11479;RXN-16615;RXN-16621;RXN-16625;RXN-16629;RXN-8391;RXN-9516;RXN-9523;RXN-9527;RXN-9531;RXN-9535;RXN-9539;RXN0-2141;RXN1G-460;RXN3O-1803
ASE14_06620	Unknown	CYSTEINE--TRNA-LIGASE-RXN
ASE14_03260	pgk	PHOSGLYPHOS-RXN
ASE14_06030	Unknown	4.1.2.20-RXN;KDGALDOL-RXN
ASE14_09985	Unknown	RXN-17362
ASE14_12780	Unknown	RXN-10642;UROGENDECARBOX-RXN
ASE14_12085	Unknown	2.4.1.230-RXN;RXN-15358
ASE14_11195	Unknown	KDPGALDOL-RXN
ASE14_04035	Unknown	3.1.2.23-RXN
ASE14_17030	Unknown	RXN0-6274
ASE14_18260	kgd	RXN-7774
ASE14_12310	Unknown	HYDROXY-MANDELATE-RACEMASE-RXN;MANDELATE-RACEMASE-RXN
ASE14_12505	Unknown	3.4.21.83-RXN
ASE14_01650	Unknown	1.11.1.15-RXN;RXN0-5468
ASE14_16480	Unknown	RXN0-5100
ASE14_06880	Unknown	3.5.1.80-RXN;NAG6PDEACET-RXN
ASE14_08775	Unknown	RXN-12134;RXN-12140;RXN-12141;RXN-12142
ASE14_09720	Unknown	UROCANATE-HYDRATASE-RXN
ASE14_16805	Unknown	ASPAMINOTRANS-RXN;RXN-10814;RXN-11737;RXN-13697
ASE14_07335	Unknown	2.7.3.9-RXN;RXN-17354;RXN-17355
ASE14_18195	Unknown	HOMOSERINE-O-ACETYLTRANSFERASE-RXN
ASE14_15220	Unknown	RXN0-5131
ASE14_06815	Unknown	METHENYLTHFCYCLOHYDRO-RXN;METHYLENETHFDEHYDROG-NADP-RXN
ASE14_19070	Unknown	RXN0-1441
ASE14_11810	Unknown	THIOREDOXIN-REDUCT-NADPH-RXN
ASE14_04405	Unknown	3.4.11.1-RXN
ASE14_00670	Unknown	FARNESYLTRANSTRANSFERASE-RXN
ASE14_06520	Unknown	DNA-DIRECTED-DNA-POLYMERASE-RXN;RXN0-4961
ASE14_03415	Unknown	HISTCYCLOHYD-RXN
ASE14_18845	Unknown	3.4.11.1-RXN
ASE14_00640	Unknown	GLUCOKIN-RXN;HEXOKINASE-RXN
ASE14_03205	Unknown	RXN-11109;RXN-11135
ASE14_16880	Unknown	ACETYLGLUTKIN-RXN;RXN-15005
ASE14_09750	Unknown	ATPASE-RXN
ASE14_06210	Unknown	UGD-RXN
ASE14_06820	Unknown	GLYOHMETRANS-RXN;RXN0-5234
ASE14_08745	Unknown	2.7.13.3-RXN
ASE14_18065	Unknown	HOMOSERDEHYDROG-RXN
ASE14_04375	Unknown	3.4.11.18-RXN;RXN-17873;RXN-17874;RXN-17875;RXN-17876;RXN-17877;RXN-17878
ASE14_04645	Unknown	GLYC3PDEHYDROGBIOSYN-RXN
ASE14_05340	Unknown	RXN-9998
ASE14_17710	Unknown	PROLINE--TRNA-LIGASE-RXN
ASE14_05735	Unknown	RXN-14971;RXN-15378;SUCCINATE-DEHYDROGENASE-UBIQUINONE-RXN
ASE14_07990	Unknown	RXN-15212;SPHINGOMYELIN-PHOSPHODIESTERASE-RXN
ASE14_08490	Unknown	RXN0-4261
ASE14_01840	Unknown	2.7.1.63-RXN
ASE14_12500	Unknown	RIBOFLAVINSYNREDUC-RXN
ASE14_14745	Unknown	RXN0-4261
ASE14_03595	Unknown	ATPASE-RXN
ASE14_10540	Unknown	1.2.1.27-RXN;RXN-11213;RXN-2902
ASE14_18060	Unknown	THRESYN-RXN
ASE14_05765	Unknown	3.1.11.2-RXN
ASE14_12300	Unknown	GLUTDECARBOX-RXN
ASE14_13470	Unknown	ARGININE--TRNA-LIGASE-RXN
ASE14_03505	Unknown	URACIL-PRIBOSYLTRANS-RXN
ASE14_02910	Unknown	DNA-DIRECTED-DNA-POLYMERASE-RXN
ASE14_15385	Unknown	ALANINE-DEHYDROGENASE-RXN
ASE14_16020	Unknown	2.1.1.79-RXN;RXN-7421;RXN1G-2544;RXN1G-3641
ASE14_13815	Unknown	PYRROLINECARBREDUCT-RXN;RXN66-546
ASE14_15765	Unknown	GALACTUROISOM-RXN;GLUCUROISOM-RXN
ASE14_00620	Unknown	PYRUVATE-CARBOXYLASE-RXN
ASE14_18160	Unknown	RXN0-2584
ASE14_00705	Unknown	UDP-NACMURALGLDAPLIG-RXN
ASE14_06135	Unknown	DNA-DIRECTED-DNA-POLYMERASE-RXN
ASE14_03225	Unknown	PGLUCISOM-RXN
ASE14_08000	Unknown	PANTOATE-BETA-ALANINE-LIG-RXN
ASE14_03105	Unknown	CDPKIN-RXN;DADPKIN-RXN;DCDPKIN-RXN;DGDPKIN-RXN;DTDPKIN-RXN;DUDPKIN-RXN;GDPKIN-RXN;NUCLEOSIDE-DIP-KIN-RXN;RXN-14120;RXN-14228;UDPKIN-RXN
ASE14_16970	Unknown	PRAISOM-RXN;PRIBFAICARPISOM-RXN
ASE14_15390	Unknown	1.10.2.2-RXN;RXN-15829
ASE14_09410	Unknown	RXN0-5100
ASE14_05695	Unknown	CYTIDEAM-RXN;CYTIDEAM2-RXN
ASE14_04845	Unknown	PGLYCDEHYDROG-RXN
ASE14_12920	Unknown	RXN0-5375
ASE14_18255	Unknown	IMP-DEHYDROG-RXN
ASE14_00470	Unknown	1.8.4.12-RXN
ASE14_01860	Unknown	GLUTAMINESYN-RXN
ASE14_17420	Unknown	PEPTIDYLPROLYL-ISOMERASE-RXN
ASE14_17330	Unknown	METHELENE-THMPT-OXI-RXN
ASE14_11895	Unknown	5.99.1.2-RXN
ASE14_16875	Unknown	ACETYLORNTRANSAM-RXN;RXN-15007
ASE14_00630	Unknown	3.5.1.27-RXN;3.5.1.88-RXN
ASE14_04615	Unknown	RXN0-4261
ASE14_13610	Unknown	RXN0-2161;SERINE--TRNA-LIGASE-RXN
ASE14_17210	Unknown	METHYLCROTONYL-COA-CARBOXYLASE-RXN
ASE14_10005	Unknown	GLYOXIII-RXN
ASE14_08040	Unknown	GTP-CYCLOHYDRO-I-RXN
ASE14_18535	Unknown	RXNI-2
ASE14_18055	Unknown	HOMOSERKIN-RXN
ASE14_06325	Unknown	ASPARTATE-SEMIALDEHYDE-DEHYDROGENASE-RXN
ASE14_00060	Unknown	RXN0-1441
ASE14_13970	Unknown	R4-RXN
ASE14_14055	Unknown	FARNESYLTRANSTRANSFERASE-RXN
ASE14_16950	Unknown	RXN0-2601
ASE14_02820	Unknown	RXN1A0-6303
ASE14_06530	Unknown	O-SUCCINYLBENZOATE-COA-SYN-RXN
