{
    "com_prodtargets": [
        "M_GLY_c",
        "M_VAL_c",
        "M_L__45__ASPARTATE_c",
        "M_HIS_c",
        "M_ARG_c",
        "M_CPD__45__110_c",
        "M_PRO_c",
        "M_ASN_c",
        "M_PHE_c",
        "M_TYR_c",
        "M_LEU_c",
        "M_TRP_c",
        "M_GLN_c"
    ],
    "com_scope": [
        "M_CPD__45__1828_c",
        "M_P__45__RIBOSYL__45__4__45__SUCCCARB__45__AMINOIMIDAZOLE_c",
        "M_L__45__ASPARTATE_c",
        "M_DIHYDRO__45__DIOH__45__BENZOATE_c",
        "M_PYRUVATE_c",
        "M_ISOVALERYL__45__COA_c",
        "M_2__45__KETO__45__ISOVALERATE_c",
        "M_ECTOINE_c",
        "M_CPD__45__10684_c",
        "M_D__45__ALA__45__D__45__ALA_c",
        "M_UREA_c",
        "M_4__45__P__45__PANTOTHENATE_c",
        "M_MANNOSE__45__1P_c",
        "M_1__45__L__45__MYO__45__INOSITOL__45__1__45__P_c",
        "M_ALPHA__45__RIBAZOLE__45__5__45__P_c",
        "M_PYRIDOXINE__45__5P_c",
        "M_ADENYLOSUCC_c",
        "M_CPD__45__9189_c",
        "M_2K__45__4CH3__45__PENTANOATE_c",
        "M_CPD__45__12773_c",
        "M_FORMAMIDE_c",
        "M_CPD__45__1772_c",
        "M_3__45__HYDROXY__45__ANTHRANILATE_c",
        "M_CPD__45__448_c",
        "M_CPD__45__7224_c",
        "M_METHYL__45__GLYOXAL_c",
        "M_PROTOPORPHYRIN_IX_c",
        "M_4__45__AMINO__45__BUTYRATE_c",
        "M_D__45__METHYL__45__MALONYL__45__COA_c",
        "M_TYR_c",
        "M_HOMO__45__CIT_c",
        "M_CPD__45__622_c",
        "M_3__45__HYDROXY__45__ISOVALERYL__45__COA_c",
        "M_UNDECAPRENYL__45__DIPHOSPHATE_c",
        "M_TRANS__45__23__45__DEHYDROADIPYL__45__COA_c",
        "M_CDP__45__D__45__GLUCOSE_c",
        "M_COPROPORPHYRINOGEN_III_c",
        "M_DUTP_c",
        "M_CPD__45__26_c",
        "M_DOPAMINE_c",
        "M_PHOSPHORIBOSYL__45__FORMIMINO__45__AICAR__45__P_c",
        "M_3__45__KETO__45__ADIPYL__45__COA_c",
        "M_CPD__45__7737_c",
        "M_PROPIONATE_c",
        "M_CPD__45__13469_c",
        "M_CPD__45__7003_c",
        "M_4__45__OH__45__4__45__ACETYL__45__2__45__OXOGLUTARATE_c",
        "M_CARBAMOYL__45__P_c",
        "M_S__45__3__45__HYDROXYBUTANOYL__45__COA_c",
        "M_UDP__45__AA__45__GLUTAMATE_c",
        "M_N__45__ACETYL__45__GLUTAMYL__45__P_c",
        "M_CPD__45__11855_c",
        "M_CPD__45__12427_c",
        "M_GALACTOSE_c",
        "M_ALLANTOATE_c",
        "M_2__45__PHOSPHO__45__4__45__CYTIDINE__45__5__45__DIPHOSPHO__45__2__45__C__45__MET_c",
        "M_CGMP_c",
        "M_3__45__P__45__HYDROXYPYRUVATE_c",
        "M_CPD__45__597_c",
        "M_CPD__45__9387_c",
        "M_ASN_c",
        "M_ACETOACETYL__45__COA_c",
        "M_SQUALENE_c",
        "M_S__45__ALLANTOIN_c",
        "M_DOPAQUINONE_c",
        "M_CPD__45__9925_c",
        "M_2__45__ACETO__45__LACTATE_c",
        "M_CPD0__45__2298_c",
        "M_DCDP_c",
        "M_CPD__45__375_c",
        "M_GLYOX_c",
        "M_ALPHA__45__GLUCOSE_c",
        "M_CPD__45__10751_c",
        "M_GAP_c",
        "M_ISOBUTYRYL__45__COA_c",
        "M_GMP_c",
        "M_3__45__ENOLPYRUVYL__45__SHIKIMATE__45__5P_c",
        "M_CPD__45__317_c",
        "M_ALPHA__45__GLC__45__6__45__P_c",
        "M_ALPHA__45__D__45__GALACTOSE_c",
        "M_HYDROXYLAMINE_c",
        "M_1__45__AMINO__45__PROPAN__45__2__45__ONE__45__3__45__PHOSPHATE_c",
        "M_ACETONE_c",
        "M_THIAMINE__45__P_c",
        "M_CPD__45__9610_c",
        "M_XYLULOSE__45__5__45__PHOSPHATE_c",
        "M_CPD__45__1091_c",
        "M_OCTAPRENYL__45__DIPHOSPHATE_c",
        "M_2__45__C__45__METHYL__45__D__45__ERYTHRITOL__45__4__45__PHOSPHATE_c",
        "M_CPD__45__428_c",
        "M_CPD__45__12849_c",
        "M_HOMOGENTISATE_c",
        "M_URIDINE_c",
        "M_CPD__45__187_c",
        "M_ACETYL__45__COA_c",
        "M_FMNH2_c",
        "M_3__45__CARBOXY__45__3__45__HYDROXY__45__ISOCAPROATE_c",
        "M_MANNITOL__45__1P_c",
        "M_2__45__KETO__45__3__45__DEOXY__45__6__45__P__45__GLUCONATE_c",
        "M_AMINO__45__HYDROXYMETHYL__45__METHYLPYRIMIDINE__45__PP_c",
        "M_D__45__ALANINE_c",
        "M_CPD__45__308_c",
        "M_DCTP_c",
        "M_FADH2_c",
        "M_L__45__ORNITHINE_c",
        "M_3__45__UREIDO__45__PROPIONATE_c",
        "M_SUC_c",
        "M_METHYL__45__MALONYL__45__COA_c",
        "M_G3P_c",
        "M_CPD__45__764_c",
        "M_2__45__AMINOMUCONATE_SEMIALDEHYDE_c",
        "M_TRP_c",
        "M_HISTIDINOL_c",
        "M_PHENYLACETATE_c",
        "M_OXALO__45__SUCCINATE_c",
        "M_N__45__ACETYL__45__L__45__24__45__DIAMINOBUTANOATE_c",
        "M_CPD__45__12279_c",
        "M_D__45__Glucopyranuronate_c",
        "M_CPD__45__674_c",
        "M_CPD__45__641_c",
        "M_4__45__FUMARYL__45__ACETOACETATE_c",
        "M_GLC__45__1__45__P_c",
        "M_FRUCTOSE__45__6P_c",
        "M_ACRYLYL__45__COA_c",
        "M_CARBAMATE_c",
        "M_AMINO__45__HYDROXYMETHYL__45__METHYL__45__PYR__45__P_c",
        "M_CPD__45__15975_c",
        "M_3S__45__CITRYL__45__COA_c",
        "M_DELTA3__45__ISOPENTENYL__45__PP_c",
        "M_34__45__DIHYDROXYPHENYLACETALDEHYDE_c",
        "M_CPD__45__19776_c",
        "M_QUINOLINATE_c",
        "M_4__45__HYDROXY__45__BUTYRATE_c",
        "M_CPD__45__761_c",
        "M_CPD__45__551_c",
        "M_CPD__45__10752_c",
        "M_CIS__45__ACONITATE_c",
        "M_MEVALONATE_c",
        "M_BIO__45__5__45__AMP_c",
        "M_L__45__CITRULLINE_c",
        "M_PREPHENATE_c",
        "M_FORMATE_c",
        "M_DIHYDROXY__45__ACETONE__45__PHOSPHATE_c",
        "M_DEOXY__45__D__45__RIBOSE__45__1__45__PHOSPHATE_c",
        "M_CPD__45__14443_c",
        "M_3__45__HYDROXYADIPYL__45__COA_c",
        "M_PAPS_c",
        "M_CPD__45__87_c",
        "M_GLUCOSAMINE__45__1P_c",
        "M_GLC__45__D__45__LACTONE_c",
        "M_NICOTINATE_NUCLEOTIDE_c",
        "M_CPD__45__13043_c",
        "M_NITRIC__45__OXIDE_c",
        "M_2__45__AMINOMALONATE__45__SEMIALDEHYDE_c",
        "M_4__45__IMIDAZOLONE__45__5__45__PROPIONATE_c",
        "M_NICOTINAMIDE_NUCLEOTIDE_c",
        "M_2__45__3__45__DIHYDROXYBENZOATE_c",
        "M_L__45__HISTIDINOL__45__P_c",
        "M_DAMP_c",
        "M_GUANINE_c",
        "M_DEHYDRO__45__DEOXY__45__GALACTONATE__45__PHOSPHATE_c",
        "M_CPD__45__618_c",
        "M_IMP_c",
        "M_TREHALOSE_c",
        "M_4__45__AMINO__45__BUTYRALDEHYDE_c",
        "M_FMN_c",
        "M_P__45__HYDROXY__45__PHENYLPYRUVATE_c",
        "M_CHORISMATE_c",
        "M_HCO3_c",
        "M_PHE_c",
        "M_CPD__45__6972_c",
        "M_URACIL_c",
        "M_CTP_c",
        "M_D__45__LACTOYL__45__COA_c",
        "M_RIBULOSE__45__5P_c",
        "M_5__45__P__45__BETA__45__D__45__RIBOSYL__45__AMINE_c",
        "M_2__45__AMINO__45__MUCONATE_c",
        "M_NICOTINAMIDE_RIBOSE_c",
        "M_MANNOSE_c",
        "M_CPD__45__465_c",
        "M_L__45__THREO__45__3__45__METHYL__45__ASPARTATE_c",
        "M_PTEROATE_c",
        "M_CPD__45__1083_c",
        "M_CPD__45__208_c",
        "M_CPD0__45__1699_c",
        "M_OXALACETIC_ACID_c",
        "M_CPD__45__10796_c",
        "M_FUM_c",
        "M_CPD__45__11975_c",
        "M_OXOPENTENOATE_c",
        "M_CATECHOL_c",
        "M_CPD__45__5821_c",
        "M_OH__45__CROTONYL__45__COA_c",
        "M_CPD__45__10353_c",
        "M_CPD__45__606_c",
        "M_METOH_c",
        "M_GUANOSINE__45__5DP__45__3DP_c",
        "M_CPD__45__13644_c",
        "M_CPD__45__13357_c",
        "M_DEOXYXYLULOSE__45__5P_c",
        "M_ANTHRANILATE_c",
        "M_CPD__45__17189_c",
        "M_CPD__45__600_c",
        "M_N2__45__SUCCINYLORNITHINE_c",
        "M_3__45__KETO__45__ADIPATE_c",
        "M_L__45__ASPARTATE__45__SEMIALDEHYDE_c",
        "M_ADENOSYLCOBALAMIN__45__5__45__P_c",
        "M_PSEUDOURIDINE__45__5__45__P_c",
        "M_CPD__45__1136_c",
        "M_MG__45__PROTOPORPHYRIN_c",
        "M_CPD__45__15616_c",
        "M_CPD__45__13034_c",
        "M_L__45__LACTATE_c",
        "M_3__45__DEHYDRO__45__SHIKIMATE_c",
        "M_CPD__45__1133_c",
        "M_CPD__45__645_c",
        "M_THZ_c",
        "M_VAL_c",
        "M_CPD__45__316_c",
        "M_ADENOSYLCOBINAMIDE__45__GDP_c",
        "M_PRO_c",
        "M_3__45__HYDROXY__45__L__45__KYNURENINE_c",
        "M_CPD__45__10753_c",
        "M_CAMP_c",
        "M_PYRIDOXAL_PHOSPHATE_c",
        "M_CPD__45__16572_c",
        "M_HYPOXANTHINE_c",
        "M_CPD0__45__1456_c",
        "M_PRPP_c",
        "M_CPD__45__654_c",
        "M_AICAR_c",
        "M_INDOLE_c",
        "M_2__45__KETOGLUTARATE_c",
        "M_CPD__45__2961_c",
        "M_DEHYDROQUINATE_c",
        "M_TARTRONATE__45__S__45__ALD_c",
        "M_CPD__45__1763_c",
        "M_DIHYDROXY__45__BUTANONE__45__P_c",
        "M_2C__45__METH__45__D__45__ERYTHRITOL__45__CYCLODIPHOSPHATE_c",
        "M_CPD__45__1106_c",
        "M_2__45__KETO__45__3__45__DEOXY__45__D__45__GLUCARATE_c",
        "M_5__45__HYDROXYISOURATE_c",
        "M_DEOXYINOSINE_c",
        "M_SHIKIMATE__45__5P_c",
        "M_UDP__45__GLUCURONATE_c",
        "M_CPD__45__10754_c",
        "M_CPD__45__464_c",
        "M_CPD__45__14808_c",
        "M_DEOXYURIDINE_c",
        "M_3__45__DEOXY__45__D__45__ARABINO__45__HEPTULOSONATE__45__7__45__P_c",
        "M_UROCANATE_c",
        "M_GLYCEROL_c",
        "M_CPD__45__12321_c",
        "M_2__45__METHYL__45__ACETO__45__ACETYL__45__COA_c",
        "M_HCN_c",
        "M_DEOXY__45__RIBOSE__45__5P_c",
        "M_UDP__45__ACETYL__45__CARBOXYVINYL__45__GLUCOSAMINE_c",
        "M_OROTIDINE__45__5__45__PHOSPHATE_c",
        "M_L__45__ARGININO__45__SUCCINATE_c",
        "M_LIPOYL__45__AMP_c",
        "M_GLUCONATE_c",
        "M_GDP__45__MANNOSE_c",
        "M_CPD__45__9451_c",
        "M_CPD0__45__2184_c",
        "M_ADENINE_c",
        "M_PROTOPORPHYRINOGEN_c",
        "M_ARG_c",
        "M_ISOCHORISMATE_c",
        "M_D__45__GLUCOSAMINE__45__6__45__P_c",
        "M_CIS__45__CIS__45__MUCONATE_c",
        "M_PROPIONYL__45__COA_c",
        "M_CPD__45__636_c",
        "M_DIMETHYLBENZIMIDAZOLE_c",
        "M_CPD__45__6124_c",
        "M_OROTATE_c",
        "M_N__45__ALPHA__45__ACETYLORNITHINE_c",
        "M_ADENOSINE_c",
        "M_DI__45__H__45__URACIL_c",
        "M_D__45__6__45__P__45__GLUCONO__45__DELTA__45__LACTONE_c",
        "M_CYTIDINE_c",
        "M_PROTOHEME_c",
        "M_GUANOSINE_c",
        "M_XANTHOSINE__45__5__45__PHOSPHATE_c",
        "M_CPD__45__650_c",
        "M_CPD__45__13518_c",
        "M_3__45__4__45__DIHYDROXYBENZOATE_c",
        "M_CPD__45__9409_c",
        "M_PHENYL__45__PYRUVATE_c",
        "M_CPD__45__12575_c",
        "M_CPD__45__14736_c",
        "M_THREO__45__DS__45__ISO__45__CITRATE_c",
        "M_CPD__45__245_c",
        "M_MALEATE_c",
        "M_DGMP_c",
        "M_PYRIDOXAL_c",
        "M_FARNESYL__45__PP_c",
        "M_DCMP_c",
        "M_UTP_c",
        "M_CPD__45__335_c",
        "M_DPG_c",
        "M_3__45__HYDROXY__45__3__45__METHYL__45__GLUTARYL__45__COA_c",
        "M_4__45__MALEYL__45__ACETOACETATE_c",
        "M_CPD__45__15124_c",
        "M_CPD__45__110_c",
        "M_DI__45__H__45__OROTATE_c",
        "M_CPD__45__17063_c",
        "M_CPD__45__15382_c",
        "M_D__45__ERYTHRO__45__IMIDAZOLE__45__GLYCEROL__45__P_c",
        "M_N__45__ACETYL__45__D__45__GLUCOSAMINE__45__1__45__P_c",
        "M_CPD__45__20826_c",
        "M_2__45__AMINO__45__3__45__3__45__OXOPROP__45__2__45__ENYL__45__BUT__45__2__45__ENEDI_c",
        "M_5__45__AMINO__45__LEVULINATE_c",
        "M_CPD__45__14553_c",
        "M_CPD__45__223_c",
        "M_N__45__5__45__PHOSPHORIBOSYL__45__ANTHRANILATE_c",
        "M_PHOSPHORIBOSYL__45__ATP_c",
        "M_GLUTACONATE_c",
        "M_N__45__FORMYLKYNURENINE_c",
        "M_CDP_c",
        "M_CPD__45__470_c",
        "M_HISTIDINAL_c",
        "M_GLYCERATE_c",
        "M_CPD__45__578_c",
        "M_INDOLE_PYRUVATE_c",
        "M_SUC__45__COA_c",
        "M_GERANYLGERANYL__45__PP_c",
        "M_OH__45__PYR_c",
        "M_CPD__45__15015_c",
        "M_CPD__45__207_c",
        "M_O__45__SUCCINYLBENZOATE_c",
        "M_ERYTHRONATE__45__4P_c",
        "M_UDP__45__N__45__ACETYL__45__D__45__GLUCOSAMINE_c",
        "M_PHOSPHORIBOSYL__45__AMP_c",
        "M_DEOXYGUANOSINE_c",
        "M_IMINOASPARTATE_c",
        "M_INDOLE_ACETALDEHYDE_c",
        "M_L__45__GLUTAMATE_GAMMA__45__SEMIALDEHYDE_c",
        "M_TRANS__45__3__45__METHYL__45__GLUTACONYL__45__COA_c",
        "M_ACETYL__45__P_c",
        "M_HOP__45__2229__45__ENE_c",
        "M_CPD__45__9923_c",
        "M_ADP__45__D__45__GLUCOSE_c",
        "M_CARBAMYUL__45__L__45__ASPARTATE_c",
        "M_PUTRESCINE_c",
        "M_7__45__AMINOMETHYL__45__7__45__DEAZAGUANINE_c",
        "M_XANTHINE_c",
        "M_AMMONIUM_c",
        "M_DIAMINO__45__OH__45__PHOSPHORIBOSYLAMINO__45__PYR_c",
        "M_MAL_c",
        "M_CPD__45__614_c",
        "M_DUMP_c",
        "M_DIHYDROMONAPTERIN__45__TRIPHOSPHATE_c",
        "M_GDP__45__4__45__DEHYDRO__45__6__45__DEOXY__45__D__45__MANNOSE_c",
        "M_5__45__PHOSPHO__45__RIBOSYL__45__GLYCINEAMIDE_c",
        "M_L__45__RIBULOSE__45__5__45__P_c",
        "M_CPD__45__20840_c",
        "M_L__45__GLUTAMATE__45__5__45__P_c",
        "M_CPD__45__15127_c",
        "M_CPD__45__10755_c",
        "M_CPD__45__313_c",
        "M_L__45__ALPHA__45__ALANINE_c",
        "M_CPD__45__19755_c",
        "M_PHYTYL__45__PYROPHOSPHATE_c",
        "M_S__45__CITRAMALATE_c",
        "M_CPD__45__19757_c",
        "M_DIHYDROXYACETONE_c",
        "M_GLN_c",
        "M_ARABINOSE__45__5P_c",
        "M_PROTON_e",
        "M_DEOXYADENOSINE_c",
        "M_CPD__45__421_c",
        "M_GLYCOLLATE_c",
        "M_SORBITOL_c",
        "M_APS_c",
        "M_RIBOSE__45__5P_c",
        "M_CPD__45__4211_c",
        "M_MYO__45__INOSITOL_c",
        "M_GDP__45__TP_c",
        "M_CPD__45__13339_c",
        "M_HYDROXYMETHYLBILANE_c",
        "M_D__45__Ribofuranose_c",
        "M_CMP_c",
        "M_CPD__45__499_c",
        "M_GLC_c",
        "M_HIS_c",
        "M_CPD__45__9646_c",
        "M_CPD__45__602_c",
        "M_PHOSPHORIBULOSYL__45__FORMIMINO__45__AICAR__45__P_c",
        "M_MALONYL__45__COA_c",
        "M_3__45__METHYL__45__CROTONYL__45__COA_c",
        "M_PORPHOBILINOGEN_c",
        "M_CPD__45__16569_c",
        "M_3OH__45__4P__45__OH__45__ALPHA__45__KETOBUTYRATE_c",
        "M_D__45__glucopyranose__45__6__45__phosphate_c",
        "M_CPD__45__14872_c",
        "M_2__45__HYDROXYGLUTARYL__45__COA_c",
        "M_CPD__45__19775_c",
        "M_THZ__45__P_c",
        "M_AGMATHINE_c",
        "M_ACETYLSERINE_c",
        "M_4__45__AMINO__45__4__45__DEOXYCHORISMATE_c",
        "M_Glutamates_c",
        "M_HYDROXYMUCONATE__45__SALD_c",
        "M_CPD__45__15999_c",
        "M_GERANYL__45__PP_c",
        "M_GLY_c",
        "M_ACETYL__45__GLU_c",
        "M_CPD__45__569_c",
        "M_CPD__45__469_c",
        "M_CPD__45__18011_c",
        "M_4__45__OXALOMESACONATE_c",
        "M_P3I_c",
        "M_CROTONYL__45__COA_c",
        "M_CPD__45__14021_c",
        "M_XANTHOSINE_c",
        "M_DGTP_c",
        "M_CARBOXYPHENYLAMINO__45__DEOXYRIBULOSE__45__P_c",
        "M_GAMMA__45__GLUTAMYL__45__PUTRESCINE_c",
        "M_GLYCEROL__45__3P_c",
        "M_6__45__PYRUVOYL__45__5678__45__TETRAHYDROPTERIN_c",
        "M_TREHALOSE__45__6P_c",
        "M_SER_c",
        "M_INOSINE_c",
        "M_4__45__PHOSPHONOOXY__45__THREONINE_c",
        "M_N__45__FORMIMINO__45__L__45__GLUTAMATE_c",
        "M_MALTOSE_c",
        "M_FRUCTOSE__45__16__45__DIPHOSPHATE_c",
        "M_CPD__45__8742_c",
        "M_D__45__SEDOHEPTULOSE__45__7__45__P_c",
        "M_PSICOSE_c",
        "M_IMIDAZOLE__45__ACETOL__45__P_c",
        "M_ALL__45__TRANS__45__HEPTAPRENYL__45__DIPHOSPHATE_c",
        "M_D__45__altropyranoses_c",
        "M_L__45__BETA__45__ASPARTYL__45__P_c",
        "M_DIHYDRONEOPTERIN__45__P3_c",
        "M_INDOLE__45__3__45__GLYCEROL__45__P_c",
        "M_UROPORPHYRINOGEN__45__III_c",
        "M_CHLORITE_c",
        "M_CPD__45__10683_c",
        "M_D__45__PROLINE_c",
        "M_GLUTACONYL__45__COA_c",
        "M_CPD__45__369_c",
        "M_CPD__45__9924_c",
        "M_3__45__OXOADIPATE__45__ENOL__45__LACTONE_c",
        "M_2__45__PG_c",
        "M_CPD__45__13734_c",
        "M_CPD__45__658_c",
        "M_SHIKIMATE_c",
        "M_LACTOYL__45__COA_c",
        "M_CPD__45__30_c",
        "M_CPD__45__302_c",
        "M_GLT_c",
        "M_HYDROGEN__45__MOLECULE_c",
        "M_D__45__RIBULOSE__45__15__45__P2_c",
        "M_ACETALD_c",
        "M_FORMALDEHYDE_c",
        "M_DEOXYCYTIDINE_c",
        "M_2__45__METHYL__45__3__45__HYDROXY__45__BUTYRYL__45__COA_c",
        "M_CPD__45__1086_c",
        "M_CPD__45__18238_c",
        "M_NMNH_c",
        "M_PHOSPHO__45__ENOL__45__PYRUVATE_c",
        "M_GLC__45__6__45__P_c",
        "M_Glucopyranose_c",
        "M_ERYTHROSE__45__4P_c",
        "M_GALACTOSE__45__1P_c",
        "M_CPD__45__14310_c",
        "M_CPD__45__10791_c",
        "M_DEAMIDO__45__NAD_c",
        "M_LEU_c",
        "M_RIBOSE__45__1P_c",
        "M_CPD__45__11555_c",
        "M_HMP_c",
        "M_CPD__45__15979_c",
        "M_4__45__HYDROXY__45__2__45__KETOVALERATE_c",
        "M_5__45__KETO__45__4__45__DEOXY__45__D__45__GLUCARATE_c",
        "M_UDP__45__N__45__ACETYLMURAMATE_c",
        "M_2__45__D__45__THREO__45__HYDROXY__45__3__45__CARBOXY__45__ISOCAPROATE_c",
        "M_PHENYLACETALDEHYDE_c",
        "M_UMP_c",
        "M_2__45__AMINOBENZOYL__45__COA_c",
        "M_SUCC__45__S__45__ALD_c",
        "M_4__45__HYDROXY__45__BUTYRYL__45__COA_c",
        "M_ACET_c",
        "M_CPD__45__8259_c",
        "M_CPD__45__7000_c",
        "M_2__45__ALPHA__45__HYDROXYETHYL__45__THPP_c",
        "M_CPD__45__7002_c",
        "M_CPD__45__657_c",
        "M_D__45__GLT_c",
        "M_CPD__45__15317_c",
        "M_L__45__DIHYDROXY__45__PHENYLALANINE_c",
        "M_CPD__45__16663_c",
        "M_CPD__45__827_c",
        "M_PHENOL_c",
        "M_CPD__45__11495_c",
        "M_7__45__CYANO__45__7__45__DEAZAGUANINE_c",
        "M_CPD__45__62_c",
        "M_ALPHA__45__RIBAZOLE_c",
        "M_DATP_c",
        "M_THIAMINE__45__PYROPHOSPHATE_c",
        "M_D__45__LACTATE_c",
        "M_3__45__KETOBUTYRATE_c",
        "M_CPD__45__10750_c",
        "M_PHOSPHORIBOSYL__45__FORMAMIDO__45__CARBOXAMIDE_c",
        "M_CPD__45__235_c",
        "M_UDP__45__D__45__GALACTO__45__14__45__FURANOSE_c",
        "M_CPD__45__7100_c",
        "M_2__45__AMINOACRYLATE_c",
        "M_URATE_c",
        "M_D__45__ALPHABETA__45__D__45__HEPTOSE__45__7__45__PHOSPHATE_c",
        "M_4__45__CYTIDINE__45__5__45__DIPHOSPHO__45__2__45__C_c",
        "M_CPD__45__389_c",
        "M_3__45__P__45__SERINE_c"
    ],
    "com_unprodtargets": [
        "M_ETHYLENE__45__CMPD_c",
        "M_INDOLE_ACETATE_AUXIN_c",
        "M_CYS_c",
        "M_CPD__45__693_c",
        "M_ILE_c",
        "M_MET_c",
        "M_THR_c",
        "M_CPD__45__734_c",
        "M_LYS_c"
    ],
    "targets_producers": {
        "M_ARG_c": [
            "Root369",
            "Root278",
            "Root1252",
            "Root1497",
            "Root258",
            "Root614",
            "Root480",
            "Root268",
            "Root318D1",
            "Root280D1",
            "Root604",
            "Root1433D1",
            "Root1480D1",
            "Root214",
            "Root436",
            "Root4",
            "Root170",
            "Root1272",
            "Root918",
            "Root930",
            "Root231",
            "Root85",
            "Root336D2",
            "Root267",
            "Root487D2Y",
            "Root190",
            "Root635",
            "Root485",
            "Root682",
            "Root147",
            "Root651",
            "Root1221",
            "Root1290",
            "Root61",
            "Root472D3",
            "Root695",
            "Root335",
            "Root558",
            "Root920",
            "Root901",
            "Root954",
            "Root565",
            "Root1444",
            "Root179",
            "Root1304",
            "Root224",
            "Root561",
            "Root1464",
            "Root209",
            "Root351",
            "Root672",
            "Root70",
            "Root76",
            "Root1212",
            "Root494",
            "Root1310",
            "Root63",
            "Root1238",
            "Root1257",
            "Root329",
            "Root265",
            "Root107",
            "Root656",
            "Root1423",
            "Root101",
            "Root9",
            "Root52",
            "Root413D1",
            "Root127",
            "Root217",
            "Root608",
            "Root1294",
            "Root74",
            "Root81",
            "Root264",
            "Root79",
            "Root122",
            "Root71",
            "Root1237",
            "Root1472",
            "Root554",
            "Root935",
            "Root434",
            "Root627",
            "Root198D2",
            "Root670",
            "Root1293",
            "Root227",
            "Root65",
            "Root343",
            "Root123D2",
            "Root1217",
            "Root157",
            "Root564",
            "Root186",
            "Root662",
            "Root149",
            "Root342",
            "Root630",
            "Root569",
            "Root105",
            "Root275",
            "Root1319",
            "Root690",
            "Root495",
            "Root55",
            "Root667",
            "Root16D2",
            "Root1298",
            "Root685",
            "Root1471",
            "Root332",
            "Root1485",
            "Root1240",
            "Root66D1",
            "Root401",
            "Root482",
            "Root181",
            "Root68",
            "Root83",
            "Root420",
            "Root100",
            "Root136",
            "Root1334",
            "Root710",
            "Root151",
            "Root563",
            "Root404",
            "Root154",
            "Root1280",
            "Root1462",
            "Root189",
            "Root444D2",
            "Root77",
            "Root274",
            "Root1279",
            "Root1203",
            "Root322",
            "Root1277",
            "Root180",
            "Root60",
            "Root1220",
            "Root73",
            "Root473",
            "Root135",
            "Root418",
            "Root402",
            "Root1455",
            "Root140",
            "Root166",
            "Root431",
            "Root96",
            "Root131",
            "Root491",
            "Root241",
            "Root219",
            "Root133",
            "Root1295",
            "Root29",
            "Root983",
            "Root50",
            "Root1204",
            "Root483D2",
            "Root236",
            "Root142",
            "Root31",
            "Root137",
            "Root239",
            "Root381",
            "Root240",
            "Root720",
            "Root112D2",
            "Root423",
            "Root344",
            "Root559",
            "Root708",
            "Root11",
            "Root405",
            "Root552",
            "Root562",
            "Root483D1",
            "Root53",
            "Root187",
            "Root411",
            "Root916",
            "Root22",
            "Root568",
            "Root102",
            "Root700",
            "Root456",
            "Root172",
            "Root1312",
            "Root553"
        ],
        "M_ASN_c": [
            "Root179",
            "Root561",
            "Root76",
            "Root494",
            "Root935",
            "Root627",
            "Root65",
            "Root186",
            "Root630",
            "Root690",
            "Root667",
            "Root420",
            "Root96",
            "Root131",
            "Root983",
            "Root559",
            "Root11",
            "Root916",
            "Root480",
            "Root604",
            "Root901"
        ],
        "M_CPD__45__110_c": [
            "Root329",
            "Root71",
            "Root569",
            "Root401",
            "Root68"
        ],
        "M_GLN_c": [
            "Root81",
            "Root77",
            "Root274",
            "Root322",
            "Root1220",
            "Root1237",
            "Root135",
            "Root554",
            "Root935",
            "Root434",
            "Root627",
            "Root402",
            "Root1293",
            "Root431",
            "Root96",
            "Root123D2",
            "Root131",
            "Root491",
            "Root219",
            "Root133",
            "Root564",
            "Root29",
            "Root186",
            "Root50",
            "Root149",
            "Root662",
            "Root1204",
            "Root142",
            "Root31",
            "Root342",
            "Root239",
            "Root381",
            "Root630",
            "Root569",
            "Root105",
            "Root240",
            "Root112D2",
            "Root495",
            "Root423",
            "Root55",
            "Root667",
            "Root16D2",
            "Root708",
            "Root1298",
            "Root11",
            "Root1471",
            "Root552",
            "Root1240",
            "Root562",
            "Root483D1",
            "Root53",
            "Root401",
            "Root187",
            "Root411",
            "Root181",
            "Root68",
            "Root700",
            "Root172",
            "Root420",
            "Root100",
            "Root553",
            "Root151",
            "Root369",
            "Root1334",
            "Root710",
            "Root1497",
            "Root404",
            "Root154",
            "Root318D1",
            "Root604",
            "Root4",
            "Root1279",
            "Root1203",
            "Root1277",
            "Root180",
            "Root60",
            "Root170",
            "Root73",
            "Root473",
            "Root1272",
            "Root930",
            "Root336D2",
            "Root267",
            "Root190",
            "Root418",
            "Root1455",
            "Root1221",
            "Root140",
            "Root1290",
            "Root695",
            "Root166",
            "Root335",
            "Root241",
            "Root920",
            "Root1295",
            "Root565",
            "Root983",
            "Root1304",
            "Root483D2",
            "Root236",
            "Root137",
            "Root209",
            "Root720",
            "Root344",
            "Root559",
            "Root494",
            "Root405",
            "Root916",
            "Root1238",
            "Root22",
            "Root568",
            "Root102",
            "Root456",
            "Root1312",
            "Root278",
            "Root656",
            "Root1252",
            "Root413D1",
            "Root127",
            "Root258",
            "Root608",
            "Root614",
            "Root1294",
            "Root74",
            "Root264",
            "Root480",
            "Root268",
            "Root79",
            "Root280D1",
            "Root122",
            "Root1433D1",
            "Root71",
            "Root1480D1",
            "Root214",
            "Root436",
            "Root1472",
            "Root198D2",
            "Root918",
            "Root670",
            "Root231",
            "Root227",
            "Root85",
            "Root487D2Y",
            "Root635",
            "Root65",
            "Root343",
            "Root485",
            "Root1217",
            "Root682",
            "Root147",
            "Root651",
            "Root157",
            "Root61",
            "Root472D3",
            "Root558",
            "Root901",
            "Root954",
            "Root1444",
            "Root275",
            "Root179",
            "Root1319",
            "Root690",
            "Root224",
            "Root561",
            "Root1464",
            "Root351",
            "Root685",
            "Root332",
            "Root672",
            "Root70",
            "Root1485",
            "Root76",
            "Root66D1",
            "Root1212",
            "Root482",
            "Root1310",
            "Root63",
            "Root83",
            "Root136",
            "Root1257",
            "Root563",
            "Root329",
            "Root265",
            "Root107",
            "Root1423",
            "Root1280",
            "Root1462",
            "Root101",
            "Root9",
            "Root189",
            "Root444D2",
            "Root52",
            "Root217"
        ],
        "M_GLY_c": [
            "Root217",
            "Root122",
            "Root670",
            "Root123D2",
            "Root157",
            "Root16D2",
            "Root1485",
            "Root181",
            "Root83",
            "Root1462",
            "Root189",
            "Root77",
            "Root1277",
            "Root473",
            "Root418",
            "Root140",
            "Root219",
            "Root133",
            "Root1295",
            "Root29",
            "Root381",
            "Root552",
            "Root483D1",
            "Root411",
            "Root700",
            "Root172",
            "Root151",
            "Root278",
            "Root318D1",
            "Root436",
            "Root170",
            "Root1272",
            "Root85",
            "Root1290",
            "Root695",
            "Root565",
            "Root209",
            "Root351",
            "Root63",
            "Root1238",
            "Root102"
        ],
        "M_HIS_c": [
            "Root236",
            "Root137",
            "Root209",
            "Root720",
            "Root344",
            "Root672",
            "Root559",
            "Root76",
            "Root494",
            "Root405",
            "Root1310",
            "Root916",
            "Root1238",
            "Root22",
            "Root568",
            "Root102",
            "Root278",
            "Root656",
            "Root1252",
            "Root413D1",
            "Root127",
            "Root258",
            "Root608",
            "Root1294",
            "Root74",
            "Root264",
            "Root480",
            "Root79",
            "Root280D1",
            "Root122",
            "Root1433D1",
            "Root71",
            "Root1480D1",
            "Root214",
            "Root1237",
            "Root436",
            "Root1472",
            "Root627",
            "Root198D2",
            "Root918",
            "Root670",
            "Root231",
            "Root227",
            "Root85",
            "Root487D2Y",
            "Root635",
            "Root65",
            "Root343",
            "Root485",
            "Root1217",
            "Root682",
            "Root147",
            "Root651",
            "Root157",
            "Root61",
            "Root472D3",
            "Root558",
            "Root901",
            "Root1444",
            "Root275",
            "Root179",
            "Root1319",
            "Root690",
            "Root224",
            "Root561",
            "Root1464",
            "Root351",
            "Root685",
            "Root332",
            "Root70",
            "Root1485",
            "Root66D1",
            "Root1212",
            "Root482",
            "Root63",
            "Root83",
            "Root420",
            "Root136",
            "Root1257",
            "Root563",
            "Root329",
            "Root265",
            "Root107",
            "Root1423",
            "Root1280",
            "Root1462",
            "Root101",
            "Root9",
            "Root189",
            "Root444D2",
            "Root52",
            "Root217",
            "Root81",
            "Root77",
            "Root274",
            "Root1279",
            "Root322",
            "Root1220",
            "Root135",
            "Root554",
            "Root935",
            "Root434",
            "Root402",
            "Root1293",
            "Root431",
            "Root96",
            "Root123D2",
            "Root131",
            "Root491",
            "Root219",
            "Root133",
            "Root564",
            "Root29",
            "Root186",
            "Root50",
            "Root149",
            "Root662",
            "Root1204",
            "Root142",
            "Root31",
            "Root342",
            "Root239",
            "Root381",
            "Root630",
            "Root569",
            "Root105",
            "Root240",
            "Root112D2",
            "Root495",
            "Root423",
            "Root55",
            "Root667",
            "Root16D2",
            "Root1298",
            "Root708",
            "Root11",
            "Root1471",
            "Root552",
            "Root1240",
            "Root562",
            "Root53",
            "Root483D1",
            "Root401",
            "Root187",
            "Root411",
            "Root181",
            "Root68",
            "Root700",
            "Root456",
            "Root172",
            "Root100",
            "Root1312",
            "Root553",
            "Root151",
            "Root369",
            "Root1334",
            "Root710",
            "Root1497",
            "Root404",
            "Root154",
            "Root614",
            "Root268",
            "Root318D1",
            "Root604",
            "Root4",
            "Root1203",
            "Root1277",
            "Root180",
            "Root170",
            "Root60",
            "Root73",
            "Root473",
            "Root1272",
            "Root930",
            "Root336D2",
            "Root267",
            "Root190",
            "Root418",
            "Root1455",
            "Root1221",
            "Root140",
            "Root1290",
            "Root695",
            "Root335",
            "Root166",
            "Root241",
            "Root920",
            "Root954",
            "Root1295",
            "Root565",
            "Root983",
            "Root1304",
            "Root483D2"
        ],
        "M_LEU_c": [
            "Root190",
            "Root1455",
            "Root1221",
            "Root140",
            "Root1290",
            "Root695",
            "Root166",
            "Root241",
            "Root920",
            "Root1295",
            "Root565",
            "Root983",
            "Root1304",
            "Root483D2",
            "Root236",
            "Root137",
            "Root209",
            "Root720",
            "Root344",
            "Root672",
            "Root559",
            "Root494",
            "Root405",
            "Root916",
            "Root1238",
            "Root22",
            "Root568",
            "Root102",
            "Root456",
            "Root1312",
            "Root278",
            "Root656",
            "Root1252",
            "Root413D1",
            "Root127",
            "Root258",
            "Root614",
            "Root608",
            "Root1294",
            "Root74",
            "Root264",
            "Root480",
            "Root268",
            "Root79",
            "Root280D1",
            "Root122",
            "Root1433D1",
            "Root71",
            "Root214",
            "Root436",
            "Root1472",
            "Root918",
            "Root670",
            "Root231",
            "Root227",
            "Root85",
            "Root487D2Y",
            "Root635",
            "Root65",
            "Root343",
            "Root485",
            "Root1217",
            "Root682",
            "Root147",
            "Root157",
            "Root61",
            "Root472D3",
            "Root558",
            "Root901",
            "Root954",
            "Root1444",
            "Root275",
            "Root179",
            "Root1319",
            "Root690",
            "Root224",
            "Root561",
            "Root1464",
            "Root685",
            "Root332",
            "Root70",
            "Root76",
            "Root66D1",
            "Root1212",
            "Root482",
            "Root1310",
            "Root63",
            "Root83",
            "Root420",
            "Root136",
            "Root1257",
            "Root563",
            "Root329",
            "Root265",
            "Root107",
            "Root1423",
            "Root1280",
            "Root1462",
            "Root101",
            "Root9",
            "Root189",
            "Root444D2",
            "Root52",
            "Root217",
            "Root81",
            "Root77",
            "Root274",
            "Root322",
            "Root1220",
            "Root1237",
            "Root135",
            "Root554",
            "Root935",
            "Root434",
            "Root627",
            "Root402",
            "Root1293",
            "Root431",
            "Root96",
            "Root123D2",
            "Root131",
            "Root219",
            "Root29",
            "Root186",
            "Root50",
            "Root662",
            "Root1204",
            "Root142",
            "Root31",
            "Root342",
            "Root239",
            "Root381",
            "Root630",
            "Root569",
            "Root105",
            "Root240",
            "Root112D2",
            "Root495",
            "Root423",
            "Root55",
            "Root667",
            "Root16D2",
            "Root1298",
            "Root708",
            "Root11",
            "Root1471",
            "Root1240",
            "Root552",
            "Root562",
            "Root483D1",
            "Root53",
            "Root401",
            "Root187",
            "Root411",
            "Root181",
            "Root68",
            "Root700",
            "Root172",
            "Root100",
            "Root553",
            "Root151",
            "Root369",
            "Root1334",
            "Root710",
            "Root1497",
            "Root404",
            "Root154",
            "Root318D1",
            "Root604",
            "Root4",
            "Root1279",
            "Root1203",
            "Root1277",
            "Root180",
            "Root170",
            "Root60",
            "Root73",
            "Root473",
            "Root1272",
            "Root930",
            "Root267"
        ],
        "M_L__45__ASPARTATE_c": [
            "Root1203",
            "Root1277",
            "Root180",
            "Root170",
            "Root60",
            "Root73",
            "Root473",
            "Root1272",
            "Root930",
            "Root336D2",
            "Root267",
            "Root190",
            "Root418",
            "Root1455",
            "Root1221",
            "Root140",
            "Root1290",
            "Root695",
            "Root166",
            "Root335",
            "Root241",
            "Root920",
            "Root954",
            "Root1295",
            "Root565",
            "Root983",
            "Root1304",
            "Root483D2",
            "Root236",
            "Root137",
            "Root209",
            "Root720",
            "Root344",
            "Root672",
            "Root559",
            "Root76",
            "Root494",
            "Root405",
            "Root1310",
            "Root916",
            "Root1238",
            "Root22",
            "Root568",
            "Root102",
            "Root278",
            "Root656",
            "Root1252",
            "Root413D1",
            "Root127",
            "Root258",
            "Root614",
            "Root608",
            "Root1294",
            "Root74",
            "Root264",
            "Root480",
            "Root79",
            "Root280D1",
            "Root122",
            "Root1433D1",
            "Root71",
            "Root1480D1",
            "Root214",
            "Root1237",
            "Root436",
            "Root1472",
            "Root627",
            "Root198D2",
            "Root918",
            "Root670",
            "Root231",
            "Root227",
            "Root85",
            "Root487D2Y",
            "Root635",
            "Root65",
            "Root343",
            "Root485",
            "Root1217",
            "Root682",
            "Root147",
            "Root651",
            "Root157",
            "Root61",
            "Root472D3",
            "Root558",
            "Root901",
            "Root1444",
            "Root275",
            "Root179",
            "Root1319",
            "Root690",
            "Root224",
            "Root561",
            "Root1464",
            "Root351",
            "Root685",
            "Root332",
            "Root70",
            "Root1485",
            "Root66D1",
            "Root1212",
            "Root482",
            "Root63",
            "Root83",
            "Root420",
            "Root136",
            "Root1257",
            "Root563",
            "Root329",
            "Root265",
            "Root107",
            "Root1423",
            "Root1280",
            "Root1462",
            "Root101",
            "Root9",
            "Root189",
            "Root444D2",
            "Root52",
            "Root217",
            "Root81",
            "Root77",
            "Root274",
            "Root1279",
            "Root322",
            "Root1220",
            "Root135",
            "Root554",
            "Root935",
            "Root434",
            "Root402",
            "Root1293",
            "Root431",
            "Root96",
            "Root123D2",
            "Root131",
            "Root491",
            "Root219",
            "Root133",
            "Root564",
            "Root29",
            "Root186",
            "Root50",
            "Root149",
            "Root662",
            "Root1204",
            "Root142",
            "Root31",
            "Root342",
            "Root239",
            "Root381",
            "Root630",
            "Root569",
            "Root105",
            "Root240",
            "Root112D2",
            "Root495",
            "Root423",
            "Root55",
            "Root667",
            "Root16D2",
            "Root1298",
            "Root708",
            "Root11",
            "Root1471",
            "Root552",
            "Root1240",
            "Root562",
            "Root53",
            "Root483D1",
            "Root401",
            "Root187",
            "Root411",
            "Root181",
            "Root68",
            "Root700",
            "Root456",
            "Root172",
            "Root100",
            "Root1312",
            "Root553",
            "Root151",
            "Root369",
            "Root1334",
            "Root710",
            "Root1497",
            "Root404",
            "Root154",
            "Root268",
            "Root318D1",
            "Root604",
            "Root4"
        ],
        "M_PHE_c": [
            "Root198D2",
            "Root1272",
            "Root918",
            "Root231",
            "Root227",
            "Root85",
            "Root487D2Y",
            "Root635",
            "Root343",
            "Root485",
            "Root682",
            "Root147",
            "Root651",
            "Root157",
            "Root61",
            "Root335",
            "Root558",
            "Root920",
            "Root901",
            "Root954",
            "Root565",
            "Root1444",
            "Root179",
            "Root1319",
            "Root690",
            "Root224",
            "Root561",
            "Root1464",
            "Root351",
            "Root685",
            "Root332",
            "Root672",
            "Root70",
            "Root1485",
            "Root76",
            "Root66D1",
            "Root1212",
            "Root482",
            "Root1310",
            "Root63",
            "Root83",
            "Root136",
            "Root1257",
            "Root329",
            "Root265",
            "Root107",
            "Root1423",
            "Root1280",
            "Root1462",
            "Root9",
            "Root189",
            "Root444D2",
            "Root52",
            "Root217",
            "Root81",
            "Root79",
            "Root274",
            "Root322",
            "Root1220",
            "Root1237",
            "Root135",
            "Root554",
            "Root935",
            "Root434",
            "Root627",
            "Root402",
            "Root670",
            "Root1293",
            "Root65",
            "Root431",
            "Root123D2",
            "Root491",
            "Root1217",
            "Root219",
            "Root133",
            "Root564",
            "Root29",
            "Root186",
            "Root50",
            "Root662",
            "Root149",
            "Root1204",
            "Root142",
            "Root31",
            "Root342",
            "Root239",
            "Root381",
            "Root630",
            "Root569",
            "Root105",
            "Root275",
            "Root240",
            "Root112D2",
            "Root423",
            "Root55",
            "Root667",
            "Root16D2",
            "Root1298",
            "Root708",
            "Root11",
            "Root1471",
            "Root1240",
            "Root562",
            "Root53",
            "Root483D1",
            "Root401",
            "Root187",
            "Root411",
            "Root181",
            "Root68",
            "Root700",
            "Root172",
            "Root420",
            "Root100",
            "Root553",
            "Root151",
            "Root369",
            "Root1334",
            "Root710",
            "Root1497",
            "Root404",
            "Root154",
            "Root318D1",
            "Root604",
            "Root77",
            "Root1279",
            "Root1203",
            "Root1277",
            "Root180",
            "Root170",
            "Root60",
            "Root73",
            "Root473",
            "Root930",
            "Root336D2",
            "Root267",
            "Root190",
            "Root418",
            "Root1455",
            "Root1221",
            "Root140",
            "Root1290",
            "Root695",
            "Root166",
            "Root96",
            "Root131",
            "Root241",
            "Root1295",
            "Root983",
            "Root1304",
            "Root483D2",
            "Root137",
            "Root209",
            "Root720",
            "Root344",
            "Root559",
            "Root405",
            "Root552",
            "Root916",
            "Root1238",
            "Root22",
            "Root568",
            "Root102",
            "Root456",
            "Root1312",
            "Root278",
            "Root656",
            "Root1252",
            "Root413D1",
            "Root127",
            "Root258",
            "Root608",
            "Root614",
            "Root1294",
            "Root74",
            "Root264",
            "Root480",
            "Root268",
            "Root280D1",
            "Root1433D1",
            "Root71",
            "Root1480D1",
            "Root214",
            "Root436",
            "Root1472",
            "Root4"
        ],
        "M_PRO_c": [
            "Root258",
            "Root268",
            "Root318D1",
            "Root280D1",
            "Root1480D1",
            "Root214",
            "Root436",
            "Root4",
            "Root231",
            "Root85",
            "Root267",
            "Root651",
            "Root1221",
            "Root1290",
            "Root695",
            "Root335",
            "Root558",
            "Root954",
            "Root565",
            "Root1444",
            "Root1464",
            "Root209",
            "Root351",
            "Root70",
            "Root1212",
            "Root482",
            "Root1310",
            "Root63",
            "Root563",
            "Root329",
            "Root265",
            "Root107",
            "Root101",
            "Root9",
            "Root189",
            "Root444D2",
            "Root127",
            "Root217",
            "Root1294",
            "Root74",
            "Root81",
            "Root264",
            "Root79",
            "Root71",
            "Root1237",
            "Root554",
            "Root434",
            "Root198D2",
            "Root670",
            "Root123D2",
            "Root1217",
            "Root157",
            "Root564",
            "Root50",
            "Root662",
            "Root149",
            "Root569",
            "Root275",
            "Root1319",
            "Root55",
            "Root1298",
            "Root1471",
            "Root1240",
            "Root562",
            "Root66D1",
            "Root401",
            "Root181",
            "Root68",
            "Root83",
            "Root172",
            "Root100",
            "Root136",
            "Root369",
            "Root1334",
            "Root710",
            "Root404",
            "Root154",
            "Root1462",
            "Root77",
            "Root274",
            "Root1203",
            "Root1277",
            "Root170",
            "Root1220",
            "Root73",
            "Root473",
            "Root135",
            "Root336D2",
            "Root418",
            "Root402",
            "Root140",
            "Root431",
            "Root131",
            "Root491",
            "Root219",
            "Root1295",
            "Root1204",
            "Root1304",
            "Root483D2",
            "Root142",
            "Root31",
            "Root381",
            "Root240",
            "Root720",
            "Root423",
            "Root708",
            "Root11",
            "Root405",
            "Root552",
            "Root483D1",
            "Root187",
            "Root411",
            "Root568",
            "Root102",
            "Root700",
            "Root456",
            "Root1312",
            "Root553",
            "Root151",
            "Root278",
            "Root1252"
        ],
        "M_TRP_c": [
            "Root172",
            "Root420",
            "Root136",
            "Root369",
            "Root1334",
            "Root710",
            "Root404",
            "Root154",
            "Root1280",
            "Root77",
            "Root322",
            "Root180",
            "Root1277",
            "Root170",
            "Root60",
            "Root73",
            "Root473",
            "Root135",
            "Root930",
            "Root336D2",
            "Root418",
            "Root402",
            "Root140",
            "Root431",
            "Root166",
            "Root96",
            "Root131",
            "Root219",
            "Root133",
            "Root1295",
            "Root29",
            "Root983",
            "Root1304",
            "Root236",
            "Root142",
            "Root137",
            "Root31",
            "Root239",
            "Root381",
            "Root240",
            "Root720",
            "Root112D2",
            "Root423",
            "Root344",
            "Root559",
            "Root11",
            "Root405",
            "Root552",
            "Root53",
            "Root187",
            "Root411",
            "Root916",
            "Root22",
            "Root568",
            "Root102",
            "Root700",
            "Root456",
            "Root1312",
            "Root553",
            "Root151",
            "Root278",
            "Root1252",
            "Root1497",
            "Root258",
            "Root614",
            "Root480",
            "Root318D1",
            "Root280D1",
            "Root604",
            "Root1433D1",
            "Root1480D1",
            "Root214",
            "Root436",
            "Root4",
            "Root1272",
            "Root918",
            "Root231",
            "Root85",
            "Root267",
            "Root190",
            "Root635",
            "Root485",
            "Root682",
            "Root147",
            "Root1221",
            "Root1290",
            "Root61",
            "Root472D3",
            "Root695",
            "Root335",
            "Root558",
            "Root920",
            "Root901",
            "Root954",
            "Root565",
            "Root1444",
            "Root179",
            "Root224",
            "Root561",
            "Root1464",
            "Root209",
            "Root351",
            "Root685",
            "Root672",
            "Root70",
            "Root76",
            "Root494",
            "Root1310",
            "Root63",
            "Root1238",
            "Root1257",
            "Root563",
            "Root329",
            "Root265",
            "Root107",
            "Root101",
            "Root9",
            "Root189",
            "Root444D2",
            "Root52",
            "Root413D1",
            "Root127",
            "Root217",
            "Root1294",
            "Root74",
            "Root81",
            "Root264",
            "Root79",
            "Root122",
            "Root71",
            "Root1237",
            "Root554",
            "Root935",
            "Root434",
            "Root627",
            "Root198D2",
            "Root670",
            "Root1293",
            "Root227",
            "Root65",
            "Root343",
            "Root1217",
            "Root157",
            "Root186",
            "Root50",
            "Root662",
            "Root342",
            "Root630",
            "Root569",
            "Root105",
            "Root275",
            "Root1319",
            "Root690",
            "Root495",
            "Root55",
            "Root667",
            "Root16D2",
            "Root1298",
            "Root1471",
            "Root332",
            "Root1485",
            "Root562",
            "Root66D1",
            "Root401",
            "Root181",
            "Root68",
            "Root83"
        ],
        "M_TYR_c": [
            "Root77",
            "Root274",
            "Root1203",
            "Root1277",
            "Root170",
            "Root1220",
            "Root73",
            "Root473",
            "Root336D2",
            "Root418",
            "Root402",
            "Root1221",
            "Root431",
            "Root131",
            "Root219",
            "Root133",
            "Root29",
            "Root1204",
            "Root1304",
            "Root483D2",
            "Root142",
            "Root31",
            "Root239",
            "Root381",
            "Root209",
            "Root720",
            "Root423",
            "Root708",
            "Root11",
            "Root405",
            "Root552",
            "Root483D1",
            "Root411",
            "Root1238",
            "Root568",
            "Root700",
            "Root102",
            "Root456",
            "Root1312",
            "Root278",
            "Root1252",
            "Root1497",
            "Root258",
            "Root480",
            "Root268",
            "Root318D1",
            "Root1480D1",
            "Root436",
            "Root1272",
            "Root231",
            "Root267",
            "Root635",
            "Root147",
            "Root1290",
            "Root695",
            "Root335",
            "Root558",
            "Root920",
            "Root954",
            "Root565",
            "Root1444",
            "Root179",
            "Root561",
            "Root351",
            "Root685",
            "Root672",
            "Root70",
            "Root1485",
            "Root66D1",
            "Root1212",
            "Root482",
            "Root329",
            "Root1280",
            "Root9",
            "Root189",
            "Root444D2",
            "Root52",
            "Root413D1",
            "Root127",
            "Root217",
            "Root1294",
            "Root74",
            "Root71",
            "Root1237",
            "Root554",
            "Root627",
            "Root434",
            "Root198D2",
            "Root670",
            "Root65",
            "Root343",
            "Root1217",
            "Root157",
            "Root50",
            "Root149",
            "Root662",
            "Root342",
            "Root630",
            "Root569",
            "Root105",
            "Root275",
            "Root16D2",
            "Root1298",
            "Root1471",
            "Root1240",
            "Root562",
            "Root401",
            "Root68",
            "Root83",
            "Root172",
            "Root1334",
            "Root710",
            "Root404"
        ],
        "M_VAL_c": [
            "Root239",
            "Root381",
            "Root630",
            "Root105",
            "Root240",
            "Root720",
            "Root112D2",
            "Root344",
            "Root423",
            "Root667",
            "Root708",
            "Root11",
            "Root552",
            "Root562",
            "Root53",
            "Root483D1",
            "Root187",
            "Root411",
            "Root916",
            "Root22",
            "Root700",
            "Root456",
            "Root172",
            "Root1312",
            "Root553",
            "Root151",
            "Root369",
            "Root1334",
            "Root278",
            "Root1497",
            "Root258",
            "Root614",
            "Root480",
            "Root268",
            "Root318D1",
            "Root604",
            "Root214",
            "Root436",
            "Root4",
            "Root180",
            "Root1277",
            "Root170",
            "Root1272",
            "Root918",
            "Root930",
            "Root231",
            "Root85",
            "Root267",
            "Root487D2Y",
            "Root190",
            "Root635",
            "Root485",
            "Root147",
            "Root1221",
            "Root1290",
            "Root695",
            "Root166",
            "Root558",
            "Root920",
            "Root954",
            "Root565",
            "Root1444",
            "Root983",
            "Root179",
            "Root1304",
            "Root137",
            "Root224",
            "Root209",
            "Root672",
            "Root559",
            "Root70",
            "Root76",
            "Root494",
            "Root405",
            "Root1310",
            "Root63",
            "Root1238",
            "Root568",
            "Root102",
            "Root1257",
            "Root265",
            "Root107",
            "Root656",
            "Root1423",
            "Root1252",
            "Root101",
            "Root9",
            "Root413D1",
            "Root127",
            "Root217",
            "Root608",
            "Root1294",
            "Root74",
            "Root81",
            "Root264",
            "Root79",
            "Root280D1",
            "Root122",
            "Root1433D1",
            "Root71",
            "Root1237",
            "Root1472",
            "Root935",
            "Root627",
            "Root670",
            "Root227",
            "Root65",
            "Root343",
            "Root123D2",
            "Root1217",
            "Root682",
            "Root157",
            "Root61",
            "Root472D3",
            "Root186",
            "Root662",
            "Root901",
            "Root342",
            "Root569",
            "Root275",
            "Root1319",
            "Root690",
            "Root495",
            "Root55",
            "Root561",
            "Root1464",
            "Root16D2",
            "Root1298",
            "Root685",
            "Root1471",
            "Root332",
            "Root1240",
            "Root66D1",
            "Root1212",
            "Root401",
            "Root482",
            "Root181",
            "Root68",
            "Root83",
            "Root420",
            "Root100",
            "Root136",
            "Root710",
            "Root563",
            "Root329",
            "Root404",
            "Root154",
            "Root1280",
            "Root1462",
            "Root189",
            "Root444D2",
            "Root52",
            "Root77",
            "Root274",
            "Root1279",
            "Root1203",
            "Root322",
            "Root60",
            "Root1220",
            "Root73",
            "Root473",
            "Root135",
            "Root554",
            "Root434",
            "Root402",
            "Root1293",
            "Root1455",
            "Root140",
            "Root431",
            "Root96",
            "Root131",
            "Root241",
            "Root219",
            "Root1295",
            "Root29",
            "Root50",
            "Root1204",
            "Root483D2",
            "Root236",
            "Root142",
            "Root31"
        ]
    }
}