id	Common name	linked reactions
ASC63_00100	Unknown	ARGINASE-RXN;RXN-34
ASC63_11610	ileS	ISOLEUCINE--TRNA-LIGASE-RXN
ASC63_00950	Unknown	LUMAZINESYN-RXN
ASC63_11815	Unknown	MALTODEXGLUCOSID-RXN;RXN-14281;RXN-14282;RXN-14283;RXN-15910;RXN0-5183
ASC63_12040	Unknown	RXN-8999
ASC63_03810	Unknown	GLYOXIII-RXN
ASC63_15670	Unknown	ATPASE-RXN
ASC63_12480	Unknown	3.4.11.18-RXN;RXN-17873;RXN-17874;RXN-17875;RXN-17876;RXN-17877;RXN-17878
ASC63_10965	Unknown	CDPDIGLYSYN-RXN;RXN0-5515
ASC63_13235	Unknown	6PGLUCONOLACT-RXN
ASC63_06300	Unknown	GLYOXIII-RXN
ASC63_11800	Unknown	3-OXOACYL-ACP-REDUCT-RXN;RXN-10060;RXN-10655;RXN-10659;RXN-11476;RXN-11480;RXN-13008;RXN-16616;RXN-16622;RXN-16626;RXN-16630;RXN-9514;RXN-9518;RXN-9524;RXN-9528;RXN-9532;RXN-9536;RXN-9540;RXN-9552;RXN-9556;RXN-9633;RXN0-2142;RXN1G-157;RXN1G-349;RXN1G-469;RXN1G-508
ASC63_10710	Unknown	ATPASE-RXN
ASC63_13925	Unknown	PROTEIN-KINASE-RXN
ASC63_14830	Unknown	N-ACETYLGLUTPREDUCT-RXN;RXN-15006
ASC63_08205	Unknown	GLYOHMETRANS-RXN;RXN0-5234
ASC63_15090	Unknown	ACYLCOADEHYDROG-RXN;RXN-17775;RXN-17779;RXN-17783;RXN-17784;RXN-17788;RXN-17792;RXN-17796
ASC63_03495	Unknown	4.2.1.41-RXN
ASC63_15220	Unknown	PEPTIDYLPROLYL-ISOMERASE-RXN
ASC63_05095	Unknown	METHENYLTHFCYCLOHYDRO-RXN;METHYLENETHFDEHYDROG-NADP-RXN
ASC63_12960	Unknown	DNA-DIRECTED-RNA-POLYMERASE-RXN
ASC63_01535	Unknown	MALTODEXGLUCOSID-RXN;RXN-14281;RXN-14282;RXN-14283;RXN-15910;RXN0-5183
ASC63_13170	Unknown	ATPASE-RXN
ASC63_06450	Unknown	PMPOXI-RXN;PNPOXI-RXN
ASC63_14965	Unknown	RXN-14480;RXN-14481;RXN0-5063
ASC63_15615	Unknown	RXN-9591
ASC63_08160	Unknown	RXN0-2001
ASC63_14290	Unknown	DNA-LIGASE-ATP-RXN;RXN-17917;RXN-17918;RXN-17919
ASC63_13710	Unknown	PRTRANS-RXN
ASC63_02540	Unknown	DMK-RXN
ASC63_00770	Unknown	ADDALT-RXN;ADENODEAMIN-RXN
ASC63_09300	Unknown	MANNONDEHYDRAT-RXN
ASC63_09200	glmU	2.3.1.157-RXN;NAG1P-URIDYLTRANS-RXN
ASC63_02105	Unknown	RXN1A0-6303
ASC63_01510	Unknown	3.2.1.55-RXN
ASC63_12950	Unknown	OROTPDECARB-RXN
ASC63_06135	Unknown	RXN-12134;RXN-12140;RXN-12141;RXN-12142
ASC63_00740	Unknown	PROPIONYL-COA-CARBOXY-RXN;RXN0-5055;RXN1G-4355
ASC63_11100	Unknown	6.3.5.7-RXN
ASC63_12670	Unknown	ACETYL-COA-ACETYLTRANSFER-RXN;METHYLACETOACETYLCOATHIOL-RXN;RXN-12561
ASC63_11665	Unknown	GLUTSEMIALDEHYDROG-RXN
ASC63_04040	Unknown	PORPHOBILSYNTH-RXN
ASC63_05475	Unknown	RXN1A0-6303
ASC63_11625	Unknown	CDPKIN-RXN;DADPKIN-RXN;DCDPKIN-RXN;DGDPKIN-RXN;DTDPKIN-RXN;DUDPKIN-RXN;GDPKIN-RXN;NUCLEOSIDE-DIP-KIN-RXN;RXN-14120;RXN-14228;UDPKIN-RXN
ASC63_08545	Unknown	RXN0-5131
ASC63_04775	Unknown	RXN0-5100
ASC63_12930	Unknown	DIHYDROOROT-RXN
ASC63_09410	eno	2PGADEHYDRAT-RXN
ASC63_03325	Unknown	3.2.1.25-RXN
ASC63_00025	Unknown	RIBULOKIN-RXN;RXN0-5116
ASC63_15020	Unknown	RXN-8850
ASC63_12550	Unknown	1.8.1.4-RXN;2OXOGLUTARATEDEH-RXN;2OXOGLUTDECARB-RXN;RXN-7716;RXN-7719;RXN-8629;RXN0-1132;RXN0-1147
ASC63_00600	Unknown	UDPGLUCEPIM-RXN
ASC63_10470	Unknown	BRANCHED-CHAINAMINOTRANSFERILEU-RXN;BRANCHED-CHAINAMINOTRANSFERLEU-RXN;BRANCHED-CHAINAMINOTRANSFERVAL-RXN
ASC63_09940	Unknown	SUCCDIAMINOPIMDESUCC-RXN
ASC63_05355	Unknown	2.7.13.3-RXN
ASC63_15300	Unknown	BRANCHED-CHAINAMINOTRANSFERILEU-RXN;BRANCHED-CHAINAMINOTRANSFERLEU-RXN;BRANCHED-CHAINAMINOTRANSFERVAL-RXN
ASC63_09910	Unknown	SUCCINYLDIAMINOPIMTRANS-RXN
ASC63_08210	Unknown	METHENYLTHFCYCLOHYDRO-RXN;METHYLENETHFDEHYDROG-NADP-RXN
ASC63_01280	Unknown	DNA-DIRECTED-DNA-POLYMERASE-RXN
ASC63_04585	Unknown	3-HYDROXYBENZOATE-6-MONOOXYGENASE-RXN;RXN-16949;RXN-16950
ASC63_07860	Unknown	IMP-DEHYDROG-RXN
ASC63_07925	Unknown	ACETATE--COA-LIGASE-RXN;RXN-18446;RXN-18447;RXN-18448
ASC63_15605	Unknown	GABATRANSAM-RXN;RXN-2901
ASC63_11075	Unknown	RXN0-2023
ASC63_14755	Unknown	2-HALOACID-DEHALOGENASE-RXN
ASC63_00825	Unknown	RXN-14971;RXN-15378;SUCCINATE-DEHYDROGENASE-UBIQUINONE-RXN
ASC63_13250	Unknown	PGLUCISOM-RXN
ASC63_12875	Unknown	3.1.22.4-RXN
ASC63_02830	Unknown	SUCCINATE-SEMIALDEHYDE-DEHYDROGENASE-RXN
ASC63_02570	Unknown	O-SUCCINYLBENZOATE-COA-SYN-RXN
ASC63_08480	Unknown	RXN0-4261
ASC63_06045	Unknown	SAICARSYN-RXN
ASC63_15050	Unknown	RXN-14014
ASC63_08230	Unknown	GALACTOKIN-RXN
ASC63_15680	Unknown	PROTEIN-KINASE-RXN
ASC63_04705	Unknown	PROTEIN-KINASE-RXN
ASC63_03600	Unknown	NQOR-RXN
ASC63_10230	Unknown	GLUTRACE-RXN
ASC63_08445	Unknown	2.7.13.3-RXN
ASC63_10060	Unknown	RXN0-4261
ASC63_04765	Unknown	5.99.1.2-RXN
ASC63_04550	Unknown	AMINOPARATHION-PHOSPHATASE-RXN;ARYLDIALKYL-PHOSPHATASE-RXN;ARYLDIALKYLPHOSPHATASE-RXN;RXN-8743;RXN-8746
ASC63_12605	Unknown	5.99.1.2-RXN
ASC63_12505	Unknown	GLUTAMINESYN-RXN
ASC63_00750	Unknown	ADENPHOSPHOR-RXN;DEOXYADENPHOSPHOR-RXN;DEOXYGUANPHOSPHOR-RXN;DEOXYINOPHOSPHOR-RXN;INOPHOSPHOR-RXN;PNP-RXN;RXN-11715;RXN-11743;RXN-14029;RXN-7001;RXN0-5199;XANTHOSINEPHOSPHORY-RXN
ASC63_13930	Unknown	DAHPSYN-RXN
ASC63_14825	Unknown	GLUTAMATE-N-ACETYLTRANSFERASE-RXN;N-ACETYLTRANSFER-RXN;RXN0-6948
ASC63_08515	Unknown	DIHYDROFOLATEREDUCT-RXN;RXN-18357
ASC63_15150	Unknown	FMNREDUCT-RXN;NADPH-DEHYDROGENASE-FLAVIN-RXN;RXN-12444
ASC63_13100	Unknown	DNA-DIRECTED-DNA-POLYMERASE-RXN
ASC63_04050	ubiA	FPPSYN-RXN;GPPSYN-RXN
ASC63_08600	Unknown	RXN-15133;RXN-15135;STEROL-ESTERASE-RXN
ASC63_00020	Unknown	RIBULPEPIM-RXN
ASC63_10740	Unknown	3.2.2.23-RXN;RXN-18435
ASC63_00835	Unknown	RXN-14971;RXN-15378;SUCCINATE-DEHYDROGENASE-UBIQUINONE-RXN
ASC63_10860	Unknown	UROGENIIISYN-RXN
ASC63_00280	Unknown	2.5.1.19-RXN
ASC63_15790	Unknown	PHOSNACMURPENTATRANS-RXN
ASC63_11475	valS	VALINE--TRNA-LIGASE-RXN
ASC63_08510	Unknown	PSERTRANSAM-RXN;PSERTRANSAMPYR-RXN
ASC63_07705	Unknown	3.4.11.18-RXN;RXN-17873;RXN-17874;RXN-17875;RXN-17876;RXN-17877;RXN-17878
ASC63_00425	manB	5.4.2.10-RXN;RXN-16424;RXN0-7139
ASC63_01680	Unknown	ARABISOM-RXN
ASC63_13945	Unknown	ACYLCOASYN-RXN;LINOLENOYL-RXN;R223-RXN;RXN-12184;RXN-12978;RXN-13290;RXN-13614;RXN-16380;RXN-16389;RXN-16393;RXN-16401;RXN-16402;RXN-16415;RXN-16418;RXN-7904;RXN-9623;RXN-9644;RXN-9673;RXN0-7238;RXN0-7239;RXN0-7248;RXN66-469;RXN66-477;RXN66-480;RXN66-483;RXN66-484;TRANS-RXN0-623
ASC63_03855	rocD	ORNITHINE--OXO-ACID-AMINOTRANSFERASE-RXN;ORNITHINE-GLU-AMINOTRANSFERASE-RXN
ASC63_04895	Unknown	RXN0-4261
ASC63_04070	Unknown	2.5.1.32-RXN;RXN-13323;RXNARA-8002
ASC63_11845	Unknown	HOLO-ACP-SYNTH-RXN
ASC63_13950	Unknown	3.5.1.27-RXN;3.5.1.88-RXN
ASC63_12515	Unknown	GLUTAMINESYN-RXN
ASC63_09825	Unknown	RXN0-1441
ASC63_12870	Unknown	ALANINE--TRNA-LIGASE-RXN
ASC63_07235	Unknown	RIBOKIN-RXN;RXN-14223
ASC63_14925	Unknown	ASPAMINOTRANS-RXN;RXN-10814;RXN-11737;RXN-13697
ASC63_11170	Unknown	DNA-DIRECTED-DNA-POLYMERASE-RXN
ASC63_14955	Unknown	DIAMINOPIMEPIM-RXN
ASC63_04165	Unknown	GLYCINE--TRNA-LIGASE-RXN
ASC63_08105	Unknown	DIMETHYLARGININASE-RXN
ASC63_00980	Unknown	ACETYL-COA-ACETYLTRANSFER-RXN;METHYLACETOACETYLCOATHIOL-RXN;RXN-12561
ASC63_01650	Unknown	XYLULOKIN-RXN
ASC63_05825	Unknown	3-OXOACYL-ACP-REDUCT-RXN;RXN-10060;RXN-10655;RXN-10659;RXN-11476;RXN-11480;RXN-13008;RXN-16616;RXN-16622;RXN-16626;RXN-16630;RXN-9514;RXN-9518;RXN-9524;RXN-9528;RXN-9532;RXN-9536;RXN-9540;RXN-9552;RXN-9556;RXN-9633;RXN0-2142;RXN1G-157;RXN1G-349;RXN1G-469;RXN1G-508
ASC63_12900	Unknown	3-DEHYDROQUINATE-SYNTHASE-RXN
ASC63_06020	Unknown	2-HALOACID-DEHALOGENASE-RXN
ASC63_07900	guaA	GLUTAMIN-RXN;GMP-SYN-GLUT-RXN;GMP-SYN-NH3-RXN
ASC63_10705	Unknown	PANTEPADENYLYLTRAN-RXN
ASC63_04760	Unknown	5.99.1.3-RXN
ASC63_15545	Unknown	RXN0-2661
ASC63_02030	Unknown	ASPAMINOTRANS-RXN;RXN-10814;RXN-11737;RXN-13697
ASC63_07405	Unknown	MANNONDEHYDRAT-RXN
ASC63_09555	Unknown	RXN-15122;THREDEHYD-RXN
ASC63_00255	Unknown	IMP-DEHYDROG-RXN
ASC63_13775	Unknown	DIHYDROOROTATE-DEHYDROGENASE-RXN;RXN0-6491;RXN0-6554
ASC63_15365	Unknown	3.1.4.17-RXN
ASC63_14400	Unknown	ALARACECAT-RXN
ASC63_06360	Unknown	ALKAPHOSPHA-RXN;RXN-5822;RXN-8748
ASC63_02945	Unknown	RXN1A0-6303
ASC63_12655	Unknown	DXS-RXN
ASC63_05520	Unknown	GDPPYPHOSKIN-RXN;GTPPYPHOSKIN-RXN
ASC63_02180	Unknown	GLYOXIII-RXN
ASC63_01300	Unknown	PHOSPHOKETOLASE-RXN
ASC63_09480	Unknown	ALARACECAT-RXN
ASC63_13425	Unknown	GLUCOSE-1-DEHYDROGENASE-RXN
ASC63_13875	Unknown	UDP-NACMURALGLDAPLIG-RXN
ASC63_13125	Unknown	DEPHOSPHOCOAKIN-RXN
ASC63_04710	Unknown	PROTEIN-KINASE-RXN
ASC63_15865	Unknown	THRESYN-RXN
ASC63_00940	Unknown	RIBOFLAVIN-SYN-RXN
ASC63_06010	Unknown	FGAMSYN-RXN
ASC63_10455	Unknown	PGLYCDEHYDROG-RXN
ASC63_06730	Unknown	INORGPYROPHOSPHAT-RXN
ASC63_01990	Unknown	QOR-RXN
ASC63_14995	Unknown	PHOSPHAGLYPSYN-RXN
ASC63_02525	Unknown	2.5.1.64-RXN
ASC63_06545	Unknown	325-BISPHOSPHATE-NUCLEOTIDASE-RXN
ASC63_06760	Unknown	GTP-CYCLOHYDRO-I-RXN
ASC63_15155	Unknown	METHELENE-THMPT-OXI-RXN
ASC63_00455	Unknown	UDPGLUCEPIM-RXN
ASC63_06550	Unknown	RXN-12720;SULFATE-ADENYLYLTRANS-RXN
ASC63_12925	Unknown	ASPCARBTRANS-RXN
ASC63_08720	Unknown	5-FORMYL-THF-CYCLO-LIGASE-RXN
ASC63_00260	kgd	RXN-7774
ASC63_07765	Unknown	DNA-DIRECTED-RNA-POLYMERASE-RXN
ASC63_01685	Unknown	RIBULPEPIM-RXN
ASC63_07240	Unknown	F16ALDOLASE-RXN;RXN-8631
ASC63_13205	Unknown	SUPEROX-DISMUT-RXN
ASC63_13990	Unknown	PHOSPHAGLYPSYN-RXN
ASC63_09205	Unknown	PRPPSYN-RXN
ASC63_12225	Unknown	2OXOGLUTARATEDEH-RXN;2OXOGLUTDECARB-RXN;RXN-7716;RXN0-1147
ASC63_04065	Unknown	RXN-11355;RXN-12243;RXN-12244
ASC63_15875	Unknown	DIAMINOPIMDECARB-RXN
ASC63_09330	Unknown	GALACTONDEHYDRAT-RXN
ASC63_13015	Unknown	ATPPHOSPHORIBOSYLTRANS-RXN
ASC63_10650	Unknown	3-ISOPROPYLMALISOM-RXN;RXN-13163;RXN-8991
ASC63_15565	Unknown	PROLINE--TRNA-LIGASE-RXN
ASC63_13895	Unknown	RXN-11638
ASC63_01910	Unknown	4-CARBOXYMUCONOLACTONE-DECARBOXYLASE-RXN
ASC63_01295	Unknown	PHOSACETYLTRANS-RXN
ASC63_04415	Unknown	RXN-1083
ASC63_14815	Unknown	ACETYLORNTRANSAM-RXN;RXN-15007
ASC63_13060	Unknown	RXN0-20
ASC63_02545	Unknown	O-SUCCINYLBENZOATE-COA-LIG-RXN;RXN-7614
ASC63_04595	Unknown	ARYLSULFAT-RXN
ASC63_01260	Unknown	MALATE-DEHYDROGENASE-ACCEPTOR-RXN;RXNI-3
ASC63_12620	Unknown	DUTP-PYROP-RXN
ASC63_11875	Unknown	LEUCINE--TRNA-LIGASE-RXN
ASC63_15185	Unknown	DNA-DIRECTED-DNA-POLYMERASE-RXN;RXN0-4961
ASC63_11385	Unknown	RXN0-2601
ASC63_05130	Unknown	RXN0-4261
ASC63_04105	Unknown	PROTOHEMEFERROCHELAT-RXN
ASC63_10735	Unknown	3.1.26.3-RXN
ASC63_04130	Unknown	PROTOPORGENOXI-RXN
ASC63_01645	Unknown	GLUCISOM-RXN;XYLISOM-RXN
ASC63_15630	Unknown	ASPARAGHYD-RXN
ASC63_07940	Unknown	GLYCPDIESTER-RXN;RXN-14073;RXN-14136;RXN-14160
ASC63_03640	Unknown	ATPASE-RXN
ASC63_05295	Unknown	THIOREDOXIN-REDUCT-NADPH-RXN
ASC63_07795	Unknown	5.4.2.10-RXN;RXN-16424;RXN0-7139
ASC63_01455	Unknown	ATPASE-RXN
ASC63_14720	Unknown	RXN0-5100
ASC63_01265	Unknown	ASPARTATE-SEMIALDEHYDE-DEHYDROGENASE-RXN
ASC63_09650	Unknown	F16ALDOLASE-RXN;RXN-8631
ASC63_13140	Unknown	RXN-6883;RXN0-5266
ASC63_02810	Unknown	RXNI-2
ASC63_15830	Unknown	SERINE-O-ACETTRAN-RXN
ASC63_03350	Unknown	PREPHENATEDEHYDRAT-RXN
ASC63_00305	Unknown	ATPASE-RXN
ASC63_03060	Unknown	45-DIHYDROXYPHTHALATE-DECARBOXYLASE-RXN
ASC63_12205	Unknown	RXN-17155
ASC63_05610	Unknown	3.4.11.18-RXN;RXN-17873;RXN-17874;RXN-17875;RXN-17876;RXN-17877;RXN-17878
ASC63_10585	Unknown	2.7.13.3-RXN
ASC63_08725	Unknown	GLUC1PURIDYLTRANS-RXN
ASC63_10670	Unknown	GLYC3PDEHYDROGBIOSYN-RXN
ASC63_11870	Unknown	TRANS-RXN-283
ASC63_15570	Unknown	RXN0-882
ASC63_13720	Unknown	CYSTATHIONINE-BETA-LYASE-RXN;RXN-15131
ASC63_12425	Unknown	DIHYDROFOLATEREDUCT-RXN;RXN-18357
ASC63_14935	Unknown	3.4.21.88-RXN
ASC63_06500	Unknown	ACYLCOADEHYDROG-RXN;RXN-17775;RXN-17779;RXN-17783;RXN-17784;RXN-17788;RXN-17792;RXN-17796
ASC63_03650	Unknown	RHAMNISOM-RXN
ASC63_13825	Unknown	ALARACECAT-RXN
ASC63_09010	Unknown	GSHTRAN-RXN;GST-RXN;RXN-11663;RXN-13673;RXN-15680;RXN-18405;RXN-18407;RXNQT-4363
ASC63_12825	Unknown	PEPTIDYLPROLYL-ISOMERASE-RXN
ASC63_11755	Unknown	CATECHOL-12-DIOXYGENASE-RXN
ASC63_07815	Unknown	ALARACECAT-RXN
ASC63_13855	Unknown	NACGLCTRANS-RXN;RXN-8976
ASC63_13020	Unknown	GLUTAMIDOTRANS-RXN;GLUTAMIN-RXN;RXN-17900
ASC63_12650	acnA	ACONITATEDEHYDR-RXN;ACONITATEHYDR-RXN;RXN-14047
ASC63_01000	Unknown	NICOTINAMID-RXN
ASC63_06340	Unknown	RXN-11109
ASC63_03370	Unknown	PHOSPHOGLUCMUT-RXN;RXN-16997;RXN-16998
ASC63_04970	Unknown	1.2.4.4-RXN;2.3.1.168-RXN;KETOISOCAPROATE-RXN;METHYLVALERATE-RXN;RXN-7790
ASC63_13070	gltD	GLUTAMATESYN-RXN;GLUTAMIN-RXN;GLUTDEHYD-RXN
ASC63_15595	Unknown	DXPREDISOM-RXN
ASC63_13330	Unknown	PSERPHOSPHA-RXN;RXN0-5114
ASC63_07725	Unknown	2.7.3.9-RXN;RXN-17354;RXN-17355
ASC63_07865	Unknown	ASPAMINOTRANS-RXN;RXN-10814;RXN-11737;RXN-13697
ASC63_07310	Unknown	RXN0-1441
ASC63_05915	Unknown	2-HALOACID-DEHALOGENASE-RXN;3.8.1.11-RXN;RXN-6263;RXN-6264
ASC63_00830	Unknown	R601-RXN;RXN-14963
ASC63_11745	Unknown	RXNI-2
ASC63_12200	Unknown	2.3.1.179-RXN;2.3.1.41-RXN;3-OXOACYL-ACP-SYNTH-BASE-RXN;3-OXOACYL-ACP-SYNTH-RXN;RXN-10654;RXN-10658;RXN-11474;RXN-11479;RXN-16615;RXN-16621;RXN-16625;RXN-16629;RXN-8391;RXN-9516;RXN-9523;RXN-9527;RXN-9531;RXN-9535;RXN-9539;RXN0-2141;RXN1G-460;RXN3O-1803
ASC63_13865	murD	UDP-NACMURALA-GLU-LIG-RXN
ASC63_14395	Unknown	DALADALALIG-RXN
ASC63_02670	Unknown	URACIL-PRIBOSYLTRANS-RXN
ASC63_13215	pgk	PHOSGLYPHOS-RXN
ASC63_11120	Unknown	ACYLCOASYN-RXN;LINOLENOYL-RXN;R223-RXN;RXN-12184;RXN-12978;RXN-13290;RXN-13614;RXN-16380;RXN-16389;RXN-16393;RXN-16401;RXN-16402;RXN-16415;RXN-16418;RXN-7904;RXN-9623;RXN-9644;RXN-9673;RXN0-7238;RXN0-7239;RXN0-7248;RXN66-469;RXN66-477;RXN66-480;RXN66-483;RXN66-484;TRANS-RXN0-623
ASC63_15125	Unknown	2.7.7.8-RXN
ASC63_14820	Unknown	ACETYLGLUTKIN-RXN;RXN-15005
ASC63_00910	glpK	GLYCEROL-KIN-RXN
ASC63_08995	Unknown	METHELENE-THMPT-OXI-RXN
ASC63_00285	Unknown	RXN0-5462
ASC63_12545	Unknown	RXN0-1147
ASC63_15230	Unknown	GLUTAMATE-DEHYDROGENASE-NADP+-RXN;GLUTAMATE-DEHYDROGENASE-RXN;GLUTDEHYD-RXN
ASC63_09665	Unknown	RXN0-4961
ASC63_01960	Unknown	GLUCISOM-RXN;XYLISOM-RXN
ASC63_15390	Unknown	RXN0-4261
ASC63_10695	Unknown	RXN0-6515
ASC63_00470	Unknown	ACYLCOADEHYDROG-RXN;RXN-17775;RXN-17779;RXN-17783;RXN-17784;RXN-17788;RXN-17792;RXN-17796
ASC63_10055	Unknown	NADPYROPHOSPHAT-RXN;RXN0-4401
ASC63_03250	Unknown	QOR-RXN
ASC63_06690	Unknown	RXN0-5462
ASC63_08130	Unknown	3.2.1.52-RXN;RXN-12625;RXN-12626;RXN-18082;RXN0-5226
ASC63_08155	Unknown	3.5.1.80-RXN;NAG6PDEACET-RXN
ASC63_09245	Unknown	GLUCISOM-RXN;XYLISOM-RXN
ASC63_09375	Unknown	GLYOXIII-RXN
ASC63_09620	Unknown	CARBODEHYDRAT-RXN;RXN0-5224
ASC63_12675	Unknown	3.1.13.5-RXN;RXN0-6483;RXN0-6484
ASC63_14510	Unknown	PHOSPHOKETOLASE-RXN
ASC63_00850	Unknown	4.1.3.17-RXN;OXALODECARB-RXN;RXN-12074;RXN-2464
ASC63_06055	Unknown	GLYRIBONUCSYN-RXN
ASC63_12895	Unknown	SHIKIMATE-KINASE-RXN
ASC63_15635	Unknown	2-NITROPROPANE-DIOXYGENASE-RXN
ASC63_08310	Unknown	POLYPHOSPHATE-KINASE-RXN
ASC63_09115	Unknown	METHIONINE--TRNA-LIGASE-RXN;RXN-16165
ASC63_02435	Unknown	GLUTACONYL-COA-DECARBOXYLASE-RXN;GLUTARYL-COA-DEHYDROG-RXN;GLUTARYL-COA-DEHYDROGENASE-RXN
ASC63_04060	Unknown	RXN18HP-6
ASC63_00890	Unknown	3.1.11.2-RXN
ASC63_06305	Unknown	GLYOXIII-RXN
ASC63_10525	Unknown	ATPASE-RXN
ASC63_02805	Unknown	RXNI-2
ASC63_08335	Unknown	GCVT-RXN
ASC63_06555	Unknown	RXN-12720;SULFATE-ADENYLYLTRANS-RXN
ASC63_04825	Unknown	DALADALALIG-RXN
ASC63_03015	Unknown	RXN0-5131
ASC63_13795	Unknown	DNA-DIRECTED-DNA-POLYMERASE-RXN
ASC63_14590	Unknown	ORNCARBAMTRANSFER-RXN;RXN-13482
ASC63_13075	Unknown	PEPDEPHOS-RXN;RXN-14117;RXN-14192;RXN-14207
ASC63_08380	Unknown	CYSTEINE--TRNA-LIGASE-RXN
ASC63_05650	Unknown	RIBOFLAVINSYNREDUC-RXN
ASC63_04690	Unknown	3.1.3.16-RXN
ASC63_11675	Unknown	NICONUCADENYLYLTRAN-RXN
ASC63_01105	Unknown	ALKANAL-MONOOXYGENASE-FMN-LINKED-RXN
ASC63_02880	Unknown	HOMOCYSMET-RXN;HOMOCYSMETB12-RXN
ASC63_12980	Unknown	METHIONYL-TRNA-FORMYLTRANSFERASE-RXN
ASC63_04810	Unknown	RXN-11578
ASC63_03950	Unknown	METHYLISOCITRATE-LYASE-RXN
ASC63_00155	Unknown	RXN0-2584
ASC63_13940	Unknown	GLUCOKIN-RXN;HEXOKINASE-RXN
ASC63_03450	Unknown	LYSOPHOSPHOLIPASE-RXN;RXN-15035;RXN-19312
ASC63_00195	Unknown	2.7.13.3-RXN
ASC63_14685	Unknown	RXN0-5462
ASC63_04925	Unknown	1.3.99.5-RXN;CHOLESTENONE-5-ALPHA-REDUCTASE-RXN;CORTISONE-ALPHA-REDUCTASE-RXN;PROGESTERONE-5-ALPHA-REDUCTASE-RXN;RXN66-343
ASC63_12700	Unknown	ATPASE-RXN
ASC63_14745	Unknown	NAD-KIN-RXN
ASC63_05640	Unknown	QOR-RXN
ASC63_06365	Unknown	ALPHAGALACTOSID-RXN;MALTODEXGLUCOSID-RXN;RXN-11501;RXN-11502;RXN-12088;RXN-14281;RXN-14282;RXN-14283;RXN-15910;RXN-17754;RXN-17830;RXN0-5183
ASC63_10630	Unknown	ATPASE-RXN
ASC63_00840	Unknown	CATECHOL-2-3-DIOXYGENASE-RXN;CATECHOL-23-DIOXYGENASE-RXN;RXN-11218;RXN-11219;RXN-13704
ASC63_08375	Unknown	RXN0-302
ASC63_12485	Unknown	3.4.11.18-RXN;RXN-17873;RXN-17874;RXN-17875;RXN-17876;RXN-17877;RXN-17878
ASC63_13435	Unknown	MERCURY-II-REDUCTASE-RXN
ASC63_07280	Unknown	RXN0-2601
ASC63_07870	Unknown	IMP-DEHYDROG-RXN
ASC63_04080	Unknown	IPPISOM-RXN
ASC63_13455	Unknown	GLYOXIII-RXN
ASC63_15885	Unknown	ARGININE--TRNA-LIGASE-RXN
ASC63_15540	Unknown	URIDINEKIN-RXN;URKI-RXN
ASC63_12475	Unknown	2.7.1.63-RXN
ASC63_09405	Unknown	HISTIDINE--TRNA-LIGASE-RXN
ASC63_14680	Unknown	NUCLEOTIDE-PYROPHOSPHATASE-RXN
ASC63_12955	Unknown	GUANYL-KIN-RXN
ASC63_15240	aspA	ASPARTASE-RXN
ASC63_02855	Unknown	R125-RXN
ASC63_14470	Unknown	PMPOXI-RXN;PNPOXI-RXN
ASC63_00495	Unknown	GALPMUT-RXN
ASC63_06080	Unknown	AIRS-RXN
ASC63_12060	Unknown	DGTPTRIPHYDRO-RXN
ASC63_15825	Unknown	ACSERLY-RXN;RXN-12726
ASC63_03335	Unknown	ALPHAGALACTOSID-RXN;RXN-11501;RXN-11502;RXN-12088;RXN-17754;RXN-17830
ASC63_03080	Unknown	NAPHTHOATE-SYN-RXN
ASC63_02475	Unknown	MYO-INOSITOL-1OR-4-MONOPHOSPHATASE-RXN;RXN-7253;RXN0-5408
ASC63_07700	Unknown	ADENYL-KIN-RXN
ASC63_12645	Unknown	ATPASE-RXN
ASC63_12765	Unknown	GLUTAMIN-RXN;RXN-11322;RXN-12590
ASC63_00420	Unknown	ADENOSYLHOMOCYSTEINASE-RXN
ASC63_08635	Unknown	RXN0-5100
ASC63_01290	Unknown	ACETATEKIN-RXN
ASC63_10445	Unknown	ACETOLACTREDUCTOISOM-RXN;ACETOOHBUTREDUCTOISOM-RXN
ASC63_05445	Unknown	KDUD-RXN
ASC63_09805	Unknown	RXN-12587;RXN-12588;RXN-14382;RXN-14385;RXN-15881;RXN-9787;RXN0-308
ASC63_02940	Unknown	RXN1A0-6303
ASC63_08660	Unknown	RXN1A0-6303
ASC63_12500	Unknown	GLUTAMINESYN-RXN
ASC63_13500	Unknown	1-PHOSPHATIDYLINOSITOL-KINASE-RXN
ASC63_13965	Unknown	PYRUVATE-CARBOXYLASE-RXN
ASC63_04930	Unknown	AICARSYN-RXN;AMPSYN-RXN
ASC63_14120	Unknown	DNA-DIRECTED-DNA-POLYMERASE-RXN
ASC63_11750	Unknown	ACETYL-COA-ACETYLTRANSFER-RXN;METHYLACETOACETYLCOATHIOL-RXN;RXN-12561
ASC63_06325	Unknown	HISTIDINE-AMMONIA-LYASE-RXN
ASC63_03915	Unknown	PYRROLINECARBDEHYDROG-RXN;RXN-14116
ASC63_14595	Unknown	ARGININE-DEIMINASE-RXN
ASC63_15870	Unknown	HOMOSERDEHYDROG-RXN
ASC63_04715	Unknown	PABASYN-RXN
ASC63_14730	Unknown	CTPSYN-RXN;GLUTAMIN-RXN;RXN-14325
ASC63_03010	Unknown	RXN0-5131
ASC63_06385	Unknown	3-NUCLEOTID-RXN;5-NUCLEOTID-RXN;AMP-DEPHOSPHORYLATION-RXN;CYCPHOSDIESTER-RXN;RXN-14025;RXN-14026;RXN-14064;RXN-14090;RXN-14091;RXN-14112;RXN-14113;RXN-14115;RXN-14124;RXN-14126;RXN-14227;RXN-5841;RXN-7607;RXN-7609;XMPXAN-RXN
ASC63_08815	Unknown	RXN1A0-6303
ASC63_01835	Unknown	2.7.13.3-RXN
ASC63_05995	Unknown	GLYRIBONUCSYN-RXN
ASC63_04095	Unknown	UROGENIIISYN-RXN
ASC63_00965	Unknown	4.1.1.32-RXN;RXN-12481
ASC63_12785	Unknown	RXN0-4261
ASC63_13785	Unknown	HISTALDEHYD-RXN;HISTOLDEHYD-RXN;RXN-8001
ASC63_00685	Unknown	AIRCARBOXY-RXN
ASC63_08885	Unknown	1.1.1.274-RXN
ASC63_00290	Unknown	1.11.1.15-RXN;RXN0-5468
ASC63_00755	Unknown	PHOSMANMUT-RXN
ASC63_02655	Unknown	PYRROLINECARBREDUCT-RXN;RXN66-546
ASC63_08795	Unknown	4-CARBOXYMUCONOLACTONE-DECARBOXYLASE-RXN
ASC63_14735	Unknown	TEICHOICSYN4-RXN
ASC63_15645	Unknown	ALANINE-DEHYDROGENASE-RXN
ASC63_00895	Unknown	TRYPTOPHAN--TRNA-LIGASE-RXN
ASC63_00640	Unknown	DTDPGLUCDEHYDRAT-RXN
ASC63_14725	Unknown	RXN0-1441
ASC63_15275	Unknown	3.1.1.64-RXN;CARBOXYLESTERASE-RXN;RETINYL-PALMITATE-ESTERASE-RXN;RXN-10711;RXN-10767;RXN-12252;RXN-12575;RXNQT-4366
ASC63_12460	Unknown	2-HALOACID-DEHALOGENASE-RXN
ASC63_13355	Unknown	RXN0-4961
ASC63_08100	Unknown	GLUTAMATE-DEHYDROGENASE-NADP+-RXN;GLUTAMATE-DEHYDROGENASE-RXN;GLUTDEHYD-RXN
ASC63_07410	Unknown	GALACTUROISOM-RXN;GLUCUROISOM-RXN
ASC63_15315	Unknown	ACONITATEDEHYDR-RXN;ACONITATEHYDR-RXN;RXN-14047
ASC63_10375	Unknown	3.2.1.3-RXN;RXN-9024
ASC63_12630	Unknown	DUTP-PYROP-RXN
ASC63_10905	Unknown	3.1.26.4-RXN
ASC63_13335	Unknown	GLUC1PADENYLTRANS-RXN
ASC63_11220	Unknown	3.1.13.3-RXN
ASC63_14170	Unknown	2-HALOACID-DEHALOGENASE-RXN
ASC63_10690	Unknown	THI-P-KIN-RXN
ASC63_08280	Unknown	DNA-DIRECTED-RNA-POLYMERASE-RXN
ASC63_03265	Unknown	2-HALOACID-DEHALOGENASE-RXN
ASC63_09350	Unknown	AMINOCYL-TRNA-HYDROLASE-RXN;RXN-16637
ASC63_06015	Unknown	FGAMSYN-RXN
ASC63_11660	Unknown	GLUTKIN-RXN
ASC63_00580	Unknown	NAG1P-URIDYLTRANS-RXN
ASC63_13730	Unknown	1.10.2.2-RXN;RXN-15829
ASC63_10665	Unknown	RXN-9591
ASC63_03190	Unknown	RXN0-5131
ASC63_10235	rph	RXN0-6481;RXN0-6482;TRNA-NUCLEOTIDYLTRANSFERASE-RXN
ASC63_02510	Unknown	RXN-9235
ASC63_13910	Unknown	FARNESYLTRANSTRANSFERASE-RXN
ASC63_08090	purH	AICARTRANSFORM-RXN;IMPCYCLOHYDROLASE-RXN
ASC63_15500	Unknown	TRNA-PSEUDOURIDINE-SYNTHASE-I-RXN
ASC63_12535	Unknown	RXN-13037;RXN0-947
ASC63_01030	Unknown	DNA-DIRECTED-DNA-POLYMERASE-RXN
ASC63_14020	Unknown	GLYOXIII-RXN
ASC63_15010	Unknown	DIHYDRODIPICSYN-RXN
ASC63_09925	Unknown	PENICILLIN-AMIDASE-RXN;RXN-17099
ASC63_12755	thrS	THREONINE--TRNA-LIGASE-RXN
ASC63_10655	Unknown	3-ISOPROPYLMALISOM-RXN;R-2-METHYLMALATE-DEHYDRATASE-RXN;RXN-13163;RXN-7744;RXN-8991
ASC63_13465	Unknown	ALKAPHOSPHA-RXN;RXN-5822;RXN-8748
ASC63_15620	Unknown	1.11.1.15-RXN;RXN0-5468
ASC63_00130	Unknown	AMIDASE-RXN;GUANIDINOBUTANAMIDE-NH3-RXN;PYRAZIN-RXN;R311-RXN;RXN-14727;RXN-14728;RXN-17608;RXNN-404
ASC63_09935	Unknown	TETHYDPICSUCC-RXN
ASC63_03945	Unknown	CITSYN-RXN
ASC63_13840	Unknown	UDP-NACMUR-ALA-LIG-RXN
ASC63_06040	Unknown	GLYOXIII-RXN
ASC63_09655	glpX	F16BDEPHOS-RXN
ASC63_03445	Unknown	RXN-13039;RXN-17127;RXN-8654;RXN-8655;RXN0-1141;RXN0-5098
ASC63_07400	Unknown	GALACTONDEHYDRAT-RXN
ASC63_10430	Unknown	DIHYDROXYISOVALDEHYDRAT-RXN;DIHYDROXYMETVALDEHYDRAT-RXN
ASC63_15080	Unknown	CITLY-RXN;CITRYLY-RXN;CITTRANS-RXN
ASC63_12215	Unknown	MALONYL-COA-ACP-TRANSACYL-RXN
ASC63_11995	Unknown	RXN0-5462
ASC63_02720	Unknown	3-HYDROXYISOBUTYRATE-DEHYDROGENASE-RXN
ASC63_13220	Unknown	TRIOSEPISOMERIZATION-RXN
ASC63_14160	Unknown	ALKANE-1-MONOOXYGENASE-RXN
ASC63_11095	Unknown	6.3.5.7-RXN
ASC63_08880	Unknown	ACYLCOASYN-RXN;LINOLENOYL-RXN;R223-RXN;RXN-12184;RXN-12978;RXN-13290;RXN-13614;RXN-16380;RXN-16389;RXN-16393;RXN-16401;RXN-16402;RXN-16415;RXN-16418;RXN-7904;RXN-9623;RXN-9644;RXN-9673;RXN0-7238;RXN0-7239;RXN0-7248;RXN66-469;RXN66-477;RXN66-480;RXN66-483;RXN66-484;TRANS-RXN0-623
ASC63_05440	Unknown	IPPISOM-RXN
ASC63_09840	Unknown	GCVP-RXN
ASC63_01930	Unknown	FUMARYLACETOACETASE-RXN
ASC63_05885	Unknown	OROPRIBTRANS-RXN
ASC63_15525	Unknown	RXNI-2
ASC63_03195	Unknown	RXN0-5131
ASC63_06875	Unknown	GLUTAMATE-N-ACETYLTRANSFERASE-RXN;N-ACETYLTRANSFER-RXN;RXN0-6948
ASC63_07165	Unknown	DIHYDROXYISOVALDEHYDRAT-RXN;DIHYDROXYMETVALDEHYDRAT-RXN
ASC63_01125	Unknown	UGD-RXN
ASC63_11060	Unknown	RXN-12587;RXN-12588;RXN-14382;RXN-14385;RXN-15881;RXN-9787;RXN0-308
ASC63_10425	Unknown	RXN1G-1435;RXN1G-1436;RXN1G-1437;RXN1G-1438;RXN1G-1439;TREHALOSEPHOSPHA-RXN
ASC63_07365	Unknown	SPERMINE-SYNTHASE-RXN
ASC63_14805	Unknown	ARGSUCCINSYN-RXN;RXN-10
ASC63_13630	Unknown	RXN-11109
ASC63_05770	Unknown	IMP-DEHYDROG-RXN
ASC63_04555	Unknown	AMINOPARATHION-PHOSPHATASE-RXN;ARYLDIALKYL-PHOSPHATASE-RXN;ARYLDIALKYLPHOSPHATASE-RXN;RXN-8743;RXN-8746
ASC63_01925	Unknown	FUMARYLACETOACETASE-RXN
ASC63_10465	Unknown	3-ISOPROPYLMALDEHYDROG-RXN;RXN-13158;RXN-14986;RXN-18200;RXN-18202;RXN-18204;RXN-18206;RXN-18208;RXN-18210;RXNQT-4165;RXNQT-4168;RXNQT-4171;RXNQT-4174;RXNQT-4178
ASC63_09140	Unknown	2.7.1.148-RXN
ASC63_12600	Unknown	5.99.1.2-RXN
ASC63_13510	Unknown	RXN0-5131
ASC63_12695	Unknown	RXN-19040;RXN0-6359;RXN0-6385;THIOSULFATE-SULFURTRANSFERASE-RXN
ASC63_12780	Unknown	3.1.22.4-RXN
ASC63_02600	Unknown	R4-RXN
ASC63_12430	Unknown	THYMIDYLATESYN-RXN
ASC63_15115	Unknown	1.2.1.25-RXN;1.2.4.4-RXN;2.3.1.168-RXN;2KETO-3METHYLVALERATE-RXN;2KETO-4METHYL-PENTANOATE-DEHYDROG-RXN;ISOVALERYLCOA-DHLIPOAMIDE-RXN;KETOISOCAPROATE-RXN;MBCOA-DHLIPOAMIDE-RXN;METHYLVALERATE-RXN;RXN-7719
ASC63_10195	Unknown	NAG1P-URIDYLTRANS-RXN
ASC63_04840	Unknown	THIOREDOXIN-REDUCT-NADPH-RXN
ASC63_12230	Unknown	1.11.1.15-RXN;RXN0-5468
ASC63_13675	Unknown	RXN-8668
ASC63_10930	Unknown	RXN0-5100
ASC63_00975	Unknown	1.1.1.178-RXN
ASC63_11890	Unknown	DNA-DIRECTED-DNA-POLYMERASE-RXN
ASC63_14050	Unknown	RXN-11453
ASC63_05695	Unknown	3.1.4.14-RXN
ASC63_01920	Unknown	3-OXOACYL-ACP-REDUCT-RXN;RXN-10060;RXN-10655;RXN-10659;RXN-11476;RXN-11480;RXN-13008;RXN-16616;RXN-16622;RXN-16626;RXN-16630;RXN-9514;RXN-9518;RXN-9524;RXN-9528;RXN-9532;RXN-9536;RXN-9540;RXN-9552;RXN-9556;RXN-9633;RXN0-2142;RXN1G-157;RXN1G-349;RXN1G-469;RXN1G-508
ASC63_03115	Unknown	FORMYLTHFDEFORMYL-RXN
ASC63_14910	Unknown	PRAISOM-RXN;PRIBFAICARPISOM-RXN
ASC63_13325	Unknown	3-OXOACYL-ACP-REDUCT-RXN;RXN-10060;RXN-10655;RXN-10659;RXN-11476;RXN-11480;RXN-13008;RXN-16616;RXN-16622;RXN-16626;RXN-16630;RXN-9514;RXN-9518;RXN-9524;RXN-9528;RXN-9532;RXN-9536;RXN-9540;RXN-9552;RXN-9556;RXN-9633;RXN0-2142;RXN1G-157;RXN1G-349;RXN1G-469;RXN1G-508
ASC63_12030	Unknown	2-ISOPROPYLMALATESYN-RXN
ASC63_10675	Unknown	DALADALALIG-RXN
ASC63_03690	Unknown	PANTOTHENATE-KIN-RXN
ASC63_07965	Unknown	3-OXOACYL-ACP-REDUCT-RXN;RXN-10060;RXN-10655;RXN-10659;RXN-11476;RXN-11480;RXN-13008;RXN-16616;RXN-16622;RXN-16626;RXN-16630;RXN-9514;RXN-9518;RXN-9524;RXN-9528;RXN-9532;RXN-9536;RXN-9540;RXN-9552;RXN-9556;RXN-9633;RXN0-2142;RXN1G-157;RXN1G-349;RXN1G-469;RXN1G-508
ASC63_15210	Unknown	ADENPRIBOSYLTRAN-RXN;RXN-14270
ASC63_00775	Unknown	THYM-PHOSPH-RXN;URA-PHOSPH-RXN;URPHOS-RXN
ASC63_00625	Unknown	DTDPGLUCOSEPP-RXN
ASC63_09715	Unknown	GLYOXIII-RXN
ASC63_04785	Unknown	DNA-DIRECTED-DNA-POLYMERASE-RXN
ASC63_01745	Unknown	CYSTATHIONINE-BETA-SYNTHASE-RXN;RXN-19038;RXN66-534;RXN66-562
ASC63_14915	Unknown	GLUTAMIDOTRANS-RXN;GLUTAMIN-RXN;RXN-17900
ASC63_05430	Unknown	DCTP-DEAM-RXN;RXN-14118
ASC63_02750	Unknown	TRANS-RXN-283
ASC63_12965	Unknown	P-PANTOCYSDECARB-RXN
ASC63_15725	Unknown	RXN1A0-6303
ASC63_13645	Unknown	GLYCPDIESTER-RXN;RXN-14073;RXN-14136;RXN-14160
ASC63_12970	Unknown	S-ADENMETSYN-RXN
ASC63_11275	Unknown	RXN1A0-6303
ASC63_11715	Unknown	4-HYDROXYBENZOATE-3-MONOOXYGENASE-RXN
ASC63_14800	Unknown	ARGSUCCINLYA-RXN;RXN-22
ASC63_14185	Unknown	RXN-9591
ASC63_07975	Unknown	ACETYL-COA-ACETYLTRANSFER-RXN;METHYLACETOACETYLCOATHIOL-RXN;RXN-12561
ASC63_11030	Unknown	GLYCOPHOSPHORYL-RXN;GLYMALTOPHOSPHORYL-RXN;RXN-12171;RXN-12392;RXN-14284;RXN-14285;RXN-14286;RXN-14353;RXN-1826;RXN-9025;RXN0-5182;RXN0-5184
ASC63_06485	Unknown	MALATE-DEH-RXN
ASC63_09130	Unknown	ACYLCOADEHYDROG-RXN;RXN-17775;RXN-17779;RXN-17783;RXN-17784;RXN-17788;RXN-17792;RXN-17796
ASC63_15465	Unknown	12-OXOPHYTODIENOATE-REDUCTASE-RXN
ASC63_01035	Unknown	DTMPKI-RXN
ASC63_04110	Unknown	1.13.11.49-RXN
ASC63_09190	Unknown	2-HALOACID-DEHALOGENASE-RXN;3.8.1.11-RXN;RXN-6263;RXN-6264
ASC63_02320	Unknown	BENZOYLFORMATE-DECARBOXYLASE-RXN;HYDROXYBENZOYLFORMATE-DECARBOXYLASE-RXN
ASC63_14675	Unknown	CARBOXYMETHYLENEBUTENOLIDASE-RXN;DIENELACHYDRO-RXN;RXN-9857;RXN-9868;RXN-9887;RXN-9890
ASC63_05985	Unknown	CHORISMATEMUT-RXN
ASC63_13725	Unknown	1.10.2.2-RXN;RXN-15829
ASC63_08950	Unknown	RXN-17131;RXN-17132;RXN-17133
ASC63_14780	Unknown	TYROSINE--TRNA-LIGASE-RXN
ASC63_14690	Unknown	RXN-11832;RXN-12002;RXN-7913
ASC63_09815	Unknown	L-ASPARTATE-OXID-RXN;RXN-9772
ASC63_15035	Unknown	1.11.1.15-RXN;RXN0-5468
ASC63_14920	Unknown	IMIDPHOSDEHYD-RXN
ASC63_15135	Unknown	GLUTACONYL-COA-DECARBOXYLASE-RXN;GLUTARYL-COA-DEHYDROG-RXN;GLUTARYL-COA-DEHYDROGENASE-RXN
ASC63_04935	Unknown	PROTEIN-TYROSINE-PHOSPHATASE-RXN
ASC63_03270	Unknown	RXN0-2161;SERINE--TRNA-LIGASE-RXN
ASC63_06475	Unknown	ACYLCOADEHYDROG-RXN;RXN-17775;RXN-17779;RXN-17783;RXN-17784;RXN-17788;RXN-17792;RXN-17796
ASC63_15625	Unknown	GABATRANSAM-RXN;RXN-2901
ASC63_00150	Unknown	RXN-10837;RXN-9382
ASC63_12110	Unknown	3.5.1.27-RXN;3.5.1.88-RXN
ASC63_15330	Unknown	GLYOXIII-RXN
ASC63_11265	Unknown	NAD-SYNTH-NH3-RXN
ASC63_15685	Unknown	3.1.3.16-RXN
ASC63_15375	Unknown	2.7.13.3-RXN
ASC63_07740	Unknown	MANNPDEHYDROG-RXN
ASC63_14250	Unknown	5.99.1.2-RXN
ASC63_02615	Unknown	RXN-8529
ASC63_10750	Unknown	RXN1A0-6303
ASC63_01270	Unknown	ASPARTATEKIN-RXN
ASC63_09615	aspA	ASPARTASE-RXN
ASC63_14255	Unknown	1TRANSKETO-RXN;2TRANSKETO-RXN
ASC63_01970	Unknown	RXN0-5100
ASC63_12495	Unknown	3-CH3-2-OXOBUTANOATE-OH-CH3-XFER-RXN;RXN-15635
ASC63_02710	Unknown	SUCCINATE-SEMIALDEHYDE-DEHYDROGENASE-RXN
ASC63_08020	Unknown	MALEYLPYRUVATE-ISOMERASE-RXN
ASC63_04735	Unknown	PEPTIDYLPROLYL-ISOMERASE-RXN
ASC63_15520	Unknown	RXNI-2
ASC63_06645	Unknown	RXN0-1001
ASC63_04960	Unknown	RXN-12508;RXN-12583;RXN0-1134
ASC63_01830	Unknown	UDPGLUCEPIM-RXN
ASC63_06740	Unknown	GUANPRIBOSYLTRAN-RXN;HYPOXANPRIBOSYLTRAN-RXN
ASC63_07390	Unknown	KDPGALDOL-RXN
ASC63_10040	Unknown	RXN-17362
ASC63_15440	Unknown	DEOXYRIBOSE-P-ALD-RXN
ASC63_04100	Unknown	OHMETHYLBILANESYN-RXN
ASC63_09080	Unknown	ACETYLHOMOSER-CYS-RXN;O-ACETYLHOMOSERINE-THIOL-LYASE-RXN
ASC63_10660	Unknown	UDPNACETYLGLUCOSAMENOLPYRTRANS-RXN
ASC63_09915	Unknown	CITSYN-RXN
ASC63_11380	Unknown	RIB5PISOM-RXN
ASC63_07810	Unknown	HOLO-ACP-SYNTH-RXN
ASC63_12710	Unknown	GLUCONOLACT-RXN;RXN-8783
ASC63_15485	Unknown	FADSYN-RXN;RIBOFLAVINKIN-RXN;RXN-18510;RXN-18511
ASC63_11635	Unknown	RXN0-6523
ASC63_00705	Unknown	2.1.3.1-RXN
ASC63_02195	Unknown	ATPASE-RXN
ASC63_10360	Unknown	HISTIDPHOS-RXN
ASC63_12810	Unknown	GDPPYPHOSKIN-RXN;GTPPYPHOSKIN-RXN
ASC63_02950	Unknown	2-DEHYDROPANTOATE-REDUCT-RXN
ASC63_01220	Unknown	DURIDKI-RXN;THYKI-RXN
ASC63_01190	Unknown	GDPMANDEHYDRA-RXN
ASC63_15345	Unknown	6PFRUCTPHOS-RXN
ASC63_13025	Unknown	HISTCYCLOHYD-RXN
ASC63_02505	Unknown	FARNESYLTRANSTRANSFERASE-RXN
ASC63_06810	Unknown	LYSINE--TRNA-LIGASE-RXN
ASC63_14035	Unknown	GLYOXIII-RXN
ASC63_03565	Unknown	SUCCINATE-SEMIALDEHYDE-DEHYDROGENASE-RXN
ASC63_00105	Unknown	ENOYL-COA-HYDRAT-RXN;METHYLACYLYLCOA-HYDROXY-RXN;RXN-10697;RXN-10704;RXN-10705;RXN-11244;RXN-12567;RXN-13616;RXN-14266;RXN-14272;RXN-14273;RXN-16135;RXN-16558;RXN-17114;RXN-17475;RXN-17776;RXN-17780;RXN-17785;RXN-17789;RXN-17793;RXN-17797;RXN-2425;RXN0-5393;TIGLYLCOA-HYDROXY-RXN
ASC63_01040	Unknown	5.99.1.2-RXN
ASC63_15860	Unknown	HOMOSERKIN-RXN
ASC63_12130	Unknown	2.7.13.3-RXN
ASC63_02515	Unknown	ISOCHORSYN-RXN
ASC63_05660	Unknown	RXN-12134;RXN-12140;RXN-12141;RXN-12142
ASC63_07160	Unknown	FUMARYLACETOACETASE-RXN
ASC63_13010	hisE	HISTPRATPHYD-RXN
ASC63_13260	Unknown	1TRANSKETO-RXN;2TRANSKETO-RXN
ASC63_15535	Unknown	2-DEHYDROPANTOATE-REDUCT-RXN
ASC63_01120	Unknown	RXN0-2621
ASC63_06315	Unknown	ATPASE-RXN
ASC63_07945	Unknown	RXN0-4261
ASC63_03935	Unknown	3.1.2.23-RXN
ASC63_12920	Unknown	URACIL-PRIBOSYLTRANS-RXN
ASC63_00855	Unknown	3.1.1.69-RXN
ASC63_15060	Unknown	RXN-17131;RXN-17132;RXN-17133
ASC63_13050	Unknown	RXN0-2382;TRYPSYN-RXN
ASC63_02200	Unknown	ATPASE-RXN
ASC63_08800	Unknown	ACYLCOADEHYDROG-RXN;RXN-17775;RXN-17779;RXN-17783;RXN-17784;RXN-17788;RXN-17792;RXN-17796
ASC63_04135	Unknown	RXN-10642;UROGENDECARBOX-RXN
ASC63_11615	Unknown	DIHYDROFOLATESYNTH-RXN
ASC63_06410	Unknown	RXN0-4261
ASC63_11655	obgE	RXN0-5462
ASC63_00270	Unknown	RXN-7774
ASC63_08690	Unknown	HYDROXY-MANDELATE-RACEMASE-RXN;MANDELATE-RACEMASE-RXN
ASC63_05090	Unknown	FORMYLTHFDEFORMYL-RXN
ASC63_05980	Unknown	ADENYLOSUCCINATE-SYNTHASE-RXN
ASC63_02075	Unknown	UDPNACETYLMURAMATEDEHYDROG-RXN
ASC63_08355	Unknown	2.7.13.3-RXN
ASC63_14885	Unknown	ATPASE-RXN
ASC63_04255	Unknown	2.7.13.3-RXN
ASC63_04245	Unknown	2-HALOACID-DEHALOGENASE-RXN
ASC63_12845	Unknown	FORMYLTHFDEFORMYL-RXN
ASC63_10035	Unknown	RXN0-4261
ASC63_00935	Unknown	RIBOFLAVINSYNDEAM-RXN;RIBOFLAVINSYNREDUC-RXN
ASC63_11165	Unknown	RXN1A0-6303
ASC63_03635	Unknown	ATPASE-RXN
ASC63_09810	Unknown	QUINOPRIBOTRANS-RXN
ASC63_08875	Unknown	GLYOXIII-RXN
ASC63_10225	Unknown	NICOTINATEPRIBOSYLTRANS-RXN
ASC63_14960	Unknown	RXN0-6274
ASC63_11365	Unknown	3.4.11.2-RXN
ASC63_08750	Unknown	QOR-RXN
ASC63_05565	Unknown	METHELENE-THMPT-OXI-RXN
ASC63_02800	Unknown	ACETYL-COA-ACETYLTRANSFER-RXN;METHYLACETOACETYLCOATHIOL-RXN;RXN-12561
ASC63_09285	Unknown	GALACTUROISOM-RXN;GLUCUROISOM-RXN
ASC63_06255	Unknown	UROCANATE-HYDRATASE-RXN
ASC63_13515	Unknown	RXN0-5131
ASC63_02665	Unknown	CYTIDEAM-RXN;CYTIDEAM2-RXN
ASC63_02565	Unknown	NAPHTHOATE-SYN-RXN
ASC63_05820	Unknown	ACETATE--COA-LIGASE-RXN;RXN-18446;RXN-18447;RXN-18448
ASC63_00780	Unknown	CYTIDEAM-RXN;CYTIDEAM2-RXN
ASC63_15100	Unknown	METHYLCROTONYL-COA-CARBOXYLASE-RXN
ASC63_00630	Unknown	DTDPDEHYDRHAMEPIM-RXN
ASC63_08145	Unknown	ISOCITDEH-RXN;RXN-8642;RXN-9951
ASC63_11295	Unknown	3.1.2.23-RXN
ASC63_00190	Unknown	HOMOSERINE-O-ACETYLTRANSFERASE-RXN
ASC63_15120	Unknown	RXN-12508;RXN-12583;RXN0-1134
ASC63_03485	Unknown	HYDROXY-MANDELATE-RACEMASE-RXN;MANDELATE-RACEMASE-RXN
ASC63_00680	Unknown	RXN0-743
ASC63_09820	Unknown	QUINOLINATE-SYNTHA-RXN
ASC63_13265	Unknown	HEMEOSYN-RXN
ASC63_08550	Unknown	RXN0-5131
ASC63_05325	Unknown	RXN0-5306
ASC63_06210	Unknown	FORMIMINOGLUTAMASE-RXN
ASC63_10955	pyrH	RXN-12002
ASC63_10700	Unknown	RXN0-4261
ASC63_13045	Unknown	IGPSYN-RXN
ASC63_10420	Unknown	TREHALOSE6PSYN-RXN
ASC63_12070	Unknown	RXN0-5021
ASC63_12530	Unknown	RXN-14950;RXN-14957;RXN-14959;RXN0-949
ASC63_01690	Unknown	RIBULOKIN-RXN;RXN0-5116
ASC63_06250	Unknown	IMIDAZOLONEPROPIONASE-RXN
ASC63_04575	Unknown	3.4.14.11-RXN
ASC63_11020	Unknown	GLYCOGEN-BRANCH-RXN;RXN-14371;RXN-14372;RXN-18777;RXN-7669;RXN-7710
ASC63_15200	Unknown	HOMOCYSMET-RXN;HOMOCYSMETB12-RXN
ASC63_12890	Unknown	CHORISMATE-SYNTHASE-RXN
ASC63_00820	Unknown	RXN-14971;RXN-15378;SUCCINATE-DEHYDROGENASE-UBIQUINONE-RXN
ASC63_09995	Unknown	3.4.11.1-RXN
ASC63_13255	Unknown	TRANSALDOL-RXN
ASC63_07245	Unknown	ALKAPHOSPHA-RXN;RXN-5822;RXN-8748
ASC63_12790	ruvB	RXN0-4261
ASC63_06805	Unknown	PANTOATE-BETA-ALANINE-LIG-RXN
ASC63_06685	Unknown	5-NUCLEOTID-RXN;AMP-DEPHOSPHORYLATION-RXN;RXN-14025;RXN-14026;RXN-14227;RXN-5841;RXN-7607;RXN-7609;XMPXAN-RXN
ASC63_10010	Unknown	RXN-11109
ASC63_11090	Unknown	6.3.5.7-RXN
ASC63_12820	Unknown	ATPASE-RXN
ASC63_12055	Unknown	RXN0-1281
ASC63_04855	Unknown	TRNA-CYTIDYLYLTRANSFERASE-RXN
ASC63_06735	Unknown	RXN-1961
