dbRef_id	Common name	Number of reaction found	Total number of reaction	Ratio (Reaction found / Total)
PWY0-1391	S-methyl-5'-thioadenosine degradation IV	1	1	1.00
PCPDEG-PWY	pentachlorophenol degradation	2	12	0.17
PWY-5872	ubiquinol-10 biosynthesis (eukaryotic)	1	9	0.11
PWY-6803	phosphatidylcholine acyl editing	1	4	0.25
PWY0-1182	trehalose degradation II (trehalase)	1	2	0.50
PWY-5885	wax esters biosynthesis II	1	4	0.25
PWY-6799	fatty acid biosynthesis (plant mitochondria)	1	4	0.25
NAD-BIOSYNTHESIS-II	NAD salvage pathway III	3	3	1.00
PWY0-1415	superpathway of heme b biosynthesis from uroporphyrinogen-III	2	4	0.50
PHOSLIPSYN2-PWY	superpathway of phospholipid biosynthesis II (plants)	1	3	0.33
14DICHLORBENZDEG-PWY	1,4-dichlorobenzene degradation	1	9	0.11
PWY0-1261	anhydromuropeptides recycling I	9	12	0.75
PWY0-1264	biotin-carboxyl carrier protein assembly	2	4	0.50
PWY0-1466	trehalose degradation VI (periplasmic)	1	2	0.50
PWY-5912	2'-deoxymugineic acid phytosiderophore biosynthesis	1	4	0.25
PWY-5913	partial TCA cycle (obligate autotrophs)	9	11	0.82
PWY0-1275	lipoate biosynthesis and incorporation II	2	2	1.00
PWY0-1479	tRNA processing	6	10	0.60
PWY0-1507	biotin biosynthesis from 8-amino-7-oxononanoate I	1	3	0.33
PWY-5921	glutaminyl-tRNAgln biosynthesis via transamidation	1	2	0.50
SO4ASSIM-PWY	sulfate reduction I (assimilatory)	1	2	0.50
ORN-AMINOPENTANOATE-CAT-PWY	L-ornithine degradation I (L-proline biosynthesis)	1	1	1.00
PWY-5938	pyruvate fermentation to (R)-acetoin I	1	3	0.33
PWY0-1295	pyrimidine ribonucleosides degradation	1	2	0.50
LARABITOLUTIL-PWY	xylitol degradation	1	2	0.50
PWY-5939	pyruvate fermentation to  (R)-acetoin II	1	2	0.50
PWY0-1533	methylphosphonate degradation I	2	4	0.50
PWY0-1296	purine ribonucleosides degradation	6	6	1.00
KETOGLUCONMET-PWY	ketogluconate metabolism	1	5	0.20
UDPNACETYLGALSYN-PWY	UDP-N-acetyl-D-glucosamine biosynthesis II	2	4	0.50
PWY-5940	streptomycin biosynthesis	2	18	0.11
GALACTUROCAT-PWY	D-galacturonate degradation I	2	5	0.40
SULFMETII-PWY	sulfate reduction II (assimilatory)	1	3	0.33
CRNFORCAT-PWY	creatinine degradation I	1	4	0.25
ORNDEG-PWY	superpathway of ornithine degradation	1	2	0.50
PWY-5941	glycogen degradation II	4	6	0.67
ADENOSYLHOMOCYSCAT-PWY	L-methionine salvage from L-homocysteine	1	3	0.33
GLUTATHIONESYN-PWY	glutathione biosynthesis	2	2	1.00
NAGLIPASYN-PWY	lipid IVA biosynthesis	5	6	0.83
PEPTIDOGLYCANSYN-PWY	peptidoglycan biosynthesis I (meso-diaminopimelate containing)	2	2	1.00
PWY0-1544	proline to cytochrome bo oxidase electron transfer	2	2	1.00
GALDEG-PWY	D-galactose degradation II	1	2	0.50
PWY-5942	trans-lycopene biosynthesis I	1	2	0.50
KDO-LIPASYN-PWY	(Kdo)2-lipid A biosynthesis I	1	2	0.50
PWY-5958	acridone alkaloid biosynthesis	1	4	0.25
ENTNER-DOUDOROFF-PWY	Entner-Doudoroff pathway I	2	2	1.00
PWY0-1545	cardiolipin biosynthesis III	1	3	0.33
PWY-5963	thio-molybdenum cofactor biosynthesis	1	1	1.00
P162-PWY	L-glutamate degradation V (via hydroxyglutarate)	2	11	0.18
PWY-6737	starch degradation V	2	4	0.50
FAO-PWY	fatty acid &beta;-oxidation I	4	7	0.57
PWY-7153	grixazone biosynthesis	2	8	0.25
PWY-6976	dTDP-L-mycarose biosynthesis	2	7	0.29
PWY-6749	CMP-legionaminate biosynthesis I	2	10	0.20
PWY-7883	anhydromuropeptides recycling II	2	8	0.25
GLUT-REDOX-PWY	glutathione-glutaredoxin redox reactions	2	3	0.67
PWY-6637	sulfolactate degradation II	1	4	0.25
DETOX1-PWY	superoxide radicals degradation	2	2	1.00
PWY-6898	thiamine salvage III	1	1	1.00
PWY-5147	oleate biosynthesis I (plants)	1	3	0.33
PWY-7884	lipoprotein posttranslational modification	2	4	0.50
P163-PWY	L-lysine fermentation to acetate and butanoate	3	10	0.30
PWY-6754	S-methyl-5'-thioadenosine degradation I	1	2	0.50
PWY-6981	chitin biosynthesis	1	2	0.50
DETOX1-PWY-1	reactive oxygen species degradation	2	4	0.50
P164-PWY	purine nucleobases degradation I (anaerobic)	7	17	0.41
PWY-6983	threo-tetrahydrobiopterin biosynthesis	1	3	0.33
PWY-6638	sulfolactate degradation III	2	3	0.67
GLYOXDEG-PWY	glycolate and glyoxylate degradation II	1	2	0.50
PWY-7158	L-phenylalanine degradation V	1	3	0.33
PWY-6901	superpathway of glucose and xylose degradation	5	8	0.62
PWY-6788	cellulose degradation II (fungi)	1	3	0.33
HISTSYN-PWY	L-histidine biosynthesis	9	10	0.90
PWY-6984	lipoate salvage II	2	4	0.50
TYRSYN	L-tyrosine biosynthesis I	1	3	0.33
PWY-6640	salicylate degradation IV	1	5	0.20
PWY-7159	3,8-divinyl-chlorophyllide a biosynthesis III (aerobic, light independent)	2	9	0.22
PWY-6795	diacylglyceryl-N,N,N-trimethylhomoserine biosynthesis	1	2	0.50
PWY-6902	chitin degradation II (Vibrio)	2	5	0.40
GLUTAMATE-DEG1-PWY	L-glutamate degradation I	1	1	1.00
PWY-6986	alginate degradation	1	6	0.17
PWY-7887	protein SAMPylation and SAMP-mediated thiolation	1	6	0.17
PWY-6906	chitin derivatives degradation	2	8	0.25
P181-PWY	nicotine degradation I (pyridine pathway)	1	17	0.06
GLUTSYNIII-PWY	L-glutamate biosynthesis III	1	1	1.00
PWY-6987	lipoate biosynthesis and incorporation III (Bacillus)	2	3	0.67
ANAGLYCOLYSIS-PWY	glycolysis III (from glucose)	8	10	0.80
PWY-6797	6-hydroxymethyl-dihydropterin diphosphate biosynthesis II (Methanocaldococcus)	1	7	0.14
PWY-5154	L-arginine biosynthesis III (via N-acetyl-L-citrulline)	7	9	0.78
PWY-6907	thiamine diphosphate biosynthesis III (Staphylococcus)	2	3	0.67
PWY-699	brassinosteroid biosynthesis I	1	25	0.04
PWY-7165	L-ascorbate biosynthesis VI (engineered pathway)	3	7	0.43
PWY-6642	(R)-cysteate degradation	1	3	0.33
PWY-7888	tRNA-uridine 2-thiolation (cytoplasmic)	1	7	0.14
PWY-6908	thiamine diphosphate biosynthesis IV (eukaryotes)	2	3	0.67
P183-PWY	catechol degradation to 2-oxopent-4-enoate I	1	2	0.50
PWY-6992	1,5-anhydrofructose degradation	2	5	0.40
PWY-6643	coenzyme M biosynthesis II	1	6	0.17
PWY-7174	S-methyl-5-thio-&alpha;-D-ribose 1-phosphate degradation II	1	4	0.25
UDPNAGSYN-PWY	UDP-N-acetyl-D-glucosamine biosynthesis I	5	5	1.00
FASYN-ELONG-PWY	fatty acid elongation -- saturated	5	5	1.00
PWY-6823	molybdenum cofactor biosynthesis	2	8	0.25
PWY-7889	tRNA-uridine 2-thiolation (mammalian mitochondria)	1	4	0.25
PWY-7176	UTP and CTP de novo biosynthesis	3	3	1.00
PWY-6910	hydroxymethylpyrimidine salvage	2	2	1.00
P184-PWY	protocatechuate degradation I (meta-cleavage pathway)	1	8	0.12
PWY-7891	tRNA-uridine 2-thiolation (yeast mitochondria)	1	4	0.25
PWY-6644	fluoroacetate and fluorothreonine biosynthesis	1	6	0.17
PWY-6999	theophylline degradation	1	9	0.11
HSERMETANA-PWY	L-methionine biosynthesis III	2	2	1.00
ILEUDEG-PWY	L-isoleucine degradation I	4	6	0.67
P185-PWY	formaldehyde assimilation III (dihydroxyacetone cycle)	8	12	0.67
PWY-6654	phosphopantothenate biosynthesis III (archaebacteria)	2	4	0.50
PWY-7892	tRNA-uridine 2-thiolation (bacteria)	2	8	0.25
TREDEGLOW-PWY	trehalose degradation I (low osmolarity)	1	2	0.50
PWY-7177	UTP and CTP dephosphorylation II	1	3	0.33
PWY-5169	cyanurate degradation	1	3	0.33
PWY-6655	xanthan biosynthesis	1	10	0.10
PWY-101	photosynthesis light reactions	1	4	0.25
PWY-6826	phosphatidylcholine biosynthesis VI	1	1	1.00
P21-PWY	pentose phosphate pathway (partial)	2	3	0.67
ILEUSYN-PWY	L-isoleucine biosynthesis I (from threonine)	4	7	0.57
PWY-7900	glycogen biosynthesis III (from &alpha;-maltose 1-phosphate)	2	8	0.25
PWY-6658	acetan biosynthesis	1	10	0.10
PWY-6920	6-gingerol analog biosynthesis (engineered)	1	6	0.17
PWY-7179	purine deoxyribonucleosides degradation I	4	4	1.00
PWY-6922	L-N&delta;-acetylornithine biosynthesis	4	7	0.57
PWY-6660	2-heptyl-3-hydroxy-4(1H)-quinolone biosynthesis	1	9	0.11
PWY-1042	glycolysis IV (plant cytosol)	7	10	0.70
PWY-7003	glycerol degradation to butanol	5	6	0.83
PWY-7179-1	purine deoxyribonucleosides degradation II	3	3	1.00
PWY-7902	glucosylglycerol biosynthesis	2	5	0.40
PWY-6661	4-hydroxy-2(1H)-quinolone biosynthesis	1	5	0.20
FASYN-INITIAL-PWY	superpathway of fatty acid biosynthesis initiation (E. coli)	1	2	0.50
ARGININE-SYN4-PWY	L-ornithine biosynthesis II	2	4	0.50
P221-PWY	octane oxidation	2	5	0.40
PWY-7007	methyl ketone biosynthesis (engineered)	1	6	0.17
PWY-6840	homoglutathione biosynthesis	1	2	0.50
PWY-7904	tRNA-uridine 2-thiolation (thermophilic bacteria)	1	5	0.20
PWY-6842	glutathione-mediated detoxification II	2	8	0.25
PWY-7180	2'-deoxy-&alpha;-D-ribose 1-phosphate degradation	2	3	0.67
PWY-7909	formaldehyde oxidation VII (THF pathway)	3	4	0.75
PWY-5177	glutaryl-CoA degradation	1	5	0.20
PWY-1121	suberin monomers biosynthesis	2	19	0.11
PWY-6853	ethylene biosynthesis II (microbes)	1	5	0.20
P224-PWY	sulfate reduction V (dissimilatory, to thiosulfate)	1	5	0.20
PWY-7927	sulfide oxidation IV (metazoa)	1	5	0.20
PWY-6932	selenate reduction	1	5	0.20
PWY-6854	ethylene biosynthesis III (microbes)	1	7	0.14
PWY-7181	pyrimidine deoxyribonucleosides degradation	2	3	0.67
PWY-7934	polybrominated dihydroxylated diphenyl ethers biosynthesis	1	8	0.12
PWY-1269	CMP-3-deoxy-D-manno-octulosonate biosynthesis	2	5	0.40
PWY-702	L-methionine biosynthesis II	3	8	0.38
P23-PWY	reductive TCA cycle I	7	12	0.58
PWY-7935	spongiadioxin C biosynthesis	1	7	0.14
PWY-6672	cis-genanyl-CoA degradation	1	9	0.11
PWY-7182	linalool biosynthesis I	1	2	0.50
P241-PWY	coenzyme B biosynthesis	1	16	0.06
OXIDATIVEPENT-PWY	pentose phosphate pathway (oxidative branch) I	3	3	1.00
PWY-6859	all-trans-farnesol biosynthesis	2	4	0.50
PWY-6936	seleno-amino acid biosynthesis	3	5	0.60
PWY-7183	pyrimidine nucleobases salvage I	1	1	1.00
P3-PWY	gallate degradation III (anaerobic)	1	11	0.09
PWY-1361	benzoyl-CoA degradation I (aerobic)	2	7	0.29
PWY-5188	tetrapyrrole biosynthesis I (from glutamate)	2	6	0.33
PWY-7943	lycopadiene biosynthesis	1	7	0.14
PWY-6863	pyruvate fermentation to hexanol (engineered)	3	11	0.27
PWY-7948	levulinate degradation	2	9	0.22
PWY-6679	jadomycin biosynthesis	1	9	0.11
PWY-5189	tetrapyrrole biosynthesis II (from glycine)	3	4	0.75
PWY-7033	alkane biosynthesis II	1	3	0.33
PWY-7184	pyrimidine deoxyribonucleotides de novo biosynthesis I	8	9	0.89
PWY-7344	UDP-&alpha;-D-galactose biosynthesis	1	1	1.00
PWY-6475	trans-lycopene biosynthesis II (oxygenic phototrophs and green sulfur bacteria)	2	8	0.25
PWY0-662	PRPP biosynthesis I	1	1	1.00
REDCITCYC	TCA cycle VIII (helicobacter)	8	9	0.89
PWY66-398	TCA cycle III (animals)	9	11	0.82
PWY-7821	tunicamycin biosynthesis	1	9	0.11
PWY-5653	NAD biosynthesis from 2-amino-3-carboxymuconate semialdehyde	2	4	0.50
PWY-5344	L-homocysteine biosynthesis	1	2	0.50
P542-PWY	choline-O-sulfate degradation	1	1	1.00
PWY66-399	gluconeogenesis III	8	12	0.67
PWY-7822	chitin degradation III (Serratia)	1	7	0.14
PWY-5659	GDP-mannose biosynthesis	3	4	0.75
PWY-6486	D-galacturonate degradation II	1	5	0.20
PWY-6583	pyruvate fermentation to butanol I	1	8	0.12
PWY-7836	ganglio-series glycosphingolipids biosynthesis	1	22	0.05
GLUAMCAT-PWY	N-acetylglucosamine degradation I	1	2	0.50
PWY66-422	D-galactose degradation V (Leloir pathway)	3	5	0.60
PWY-5350	thiosulfate disproportionation IV (rhodanese)	1	1	1.00
P561-PWY	L-proline betaine degradation	1	3	0.33
PWY-7838	globo-series glycosphingolipids biosynthesis	1	8	0.12
PWY-7524	mevalonate pathway III (archaea)	1	8	0.12
PWY-5661	GDP-glucose biosynthesis	2	3	0.67
PWY-6497	D-galactarate degradation II	1	3	0.33
P562-PWY	myo-inositol degradation I	6	7	0.86
PWY-7346	UDP-&alpha;-D-glucuronate biosynthesis (from UDP-glucose)	1	1	1.00
METHIONINE-DEG1-PWY	L-methionine degradation I (to L-homocysteine)	2	3	0.67
PWY66-425	L-lysine degradation II (L-pipecolate pathway)	1	8	0.12
PWY-5663	erythro-tetrahydrobiopterin biosynthesis I	1	3	0.33
PWY-6499	D-glucarate degradation II	1	3	0.33
PWY0-823	L-arginine degradation III (arginine decarboxylase/agmatinase pathway)	1	2	0.50
PWY66-428	L-threonine degradation V	2	2	1.00
PWY-5664	erythro-tetrahydrobiopterin biosynthesis II	1	4	0.25
PWY-7839	lacto-series glycosphingolipids biosynthesis	1	7	0.14
PHENYLALANINE-DEG1-PWY	L-phenylalanine degradation I (aerobic)	1	3	0.33
PWY-6501	D-glucuronate degradation II	1	5	0.20
PWY-5667	CDP-diacylglycerol biosynthesis I	2	4	0.50
PWY-6588	pyruvate fermentation to acetone	1	5	0.20
PWY-5367	petroselinate biosynthesis	2	6	0.33
PWYG-321	mycolate biosynthesis	14	182	0.08
PWY-7347	sucrose biosynthesis III	1	3	0.33
PWYQT-4429	CO2 fixation into oxaloacetate (anaplerotic)	1	2	0.50
PWY-7841	neolacto-series glycosphingolipids biosynthesis	1	12	0.08
PWY-7533	gliotoxin biosynthesis	1	9	0.11
RHAMCAT-PWY	L-rhamnose degradation I	1	5	0.20
PWY-735	jasmonic acid biosynthesis	7	19	0.37
PWY-5381	pyridine nucleotide cycling (plants)	6	11	0.55
RIBOKIN-PWY	ribose phosphorylation	1	3	0.33
PWY-5384	sucrose degradation IV (sucrose phosphorylase)	2	4	0.50
PWY-7536	2-amino-3-hydroxycyclopent-2-enone biosynthesis	1	4	0.25
PWY-5668	cardiolipin biosynthesis I	1	3	0.33
PWY-7356	thiamine salvage IV (yeast)	5	7	0.71
PWYQT-4450	aliphatic glucosinolate biosynthesis, side chain elongation cycle	5	30	0.17
PWY-7849	urate conversion to allantoin III	2	3	0.67
PWY-5386	methylglyoxal degradation I	2	3	0.67
GLUCONEO-PWY	gluconeogenesis I	9	13	0.69
PWY-7539	6-hydroxymethyl-dihydropterin diphosphate biosynthesis III (Chlamydia)	2	5	0.40
PWY0-862	(5Z)-dodec-5-enoate biosynthesis I	4	6	0.67
PWY-7851	coenzyme A biosynthesis II (eukaryotic)	3	4	0.75
PWY-6507	4-deoxy-L-threo-hex-4-enopyranuronate degradation	2	5	0.40
PWY-7357	thiamine formation from pyrithiamine and oxythiamine (yeast)	4	6	0.67
PWY-7544	pyruvate to cytochrome bo oxidase electron transfer	1	2	0.50
PHESYN	L-phenylalanine biosynthesis I	2	3	0.67
PWY-5669	phosphatidylethanolamine biosynthesis I	2	2	1.00
CYSTSYN-PWY	L-cysteine biosynthesis I	2	2	1.00
COBALSYN-PWY	adenosylcobalamin salvage from cobinamide I	4	6	0.67
PWYQT-4476	indole glucosinolate activation (herbivore attack)	1	13	0.08
PWY-5392	reductive TCA cycle II	6	12	0.50
GLYOXYLATE-BYPASS	glyoxylate cycle	6	6	1.00
PWY-6596	adenosine nucleotides degradation I	5	8	0.62
PWY-7852	6-hydroxymethyl-dihydropterin diphosphate biosynthesis IV (Plasmodium)	1	3	0.33
GLUTDEG-PWY	L-glutamate degradation II	2	2	1.00
PWYQT-4477	indole glucosinolate activation (intact plant cell)	1	10	0.10
PWY-7853	6-hydroxymethyl-dihydropterin diphosphate biosynthesis V (Pyrococcus)	1	4	0.25
PWY-5675	nitrate reduction V (assimilatory)	2	4	0.50
METHYLGALLATE-DEGRADATION-PWY	methylgallate degradation	1	6	0.17
PWY-7854	crotonyl-CoA/ethylmalonyl-CoA/hydroxybutyryl-CoA cycle (engineered)	3	14	0.21
PWY-7545	pyruvate to cytochrome bd oxidase electron transfer	1	2	0.50
QUINATEDEG-PWY	quinate degradation I	1	3	0.33
PWY-6599	guanine and guanosine salvage II	1	2	0.50
PWY-7376	cob(II)yrinate a,c-diamide biosynthesis II (late cobalt incorporation)	10	13	0.77
PWY-6517	N-acetylglucosamine degradation II	1	1	1.00
GLYCOLATEMET-PWY	glycolate and glyoxylate degradation I	1	4	0.25
PWY-7855	ectoine degradation	1	4	0.25
PWY-5676	acetyl-CoA fermentation to butanoate II	2	5	0.40
PWY0-901	L-selenocysteine biosynthesis I (bacteria)	1	3	0.33
1CMET2-PWY	N10-formyl-tetrahydrofolate biosynthesis	6	9	0.67
PWY-7377	cob(II)yrinate a,c-diamide biosynthesis I (early cobalt insertion)	5	15	0.33
PWY-66	GDP-L-fucose biosynthesis I (from GDP-D-mannose)	1	2	0.50
GDPRHAMSYN-PWY	GDP-D-rhamnose biosynthesis	1	2	0.50
PWY-6519	8-amino-7-oxononanoate biosynthesis I	6	11	0.55
PWY-5677	succinate fermentation to butanoate	1	7	0.14
PWY-7380	biotin biosynthesis from 8-amino-7-oxononanoate II	1	3	0.33
PWY-7856	heme a biosynthesis	3	4	0.75
PWY-7560	methylerythritol phosphate pathway II	6	9	0.67
PWY-6605	adenine and adenosine salvage II	1	2	0.50
PWY1-3	polyhydroxybutanoate biosynthesis	2	3	0.67
PWY-7857	adlupulone and adhumulone biosynthesis	1	6	0.17
PWY-7382	lipoate biosynthesis and incorporation (yeast)	4	7	0.57
PWY-5686	UMP biosynthesis I	5	6	0.83
PWY-7562	3,6-anhydro-&alpha;-L-galactopyranose degradation	2	7	0.29
PWY-6527	stachyose degradation	4	7	0.57
PWY-7383	anaerobic energy metabolism (invertebrates, cytosol)	4	7	0.57
PWY1A0-6325	actinorhodin biosynthesis	1	12	0.08
PWY-7573	GDP-mycosamine biosynthesis	1	3	0.33
PWY-7384	anaerobic energy metabolism (invertebrates, mitochondrial)	5	10	0.50
PWY-5427	naphthalene degradation (aerobic)	2	6	0.33
PWY-7858	(5Z)-dodec-5-enoate biosynthesis II	3	6	0.50
PWY-6606	guanosine nucleotides degradation II	3	4	0.75
PWY-7574	propanoyl-CoA degradation II	2	5	0.40
PWY-7385	1,3-propanediol biosynthesis (engineered)	3	9	0.33
PWY-6535	4-aminobutanoate degradation I	2	2	1.00
PWY-6607	guanosine nucleotides degradation I	2	4	0.50
PWY-6608	guanosine nucleotides degradation III	4	4	1.00
PWY-5690	TCA cycle II (plants and fungi)	8	9	0.89
GLUCONSUPER-PWY	D-gluconate degradation	1	1	1.00
PWY-7388	octanoyl-[acyl-carrier protein] biosynthesis (mitochondria, yeast)	6	9	0.67
PWY-7863	roseoflavin biosynthesis	1	7	0.14
GLYSYN-PWY	glycine biosynthesis I	1	1	1.00
PWY-5691	urate conversion to allantoin I	2	3	0.67
PWY-7870	L-cysteine biosynthesis VII	1	3	0.33
PWY-5692	allantoin degradation to glyoxylate II	2	2	1.00
PWY-6536	4-aminobutanoate degradation III	2	2	1.00
PWY-7586	&beta;-1,4-D-mannosyl-N-acetyl-D-glucosamine degradation	2	3	0.67
PWY-6609	adenine and adenosine salvage III	4	4	1.00
VALDEG-PWY	L-valine degradation I	5	8	0.62
PWY-5740	GDP-L-colitose biosynthesis	1	5	0.20
PWY-241	C4 photosynthetic carbon assimilation cycle, NADP-ME type	3	5	0.60
PWY-7294	xylose degradation IV	1	7	0.14
PWY-6123	inosine-5'-phosphate biosynthesis I	5	6	0.83
PWY-5491	diethylphosphate degradation	1	2	0.50
PWY-5	canavanine biosynthesis	2	4	0.50
PWY-3961	phosphopantothenate biosynthesis II	1	3	0.33
PWY-5741	ethylmalonyl-CoA pathway	3	11	0.27
PWY-7295	L-arabinose degradation IV	1	8	0.12
PWY-5497	purine nucleobases degradation II (anaerobic)	9	24	0.38
PWY-7688	dTDP-D-ravidosamine and dTDP-4-acetyl-D-ravidosamine biosynthesis	2	6	0.33
ALACAT2-PWY	L-alanine degradation II (to D-lactate)	1	3	0.33
PWY-7299	progesterone biosynthesis	1	2	0.50
PWY-6268	adenosylcobalamin salvage from cobalamin	1	1	1.00
PWY-3982	uracil degradation I (reductive)	1	3	0.33
PWY-7301	dTDP-4-O-demethyl-&beta;-L-noviose biosynthesis	3	5	0.60
PWY0-1561	glycerol-3-phosphate to cytochrome bo oxidase electron transfer	1	2	0.50
PWY-5743	3-hydroxypropanoate cycle	5	13	0.38
PWY-2582	brassinosteroid biosynthesis II	1	21	0.05
PWY-7698	2,5-xylenol and 3,5-xylenol degradation	1	13	0.08
PWY-5499	vitamin B6 degradation	1	9	0.11
TRPSYN-PWY	L-tryptophan biosynthesis	4	6	0.67
PWY-7210	pyrimidine deoxyribonucleotides biosynthesis from CTP	5	8	0.62
ALKANEMONOX-PWY	two-component alkanesulfonate monooxygenase	2	2	1.00
PWY-5744	glyoxylate assimilation	3	13	0.23
PWY-6124	inosine-5'-phosphate biosynthesis II	5	5	1.00
PWY-7308	acrylonitrile degradation I	1	2	0.50
PWY-7700	4-methylphenol degradation to protocatechuate	1	4	0.25
ASPASN-PWY	superpathway of L-aspartate and L-asparagine biosynthesis	1	1	1.00
PWY0-1565	D-lactate to cytochrome bo oxidase electron transfer	1	2	0.50
LYSINE-AMINOAD-PWY	L-lysine biosynthesis IV	1	9	0.11
PWY-7310	D-glucosaminate degradation	1	3	0.33
PWY-2661	trehalose biosynthesis V	2	3	0.67
PWY-40	putrescine biosynthesis I	1	2	0.50
PWY-7709	(3R)-linalool biosynthesis	1	2	0.50
PWY-5506	methanol oxidation to formaldehyde IV	1	2	0.50
PWY-7312	dTDP-D-&beta;-fucofuranose biosynthesis	2	4	0.50
KDO-NAGLIPASYN-PWY	superpathway of (Kdo)2-lipid A biosynthesis	1	4	0.25
PWY-6269	adenosylcobalamin salvage from cobinamide II	3	7	0.43
PWY-5022	4-aminobutanoate degradation V	3	7	0.43
PWY-5750	itaconate biosynthesis	3	4	0.75
PWY-2722	trehalose degradation IV	1	3	0.33
PWY-7315	dTDP-N-acetylthomosamine biosynthesis	2	4	0.50
PWY-7216	(R)- and (S)-3-hydroxybutanoate biosynthesis (engineered)	2	5	0.40
PWY-4041	&gamma;-glutamyl cycle	1	4	0.25
PWY-2723	trehalose degradation V	2	3	0.67
PWY-5754	4-hydroxybenzoate biosynthesis I (eukaryotes)	1	6	0.17
PWY0-1567	NADH to cytochrome bo oxidase electron transfer II	1	2	0.50
HEME-BIOSYNTHESIS-II	heme b biosynthesis I (aerobic)	2	4	0.50
PWY-5025	indole-3-acetate biosynthesis IV (bacteria)	1	2	0.50
LYSINE-DEG1-PWY	L-lysine degradation XI (mammalian)	2	5	0.40
PWY-7710	FeMo cofactor biosynthesis	1	6	0.17
VALSYN-PWY	L-valine biosynthesis	3	4	0.75
PWY-5509	adenosylcobalamin biosynthesis from adenosylcobinamide-GDP	2	3	0.67
PWY-4061	glutathione-mediated detoxification I	2	5	0.40
PWY-2781	cis-zeatin biosynthesis	1	5	0.20
ALADEG-PWY	L-alanine degradation I	1	2	0.50
PWY-7218	photosynthetic 3-hydroxybutanoate biosynthesis (engineered)	2	4	0.50
PWY-7721	methyl phomopsenoate biosynthesis	1	4	0.25
PWY0-1568	NADH to cytochrome bd oxidase electron transfer II	1	2	0.50
PWY-6277	superpathway of 5-aminoimidazole ribonucleotide biosynthesis	4	5	0.80
PWY-4081	glutathione-peroxide redox reactions	1	3	0.33
PWY-5026	indole-3-acetate biosynthesis V (bacteria and fungi)	1	1	1.00
PWY-5785	di-trans,poly-cis-undecaprenyl phosphate biosynthesis	1	2	0.50
PWY-5514	UDP-N-acetyl-D-galactosamine biosynthesis II	3	7	0.43
PWY-7316	dTDP-N-acetylviosamine biosynthesis	2	4	0.50
PWY-6142	gluconeogenesis II (Methanobacterium thermoautotrophicum)	7	13	0.54
PWY-2941	L-lysine biosynthesis II	6	9	0.67
PWY-5789	3-hydroxypropanoate/4-hydroxybutanate cycle	6	18	0.33
PWY-5028	L-histidine degradation II	5	5	1.00
PWY-5523	5,6-dimethylbenzimidazole biosynthesis I (aerobic)	3	3	1.00
PWY-7723	bacterial bioluminescence	2	8	0.25
PWY-7219	adenosine ribonucleotides de novo biosynthesis	4	4	1.00
PWY0-1576	hydrogen to fumarate electron transfer	1	2	0.50
PWY-6281	L-selenocysteine biosynthesis II (archaea and eukaryotes)	1	4	0.25
PWY-2942	L-lysine biosynthesis III	5	7	0.71
PWY-7724	icosapentaenoate biosynthesis III (8-desaturase, mammals)	1	7	0.14
PWY-581	indole-3-acetate biosynthesis II	2	13	0.15
PWY-6146	Methanobacterium thermoautotrophicum biosynthetic metabolism	1	2	0.50
PWY-5030	L-histidine degradation III	4	6	0.67
PWY-6282	palmitoleate biosynthesis I (from (5Z)-dodec-5-enoate)	6	9	0.67
PWY-7726	(4Z,7Z,10Z,13Z,16Z)-docosa-4,7,10,13,16-pentaenoate biosynthesis (6-desaturase)	2	13	0.15
PWY-7318	dTDP-3-acetamido-3,6-dideoxy-&alpha;-D-glucose biosynthesis	2	5	0.40
PWY-7220	adenosine deoxyribonucleotides de novo biosynthesis II	3	4	0.75
PWY0-1582	glycerol-3-phosphate to fumarate electron transfer	1	2	0.50
PWY-6147	6-hydroxymethyl-dihydropterin diphosphate biosynthesis I	1	5	0.20
ARGSYN-PWY	L-arginine biosynthesis I (via L-ornithine)	2	4	0.50
PWY-5041	S-adenosyl-L-methionine cycle II	3	4	0.75
PWY-5530	sorbitol biosynthesis II	3	3	1.00
PWY-3081	L-lysine biosynthesis V	1	10	0.10
BETSYN-PWY	glycine betaine biosynthesis I (Gram-negative bacteria)	1	2	0.50
PWY-4202	arsenate detoxification I (glutaredoxin)	2	7	0.29
PWY-5531	3,8-divinyl-chlorophyllide a biosynthesis II (anaerobic)	2	9	0.22
RUMP-PWY	formaldehyde oxidation I	3	6	0.50
HEMESYN2-PWY	heme b biosynthesis II (anaerobic)	2	4	0.50
PWY-5826	hypoglycin biosynthesis	2	14	0.14
PWY-31	canavanine degradation	1	2	0.50
PWY-5532	nucleoside and nucleotide degradation (archaea)	2	10	0.20
PWY-7221	guanosine ribonucleotides de novo biosynthesis	4	4	1.00
PWY0-1586	peptidoglycan maturation (meso-diaminopimelate containing)	1	12	0.08
PWY-6148	tetrahydromethanopterin biosynthesis	1	14	0.07
PWY-3161	indole-3-acetate biosynthesis III (bacteria)	1	2	0.50
PROPIONMET-PWY	propanoyl CoA degradation I	2	3	0.67
PWY-5537	pyruvate fermentation to acetate V	1	2	0.50
PWY-7328	superpathway of UDP-glucose-derived O-antigen building blocks biosynthesis	2	2	1.00
PWY-7735	echinomycin and triostin A biosynthesis	1	6	0.17
PWY-321	cutin biosynthesis	1	16	0.06
PWY-6151	S-adenosyl-L-methionine cycle I	2	4	0.50
PWY-3941	&beta;-alanine biosynthesis II	2	6	0.33
PWY-5538	pyruvate fermentation to acetate VI	1	2	0.50
PWY-7736	stellatic acid biosynthesis	2	8	0.25
PWY-7222	guanosine deoxyribonucleotides de novo biosynthesis II	3	4	0.75
CYANCAT-PWY	cyanate degradation	1	3	0.33
PWY-7337	10-cis-heptadecenoyl-CoA degradation (yeast)	1	12	0.08
PWY-4261	glycerol degradation I	1	2	0.50
PWY-7338	10-trans-heptadecenoyl-CoA degradation (reductase-dependent, yeast)	1	12	0.08
PWY-7757	bisphenol A degradation	1	5	0.20
PWY-6287	neurosporene biosynthesis	2	5	0.40
PWY-7339	10-trans-heptadecenoyl-CoA degradation (MFE-dependent, yeast)	1	6	0.17
PWY-5046	2-oxoisovalerate decarboxylation to isobutanoyl-CoA	3	3	1.00
PWY-7224	purine deoxyribonucleosides salvage	2	6	0.33
ALANINE-VALINESYN-PWY	L-alanine biosynthesis I	1	3	0.33
PWY-7340	9-cis, 11-trans-octadecadienoyl-CoA degradation (isomerase-dependent, yeast)	2	10	0.20
PWY-7761	NAD salvage pathway II	3	4	0.75
PWY-561	superpathway of glyoxylate cycle and fatty acid degradation	4	4	1.00
PWY0-166	superpathway of pyrimidine deoxyribonucleotides de novo biosynthesis (E. coli)	11	13	0.85
PWY-5857	ubiquinol-10 biosynthesis (prokaryotic)	1	8	0.12
PWY-7226	guanosine deoxyribonucleotides de novo biosynthesis I	2	2	1.00
PWY-6153	autoinducer AI-2 biosynthesis I	1	5	0.20
PWY-3221	dTDP-L-rhamnose biosynthesis II	2	3	0.67
KDOSYN-PWY	Kdo transfer to lipid IVA I	1	2	0.50
PWY-4302	aerobic respiration III (alternative oxidase pathway)	2	3	0.67
ARGSYNBSUB-PWY	L-arginine biosynthesis II (acetyl cycle)	7	9	0.78
PWY-7227	adenosine deoxyribonucleotides de novo biosynthesis	2	2	1.00
PWY-6305	putrescine biosynthesis IV	3	4	0.75
PWY-5054	sorbitol biosynthesis I	1	3	0.33
PWY-7343	UDP-&alpha;-D-glucose biosynthesis I	2	2	1.00
PWY-6154	autoinducer AI-2 biosynthesis II (Vibrio)	1	6	0.17
PWY-5642	2,4-dinitrotoluene degradation	1	7	0.14
AMMOXID-PWY	ammonia oxidation I (aerobic)	1	2	0.50
PWY-6308	L-cysteine biosynthesis II (tRNA-dependent)	1	3	0.33
PWY-7766	heme b biosynthesis IV (Gram-positive bacteria)	1	4	0.25
PWY-6160	3-dehydroquinate biosynthesis II (archaea)	1	5	0.20
PWY-5870	ubiquinol-8 biosynthesis (eukaryotic)	3	9	0.33
PWY-6163	chorismate biosynthesis from 3-dehydroquinate	4	6	0.67
PWY-4321	L-glutamate degradation IV	2	5	0.40
PWY-5652	2-amino-3-carboxymuconate semialdehyde degradation to glutaryl-CoA	1	5	0.20
PROSYN-PWY	L-proline biosynthesis I	3	4	0.75
PWY-723	alkylnitronates degradation	1	2	0.50
PWY-5067	glycogen biosynthesis II (from UDP-D-Glucose)	1	4	0.25
PWY-7769	phosalacine biosynthesis	1	25	0.04
PWY-6683	sulfate reduction III (assimilatory)	1	3	0.33
PWY-6389	pyruvate fermentation to (S)-acetoin	1	3	0.33
PWY-6692	Fe(II) oxidation	2	6	0.33
PWY-5964	guanylyl molybdenum cofactor biosynthesis	1	1	1.00
DHGLUCONATE-PYR-CAT-PWY	glucose degradation (oxidative)	2	5	0.40
MENAQUINONESYN-PWY	menaquinol-8 biosynthesis	1	1	1.00
GLUCARDEG-PWY	D-glucarate degradation I	1	4	0.25
PWY-6696	oxalate degradation III	1	5	0.20
XYLCAT-PWY	xylose degradation I	2	2	1.00
PWY-5965	fatty acid biosynthesis initiation III	1	2	0.50
DAPLYSINESYN-PWY	L-lysine biosynthesis I	8	9	0.89
DISSULFRED-PWY	sulfate reduction IV (dissimilatory, to hydrogen sufide))	1	4	0.25
THIOREDOX-PWY	thioredoxin pathway	1	2	0.50
PWY-6397	mycolyl-arabinogalactan-peptidoglycan complex biosynthesis	2	17	0.12
PWY-5966	fatty acid biosynthesis initiation II	1	2	0.50
LEU-DEG2-PWY	L-leucine degradation I	1	6	0.17
PWY-6700	queuosine biosynthesis	4	4	1.00
PWY-5971	palmitate biosynthesis II (bacteria and plants)	23	31	0.74
PWY-6409	pyoverdine I biosynthesis	1	5	0.20
PWY-6703	preQ0 biosynthesis	2	4	0.50
PWY-5972	stearate biosynthesis I (animals and fungi)	1	6	0.17
PWY-6416	quinate degradation II	1	3	0.33
PWY-6704	L-ascorbate degradation IV	1	5	0.20
PWY-6422	D-arginine degradation	1	3	0.33
PWY-5973	cis-vaccenate biosynthesis	3	5	0.60
PWY-6707	gallate biosynthesis	1	3	0.33
ASPARAGINE-DEG1-PWY	L-asparagine degradation I	1	1	1.00
PWY-6430	thymine degradation	1	3	0.33
PWY-6708	ubiquinol-8 biosynthesis (prokaryotic)	4	8	0.50
PWY-5981	CDP-diacylglycerol biosynthesis III	2	5	0.40
PWY-6435	4-hydroxybenzoate biosynthesis V	3	5	0.60
PWY-5989	stearate biosynthesis II (bacteria and plants)	4	6	0.67
ASPARAGINE-DEG1-PWY-1	L-asparagine degradation III (mammalian)	2	3	0.67
PWY-6453	stigma estolide biosynthesis	1	7	0.14
PPGPPMET-PWY	ppGpp biosynthesis	3	6	0.50
PWY-6713	L-rhamnose degradation II	1	8	0.12
HOMOSER-METSYN-PWY	L-methionine biosynthesis I	4	7	0.57
PWY-5994	palmitate biosynthesis I (animals and fungi)	21	31	0.68
MALATE-ASPARTATE-SHUTTLE-PWY	L-aspartate degradation II	2	2	1.00
PWY-6000	&gamma;-linolenate biosynthesis II (animals)	1	2	0.50
DARABITOLUTIL-PWY	D-arabitol degradation	1	2	0.50
PWY-6722	candicidin biosynthesis	1	6	0.17
PWY-6470	peptidoglycan biosynthesis V (&beta;-lactam resistance)	1	9	0.11
PWY-6728	methylaspartate cycle	11	19	0.58
PWY-6001	linoleate biosynthesis II (animals)	1	2	0.50
PWY-6471	peptidoglycan biosynthesis IV (Enterococcus faecium)	2	6	0.33
PWY-6731	starch degradation III	2	4	0.50
HOMOSER-THRESYN-PWY	L-threonine biosynthesis	2	2	1.00
PWY-6012	acyl carrier protein metabolism	1	2	0.50
PWY-6733	sporopollenin precursors biosynthesis	4	18	0.22
PWY-6012-1	acyl carrier protein activation	1	1	1.00
PWY-6473	4-aminobutanoate degradation IV	1	2	0.50
P341-PWY	glycolysis V (Pyrococcus)	5	9	0.56
PWY-6938	NADH repair	1	4	0.25
PWY-7046	4-coumarate degradation (anaerobic)	1	6	0.17
PWY-7953	UDP-N-acetylmuramoyl-pentapeptide biosynthesis III (meso-diaminopimelate containing)	6	8	0.75
PWY0-1301	melibiose degradation	1	1	1.00
PWY-1501	mandelate degradation I	1	5	0.20
GLYCOLYSIS	glycolysis I (from glucose 6-phosphate)	7	12	0.58
PWY-6942	dTDP-D-desosamine biosynthesis	2	6	0.33
ACETOACETATE-DEG-PWY	acetoacetate degradation (to acetyl CoA)	1	2	0.50
PWY-7961	phenolyl cobamide biosynthesis	1	3	0.33
PWY-7049	icosapentaenoate biosynthesis II (6-desaturase, mammals)	1	7	0.14
PWY-6944	androstenedione degradation	1	15	0.07
GLYCOLYSIS-E-D	superpathway of glycolysis and the Entner-Doudoroff pathway	2	2	1.00
PWY0-1303	aminopropylcadaverine biosynthesis	1	2	0.50
TRIGLSYN-PWY	diacylglycerol and triacylglycerol biosynthesis	1	7	0.14
PWY-6610	adenine salvage	2	3	0.67
PWY-7962	adenosylcobinamide-GDP biosynthesis from cobyrinate a,c-diamide	1	5	0.20
PWY-7077	N-acetyl-D-galactosamine degradation	1	5	0.20
PWY-5122	geranyl diphosphate biosynthesis	1	1	1.00
PWY-6945	cholesterol degradation to androstenedione I (cholesterol oxidase)	3	17	0.18
PWY-6611	adenine and adenosine salvage V	2	3	0.67
PWY-801	homocysteine and cysteine interconversion	1	4	0.25
P101-PWY	ectoine biosynthesis	3	5	0.60
PWY-6946	cholesterol degradation to androstenedione II (cholesterol dehydrogenase)	3	22	0.14
PWY0-1312	acetate formation from acetyl-CoA I	1	2	0.50
OANTIGEN-PWY	O-antigen building blocks biosynthesis (E. coli)	1	1	1.00
4-HYDROXYMANDELATE-DEGRADATION-PWY	4-hydroxymandelate degradation	2	6	0.33
P345-PWY	aldoxime degradation	1	3	0.33
PWY-1622	formaldehyde assimilation I (serine pathway)	4	13	0.31
PWY-5123	trans, trans-farnesyl diphosphate biosynthesis	2	3	0.67
RIBOSYN2-PWY	flavin biosynthesis I (bacteria and plants)	8	9	0.89
CODH-PWY	reductive acetyl coenzyme A pathway I (homoacetogenic bacteria)	2	9	0.22
PWY-6948	sitosterol degradation to androstenedione	2	18	0.11
PWY-1722	formate assimilation into 5,10-methylenetetrahydrofolate	2	3	0.67
PWY-7082	ammonia oxidation IV (autotrophic ammonia oxidizers)	1	2	0.50
PWY-1781	&beta;-alanine degradation II	2	2	1.00
PWY0-1313	acetate conversion to acetyl-CoA	1	1	1.00
COLANSYN-PWY	colanic acid building blocks biosynthesis	1	1	1.00
P105-PWY	TCA cycle IV (2-oxoglutarate decarboxylase)	9	11	0.82
PWY-6952	glycerophosphodiester degradation	1	2	0.50
NADPHOS-DEPHOS-PWY	NAD phosphorylation and dephosphorylation	3	3	1.00
PWY-1801	formaldehyde oxidation II (glutathione-dependent)	2	3	0.67
P108-PWY	pyruvate fermentation to propanoate I	6	7	0.86
GLUTAMINDEG-PWY	L-glutamine degradation I	1	1	1.00
PWY-5129	sphingolipid biosynthesis (plants)	1	13	0.08
NADPHOS-DEPHOS-PWY-1	NAD phosphorylation and transhydrogenation	2	2	1.00
PWY-842	starch degradation I	1	3	0.33
TRNA-CHARGING-PWY	tRNA charging	15	21	0.71
PWY-6613	tetrahydrofolate salvage from 5,10-methenyltetrahydrofolate	1	2	0.50
PWY0-1319	CDP-diacylglycerol biosynthesis II	2	4	0.50
ARABCAT-PWY	L-arabinose degradation I	1	3	0.33
PWY-6614	tetrahydrofolate biosynthesis	1	3	0.33
PWY-7094	fatty acid salvage	3	6	0.50
P121-PWY	adenine and adenosine salvage I	2	2	1.00
PWY-6953	dTDP-3-acetamido-&alpha;-D-fucose biosynthesis	2	5	0.40
PWY-181	photorespiration	3	9	0.33
PWY-7102	bisabolene biosynthesis (engineered)	2	6	0.33
SUCSYN-PWY	sucrose biosynthesis I (from photosynthesis)	4	7	0.57
PWY-882	L-ascorbate biosynthesis I (L-galactose pathway)	2	8	0.25
PWY-5130	2-oxobutanoate degradation I	1	1	1.00
PWY0-1329	succinate to cytochrome bo oxidase electron transfer	2	2	1.00
PWY-1861	formaldehyde assimilation II (assimilatory RuMP Cycle)	5	9	0.56
PWY-7104	dTDP-L-megosamine biosynthesis	2	8	0.25
P122-PWY	heterolactic fermentation	9	18	0.50
PWY-5132	lupulone and humulone biosynthesis	1	6	0.17
GLUCOSE1PMETAB-PWY	glucose and glucose-1-phosphate degradation	4	5	0.80
GLUTAMINEFUM-PWY	L-glutamine degradation II	1	1	1.00
CENTFERM-PWY	pyruvate fermentation to butanoate	1	7	0.14
PWY0-1334	NADH to cytochrome bd oxidase electron transfer I	1	2	0.50
MANNCAT-PWY	D-mannose degradation	1	1	1.00
PWY-5133	colupulone and cohumulone biosynthesis	1	6	0.17
PWY-1881	formate oxidation to CO2	1	1	1.00
P124-PWY	Bifidobacterium shunt	11	15	0.73
PWY-6617	adenosine nucleotides degradation III	1	1	1.00
PWY-7111	pyruvate fermentation to isobutanol (engineered)	3	5	0.60
PWY-7112	4-hydroxy-2-nonenal detoxification	1	4	0.25
PWY-922	mevalonate pathway I	1	7	0.14
PWY0-1335	NADH to cytochrome bo oxidase electron transfer I	1	2	0.50
PWY-5136	fatty acid &beta;-oxidation II (peroxisome)	3	5	0.60
PWY-7115	C4 photosynthetic carbon assimilation cycle, NAD-ME type	5	9	0.56
GALACTARDEG-PWY	D-galactarate degradation I	1	4	0.25
PWY-6963	ammonia assimilation cycle I	1	2	0.50
PWY-6620	guanine and guanosine salvage	2	2	1.00
PWY-2161	folate polyglutamylation	4	5	0.80
PWY0-1336	NADH to fumarate electron transfer	1	2	0.50
PWY-7117	C4 photosynthetic carbon assimilation cycle, PEPCK type	6	10	0.60
ETHYL-PWY	ethylene biosynthesis I (plants)	1	3	0.33
PWY-6964	ammonia assimilation cycle II	1	2	0.50
PWY-6627	salinosporamide A biosynthesis	2	15	0.13
CHLOROPHYLL-SYN	3,8-divinyl-chlorophyllide a biosynthesis I (aerobic, light-dependent)	2	9	0.22
PWY-I9	L-cysteine biosynthesis VI (from L-methionine)	1	5	0.20
P42-PWY	incomplete reductive TCA cycle	5	7	0.71
PWY-2201	folate transformations I	6	12	0.50
GALACTCAT-PWY	D-galactonate degradation	3	3	1.00
PWY0-1337	oleate &beta;-oxidation	1	3	0.33
PWY-2221	Entner-Doudoroff pathway III (semi-phosphorylative)	5	9	0.56
PWY-5138	unsaturated, even numbered fatty acid &beta;-oxidation	1	5	0.20
PWY-7118	chitin degradation to ethanol	2	6	0.33
PWY-6969	TCA cycle V (2-oxoglutarate:ferredoxin oxidoreductase)	10	12	0.83
P161-PWY	acetylene degradation	1	5	0.20
PWY0-1021	L-alanine biosynthesis III	1	1	1.00
PWY-2242	ammonia oxidation III	1	3	0.33
PWY-7124	ethylene biosynthesis V (engineered)	5	8	0.62
PWY-6973	dTDP-D-olivose, dTDP-D-oliose and dTDP-D-mycarose biosynthesis	2	9	0.22
PWY-7126	ethylene biosynthesis IV (engineered)	1	3	0.33
DTDPRHAMSYN-PWY	dTDP-L-rhamnose biosynthesis I	4	4	1.00
ARG-GLU-PWY	L-arginine degradation VII (arginase 3 pathway)	2	2	1.00
PWY-2301	myo-inositol biosynthesis	1	2	0.50
PWY0-1353	succinate to cytochrome bd oxidase electron transfer	2	2	1.00
GLUDEG-I-PWY	GABA shunt	2	4	0.50
PWY-2361	3-oxoadipate degradation	2	2	1.00
CHOLINE-BETAINE-ANA-PWY	choline degradation I	1	2	0.50
PWY-7130	L-glucose degradation	2	7	0.29
PWY-5143	long-chain fatty acid activation	1	1	1.00
ARG-PRO-PWY	L-arginine degradation VI (arginase 2 pathway)	2	4	0.50
PWY-6974	dTDP-L-olivose biosynthesis	2	7	0.29
PWY-7141	(3S)-linalool biosynthesis	1	2	0.50
PWY-6871	3-methylbutanol biosynthesis (engineered)	4	7	0.57
PWY-5194	siroheme biosynthesis	3	4	0.75
PWY-7234	inosine-5'-phosphate biosynthesis III	4	6	0.67
PWY-6537	4-aminobutanoate degradation II	1	2	0.50
PWY-7587	oleate biosynthesis III (cyanobacteria)	1	3	0.33
PWY3DJ-35471	L-ascorbate biosynthesis IV	1	6	0.17
PWY-6873	long chain fatty acid ester synthesis (engineered)	1	4	0.25
PWY-7185	UTP and CTP dephosphorylation I	3	5	0.60
PWY-7391	isoprene biosynthesis II (engineered)	1	8	0.12
PWY-5196	factor 430 biosynthesis	2	7	0.29
PWY-6876	isopropanol biosynthesis (engineered)	1	5	0.20
PWY-7237	myo-, chiro- and scyllo-inositol degradation	1	4	0.25
PWY-7238	sucrose biosynthesis II	5	8	0.62
PWY-6883	pyruvate fermentation to butanol II (engineered)	1	6	0.17
PWY-7606	docosahexaenoate biosynthesis III (6-desaturase, mammals)	2	14	0.14
PWY3O-355	stearate biosynthesis III (fungi)	3	6	0.50
PWY-7187	pyrimidine deoxyribonucleotides de novo biosynthesis II	5	7	0.71
PWY-6886	1-butanol autotrophic biosynthesis (engineered)	3	5	0.60
PWY-761	rhizobactin 1021 biosynthesis	2	6	0.33
PWY-5265	peptidoglycan biosynthesis II (staphylococci)	2	6	0.33
PWY-6538	caffeine degradation III (bacteria, via demethylation)	1	7	0.14
GLUTORN-PWY	L-ornithine biosynthesis I	5	5	1.00
PWY490-3	nitrate reduction VI (assimilatory)	2	4	0.50
PANTO-PWY	phosphopantothenate biosynthesis I	2	4	0.50
PWY-7193	pyrimidine ribonucleosides salvage I	1	3	0.33
PWY-5269	cardiolipin biosynthesis II	1	3	0.33
PWY-7622	UDP-&alpha;-D-galactofuranose biosynthesis	1	1	1.00
PWY-6890	4-amino-2-methyl-5-diphosphomethylpyrimidine biosynthesis	2	2	1.00
PYRIDOXSYN-PWY	pyridoxal 5'-phosphate biosynthesis I	4	8	0.50
ARGASEDEG-PWY	L-arginine degradation I (arginase pathway)	2	3	0.67
PWY-7394	urate conversion to allantoin II	2	3	0.67
PWY-7194	pyrimidine nucleobases salvage II	1	1	1.00
PWY-7626	bacilysin biosynthesis	1	10	0.10
PWY4FS-7	phosphatidylglycerol biosynthesis I (plastidic)	1	2	0.50
PWY-7241	myo-inositol degradation II	1	5	0.20
PWY-7395	D-galactosamine and N-acetyl-D-galactosamine degradation	1	4	0.25
PWY-6543	4-aminobenzoate biosynthesis	2	2	1.00
PWY-5278	sulfite oxidation III	1	2	0.50
PWY-7396	butanol and isobutanol biosynthesis (engineered)	2	8	0.25
PWY4FS-8	phosphatidylglycerol biosynthesis II (non-plastidic)	1	2	0.50
PWY-6891	thiazole biosynthesis II (aerobic bacteria)	4	7	0.57
PWY-7242	D-fructuronate degradation	4	4	1.00
PWY-7639	bis(guanylyl molybdenum cofactor) biosynthesis	1	2	0.50
CITRULBIO-PWY	L-citrulline biosynthesis	5	8	0.62
PWY-5283	L-lysine degradation V	1	9	0.11
PWY4LZ-257	superpathway of fermentation (Chlamydomonas reinhardtii)	1	7	0.14
PWY-7644	heparin degradation	1	5	0.20
PWY-7399	methylphosphonate degradation II	2	5	0.40
GLNSYN-PWY	L-glutamine biosynthesis I	1	1	1.00
PWY66-161	ethanol degradation III	1	3	0.33
PWY-7195	pyrimidine ribonucleosides salvage III	1	2	0.50
PWY-7400	L-arginine biosynthesis IV (archaebacteria)	5	9	0.56
CALVIN-PWY	Calvin-Benson-Bassham cycle	6	13	0.46
PWY-6892	thiazole biosynthesis I (facultative anaerobic bacteria)	4	7	0.57
PLPSAL-PWY	pyridoxal 5'-phosphate salvage I	3	5	0.60
PWY-6545	pyrimidine deoxyribonucleotides de novo biosynthesis III	7	9	0.78
PWY66-162	ethanol degradation IV	2	3	0.67
PWY-7401	crotonate fermentation (to acetate and cyclohexane carboxylate)	1	15	0.07
CAMALEXIN-SYN	camalexin biosynthesis	1	9	0.11
PWY-7654	(8E,10E)-dodeca-8,10-dienol biosynthesis	3	11	0.27
PWY66-21	ethanol degradation II	1	3	0.33
PWY-7250	[2Fe-2S] iron-sulfur cluster biosynthesis	2	10	0.20
PWY-6549	L-glutamine biosynthesis III	6	9	0.67
PWY-7656	Spodoptera littoralis pheromone biosynthesis	2	22	0.09
PWY66-366	flavin biosynthesis IV (mammalian)	2	2	1.00
PWY-7254	TCA cycle VII (acetate-producers)	8	9	0.89
PWY-6893	thiamine diphosphate biosynthesis II (Bacillus)	1	2	0.50
PWY-7197	pyrimidine deoxyribonucleotide phosphorylation	4	4	1.00
PROTOCATECHUATE-ORTHO-CLEAVAGE-PWY	protocatechuate degradation II (ortho-cleavage pathway)	2	4	0.50
PWY-6894	thiamine diphosphate biosynthesis I (E. coli)	1	2	0.50
PWY-7657	dTDP-&beta;-L-digitoxose biosynthesis	2	7	0.29
PWY66-367	ketogenesis	2	5	0.40
PWY-7409	phospholipid remodeling (phosphatidylethanolamine, yeast)	2	4	0.50
PWY-7255	ergothioneine biosynthesis I (bacteria)	1	7	0.14
PWY-7659	viridicatumtoxin biosynthesis	1	9	0.11
IDNCAT-PWY	L-idonate degradation	3	3	1.00
PWY-7198	pyrimidine deoxyribonucleotides de novo biosynthesis IV	5	7	0.71
PWY66-368	ketolysis	3	3	1.00
PWY-7268	NAD/NADP-NADH/NADPH cytosolic interconversion (yeast)	3	5	0.60
PWY-7410	ipsdienol biosynthesis	1	4	0.25
TCA	TCA cycle I (prokaryotic)	10	10	1.00
PWY-7663	gondoate biosynthesis (anaerobic)	3	4	0.75
PWY-7411	phosphatidate biosynthesis (yeast)	1	5	0.20
PWY-7199	pyrimidine deoxyribonucleosides salvage	4	5	0.80
PWY-6556	pyrimidine ribonucleosides salvage II	1	2	0.50
ARGDEG-V-PWY	L-arginine degradation X (arginine monooxygenase pathway)	1	3	0.33
PWY66-373	sucrose degradation V (sucrose &alpha;-glucosidase)	3	5	0.60
PWY-7413	dTDP-6-deoxy-&alpha;-D-allose biosynthesis	2	4	0.50
PWY-7664	oleate biosynthesis IV (anaerobic)	9	14	0.64
PWY-7269	NAD/NADP-NADH/NADPH mitochondrial interconversion (yeast)	1	5	0.20
PWY-7414	dTDP-&alpha;-D-mycaminose biosynthesis	2	5	0.40
PWY-7204	pyridoxal 5'-phosphate salvage II (plants)	3	9	0.33
PWY-7674	CMP-8-amino-3,8-dideoxy-D-manno-octulosonate biosynthesis	1	7	0.14
TYRFUMCAT-PWY	L-tyrosine degradation I	1	5	0.20
PWY-6559	spermidine biosynthesis II	2	4	0.50
PWY66-375	leukotriene biosynthesis	1	6	0.17
ASPARTATE-DEG1-PWY	L-aspartate degradation I	1	1	1.00
PWY-5338	galactosylcyclitol biosynthesis	1	4	0.25
BETA-ALA-DEGRADATION-I-PWY	&beta;-alanine degradation I	2	2	1.00
PWY-7274	D-cycloserine biosynthesis	1	6	0.17
PWY-6562	norspermidine biosynthesis	5	6	0.83
PWY-7432	L-phenylalanine biosynthesis III (cytosolic, plants)	1	4	0.25
PWY66-378	androgen biosynthesis	1	6	0.17
PWY-7279	aerobic respiration II (cytochrome c) (yeast)	3	4	0.75
PWY-7205	CMP phosphorylation	2	2	1.00
PWY-5340	sulfate activation for sulfonation	1	2	0.50
PYRUVDEHYD-PWY	pyruvate decarboxylation to acetyl CoA	2	3	0.67
PWY-7440	dTDP-&beta;-L-4-epi-vancosamine biosynthesis	2	8	0.25
PWY66-387	fatty acid &alpha;-oxidation II	3	6	0.50
PWY-7282	4-amino-2-methyl-5-diphosphomethylpyrimidine biosynthesis (yeast)	3	9	0.33
PWY-7442	drosopterin and aurodrosopterin biosynthesis	2	7	0.29
PWY66-388	fatty acid &alpha;-oxidation III	1	7	0.14
PWY-6897	thiamine salvage II	2	3	0.67
PWY-7675	Kdo transfer to lipid IVA II	1	2	0.50
PWY-7206	pyrimidine deoxyribonucleotides dephosphorylation	1	3	0.33
PWY66-389	phytol degradation	1	4	0.25
PWY-7456	&beta;-(1,4)-mannan degradation	2	7	0.29
PWY-7288	fatty acid &beta;-oxidation (peroxisome, yeast)	2	5	0.40
GLUTSYN-PWY	L-glutamate biosynthesis I	1	1	1.00
PWY66-391	fatty acid &beta;-oxidation VI (peroxisome)	3	7	0.43
PWY-3341	L-proline biosynthesis III	3	5	0.60
PWY0-321	phenylacetate degradation I (aerobic)	2	9	0.22
PWY-6317	D-galactose degradation I (Leloir pathway)	3	5	0.60
PWY-6164	3-dehydroquinate biosynthesis I	2	2	1.00
METH-ACETATE-PWY	methanogenesis from acetate	1	6	0.17
SERDEG-PWY	L-serine degradation	1	3	0.33
PWY-4381	fatty acid biosynthesis initiation I	3	3	1.00
PROUT-PWY	L-proline degradation	2	3	0.67
PWY-3461	L-tyrosine biosynthesis II	1	3	0.33
PWY-5695	inosine 5'-phosphate degradation	4	4	1.00
PWY-5437	L-threonine degradation I	1	6	0.17
PWY-6019	pseudouridine degradation	1	2	0.50
PWY-5697	allantoin degradation to ureidoglycolate I (urea producing)	1	2	0.50
PWY-6167	flavin biosynthesis II (archaea)	4	10	0.40
PWY-6318	L-phenylalanine degradation IV (mammalian, via side chain)	1	9	0.11
FERMENTATION-PWY	mixed acid fermentation	9	16	0.56
PWY-6168	flavin biosynthesis III (fungi)	6	9	0.67
PWY-5083	NAD/NADH phosphorylation and dephosphorylation	3	6	0.50
PWY-5443	aminopropanol phosphate biosynthesis I	1	2	0.50
PWY-6174	mevalonate pathway II (archaea)	1	7	0.14
PWY-6322	phosphinothricin tripeptide biosynthesis	1	25	0.04
PWY-3462	L-phenylalanine biosynthesis II	1	3	0.33
PWY-5698	allantoin degradation to ureidoglycolate II (ammonia producing)	2	3	0.67
NONMEVIPP-PWY	methylerythritol phosphate pathway I	5	9	0.56
PWY-5458	methylglyoxal degradation V	1	3	0.33
PWY-7778	2-methylpropene degradation	1	8	0.12
PWY-6059	dimethyl sulfide degradation II (oxidation)	1	5	0.20
PWY-6328	L-lysine degradation X	1	6	0.17
PWY-5084	2-oxoglutarate decarboxylation to succinyl-CoA	3	3	1.00
PWY-7779	methyl tert-butyl ether degradation	1	10	0.10
PWY-4521	arsenite oxidation I (respiratory)	1	2	0.50
HOMOSERSYN-PWY	L-homoserine biosynthesis	3	3	1.00
NONOXIPENT-PWY	pentose phosphate pathway (non-oxidative branch)	4	5	0.80
PWY-5703	urea degradation I	1	2	0.50
LEUSYN-PWY	L-leucine biosynthesis	4	6	0.67
PWY-46	putrescine biosynthesis III	1	1	1.00
PWY-5468	lupanine biosynthesis	1	5	0.20
PWY-7790	UMP biosynthesis II	4	6	0.67
PWY-4621	arsenate detoxification II (glutaredoxin)	1	2	0.50
GLYCINE-SYN2-PWY	glycine biosynthesis II	1	1	1.00
PWY-5087	L-glutamate degradation VI (to pyruvate)	1	4	0.25
3-HYDROXYPHENYLACETATE-DEGRADATION-PWY	4-hydroxyphenylacetate degradation	2	8	0.25
PWY-6183	salicylate degradation I	1	1	1.00
PWY-7791	UMP biosynthesis III	4	6	0.67
PWY-6339	syringate degradation	1	9	0.11
PYRIDNUCSAL-PWY	NAD salvage pathway I	5	6	0.83
PWY-6084	3,5-dichlorocatechol degradation	1	8	0.12
GLYCLEAV-PWY	glycine cleavage	3	3	1.00
PWY0-43	conversion of succinate to propanoate	1	3	0.33
PWY-6344	L-ornithine degradation II (Stickland reaction)	2	9	0.22
PWY-6184	methylsalicylate degradation	2	2	1.00
HYDROXYPRODEG-PWY	trans-4-hydroxy-L-proline degradation I	1	5	0.20
PWY-6087	4-chlorocatechol degradation	1	5	0.20
PWY-3661	glycine betaine degradation I	3	7	0.43
PWY-6185	4-methylcatechol degradation (ortho cleavage)	1	7	0.14
PWY-7798	protein S-nitrosylation and denitrosylation	1	5	0.20
PWY-3661-1	glycine betaine degradation II (mammalian)	2	4	0.50
NPGLUCAT-PWY	Entner-Doudoroff pathway II (non-phosphorylative)	3	9	0.33
PWY-5097	L-lysine biosynthesis VI	6	7	0.86
PWY-6089	3-chlorocatechol degradation I (ortho)	1	5	0.20
PWY-6193	3-chlorocatechol degradation II (ortho)	1	5	0.20
SALVADEHYPOX-PWY	adenosine nucleotides degradation II	5	5	1.00
PYRIDNUCSYN-PWY	NAD biosynthesis I (from aspartate)	3	6	0.50
GLYCOCAT-PWY	glycogen degradation I	6	8	0.75
PWY-6093	4,5-dichlorocatechol degradation	1	8	0.12
PWY-7799	Arg/N-end rule pathway (eukaryotic)	5	14	0.36
PWY-3781	aerobic respiration I (cytochrome c)	3	4	0.75
PWY-5482	pyruvate fermentation to acetate II	1	3	0.33
PWY0-461	L-lysine degradation I	1	1	1.00
PWY-7800	Ac/N-end rule pathway	6	21	0.29
PWY-6094	3,4,6-trichlorocatechol degradation	1	10	0.10
HISDEG-PWY	L-histidine degradation I	3	4	0.75
COA-PWY	coenzyme A biosynthesis I (prokaryotic)	4	4	1.00
PWY-6107	chlorosalicylate degradation	2	7	0.29
PWY-5723	Rubisco shunt	6	10	0.60
PWY-3801	sucrose degradation II (sucrose synthase)	3	5	0.60
COA-PWY-1	superpathway of coenzyme A biosynthesis III (mammals)	1	1	1.00
PWY-5484	glycolysis II (from fructose 6-phosphate)	6	11	0.55
PWY-4702	phytate degradation I	2	14	0.14
PWY0-501	lipoate biosynthesis and incorporation I	2	2	1.00
HISHP-PWY	L-histidine degradation VI	3	8	0.38
PWY-7801	N-end rule pathway I (prokaryotic)	2	2	1.00
PWY-6375	desferrioxamine E biosynthesis	1	5	0.20
PWY-6113	superpathway of mycolate biosynthesis	3	4	0.75
ASPARTATESYN-PWY	L-aspartate biosynthesis	1	1	1.00
PWY-381	nitrate reduction II (assimilatory)	1	3	0.33
PWY-5101	L-isoleucine biosynthesis II	4	8	0.50
PWY-6376	desferrioxamine B biosynthesis	1	5	0.20
PWY-6116	mannosylfructose biosynthesis	2	2	1.00
PWY0-522	lipoate salvage I	2	2	1.00
PWY-5485	pyruvate fermentation to acetate IV	1	3	0.33
PWY-7805	aminomethylphosphonate degradation	4	8	0.50
PWY-5103	L-isoleucine biosynthesis III	3	7	0.43
SALVPURINE2-PWY	xanthine and xanthosine salvage	2	2	1.00
PWY-621	sucrose degradation III (sucrose invertase)	3	4	0.75
GLYCOGENSYNTH-PWY	glycogen biosynthesis I (from ADP-D-Glucose)	3	4	0.75
PWY-3821	D-galactose detoxification	1	3	0.33
PWY-5104	L-isoleucine biosynthesis IV	2	6	0.33
PWY-5726	deethylsimazine degradation	1	2	0.50
PWY-6120	L-tyrosine biosynthesis III	1	3	0.33
PWY-6381	bisucaberin biosynthesis	1	5	0.20
PWY0-541	cyclopropane fatty acid (CFA) biosynthesis	1	1	1.00
PWY-6215	4-chlorobenzoate degradation	2	4	0.50
PWY-5737	(5R)-carbapenem carboxylate biosynthesis	1	6	0.17
PWY-4942	sterculate biosynthesis	1	2	0.50
PWY-7806	glyphosate degradation II	1	1	1.00
PWY-5108	L-isoleucine biosynthesis V	1	3	0.33
PWY-6383	mono-trans, poly-cis decaprenyl phosphate biosynthesis	1	5	0.20
PWY-5109	fermentation to 2-methylbutanoate	3	6	0.50
PWY-3841	folate transformations II	6	11	0.55
SAM-PWY	S-adenosyl-L-methionine biosynthesis	1	1	1.00
PWY-5738	GDP-6-deoxy-D-talose biosynthesis	1	2	0.50
PWY-7807	glyphosate degradation III	3	7	0.43
PWY-6121	5-aminoimidazole ribonucleotide biosynthesis I	4	5	0.80
PWY-6386	UDP-N-acetylmuramoyl-pentapeptide biosynthesis II (lysine-containing)	6	8	0.75
PWY-6808	dTDP-D-forosamine biosynthesis	2	9	0.22
PWY0-661	PRPP biosynthesis II	1	3	0.33
PWY-4981	L-proline biosynthesis II (from arginine)	1	6	0.17
PWY-6387	UDP-N-acetylmuramoyl-pentapeptide biosynthesis I (meso-diaminopimelate containing)	8	8	1.00
PWY-4983	nitric oxide biosynthesis II (mammals)	2	3	0.67
PWY-3861	mannitol degradation II	1	4	0.25
SERSYN-PWY	L-serine biosynthesis	3	3	1.00
PWY-7814	dTDP-L-daunosamine biosynthesis	3	6	0.50
PWY-622	starch biosynthesis	5	10	0.50
PWY-5739	GDP-D-perosamine biosynthesis	1	2	0.50
PWY-3881	mannitol biosynthesis	1	3	0.33
PWY-6122	5-aminoimidazole ribonucleotide biosynthesis II	4	5	0.80
PWY-7817	type I lipoteichoic acid biosynthesis (S. aureus)	3	16	0.19
PWY-4984	urea cycle	3	5	0.60
PWY-7820	teichuronic acid biosynthesis (B. subtilis 168)	1	9	0.11
