#
#  gca_001429505_1_root483d1cyc 1.0 Genes link table generated on Mon Dec 3, 2018
#  All columns are separated by tab characters.
#  Columns are: 
#
#  GENE-ID  EG#  b#  y-name  CGSC-ID  UniProt-ID  GENE-NAME  
#
#   GENE-ID      = Pathway Tools unique identifier for the gene
#   UniProt-ID = Swiss-Prot identifier
#   GENE-NAME    = Pathway Tools gene name
#
#
ASE66_11495			
ASE66_11500			
ASE66_11505			
ASE66_11510		fumC	
ASE66_11515			
ASE66_11520			
ASE66_11525			
ASE66_11530			
ASE66_11535			
ASE66_11540			
ASE66_11545			
ASE66_11550			
ASE66_11555			
ASE66_11560			
ASE66_11565			
ASE66_11570			
ASE66_11575			
ASE66_11580			
ASE66_11585			
ASE66_11590			
ASE66_11595			
ASE66_11600			
ASE66_11605			
ASE66_11610			
ASE66_11615			
ASE66_11620			
ASE66_11625			
ASE66_11630			
ASE66_11635			
ASE66_11640			
ASE66_11645			
ASE66_11650			
ASE66_11655			
ASE66_11660			
ASE66_11665			
ASE66_11670			
ASE66_11675			
ASE66_11680			
ASE66_11685			
ASE66_11690			
ASE66_11695			
ASE66_11700			
ASE66_11705			
ASE66_11710			
ASE66_11715			
ASE66_11720			
ASE66_11725			
ASE66_11730			
ASE66_11735			
ASE66_11740			
ASE66_11745			
ASE66_11750			
ASE66_11755			
ASE66_11760			
ASE66_11770			
ASE66_11780			
ASE66_11785			
ASE66_11790			
ASE66_11795			
ASE66_11800			
ASE66_11805			
ASE66_11810			
ASE66_11815			
ASE66_11820			
ASE66_11825			
ASE66_11830			
ASE66_11835			
ASE66_11845			
ASE66_11850			
ASE66_11855			
ASE66_11860			
ASE66_11865			
ASE66_11870			
ASE66_11875			
ASE66_11880			
ASE66_11885			
ASE66_11890			
ASE66_11895			
ASE66_11900			
ASE66_11905			
ASE66_11910			
ASE66_11915			
ASE66_11920			
ASE66_11925			
ASE66_11930			
ASE66_11935			
ASE66_11940			
ASE66_11945			
ASE66_11950			
ASE66_11955			
ASE66_11960			
ASE66_11965			
ASE66_11970			
ASE66_11975			
ASE66_11980			
ASE66_11985			
ASE66_11990			
ASE66_11995			
ASE66_12005			
ASE66_12010			
ASE66_12015			
ASE66_12020			
ASE66_12025			
ASE66_12030			
ASE66_12035			
ASE66_12040			
ASE66_12045			
ASE66_12050			
ASE66_12055			
ASE66_12060			
ASE66_12065			
ASE66_12070			
ASE66_12075		flbT	
ASE66_12080			
ASE66_08540			
ASE66_08545			
ASE66_08550			
ASE66_08555			
ASE66_08560			
ASE66_08565			
ASE66_08570			
ASE66_08575			
ASE66_08580			
ASE66_08585			
ASE66_08590			
ASE66_08595			
ASE66_08600			
ASE66_08605			
ASE66_08610			
ASE66_08615			
ASE66_08620			
ASE66_08625			
ASE66_08630			
ASE66_08635			
ASE66_08640			
ASE66_08645			
ASE66_08650			
ASE66_08655			
ASE66_08660			
ASE66_08665			
ASE66_08670			
ASE66_08675			
ASE66_08680			
ASE66_08685			
ASE66_08690			
ASE66_08695			
ASE66_08700			
ASE66_08705			
ASE66_08710			
ASE66_08715			
ASE66_08720			
ASE66_08725			
ASE66_08730			
ASE66_08735			
ASE66_08740			
ASE66_08745			
ASE66_08750			
ASE66_08755			
ASE66_08760			
ASE66_08765			
ASE66_08770			
ASE66_08775			
ASE66_08780			
ASE66_08785			
ASE66_08795			
ASE66_08800			
ASE66_08805			
ASE66_08810			
ASE66_08815			
ASE66_08820			
ASE66_08825			
ASE66_08830			
ASE66_08835			
ASE66_08840			
ASE66_08845			
ASE66_08850			
ASE66_08855			
ASE66_08860			
ASE66_08865			
ASE66_08870			
ASE66_08875			
ASE66_08880			
ASE66_08885			
ASE66_08890			
ASE66_08895			
ASE66_08900			
ASE66_08905			
ASE66_08910			
ASE66_08915			
ASE66_08920			
ASE66_08925			
ASE66_08930			
ASE66_08940			
ASE66_08945			
ASE66_08950			
ASE66_08955			
ASE66_08960			
ASE66_08965			
ASE66_08970			
ASE66_08975			
ASE66_08980			
ASE66_08985			
ASE66_08990			
ASE66_08995			
ASE66_09000			
ASE66_09005			
ASE66_09010			
ASE66_09015			
ASE66_09020			
ASE66_09025			
ASE66_09035			
ASE66_09040			
ASE66_09045			
ASE66_09050			
ASE66_09055			
ASE66_09060			
ASE66_09065			
ASE66_09070			
ASE66_09080			
ASE66_09085			
ASE66_09090			
ASE66_09095			
ASE66_09100			
ASE66_09105			
ASE66_09110			
ASE66_09115			
ASE66_09120			
ASE66_09125			
ASE66_09130			
ASE66_09135			
ASE66_09140			
ASE66_09145			
ASE66_09150			
ASE66_09155			
ASE66_09160			
ASE66_09165			
ASE66_09170			
ASE66_09175			
ASE66_09180			
ASE66_09185			
ASE66_09190			
ASE66_09195			
ASE66_09200			
ASE66_09205			
ASE66_09210			
ASE66_09215			
ASE66_09220			
ASE66_09225			
ASE66_09230			
ASE66_09235			
ASE66_09240			
ASE66_09245			
ASE66_00060			
ASE66_00085			
ASE66_29470			
ASE66_29475			
ASE66_29480			
ASE66_29485			
ASE66_29490			
ASE66_29495			
ASE66_29500			
ASE66_29505			
ASE66_29510			
ASE66_29515			
ASE66_29520			
ASE66_29525			
ASE66_29530			
ASE66_29535			
ASE66_29540			
ASE66_29545			
ASE66_29550			
ASE66_29555			
ASE66_29560			
ASE66_29565			
ASE66_29570			
ASE66_29575			
ASE66_29580			
ASE66_29585			
ASE66_29590			
ASE66_29595			
ASE66_29600			
ASE66_29605			
ASE66_29610			
ASE66_29615			
ASE66_29620			
ASE66_29625			
ASE66_29630			
ASE66_29635			
ASE66_29640			
ASE66_29645			
ASE66_29650			
ASE66_29655			
ASE66_29660			
ASE66_29665			
ASE66_29670			
ASE66_29675			
ASE66_29680			
ASE66_29685			
ASE66_29690			
ASE66_29695			
ASE66_29700			
ASE66_29705			
ASE66_29710			
ASE66_29715			
ASE66_29720			
ASE66_29725			
ASE66_29730			
ASE66_29735			
ASE66_29740			
ASE66_29745			
ASE66_29750			
ASE66_29755			
ASE66_29760			
ASE66_29765			
ASE66_29770			
ASE66_29775			
ASE66_29780			
ASE66_29785			
ASE66_29790			
ASE66_29795			
ASE66_29800			
ASE66_29805			
ASE66_29810			
ASE66_29815			
ASE66_29820			
ASE66_29825			
ASE66_29830			
ASE66_29835			
ASE66_29840			
ASE66_29845			
ASE66_29850			
ASE66_29855			
ASE66_29860			
ASE66_29865			
ASE66_29870			
ASE66_29875			
ASE66_29880			
ASE66_29885			
ASE66_29890			
ASE66_29895			
ASE66_29900			
ASE66_29905			
ASE66_29910			
ASE66_29915			
ASE66_29920			
ASE66_29925			
ASE66_29935			
ASE66_29940			
ASE66_29945			
ASE66_29950			
ASE66_29955			
ASE66_29960			
ASE66_29965			
ASE66_29970			
ASE66_29975			
ASE66_29980			
ASE66_29985			
ASE66_29990			
ASE66_29995			
ASE66_30000			
ASE66_30005			
ASE66_30010			
ASE66_30015			
ASE66_30020			
ASE66_30025			
ASE66_30030			
ASE66_30035			
ASE66_30040			
ASE66_30045			
ASE66_30050			
ASE66_30055			
ASE66_30060			
ASE66_30065			
ASE66_30075			
ASE66_30080			
ASE66_30085			
ASE66_30090			
ASE66_30095			
ASE66_30100			
ASE66_30105			
ASE66_30110			
ASE66_30115			
ASE66_30120			
ASE66_30125			
ASE66_30130			
ASE66_30135			
ASE66_30140			
ASE66_30145			
ASE66_30150			
ASE66_30155			
ASE66_30160			
ASE66_30165			
ASE66_30170			
ASE66_30175			
ASE66_30180			
ASE66_30185			
ASE66_30190			
ASE66_00020			
ASE66_30195		pepN	
ASE66_30200			
ASE66_00025			
ASE66_30205			
ASE66_30210			
ASE66_30215			
ASE66_30220			
ASE66_00035			
ASE66_30225			
ASE66_30230			
ASE66_30235			
ASE66_30250		ureC	
ASE66_00050			
ASE66_30255			
ASE66_30260			
ASE66_30265			
ASE66_30270			
ASE66_30275			
ASE66_30280			
ASE66_00065			
ASE66_30285			
ASE66_30290			
ASE66_00070			
ASE66_30295			
ASE66_30300			
ASE66_00075			
ASE66_30305			
ASE66_30310			
ASE66_00080			
ASE66_30315			
ASE66_30320			
ASE66_30325			
ASE66_30330			
ASE66_30335			
ASE66_30340			
ASE66_00095			
ASE66_30345			
ASE66_30350			
ASE66_30355			
ASE66_30360			
ASE66_00105			
ASE66_30365			
ASE66_30370			
ASE66_00110			
ASE66_30375			
ASE66_30380			
ASE66_00115			
ASE66_30385			
ASE66_30390			
ASE66_00120			
ASE66_30395			
ASE66_30400			
ASE66_30405			
ASE66_00130			
ASE66_30410			
ASE66_30415			
ASE66_30420			
ASE66_30425			
ASE66_00140			
ASE66_30430			
ASE66_30435			
ASE66_30440			
ASE66_00145			
ASE66_30445			
ASE66_30450			
ASE66_30455			
ASE66_30460			
ASE66_00155			
ASE66_30465			
ASE66_00170			
ASE66_30470			
ASE66_30475			
ASE66_30480			
ASE66_00165		mscL	
ASE66_30485			
ASE66_30490			
ASE66_30495			
ASE66_30500			
ASE66_30505			
ASE66_30510			
ASE66_30515			
ASE66_30520			
ASE66_00185			
ASE66_30525			
ASE66_00370			
ASE66_30530			
ASE66_00190			
ASE66_30535			
ASE66_30540			
ASE66_00195			
ASE66_30545			
ASE66_30550			
ASE66_30555			
ASE66_00210			
ASE66_30560			
ASE66_00205			
ASE66_30565			
ASE66_30570		rocD	
ASE66_30575			
ASE66_30580			
ASE66_00215			
ASE66_30585			
ASE66_30590			
ASE66_00220			
ASE66_30595			
ASE66_30600			
ASE66_30605			
ASE66_30610			
ASE66_00230			
ASE66_30615			
ASE66_30620			
ASE66_00235			
ASE66_30625			
ASE66_30630			
ASE66_30635			
ASE66_30640			
ASE66_00245			
ASE66_30645			
ASE66_00260			
ASE66_30650			
ASE66_00250			
ASE66_30655			
ASE66_30660			
ASE66_00255			
ASE66_30665			
ASE66_30670			
ASE66_30675			
ASE66_30680			
ASE66_00265			
ASE66_30685			
ASE66_00275			
ASE66_30690			
ASE66_00270			
ASE66_30695			
ASE66_30700			
ASE66_30705			
ASE66_30710			
ASE66_30715			
ASE66_30720			
ASE66_00285			
ASE66_30725			
ASE66_30730			
ASE66_00290			
ASE66_30735			
ASE66_30740			
ASE66_00295			
ASE66_30745			
ASE66_30750			
ASE66_00300			
ASE66_30755			
ASE66_30760			
ASE66_00305			
ASE66_30765			
ASE66_30775			
ASE66_00330			
ASE66_30785		gabD	
ASE66_30790			
ASE66_30795			
ASE66_30800			
ASE66_30805			
ASE66_00325			
ASE66_30810			
ASE66_30815			
ASE66_30820			
ASE66_00340			
ASE66_30825			
ASE66_30830			
ASE66_30835			
ASE66_30840			
ASE66_00355			
ASE66_30845			
ASE66_00345			
ASE66_30850			
ASE66_00350			
ASE66_30855			
ASE66_30860			
ASE66_30865			
ASE66_30870			
ASE66_30875			
ASE66_00360			
ASE66_30880			
ASE66_30885			
ASE66_00365			
ASE66_30890			
ASE66_30895			
ASE66_00375			
ASE66_30900			
ASE66_30905			
ASE66_30910			
ASE66_30915			
ASE66_00380			
ASE66_30920			
ASE66_30925			
ASE66_30930			
ASE66_30935			
ASE66_00390			
ASE66_30940			
ASE66_30945			
ASE66_00395			
ASE66_30950			
ASE66_30955			
ASE66_30960			
ASE66_30965			
ASE66_30970			
ASE66_30975			
ASE66_00410			
ASE66_30980			
ASE66_30985			
ASE66_30990			
ASE66_30995			
ASE66_00420			
ASE66_31000			
ASE66_31005			
ASE66_00425			
ASE66_31010			
ASE66_31015			
ASE66_31020			
ASE66_31025			
ASE66_00435			
ASE66_31030			
ASE66_31035			
ASE66_31040			
ASE66_00615			
ASE66_31045			
ASE66_31050			
ASE66_31055			
ASE66_31065			
ASE66_31070			
ASE66_00480			
ASE66_31075			
ASE66_31080			
ASE66_31085			
ASE66_00465			
ASE66_31090			
ASE66_31095			
ASE66_31100			
ASE66_00470			
ASE66_31105			
ASE66_31110			
ASE66_31115			
ASE66_31120			
ASE66_31130			
ASE66_00680			
ASE66_31135			
ASE66_00485			
ASE66_31140			
ASE66_31145			
ASE66_31150			
ASE66_00500			
ASE66_31155			
ASE66_31160			
ASE66_31165			
ASE66_31170			
ASE66_31175			
ASE66_00505			
ASE66_31180			
ASE66_00515			
ASE66_00530			
ASE66_00575			
ASE66_00540			
ASE66_00545			
ASE66_00550			
ASE66_00555			
ASE66_00560			
ASE66_00565			
ASE66_00590			
ASE66_00585			
ASE66_00580			
ASE66_00610			
ASE66_00595			
ASE66_00600			
ASE66_00605		cpdB	
ASE66_00650			
ASE66_00620			
ASE66_29235			
ASE66_00625			
ASE66_29240			
ASE66_29245			
ASE66_00635			
ASE66_29250			
ASE66_29255			
ASE66_00670			
ASE66_29260			
ASE66_29265			
ASE66_29270			
ASE66_29275			
ASE66_29280			
ASE66_29285		dnaE2	
ASE66_29290			
ASE66_29295			
ASE66_00655			
ASE66_29300			
ASE66_00660			
ASE66_29305			
ASE66_29310			
ASE66_29315			
ASE66_29320			
ASE66_29325			
ASE66_29330			
ASE66_29335			
ASE66_00675			
ASE66_29340			
ASE66_29350			
ASE66_29355			
ASE66_29360			
ASE66_29365			
ASE66_00690			
ASE66_29370			
ASE66_29375			
ASE66_29380			
ASE66_00700			
ASE66_29385			
ASE66_29390			
ASE66_29395			
ASE66_00705			
ASE66_29400			
ASE66_29405			
ASE66_00710			
ASE66_29415			
ASE66_00715			
ASE66_29420			
ASE66_29425			
ASE66_00720			
ASE66_29430			
ASE66_29435			
ASE66_00725			
ASE66_29440			
ASE66_29445			
ASE66_29450			
ASE66_29455			
ASE66_29460			
ASE66_29465			
ASE66_00740			
ASE66_01105			
ASE66_00750			
ASE66_01110			
ASE66_00760			
ASE66_00765			
ASE66_00785			
ASE66_00790			
ASE66_00795			
ASE66_29120		fusA	
ASE66_29125			
ASE66_29130			
ASE66_29135			
ASE66_29140			
ASE66_00810			
ASE66_29145			
ASE66_29150			
ASE66_29155			
ASE66_00820			
ASE66_29160			
ASE66_29165			
ASE66_29170			
ASE66_00825			
ASE66_29175			
ASE66_29180			
ASE66_00830			
ASE66_29185			
ASE66_29190			
ASE66_00835			
ASE66_29195			
ASE66_29200			
ASE66_00840			
ASE66_29205			
ASE66_29210			
ASE66_00845			
ASE66_29220			
ASE66_29225			
ASE66_00850			
ASE66_29230			
ASE66_00855			
ASE66_00860			
ASE66_00880			
ASE66_00870			
ASE66_00875			
ASE66_00885			
ASE66_00905			
ASE66_00915			
ASE66_29000			
ASE66_29005			
ASE66_29010			
ASE66_29015			
ASE66_29020			
ASE66_00925			
ASE66_29025			
ASE66_29030			
ASE66_29035			
ASE66_29040			
ASE66_00935			
ASE66_29045			
ASE66_29050			
ASE66_00945			
ASE66_29055			
ASE66_29060			
ASE66_00950			
ASE66_29065			
ASE66_29070			
ASE66_29075			
ASE66_29080			
ASE66_29085			
ASE66_29090			
ASE66_00960			
ASE66_29095			
ASE66_29100			
ASE66_00965			
ASE66_29105			
ASE66_29110			
ASE66_00970			
ASE66_00980			
ASE66_28985			
ASE66_28990			
ASE66_00990			
ASE66_00995			
ASE66_01005			
ASE66_01010			
ASE66_01015			
ASE66_01230			
ASE66_01030			
ASE66_01040			
ASE66_01045			
ASE66_01055			
ASE66_01060			
ASE66_01085			
ASE66_01090			
ASE66_01100			
ASE66_01115			
ASE66_01195			
ASE66_01165			
ASE66_01120			
ASE66_01125			
ASE66_01135			
ASE66_01180			
ASE66_01150			
ASE66_01155			
ASE66_01160			
ASE66_01175			
ASE66_01170			
ASE66_17755			
ASE66_18170			
ASE66_18210			
ASE66_18220			
ASE66_18400			
ASE66_01200			
ASE66_19055			
ASE66_01205			
ASE66_19065			
ASE66_01210			
ASE66_19905			
ASE66_01215			
ASE66_19935			
ASE66_01220			
ASE66_01235			
ASE66_19940			
ASE66_01225			
ASE66_20850			
ASE66_01245			
ASE66_21070			
ASE66_21240			
ASE66_01240			
ASE66_22705			
ASE66_12650			
ASE66_01255			
ASE66_13095			
ASE66_13100			
ASE66_01260			
ASE66_13890			
ASE66_01265			
ASE66_14245			
ASE66_01285			
ASE66_01315			
ASE66_14460			
ASE66_01275			
ASE66_14920			
ASE66_01280			
ASE66_01320			
ASE66_16175			
ASE66_12235			
ASE66_12240			
ASE66_01295			
ASE66_12325			
ASE66_01300			
ASE66_10780			
ASE66_12090			
ASE66_01310			
ASE66_11765			
ASE66_30770			
ASE66_31060			
ASE66_01330			
ASE66_31125			
ASE66_29215			
ASE66_01335			
ASE66_06405			
ASE66_07400			
ASE66_07750			
ASE66_01365			
ASE66_07950			
ASE66_28955			
ASE66_28960			
ASE66_28965			
ASE66_01370			
ASE66_28970			
ASE66_28975			
ASE66_01380			
ASE66_28980			
ASE66_01385			
ASE66_28900			
ASE66_26410			
ASE66_01400			
ASE66_01405			
ASE66_02730			
ASE66_03120			
ASE66_01415			
ASE66_03760			
ASE66_01440			
ASE66_05030			
ASE66_01430			
ASE66_01445			
ASE66_01450			
ASE66_01455			
ASE66_01460			
ASE66_01465			
ASE66_01475			
ASE66_01480			
ASE66_01490			
ASE66_01495			
ASE66_01500			
ASE66_01505			
ASE66_01510			
ASE66_01520			
ASE66_01525			
ASE66_01565			
ASE66_01600			
ASE66_01535			
ASE66_01580			
ASE66_01550			
ASE66_01570			
ASE66_01575			
ASE66_01585			
ASE66_01590			
ASE66_01610			
ASE66_01615			
ASE66_01630			
ASE66_01635			
ASE66_01640			
ASE66_01645			
ASE66_01650			
ASE66_07715			
ASE66_01665		gcvT	
ASE66_26070			
ASE66_01675			
ASE66_01680			
ASE66_27680			
ASE66_01685			
ASE66_01690			
ASE66_02645			
ASE66_01695			
ASE66_01715			
ASE66_01700			
ASE66_00315			
ASE66_01705			
ASE66_01710			
ASE66_01720			
ASE66_01725			
ASE66_01730			
ASE66_01670			
ASE66_01735			
ASE66_01740			
ASE66_01745			
ASE66_04685			
ASE66_01750			
ASE66_08135			
ASE66_01760			
ASE66_02180			
ASE66_06460			
ASE66_01770			
ASE66_01810			
ASE66_01775			
ASE66_01780			
ASE66_06800			
ASE66_01785			
ASE66_01790		ispH	
ASE66_01795			
ASE66_28825			
ASE66_00030			
ASE66_01800			
ASE66_01805			
ASE66_01830			
ASE66_02865			
ASE66_01825			
ASE66_02755			
ASE66_01815			
ASE66_01820			
ASE66_03025			
ASE66_01835			
ASE66_01840			
ASE66_01850			
ASE66_01855			
ASE66_01860			
ASE66_01865			
ASE66_01875			
ASE66_27735			
ASE66_28565			
ASE66_01880			
ASE66_01885			
ASE66_27480			
ASE66_01890			
ASE66_01895			
ASE66_02150			
ASE66_01870			
ASE66_01900			
ASE66_01905			
ASE66_01910			
ASE66_01915			
ASE66_01920			
ASE66_01925			
ASE66_04430			
ASE66_26885			
ASE66_01935			
ASE66_01990			
ASE66_08330			
ASE66_01945			
ASE66_27495			
ASE66_01950			
ASE66_01955			
ASE66_01960			
ASE66_01965			
ASE66_25775			
ASE66_01970			
ASE66_07070			
ASE66_01975			
ASE66_01980			
ASE66_01985			
ASE66_01995			
ASE66_02000			
ASE66_02010			
ASE66_02015			
ASE66_02510			
ASE66_27695			
ASE66_02020			
ASE66_02025			
ASE66_02030			
ASE66_02035			
ASE66_02040			
ASE66_02055			
ASE66_02050			
ASE66_02060			
ASE66_02085			
ASE66_02065			
ASE66_02070			
ASE66_02075			
ASE66_02080			
ASE66_02090			
ASE66_26850			
ASE66_02095			
ASE66_02100			
ASE66_02105			
ASE66_02110			
ASE66_02115			
ASE66_02120			
ASE66_02125			
ASE66_02130			
ASE66_02135			
ASE66_02475			
ASE66_02140			
ASE66_02145			
ASE66_02160			
ASE66_02155			
ASE66_27465			
ASE66_02165			
ASE66_02170			
ASE66_00280			
ASE66_02175			
ASE66_26035			
ASE66_01340			
ASE66_02185			
ASE66_02190			
ASE66_02195			
ASE66_02200			
ASE66_02205			
ASE66_02210			
ASE66_02215			
ASE66_00535			
ASE66_02220			
ASE66_08480			
ASE66_02225			
ASE66_02230			
ASE66_25815			
ASE66_02235			
ASE66_02250			
ASE66_00320			
ASE66_02240			
ASE66_02245			
ASE66_02255			
ASE66_02260			
ASE66_02265			
ASE66_01145			
ASE66_02270			
ASE66_02275			
ASE66_02280			
ASE66_02285			
ASE66_02290			
ASE66_07885			
ASE66_02295			
ASE66_02300			
ASE66_02305			
ASE66_02315			
ASE66_08495			
ASE66_02320			
ASE66_02325			
ASE66_02335			
ASE66_02330			
ASE66_02415			
ASE66_02340			
ASE66_02345			
ASE66_02350			
ASE66_02355			
ASE66_02370			
ASE66_02360			
ASE66_02365			
ASE66_02380			
ASE66_02375			
ASE66_02385			
ASE66_06775			
ASE66_02390			
ASE66_02395			
ASE66_02400			
ASE66_02405			
ASE66_00940			
ASE66_02410			
ASE66_23055			
ASE66_23060			
ASE66_02420			
ASE66_23065			
ASE66_23070			
ASE66_23075			
ASE66_02425			
ASE66_23080			
ASE66_02430			
ASE66_23085			
ASE66_23090			
ASE66_02435			
ASE66_23095			
ASE66_26505			
ASE66_23100			
ASE66_23105			
ASE66_28860			
ASE66_02440			
ASE66_02445			
ASE66_23115			
ASE66_23120			
ASE66_02450			
ASE66_23125			
ASE66_01065			
ASE66_23130			
ASE66_02455			
ASE66_23135			
ASE66_25665			
ASE66_23140			
ASE66_02460			
ASE66_23145			
ASE66_23150			
ASE66_23155			
ASE66_02465			
ASE66_23160			
ASE66_02470			
ASE66_23165			
ASE66_23170			
ASE66_23175			
ASE66_28710			
ASE66_23180			
ASE66_02490			
ASE66_23185			
ASE66_02480			
ASE66_23190			
ASE66_02485			
ASE66_23195			
ASE66_02310			
ASE66_23205			
ASE66_02495			
ASE66_23210			
ASE66_23215			
ASE66_23220			
ASE66_23225			
ASE66_02500			
ASE66_23230			
ASE66_23235			
ASE66_02505			
ASE66_23240			
ASE66_23245			
ASE66_02570			
ASE66_23250			
ASE66_01325		rplT	
ASE66_23255			
ASE66_23260			
ASE66_02515			
ASE66_02520			
ASE66_23265			
ASE66_02045			
ASE66_23275			
ASE66_23280			
ASE66_23285			
ASE66_02530			
ASE66_23290			
ASE66_23295			
ASE66_02535			
ASE66_23300			
ASE66_23305			
ASE66_23310			
ASE66_02540			
ASE66_23315			
ASE66_02545			
ASE66_23320			
ASE66_23325			
ASE66_02555			
ASE66_02550			
ASE66_23330			
ASE66_23335			
ASE66_23340			
ASE66_23345			
ASE66_23350			
ASE66_02560			
ASE66_23355			
ASE66_02565			
ASE66_23360			
ASE66_23365			
ASE66_23370			
ASE66_02575			
ASE66_23375			
ASE66_23380			
ASE66_02580			
ASE66_23385			
ASE66_01605			
ASE66_23390			
ASE66_02585			
ASE66_23400			
ASE66_23405			
ASE66_02590			
ASE66_23410			
ASE66_23415			
ASE66_23420			
ASE66_02595			
ASE66_23425			
ASE66_23430			
ASE66_02600			
ASE66_27215			
ASE66_23435			
ASE66_23440			
ASE66_02605			
ASE66_23445			
ASE66_02610			
ASE66_23450			
ASE66_02615			
ASE66_23455			
ASE66_23460			
ASE66_23465			
ASE66_02620			
ASE66_23470			
ASE66_23475			
ASE66_02625			
ASE66_23480			
ASE66_23485			
ASE66_23490			
ASE66_02630			
ASE66_23495			
ASE66_02635			
ASE66_07035			
ASE66_23500			
ASE66_02640			
ASE66_23505			
ASE66_23510			
ASE66_03900			
ASE66_23515			
ASE66_23520			
ASE66_02650			
ASE66_23525			
ASE66_01765			
ASE66_23530			
ASE66_23535			
ASE66_23540			
ASE66_02655			
ASE66_23545			
ASE66_02660			
ASE66_23550			
ASE66_02665			
ASE66_23555			
ASE66_26390			
ASE66_23560			
ASE66_02670			
ASE66_23565			
ASE66_26825			
ASE66_23570			
ASE66_23575			
ASE66_02675		nirA	
ASE66_23580			
ASE66_02680			
ASE66_23585			
ASE66_28120			
ASE66_23590			
ASE66_23595			
ASE66_27010			
ASE66_23605			
ASE66_23610			
ASE66_02695			
ASE66_23615			
ASE66_23620			
ASE66_23625			
ASE66_02700			
ASE66_23630			
ASE66_23635		livG	
ASE66_23640			
ASE66_02705			
ASE66_23650			
ASE66_23645			
ASE66_06815			
ASE66_02710			
ASE66_23655			
ASE66_02715			
ASE66_23660			
ASE66_23665			
ASE66_02720			
ASE66_23670			
ASE66_02725			
ASE66_23675			
ASE66_23680			
ASE66_23685			
ASE66_02735			
ASE66_23690			
ASE66_02740			
ASE66_23695		groEL	
ASE66_28840			
ASE66_23700			
ASE66_23705			
ASE66_02745			
ASE66_23710			
ASE66_25735			
ASE66_02750		metX	
ASE66_23725			
ASE66_04570			
ASE66_23730			
ASE66_02760			
ASE66_23735			
ASE66_26565			
ASE66_23740			
ASE66_03030			
ASE66_23745			
ASE66_23750			
ASE66_02765			
ASE66_06065			
ASE66_23755			
ASE66_03020			
ASE66_23760			
ASE66_06070			
ASE66_23765			
ASE66_02970			
ASE66_02775			
ASE66_06075			
ASE66_23775			
ASE66_02780			
ASE66_23780			
ASE66_06080			
ASE66_23785			
ASE66_02965			
ASE66_02785			
ASE66_06085			
ASE66_23795			
ASE66_23800			
ASE66_02790			
ASE66_06090			
ASE66_23805			
ASE66_23810			
ASE66_02795			
ASE66_06095			
ASE66_02800			
ASE66_06100			
ASE66_23820			
ASE66_23825			
ASE66_02805			
ASE66_02950			
ASE66_02815			
ASE66_06105			
ASE66_23835			
ASE66_02810			
ASE66_23840			
ASE66_06110			
ASE66_23845			
ASE66_02860			
ASE66_02840			
ASE66_06115			
ASE66_23855			
ASE66_02830			
ASE66_02820			
ASE66_06120			
ASE66_23865			
ASE66_02825			
ASE66_23870			
ASE66_06125			
ASE66_23875			
ASE66_01660			
ASE66_23880			
ASE66_06130			
ASE66_23885			
ASE66_23890			
ASE66_02835			
ASE66_06135			
ASE66_23895			
ASE66_02850			
ASE66_23900			
ASE66_06140			
ASE66_23905			
ASE66_02845			
ASE66_23910			
ASE66_06145			
ASE66_23915			
ASE66_26270			
ASE66_23920			
ASE66_06150			
ASE66_23925			
ASE66_02855			
ASE66_23930			
ASE66_06155			
ASE66_23935			
ASE66_06160			
ASE66_23940			
ASE66_23945			
ASE66_03540			
ASE66_06165			
ASE66_23950			
ASE66_23955			
ASE66_02870			
ASE66_02920			
ASE66_23960			
ASE66_06170			
ASE66_23965			
ASE66_02875			
ASE66_23970			
ASE66_02910			
ASE66_23975			
ASE66_02880			
ASE66_23980			
ASE66_06180			
ASE66_23985			
ASE66_23990			
ASE66_02885			
ASE66_06185			
ASE66_23995			
ASE66_02905			
ASE66_02890			
ASE66_06190			
ASE66_24005			
ASE66_24010			
ASE66_02895			
ASE66_02900			
ASE66_24015			
ASE66_28720			
ASE66_24020			
ASE66_06200			
ASE66_24025			
ASE66_25495			
ASE66_24030			
ASE66_06205			
ASE66_24035			
ASE66_02915			
ASE66_24040			
ASE66_06210			
ASE66_24045			
ASE66_02940			
ASE66_24050			
ASE66_06215			
ASE66_24055			
ASE66_02935			
ASE66_24060			
ASE66_06220			
ASE66_24065			
ASE66_24070			
ASE66_02925			
ASE66_06225			
ASE66_02930			
ASE66_07505			
ASE66_24080			
ASE66_06230			
ASE66_24085			
ASE66_28580			
ASE66_24090			
ASE66_06235			
ASE66_24095			
ASE66_27210			
ASE66_24100			
ASE66_06240			
ASE66_24105			
ASE66_02945			
ASE66_24110			
ASE66_06245			
ASE66_24115			
ASE66_02960			
ASE66_24120			
ASE66_06250			
ASE66_24125			
ASE66_24130			
ASE66_02955			
ASE66_06255			
ASE66_24135			
ASE66_00895			
ASE66_24140			
ASE66_06260			
ASE66_24145			
ASE66_26600			
ASE66_24150			
ASE66_06265			
ASE66_24155			
ASE66_06270			
ASE66_24160			
ASE66_24165			
ASE66_02975			
ASE66_02985			
ASE66_24170			
ASE66_06275			
ASE66_24175			
ASE66_02980			
ASE66_24180			
ASE66_06280			
ASE66_24185			
ASE66_02990			
ASE66_24190			
ASE66_06285			
ASE66_24195			
ASE66_02995			
ASE66_24200			
ASE66_06290			
ASE66_24205			
ASE66_06295			
ASE66_24210			
ASE66_24215			
ASE66_03000			
ASE66_06300			
ASE66_24220			
ASE66_24225			
ASE66_03005			
ASE66_06310			
ASE66_24230			
ASE66_06305			
ASE66_24235			
ASE66_24240			
ASE66_03010			
ASE66_24245			
ASE66_03015			
ASE66_06320			
ASE66_24250			
ASE66_06315			
ASE66_24255			
ASE66_25695			
ASE66_24260			
ASE66_24265			
ASE66_03050			
ASE66_06325			
ASE66_24270			
ASE66_24275			
ASE66_24280			
ASE66_25985			
ASE66_24285			
ASE66_06330			
ASE66_03035			
ASE66_03040			
ASE66_24290			
ASE66_06335			
ASE66_24295			
ASE66_03100			
ASE66_24300			
ASE66_06340			
ASE66_03250			
ASE66_24310			
ASE66_03045			
ASE66_06345			
ASE66_24315			
ASE66_03070			
ASE66_24320			
ASE66_06350			
ASE66_24325			
ASE66_24330			
ASE66_03055			
ASE66_06355			
ASE66_24335			
ASE66_24340			
ASE66_03060			
ASE66_06360			
ASE66_24345			
ASE66_24350			
ASE66_03065			
ASE66_06365			
ASE66_24355			
ASE66_03075			
ASE66_24360			
ASE66_06370			
ASE66_24365			
ASE66_03095			
ASE66_24370			
ASE66_06375			
ASE66_24375			
ASE66_24380			
ASE66_03080			
ASE66_06380			
ASE66_24385			
ASE66_03085			
ASE66_24390			
ASE66_06385			
ASE66_24395			
ASE66_03090			
ASE66_24400			
ASE66_06390			
ASE66_24405			
ASE66_02005		ileS	
ASE66_24410			
ASE66_06395			
ASE66_24415			
ASE66_06400			
ASE66_24420			
ASE66_24425			
ASE66_03105			
ASE66_03110			
ASE66_24430			
ASE66_06410			
ASE66_24435			
ASE66_03115			
ASE66_24440			
ASE66_06415			
ASE66_24445			
ASE66_24450			
ASE66_06420			
ASE66_24455			
ASE66_24460			
ASE66_03125			
ASE66_06425			
ASE66_24465			
ASE66_03210			
ASE66_03130			
ASE66_06430			
ASE66_24475			
ASE66_03135			
ASE66_24480			
ASE66_06435			
ASE66_03140			
ASE66_03195			
ASE66_24490			
ASE66_06440			
ASE66_24495			
ASE66_24500			
ASE66_03145			
ASE66_06445			
ASE66_24505			
ASE66_03150			
ASE66_24510			
ASE66_06450			
ASE66_24515			
ASE66_03155			
ASE66_24520			
ASE66_06455			
ASE66_03190			
ASE66_03160		prpD	
ASE66_24530			
ASE66_03165			
ASE66_24535			
ASE66_03175			
ASE66_24540			
ASE66_06465			
ASE66_24545			
ASE66_24550			
ASE66_03170			
ASE66_06470			
ASE66_24555			
ASE66_03185			
ASE66_24560			
ASE66_06475			
ASE66_24565			
ASE66_03180			
ASE66_24570			
ASE66_06480			
ASE66_24575			
ASE66_01095			
ASE66_24580			
ASE66_06485			
ASE66_24585			
ASE66_06495			
ASE66_24590			
ASE66_06490			
ASE66_24595			
ASE66_07390			
ASE66_24600			
ASE66_24605			
ASE66_24610			
ASE66_08010			
ASE66_03200			
ASE66_06500			
ASE66_24615			
ASE66_03205			
ASE66_24620			
ASE66_06505			
ASE66_24625			
ASE66_03220			
ASE66_24630			
ASE66_06510			
ASE66_24635			
ASE66_24640			
ASE66_03215			
ASE66_06515			
ASE66_24645			
ASE66_06520			
ASE66_24650			
ASE66_24655			
ASE66_03225			
ASE66_03230		minC	
ASE66_24660			
ASE66_06525			
ASE66_24665			
ASE66_03255			
ASE66_06530			
ASE66_03245			
ASE66_03235			
ASE66_24680			
ASE66_06535			
ASE66_24685			
ASE66_03240			
ASE66_24690			
ASE66_06540			
ASE66_24695			
ASE66_06565			
ASE66_24700			
ASE66_06545			
ASE66_24705			
ASE66_26795			
ASE66_24710			
ASE66_06550			
ASE66_24715			
ASE66_07565			
ASE66_24720			
ASE66_06555			
ASE66_24725			
ASE66_24730			
ASE66_03260			
ASE66_06560			
ASE66_27500			
ASE66_24740			
ASE66_03265			
ASE66_24745			
ASE66_03270			
ASE66_25730			
ASE66_24750			
ASE66_06570			
ASE66_03275			
ASE66_06580			
ASE66_28845			
ASE66_06575			
ASE66_24765			
ASE66_24770			
ASE66_03280			
ASE66_24775			
ASE66_03285			
ASE66_03290			
ASE66_24780			
ASE66_06585			
ASE66_24785			
ASE66_24790			
ASE66_06590			
ASE66_24795			
ASE66_24800			
ASE66_03295			
ASE66_06595			
ASE66_24805			
ASE66_03300			
ASE66_24810			
ASE66_06600			
ASE66_03305			
ASE66_03350			
ASE66_24820			
ASE66_06605			
ASE66_24825			
ASE66_03310			
ASE66_24830			
ASE66_06610			
ASE66_24835			
ASE66_24840			
ASE66_03315			
ASE66_06615			
ASE66_03320			
ASE66_06620			
ASE66_24850			
ASE66_24855			
ASE66_24860			
ASE66_24865			
ASE66_03325			
ASE66_06625			
ASE66_03330			
ASE66_03335			
ASE66_24870			
ASE66_06630			
ASE66_24875			
ASE66_03345			
ASE66_24880			
ASE66_06635			
ASE66_24885			
ASE66_24890			
ASE66_03340			
ASE66_06640			
ASE66_24895			
ASE66_02525			
ASE66_24900			
ASE66_06645			
ASE66_24905			
ASE66_03355			
ASE66_24910			
ASE66_06650			
ASE66_24915			
ASE66_24920			
ASE66_24925			
ASE66_06655			
ASE66_03360			
ASE66_24930			
ASE66_06660			
ASE66_24935			
ASE66_24940			
ASE66_03365			
ASE66_03370			
ASE66_24945			
ASE66_06670			
ASE66_24950			
ASE66_24955			
ASE66_03375			
ASE66_03420			
ASE66_24960			
ASE66_06675			
ASE66_24965			
ASE66_03380			
ASE66_24970			
ASE66_06680			
ASE66_24975			
ASE66_24980			
ASE66_03385			
ASE66_03390			
ASE66_24985			
ASE66_03405			
ASE66_03395			
ASE66_06690			
ASE66_24995			
ASE66_08210			
ASE66_25000			
ASE66_06695			
ASE66_25005			
ASE66_03400			
ASE66_25010			
ASE66_06700			
ASE66_25015			
ASE66_25020			
ASE66_25025			
ASE66_06705			
ASE66_03410			
ASE66_06710			
ASE66_25030			
ASE66_25035			
ASE66_03415			
ASE66_07600			
ASE66_25040			
ASE66_06715			
ASE66_25045			
ASE66_25055			
ASE66_25050			
ASE66_06720			
ASE66_03425			
ASE66_25065			
ASE66_25060			
ASE66_06725			
ASE66_03430			
ASE66_25070			
ASE66_25075			
ASE66_06730			
ASE66_03435			
ASE66_03440			
ASE66_25080			
ASE66_06735			
ASE66_25085			
ASE66_03445			
ASE66_25090			
ASE66_06740			
ASE66_25095			
ASE66_03450			
ASE66_25100			
ASE66_06745			
ASE66_25105			
ASE66_03455			
ASE66_25110			
ASE66_06750			
ASE66_25115			
ASE66_03460			
ASE66_25120			
ASE66_06755			
ASE66_25125			
ASE66_25130			
ASE66_25135			
ASE66_06760			
ASE66_03465			
ASE66_03470			
ASE66_06765			
ASE66_25145			
ASE66_03475			
ASE66_25150			
ASE66_06770			
ASE66_25155			
ASE66_25160			
ASE66_03480			
ASE66_06780			
ASE66_03485			
ASE66_06785			
ASE66_03490			
ASE66_06790			
ASE66_03530			
ASE66_03495			
ASE66_06795			
ASE66_03500			
ASE66_03505			
ASE66_06805			
ASE66_27085			
ASE66_03510			
ASE66_06810			
ASE66_03515			
ASE66_07350			
ASE66_03520			
ASE66_06820			
ASE66_03525			
ASE66_06825			
ASE66_03595			
ASE66_06830			
ASE66_03535			
ASE66_06835			
ASE66_06840			
ASE66_06985			
ASE66_03545			
ASE66_06845			
ASE66_03550			
ASE66_06850			
ASE66_03555			
ASE66_06855			
ASE66_03560			
ASE66_06860			
ASE66_03565			
ASE66_06865			
ASE66_03570			
ASE66_27265			
ASE66_06870			
ASE66_03575			
ASE66_06875			
ASE66_03580			
ASE66_06880			
ASE66_03585			
ASE66_06885			
ASE66_01080			
ASE66_03590			
ASE66_06890			
ASE66_00225			
ASE66_06895			
ASE66_03600			
ASE66_06900			
ASE66_03605			
ASE66_06905			
ASE66_03610			
ASE66_06910			
ASE66_03615			
ASE66_06915			
ASE66_27725			
ASE66_03620			
ASE66_06920			
ASE66_03625			
ASE66_06925			
ASE66_03630			
ASE66_06930			
ASE66_03635			
ASE66_06935			
ASE66_03640			
ASE66_06940			
ASE66_03645			
ASE66_06945			
ASE66_03650			
ASE66_06950			
ASE66_03655			
ASE66_06955			
ASE66_03660		dnaK	
ASE66_06960			
ASE66_03665			
ASE66_07425			
ASE66_06965			
ASE66_03670			
ASE66_06970			
ASE66_03675			
ASE66_06975			
ASE66_03680			
ASE66_06980			
ASE66_01930			
ASE66_03685			
ASE66_28705			
ASE66_03690			
ASE66_07795			
ASE66_06990			
ASE66_03695			
ASE66_06995			
ASE66_03700			
ASE66_07000			
ASE66_03705			
ASE66_08500			
ASE66_07005			
ASE66_03710			
ASE66_07010			
ASE66_03715			
ASE66_28255			
ASE66_03750			
ASE66_07015			
ASE66_03720			
ASE66_00400			
ASE66_07020			
ASE66_03725			
ASE66_07025			
ASE66_03730			
ASE66_07030			
ASE66_03735			
ASE66_03740			
ASE66_07040			
ASE66_26840			
ASE66_03745			
ASE66_07045			
ASE66_26185			
ASE66_07050			
ASE66_03755			
ASE66_07055			
ASE66_03765			
ASE66_07060			
ASE66_03770			
ASE66_07065			
ASE66_03775			
ASE66_25175			
ASE66_03780			
ASE66_25170			
ASE66_07075			
ASE66_03785			
ASE66_07080			
ASE66_03790			
ASE66_07085			
ASE66_03795			
ASE66_07090			
ASE66_03800			
ASE66_07095			
ASE66_03805			
ASE66_07100			
ASE66_03810			
ASE66_07105			
ASE66_03815			
ASE66_07110			
ASE66_03820			
ASE66_07115			
ASE66_03825			
ASE66_07120			
ASE66_03830		dppD	
ASE66_25490			
ASE66_07125			
ASE66_03835			
ASE66_07130			
ASE66_03840			
ASE66_07135			
ASE66_01130			
ASE66_07140		paaB	
ASE66_03850			
ASE66_26110			
ASE66_07145			
ASE66_03855			
ASE66_07150			
ASE66_03860			
ASE66_01620			
ASE66_07155			
ASE66_26580			
ASE66_03865			
ASE66_07160			
ASE66_26230			
ASE66_03870			
ASE66_07165			
ASE66_03875			
ASE66_07170			
ASE66_03880			
ASE66_07175			
ASE66_03885			
ASE66_07180			
ASE66_03890			
ASE66_07185			
ASE66_03895			
ASE66_07190			
ASE66_28235			
ASE66_07195			
ASE66_00780			
ASE66_07200			
ASE66_03910			
ASE66_07205			
ASE66_03915			
ASE66_07210			
ASE66_03920			
ASE66_08085			
ASE66_07215		livG	
ASE66_03925			
ASE66_07220			
ASE66_03930			
ASE66_07225			
ASE66_07230			
ASE66_03940			
ASE66_07235			
ASE66_03945			
ASE66_07240			
ASE66_03950			
ASE66_07245			
ASE66_03955			
ASE66_07250			
ASE66_03960			
ASE66_07255			
ASE66_03965			
ASE66_07260			
ASE66_03970			
ASE66_07265			
ASE66_03975		eutB	
ASE66_03980			
ASE66_07275			
ASE66_03985			
ASE66_07280			
ASE66_03990			
ASE66_07285			
ASE66_03995			
ASE66_07290			
ASE66_04000			
ASE66_07295			
ASE66_04005			
ASE66_07300			
ASE66_04010			
ASE66_07305			
ASE66_04015			
ASE66_07310			
ASE66_04020			
ASE66_07315			
ASE66_25370			
ASE66_04025			
ASE66_07320			
ASE66_04030			
ASE66_07325			
ASE66_04035			
ASE66_07330			
ASE66_04040			
ASE66_07335			
ASE66_01545			
ASE66_04045			
ASE66_07340			
ASE66_04050			
ASE66_07345			
ASE66_04055			
ASE66_04060			
ASE66_07355			
ASE66_04065			
ASE66_07360			
ASE66_04070			
ASE66_07365			
ASE66_00200			
ASE66_04075			
ASE66_07370			
ASE66_04080			
ASE66_07375			
ASE66_04085			
ASE66_07380			
ASE66_04090			
ASE66_28115			
ASE66_07385			
ASE66_04095			
ASE66_04100			
ASE66_07395			
ASE66_04105			
ASE66_04110			
ASE66_07410			
ASE66_04115			
ASE66_07415			
ASE66_04120			
ASE66_07420			
ASE66_04125			
ASE66_04130			
ASE66_07430			
ASE66_04135			
ASE66_07435			
ASE66_28030			
ASE66_04140			
ASE66_07440			
ASE66_25740			
ASE66_04145			
ASE66_07445		proA	
ASE66_04150			
ASE66_07450			
ASE66_04155			
ASE66_07455			
ASE66_01655			
ASE66_04160			
ASE66_07460			
ASE66_04165			
ASE66_04170			
ASE66_07470			
ASE66_04175			
ASE66_07475			
ASE66_07840			
ASE66_04180			
ASE66_07480			
ASE66_04185			
ASE66_07485			
ASE66_04190			
ASE66_07490			
ASE66_04195			
ASE66_07495			
ASE66_04200			
ASE66_07500			
ASE66_04205			
ASE66_04210			
ASE66_07510			
ASE66_04215			
ASE66_07515			
ASE66_04220			
ASE66_07520			
ASE66_04225			
ASE66_07525			
ASE66_04230			
ASE66_07530			
ASE66_04235			
ASE66_07535		ispG	
ASE66_04240			
ASE66_07540		trkD	
ASE66_04245			
ASE66_07545			
ASE66_04250			
ASE66_28195			
ASE66_04255			
ASE66_07555			
ASE66_04260			
ASE66_07560			
ASE66_04265			
ASE66_04270			
ASE66_07570			
ASE66_04275			
ASE66_07575			
ASE66_04280			
ASE66_07580			
ASE66_04285			
ASE66_07585			
ASE66_00440			
ASE66_04290			
ASE66_07590			
ASE66_04295			
ASE66_07595			
ASE66_04300			
ASE66_04305			
ASE66_00770			
ASE66_07605			
ASE66_04310			
ASE66_07610			
ASE66_04315			
ASE66_07615			
ASE66_04320			
ASE66_07620			
ASE66_04325			
ASE66_07625			
ASE66_04330			
ASE66_07630			
ASE66_04335			
ASE66_07635			
ASE66_04340			
ASE66_07640			
ASE66_04345			
ASE66_07645			
ASE66_04350			
ASE66_07650			
ASE66_04355			
ASE66_07655			
ASE66_04360			
ASE66_07660			
ASE66_04365			
ASE66_07665			
ASE66_04370			
ASE66_07670			
ASE66_04375			
ASE66_07675			
ASE66_04380			
ASE66_07680			
ASE66_04385			
ASE66_07685			
ASE66_04390			
ASE66_07690			
ASE66_04395			
ASE66_07695			
ASE66_04400			
ASE66_07700			
ASE66_04405			
ASE66_07705		gltD	
ASE66_04410			
ASE66_07710			
ASE66_04415			
ASE66_27610			
ASE66_04420			
ASE66_07720			
ASE66_04425			
ASE66_07725			
ASE66_07730			
ASE66_04435			
ASE66_07735			
ASE66_04440			
ASE66_07740			
ASE66_04445			
ASE66_07745			
ASE66_05000			
ASE66_04450			
ASE66_07755			
ASE66_04455			
ASE66_27945			
ASE66_07760			
ASE66_04460			
ASE66_07765			
ASE66_04465			
ASE66_07770			
ASE66_04470			
ASE66_07775			
ASE66_04475			
ASE66_07780			
ASE66_04480			
ASE66_07785			
ASE66_04485			
ASE66_07790			
ASE66_04490			
ASE66_04495			
ASE66_07800			
ASE66_04500			
ASE66_01625			
ASE66_07805			
ASE66_04505			
ASE66_07810			
ASE66_04510			
ASE66_07815			
ASE66_04515			
ASE66_07820			
ASE66_04520			
ASE66_25725			
ASE66_07825			
ASE66_04525			
ASE66_07830			
ASE66_04530			
ASE66_07835			
ASE66_04535			
ASE66_04540			
ASE66_07845			
ASE66_04545			
ASE66_07850			
ASE66_04550			
ASE66_07855			
ASE66_04555			
ASE66_07860			
ASE66_04745			
ASE66_04560			
ASE66_07865			
ASE66_04565			
ASE66_07870			
ASE66_07875			
ASE66_04575			
ASE66_07880			
ASE66_04580			
ASE66_00240			
ASE66_04585			
ASE66_07890			
ASE66_04590			
ASE66_07895			
ASE66_04595			
ASE66_07900			
ASE66_25700			
ASE66_07905			
ASE66_04605			
ASE66_28320			
ASE66_07910			
ASE66_04610			
ASE66_07915			
ASE66_04615			
ASE66_07920			
ASE66_04620			
ASE66_07925			
ASE66_04625			
ASE66_07930			
ASE66_05035			
ASE66_04630			
ASE66_07935			
ASE66_04635			
ASE66_07940			
ASE66_04640			
ASE66_07945			
ASE66_00630			
ASE66_04645			
ASE66_07955			
ASE66_04650			
ASE66_07960			
ASE66_04655			
ASE66_07965			
ASE66_04660			
ASE66_07970			
ASE66_04665			
ASE66_07975			
ASE66_04910			
ASE66_04670			
ASE66_07980			
ASE66_04675			
ASE66_07985			
ASE66_04680			
ASE66_07990			
ASE66_04805			
ASE66_07995			
ASE66_04690			
ASE66_08000			
ASE66_04695			
ASE66_08005			
ASE66_04700			
ASE66_04705			
ASE66_08015			
ASE66_04710			
ASE66_08020			
ASE66_04715			
ASE66_08025			
ASE66_04720			
ASE66_08030			
ASE66_04725			
ASE66_08035			
ASE66_04730			
ASE66_08040			
ASE66_04735			
ASE66_08045			
ASE66_04740			
ASE66_08050			
ASE66_04800			
ASE66_08055			
ASE66_00890			
ASE66_04750			
ASE66_08060			
ASE66_04755			
ASE66_08065			
ASE66_04760			
ASE66_08070			
ASE66_04765			
ASE66_08075			
ASE66_04770			
ASE66_08080			
ASE66_04775			
ASE66_28285			
ASE66_04780			
ASE66_08090			
ASE66_04785			
ASE66_08095			
ASE66_04790			
ASE66_08100			
ASE66_04795			
ASE66_08105			
ASE66_04815			
ASE66_08110			
ASE66_08115			
ASE66_04810			
ASE66_08120			
ASE66_04835			
ASE66_08125			
ASE66_04820			
ASE66_08130			
ASE66_04825			
ASE66_04830			
ASE66_08140			
ASE66_08145			
ASE66_04840			
ASE66_08150			
ASE66_04850			
ASE66_04845			
ASE66_08155			
ASE66_08160			
ASE66_04855			
ASE66_08165			
ASE66_04860			
ASE66_08170			
ASE66_04865			
ASE66_08175			
ASE66_04870			
ASE66_26245			
ASE66_08180			
ASE66_04875			
ASE66_08185			
ASE66_04880			
ASE66_08190			
ASE66_04885			
ASE66_08195			
ASE66_04890			
ASE66_08200			
ASE66_04895			
ASE66_08205			
ASE66_04900			
ASE66_04905			
ASE66_08215			
ASE66_08220			
ASE66_04915			
ASE66_08225			
ASE66_04920			
ASE66_08230			
ASE66_04925			
ASE66_08235			
ASE66_04930			
ASE66_08240			
ASE66_04935			
ASE66_08245			
ASE66_04940			
ASE66_08250			
ASE66_04945			
ASE66_08255			
ASE66_04950			
ASE66_08260			
ASE66_04955			
ASE66_28165			
ASE66_08265			
ASE66_04960			
ASE66_08270			
ASE66_04965			
ASE66_08275			
ASE66_04970			
ASE66_08280			
ASE66_04975			
ASE66_08285			
ASE66_04980			
ASE66_08290			
ASE66_04985			
ASE66_08295			
ASE66_04990			
ASE66_08300			
ASE66_05075			
ASE66_04995			
ASE66_08305			
ASE66_05190			
ASE66_08310			
ASE66_05005			
ASE66_08315			
ASE66_05010			
ASE66_08320			
ASE66_25330			
ASE66_05015			
ASE66_08325			
ASE66_05020			
ASE66_05025			
ASE66_08335			
ASE66_08340			
ASE66_05040			
ASE66_08345			
ASE66_05045			
ASE66_08350			
ASE66_26115			
ASE66_05050			
ASE66_08355			
ASE66_05070			
ASE66_05055			
ASE66_08360			
ASE66_05060			
ASE66_08365			
ASE66_05065			
ASE66_08370			
ASE66_28750			
ASE66_08375			
ASE66_08380			
ASE66_05080			
ASE66_08385			
ASE66_25680			
ASE66_05085			
ASE66_08390			
ASE66_05090			
ASE66_08395			
ASE66_00645			
ASE66_05095			
ASE66_08400			
ASE66_05100			
ASE66_28365			
ASE66_08405			
ASE66_05105			
ASE66_08410			
ASE66_05110			
ASE66_08415		glnQ	
ASE66_05115			
ASE66_08420			
ASE66_05120			
ASE66_08425			
ASE66_05125			
ASE66_08430			
ASE66_05130			
ASE66_08435			
ASE66_05135			
ASE66_08440			
ASE66_05140			
ASE66_08445			
ASE66_05145			
ASE66_08450			
ASE66_05185			
ASE66_05150			
ASE66_08455			
ASE66_05155			
ASE66_08460			
ASE66_05160			
ASE66_08465			
ASE66_05165			
ASE66_08470			
ASE66_05180			
ASE66_05170			
ASE66_08475			
ASE66_05175			
ASE66_08485			
ASE66_05230			
ASE66_08490			
ASE66_05195			
ASE66_00180			
ASE66_05200			
ASE66_08505			
ASE66_05205			
ASE66_05210			
ASE66_08515			
ASE66_00865			
ASE66_05215			
ASE66_08520			
ASE66_00755			
ASE66_05220			
ASE66_05225			
ASE66_01025			
ASE66_05235			
ASE66_05240			
ASE66_25480			
ASE66_05245			
ASE66_05250			
ASE66_05255			
ASE66_05260			
ASE66_05265			
ASE66_05270			
ASE66_26980			
ASE66_05275			
ASE66_28690			
ASE66_05280			
ASE66_05285			
ASE66_05290			
ASE66_00640			
ASE66_05295			
ASE66_28950			
ASE66_27960			
ASE66_05300			
ASE66_05305			
ASE66_05310			
ASE66_05315			
ASE66_05320			
ASE66_05325			
ASE66_00475			
ASE66_27380			
ASE66_05330			
ASE66_05335			
ASE66_05340			
ASE66_05345			
ASE66_05350			
ASE66_05355			
ASE66_05360			
ASE66_05365			
ASE66_28675			
ASE66_05370			
ASE66_05375			
ASE66_05385			
ASE66_05390			
ASE66_26550			
ASE66_05395			
ASE66_05400			
ASE66_05405			
ASE66_27205			
ASE66_05410			
ASE66_01540			
ASE66_05415		phnK	
ASE66_05420			
ASE66_05425			
ASE66_05430			
ASE66_05435			
ASE66_05440			
ASE66_05445			
ASE66_05450			
ASE66_05455			
ASE66_05460			
ASE66_05465			
ASE66_05470			
ASE66_05475			
ASE66_26165			
ASE66_05480			
ASE66_05485			
ASE66_05490			
ASE66_05495			
ASE66_05500			
ASE66_05505			
ASE66_05510			
ASE66_05515			
ASE66_05520			
ASE66_01375			
ASE66_05525			
ASE66_05530			
ASE66_05535			
ASE66_27260			
ASE66_05540			
ASE66_26860			
ASE66_05545			
ASE66_05550			
ASE66_26750			
ASE66_05555			
ASE66_05560			
ASE66_27820			
ASE66_05565			
ASE66_05570			
ASE66_05575			
ASE66_28400			
ASE66_05580			
ASE66_26710			
ASE66_05585			
ASE66_05590			
ASE66_05595			
ASE66_05600			
ASE66_27155			
ASE66_00310			
ASE66_05605			
ASE66_05610			
ASE66_26365			
ASE66_05615			
ASE66_05620			
ASE66_05625			
ASE66_05630			
ASE66_00045			
ASE66_05635			
ASE66_05640			
ASE66_05645			
ASE66_05650			
ASE66_05655			
ASE66_05660			
ASE66_05665			
ASE66_05670			
ASE66_05675			
ASE66_05680			
ASE66_05685			
ASE66_05690			
ASE66_05695			
ASE66_05700			
ASE66_05705		hemH	
ASE66_05710			
ASE66_01050			
ASE66_05715			
ASE66_00685			
ASE66_05720			
ASE66_25215			
ASE66_05725			
ASE66_05730			
ASE66_05735			
ASE66_05740			
ASE66_05745			
ASE66_05750			
ASE66_26120			
ASE66_05755			
ASE66_05760			
ASE66_05765			
ASE66_05770		purH	
ASE66_00920			
ASE66_05775			
ASE66_05780			
ASE66_05785			
ASE66_05790			
ASE66_05795			
ASE66_05800			
ASE66_05805			
ASE66_05810			
ASE66_05815			
ASE66_05820			
ASE66_05825			
ASE66_05830			
ASE66_28925			
ASE66_05835			
ASE66_05840			
ASE66_05845			
ASE66_05850			
ASE66_01250			
ASE66_05860			
ASE66_05865			
ASE66_05870			
ASE66_05875			
ASE66_05880			
ASE66_05885			
ASE66_05890			
ASE66_05895			
ASE66_05900			
ASE66_05905			
ASE66_26720			
ASE66_05910			
ASE66_05915			
ASE66_05920			
ASE66_05925			
ASE66_28200			
ASE66_05930			
ASE66_05935			
ASE66_05940			
ASE66_25210			
ASE66_05945			
ASE66_05950			
ASE66_05955			
ASE66_05960			
ASE66_05965			
ASE66_05970			
ASE66_05975			
ASE66_05980			
ASE66_05985			
ASE66_05990			
ASE66_05995			
ASE66_06000			
ASE66_06005			
ASE66_06010			
ASE66_01290			
ASE66_06015			
ASE66_06020			
ASE66_06025			
ASE66_01530			
ASE66_06030			
ASE66_06035			
ASE66_28315			
ASE66_06040			
ASE66_06045			
ASE66_06050			
ASE66_28770			
ASE66_27575			
ASE66_01410			
ASE66_25500			
ASE66_26845			
ASE66_00525			
ASE66_28100			
ASE66_28105			
ASE66_28110			
ASE66_28125			
ASE66_28130			
ASE66_28135			
ASE66_28140			
ASE66_28145			
ASE66_28150			
ASE66_28155			
ASE66_28160			
ASE66_28170			
ASE66_28175			
ASE66_28180			
ASE66_28185			
ASE66_27835			
ASE66_28190			
ASE66_28205			
ASE66_28210			
ASE66_28215			
ASE66_28220			
ASE66_28225			
ASE66_28230			
ASE66_28240			
ASE66_28245			
ASE66_28250			
ASE66_27300			
ASE66_28260			
ASE66_28265			
ASE66_27220			
ASE66_28270			
ASE66_28275			
ASE66_28280			
ASE66_28630			
ASE66_01595			
ASE66_28290			
ASE66_25265		fliM	
ASE66_28295			
ASE66_28300			
ASE66_28305			
ASE66_28310			
ASE66_28325			
ASE66_28330			
ASE66_28335			
ASE66_28340			
ASE66_28345			
ASE66_28350			
ASE66_28355			
ASE66_28360			
ASE66_28370			
ASE66_28375			
ASE66_16825			
ASE66_28380			
ASE66_16830			
ASE66_16835			
ASE66_28385			
ASE66_16840			
ASE66_16845			
ASE66_28390			
ASE66_16850			
ASE66_16855			
ASE66_28395			
ASE66_16860			
ASE66_16865			
ASE66_16870			
ASE66_16875			
ASE66_16880			
ASE66_16885			
ASE66_28410			
ASE66_16890		purU	
ASE66_16895			
ASE66_28415			
ASE66_16900			
ASE66_16905			
ASE66_28420			
ASE66_16910			
ASE66_16915			
ASE66_28425			
ASE66_16920			
ASE66_16925			
ASE66_28430			
ASE66_16930			
ASE66_16935			
ASE66_28435			
ASE66_16940			
ASE66_26705			
ASE66_16945			
ASE66_28440			
ASE66_16950			
ASE66_16955			
ASE66_28445			
ASE66_16960			
ASE66_16965			
ASE66_28450			
ASE66_16970			
ASE66_16975			
ASE66_28455			
ASE66_16980			
ASE66_28535			
ASE66_16985			
ASE66_28460		hrcA	
ASE66_16990			
ASE66_27950			
ASE66_16995			
ASE66_28465			
ASE66_17000			
ASE66_17005			
ASE66_28470			
ASE66_17010			
ASE66_17015			
ASE66_28475			
ASE66_17020			
ASE66_17025			
ASE66_28480			
ASE66_17030			
ASE66_17035			
ASE66_28485			
ASE66_17040			
ASE66_17045			
ASE66_28490			
ASE66_17050			
ASE66_26255			
ASE66_28495			
ASE66_17060			
ASE66_17065			
ASE66_28500			
ASE66_17070			
ASE66_17075			
ASE66_28505			
ASE66_17080			
ASE66_17085			
ASE66_28510			
ASE66_17090			
ASE66_17095			
ASE66_28515			
ASE66_17100			
ASE66_17105			
ASE66_28520			
ASE66_17110			
ASE66_26925			
ASE66_17115			
ASE66_28525			
ASE66_17120			
ASE66_17125			
ASE66_28530			
ASE66_17130			
ASE66_17135			
ASE66_17140			
ASE66_17145			
ASE66_28540			
ASE66_17150			
ASE66_17155			
ASE66_28545			
ASE66_17160			
ASE66_00150			
ASE66_17165			
ASE66_17170			
ASE66_17175			
ASE66_28555			
ASE66_17180			
ASE66_17185			
ASE66_28560			
ASE66_17190			
ASE66_17195			
ASE66_17200			
ASE66_17205			
ASE66_28570			
ASE66_17210			
ASE66_17215			
ASE66_28575			
ASE66_17220			
ASE66_17225			
ASE66_17230			
ASE66_17235			
ASE66_28585			
ASE66_17240			
ASE66_17245			
ASE66_28590			
ASE66_17250			
ASE66_17255			
ASE66_28595			
ASE66_17260			
ASE66_27295			
ASE66_17265			
ASE66_28600			
ASE66_17270			
ASE66_17275			
ASE66_28605			
ASE66_17280			
ASE66_27855			
ASE66_17285			
ASE66_28610			
ASE66_17290			
ASE66_17295			
ASE66_28615			
ASE66_17300			
ASE66_17305			
ASE66_28620			
ASE66_17310			
ASE66_17315			
ASE66_28625			
ASE66_17320			
ASE66_17325			
ASE66_17330			
ASE66_17335			
ASE66_28635			
ASE66_17340			
ASE66_17345			
ASE66_28640			
ASE66_17350			
ASE66_17355			
ASE66_28645			
ASE66_17360			
ASE66_27880			
ASE66_17365			
ASE66_28650			
ASE66_17370			
ASE66_26235			
ASE66_17375			
ASE66_28655			
ASE66_17380			
ASE66_17385			
ASE66_28660			
ASE66_17390			
ASE66_17395			
ASE66_28665			
ASE66_17400			
ASE66_27650			
ASE66_17405			
ASE66_28670			
ASE66_17410			
ASE66_17415			
ASE66_17420			
ASE66_17425			
ASE66_28680			
ASE66_17430			
ASE66_17435			
ASE66_28685			
ASE66_17440			
ASE66_17445			
ASE66_17450			
ASE66_17455			
ASE66_28695			
ASE66_17460			
ASE66_17465			
ASE66_28700			
ASE66_17470			
ASE66_17475			
ASE66_17480			
ASE66_00015			
ASE66_17485			
ASE66_17490			
ASE66_17495			
ASE66_28715			
ASE66_17500			
ASE66_17505			
ASE66_26315			
ASE66_17510			
ASE66_17515			
ASE66_28725			
ASE66_17520			
ASE66_27670			
ASE66_17525			
ASE66_28730			
ASE66_17530			
ASE66_17535			
ASE66_28735			
ASE66_17540			
ASE66_17545			
ASE66_28740			
ASE66_17550			
ASE66_17555			
ASE66_28745			
ASE66_17560			
ASE66_17565			
ASE66_17570			
ASE66_17575			
ASE66_28755			
ASE66_17580			
ASE66_17585			
ASE66_28760			
ASE66_17590			
ASE66_17595		nhaA	
ASE66_28765			
ASE66_17600			
ASE66_17605			
ASE66_17610		glyA	
ASE66_17615			
ASE66_28775			
ASE66_17620			
ASE66_01140			
ASE66_17625			
ASE66_28780			
ASE66_17630			
ASE66_17635			
ASE66_28785			
ASE66_17640			
ASE66_17645			
ASE66_28790			
ASE66_17650			
ASE66_26030			
ASE66_17655			
ASE66_28795			
ASE66_17660		hppA	
ASE66_17665			
ASE66_28800			
ASE66_17670			
ASE66_28805			
ASE66_17680			
ASE66_17685			
ASE66_28810			
ASE66_17690			
ASE66_01020			
ASE66_17695			
ASE66_28815			
ASE66_17700			
ASE66_17705			
ASE66_28820			
ASE66_17710			
ASE66_17715			
ASE66_17720			
ASE66_28830			
ASE66_17730			
ASE66_17735			
ASE66_28835			
ASE66_17740			
ASE66_17745			
ASE66_17750			
ASE66_17760			
ASE66_17765			
ASE66_28850			
ASE66_17775			
ASE66_17780			
ASE66_17785			
ASE66_26195			
ASE66_17790			
ASE66_17795			
ASE66_17800			
ASE66_28865			
ASE66_17805			
ASE66_17810			
ASE66_28870			
ASE66_17815			
ASE66_27870			
ASE66_17820			
ASE66_28875		hslO	
ASE66_17825			
ASE66_17830			
ASE66_28880			
ASE66_17835			
ASE66_17840			
ASE66_28885			
ASE66_17845			
ASE66_17850			
ASE66_28890			
ASE66_17855			
ASE66_27785			
ASE66_17860			
ASE66_28895			
ASE66_17865			
ASE66_17870			
ASE66_28905			
ASE66_17875			
ASE66_17880			
ASE66_28910			
ASE66_17885			
ASE66_17890			
ASE66_28915			
ASE66_17895			
ASE66_17900			
ASE66_28920			
ASE66_17905			
ASE66_17910			
ASE66_17915			
ASE66_17920			
ASE66_28930			
ASE66_17925			
ASE66_17930			
ASE66_17935			
ASE66_17940			
ASE66_17945			
ASE66_17950			
ASE66_17955			
ASE66_17960			
ASE66_17965			
ASE66_17970			
ASE66_00510			
ASE66_17975			
ASE66_25610			
ASE66_17980			
ASE66_25835			
ASE66_17985			
ASE66_17990			
ASE66_17995			
ASE66_18000			
ASE66_18005			
ASE66_18010			
ASE66_18015			
ASE66_25945			
ASE66_18020			
ASE66_18025			
ASE66_18030			
ASE66_18035			
ASE66_18040			
ASE66_18045			
ASE66_18050			
ASE66_18055			
ASE66_18060			
ASE66_01555			
ASE66_18065			
ASE66_18070			
ASE66_18075			
ASE66_18080			
ASE66_18085			
ASE66_18090			
ASE66_18095			
ASE66_18100			
ASE66_18105			
ASE66_18110			
ASE66_18115			
ASE66_18120			
ASE66_18125			
ASE66_18130			
ASE66_18135			
ASE66_18140			
ASE66_18145			
ASE66_18150			
ASE66_18155			
ASE66_18160			
ASE66_18165			
ASE66_26280			
ASE66_18175			
ASE66_18180			
ASE66_27790			
ASE66_18185			
ASE66_18190			
ASE66_18195			
ASE66_18200			
ASE66_26935			
ASE66_18205			
ASE66_18215			
ASE66_27340			
ASE66_18225			
ASE66_18230			
ASE66_18235			
ASE66_18240			
ASE66_18245			
ASE66_18250			
ASE66_18255			
ASE66_18260			
ASE66_01435			
ASE66_18265			
ASE66_18270			
ASE66_25950			
ASE66_18275			
ASE66_18280			
ASE66_26320			
ASE66_18285			
ASE66_18290			
ASE66_18295			
ASE66_18300			
ASE66_27145			
ASE66_18305			
ASE66_18310			
ASE66_18315			
ASE66_18320			
ASE66_18325			
ASE66_18330			
ASE66_18335		glpX	
ASE66_18340			
ASE66_18345			
ASE66_01355			
ASE66_18350			
ASE66_18355			
ASE66_18360			
ASE66_18365			
ASE66_18370			
ASE66_18375			
ASE66_18380			
ASE66_18385			
ASE66_27895			
ASE66_18395			
ASE66_27900			
ASE66_18405			
ASE66_18410			
ASE66_27905			
ASE66_18415			
ASE66_18420			
ASE66_27910			
ASE66_18425			
ASE66_18430			
ASE66_27915			
ASE66_18435			
ASE66_18440			
ASE66_18445			
ASE66_18450			
ASE66_27925			
ASE66_18455			
ASE66_18460			
ASE66_27930			
ASE66_18465			
ASE66_18470			
ASE66_27935			
ASE66_18475			
ASE66_18480			
ASE66_27940			
ASE66_18485			
ASE66_25295			
ASE66_18490			
ASE66_18495			
ASE66_18500			
ASE66_26940			
ASE66_18505			
ASE66_18510			
ASE66_27955			
ASE66_18520			
ASE66_18525			
ASE66_26285			
ASE66_27965			
ASE66_18535			
ASE66_27635			
ASE66_18540			
ASE66_27970			
ASE66_18545			
ASE66_18550			
ASE66_27975			
ASE66_18555			
ASE66_18560			
ASE66_27980			
ASE66_18565			
ASE66_18570			
ASE66_27985			
ASE66_18575			
ASE66_18580			
ASE66_27990			
ASE66_18585			
ASE66_18590			
ASE66_27995			
ASE66_18595			
ASE66_18600			
ASE66_28000			
ASE66_18605			
ASE66_18610			
ASE66_28005			
ASE66_18620			
ASE66_18625			
ASE66_27065			
ASE66_18630			
ASE66_28015			
ASE66_18635			
ASE66_18640			
ASE66_28020			
ASE66_18645			
ASE66_18650			
ASE66_28025			
ASE66_18655			
ASE66_18660			
ASE66_18665			
ASE66_18670			
ASE66_28035			
ASE66_18675			
ASE66_18680			
ASE66_28040			
ASE66_18685			
ASE66_25650			
ASE66_18690			
ASE66_28045			
ASE66_18695			
ASE66_18700			
ASE66_28050			
ASE66_18705			
ASE66_28055			
ASE66_18715			
ASE66_18720			
ASE66_28060			
ASE66_18725			
ASE66_18730			
ASE66_18735			
ASE66_18740			
ASE66_28070			
ASE66_18745			
ASE66_27590			
ASE66_18750			
ASE66_28075			
ASE66_18755			
ASE66_00160			
ASE66_18760			
ASE66_28080			
ASE66_18765			
ASE66_18770			
ASE66_28085			
ASE66_18775			
ASE66_18780			
ASE66_28090			
ASE66_18785			
ASE66_18790			
ASE66_18795			
ASE66_01470			
ASE66_18800			
ASE66_18805			
ASE66_18810			
ASE66_18815			
ASE66_01395			
ASE66_18820			
ASE66_18825			
ASE66_18830			
ASE66_18845		sseA	
ASE66_01485			
ASE66_18850			
ASE66_18855			
ASE66_27605			
ASE66_18860			
ASE66_18865			
ASE66_18870			
ASE66_18875			
ASE66_18880			
ASE66_18885		gatB	
ASE66_18890			
ASE66_18895			
ASE66_18900			
ASE66_18905			
ASE66_18910			
ASE66_18915			
ASE66_18920		ndk	
ASE66_18925			
ASE66_18930			
ASE66_18935			
ASE66_18940			
ASE66_18945			
ASE66_18950			
ASE66_18955			
ASE66_18960			
ASE66_18965			
ASE66_18970			
ASE66_18975			
ASE66_18980			
ASE66_18985			
ASE66_27765			
ASE66_18990			
ASE66_18995			
ASE66_19000			
ASE66_19005			
ASE66_19010			
ASE66_19015			
ASE66_19020			
ASE66_19025			
ASE66_19030			
ASE66_19035			
ASE66_19040			
ASE66_19045			
ASE66_19050			
ASE66_19060			
ASE66_19070			
ASE66_19080			
ASE66_19085			
ASE66_19090			
ASE66_19095			
ASE66_19100			
ASE66_19105			
ASE66_19110			
ASE66_19115			
ASE66_19120			
ASE66_19125			
ASE66_19130			
ASE66_19135			
ASE66_19140			
ASE66_19145			
ASE66_19150		guaA	
ASE66_19155			
ASE66_19160			
ASE66_19165			
ASE66_19170			
ASE66_19175			
ASE66_19180			
ASE66_19185		glnQ	
ASE66_19190			
ASE66_19195			
ASE66_27660			
ASE66_19200			
ASE66_19205			
ASE66_19210			
ASE66_19215			
ASE66_19220			
ASE66_19225			
ASE66_19230			
ASE66_19235			
ASE66_19240			
ASE66_19245			
ASE66_19250			
ASE66_19255			
ASE66_19260			
ASE66_19265			
ASE66_19270			
ASE66_19275			
ASE66_19280			
ASE66_19285			
ASE66_19290			
ASE66_19295			
ASE66_19300			
ASE66_19305			
ASE66_19310			
ASE66_19315			
ASE66_19320			
ASE66_19325			
ASE66_19330			
ASE66_19335			
ASE66_19340			
ASE66_19345			
ASE66_19350			
ASE66_19355			
ASE66_19360			
ASE66_19365			
ASE66_19370			
ASE66_19375			
ASE66_19380			
ASE66_19385			
ASE66_19390			
ASE66_19395			
ASE66_19400			
ASE66_19405			
ASE66_00430			
ASE66_19410			
ASE66_19415			
ASE66_19420			
ASE66_19425			
ASE66_19430			
ASE66_19435			
ASE66_19440			
ASE66_19445			
ASE66_19450			
ASE66_19455			
ASE66_19460			
ASE66_19465			
ASE66_19470			
ASE66_19475			
ASE66_19480		dppD	
ASE66_19485			
ASE66_19490			
ASE66_19495			
ASE66_19500			
ASE66_19505			
ASE66_26690			
ASE66_19510			
ASE66_19515			
ASE66_19520			
ASE66_19525			
ASE66_19530		gabD	
ASE66_19540			
ASE66_19545			
ASE66_00570			
ASE66_19550			
ASE66_27585			
ASE66_19555			
ASE66_19560			
ASE66_19565			
ASE66_19570			
ASE66_19575			
ASE66_01075			
ASE66_19580			
ASE66_19585			
ASE66_19590			
ASE66_19595			
ASE66_19600			
ASE66_19605			
ASE66_19610			
ASE66_19615			
ASE66_19620			
ASE66_25960			
ASE66_19630			
ASE66_19635			
ASE66_19640			
ASE66_19645			
ASE66_19650			
ASE66_19655			
ASE66_19660			
ASE66_19665			
ASE66_19670			
ASE66_19675			
ASE66_19680			
ASE66_19685			
ASE66_19690			
ASE66_19695			
ASE66_19700			
ASE66_19705			
ASE66_19710			
ASE66_19715			
ASE66_19720			
ASE66_19725			
ASE66_25380			
ASE66_19730			
ASE66_19735			
ASE66_19740			
ASE66_19745			
ASE66_01420			
ASE66_19750			
ASE66_19755		cpsB	
ASE66_19760			
ASE66_19765			
ASE66_19770			
ASE66_19775			
ASE66_26675			
ASE66_19780			
ASE66_19785			
ASE66_25635			
ASE66_19795			
ASE66_19800			
ASE66_19805			
ASE66_19810			
ASE66_19815			
ASE66_19820			
ASE66_19825			
ASE66_19830			
ASE66_19835			
ASE66_19840			
ASE66_19845			
ASE66_01190			
ASE66_19850			
ASE66_19860			
ASE66_19865			
ASE66_19870		eno	
ASE66_19875			
ASE66_19880			
ASE66_19885			
ASE66_19890			
ASE66_19895			
ASE66_19900			
ASE66_19910			
ASE66_01560			
ASE66_19915		clpP	
ASE66_19920			
ASE66_25205			
ASE66_19925			
ASE66_19930			
ASE66_19945			
ASE66_19950			
ASE66_26225			
ASE66_19955			
ASE66_19960			
ASE66_27080			
ASE66_19965			
ASE66_19970			
ASE66_01000			
ASE66_19975			
ASE66_19980			
ASE66_19985			
ASE66_19990			
ASE66_19995			
ASE66_20000			
ASE66_20005			
ASE66_20010			
ASE66_20015			
ASE66_20020			
ASE66_00385			
ASE66_20025			
ASE66_20030			
ASE66_20035			
ASE66_20040			
ASE66_20045			
ASE66_20050			
ASE66_20055			
ASE66_20060			
ASE66_20065			
ASE66_20070			
ASE66_20075			
ASE66_20080			
ASE66_20085			
ASE66_20090			
ASE66_00455			
ASE66_20095			
ASE66_20100			
ASE66_20105			
ASE66_20110			
ASE66_00975			
ASE66_20115			
ASE66_20120			
ASE66_25260		fliL	
ASE66_20125			
ASE66_20130			
ASE66_20135			
ASE66_20140			
ASE66_25820			
ASE66_20145			
ASE66_20150			
ASE66_20155			
ASE66_20160			
ASE66_26400			
ASE66_20165			
ASE66_20170			
ASE66_20175			
ASE66_20180			
ASE66_20185			
ASE66_20195			
ASE66_20200			
ASE66_20205			
ASE66_20210			
ASE66_20215			
ASE66_20225			
ASE66_20230		alr	
ASE66_20235			
ASE66_20240			
ASE66_20245			
ASE66_20250			
ASE66_20255			
ASE66_20260			
ASE66_20265			
ASE66_20270			
ASE66_20275			
ASE66_20280			
ASE66_20285			
ASE66_20290			
ASE66_20295			
ASE66_20300			
ASE66_20305		pdxA	
ASE66_20310			
ASE66_20315			
ASE66_20320			
ASE66_20325			
ASE66_20330			
ASE66_20340			
ASE66_20345			
ASE66_20350			
ASE66_20355			
ASE66_20360			
ASE66_20365			
ASE66_20370			
ASE66_20375			
ASE66_20380			
ASE66_20385			
ASE66_20390			
ASE66_20395			
ASE66_20400			
ASE66_20405			
ASE66_20410			
ASE66_20415			
ASE66_20420			
ASE66_20425			
ASE66_20430			
ASE66_20435			
ASE66_20440			
ASE66_20445			
ASE66_20450			
ASE66_01360			
ASE66_20455			
ASE66_20460			
ASE66_20465			
ASE66_20470			
ASE66_20475			
ASE66_20480			
ASE66_20485			
ASE66_20490			
ASE66_00745			
ASE66_20495			
ASE66_20500			
ASE66_20505			
ASE66_20510			
ASE66_20515			
ASE66_20520			
ASE66_27130			
ASE66_20525			
ASE66_20530			
ASE66_27620			
ASE66_20535			
ASE66_20540		pyrB	
ASE66_20545			
ASE66_20550			
ASE66_20555			
ASE66_20560			
ASE66_26780			
ASE66_20565			
ASE66_20570			
ASE66_20575			
ASE66_20580			
ASE66_20585			
ASE66_20590			
ASE66_20595			
ASE66_20600			
ASE66_20605			
ASE66_20610			
ASE66_20615			
ASE66_20620			
ASE66_20625			
ASE66_20630			
ASE66_20635			
ASE66_20640			
ASE66_27275			
ASE66_20645			
ASE66_20650		gatA	
ASE66_20655			
ASE66_20660			
ASE66_20665			
ASE66_20670			
ASE66_20675			
ASE66_20680			
ASE66_20685			
ASE66_20690			
ASE66_27545			
ASE66_20695			
ASE66_20700			
ASE66_20705			
ASE66_20710			
ASE66_20715			
ASE66_20720			
ASE66_20725			
ASE66_20730			
ASE66_20735			
ASE66_20740			
ASE66_20745		glnA	
ASE66_20750			
ASE66_20755			
ASE66_20760			
ASE66_20765			
ASE66_20770			
ASE66_20775			
ASE66_20780			
ASE66_20785			
ASE66_20790			
ASE66_20795			
ASE66_20800			
ASE66_20805			
ASE66_20810			
ASE66_26200			
ASE66_20815			
ASE66_20820			
ASE66_20825			
ASE66_20830			
ASE66_25995			
ASE66_20835			
ASE66_20840			
ASE66_01345			
ASE66_20845			
ASE66_20855			
ASE66_20860			
ASE66_20865			
ASE66_20870			
ASE66_20875			
ASE66_20880			
ASE66_20885			
ASE66_20890			
ASE66_20895			
ASE66_20900			
ASE66_20905			
ASE66_20910			
ASE66_20915			
ASE66_20920			
ASE66_20925			
ASE66_00040			
ASE66_20930			
ASE66_20935			
ASE66_20940			
ASE66_20945			
ASE66_20950			
ASE66_20955			
ASE66_20960			
ASE66_27655			
ASE66_20965			
ASE66_20970			
ASE66_20975			
ASE66_20980			
ASE66_20985			
ASE66_20990			
ASE66_20995			
ASE66_21000			
ASE66_21005			
ASE66_21010			
ASE66_21015			
ASE66_21020			
ASE66_21025			
ASE66_21030			
ASE66_21035			
ASE66_21040			
ASE66_21045			
ASE66_21050			
ASE66_21055			
ASE66_21060			
ASE66_21065			
ASE66_21075			
ASE66_21080			
ASE66_21085			
ASE66_21090			
ASE66_21095			
ASE66_21100			
ASE66_21105			
ASE66_21110			
ASE66_21115			
ASE66_21120			
ASE66_26440			
ASE66_21125			
ASE66_21130			
ASE66_21135			
ASE66_21140			
ASE66_21145			
ASE66_21150			
ASE66_26770			
ASE66_21155			
ASE66_21160			
ASE66_21165			
ASE66_21170		ispDF	
ASE66_21175			
ASE66_21180			
ASE66_21185			
ASE66_21190			
ASE66_21195			
ASE66_21200			
ASE66_21205			
ASE66_21210			
ASE66_21215			
ASE66_21220			
ASE66_25575			
ASE66_21225			
ASE66_21230			
ASE66_21235			
ASE66_21245		glmU	
ASE66_21250			
ASE66_21255			
ASE66_21260			
ASE66_21265			
ASE66_21270			
ASE66_21275			
ASE66_01515			
ASE66_21280			
ASE66_21285			
ASE66_21290			
ASE66_21295			
ASE66_21300			
ASE66_21305			
ASE66_21310			
ASE66_21315			
ASE66_21320			
ASE66_21325			
ASE66_21330			
ASE66_21335			
ASE66_21340			
ASE66_21345			
ASE66_21350			
ASE66_21355			
ASE66_21360			
ASE66_21365			
ASE66_21370			
ASE66_21375			
ASE66_21380			
ASE66_21390		moaC	
ASE66_21395			
ASE66_21400			
ASE66_21410			
ASE66_21415		gltA	
ASE66_21420			
ASE66_21425			
ASE66_21430			
ASE66_21435			
ASE66_21440			
ASE66_21445			
ASE66_21450			
ASE66_21455			
ASE66_21460			
ASE66_21465			
ASE66_21470			
ASE66_21475			
ASE66_21480			
ASE66_21485			
ASE66_21490		pyrH	
ASE66_21495			
ASE66_21500			
ASE66_21505			
ASE66_21510			
ASE66_21515			
ASE66_21520			
ASE66_21525			
ASE66_21530			
ASE66_21535			
ASE66_21540			
ASE66_21545			
ASE66_21550			
ASE66_00520			
ASE66_21555			
ASE66_21560			
ASE66_21570			
ASE66_21575			
ASE66_21580			
ASE66_21585			
ASE66_01305			
ASE66_21590			
ASE66_21595			
ASE66_00775			
ASE66_21605			
ASE66_21610			
ASE66_21615			
ASE66_21620			
ASE66_21625			
ASE66_21630			
ASE66_21635			
ASE66_26240			
ASE66_21640			
ASE66_21645		sufC	
ASE66_21650			
ASE66_21655			
ASE66_21660			
ASE66_21665			
ASE66_21670			
ASE66_21675			
ASE66_21680			
ASE66_21685			
ASE66_21690			
ASE66_21695			
ASE66_21700			
ASE66_21705			
ASE66_21710			
ASE66_21715			
ASE66_25300			
ASE66_21720			
ASE66_21725			
ASE66_21730			
ASE66_21735			
ASE66_21740			
ASE66_21745			
ASE66_21750			
ASE66_25220			
ASE66_21755			
ASE66_21760			
ASE66_21765			
ASE66_26630			
ASE66_21770			
ASE66_00445			
ASE66_21775			
ASE66_21780			
ASE66_21785			
ASE66_21790			
ASE66_21795			
ASE66_21800			
ASE66_21805			
ASE66_00100			
ASE66_21810			
ASE66_21815			
ASE66_21820			
ASE66_21825			
ASE66_21830			
ASE66_21835			
ASE66_21840			
ASE66_21845			
ASE66_21850			
ASE66_21855			
ASE66_21860			
ASE66_21865			
ASE66_21870			
ASE66_21875			
ASE66_21880			
ASE66_21885			
ASE66_21890			
ASE66_21895			
ASE66_21900			
ASE66_21905			
ASE66_21910			
ASE66_21915			
ASE66_21920			
ASE66_21925			
ASE66_21930			
ASE66_21935			
ASE66_21940			
ASE66_21945			
ASE66_21950			
ASE66_21955			
ASE66_21960			
ASE66_21965			
ASE66_21970			
ASE66_21975			
ASE66_21980			
ASE66_21985			
ASE66_21990			
ASE66_21995			
ASE66_22000			
ASE66_22005			
ASE66_22010			
ASE66_22015			
ASE66_22020			
ASE66_22025			
ASE66_22030			
ASE66_22035			
ASE66_01035			
ASE66_22040			
ASE66_22045			
ASE66_22050			
ASE66_22055			
ASE66_22060			
ASE66_22065			
ASE66_22070			
ASE66_22075			
ASE66_22080			
ASE66_22085			
ASE66_22090			
ASE66_22100			
ASE66_22105			
ASE66_22110			
ASE66_22115			
ASE66_22120			
ASE66_22125			
ASE66_22130			
ASE66_22135			
ASE66_22140			
ASE66_00910			
ASE66_22145			
ASE66_26535			
ASE66_22150			
ASE66_22155			
ASE66_22160			
ASE66_00125			
ASE66_22165			
ASE66_22170			
ASE66_22175			
ASE66_22180			
ASE66_22185			
ASE66_22190			
ASE66_22195			
ASE66_22200			
ASE66_22205			
ASE66_22210			
ASE66_22215			
ASE66_22220			
ASE66_22225			
ASE66_22230			
ASE66_22235			
ASE66_22240			
ASE66_22245			
ASE66_22250			
ASE66_22255			
ASE66_22260			
ASE66_22265			
ASE66_22270			
ASE66_22275			
ASE66_22280			
ASE66_22285			
ASE66_22290			
ASE66_22295			
ASE66_22300			
ASE66_22305			
ASE66_22310			
ASE66_26160			
ASE66_22315			
ASE66_22320			
ASE66_22325			
ASE66_22330			
ASE66_26170			
ASE66_22335			
ASE66_00805			
ASE66_22340			
ASE66_26175			
ASE66_22345			
ASE66_25855			
ASE66_22350			
ASE66_26180			
ASE66_22355			
ASE66_22360			
ASE66_22365			
ASE66_22370			
ASE66_26190			
ASE66_22375			
ASE66_22380			
ASE66_22385			
ASE66_22390			
ASE66_22395			
ASE66_25880			
ASE66_22400			
ASE66_26205			
ASE66_22405			
ASE66_22410			
ASE66_26210			
ASE66_22415			
ASE66_22420			
ASE66_26215			
ASE66_22425		pleD	
ASE66_22430			
ASE66_26220			
ASE66_22435			
ASE66_22440			
ASE66_22445			
ASE66_22450			
ASE66_22455			
ASE66_22460			
ASE66_22465			
ASE66_22470			
ASE66_22475			
ASE66_22480			
ASE66_22485			
ASE66_26250			
ASE66_22490			
ASE66_22495			
ASE66_22500			
ASE66_22505			
ASE66_26260			
ASE66_22510			
ASE66_22515		clpA	
ASE66_26265			
ASE66_22520			
ASE66_22525			
ASE66_22530			
ASE66_22535			
ASE66_22540			
ASE66_26275			
ASE66_22545			
ASE66_22550			
ASE66_22555			
ASE66_22560			
ASE66_22565			
ASE66_22570			
ASE66_26290			
ASE66_22575			
ASE66_26295			
ASE66_22580			
ASE66_22585			
ASE66_22590			
ASE66_26300			
ASE66_22600			
ASE66_26305			
ASE66_22605			
ASE66_26310			
ASE66_22610			
ASE66_22615			
ASE66_22620			
ASE66_22625			
ASE66_22630			
ASE66_22635			
ASE66_22640			
ASE66_26325			
ASE66_22645			
ASE66_22650			
ASE66_26330			
ASE66_22655			
ASE66_26335			
ASE66_22660			
ASE66_22665			
ASE66_26645			
ASE66_22670			
ASE66_26340			
ASE66_22675			
ASE66_22680			
ASE66_26345			
ASE66_22685			
ASE66_27325			
ASE66_22690			
ASE66_26350			
ASE66_22695			
ASE66_22700			
ASE66_26355			
ASE66_22710			
ASE66_26360			
ASE66_22720			
ASE66_22725			
ASE66_22730			
ASE66_00335			
ASE66_22735			
ASE66_26370			
ASE66_22740			
ASE66_22745			
ASE66_26375			
ASE66_22750			
ASE66_22755			
ASE66_26380			
ASE66_26385			
ASE66_22765			
ASE66_22770			
ASE66_22775			
ASE66_22780			
ASE66_22785			
ASE66_26395			
ASE66_22790			
ASE66_22795			
ASE66_22800			
ASE66_26405			
ASE66_22805			
ASE66_22810			
ASE66_25670			
ASE66_22815			
ASE66_26415			
ASE66_22820			
ASE66_22825			
ASE66_26420			
ASE66_22830			
ASE66_22835			
ASE66_26425			
ASE66_22840			
ASE66_22845			
ASE66_26430			
ASE66_22850			
ASE66_22855			
ASE66_26435			
ASE66_22860			
ASE66_22865			
ASE66_22870			
ASE66_22875			
ASE66_26445			
ASE66_22880			
ASE66_26450			
ASE66_22885			
ASE66_22890			
ASE66_26455			
ASE66_22895			
ASE66_22900			
ASE66_22905			
ASE66_26460			
ASE66_22910			
ASE66_26465			
ASE66_22915			
ASE66_22920			
ASE66_22925			
ASE66_26470			
ASE66_22930			
ASE66_22935			
ASE66_26475			
ASE66_22940			
ASE66_22945			
ASE66_26480			
ASE66_22950			
ASE66_22955			
ASE66_26485			
ASE66_22960			
ASE66_26490			
ASE66_22965			
ASE66_22970			
ASE66_26495			
ASE66_22975			
ASE66_22980			
ASE66_22985			
ASE66_26500			
ASE66_22990			
ASE66_22995			
ASE66_23000			
ASE66_01390			
ASE66_23005			
ASE66_26510			
ASE66_23010			
ASE66_23015			
ASE66_26515			
ASE66_23020			
ASE66_26520			
ASE66_23025		rplB	
ASE66_23030			
ASE66_26525			
ASE66_23035			
ASE66_23040			
ASE66_26530			
ASE66_23045		rpsJ	
ASE66_26755			
ASE66_26540			
ASE66_26865			
ASE66_26545			
ASE66_26555			
ASE66_26560			
ASE66_26570			
ASE66_26575			
ASE66_26585			
ASE66_26590			
ASE66_26595			
ASE66_26605			
ASE66_26610			
ASE66_26615			
ASE66_26620			
ASE66_00415			
ASE66_26625			
ASE66_26635			
ASE66_26640		trpA	
ASE66_26650			
ASE66_26655			
ASE66_26660			
ASE66_26665			
ASE66_26670			
ASE66_26680			
ASE66_26685			
ASE66_26695			
ASE66_26700			
ASE66_25870			
ASE66_26715			
ASE66_25785			
ASE66_26725			
ASE66_26730			
ASE66_26735			
ASE66_26740			
ASE66_26745			
ASE66_00450			
ASE66_26760			
ASE66_26765			
ASE66_26775			
ASE66_26785			
ASE66_26790			
ASE66_16290			
ASE66_26800			
ASE66_16295			
ASE66_16300			
ASE66_26805			
ASE66_16305			
ASE66_16310			
ASE66_16315			
ASE66_26810			
ASE66_16320			
ASE66_16325			
ASE66_26815			
ASE66_16330			
ASE66_26820			
ASE66_16335			
ASE66_16340			
ASE66_16345			
ASE66_16350			
ASE66_16355			
ASE66_26830			
ASE66_16360			
ASE66_26835			
ASE66_16365			
ASE66_16370			
ASE66_16375			
ASE66_16380			
ASE66_16385			
ASE66_16390			
ASE66_16395			
ASE66_16400			
ASE66_16405			
ASE66_26855			
ASE66_16410			
ASE66_16415			
ASE66_26895			
ASE66_16420			
ASE66_16425			
ASE66_16430			
ASE66_16435			
ASE66_26870			
ASE66_16440			
ASE66_16445			
ASE66_26875			
ASE66_16450			
ASE66_26880			
ASE66_16455			
ASE66_16460			
ASE66_16465			
ASE66_16470			
ASE66_26890			
ASE66_16475			
ASE66_16480			
ASE66_16485			
ASE66_16490			
ASE66_16495			
ASE66_26900			
ASE66_16500			
ASE66_16505			
ASE66_26905			
ASE66_16510			
ASE66_26910			
ASE66_16515			
ASE66_16520			
ASE66_26915			
ASE66_16525			
ASE66_16530			
ASE66_16535			
ASE66_26920			
ASE66_16540			
ASE66_16545			
ASE66_16550			
ASE66_26930			
ASE66_16555			
ASE66_16560			
ASE66_16565			
ASE66_16570			
ASE66_16575			
ASE66_16580			
ASE66_16585			
ASE66_26945			
ASE66_16590			
ASE66_26950			
ASE66_16595			
ASE66_16605			
ASE66_26955			
ASE66_16610			
ASE66_16615			
ASE66_26960			
ASE66_16620			
ASE66_16625			
ASE66_26965			
ASE66_16630			
ASE66_16635			
ASE66_26970			
ASE66_16640			
ASE66_16645			
ASE66_26975			
ASE66_16650			
ASE66_16655			
ASE66_16660			
ASE66_26985			
ASE66_16665			
ASE66_16670			
ASE66_16675			
ASE66_26990			
ASE66_16680			
ASE66_26995			
ASE66_16685			
ASE66_16690			
ASE66_27000			
ASE66_16695			
ASE66_16700			
ASE66_16705			
ASE66_27005		ugpC	
ASE66_16710			
ASE66_16715			
ASE66_16720			
ASE66_16725			
ASE66_27015			
ASE66_16730			
ASE66_27020			
ASE66_16735			
ASE66_16740			
ASE66_27025			
ASE66_16745			
ASE66_16750			
ASE66_27030			
ASE66_16755			
ASE66_16760			
ASE66_27035			
ASE66_16765			
ASE66_16770			
ASE66_27040			
ASE66_16775			
ASE66_16780			
ASE66_27045			
ASE66_16785			
ASE66_16790			
ASE66_16795			
ASE66_27050			
ASE66_16800			
ASE66_16805			
ASE66_27055			
ASE66_16810			
ASE66_16815			
ASE66_27060			
ASE66_01350			
ASE66_27070			
ASE66_00985			
ASE66_27075			
ASE66_27090			
ASE66_27095			
ASE66_27100			
ASE66_27105			
ASE66_27110			
ASE66_27115			
ASE66_27120			
ASE66_27125			
ASE66_27135			
ASE66_27140			
ASE66_27150			
ASE66_27160			
ASE66_27165			
ASE66_27170			
ASE66_27175			
ASE66_27180			
ASE66_27185			
ASE66_27190			
ASE66_27195			
ASE66_27200			
ASE66_27225			
ASE66_27230			
ASE66_27235			
ASE66_27240			
ASE66_27245			
ASE66_27250			
ASE66_27255			
ASE66_00405			
ASE66_27270			
ASE66_27280			
ASE66_27285			
ASE66_27290			
ASE66_27310			
ASE66_27315			
ASE66_01425			
ASE66_27320			
ASE66_25790			
ASE66_27330			
ASE66_27335			
ASE66_25340			
ASE66_27345			
ASE66_27350			
ASE66_27355			
ASE66_27360			
ASE66_27365			
ASE66_27370			
ASE66_27375			
ASE66_00955			
ASE66_27385			
ASE66_27390			
ASE66_27395		rpmH	
ASE66_27400			
ASE66_27410			
ASE66_27415			
ASE66_27420			
ASE66_27425			
ASE66_27430			
ASE66_27435			
ASE66_27440			
ASE66_27445			
ASE66_27450			
ASE66_27455			
ASE66_27460			
ASE66_27470			
ASE66_27475			
ASE66_00090		groEL	
ASE66_27485			
ASE66_27490			
ASE66_27540			
ASE66_27505			
ASE66_27510		cobH	
ASE66_27515			
ASE66_27520			
ASE66_27525			
ASE66_27530			
ASE66_27535			
ASE66_27550			
ASE66_27555			
ASE66_27560			
ASE66_27565			
ASE66_27570			
ASE66_27580			
ASE66_27595			
ASE66_27600			
ASE66_27615			
ASE66_27625			
ASE66_27630			
ASE66_27640			
ASE66_27645			
ASE66_27665			
ASE66_27675			
ASE66_27685			
ASE66_27690			
ASE66_27700		glnQ	
ASE66_27705			
ASE66_27715			
ASE66_25590			
ASE66_27720			
ASE66_25325			
ASE66_27730			
ASE66_26045			
ASE66_27740			
ASE66_27745			
ASE66_27750			
ASE66_25605			
ASE66_27755			
ASE66_27760			
ASE66_27770			
ASE66_27775			
ASE66_27780			
ASE66_27795			
ASE66_27800			
ASE66_27805			
ASE66_27810			
ASE66_25765			
ASE66_27815			
ASE66_27825			
ASE66_27830			
ASE66_27840			
ASE66_27845			
ASE66_27850			
ASE66_27860			
ASE66_27865			
ASE66_01185			
ASE66_27875			
ASE66_27885			
ASE66_00175			
ASE66_25660			
ASE66_00490			
ASE66_00460			
ASE66_00800			
ASE66_26005			
ASE66_01070			
ASE66_25585			
ASE66_25475			
ASE66_25485			
ASE66_25505			
ASE66_25510			
ASE66_25515			
ASE66_25525			
ASE66_25530			
ASE66_25535			
ASE66_25540			
ASE66_25545			
ASE66_25550			
ASE66_25555			
ASE66_25560			
ASE66_25565			
ASE66_25570			
ASE66_25580			
ASE66_25930			
ASE66_25595			
ASE66_25600			
ASE66_25620			
ASE66_25625			
ASE66_25630			
ASE66_25640			
ASE66_25645			
ASE66_25655			
ASE66_25675			
ASE66_25685			
ASE66_25690			
ASE66_25705			
ASE66_25710			
ASE66_25715			
ASE66_25720			
ASE66_25745			
ASE66_25750			
ASE66_12590			
ASE66_25755			
ASE66_12595			
ASE66_25760			
ASE66_12600			
ASE66_12605			
ASE66_12610			
ASE66_12615			
ASE66_12620			
ASE66_25770			
ASE66_12625			
ASE66_12630			
ASE66_00135			
ASE66_12635			
ASE66_12640			
ASE66_25780			
ASE66_12645			
ASE66_12655			
ASE66_12660			
ASE66_12665			
ASE66_12670			
ASE66_25795			
ASE66_12675			
ASE66_12680			
ASE66_12685			
ASE66_25800			
ASE66_12690			
ASE66_12695			
ASE66_25805			
ASE66_12700			
ASE66_12705			
ASE66_25810			
ASE66_12710			
ASE66_12715			
ASE66_25915			
ASE66_12720			
ASE66_00815			
ASE66_12725			
ASE66_12730			
ASE66_25825			
ASE66_12735			
ASE66_12740			
ASE66_12745			
ASE66_25830			
ASE66_12750			
ASE66_12755			
ASE66_12760			
ASE66_12765			
ASE66_25840			
ASE66_12770			
ASE66_12775			
ASE66_25845			
ASE66_12780			
ASE66_12785			
ASE66_25850			
ASE66_12790			
ASE66_12795			
ASE66_12800			
ASE66_12805			
ASE66_25860			
ASE66_12810			
ASE66_12815			
ASE66_25865			
ASE66_12820			
ASE66_12825			
ASE66_12830			
ASE66_25875			
ASE66_12835			
ASE66_12840			
ASE66_12845			
ASE66_12850			
ASE66_25885			
ASE66_12855			
ASE66_12860			
ASE66_12865			
ASE66_25890			
ASE66_12870			
ASE66_12875			
ASE66_25895			
ASE66_12880			
ASE66_25900			
ASE66_12885			
ASE66_12890			
ASE66_25905			
ASE66_12895			
ASE66_12900			
ASE66_12905			
ASE66_25910			
ASE66_12915			
ASE66_12920			
ASE66_12925			
ASE66_25920			
ASE66_12930			
ASE66_12935			
ASE66_25925			
ASE66_12940			
ASE66_25275			
ASE66_12945			
ASE66_12950			
ASE66_25935			
ASE66_12955			
ASE66_12960			
ASE66_12965			
ASE66_25940			
ASE66_12970			
ASE66_26015			
ASE66_12975			
ASE66_12980			
ASE66_12985			
ASE66_12990			
ASE66_12995			
ASE66_25955			
ASE66_13000			
ASE66_13005			
ASE66_13010			
ASE66_25965			
ASE66_13015			
ASE66_13020			
ASE66_25970			
ASE66_13025			
ASE66_13030			
ASE66_13035			
ASE66_25975			
ASE66_13040			
ASE66_13045			
ASE66_25980			
ASE66_13050			
ASE66_13055			
ASE66_13060			
ASE66_13065			
ASE66_25990			
ASE66_13070			
ASE66_13075			
ASE66_13080			
ASE66_13085			
ASE66_26000			
ASE66_13090			
ASE66_13105			
ASE66_13110			
ASE66_13115			
ASE66_26010			
ASE66_13120			
ASE66_13125			
ASE66_13130			
ASE66_13135			
ASE66_26020			
ASE66_13140			
ASE66_13145			
ASE66_26025			
ASE66_13150			
ASE66_00665			
ASE66_13155			
ASE66_13160			
ASE66_13165			
ASE66_13170			
ASE66_13175			
ASE66_26040			
ASE66_13180			
ASE66_13185			
ASE66_13190			
ASE66_13195			
ASE66_26050			
ASE66_13200			
ASE66_13205			
ASE66_26055			
ASE66_13210			
ASE66_13215			
ASE66_26060			
ASE66_13220			
ASE66_26065			
ASE66_13225			
ASE66_13230			
ASE66_13235			
ASE66_13240			
ASE66_13245			
ASE66_26075			
ASE66_13250			
ASE66_13255			
ASE66_26080			
ASE66_13260			
ASE66_26085			
ASE66_13265			
ASE66_13270			
ASE66_26090			
ASE66_13275			
ASE66_13280			
ASE66_13285			
ASE66_26095			
ASE66_13290			
ASE66_13295			
ASE66_26100			
ASE66_13300			
ASE66_13305			
ASE66_13310			
ASE66_13315			
ASE66_13320			
ASE66_13325			
ASE66_13330			
ASE66_13335			
ASE66_13340			
ASE66_26125			
ASE66_13345			
ASE66_13350			
ASE66_13355			
ASE66_26130			
ASE66_13360			
ASE66_13365			
ASE66_26135			
ASE66_13370			
ASE66_13375			
ASE66_26140			
ASE66_13380			
ASE66_13385			
ASE66_26145			
ASE66_13390			
ASE66_13395			
ASE66_13400			
ASE66_13405			
ASE66_26155			
ASE66_13410			
ASE66_13415			
ASE66_13420			
ASE66_13425			
ASE66_13430			
ASE66_13435			
ASE66_13440			
ASE66_13445			
ASE66_13450			
ASE66_13455			
ASE66_13460			
ASE66_13465			
ASE66_13470			
ASE66_13475			
ASE66_13480			
ASE66_13485			
ASE66_13490			
ASE66_13495			
ASE66_13500			
ASE66_13505			
ASE66_13510			
ASE66_13515			
ASE66_13520			
ASE66_13525			
ASE66_13530			
ASE66_13535			
ASE66_13540			
ASE66_13545			
ASE66_13550			
ASE66_13555			
ASE66_13560			
ASE66_00735			
ASE66_13565			
ASE66_13570			
ASE66_13575			
ASE66_13580			
ASE66_13585			
ASE66_13590			
ASE66_13595			
ASE66_13600			
ASE66_13605			
ASE66_13610			
ASE66_13615			
ASE66_13620			
ASE66_13625			
ASE66_13630			
ASE66_13635			
ASE66_13640			
ASE66_13645			
ASE66_13650			
ASE66_13655			
ASE66_13660			
ASE66_13665			
ASE66_13670			
ASE66_13675			
ASE66_13680			
ASE66_13685			
ASE66_13690			
ASE66_13695			
ASE66_13700			
ASE66_13705			
ASE66_13710			
ASE66_13715			
ASE66_13720			
ASE66_13725			
ASE66_13730			
ASE66_01270			
ASE66_13735			
ASE66_13740			
ASE66_13745			
ASE66_13750			
ASE66_13755			
ASE66_13760			
ASE66_13765			
ASE66_13775			
ASE66_13780			
ASE66_13785			
ASE66_13790			
ASE66_13795			
ASE66_13800			
ASE66_13805			
ASE66_13810			
ASE66_13815			
ASE66_13820			
ASE66_13825			
ASE66_13830			
ASE66_13835			
ASE66_13840			
ASE66_13845			
ASE66_13850			
ASE66_13855			
ASE66_13860			
ASE66_13865			
ASE66_00495			
ASE66_13870			
ASE66_13875			
ASE66_13885			
ASE66_13895			
ASE66_13900			
ASE66_13905			
ASE66_13910			
ASE66_13915			
ASE66_13920			
ASE66_13925			
ASE66_13930			
ASE66_13935			
ASE66_13940			
ASE66_13945			
ASE66_13950			
ASE66_13955			
ASE66_13960		flhA	
ASE66_13965			
ASE66_13970			
ASE66_13975			
ASE66_13980			
ASE66_13985			
ASE66_13990			
ASE66_13995			
ASE66_14000			
ASE66_14005			
ASE66_14010			
ASE66_14015			
ASE66_14020			
ASE66_14025			
ASE66_14030			
ASE66_14035			
ASE66_14040			
ASE66_14045			
ASE66_14050			
ASE66_14055			
ASE66_14060			
ASE66_14065			
ASE66_14070			
ASE66_14075			
ASE66_14080			
ASE66_14085			
ASE66_25180			
ASE66_14090			
ASE66_14095			
ASE66_14100			
ASE66_25185			
ASE66_14105			
ASE66_25190			
ASE66_14110			
ASE66_14115			
ASE66_25195			
ASE66_14120			
ASE66_14125			
ASE66_14130			
ASE66_25200			
ASE66_14135			
ASE66_14140			
ASE66_14145			
ASE66_14150			
ASE66_14155			
ASE66_14160			
ASE66_14165			
ASE66_00695			
ASE66_14170			
ASE66_14175			
ASE66_14180			
ASE66_25225			
ASE66_14185			
ASE66_14190			
ASE66_25230			
ASE66_14195			
ASE66_25235			
ASE66_14200			
ASE66_14205			
ASE66_14210			
ASE66_25240			
ASE66_14215			
ASE66_14220			
ASE66_25245			
ASE66_14225			
ASE66_14230			
ASE66_25250		flgG	
ASE66_14235			
ASE66_25255		flgF	
ASE66_14240			
ASE66_14250			
ASE66_14255			
ASE66_14260			
ASE66_14265			
ASE66_14270			
ASE66_14275			
ASE66_25270			
ASE66_14280			
ASE66_14285			
ASE66_25410			
ASE66_14290			
ASE66_25280			
ASE66_14295			
ASE66_14300			
ASE66_25285			
ASE66_14305			
ASE66_14310			
ASE66_14315			
ASE66_25290			
ASE66_14320			
ASE66_14325			
ASE66_14330			
ASE66_14335			
ASE66_14340			
ASE66_25305			
ASE66_14345			
ASE66_14350			
ASE66_14355			
ASE66_25310			
ASE66_14360			
ASE66_25315			
ASE66_14365			
ASE66_14370			
ASE66_14375			
ASE66_25320			
ASE66_14380			
ASE66_25435			
ASE66_14385			
ASE66_25355			
ASE66_14390			
ASE66_25395			
ASE66_14395			
ASE66_14400			
ASE66_14405			
ASE66_25335			
ASE66_14410			
ASE66_25375			
ASE66_14415			
ASE66_14420			
ASE66_25420			
ASE66_14425			
ASE66_25345			
ASE66_14430			
ASE66_25350			
ASE66_14435		obgE	
ASE66_14440			
ASE66_14450			
ASE66_25360			
ASE66_14455			
ASE66_14465			
ASE66_14470			
ASE66_25365			
ASE66_14475			
ASE66_14480			
ASE66_14485			
ASE66_14490			
ASE66_14495			
ASE66_14500			
ASE66_14505			
ASE66_14510			
ASE66_25385			
ASE66_14515			
ASE66_14520			
ASE66_25390			
ASE66_14525			
ASE66_14530			
ASE66_25400			
ASE66_14535			
ASE66_14540			
ASE66_14545			
ASE66_14550			
ASE66_25405			
ASE66_14555			
ASE66_14560			
ASE66_14565			
ASE66_14570			
ASE66_25415			
ASE66_14575			
ASE66_25425			
ASE66_14580			
ASE66_14585			
ASE66_14590			
ASE66_14595			
ASE66_14600			
ASE66_25430			
ASE66_14605			
ASE66_14610			
ASE66_14615			
ASE66_14620			
ASE66_25440			
ASE66_14625			
ASE66_14630			
ASE66_14635			
ASE66_14640			
ASE66_25450			
ASE66_14645			
ASE66_14650			
ASE66_25455			
ASE66_14655			
ASE66_14660			
ASE66_25460			
ASE66_14665			
ASE66_14670			
ASE66_14675			
ASE66_14680			
ASE66_14685			
ASE66_14690			
ASE66_00055			
ASE66_14695			
ASE66_14705			
ASE66_14710			
ASE66_14715			
ASE66_14720			
ASE66_14725			
ASE66_14730			
ASE66_14735			
ASE66_14740			
ASE66_14745			
ASE66_14750			
ASE66_14755			
ASE66_14760			
ASE66_14765			
ASE66_14770			
ASE66_14775			
ASE66_14780			
ASE66_14785			
ASE66_14790			
ASE66_14795			
ASE66_14800			
ASE66_14805			
ASE66_14810			
ASE66_14815			
ASE66_14820			
ASE66_14825			
ASE66_14830			
ASE66_14835			
ASE66_14840			
ASE66_14845			
ASE66_14850			
ASE66_14855			
ASE66_14860			
ASE66_14865			
ASE66_14870			
ASE66_14875			
ASE66_14880			
ASE66_14885			
ASE66_14890			
ASE66_14895			
ASE66_14900			
ASE66_14905			
ASE66_14910			
ASE66_14915			
ASE66_14930			
ASE66_14935			
ASE66_14940			
ASE66_14945			
ASE66_14950			
ASE66_14955			
ASE66_14960			
ASE66_14965			
ASE66_14970			
ASE66_14975			
ASE66_14980			
ASE66_14985			
ASE66_14990			
ASE66_14995			
ASE66_15000			
ASE66_15005			
ASE66_15010			
ASE66_15015			
ASE66_15020			
ASE66_15025			
ASE66_00730			
ASE66_15030			
ASE66_15035			
ASE66_15040			
ASE66_15045			
ASE66_15050			
ASE66_15055			
ASE66_15060			
ASE66_15065			
ASE66_15075			
ASE66_15080		sucA	
ASE66_15085			
ASE66_15090			
ASE66_15095			
ASE66_15100			
ASE66_15105			
ASE66_15110			
ASE66_15115			
ASE66_15120			
ASE66_15125			
ASE66_15130			
ASE66_15135			
ASE66_15140			
ASE66_15145			
ASE66_15150			
ASE66_15155			
ASE66_15160			
ASE66_15165			
ASE66_15170			
ASE66_15175			
ASE66_15180			
ASE66_15185			
ASE66_15190			
ASE66_15195			
ASE66_15200			
ASE66_15205			
ASE66_15210			
ASE66_15215			
ASE66_15220			
ASE66_15225			
ASE66_15230			
ASE66_15235			
ASE66_15240			
ASE66_15245			
ASE66_15250			
ASE66_15255			
ASE66_15260			
ASE66_15265			
ASE66_15270			
ASE66_15275			
ASE66_15280			
ASE66_15285			
ASE66_15290			
ASE66_15295			
ASE66_15300			
ASE66_15305			
ASE66_15310			
ASE66_15315			
ASE66_15320			
ASE66_15325			
ASE66_15330			
ASE66_15335		pntB	
ASE66_15340			
ASE66_15345			
ASE66_15350			
ASE66_15355			
ASE66_15360			
ASE66_15365			
ASE66_15370			
ASE66_15375			
ASE66_15380			
ASE66_15385			
ASE66_15390			
ASE66_15395			
ASE66_15400			
ASE66_15405			
ASE66_15410			
ASE66_15415			
ASE66_15420			
ASE66_15425			
ASE66_15430			
ASE66_15435			
ASE66_15440			
ASE66_15445			
ASE66_15450			
ASE66_15455			
ASE66_15460			
ASE66_15465			
ASE66_15470			
ASE66_15475			
ASE66_15480			
ASE66_15485			
ASE66_15490			
ASE66_15495			
ASE66_15500			
ASE66_15510			
ASE66_15515			
ASE66_15520			
ASE66_15525			
ASE66_15530			
ASE66_15535			
ASE66_15540			
ASE66_15545			
ASE66_15550			
ASE66_15555			
ASE66_15560			
ASE66_15565			
ASE66_15570			
ASE66_15575			
ASE66_15580			
ASE66_15585			
ASE66_15590			
ASE66_15595			
ASE66_15600			
ASE66_15605			
ASE66_15610			
ASE66_15615			
ASE66_15620			
ASE66_15625			
ASE66_15630			
ASE66_15635			
ASE66_15640			
ASE66_15645			
ASE66_15650			
ASE66_15655		lysK	
ASE66_15660			
ASE66_15665			
ASE66_15670			
ASE66_15675			
ASE66_15685			
ASE66_15690			
ASE66_15695			
ASE66_15700			
ASE66_15705			
ASE66_15710			
ASE66_15715			
ASE66_15720			
ASE66_15725			
ASE66_15730			
ASE66_15735			
ASE66_15740			
ASE66_15745			
ASE66_15750			
ASE66_15755			
ASE66_15760			
ASE66_15765			
ASE66_15770			
ASE66_15775			
ASE66_15780			
ASE66_15785			
ASE66_15790			
ASE66_15795			
ASE66_15800			
ASE66_15805			
ASE66_15810			
ASE66_15815			
ASE66_15820			
ASE66_15825			
ASE66_15830			
ASE66_15835			
ASE66_15840			
ASE66_15845			
ASE66_15850			
ASE66_15855			
ASE66_15860			
ASE66_15865			
ASE66_15870			
ASE66_15875			
ASE66_15880			
ASE66_15885			
ASE66_15890			
ASE66_15895			
ASE66_15900			
ASE66_15905		prfC	
ASE66_15910			
ASE66_15915			
ASE66_15920			
ASE66_15925			
ASE66_15930			
ASE66_15935			
ASE66_15940			
ASE66_15945			
ASE66_15950			
ASE66_15955			
ASE66_15960			
ASE66_15965			
ASE66_15970			
ASE66_15975			
ASE66_15980			
ASE66_15985			
ASE66_15990			
ASE66_15995			
ASE66_16000			
ASE66_16005			
ASE66_16010			
ASE66_16015			
ASE66_16020			
ASE66_16025			
ASE66_16030			
ASE66_16035			
ASE66_16040			
ASE66_16045			
ASE66_16050			
ASE66_16055			
ASE66_16060			
ASE66_16065			
ASE66_16070			
ASE66_16075			
ASE66_16080			
ASE66_16085			
ASE66_16090			
ASE66_16095			
ASE66_16100			
ASE66_16105			
ASE66_16110			
ASE66_16115			
ASE66_16120			
ASE66_16125			
ASE66_16130			
ASE66_16135			
ASE66_16140			
ASE66_16145			
ASE66_16150			
ASE66_16155			
ASE66_16160			
ASE66_16170			
ASE66_16180			
ASE66_16185			
ASE66_16190			
ASE66_16195			
ASE66_16200			
ASE66_16205			
ASE66_16210			
ASE66_16215			
ASE66_16220		livG	
ASE66_16225			
ASE66_16230			
ASE66_16235			
ASE66_16240			
ASE66_16245			
ASE66_16250			
ASE66_16255			
ASE66_16260			
ASE66_16265			
ASE66_16270			
ASE66_16275			
ASE66_16280			
ASE66_16285			
ASE66_12100			
ASE66_12105			
ASE66_12110			
ASE66_12115			
ASE66_12120			
ASE66_12125			
ASE66_12130			
ASE66_12135			
ASE66_12140			
ASE66_12145			
ASE66_12150			
ASE66_12155			
ASE66_12160			
ASE66_12165			
ASE66_12170			
ASE66_12175			
ASE66_12180			
ASE66_12185			
ASE66_12190			
ASE66_12195			
ASE66_12200			
ASE66_12205			
ASE66_12210			
ASE66_12215			
ASE66_12220			
ASE66_12225			
ASE66_12230			
ASE66_12245			
ASE66_12250			
ASE66_12255			
ASE66_12260			
ASE66_12265			
ASE66_12270			
ASE66_12275			
ASE66_12280			
ASE66_12285			
ASE66_12290			
ASE66_12295			
ASE66_12300			
ASE66_12305			
ASE66_12310			
ASE66_12315			
ASE66_12320			
ASE66_12330			
ASE66_12335			
ASE66_12340			
ASE66_12345			
ASE66_12350			
ASE66_12355			
ASE66_12360			
ASE66_12365			
ASE66_12370			
ASE66_12375			
ASE66_12380			
ASE66_12385			
ASE66_12390			
ASE66_12395			
ASE66_12400			
ASE66_12405			
ASE66_12410			
ASE66_12415			
ASE66_12420			
ASE66_12425			
ASE66_12430			
ASE66_12435			
ASE66_12440			
ASE66_12445			
ASE66_12450			
ASE66_12455			
ASE66_12460			
ASE66_12465			
ASE66_12470			
ASE66_12475			
ASE66_12480			
ASE66_12485			
ASE66_12490			
ASE66_12495			
ASE66_12500			
ASE66_12505			
ASE66_12510			
ASE66_12515			
ASE66_12520			
ASE66_12525			
ASE66_12530			
ASE66_12535			
ASE66_12540			
ASE66_12545			
ASE66_12550			
ASE66_12555			
ASE66_12560			
ASE66_12565			
ASE66_12570			
ASE66_12575			
ASE66_12580			
ASE66_12585			
ASE66_09250			
ASE66_09255			
ASE66_09260			
ASE66_09265			
ASE66_09270			
ASE66_09275			
ASE66_09280			
ASE66_09285			
ASE66_09290			
ASE66_09300			
ASE66_09305			
ASE66_09310			
ASE66_09315			
ASE66_09320			
ASE66_09325			
ASE66_09330			
ASE66_09335			
ASE66_09340			
ASE66_09345			
ASE66_09350			
ASE66_09355			
ASE66_09360			
ASE66_09365		aspA	
ASE66_09370			
ASE66_09375			
ASE66_09380		dppD	
ASE66_09385			
ASE66_09390			
ASE66_09395			
ASE66_09400			
ASE66_09405			
ASE66_09410			
ASE66_09415			
ASE66_09420			
ASE66_09425			
ASE66_09430			
ASE66_09435			
ASE66_09440			
ASE66_09445			
ASE66_09450			
ASE66_09455			
ASE66_09460			
ASE66_09465			
ASE66_09470			
ASE66_09475			
ASE66_09480			
ASE66_09485			
ASE66_09490			
ASE66_09495			
ASE66_09500			
ASE66_09505			
ASE66_09510			
ASE66_09515			
ASE66_09520			
ASE66_09525			
ASE66_09530			
ASE66_09535			
ASE66_09540			
ASE66_09545			
ASE66_09550			
ASE66_09555			
ASE66_09560			
ASE66_09565			
ASE66_09570			
ASE66_09575			
ASE66_09580			
ASE66_09585			
ASE66_09590			
ASE66_09595			
ASE66_09600			
ASE66_09605			
ASE66_09610			
ASE66_09615			
ASE66_09620		purE	
ASE66_09625			
ASE66_09630			
ASE66_09635			
ASE66_09640			
ASE66_09645			
ASE66_09650			
ASE66_09655			
ASE66_09660			
ASE66_09665			
ASE66_09670		prpE	
ASE66_09675			
ASE66_09680			
ASE66_09685			
ASE66_09690			
ASE66_09695			
ASE66_09700			
ASE66_09705			
ASE66_09710			
ASE66_09715		rpmE	
ASE66_09720			
ASE66_09725			
ASE66_09730			
ASE66_09735			
ASE66_09740			
ASE66_09745		gapA	
ASE66_09750			
ASE66_09755			
ASE66_09760		pgk	
ASE66_09765			
ASE66_09770			
ASE66_09775			
ASE66_09780			
ASE66_09785			
ASE66_09790			
ASE66_09795			
ASE66_09800			
ASE66_09805			
ASE66_09810			
ASE66_09815			
ASE66_09820			
ASE66_09825			
ASE66_09830			
ASE66_09835			
ASE66_09840			
ASE66_09845			
ASE66_09850			
ASE66_09855			
ASE66_09860			
ASE66_09865		tolB	
ASE66_09870			
ASE66_09875			
ASE66_09880			
ASE66_09885			
ASE66_09890			
ASE66_09895		glmM	
ASE66_09900			
ASE66_09905			
ASE66_09910			
ASE66_09915			
ASE66_09920			
ASE66_09925			
ASE66_09930			
ASE66_09935			
ASE66_09940			
ASE66_09945			
ASE66_09950			
ASE66_09955			
ASE66_09960			
ASE66_09965			
ASE66_09970			
ASE66_09975			
ASE66_09980			
ASE66_09985			
ASE66_09990		fliI	
ASE66_09995			
ASE66_10000			
ASE66_10005			
ASE66_10010			
ASE66_10015			
ASE66_10020			
ASE66_10025			
ASE66_10030			
ASE66_10035			
ASE66_10040			
ASE66_10045			
ASE66_10050			
ASE66_10055			
ASE66_10060			
ASE66_10065			
ASE66_10070			
ASE66_10075			
ASE66_10080			
ASE66_10085		fabG	
ASE66_10090			
ASE66_10095			
ASE66_10100			
ASE66_10105			
ASE66_10110			
ASE66_10115			
ASE66_10120			
ASE66_10125			
ASE66_10130			
ASE66_10135			
ASE66_10140			
ASE66_10145			
ASE66_10150			
ASE66_10155			
ASE66_10160			
ASE66_10165			
ASE66_10170			
ASE66_10175			
ASE66_10180			
ASE66_10185			
ASE66_10190			
ASE66_10195			
ASE66_10200			
ASE66_10205			
ASE66_10210			
ASE66_10215			
ASE66_10220			
ASE66_10225			
ASE66_10230			
ASE66_10235			
ASE66_10240			
ASE66_10245			
ASE66_10250			
ASE66_10255			
ASE66_10260			
ASE66_10265			
ASE66_10270			
ASE66_10275			
ASE66_10280			
ASE66_10285			
ASE66_10290			
ASE66_10295			
ASE66_10300			
ASE66_10305			
ASE66_10310			
ASE66_10315			
ASE66_10320			
ASE66_10325			
ASE66_10330			
ASE66_10335			
ASE66_10340			
ASE66_10345			
ASE66_10350			
ASE66_10355			
ASE66_10360			
ASE66_10365			
ASE66_10370			
ASE66_10375			
ASE66_10380			
ASE66_10385			
ASE66_10390			
ASE66_10395			
ASE66_10400			
ASE66_10405			
ASE66_10410			
ASE66_10415			
ASE66_10420			
ASE66_10425			
ASE66_10430			
ASE66_10435			
ASE66_10440			
ASE66_10445			
ASE66_10450			
ASE66_10455			
ASE66_10460			
ASE66_10465			
ASE66_10470			
ASE66_10475			
ASE66_10480			
ASE66_10485			
ASE66_10490			
ASE66_10495			
ASE66_10500			
ASE66_10505			
ASE66_10510			
ASE66_10515			
ASE66_10520			
ASE66_10525			
ASE66_10530			
ASE66_10535			
ASE66_10540			
ASE66_10545			
ASE66_10550			
ASE66_10555			
ASE66_10560			
ASE66_10565			
ASE66_10570			
ASE66_10575			
ASE66_10580			
ASE66_10585			
ASE66_10590			
ASE66_10595			
ASE66_10600			
ASE66_10605			
ASE66_10610			
ASE66_10615			
ASE66_10620			
ASE66_10625			
ASE66_10630			
ASE66_10635			
ASE66_10640			
ASE66_10645			
ASE66_10650			
ASE66_10655			
ASE66_10660			
ASE66_10665			
ASE66_10670			
ASE66_10675			
ASE66_10680			
ASE66_10685			
ASE66_10690			
ASE66_10695			
ASE66_10700			
ASE66_10705			
ASE66_10710			
ASE66_10715			
ASE66_10720			
ASE66_10725			
ASE66_10730			
ASE66_10735			
ASE66_10740			
ASE66_10745			
ASE66_10750			
ASE66_10755			
ASE66_10760			
ASE66_10765			
ASE66_10775			
ASE66_10785			
ASE66_10790			
ASE66_10795			
ASE66_10800			
ASE66_10805			
ASE66_10810			
ASE66_10815			
ASE66_10820			
ASE66_10825			
ASE66_10830			
ASE66_10835			
ASE66_10840			
ASE66_10845			
ASE66_10850			
ASE66_10855			
ASE66_10860			
ASE66_10865			
ASE66_10870			
ASE66_10875			
ASE66_10880			
ASE66_10885			
ASE66_10890			
ASE66_10895			
ASE66_10900			
ASE66_10905			
ASE66_10910			
ASE66_10915			
ASE66_10920			
ASE66_10925		cpsB	
ASE66_10930			
ASE66_10935			
ASE66_10940			
ASE66_10945			
ASE66_10950			
ASE66_10955			
ASE66_10960			
ASE66_10970			
ASE66_10975			
ASE66_10980			
ASE66_10985			
ASE66_10990			
ASE66_10995			
ASE66_11000			
ASE66_11005			
ASE66_11010			
ASE66_11015			
ASE66_11020			
ASE66_11025			
ASE66_11030			
ASE66_11035		lldD	
ASE66_11040			
ASE66_11045			
ASE66_11050			
ASE66_11055			
ASE66_11060			
ASE66_11065			
ASE66_11070			
ASE66_11075			
ASE66_11080			
ASE66_11085			
ASE66_11090			
ASE66_11095			
ASE66_11100			
ASE66_11105			
ASE66_11110			
ASE66_11115			
ASE66_11120			
ASE66_11125			
ASE66_11130			
ASE66_11135			
ASE66_11140			
ASE66_11145			
ASE66_11150			
ASE66_11155			
ASE66_11160			
ASE66_11165			
ASE66_11170			
ASE66_11175			
ASE66_11180			
ASE66_11185			
ASE66_11190			
ASE66_11195			
ASE66_11200			
ASE66_11205			
ASE66_11215			
ASE66_11220			
ASE66_11225		mraY	
ASE66_11230		murD	
ASE66_11235			
ASE66_11240			
ASE66_11245			
ASE66_11250		murC	
ASE66_11255			
ASE66_11260			
ASE66_11265			
ASE66_11270			
ASE66_11275			
ASE66_11280			
ASE66_11290			
ASE66_11295			
ASE66_11300			
ASE66_11305			
ASE66_11310			
ASE66_11315			
ASE66_11320			
ASE66_11325			
ASE66_11330			
ASE66_11335			
ASE66_11340			
ASE66_11345			
ASE66_11350			
ASE66_11355			
ASE66_11360			
ASE66_11365			
ASE66_11370			
ASE66_11375			
ASE66_11380			
ASE66_11385			
ASE66_11390			
ASE66_11395			
ASE66_11400			
ASE66_11405			
ASE66_11410			
ASE66_11420			
ASE66_11425			
ASE66_11430			
ASE66_11435			
ASE66_11440			
ASE66_11445			
ASE66_11450			
ASE66_11455			
ASE66_11460			
ASE66_11465			
ASE66_11470			
ASE66_11475			
ASE66_11480			
ASE66_11490			
