{
    "com_prodtargets": [
        "M_PHE_c",
        "M_GLN_c",
        "M_L__45__ASPARTATE_c"
    ],
    "com_scope": [
        "M_OXALO__45__SUCCINATE_c",
        "M_PHENYL__45__PYRUVATE_c",
        "M_SUC__45__COA_c",
        "M_ADENINE_c",
        "M_THIAMINE__45__PYROPHOSPHATE_c",
        "M_FUM_c",
        "M_FMN_c",
        "M_2__45__PG_c",
        "M_CIS__45__ACONITATE_c",
        "M_GDP__45__TP_c",
        "M_L__45__GLUTAMATE__45__5__45__P_c",
        "M_ISOCHORISMATE_c",
        "M_INOSINE_c",
        "M_ADENYLOSUCC_c",
        "M_HYPOXANTHINE_c",
        "M_CPD__45__618_c",
        "M_CPD__45__317_c",
        "M_PHOSPHO__45__ENOL__45__PYRUVATE_c",
        "M_CPD__45__14443_c",
        "M_GLT_c",
        "M_L__45__ASPARTATE_c",
        "M_MAL_c",
        "M_CGMP_c",
        "M_GLN_c",
        "M_DIHYDRONEOPTERIN__45__P3_c",
        "M_ADENOSINE_c",
        "M_CPD__45__9924_c",
        "M_IMINOASPARTATE_c",
        "M_ACET_c",
        "M_N__45__ACETYL__45__GLUTAMYL__45__P_c",
        "M_HCO3_c",
        "M_ACETOACETYL__45__COA_c",
        "M_FMNH2_c",
        "M_SUCC__45__S__45__ALD_c",
        "M_ACETYL__45__COA_c",
        "M_L__45__GLUTAMATE_GAMMA__45__SEMIALDEHYDE_c",
        "M_D__45__ALA__45__D__45__ALA_c",
        "M_SUC_c",
        "M_L__45__ORNITHINE_c",
        "M_3__45__KETOBUTYRATE_c",
        "M_CHORISMATE_c",
        "M_AMMONIUM_c",
        "M_CHLORITE_c",
        "M_L__45__ASPARTATE__45__SEMIALDEHYDE_c",
        "M_L__45__BETA__45__ASPARTYL__45__P_c",
        "M_2__45__ALPHA__45__HYDROXYETHYL__45__THPP_c",
        "M_OXALACETIC_ACID_c",
        "M_GUANOSINE__45__5DP__45__3DP_c",
        "M_2__45__KETOGLUTARATE_c",
        "M_CPD__45__316_c",
        "M_L__45__ALPHA__45__ALANINE_c",
        "M_PHE_c",
        "M_LIPOYL__45__AMP_c",
        "M_CTP_c",
        "M_4__45__AMINO__45__4__45__DEOXYCHORISMATE_c",
        "M_4__45__AMINO__45__BUTYRATE_c",
        "M_PREPHENATE_c",
        "M_PYRUVATE_c",
        "M_N__45__ALPHA__45__ACETYLORNITHINE_c",
        "M_RIBOSE__45__1P_c",
        "M_ACETYL__45__P_c",
        "M_ACETYL__45__GLU_c",
        "M_APS_c",
        "M_FORMATE_c",
        "M_UTP_c",
        "M_CPD__45__469_c",
        "M_D__45__GLT_c",
        "M_D__45__ALANINE_c",
        "M_THREO__45__DS__45__ISO__45__CITRATE_c"
    ],
    "com_unprodtargets": [
        "M_INDOLE_ACETATE_AUXIN_c",
        "M_ILE_c",
        "M_PRO_c",
        "M_HIS_c",
        "M_ASN_c",
        "M_CPD__45__693_c",
        "M_MET_c",
        "M_VAL_c",
        "M_ARG_c",
        "M_LYS_c",
        "M_TRP_c",
        "M_CPD__45__110_c",
        "M_GLY_c",
        "M_ETHYLENE__45__CMPD_c",
        "M_LEU_c",
        "M_CYS_c",
        "M_THR_c",
        "M_CPD__45__734_c",
        "M_TYR_c"
    ],
    "targets_producers": {
        "M_GLN_c": [
            "Root918"
        ],
        "M_L__45__ASPARTATE_c": [
            "Root918"
        ],
        "M_PHE_c": [
            "Root918"
        ]
    }
}