{
    "com_prodtargets": [],
    "com_scope": [
        "M_CPD__45__12575_c",
        "M_PHENYL__45__PYRUVATE_c",
        "M_CPD__45__11495_c",
        "M_CPD__45__15015_c",
        "M_4__45__IMIDAZOLONE__45__5__45__PROPIONATE_c",
        "M_3__45__DEOXY__45__D__45__ARABINO__45__HEPTULOSONATE__45__7__45__P_c",
        "M_S__45__ADENOSYLMETHIONINE_c",
        "M_CAMP_c",
        "M_O__45__SUCCINYL__45__L__45__HOMOSERINE_c",
        "M_L__45__CYSTATHIONINE_c",
        "M_RIBOSE__45__5P_c",
        "M_GLUTATHIONE_c",
        "M_N__45__5__45__PHOSPHORIBOSYL__45__ANTHRANILATE_c",
        "M_CPD__45__9038_c",
        "M_CIS__45__ACONITATE_c",
        "M_GDP__45__TP_c",
        "M_CPD__45__302_c",
        "M_L__45__GLUTAMATE__45__5__45__P_c",
        "M_COPROPORPHYRINOGEN_III_c",
        "M_METHYL__45__MALONYL__45__COA_c",
        "M_INOSINE_c",
        "M_3__45__SULFINOALANINE_c",
        "M_CPD__45__15317_c",
        "M_ADENOSYL__45__HOMO__45__CYS_c",
        "M_2__45__ACETO__45__2__45__HYDROXY__45__BUTYRATE_c",
        "M_CPD__45__14443_c",
        "M_NMNH_c",
        "M_MAL_c",
        "M_GLN_c",
        "M_PRPP_c",
        "M_TREHALOSE__45__6P_c",
        "M_L__45__GAMMA__45__GLUTAMYLCYSTEINE_c",
        "M_IMINOASPARTATE_c",
        "M_D__45__METHYL__45__MALONYL__45__COA_c",
        "M_CPD__45__20826_c",
        "M_N__45__FORMYLKYNURENINE_c",
        "M_HCO3_c",
        "M_D__45__6__45__P__45__GLUCONO__45__DELTA__45__LACTONE_c",
        "M_ANTHRANILATE_c",
        "M_D__45__glucopyranose__45__6__45__phosphate_c",
        "M_GLUCOSAMINE__45__1P_c",
        "M_CPD__45__658_c",
        "M_L__45__GLUTAMATE_GAMMA__45__SEMIALDEHYDE_c",
        "M_HS_c",
        "M_QUINOLINATE_c",
        "M_DEHYDROQUINATE_c",
        "M_CHORISMATE_c",
        "M_NICOTINAMIDE_NUCLEOTIDE_c",
        "M_DIHYDROXYACETONE_c",
        "M_L__45__ASPARTATE__45__SEMIALDEHYDE_c",
        "M_CPD__45__2961_c",
        "M_CPD__45__10791_c",
        "M_L__45__BETA__45__ASPARTYL__45__P_c",
        "M_PYRIDOXINE__45__5P_c",
        "M_GLYOX_c",
        "M_FRUCTOSE__45__16__45__DIPHOSPHATE_c",
        "M_2__45__OXOBUTANOATE_c",
        "M_CPD__45__18238_c",
        "M_2__45__KETOGLUTARATE_c",
        "M_CTP_c",
        "M_PREPHENATE_c",
        "M_PYRUVATE_c",
        "M_UROCANATE_c",
        "M_DEAMIDO__45__NAD_c",
        "M_APS_c",
        "M_2__45__C__45__METHYL__45__D__45__ERYTHRITOL__45__4__45__PHOSPHATE_c",
        "M_PHOSPHORIBOSYL__45__ATP_c",
        "M_L__45__ARGININO__45__SUCCINATE_c",
        "M_PYRIDOXAL_PHOSPHATE_c",
        "M_UROPORPHYRINOGEN__45__III_c",
        "M_2__45__ACETO__45__LACTATE_c",
        "M_HOMO__45__CYS_c",
        "M_DPG_c",
        "M_PORPHOBILINOGEN_c",
        "M_2__45__KETO__45__3__45__METHYL__45__VALERATE_c",
        "M_OXALO__45__SUCCINATE_c",
        "M_GLC__45__1__45__P_c",
        "M_SUC__45__COA_c",
        "M_ADENINE_c",
        "M_CARBOXYPHENYLAMINO__45__DEOXYRIBULOSE__45__P_c",
        "M_FUM_c",
        "M_PHOSPHORIBULOSYL__45__FORMIMINO__45__AICAR__45__P_c",
        "M_G3P_c",
        "M_2__45__PG_c",
        "M_2__45__AMINOACRYLATE_c",
        "M_CARBAMATE_c",
        "M_CPD__45__421_c",
        "M_ADENYLOSUCC_c",
        "M_CPD__45__3736_c",
        "M_XYLULOSE__45__5__45__PHOSPHATE_c",
        "M_PHOSPHO__45__ENOL__45__PYRUVATE_c",
        "M_S__45__LACTOYL__45__GLUTATHIONE_c",
        "M_D__45__GLUCOSAMINE__45__6__45__P_c",
        "M_DIHYDROXY__45__ACETONE__45__PHOSPHATE_c",
        "M_3__45__P__45__HYDROXYPYRUVATE_c",
        "M_PROPIONYL__45__COA_c",
        "M_ERYTHROSE__45__4P_c",
        "M_5__45__P__45__BETA__45__D__45__RIBOSYL__45__AMINE_c",
        "M_H2CO3_c",
        "M_2__45__KETO__45__ISOVALERATE_c",
        "M_ADENOSINE_c",
        "M_CPD__45__600_c",
        "M_FRUCTOSE__45__6P_c",
        "M_PROTON_e",
        "M_HYDROXYMETHYLBILANE_c",
        "M_RIBULOSE__45__5P_c",
        "M_CDP__45__D__45__GLUCOSE_c",
        "M_DEHYDRO__45__DEOXY__45__GALACTONATE__45__PHOSPHATE_c",
        "M_5__45__AMINO__45__LEVULINATE_c",
        "M_CPD__45__14553_c",
        "M_D__45__ALA__45__D__45__ALA_c",
        "M_CARBAMOYL__45__P_c",
        "M_CPD__45__15979_c",
        "M_UDP__45__GLUCURONATE_c",
        "M_GAP_c",
        "M_3__45__DEHYDRO__45__SHIKIMATE_c",
        "M_D__45__SEDOHEPTULOSE__45__7__45__P_c",
        "M_METHYL__45__GLYOXAL_c",
        "M_PHOSPHORIBOSYL__45__FORMIMINO__45__AICAR__45__P_c",
        "M_DI__45__H__45__OROTATE_c",
        "M_2__45__KETO__45__3__45__DEOXY__45__6__45__P__45__GLUCONATE_c",
        "M_INDOLE__45__3__45__GLYCEROL__45__P_c",
        "M_GUANOSINE__45__5DP__45__3DP_c",
        "M_OXALACETIC_ACID_c",
        "M_NICOTINATE_NUCLEOTIDE_c",
        "M_5__45__PHOSPHO__45__RIBOSYL__45__GLYCINEAMIDE_c",
        "M_CPD__45__316_c",
        "M_LIPOYL__45__AMP_c",
        "M_DEOXYXYLULOSE__45__5P_c",
        "M_4__45__AMINO__45__4__45__DEOXYCHORISMATE_c",
        "M_CPD__45__13357_c",
        "M_PHOSPHORIBOSYL__45__AMP_c",
        "M_CARBAMYUL__45__L__45__ASPARTATE_c",
        "M_CADAVERINE_c",
        "M_2K__45__4CH3__45__PENTANOATE_c",
        "M_FORMATE_c",
        "M_NIACINE_c",
        "M_UTP_c",
        "M_N__45__FORMIMINO__45__L__45__GLUTAMATE_c",
        "M_3__45__P__45__SERINE_c",
        "M_D__45__GLT_c",
        "M_D__45__ALANINE_c",
        "M_1__45__KETO__45__2__45__METHYLVALERATE_c",
        "M_THREO__45__DS__45__ISO__45__CITRATE_c",
        "M_CPD__45__15056_c"
    ],
    "com_unprodtargets": [
        "M_INDOLE_ACETATE_AUXIN_c",
        "M_ETHYLENE__45__CMPD_c",
        "M_CPD__45__693_c",
        "M_CPD__45__734_c",
        "M_CPD__45__110_c"
    ],
    "targets_producers": {}
}