id	Common name	linked reactions
ASC78_25210	Unknown	ADDALT-RXN;ADENODEAMIN-RXN
ASC78_04835	Unknown	ACETYLGLUTKIN-RXN;RXN-15005
ASC78_02980	amiF	FORMAMIDASE-RXN
ASC78_01065	Unknown	ACETALD-DEHYDROG-RXN;RXN-13671
ASC78_07825	Unknown	POLYPHOSPHATE-KINASE-RXN
ASC78_15130	Unknown	RXN-8529
ASC78_15505	gyrB	5.99.1.3-RXN
ASC78_08750	gltD	GLUTAMATESYN-RXN;GLUTAMIN-RXN;GLUTDEHYD-RXN
ASC78_22075	Unknown	PGLUCONDEHYDRAT-RXN
ASC78_10085	Unknown	3-ISOPROPYLMALISOM-RXN;R-2-METHYLMALATE-DEHYDRATASE-RXN;RXN-13163;RXN-7744;RXN-8991
ASC78_21120	Unknown	CARBOXYMETHYLENEBUTENOLIDASE-RXN;DIENELACHYDRO-RXN;RXN-9857;RXN-9868;RXN-9887;RXN-9890
ASC78_21015	Unknown	1.2.7.8-RXN
ASC78_12050	Unknown	ISOCHORMAT-RXN
ASC78_12645	Unknown	ETHAMLY-RXN
ASC78_17880	Unknown	RXN0-2621
ASC78_03010	Unknown	OROPRIBTRANS-RXN
ASC78_20700	Unknown	CYTOCHROME-C-OXIDASE-RXN;RXN-15830
ASC78_00130	Unknown	ACYLCOADEHYDROG-RXN;RXN-17775;RXN-17779;RXN-17783;RXN-17784;RXN-17788;RXN-17792;RXN-17796
ASC78_04755	Unknown	DTDPDEHYDRHAMEPIM-RXN
ASC78_11750	emrB	3.6.3.44-RXN;TRANS-RXN-311
ASC78_25525	Unknown	RXN-16427;RXN-16456;RXN0-262
ASC78_16595	Unknown	RXN0-1342
ASC78_03560	Unknown	PROTEIN-KINASE-RXN
ASC78_10840	Unknown	SERINE-O-ACETTRAN-RXN
ASC78_02470	Unknown	DIHYDRODIPICSYN-RXN
ASC78_21675	Unknown	CYTDEAM-RXN;RXN-14129;RXN-14197
ASC78_10905	Unknown	ISOCIT-CLEAV-RXN
ASC78_09990	Unknown	RXN0-5462
ASC78_25850	Unknown	GALACTOSE-OXIDASE-RXN
ASC78_12260	Unknown	2-NITROPROPANE-DIOXYGENASE-RXN
ASC78_07795	Unknown	TRYPTOPHAN--TRNA-LIGASE-RXN
ASC78_21395	Unknown	D-AMINO-ACID-OXIDASE-RXN;RXN-8163
ASC78_13675	Unknown	3.4.21.92-RXN
ASC78_11755	Unknown	N-ACYLGLUCOSAMINE-2-EPIMERASE-RXN;R381-RXN;RXN-16006
ASC78_18165	Unknown	GSHTRAN-RXN;GST-RXN;RXN-11663;RXN-13673;RXN-15680;RXN-18405;RXN-18407;RXNQT-4363
ASC78_24370	Unknown	DXS-RXN
ASC78_05050	Unknown	ENOYL-COA-HYDRAT-RXN;METHYLACYLYLCOA-HYDROXY-RXN;RXN-10697;RXN-10704;RXN-10705;RXN-11244;RXN-12567;RXN-13616;RXN-14266;RXN-14272;RXN-14273;RXN-16135;RXN-16558;RXN-17114;RXN-17475;RXN-17776;RXN-17780;RXN-17785;RXN-17789;RXN-17793;RXN-17797;RXN-2425;RXN0-5393;TIGLYLCOA-HYDROXY-RXN
ASC78_06250	Unknown	UDP-NACMURALGLDAPLIG-RXN
ASC78_04055	Unknown	2.7.13.3-RXN
ASC78_08800	Unknown	UDPNACETYLGLUCOSAMENOLPYRTRANS-RXN
ASC78_19605	Unknown	COBALAMIN5PSYN-RXN;COBALAMINSYN-RXN;RXN-19296;RXN-19297;RXN-19302;RXN-19303;RXN-19304;RXN-19305;RXN-19307;RXN-19308
ASC78_13745	Unknown	FUMHYDR-RXN
ASC78_13805	Unknown	1.4.3.19-RXN;RXN-12614;RXN-17951;RXN-8672;RXN-8673;RXN-8674
ASC78_03230	Unknown	ACETYL-COA-CARBOXYLTRANSFER-RXN;RXN0-5055
ASC78_19630	Unknown	ASPAMINOTRANS-RXN;RXN-10814;RXN-11737;RXN-13697
ASC78_17740	Unknown	ACYLCOADEHYDROG-RXN;RXN-17775;RXN-17779;RXN-17783;RXN-17784;RXN-17788;RXN-17792;RXN-17796
ASC78_01485	Unknown	2-OXOPENT-4-ENOATE-HYDRATASE-RXN;RXN-10381
ASC78_17375	Unknown	GLUTAMATE-DEHYDROGENASE-NADP+-RXN;GLUTAMATE-DEHYDROGENASE-RXN;GLUTDEHYD-RXN
ASC78_09475	Unknown	GLUC1PURIDYLTRANS-RXN
ASC78_00100	dcd	DCTP-DEAM-RXN;RXN-14118
ASC78_20280	Unknown	SUCCDIAMINOPIMDESUCC-RXN
ASC78_15700	Unknown	SPERMIDINESYN-RXN
ASC78_24470	Unknown	3.4.17.11-RXN
ASC78_24560	Unknown	2.7.13.3-RXN
ASC78_15710	Unknown	1.5.1.9-RXN
ASC78_13465	Unknown	PEPTIDYLPROLYL-ISOMERASE-RXN
ASC78_25715	Unknown	ARGINYLTRANSFERASE-RXN;RXN-17888;RXN-17889;RXN-17890;RXN-17891
ASC78_09590	lldD	L-LACTATE-DEHYDROGENASE-CYTOCHROME-RXN
ASC78_15955	Unknown	RXN0-5100
ASC78_16360	Unknown	3.5.1.27-RXN;3.5.1.88-RXN
ASC78_01865	Unknown	ASPAMINOTRANS-RXN;RXN-10814;RXN-11737;RXN-13697
ASC78_09215	Unknown	3.2.2.15-RXN
ASC78_19195	Unknown	NICOTINATEPRIBOSYLTRANS-RXN
ASC78_11150	Unknown	R4-RXN
ASC78_01330	Unknown	ACYLCOASYN-RXN;LINOLENOYL-RXN;R223-RXN;RXN-12184;RXN-12978;RXN-13290;RXN-13614;RXN-16380;RXN-16389;RXN-16393;RXN-16401;RXN-16402;RXN-16415;RXN-16418;RXN-7904;RXN-9623;RXN-9644;RXN-9673;RXN0-7238;RXN0-7239;RXN0-7248;RXN66-469;RXN66-477;RXN66-480;RXN66-483;RXN66-484;TRANS-RXN0-623
ASC78_05820	Unknown	1.2.1.25-RXN;1.2.4.4-RXN;2.3.1.168-RXN;2KETO-3METHYLVALERATE-RXN;2KETO-4METHYL-PENTANOATE-DEHYDROG-RXN;ISOVALERYLCOA-DHLIPOAMIDE-RXN;KETOISOCAPROATE-RXN;MBCOA-DHLIPOAMIDE-RXN;METHYLVALERATE-RXN;RXN-7719
ASC78_08450	Unknown	RXN-9384
ASC78_10420	Unknown	RXN0-1441
ASC78_11950	pyrG	CTPSYN-RXN;GLUTAMIN-RXN;RXN-14325
ASC78_13995	Unknown	SERINE-O-ACETTRAN-RXN
ASC78_19625	Unknown	4.2.99.18-RXN
ASC78_19720	rimO	RXN0-6366
ASC78_19360	Unknown	ENOYL-COA-HYDRAT-RXN;METHYLACYLYLCOA-HYDROXY-RXN;RXN-10697;RXN-10704;RXN-10705;RXN-11244;RXN-12567;RXN-13616;RXN-14266;RXN-14272;RXN-14273;RXN-16135;RXN-16558;RXN-17114;RXN-17475;RXN-17776;RXN-17780;RXN-17785;RXN-17789;RXN-17793;RXN-17797;RXN-2425;RXN0-5393;TIGLYLCOA-HYDROXY-RXN
ASC78_19915	Unknown	KANAMYCIN-KINASE-RXN
ASC78_00465	gabD	RXN0-5293;SUCCINATE-SEMIALDEHYDE-DEHYDROGENASE-RXN
ASC78_09465	Unknown	RXN0-1441
ASC78_19345	Unknown	GSHTRAN-RXN;GST-RXN;RXN-11663;RXN-13673;RXN-15680;RXN-18405;RXN-18407;RXNQT-4363
ASC78_10410	Unknown	MALEYLACETOACETATE-ISOMERASE-RXN
ASC78_10120	Unknown	RXN-14971;RXN-15378;SUCCINATE-DEHYDROGENASE-UBIQUINONE-RXN
ASC78_16615	Unknown	4OHBENZOATE-OCTAPRENYLTRANSFER-RXN
ASC78_08315	Unknown	RXN1A0-6303
ASC78_11800	Unknown	ACSERLY-RXN;RXN-12726
ASC78_06140	sucC	SUCCCOASYN-RXN
ASC78_23085	Unknown	GSHTRAN-RXN;GST-RXN;RXN-11663;RXN-13673;RXN-15680;RXN-18405;RXN-18407;RXNQT-4363
ASC78_08125	Unknown	GLYOCARBOLIG-RXN
ASC78_03730	Unknown	ACETYL-COA-ACETYLTRANSFER-RXN;METHYLACETOACETYLCOATHIOL-RXN;RXN-12561
ASC78_10075	Unknown	3-ISOPROPYLMALDEHYDROG-RXN;RXN-13158;RXN-14986;RXN-18200;RXN-18202;RXN-18204;RXN-18206;RXN-18208;RXN-18210;RXNQT-4165;RXNQT-4168;RXNQT-4171;RXNQT-4174;RXNQT-4178
ASC78_09315	Unknown	RXN-17362
ASC78_01345	Unknown	2-NITROPROPANE-DIOXYGENASE-RXN;RXN-16322
ASC78_12800	Unknown	HOMOCYSMET-RXN
ASC78_09520	Unknown	ACYLCOADEHYDROG-RXN;RXN-17775;RXN-17779;RXN-17783;RXN-17784;RXN-17788;RXN-17792;RXN-17796
ASC78_15650	Unknown	KANAMYCIN-KINASE-RXN
ASC78_18770	Unknown	GPH-RXN
ASC78_01120	Unknown	1.1.1.209-RXN;RXN-11471;RXN-12264;RXN-13688;RXN-710;RXN-9796;RXN-9841;RXN66-567;RXN66-570
ASC78_16225	Unknown	RXN0-305
ASC78_06885	Unknown	RXN0-2661
ASC78_14500	Unknown	3.1.2.23-RXN
ASC78_18830	Unknown	RXN0-1281
ASC78_23855	Unknown	SUCCGLUDESUCC-RXN
ASC78_04885	Unknown	3-OXOACYL-ACP-REDUCT-RXN;RXN-10060;RXN-10655;RXN-10659;RXN-11476;RXN-11480;RXN-13008;RXN-16616;RXN-16622;RXN-16626;RXN-16630;RXN-9514;RXN-9518;RXN-9524;RXN-9528;RXN-9532;RXN-9536;RXN-9540;RXN-9552;RXN-9556;RXN-9633;RXN0-2142;RXN1G-157;RXN1G-349;RXN1G-469;RXN1G-508
ASC78_04590	Unknown	RXN0-4261
ASC78_24120	Unknown	5.99.1.3-RXN
ASC78_17395	Unknown	3.4.21.26-RXN
ASC78_00095	Unknown	GUANINE-DEAMINASE-RXN;RXN-15261
ASC78_06155	Unknown	2-DEHYDROPANTOATE-REDUCT-RXN
ASC78_02420	Unknown	METHYLITACONATE-DELTA-ISOMERASE-RXN
ASC78_16205	Unknown	3-HYDROXYISOBUTYRATE-DEHYDROGENASE-RXN
ASC78_19190	Unknown	ADENYLOSUCCINATE-SYNTHASE-RXN
ASC78_22805	Unknown	RXN0-5131
ASC78_11430	Unknown	HYDROXYMETHYLGLUTARYL-COA-LYASE-RXN
ASC78_00205	Unknown	ADENYLOSUCCINATE-SYNTHASE-RXN
ASC78_08185	Unknown	IMP-DEHYDROG-RXN
ASC78_11680	Unknown	1.6.99.5-RXN;NADH-DEHYDROGENASE-QUINONE-RXN
ASC78_16445	Unknown	4.1.99.4-RXN;RXN-15149
ASC78_04625	Unknown	R4-RXN
ASC78_24110	Unknown	2-OCTAPRENYL-6-OHPHENOL-METHY-RXN;DHHB-METHYLTRANSFER-RXN
ASC78_22410	Unknown	PYRUVATEORTHOPHOSPHATE-DIKINASE-RXN
ASC78_00935	Unknown	ADOMET-DMK-METHYLTRANSFER-RXN
ASC78_11230	Unknown	2.1.1.77-RXN
ASC78_05325	Unknown	RXN-11638
ASC78_09190	Unknown	ATPASE-RXN
ASC78_04305	Unknown	ALLOPHANATE-HYDROLASE-RXN
ASC78_15525	Unknown	3.1.26.5-RXN
ASC78_14005	Unknown	FMNREDUCT-RXN;NADPH-DEHYDROGENASE-FLAVIN-RXN;RXN-12444
ASC78_22360	Unknown	PMPOXI-RXN;PNPOXI-RXN
ASC78_03615	Unknown	MALTODEXGLUCOSID-RXN;RXN-14281;RXN-14282;RXN-14283;RXN-15910;RXN0-5183
ASC78_23840	Unknown	GLUTAMINE--TRNA-LIGASE-RXN
ASC78_17445	Unknown	CARBPSYN-RXN;GLUTAMIN-RXN;RXN-13202;RXN-14196;RXN-16909;RXN-16910
ASC78_11315	Unknown	RXN0-2621
ASC78_07440	Unknown	PRODISULFREDUCT-RXN;RXN0-7271
ASC78_03205	Unknown	RXN-11109
ASC78_07495	Unknown	RXN0-5055
ASC78_20015	Unknown	ISOCITDEH-RXN;RXN-8642;RXN-9951
ASC78_02850	Unknown	1.2.1.32-RXN;BADH-RXN;RXN-8831;RXN-8837
ASC78_15590	metX	HOMOSERINE-O-ACETYLTRANSFERASE-RXN
ASC78_12760	Unknown	RXNI-2
ASC78_12680	Unknown	FMNREDUCT-RXN;NADPH-DEHYDROGENASE-FLAVIN-RXN;RXN-12444
ASC78_08445	Unknown	PRPPAMIDOTRANS-RXN
ASC78_07285	Unknown	PGLYCDEHYDROG-RXN
ASC78_20035	sbcB	3.1.11.1-RXN
ASC78_02915	Unknown	ALKYLHALIDASE-RXN
ASC78_23445	Unknown	3.6.3.2-RXN;TRANS-RXN-250
ASC78_19965	Unknown	CPM-KDOSYNTH-RXN
ASC78_06425	Unknown	1.11.1.15-RXN;RXN0-5468
ASC78_08930	Unknown	PROTEIN-TYROSINE-PHOSPHATASE-RXN
ASC78_09530	Unknown	ACYLCOADEHYDROG-RXN;RXN-17775;RXN-17779;RXN-17783;RXN-17784;RXN-17788;RXN-17792;RXN-17796
ASC78_18875	Unknown	GLYOXI-RXN
ASC78_09565	Unknown	DNA-DIRECTED-DNA-POLYMERASE-RXN
ASC78_26255	Unknown	D-ARABINITOL-4-DEHYDROGENASE-RXN
ASC78_08830	Unknown	IMIDPHOSDEHYD-RXN
ASC78_08265	Unknown	F16BDEPHOS-RXN
ASC78_04740	Unknown	DTDPGLUCDEHYDRAT-RXN
ASC78_08040	Unknown	RXN-15849;RXN-7563
ASC78_11145	Unknown	R4-RXN
ASC78_15140	Unknown	R125-RXN
ASC78_02820	Unknown	DIHYDROXYISOVALDEHYDRAT-RXN;DIHYDROXYMETVALDEHYDRAT-RXN
ASC78_06960	rph	RXN0-6481;RXN0-6482;TRNA-NUCLEOTIDYLTRANSFERASE-RXN
ASC78_21785	Unknown	RXN0-5131
ASC78_16275	Unknown	CREATININASE-RXN
ASC78_23565	Unknown	6.3.5.7-RXN
ASC78_21980	Unknown	ADDALT-RXN;ADENODEAMIN-RXN
ASC78_23370	Unknown	HISTONE-LYSINE-N-METHYLTRANSFERASE-RXN
ASC78_12005	Unknown	DIHYDRODIPICSYN-RXN
ASC78_07995	Unknown	CYSTATHIONINE-BETA-LYASE-RXN;RXN-15131
ASC78_00480	Unknown	DNA-DIRECTED-RNA-POLYMERASE-RXN
ASC78_12120	glpK	GLYCEROL-KIN-RXN
ASC78_12280	Unknown	CHORISMATE-SYNTHASE-RXN
ASC78_12170	Unknown	2.3.1.41-RXN;3-OXOACYL-ACP-SYNTH-BASE-RXN;3-OXOACYL-ACP-SYNTH-RXN;RXN-10059;RXN-10654;RXN-10658;RXN-11474;RXN-11479;RXN-16615;RXN-16621;RXN-16625;RXN-16629;RXN-9516;RXN-9523;RXN-9527;RXN-9531;RXN-9535;RXN-9539;RXN-9632;RXN-9648;RXN-9650;RXN-9651;RXN-9652;RXN-9653;RXN-9654;RXN0-2141;RXN1G-368;RXN1G-445;RXN1G-460;RXN1G-499;RXN3O-1803
ASC78_10825	Unknown	UDPGLUCEPIM-RXN
ASC78_21255	Unknown	ACYLCOASYN-RXN;LINOLENOYL-RXN;R223-RXN;RXN-12184;RXN-12702;RXN-12746;RXN-12978;RXN-13290;RXN-13614;RXN-16380;RXN-16389;RXN-16393;RXN-16401;RXN-16402;RXN-16415;RXN-16418;RXN-7904;RXN-9623;RXN-9644;RXN-9673;RXN0-7238;RXN0-7239;RXN0-7248;RXN66-469;RXN66-477;RXN66-480;RXN66-483;RXN66-484;TRANS-RXN0-623
ASC78_03320	Unknown	GENTISATE-12-DIOXYGENASE-RXN;RXN-16945;RXN-16947
ASC78_18250	Unknown	DIHYDROOROT-RXN
ASC78_13300	Unknown	QUERCETIN-23-DIOXYGENASE-RXN
ASC78_09170	Unknown	ENOYL-COA-HYDRAT-RXN;METHYLACYLYLCOA-HYDROXY-RXN;RXN-10697;RXN-10704;RXN-10705;RXN-11244;RXN-12567;RXN-13616;RXN-14266;RXN-14272;RXN-14273;RXN-16135;RXN-16558;RXN-17114;RXN-17475;RXN-17776;RXN-17780;RXN-17785;RXN-17789;RXN-17793;RXN-17797;RXN-2425;RXN0-5393;TIGLYLCOA-HYDROXY-RXN
ASC78_07665	Unknown	2.7.13.3-RXN
ASC78_15860	Unknown	D-AMINO-ACID-OXIDASE-RXN;RXN-8163
ASC78_20560	Unknown	RXN0-5062
ASC78_01270	Unknown	ACETATE--COA-LIGASE-RXN;RXN-18446;RXN-18447;RXN-18448
ASC78_15735	Unknown	3.4.11.1-RXN
ASC78_12355	Unknown	PROTEIN-KINASE-RXN
ASC78_11065	Unknown	HOMOSERDEHYDROG-RXN
ASC78_06760	Unknown	PYROGLUTAMYL-PEPTIDASE-I-RXN
ASC78_05365	Unknown	NACGLCTRANS-RXN;RXN-8976
ASC78_16475	Unknown	RXN0-743
ASC78_02590	Unknown	4.1.3.17-RXN;OXALODECARB-RXN;RXN-12074;RXN-2464
ASC78_08710	Unknown	SHIKIMATE-KINASE-RXN
ASC78_01155	Unknown	MALIC-NADP-RXN;OXALODECARB-RXN
ASC78_13375	Unknown	LUMAZINESYN-RXN
ASC78_15745	Unknown	SAMDECARB-RXN
ASC78_21110	Unknown	6.3.5.7-RXN
ASC78_03225	Unknown	METHYLCROTONYL-COA-CARBOXYLASE-RXN
ASC78_13965	Unknown	RXN-13418;RXN-15341;RXN0-280;RXN0-6973
ASC78_12900	Unknown	PHOSPHASERSYN-RXN
ASC78_05655	Unknown	HISTIDPHOS-RXN
ASC78_03590	Unknown	GLYCOPHOSPHORYL-RXN;GLYMALTOPHOSPHORYL-RXN;RXN-12171;RXN-12392;RXN-14284;RXN-14285;RXN-14286;RXN-14353;RXN-1826;RXN-9025;RXN0-5182;RXN0-5184
ASC78_07480	panB	3-CH3-2-OXOBUTANOATE-OH-CH3-XFER-RXN;RXN-15635
ASC78_00140	Unknown	RXN-13418;RXN-15341;RXN0-280;RXN0-6973
ASC78_22165	Unknown	DEHYDDEOXGALACTKIN-RXN
ASC78_19455	Unknown	MALONYL-COA-DECARBOXYLASE-RXN
ASC78_19660	Unknown	2.7.7.60-RXN
ASC78_06655	Unknown	CYTOCHROME-C-OXIDASE-RXN;RXN-15830
ASC78_26260	Unknown	L-IDITOL-2-DEHYDROGENASE-RXN;RXN-7644
ASC78_19135	ispG	RXN0-882
ASC78_07465	Unknown	4.2.3.12-RXN
ASC78_21780	Unknown	RXN0-5131
ASC78_16000	Unknown	GUANYLCYC-RXN
ASC78_14675	Unknown	1.18.1.2-RXN
ASC78_20615	Unknown	ADENYLATECYC-RXN
ASC78_04300	Unknown	ALLOPHANATE-HYDROLASE-RXN
ASC78_04775	Unknown	GDPMANDEHYDRA-RXN
ASC78_04750	Unknown	DTDPGLUCOSEPP-RXN
ASC78_19940	Unknown	PGLYCDEHYDROG-RXN
ASC78_14630	Unknown	NICOTINAMID-RXN
ASC78_19740	Unknown	RXN0-7023
ASC78_05815	Unknown	1.2.1.25-RXN;1.2.4.4-RXN;2.3.1.168-RXN;2KETO-3METHYLVALERATE-RXN;2KETO-4METHYL-PENTANOATE-DEHYDROG-RXN;ISOVALERYLCOA-DHLIPOAMIDE-RXN;KETOISOCAPROATE-RXN;MBCOA-DHLIPOAMIDE-RXN;METHYLVALERATE-RXN;RXN-7719
ASC78_01280	Unknown	2.7.8.25-RXN
ASC78_10415	Unknown	5.3.3.10-RXN
ASC78_22525	Unknown	CARBOXYMETHYLENEBUTENOLIDASE-RXN;DIENELACHYDRO-RXN;RXN-9857;RXN-9868;RXN-9887;RXN-9890
ASC78_01275	Unknown	MALONYL-COA-ACP-TRANSACYL-RXN
ASC78_17820	Unknown	ENOYL-COA-HYDRAT-RXN;METHYLACYLYLCOA-HYDROXY-RXN;RXN-10697;RXN-10704;RXN-10705;RXN-11244;RXN-12567;RXN-13616;RXN-14266;RXN-14272;RXN-14273;RXN-16135;RXN-16558;RXN-17114;RXN-17475;RXN-17776;RXN-17780;RXN-17785;RXN-17789;RXN-17793;RXN-17797;RXN-2425;RXN0-5393;TIGLYLCOA-HYDROXY-RXN
ASC78_10240	Unknown	CHLORIDE-PEROXIDASE-RXN
ASC78_02940	Unknown	ALLOPHANATE-HYDROLASE-RXN
ASC78_05505	Unknown	BIOTIN-CARBOXYL-RXN
ASC78_22100	Unknown	GLYOXI-RXN
ASC78_17785	Unknown	3-OXOACYL-ACP-REDUCT-RXN;RXN-10060;RXN-10655;RXN-10659;RXN-11476;RXN-11480;RXN-13008;RXN-16616;RXN-16622;RXN-16626;RXN-16630;RXN-9514;RXN-9518;RXN-9524;RXN-9528;RXN-9532;RXN-9536;RXN-9540;RXN-9552;RXN-9556;RXN-9633;RXN0-2142;RXN1G-157;RXN1G-349;RXN1G-469;RXN1G-508
ASC78_24725	Unknown	1.2.7.8-RXN
ASC78_09345	Unknown	ACYLCOADEHYDROG-RXN;RXN-17775;RXN-17779;RXN-17783;RXN-17784;RXN-17788;RXN-17792;RXN-17796
ASC78_26475	Unknown	GLYOXIII-RXN
ASC78_12195	Unknown	RXN-17155
ASC78_03055	Unknown	FUMARYLACETOACETASE-RXN
ASC78_14735	Unknown	FORMIMINOGLUTAMATE-DEIMINASE-RXN
ASC78_25560	Unknown	1.11.1.15-RXN;RXN0-5468
ASC78_19760	Unknown	AMIDASE-RXN;GUANIDINOBUTANAMIDE-NH3-RXN;PYRAZIN-RXN;R311-RXN;RXN-14727;RXN-14728;RXN-17608;RXNN-404
ASC78_14970	Unknown	GLYOXI-RXN
ASC78_24745	Unknown	3-HYDROXYBUTYRYL-COA-DEHYDROGENASE-RXN
ASC78_10135	Unknown	MALATE-DEH-RXN
ASC78_19540	Unknown	BTUR2-RXN;COBALADENOSYLTRANS-RXN;R344-RXN
ASC78_22010	Unknown	2.1.1.77-RXN
ASC78_13010	cpsB	2.7.7.13-RXN
ASC78_00235	Unknown	3-DEHYDROQUINATE-DEHYDRATASE-RXN
ASC78_23895	Unknown	2.7.13.3-RXN
ASC78_26495	Unknown	PROTEIN-KINASE-RXN
ASC78_03925	Unknown	THI-P-KIN-RXN
ASC78_02455	Unknown	DIHYDROPYRIMIDINASE-RXN;RXN-11211;RXN-11217
ASC78_14405	Unknown	MANNONDEHYDRAT-RXN
ASC78_16720	Unknown	AMINOBENZCOALIG-RXN
ASC78_24225	Unknown	CYTOCHROME-C-OXIDASE-RXN;RXN-15830
ASC78_17805	Unknown	RXN-14264;RXN0-2301
ASC78_11675	Unknown	NADH-DEHYDROG-A-RXN
ASC78_09730	Unknown	4.2.2.2-RXN
ASC78_18910	Unknown	RXN0-2621
ASC78_13455	Unknown	LIPIDXSYNTHESIS-RXN
ASC78_18105	Unknown	ENOYL-COA-HYDRAT-RXN;METHYLACYLYLCOA-HYDROXY-RXN;RXN-10697;RXN-10704;RXN-10705;RXN-11244;RXN-12567;RXN-13616;RXN-14266;RXN-14272;RXN-14273;RXN-16135;RXN-16558;RXN-17114;RXN-17475;RXN-17776;RXN-17780;RXN-17785;RXN-17789;RXN-17793;RXN-17797;RXN-2425;RXN0-5393;TIGLYLCOA-HYDROXY-RXN
ASC78_07090	Unknown	THRESYN-RXN
ASC78_21240	Unknown	2-NITROPROPANE-DIOXYGENASE-RXN
ASC78_04650	Unknown	QOR-RXN
ASC78_01000	Unknown	4-CARBOXYMUCONOLACTONE-DECARBOXYLASE-RXN
ASC78_00195	Unknown	PROTEIN-KINASE-RXN
ASC78_16420	Unknown	PHOSGLYPHOS-RXN
ASC78_12895	Unknown	GSHTRAN-RXN;GST-RXN;RXN-11663;RXN-13673;RXN-15680;RXN-18405;RXN-18407;RXNQT-4363
ASC78_18025	Unknown	RXN-9591
ASC78_04930	Unknown	ACETYL-COA-ACETYLTRANSFER-RXN;METHYLACETOACETYLCOATHIOL-RXN;RXN-12561
ASC78_00105	Unknown	RXN0-3221
ASC78_20505	Unknown	IMP-DEHYDROG-RXN
ASC78_25935	Unknown	EXOPOLYPHOSPHATASE-RXN
ASC78_02405	Unknown	5.5.1.2-RXN
ASC78_11945	Unknown	KDO-8PSYNTH-RXN
ASC78_20085	Unknown	URACIL-PRIBOSYLTRANS-RXN
ASC78_20575	Unknown	2.7.13.3-RXN
ASC78_17490	Unknown	FUMARYLACETOACETASE-RXN
ASC78_12475	Unknown	2-NITROPROPANE-DIOXYGENASE-RXN
ASC78_22230	Unknown	4-CARBOXYMUCONOLACTONE-DECARBOXYLASE-RXN
ASC78_05425	aroE	SHIKIMATE-5-DEHYDROGENASE-RXN
ASC78_00270	Unknown	5.3.3.10-RXN
ASC78_01140	Unknown	RXN0-1133
ASC78_25115	Unknown	2.7.13.3-RXN
ASC78_19140	Unknown	HISTIDINE--TRNA-LIGASE-RXN
ASC78_08670	Unknown	DIAMINOPIMDECARB-RXN
ASC78_04295	Unknown	BIOTIN-CARBOXYL-RXN
ASC78_13935	Unknown	2.3.2.13-RXN;RXN-19236
ASC78_19815	Unknown	UDPHYDROXYMYRGLUCOSAMNACETYLTRANS-RXN
ASC78_00060	Unknown	ADDALT-RXN;ADENODEAMIN-RXN
ASC78_01070	Unknown	MHPELY-RXN
ASC78_10125	Unknown	RXN-14971;RXN-15378;SUCCINATE-DEHYDROGENASE-UBIQUINONE-RXN
ASC78_03765	Unknown	MALSYN-RXN
ASC78_16135	Unknown	GSADENYLATION-RXN
ASC78_06520	Unknown	2-OCTAPRENYL-6-OHPHENOL-METHY-RXN;DHHB-METHYLTRANSFER-RXN
ASC78_06485	Unknown	RNA-3-PHOSPHATE-CYCLASE-RXN;RXN-17928;RXN-17930;RXN-17931
ASC78_18130	Unknown	RXN0-5304
ASC78_05485	Unknown	RXN0-2361;RXN0-7022
ASC78_15810	Unknown	PEPTIDYLPROLYL-ISOMERASE-RXN
ASC78_00525	Unknown	GLYOXIII-RXN
ASC78_14870	Unknown	FMNREDUCT-RXN;NADPH-DEHYDROGENASE-FLAVIN-RXN;RXN-12444
ASC78_26220	Unknown	TRANSALDOL-RXN
ASC78_25075	Unknown	GALACTONDEHYDRAT-RXN
ASC78_12700	Unknown	GLYOXI-RXN
ASC78_13525	Unknown	2.7.13.3-RXN
ASC78_18570	Unknown	FORMYLMETHANOFURAN-DEHYDROGENASE-RXN
ASC78_04690	Unknown	GSHTRAN-RXN;GST-RXN;RXN-11663;RXN-13673;RXN-15680;RXN-18405;RXN-18407;RXNQT-4363
ASC78_26320	Unknown	1.1.1.264-RXN;L-IDONATE-2-DEHYDROGENASE-RXN;RXN-12107
ASC78_12625	Unknown	PSERPHOSPHA-RXN;RXN0-5114
ASC78_23335	Unknown	GLUCONOLACT-RXN;RXN-8783
ASC78_03505	Unknown	ACYLCOASYN-RXN;LINOLENOYL-RXN;R223-RXN;RXN-12184;RXN-12978;RXN-13290;RXN-13614;RXN-16380;RXN-16389;RXN-16393;RXN-16401;RXN-16402;RXN-16415;RXN-16418;RXN-7904;RXN-9623;RXN-9644;RXN-9673;RXN0-7238;RXN0-7239;RXN0-7248;RXN66-469;RXN66-477;RXN66-480;RXN66-483;RXN66-484;TRANS-RXN0-623
ASC78_25620	hppA	INORGPYROPHOSPHAT-RXN
ASC78_21320	Unknown	OROTPDECARB-RXN
ASC78_15380	Unknown	2.7.13.3-RXN
ASC78_00930	Unknown	PGLYCDEHYDROG-RXN
ASC78_05345	Unknown	UDP-NACMURALGLDAPAALIG-RXN
ASC78_10900	Unknown	THREONINE--TRNA-LIGASE-RXN
ASC78_08980	Unknown	1.10.2.2-RXN;RXN-15829
ASC78_13120	Unknown	2-DEHYDROPANTOATE-REDUCT-RXN
ASC78_13640	Unknown	RXN-12263;RXN-13162;RXN-13724;RXN66-281
ASC78_14730	Unknown	N-FORMYLGLUTAMATE-DEFORMYLASE-RXN
ASC78_18550	Unknown	ASPARTATEKIN-RXN
ASC78_17320	Unknown	GSHTRAN-RXN;GST-RXN;RXN-11663;RXN-13673;RXN-15680;RXN-18405;RXN-18407;RXNQT-4363
ASC78_19790	Unknown	CDPDIGLYSYN-RXN;RXN0-5515
ASC78_14515	Unknown	ADCLY-RXN
ASC78_23645	Unknown	SERINE-O-ACETTRAN-RXN
ASC78_06565	Unknown	ENOYL-COA-HYDRAT-RXN;METHYLACYLYLCOA-HYDROXY-RXN;RXN-10697;RXN-10704;RXN-10705;RXN-11244;RXN-12567;RXN-13616;RXN-14266;RXN-14272;RXN-14273;RXN-16135;RXN-16558;RXN-17114;RXN-17475;RXN-17776;RXN-17780;RXN-17785;RXN-17789;RXN-17793;RXN-17797;RXN-2425;RXN0-5393;TIGLYLCOA-HYDROXY-RXN
ASC78_03645	leuS	LEUCINE--TRNA-LIGASE-RXN
ASC78_22060	Unknown	SUPEROX-DISMUT-RXN
ASC78_01840	Unknown	AMIDASE-RXN;GUANIDINOBUTANAMIDE-NH3-RXN;PYRAZIN-RXN;R311-RXN;RXN-14727;RXN-14728;RXN-17608;RXNN-404
ASC78_16995	Unknown	RXN-13037;RXN-13039;RXN-17127;RXN-8654;RXN-8655;RXN0-1141;RXN0-5098;RXN0-947
ASC78_11350	Unknown	GLYCERATE-DEHYDROGENASE-RXN;HYDROXYPYRUVATE-REDUCTASE-RXN
ASC78_11630	Unknown	TRIOSEPISOMERIZATION-RXN
ASC78_12570	Unknown	1.5.5.1-RXN;RXN66-550
ASC78_07110	argJ	GLUTAMATE-N-ACETYLTRANSFERASE-RXN;N-ACETYLTRANSFER-RXN;RXN0-6948
ASC78_24060	glnA	GLUTAMINESYN-RXN
ASC78_18195	Unknown	OHMETPYRKIN-RXN;PYRIMSYN3-RXN
ASC78_07905	Unknown	2.7.13.3-RXN
ASC78_09555	Unknown	5.99.1.2-RXN
ASC78_02905	Unknown	2.7.13.3-RXN
ASC78_10780	Unknown	PROTEIN-TYROSINE-PHOSPHATASE-RXN
ASC78_07475	Unknown	PANTOATE-BETA-ALANINE-LIG-RXN
ASC78_18760	Unknown	2-HALOACID-DEHALOGENASE-RXN
ASC78_25370	Unknown	PHOSPHASERDECARB-RXN
ASC78_03770	Unknown	2-HALOACID-DEHALOGENASE-RXN
ASC78_24775	Unknown	RXN0-5462
ASC78_12765	Unknown	ASPAMINOTRANS-RXN;RXN-10814;RXN-11737;RXN-13697
ASC78_20090	Unknown	URACIL-PRIBOSYLTRANS-RXN
ASC78_21510	Unknown	ACYLCOASYN-RXN;LINOLENOYL-RXN;R223-RXN;RXN-12184;RXN-12978;RXN-13290;RXN-13614;RXN-16380;RXN-16389;RXN-16393;RXN-16401;RXN-16402;RXN-16415;RXN-16418;RXN-7904;RXN-9623;RXN-9644;RXN-9673;RXN0-7238;RXN0-7239;RXN0-7248;RXN66-469;RXN66-477;RXN66-480;RXN66-483;RXN66-484;TRANS-RXN0-623
ASC78_21095	Unknown	RXN-7682;RXN0-901
ASC78_09795	Unknown	2.7.13.3-RXN
ASC78_12820	Unknown	2-METHYLCITRATE-SYNTHASE-RXN
ASC78_14085	ligA	DNA-LIGASE-NAD+-RXN;RXN-17918;RXN-17919;RXN-17920
ASC78_01125	Unknown	BENZALDEHYDE-DEHYDROGENASE-NAD+-RXN
ASC78_22440	Unknown	PANTOTHENATE-KIN-RXN
ASC78_09845	Unknown	OHMETHYLBILANESYN-RXN
ASC78_11535	Unknown	GLUCOKIN-RXN;HEXOKINASE-RXN
ASC78_07190	obgE	RXN0-5462
ASC78_06555	Unknown	1.1.1.178-RXN
ASC78_23405	Unknown	ALLANTOINASE-RXN
ASC78_04745	Unknown	DTDPDEHYRHAMREDUCT-RXN
ASC78_08430	Unknown	DIHYDROFOLATESYNTH-RXN;FOLYLPOLYGLUTAMATESYNTH-RXN;FORMYLTHFGLUSYNTH-RXN;RXN-6341;RXN0-2921
ASC78_23015	Unknown	CHLORIDE-PEROXIDASE-RXN
ASC78_25535	fabG	3-OXOACYL-ACP-REDUCT-RXN;RXN-10060;RXN-10655;RXN-10659;RXN-11476;RXN-11480;RXN-13008;RXN-16616;RXN-16622;RXN-16626;RXN-16630;RXN-9514;RXN-9518;RXN-9524;RXN-9528;RXN-9532;RXN-9536;RXN-9540;RXN-9552;RXN-9556;RXN-9633;RXN0-2142;RXN1G-157;RXN1G-349;RXN1G-469;RXN1G-508
ASC78_06320	Unknown	2.7.13.3-RXN
ASC78_12390	Unknown	4-HYDROXYPHENYLPYRUVATE-DIOXYGENASE-RXN;RXN-10815
ASC78_05955	Unknown	DIHYDROXYISOVALDEHYDRAT-RXN;DIHYDROXYMETVALDEHYDRAT-RXN
ASC78_25300	Unknown	S-FORMYLGLUTATHIONE-HYDROLASE-RXN
ASC78_13380	Unknown	DIOHBUTANONEPSYN-RXN
ASC78_14095	Unknown	3.5.1.27-RXN;3.5.1.88-RXN
ASC78_14610	Unknown	FUMARYLACETOACETASE-RXN
ASC78_14130	Unknown	URITRANS-RXN
ASC78_11445	Unknown	3.1.1.73-RXN
ASC78_11910	Unknown	RXN0-1061
ASC78_20935	Unknown	RXNN-386
ASC78_22770	Unknown	ASPCARBTRANS-RXN
ASC78_22760	Unknown	R341-RXN;RXN-14256;RXN-14257;RXN-8769
ASC78_21020	Unknown	ACETYL-COA-ACETYLTRANSFER-RXN;METHYLACETOACETYLCOATHIOL-RXN;RXN-12561
ASC78_20140	Unknown	ACYLCOASYN-RXN;LINOLENOYL-RXN;R223-RXN;RXN-12184;RXN-12702;RXN-12746;RXN-12978;RXN-13290;RXN-13614;RXN-16380;RXN-16389;RXN-16393;RXN-16401;RXN-16402;RXN-16415;RXN-16418;RXN-7904;RXN-9623;RXN-9644;RXN-9673;RXN0-7238;RXN0-7239;RXN0-7248;RXN66-469;RXN66-477;RXN66-480;RXN66-483;RXN66-484;TRANS-RXN0-623
ASC78_15915	Unknown	5.99.1.2-RXN
ASC78_14950	Unknown	RXN0-2584
ASC78_13490	Unknown	RXN-1961
ASC78_10010	Unknown	3.2.1.52-RXN;RXN-12625;RXN-12626;RXN-18082;RXN0-5226
ASC78_11610	Unknown	ASPAMINOTRANS-RXN;RXN-10814;RXN-11737;RXN-13697
ASC78_04020	katE	CATAL-RXN;RXN-14189;RXN-8667;RXN66-1
ASC78_13515	Unknown	POLYPHOSPHATE-KINASE-RXN
ASC78_19975	Unknown	TETRAACYLDISACC4KIN-RXN
ASC78_19155	Unknown	RXN0-5462
ASC78_12790	Unknown	3-HYDROXYISOBUTYRATE-DEHYDROGENASE-RXN
ASC78_19515	Unknown	R341-RXN;RXN-14256;RXN-14257;RXN-8769
ASC78_07685	Unknown	RXN0-5268
ASC78_11135	Unknown	PEPSYNTH-RXN
ASC78_15400	Unknown	3.4.21.4-RXN;RXN-17832
ASC78_06900	ppnK	NAD-KIN-RXN
ASC78_18920	Unknown	RXN-12587;RXN-12588;RXN-14382;RXN-14385;RXN-15881;RXN-9787;RXN0-308
ASC78_06770	Unknown	PHOSGLYPHOS-RXN
ASC78_10525	Unknown	CYTOCHROME-C-OXIDASE-RXN;RXN-15830
ASC78_11400	Unknown	RXN0-5021
ASC78_16100	Unknown	AICARSYN-RXN;AMPSYN-RXN
ASC78_07690	Unknown	RXN0-5268
ASC78_07785	Unknown	2.7.13.3-RXN
ASC78_19060	Unknown	RXN0-1147
ASC78_07710	Unknown	RXN0-1483
ASC78_13485	Unknown	ACETYL-COA-CARBOXYLTRANSFER-RXN;RXN0-5055
ASC78_12130	Unknown	RXN-15740;RXN-15745;RXN0-5260
ASC78_18790	Unknown	PHOSGLYPHOS-RXN
ASC78_18115	Unknown	5.3.4.1-RXN;DISULISOM-RXN
ASC78_17705	Unknown	HISTIDPHOS-RXN
ASC78_20915	Unknown	GLYOXIII-RXN
ASC78_05590	Unknown	2.7.13.3-RXN
ASC78_03030	Unknown	6.3.5.7-RXN
ASC78_17960	Unknown	RXN0-4621
ASC78_18995	Unknown	METHENYLTHFCYCLOHYDRO-RXN;METHYLENETHFDEHYDROG-NADP-RXN
ASC78_03170	Unknown	ASPAMINOTRANS-RXN;RXN-10814;RXN-11737;RXN-13697
ASC78_24260	Unknown	2.7.13.3-RXN
ASC78_26145	Unknown	OCTAPRENYL-METHYL-METHOXY-BENZOQ-OH-RXN
ASC78_07230	Unknown	PRODISULFREDUCT-RXN;RXN0-7271
ASC78_01175	Unknown	RXN-12560;RXN-13279;RXN-5901
ASC78_15000	Unknown	ACETOACETATE--COA-LIGASE-RXN
ASC78_24760	Unknown	3.1.13.3-RXN
ASC78_10025	Unknown	LYSINE--TRNA-LIGASE-RXN
ASC78_21515	Unknown	ACYLCOADEHYDROG-RXN;RXN-17775;RXN-17779;RXN-17783;RXN-17784;RXN-17788;RXN-17792;RXN-17796
ASC78_07245	Unknown	GLUTRNAREDUCT-RXN
ASC78_09850	Unknown	UROGENIIISYN-RXN
ASC78_17460	purU	FORMYLTHFDEFORMYL-RXN
ASC78_14755	Unknown	HISTIDINE-AMMONIA-LYASE-RXN
ASC78_04630	Unknown	1.6.4.4-RXN
ASC78_07700	Unknown	2-HALOACID-DEHALOGENASE-RXN;3.8.1.11-RXN;RXN-6263;RXN-6264
ASC78_18225	Unknown	DEOXYRIBODIPYRIMIDINE-PHOTOLYASE-RXN;RXN-19025;RXN-19026;RXN-19242;RXN-19243;RXN-19244;RXN-19245;RXN-19246;RXN-19247;RXN-19248
ASC78_10070	Unknown	ASPARTATE-SEMIALDEHYDE-DEHYDROGENASE-RXN
ASC78_17750	Unknown	ACETYL-COA-ACETYLTRANSFER-RXN;METHYLACETOACETYLCOATHIOL-RXN;RXN-12561
ASC78_25700	Unknown	2-ISOPROPYLMALATESYN-RXN
ASC78_01240	Unknown	2-OXOGLUTARATE-SYNTHASE-RXN
ASC78_15560	Unknown	DARAB5PISOM-RXN
ASC78_25515	rnhA	3.1.26.4-RXN
ASC78_15125	Unknown	3-OXOACYL-ACP-REDUCT-RXN;RXN-10060;RXN-10655;RXN-10659;RXN-11476;RXN-11480;RXN-13008;RXN-16616;RXN-16622;RXN-16626;RXN-16630;RXN-9514;RXN-9518;RXN-9524;RXN-9528;RXN-9532;RXN-9536;RXN-9540;RXN-9552;RXN-9556;RXN-9633;RXN0-2142;RXN1G-157;RXN1G-349;RXN1G-469;RXN1G-508
ASC78_20705	Unknown	CYTOCHROME-C-OXIDASE-RXN;RXN-15830
ASC78_09500	Unknown	RXN0-4022
ASC78_07400	Unknown	2.7.13.3-RXN
ASC78_10475	Unknown	BIOTIN-CARBOXYL-RXN;RXN0-5055
ASC78_26270	Unknown	RIBOKIN-RXN;RXN-14223
ASC78_03630	Unknown	R4-RXN
ASC78_19015	Unknown	RXN0-1133
ASC78_20170	fabG	3-OXOACYL-ACP-REDUCT-RXN;RXN-10060;RXN-10655;RXN-10659;RXN-11476;RXN-11480;RXN-13008;RXN-16616;RXN-16622;RXN-16626;RXN-16630;RXN-9514;RXN-9518;RXN-9524;RXN-9528;RXN-9532;RXN-9536;RXN-9540;RXN-9552;RXN-9556;RXN-9633;RXN0-2142;RXN1G-157;RXN1G-349;RXN1G-469;RXN1G-508
ASC78_07455	Unknown	QUINOPRIBOTRANS-RXN
ASC78_08505	Unknown	AGMATIN-RXN
ASC78_02535	Unknown	2.7.13.3-RXN
ASC78_14925	Unknown	QOR-RXN
ASC78_16005	Unknown	3.1.4.17-RXN
ASC78_15750	Unknown	1TRANSKETO-RXN;2TRANSKETO-RXN
ASC78_20350	Unknown	DNA-DIRECTED-DNA-POLYMERASE-RXN
ASC78_24720	Unknown	1.2.7.8-RXN
ASC78_02050	Unknown	RXN-9387;RXN-9781
ASC78_09985	Unknown	3.1.26.3-RXN
ASC78_18905	Unknown	2.6.1.57-RXN;PHEAMINOTRANS-RXN;RXN-14147;RXN-15200;TRYPTOPHAN-AMINOTRANSFERASE-RXN;TYROSINE-AMINOTRANSFERASE-RXN
ASC78_03460	Unknown	RXN0-4261
ASC78_05065	Unknown	ACETYL-COA-ACETYLTRANSFER-RXN;METHYLACETOACETYLCOATHIOL-RXN;RXN-12561
ASC78_16410	Unknown	GLYOXIII-RXN
ASC78_08935	Unknown	2.7.10.1-RXN
ASC78_24510	Unknown	GMP-REDUCT-RXN
ASC78_00470	Unknown	RXN-8643;TARTRATE-DEHYDROGENASE-RXN
ASC78_21170	Unknown	FMNREDUCT-RXN;NADPH-DEHYDROGENASE-FLAVIN-RXN;RXN-12444
ASC78_09710	Unknown	2.7.9.3-RXN
ASC78_14280	Unknown	RXN1A0-6303
ASC78_12440	Unknown	4-HYDROXYPHENYLPYRUVATE-DIOXYGENASE-RXN;RXN-10815
ASC78_11310	Unknown	PHOSPHAGLYPSYN-RXN
ASC78_08910	Unknown	RXN-13179
ASC78_09480	Unknown	VALINE--TRNA-LIGASE-RXN
ASC78_06400	Unknown	3-OXOADIPATE-COA-TRANSFERASE-RXN;RXN-10085
ASC78_23830	Unknown	2.7.13.3-RXN
ASC78_16780	Unknown	RXN-9718
ASC78_01145	Unknown	1.8.1.4-RXN;2OXOGLUTARATEDEH-RXN;2OXOGLUTDECARB-RXN;RXN-7716;RXN-7719;RXN-8629;RXN0-1132;RXN0-1147
ASC78_01710	Unknown	NITRILE-HYDRATASE-RXN;R310-RXN;R313-RXN;RXN-14725;RXN-14726;RXN-17609;RXN-7567
ASC78_09195	Unknown	ATPASE-RXN
ASC78_05825	Unknown	1.2.4.4-RXN;2.3.1.168-RXN;KETOISOCAPROATE-RXN;METHYLVALERATE-RXN;RXN-7790
ASC78_15065	Unknown	ENOYL-COA-HYDRAT-RXN;METHYLACYLYLCOA-HYDROXY-RXN;RXN-10697;RXN-10704;RXN-10705;RXN-11244;RXN-12567;RXN-13616;RXN-14266;RXN-14272;RXN-14273;RXN-16135;RXN-16558;RXN-17114;RXN-17475;RXN-17776;RXN-17780;RXN-17785;RXN-17789;RXN-17793;RXN-17797;RXN-2425;RXN0-5393;TIGLYLCOA-HYDROXY-RXN
ASC78_03215	Unknown	ACYLCOADEHYDROG-RXN;RXN-17775;RXN-17779;RXN-17783;RXN-17784;RXN-17788;RXN-17792;RXN-17796
ASC78_03330	Unknown	RXN-10078;RXN-10079;RXN-9912;RXN-9914;SALICYLATE-1-MONOOXYGENASE-RXN
ASC78_01015	Unknown	KANAMYCIN-KINASE-RXN
ASC78_17665	Unknown	RXN0-299
ASC78_13795	Unknown	THIAZOLSYN2-RXN
ASC78_06860	ipk	2.7.1.148-RXN
ASC78_18375	Unknown	RXN0-299
ASC78_15085	Unknown	4-HYDROXYBENZOATE--COA-LIGASE-RXN
ASC78_09790	Unknown	ARGSUCCINLYA-RXN;RXN-22
ASC78_04045	Unknown	2.7.13.3-RXN
ASC78_17840	Unknown	GLYCERATE-DEHYDROGENASE-RXN;HYDROXYPYRUVATE-REDUCTASE-RXN;RXN0-300
ASC78_09525	Unknown	CITSYN-RXN
ASC78_01985	Unknown	HYDROXY-MANDELATE-RACEMASE-RXN;MANDELATE-RACEMASE-RXN
ASC78_13620	Unknown	2-HALOACID-DEHALOGENASE-RXN;3.8.1.11-RXN;RXN-6263;RXN-6264
ASC78_09920	Unknown	2.3.1.180-RXN
ASC78_18235	Unknown	3.1.22.4-RXN
ASC78_09105	Unknown	2.1.1.100-RXN
ASC78_00805	Unknown	DIHYDRODIPICSYN-RXN
ASC78_10345	Unknown	3-OXOACYL-ACP-REDUCT-RXN;RXN-12560;RXN-13279;RXN-5901
ASC78_14525	Unknown	DNA-DIRECTED-DNA-POLYMERASE-RXN;RXN0-4961
ASC78_15855	Unknown	4-HYDROXYPROLINE-EPIMERASE-RXN
ASC78_08805	hisG	ATPPHOSPHORIBOSYLTRANS-RXN
ASC78_24095	ggt	GAMMA-GLUTAMYLTRANSFERASE-RXN;RXN-18092;RXN-18093;RXN-6601;RXN-9157;RXN66-336
ASC78_26125	Unknown	RXN-15122;THREDEHYD-RXN
ASC78_15280	Unknown	RXN-11578
ASC78_23475	Unknown	1.2.7.8-RXN
ASC78_13115	Unknown	ALANINE--TRNA-LIGASE-RXN
ASC78_05540	Unknown	RXN0-5225
ASC78_06940	Unknown	GUANYL-KIN-RXN
ASC78_14010	Unknown	RXN0-5375
ASC78_22790	Unknown	ACYLCOASYN-RXN;LINOLENOYL-RXN;R223-RXN;RXN-12184;RXN-12702;RXN-12746;RXN-12978;RXN-13290;RXN-13614;RXN-16380;RXN-16389;RXN-16393;RXN-16401;RXN-16402;RXN-16415;RXN-16418;RXN-7904;RXN-9623;RXN-9644;RXN-9673;RXN0-7238;RXN0-7239;RXN0-7248;RXN66-469;RXN66-477;RXN66-480;RXN66-483;RXN66-484;TRANS-RXN0-623
ASC78_05685	Unknown	3.2.1.3-RXN;RXN-9024
ASC78_22170	Unknown	DIHYDROXYISOVALDEHYDRAT-RXN;DIHYDROXYMETVALDEHYDRAT-RXN
ASC78_17315	Unknown	RXN0-5375
ASC78_18245	pyrB	ASPCARBTRANS-RXN
ASC78_00375	Unknown	2.7.13.3-RXN
ASC78_25685	Unknown	ACETOLACTREDUCTOISOM-RXN;ACETOOHBUTREDUCTOISOM-RXN
ASC78_20760	Unknown	PHOSPHOKETOLASE-RXN
ASC78_21845	Unknown	ALARACECAT-RXN
ASC78_05755	Unknown	L-GLN-FRUCT-6-P-AMINOTRANS-RXN
ASC78_07305	Unknown	RXN-9235
ASC78_19925	Unknown	ENOYL-COA-HYDRAT-RXN;METHYLACYLYLCOA-HYDROXY-RXN;RXN-10697;RXN-10704;RXN-10705;RXN-11244;RXN-12567;RXN-13616;RXN-14266;RXN-14272;RXN-14273;RXN-16135;RXN-16558;RXN-17114;RXN-17475;RXN-17776;RXN-17780;RXN-17785;RXN-17789;RXN-17793;RXN-17797;RXN-2425;RXN0-5393;TIGLYLCOA-HYDROXY-RXN
ASC78_00795	Unknown	3-OXOACYL-ACP-REDUCT-RXN;RXN-10060;RXN-10655;RXN-10659;RXN-11476;RXN-11480;RXN-13008;RXN-16616;RXN-16622;RXN-16626;RXN-16630;RXN-9514;RXN-9518;RXN-9524;RXN-9528;RXN-9532;RXN-9536;RXN-9540;RXN-9552;RXN-9556;RXN-9633;RXN0-2142;RXN1G-157;RXN1G-349;RXN1G-469;RXN1G-508
ASC78_16700	Unknown	DNA-DIRECTED-RNA-POLYMERASE-RXN
ASC78_08625	Unknown	MYRISTOYLACYLTRAN-RXN
ASC78_20620	Unknown	2.7.13.3-RXN
ASC78_17845	Unknown	ACYLPHOSPHATASE-RXN
ASC78_21350	Unknown	RXN0-5268
ASC78_12620	Unknown	R4-RXN
ASC78_20895	Unknown	ALLOPHANATE-HYDROLASE-RXN
ASC78_25755	Unknown	2.7.13.3-RXN
ASC78_19820	Unknown	3-HYDROXYDECANOYL-ACP-DEHYDR-RXN
ASC78_25135	Unknown	DIHYDROFOLATEREDUCT-RXN;RXN-18357
ASC78_18775	Unknown	F16BDEPHOS-RXN
ASC78_18490	Unknown	H2NEOPTERINALDOL-RXN;RXN-10857
ASC78_13985	Unknown	ACETYLHOMOSER-CYS-RXN;O-ACETYLHOMOSERINE-THIOL-LYASE-RXN
ASC78_23955	Unknown	GSHTRAN-RXN;GST-RXN;RXN-11663;RXN-13673;RXN-15680;RXN-18405;RXN-18407;RXNQT-4363
ASC78_04615	Unknown	RXN-10642;UROGENDECARBOX-RXN
ASC78_21375	Unknown	RXN-9387;RXN-9781
ASC78_09160	Unknown	RXN-10819
ASC78_03545	Unknown	RXN0-4261
ASC78_15970	Unknown	N-ACETYLGLUTPREDUCT-RXN;RXN-15006
ASC78_24835	Unknown	H2PTERIDINEPYROPHOSPHOKIN-RXN;RXN-15733
ASC78_18270	Unknown	2.7.13.3-RXN
ASC78_12670	Unknown	1.2.1.27-RXN;RXN-11213;RXN-2902
ASC78_02745	Unknown	GLUCONOLACT-RXN;RXN-8783
ASC78_08855	Unknown	GLUCOSE-6-PHOSPHATE-1-EPIMERASE-RXN;RXN-14815;RXN-14816
ASC78_19830	Unknown	LIPIDADISACCHARIDESYNTH-RXN
ASC78_06000	Unknown	RXN-12093
ASC78_00715	gabD	RXN0-5293;SUCCINATE-SEMIALDEHYDE-DEHYDROGENASE-RXN
ASC78_24840	Unknown	POLYNUCLEOTIDE-ADENYLYLTRANSFERASE-RXN
ASC78_13060	Unknown	2.7.10.1-RXN
ASC78_07485	Unknown	L-ASPARTATE-OXID-RXN;RXN-9772
ASC78_22615	Unknown	5.3.3.10-RXN
ASC78_05595	Unknown	RXN-14480;RXN-14481;RXN0-5063
ASC78_13480	Unknown	3.2.2.21-RXN
ASC78_14995	Unknown	1.14.11.2-RXN
ASC78_11440	Unknown	5.3.4.1-RXN;DISULISOM-RXN
ASC78_03250	Unknown	GLYCPDIESTER-RXN;RXN-14073;RXN-14136;RXN-14160
ASC78_14880	Unknown	GLUTAMIN-RXN
ASC78_18310	Unknown	RXN0-299
ASC78_03715	Unknown	6PFRUCTPHOS-RXN
ASC78_24930	Unknown	ARYLFORMAMIDASE-RXN;RXN-17150
ASC78_20645	Unknown	RXN0-4261
ASC78_14125	Unknown	PHOSPHOGLUCMUT-RXN;RXN-16997;RXN-16998
ASC78_08390	Unknown	UDPNACETYLMURAMATEDEHYDROG-RXN
ASC78_03325	Unknown	FUMARYLACETOACETASE-RXN
ASC78_14520	Unknown	DTMPKI-RXN
ASC78_00265	Unknown	GLYOXIII-RXN
ASC78_19690	Unknown	3-HYDROXYBUTYRATE-DEHYDROGENASE-RXN
ASC78_03020	gatB	6.3.5.7-RXN
ASC78_22380	Unknown	AMP-NUCLEOSID-RXN
ASC78_06840	Unknown	AMINOCYL-TRNA-HYDROLASE-RXN;RXN-16637
ASC78_24890	Unknown	GLYOXIII-RXN
ASC78_06545	Unknown	ACYLCOADEHYDROG-RXN;RXN-17775;RXN-17779;RXN-17783;RXN-17784;RXN-17788;RXN-17792;RXN-17796
ASC78_15190	Unknown	LYSOPHOSPHOLIPASE-RXN;RXN-15035;RXN-19312
ASC78_05450	Unknown	2.7.13.3-RXN
ASC78_11390	Unknown	1.1.1.178-RXN
ASC78_20450	truB	TRNA-PSEUDOURIDINE-SYNTHASE-I-RXN
ASC78_11685	Unknown	1.6.99.5-RXN;NADH-DEHYDROGENASE-QUINONE-RXN
ASC78_09325	Unknown	FADSYN-RXN;RIBOFLAVINKIN-RXN;RXN-18510;RXN-18511
ASC78_18185	purH	AICARTRANSFORM-RXN;IMPCYCLOHYDROLASE-RXN
ASC78_01880	Unknown	RXN-2462
ASC78_10110	sdhB	RXN-14971;RXN-15378;SUCCINATE-DEHYDROGENASE-UBIQUINONE-RXN
ASC78_02610	Unknown	GSHTRAN-RXN;GST-RXN;RXN-11663;RXN-13673;RXN-15680;RXN-18405;RXN-18407;RXNQT-4363
ASC78_09445	Unknown	1.17.1.1-RXN
ASC78_21245	Unknown	2-NITROPROPANE-DIOXYGENASE-RXN;RXN-16322
ASC78_12070	Unknown	DEOXYGLUCONOKIN-RXN
ASC78_13645	Unknown	RXN-12263;RXN-13162;RXN-13724;RXN66-281
ASC78_05395	Unknown	UDPACYLGLCNACDEACETYL-RXN
ASC78_14305	Unknown	SERINE--GLYOXYLATE-AMINOTRANSFERASE-RXN;SERINE-GLYOXYLATE-AMINOTRANSFERASE-RXN
ASC78_25330	Unknown	3-DEHYDROQUINATE-DEHYDRATASE-RXN
ASC78_22630	Unknown	ADOMET-DMK-METHYLTRANSFER-RXN
ASC78_11975	Unknown	PEPTIDYLPROLYL-ISOMERASE-RXN
ASC78_08630	Unknown	MYRISTOYLACYLTRAN-RXN
ASC78_02715	Unknown	PROTEIN-KINASE-RXN
ASC78_09250	Unknown	GAMMA-GLUTAMYLTRANSFERASE-RXN;RXN-18092;RXN-6601;RXN-9157;RXN66-336
ASC78_10115	Unknown	R601-RXN;RXN-14963
ASC78_17095	nadE	NAD-SYNTH-GLN-RXN;NAD-SYNTH-NH3-RXN
ASC78_26625	Unknown	ATPASE-RXN
ASC78_01500	Unknown	CHLOROMALERED-RXN;MALEYLACETATE-REDUCTASE-RXN;RXN-9885;RXN-9891
ASC78_12615	Unknown	ARYLSULFAT-RXN
ASC78_19775	Unknown	RXN-12002
ASC78_05150	Unknown	RXN-9387;RXN-9781
ASC78_13720	Unknown	GLUTRACE-RXN
ASC78_23425	Unknown	RXN-7682;RXN0-901
ASC78_06930	Unknown	PPGPPSYN-RXN
ASC78_17335	Unknown	RXN0-4301
ASC78_12425	Unknown	4-CARBOXYMUCONOLACTONE-DECARBOXYLASE-RXN
ASC78_05630	Unknown	H2NEOPTERINALDOL-RXN;RXN-10857
ASC78_17190	Unknown	FMNREDUCT-RXN;NADPH-DEHYDROGENASE-FLAVIN-RXN;RXN-12444
ASC78_13725	Unknown	FUMHYDR-RXN
ASC78_26560	Unknown	2.7.13.3-RXN
ASC78_10555	Unknown	AMYLOMALT-RXN;MALTODEG-RXN;RXN-12193;RXN-12391;RXN-14260;RXN-14261;RXN-14354;RXN-1828;RXN-9023
ASC78_14890	amiE	AMIDASE-RXN;GUANIDINOBUTANAMIDE-NH3-RXN;PYRAZIN-RXN;R311-RXN;RXN-14727;RXN-14728;RXN-17608;RXNN-404
ASC78_00645	Unknown	D-AMINO-ACID-OXIDASE-RXN;RXN-8163
ASC78_12565	Unknown	5-OXOPROLINASE-ATP-HYDROLYSING-RXN
ASC78_17650	Unknown	CREATININASE-RXN
ASC78_19065	Unknown	1.8.1.4-RXN;2OXOGLUTARATEDEH-RXN;2OXOGLUTDECARB-RXN;RXN-7716;RXN-7719;RXN-8629;RXN0-1132;RXN0-1147
ASC78_20210	Unknown	NICONUCADENYLYLTRAN-RXN
ASC78_11495	Unknown	GSHTRAN-RXN;GST-RXN;RXN-11663;RXN-13673;RXN-15680;RXN-18405;RXN-18407;RXNQT-4363
ASC78_06130	Unknown	RXN0-1382
ASC78_17890	Unknown	ACETYLPUTRESCINE-DEACETYLASE-RXN
ASC78_14060	Unknown	1-PHOSPHATIDYLINOSITOL-KINASE-RXN
ASC78_18580	Unknown	2.3.1.101-RXN
ASC78_18870	Unknown	2.8.1.6-RXN;RXN-17472;RXN-17473
ASC78_20275	Unknown	RXN0-1241
ASC78_24380	Unknown	3.1.11.6-RXN
ASC78_02215	Unknown	KDUD-RXN
ASC78_06700	Unknown	2.7.13.3-RXN
ASC78_25365	Unknown	PEPTIDYLPROLYL-ISOMERASE-RXN
ASC78_23585	Unknown	NUCLEOSIDE-DEOXYRIBOSYLTRANSFERASE-RXN
ASC78_12755	Unknown	RXNI-2
ASC78_25690	Unknown	PHOSPHASERSYN-RXN
ASC78_01675	Unknown	1.3.99.16-RXN
ASC78_05405	Unknown	CDPDIGLYSYN-RXN;RXN0-5515
ASC78_07680	Unknown	RXN0-5268
ASC78_19910	Unknown	ACYLCOADEHYDROG-RXN;RXN-17775;RXN-17779;RXN-17783;RXN-17784;RXN-17788;RXN-17792;RXN-17796
ASC78_00300	Unknown	RXN-11989;RXN-11999
ASC78_16585	Unknown	QUEUOSINE-TRNA-RIBOSYLTRANSFERASE-RXN;RXN0-1321
ASC78_20710	Unknown	CYTOCHROME-C-OXIDASE-RXN;RXN-15830
ASC78_00185	Unknown	3.6.1.41-RXN
ASC78_19050	prpE	PROPIONATE--COA-LIGASE-RXN
ASC78_01830	Unknown	GAMMA-GLUTAMYLTRANSFERASE-RXN;RXN-18092;RXN-6601;RXN-9157;RXN66-336
ASC78_05900	Unknown	GLUCONOLACT-RXN;RXN-8783
ASC78_11880	Unknown	RXN0-5100
ASC78_08400	Unknown	ARGSUCCINSYN-RXN;RXN-10
ASC78_18795	Unknown	F16ALDOLASE-RXN;RXN-10053;RXN-8631
ASC78_14140	Unknown	FGAMSYN-RXN
ASC78_06115	Unknown	OXALYL-COA-DECARBOXYLASE-RXN
ASC78_04010	Unknown	2.3.2.13-RXN;RXN-19236
ASC78_07470	Unknown	RXN0-6575
ASC78_17110	Unknown	DNA-LIGASE-ATP-RXN;RXN-17917;RXN-17918;RXN-17919
ASC78_04365	Unknown	ANTHRANSYN-RXN
ASC78_03245	Unknown	ACETYLORNDEACET-RXN;RXN-7933
ASC78_14425	Unknown	1.1.1.264-RXN;L-IDONATE-2-DEHYDROGENASE-RXN;RXN-12107
ASC78_03220	Unknown	DIENOYLCOAREDUCT-RXN;RXN-12521;RXN-14715;RXN-14776;RXN-14790;RXN-7835;RXN-7911
ASC78_18815	Unknown	CATAL-RXN;RXN-8667
ASC78_18405	Unknown	2.7.13.3-RXN
ASC78_24695	Unknown	ACETYL-COA-ACETYLTRANSFER-RXN;METHYLACETOACETYLCOATHIOL-RXN;RXN-12561
ASC78_02790	Unknown	ALARACECAT-RXN
ASC78_01405	Unknown	ACETYL-COA-ACETYLTRANSFER-RXN;METHYLACETOACETYLCOATHIOL-RXN;RXN-12561
ASC78_20125	Unknown	RXN-17155
ASC78_06750	Unknown	ALLOPHANATE-HYDROLASE-RXN
ASC78_09350	Unknown	1.3.1.62-RXN
ASC78_01570	Unknown	RXN-10078;RXN-10079;RXN-9912;RXN-9914;SALICYLATE-1-MONOOXYGENASE-RXN
ASC78_16860	Unknown	1.11.1.15-RXN;RXN0-5468
ASC78_24525	Unknown	2.7.13.3-RXN
ASC78_12775	Unknown	1.2.1.27-RXN;RXN-11213;RXN-2902
ASC78_09930	fabG	3-OXOACYL-ACP-REDUCT-RXN;RXN-10060;RXN-10655;RXN-10659;RXN-11476;RXN-11480;RXN-13008;RXN-16616;RXN-16622;RXN-16626;RXN-16630;RXN-9514;RXN-9518;RXN-9524;RXN-9528;RXN-9532;RXN-9536;RXN-9540;RXN-9552;RXN-9556;RXN-9633;RXN0-2142;RXN1G-157;RXN1G-349;RXN1G-469;RXN1G-508
ASC78_13125	Unknown	RXN-15849;RXN-7563
ASC78_05370	murC	UDP-NACMUR-ALA-LIG-RXN
ASC78_06670	Unknown	HEMEOSYN-RXN
ASC78_17150	Unknown	ISOCHORMAT-RXN
ASC78_05310	Unknown	3.4.25.1-RXN
ASC78_13155	Unknown	2.7.13.3-RXN
ASC78_10170	acnA	ACONITATEDEHYDR-RXN;ACONITATEHYDR-RXN;RXN-14047
ASC78_14810	Unknown	ATPASE-RXN
ASC78_02835	Unknown	5.3.3.10-RXN
ASC78_02275	Unknown	RXN0-299
ASC78_26510	Unknown	ATPASE-RXN
ASC78_26485	Unknown	1.11.1.15-RXN;RXN0-5468
ASC78_13495	Unknown	ASPARTATEKIN-RXN
ASC78_08240	Unknown	PHOSACETYLTRANS-RXN
ASC78_11865	Unknown	RXN-12104
ASC78_06740	Unknown	PANTEPADENYLYLTRAN-RXN
ASC78_18190	Unknown	GSAAMINOTRANS-RXN
ASC78_15510	Unknown	DNA-DIRECTED-DNA-POLYMERASE-RXN
ASC78_14535	Unknown	3.1.21.1-RXN
ASC78_23205	Unknown	RXN-10137;RXN-17556
ASC78_12825	prpD	2-METHYLCITRATE-DEHYDRATASE-RXN
ASC78_20850	Unknown	FMNREDUCT-RXN;NADPH-DEHYDROGENASE-FLAVIN-RXN;RXN-12444
ASC78_08870	Unknown	HISTPRATPHYD-RXN
ASC78_12420	Unknown	5.5.1.2-RXN
ASC78_08120	Unknown	RXN0-305
ASC78_00695	Unknown	THRESYN-RXN
ASC78_24770	Unknown	RXN-13908;RXN-7908
ASC78_16425	Unknown	PEPDEPHOS-RXN;RXN-14117;RXN-14192;RXN-14207
ASC78_13955	Unknown	FMNREDUCT-RXN;NADPH-DEHYDROGENASE-FLAVIN-RXN;RXN-12444
ASC78_03915	Unknown	PGPPHOSPHA-RXN;RXN-13313
ASC78_18470	Unknown	3.5.4.27-RXN
ASC78_25465	Unknown	DNA-DIRECTED-DNA-POLYMERASE-RXN
ASC78_22995	Unknown	6-CARBOXYHEXANOATE--COA-LIGASE-RXN
ASC78_05035	Unknown	ACYLCOASYN-RXN;LINOLENOYL-RXN;R223-RXN;RXN-12184;RXN-12702;RXN-12746;RXN-12978;RXN-13290;RXN-13614;RXN-16380;RXN-16389;RXN-16393;RXN-16401;RXN-16402;RXN-16415;RXN-16418;RXN-7904;RXN-9623;RXN-9644;RXN-9673;RXN0-7238;RXN0-7239;RXN0-7248;RXN66-469;RXN66-477;RXN66-480;RXN66-483;RXN66-484;TRANS-RXN0-623
ASC78_07755	Unknown	PEPTIDYLPROLYL-ISOMERASE-RXN
ASC78_10155	Unknown	ACONITATEDEHYDR-RXN;ACONITATEHYDR-RXN;RXN-14047
ASC78_16480	Unknown	AIRCARBOXY-RXN
ASC78_11290	Unknown	RXN-8643;TARTRATE-DEHYDROGENASE-RXN
ASC78_06800	Unknown	AMIDASE-RXN;GUANIDINOBUTANAMIDE-NH3-RXN;PYRAZIN-RXN;R311-RXN;RXN-14727;RXN-14728;RXN-17608;RXNN-404
ASC78_17390	Unknown	ARGINASE-RXN;RXN-34
ASC78_17595	Unknown	RXN-13907;RXN-14206;RXN66-569
ASC78_01055	Unknown	4.1.1.77-RXN
ASC78_00820	Unknown	1.5.1.9-RXN
ASC78_05745	Unknown	2.3.1.157-RXN
ASC78_16730	Unknown	ENOYL-COA-HYDRAT-RXN;METHYLACYLYLCOA-HYDROXY-RXN;RXN-10697;RXN-10704;RXN-10705;RXN-11244;RXN-12567;RXN-13616;RXN-14266;RXN-14272;RXN-14273;RXN-16135;RXN-16558;RXN-17114;RXN-17475;RXN-17776;RXN-17780;RXN-17785;RXN-17789;RXN-17793;RXN-17797;RXN-2425;RXN0-5393;TIGLYLCOA-HYDROXY-RXN
ASC78_19165	Unknown	RXN0-5462
ASC78_04840	Unknown	UDPGLUCEPIM-RXN
ASC78_15230	Unknown	ADENYLATECYC-RXN
ASC78_19900	glmM	5.4.2.10-RXN;RXN-16424;RXN0-7139
ASC78_20040	Unknown	CYTDEAM-RXN;RXN-14129;RXN-14197
ASC78_18135	Unknown	RIBOKIN-RXN;RXN-14223
ASC78_01560	Unknown	NAPHTHALENE-12-DIOXYGENASE-RXN
ASC78_03475	mnmA	RXN0-2023
ASC78_19045	Unknown	ISOCHORMAT-RXN
ASC78_22050	Unknown	PMPOXI-RXN;PNPOXI-RXN
ASC78_02085	Unknown	DNA-DIRECTED-DNA-POLYMERASE-RXN
ASC78_02630	Unknown	GABATRANSAM-RXN;RXN-2901
ASC78_03495	Unknown	PYRNUTRANSHYDROGEN-RXN;TRANS-RXN0-277
ASC78_16530	Unknown	OROTPDECARB-RXN
ASC78_11920	Unknown	ATPASE-RXN
ASC78_13925	Unknown	RXN-8668
ASC78_14740	Unknown	IMIDAZOLONEPROPIONASE-RXN
ASC78_06875	Unknown	3.2.2.23-RXN;RXN-18435
ASC78_11830	Unknown	RXN0-6274
ASC78_01380	Unknown	3-OXOACYL-ACP-REDUCT-RXN;RXN-10060;RXN-10655;RXN-10659;RXN-11476;RXN-11480;RXN-13008;RXN-16616;RXN-16622;RXN-16626;RXN-16630;RXN-9514;RXN-9518;RXN-9524;RXN-9528;RXN-9532;RXN-9536;RXN-9540;RXN-9552;RXN-9556;RXN-9633;RXN0-2142;RXN1G-157;RXN1G-349;RXN1G-469;RXN1G-508
ASC78_26265	Unknown	TRANSALDOL-RXN
ASC78_15370	Unknown	RXN0-5462
ASC78_03500	Unknown	NAD-SYNTH-GLN-RXN;NAD-SYNTH-NH3-RXN
ASC78_23440	Unknown	SUCCINATE-SEMIALDEHYDE-DEHYDROGENASE-RXN
ASC78_09095	Unknown	3.5.1.81-RXN
ASC78_07520	Unknown	ISOCITRATE-DEHYDROGENASE-NAD+-RXN
ASC78_16990	Unknown	RXN-14950;RXN-14957;RXN-14959;RXN0-949
ASC78_11345	Unknown	RXN0-5100
ASC78_22265	Unknown	GLYCPDIESTER-RXN;RXN-14073;RXN-14136;RXN-14160
ASC78_24105	Unknown	GPH-RXN
ASC78_19055	sucA	2-KETO-ADIPATE-DEHYDROG-RXN;2OXOGLUTARATEDEH-RXN;2OXOGLUTDECARB-RXN;RXN-7716;RXN0-1147
ASC78_20295	Unknown	SUCCINYLDIAMINOPIMTRANS-RXN
ASC78_11820	Unknown	4.3.1.17-RXN;RXN-15122;RXN-15125;THREDEHYD-RXN
ASC78_15300	Unknown	GSHTRAN-RXN;GST-RXN;RXN-11663;RXN-13673;RXN-15680;RXN-18405;RXN-18407;RXNQT-4363
ASC78_14325	Unknown	PMPOXI-RXN;PNPOXI-RXN
ASC78_01715	Unknown	NITRILE-HYDRATASE-RXN;R310-RXN;R313-RXN;RXN-14725;RXN-14726;RXN-17609;RXN-7567
ASC78_05690	Unknown	RXN1G-1435;RXN1G-1436;RXN1G-1437;RXN1G-1438;RXN1G-1439;TREHALOSEPHOSPHA-RXN
ASC78_20045	Unknown	ADENYLYLSULFKIN-RXN
ASC78_14220	Unknown	ACETYL-COA-ACETYLTRANSFER-RXN;METHYLACETOACETYLCOATHIOL-RXN;RXN-12561
ASC78_19025	Unknown	1.8.1.4-RXN;2OXOGLUTARATEDEH-RXN;2OXOGLUTDECARB-RXN;RXN-7716;RXN-7719;RXN-8629;RXN0-1132;RXN0-1147
ASC78_03600	glgC	GLUC1PADENYLTRANS-RXN
ASC78_23300	Unknown	ALKAPHOSPHA-RXN;RXN-5822;RXN-8748
ASC78_25195	Unknown	ACETYLHOMOSER-CYS-RXN;O-ACETYLHOMOSERINE-THIOL-LYASE-RXN
ASC78_16740	Unknown	RXN-11740
ASC78_16955	Unknown	4-COUMARATE--COA-LIGASE-RXN;RXN-10919;RXN-1122;RXN-1126
ASC78_06490	Unknown	GUANYLCYC-RXN
ASC78_15155	Unknown	6.2.1.34-RXN
ASC78_09870	Unknown	RXN-11838
ASC78_10375	Unknown	ACYLCOADEHYDROG-RXN;RXN-17775;RXN-17779;RXN-17783;RXN-17784;RXN-17788;RXN-17792;RXN-17796
ASC78_03665	Unknown	GLUTCYSLIG-RXN
ASC78_23260	Unknown	RXN-8643;TARTRATE-DEHYDROGENASE-RXN
ASC78_19835	Unknown	3.1.26.4-RXN
ASC78_12495	Unknown	GCVP-RXN
ASC78_19600	Unknown	DMBPPRIBOSYLTRANS-RXN;RXN-19295;RXN-19298;RXN-19299;RXN-19300;RXN-19301;RXN-19306
ASC78_20720	Unknown	CYTOCHROME-C-OXIDASE-RXN;RXN-15830
ASC78_18745	rbcL	RIBULOSE-BISPHOSPHATE-CARBOXYLASE-RXN
ASC78_12075	Unknown	GLYCERATE-DEHYDROGENASE-RXN;GLYOXYLATE-REDUCTASE-NADP+-RXN;HYDROXYPYRUVATE-REDUCTASE-RXN
ASC78_10965	Unknown	RXN-982
ASC78_15315	Unknown	12-OXOPHYTODIENOATE-REDUCTASE-RXN
ASC78_21880	Unknown	HOLO-ACP-SYNTH-RXN
ASC78_25380	Unknown	6PGLUCONOLACT-RXN
ASC78_01195	Unknown	2.7.13.3-RXN
ASC78_09270	Unknown	NQOR-RXN
ASC78_14225	Unknown	ACYLCOADEHYDROG-RXN;RXN-17775;RXN-17779;RXN-17783;RXN-17784;RXN-17788;RXN-17792;RXN-17796
ASC78_12220	Unknown	2.3.2.13-RXN;RXN-19236
ASC78_13920	Unknown	F16ALDOLASE-RXN;RXN-8631
ASC78_06630	Unknown	CYTOCHROME-C-OXIDASE-RXN;RXN-15830
ASC78_22915	Unknown	PROTEIN-KINASE-RXN
ASC78_21250	Unknown	5.1.99.4-RXN;RXN-17645;RXN-9797;RXN-9845
ASC78_18175	Unknown	RXN0-1281
ASC78_05095	Unknown	AMIDASE-RXN;GUANIDINOBUTANAMIDE-NH3-RXN;PYRAZIN-RXN;R311-RXN;RXN-14727;RXN-14728;RXN-17608;RXNN-404
ASC78_15430	Unknown	FMNREDUCT-RXN;NADPH-DEHYDROGENASE-FLAVIN-RXN;RXN-12444
ASC78_03405	Unknown	RXN1A0-6303
ASC78_16575	Unknown	3-OXOACYL-ACP-REDUCT-RXN;RXN-10060;RXN-10655;RXN-10659;RXN-11476;RXN-11480;RXN-13008;RXN-16616;RXN-16622;RXN-16626;RXN-16630;RXN-9514;RXN-9518;RXN-9524;RXN-9528;RXN-9532;RXN-9536;RXN-9540;RXN-9552;RXN-9556;RXN-9633;RXN0-2142;RXN1G-157;RXN1G-349;RXN1G-469;RXN1G-508
ASC78_09685	Unknown	RXN0-2281
ASC78_02890	Unknown	BRANCHED-CHAINAMINOTRANSFERILEU-RXN;BRANCHED-CHAINAMINOTRANSFERLEU-RXN;BRANCHED-CHAINAMINOTRANSFERVAL-RXN
ASC78_20675	Unknown	DETHIOBIOTIN-SYN-RXN
ASC78_13360	Unknown	3.1.2.23-RXN
ASC78_05400	Unknown	3.1.22.4-RXN
ASC78_20750	Unknown	2.7.13.3-RXN
ASC78_01550	Unknown	FUMARYLACETOACETASE-RXN
ASC78_07675	Unknown	CYTOCHROME-C-OXIDASE-RXN;RXN-15830
ASC78_19070	Unknown	ATPASE-RXN
ASC78_03025	Unknown	6.3.5.7-RXN
ASC78_24035	Unknown	3.1.11.2-RXN
ASC78_00790	Unknown	HYDROXY-MANDELATE-RACEMASE-RXN;MANDELATE-RACEMASE-RXN
ASC78_14145	Unknown	PEPTIDYLPROLYL-ISOMERASE-RXN
ASC78_08720	Unknown	DGTPTRIPHYDRO-RXN
ASC78_04390	Unknown	RXN0-2584
ASC78_11270	Unknown	PHOSGLYPHOS-RXN
ASC78_18500	Unknown	RXN-10029
ASC78_12780	Unknown	ACYLCOADEHYDROG-RXN;RXN-17775;RXN-17779;RXN-17783;RXN-17784;RXN-17788;RXN-17792;RXN-17796
ASC78_08190	Unknown	RXN1A0-6303
ASC78_03860	Unknown	2.7.13.3-RXN
ASC78_01355	Unknown	1.2.7.8-RXN
ASC78_16455	Unknown	F16ALDOLASE-RXN;RXN-10053;RXN-8631
ASC78_15730	Unknown	GLYCPDIESTER-RXN;RXN-14073;RXN-14136;RXN-14160
ASC78_26620	Unknown	ATPASE-RXN
ASC78_16525	Unknown	RXN0-2584
ASC78_11620	Unknown	2.7.7.8-RXN
ASC78_20670	Unknown	7KAPSYN-RXN;RXN-11484
ASC78_21520	Unknown	3-OXOACYL-ACP-REDUCT-RXN;RXN-10060;RXN-10655;RXN-10659;RXN-11476;RXN-11480;RXN-13008;RXN-16616;RXN-16622;RXN-16626;RXN-16630;RXN-9514;RXN-9518;RXN-9524;RXN-9528;RXN-9532;RXN-9536;RXN-9540;RXN-9552;RXN-9556;RXN-9633;RXN0-2142;RXN1G-157;RXN1G-349;RXN1G-469;RXN1G-508
ASC78_12655	Unknown	PEPTIDYLPROLYL-ISOMERASE-RXN
ASC78_09205	Unknown	3.1.21.1-RXN
ASC78_09260	Unknown	3-OXOACYL-ACP-REDUCT-RXN;RXN-10060;RXN-10655;RXN-10659;RXN-11476;RXN-11480;RXN-13008;RXN-16616;RXN-16622;RXN-16626;RXN-16630;RXN-9514;RXN-9518;RXN-9524;RXN-9528;RXN-9532;RXN-9536;RXN-9540;RXN-9552;RXN-9556;RXN-9633;RXN0-2142;RXN1G-157;RXN1G-349;RXN1G-469;RXN1G-508
ASC78_10490	Unknown	2.7.13.3-RXN
ASC78_05905	Unknown	3-OXOACYL-ACP-REDUCT-RXN;RXN-10060;RXN-10655;RXN-10659;RXN-11476;RXN-11480;RXN-13008;RXN-16616;RXN-16622;RXN-16626;RXN-16630;RXN-9514;RXN-9518;RXN-9524;RXN-9528;RXN-9532;RXN-9536;RXN-9540;RXN-9552;RXN-9556;RXN-9633;RXN0-2142;RXN1G-157;RXN1G-349;RXN1G-469;RXN1G-508
ASC78_10485	Unknown	ISOCHORMAT-RXN
ASC78_17710	Unknown	RXN-9591
ASC78_08480	Unknown	GABATRANSAM-RXN;RXN-2901
ASC78_01360	Unknown	2-DEHYDROPANTOATE-REDUCT-RXN
ASC78_19930	Unknown	3-HYDROXYBUTYRYL-COA-DEHYDROGENASE-RXN
ASC78_20695	Unknown	ATPASE-RXN
ASC78_24485	Unknown	HOMOSERKIN-RXN
ASC78_09395	Unknown	THIOREDOXIN-REDUCT-NADPH-RXN
ASC78_17760	Unknown	CARBODEHYDRAT-RXN;RXN0-5224
ASC78_05645	Unknown	RXN0-299
ASC78_01705	Unknown	NITRILE-HYDRATASE-RXN;R310-RXN;R313-RXN;RXN-14725;RXN-14726;RXN-17609;RXN-7567
ASC78_00700	Unknown	HOMOSERKIN-RXN
ASC78_05420	Unknown	RXN-16650
ASC78_04275	Unknown	ADOMET-DMK-METHYLTRANSFER-RXN
ASC78_00990	Unknown	FMNREDUCT-RXN;NADPH-DEHYDROGENASE-FLAVIN-RXN;RXN-12444
ASC78_01050	Unknown	2-OXOPENT-4-ENOATE-HYDRATASE-RXN;RXN-10381
ASC78_13840	Unknown	RXN-12720;SULFATE-ADENYLYLTRANS-RXN
ASC78_09460	Unknown	ACSERLY-RXN;RXN-12726
ASC78_22355	Unknown	GSHTRAN-RXN;GST-RXN;RXN-11663;RXN-13673;RXN-15680;RXN-18405;RXN-18407;RXNQT-4363
ASC78_24090	Unknown	RXN-11833
ASC78_17970	Unknown	TYROSINE--TRNA-LIGASE-RXN
ASC78_06445	Unknown	ORNITHINE-CYCLODEAMINASE-RXN
ASC78_18615	Unknown	3.4.11.5-RXN
ASC78_20390	Unknown	LYSDECARBOX-RXN
ASC78_18860	Unknown	2.1.3.1-RXN
ASC78_10585	Unknown	GLYCOGEN-BRANCH-RXN;RXN-14371;RXN-14372;RXN-18777;RXN-7669;RXN-7710
ASC78_04345	Unknown	GPH-RXN
ASC78_19795	Unknown	DXPREDISOM-RXN
ASC78_20900	Unknown	ACETYL-COA-CARBOXYLTRANSFER-RXN;BIOTIN-CARBOXYL-RXN
ASC78_22310	Unknown	1.11.1.15-RXN;RXN0-5468
ASC78_20205	Unknown	RXN0-1461
ASC78_04910	Unknown	ACYLCOADEHYDROG-RXN;RXN-17775;RXN-17779;RXN-17783;RXN-17784;RXN-17788;RXN-17792;RXN-17796
ASC78_02860	Unknown	FUMARYLACETOACETASE-RXN
ASC78_24620	Unknown	3.1.2.23-RXN
ASC78_06735	Unknown	RXN0-6515
ASC78_25950	Unknown	RXN-17131;RXN-17132;RXN-17133
ASC78_02320	Unknown	HYDROXY-MANDELATE-RACEMASE-RXN;MANDELATE-RACEMASE-RXN
ASC78_10245	Unknown	ACETOLACTSYN-RXN;ACETOOHBUTSYN-RXN
ASC78_23400	Unknown	ALLANTOATE-DEIMINASE-RXN
ASC78_25625	Unknown	INORGPYROPHOSPHAT-RXN
ASC78_00920	Unknown	3-OXOACYL-ACP-REDUCT-RXN;RXN-10060;RXN-10655;RXN-10659;RXN-11476;RXN-11480;RXN-13008;RXN-16616;RXN-16622;RXN-16626;RXN-16630;RXN-9514;RXN-9518;RXN-9524;RXN-9528;RXN-9532;RXN-9536;RXN-9540;RXN-9552;RXN-9556;RXN-9633;RXN0-2142;RXN1G-157;RXN1G-349;RXN1G-469;RXN1G-508
ASC78_00510	Unknown	GLYCERATE-DEHYDROGENASE-RXN;HYDROXYPYRUVATE-REDUCTASE-RXN;RXN0-300
ASC78_10670	Unknown	RXN-982
ASC78_22395	Unknown	2-DEHYDROPANTOATE-REDUCT-RXN
ASC78_23930	Unknown	GLUTCYSLIG-RXN
ASC78_10325	Unknown	HOMOSERDEHYDROG-RXN
ASC78_11955	Unknown	RXN-11781
ASC78_02805	Unknown	2-DEHYDROPANTOATE-REDUCT-RXN
ASC78_25085	Unknown	RXN-13179
ASC78_07765	Unknown	RXN-15122;THREDEHYD-RXN
ASC78_07195	Unknown	GLUTKIN-RXN
ASC78_01390	Unknown	ACETYL-COA-ACETYLTRANSFER-RXN;METHYLACETOACETYLCOATHIOL-RXN;RXN-12561
ASC78_00985	Unknown	2PGADEHYDRAT-RXN
ASC78_13790	Unknown	RXN-12610;RXN-12611;THI-P-SYN-RXN
ASC78_16125	Unknown	R4-RXN
ASC78_24780	Unknown	HISTAMINOTRANS-RXN
ASC78_01060	Unknown	RXN-8529
ASC78_04515	Unknown	GLUCONOLACT-RXN;RXN-8783
ASC78_23940	Unknown	3.1.1.64-RXN;CARBOXYLESTERASE-RXN;RETINYL-PALMITATE-ESTERASE-RXN;RXN-10711;RXN-10767;RXN-12252;RXN-12575;RXNQT-4366
ASC78_16105	Unknown	GSHTRAN-RXN;GST-RXN;RXN-11663;RXN-13673;RXN-15680;RXN-18405;RXN-18407;RXNQT-4363
ASC78_10060	Unknown	TRNA-PSEUDOURIDINE-SYNTHASE-I-RXN
ASC78_01085	Unknown	DIHYDROFOLATEREDUCT-RXN;RXN-18357
ASC78_01400	Unknown	ACYLCOADEHYDROG-RXN;RXN-17775;RXN-17779;RXN-17783;RXN-17784;RXN-17788;RXN-17792;RXN-17796
ASC78_06160	Unknown	PEPDEPHOS-RXN;RXN-14117;RXN-14192;RXN-14207
ASC78_25315	Unknown	GSHTRAN-RXN;GST-RXN;RXN-11663;RXN-13673;RXN-15680;RXN-18405;RXN-18407;RXNQT-4363
ASC78_04110	Unknown	PROTEIN-KINASE-RXN
ASC78_07975	Unknown	3.4.17.11-RXN
ASC78_21260	Unknown	ACYLCOADEHYDROG-RXN;RXN-17775;RXN-17779;RXN-17783;RXN-17784;RXN-17788;RXN-17792;RXN-17796
ASC78_18240	Unknown	URACIL-PRIBOSYLTRANS-RXN
ASC78_04705	Unknown	2-AMINOADIPATE-AMINOTRANSFERASE-RXN
ASC78_23960	Unknown	ENOYL-COA-HYDRAT-RXN;METHYLACYLYLCOA-HYDROXY-RXN;RXN-10697;RXN-10704;RXN-10705;RXN-11244;RXN-12567;RXN-13616;RXN-14266;RXN-14272;RXN-14273;RXN-16135;RXN-16558;RXN-17114;RXN-17475;RXN-17776;RXN-17780;RXN-17785;RXN-17789;RXN-17793;RXN-17797;RXN-2425;RXN0-5393;TIGLYLCOA-HYDROXY-RXN
ASC78_25695	Unknown	2-ISOPROPYLMALATESYN-RXN
ASC78_10040	Unknown	ACETYL-COA-CARBOXYLTRANSFER-RXN;RXN0-5055
ASC78_18785	Unknown	1TRANSKETO-RXN;2TRANSKETO-RXN
ASC78_19475	Unknown	4.99.1.7-RXN
ASC78_22080	Unknown	4OH2OXOGLUTARALDOL-RXN;KDPGALDOL-RXN
ASC78_13310	Unknown	FMNREDUCT-RXN;NADPH-DEHYDROGENASE-FLAVIN-RXN;RXN-12444
ASC78_20200	Unknown	GLYRIBONUCSYN-RXN
ASC78_11105	Unknown	RXN0-4261
ASC78_19565	Unknown	1.11.1.15-RXN;RXN0-5468
ASC78_20290	Unknown	TETHYDPICSUCC-RXN
ASC78_24240	Unknown	ATPASE-RXN
ASC78_25720	Unknown	LEUCYLTRANSFERASE-RXN;RXN-17846;RXN-17847;RXN-17848
ASC78_21085	Unknown	1.2.99.7-RXN
ASC78_11090	Unknown	GLYOXIII-RXN
ASC78_09875	Unknown	2-HALOACID-DEHALOGENASE-RXN;3.8.1.11-RXN;RXN-6263;RXN-6264
ASC78_00305	Unknown	NITRIC-OXIDE-SYNTHASE-RXN;RXN-13564;RXN-13565
ASC78_08715	Unknown	3-DEHYDROQUINATE-SYNTHASE-RXN
ASC78_11705	Unknown	1.6.99.5-RXN;NADH-DEHYDROGENASE-QUINONE-RXN
ASC78_13845	Unknown	RXN-12720;SULFATE-ADENYLYLTRANS-RXN
ASC78_02595	Unknown	RXN-2463
ASC78_06615	Unknown	2.8.1.6-RXN;RXN-17472;RXN-17473
ASC78_07150	Unknown	DEPHOSPHOCOAKIN-RXN
ASC78_19665	Unknown	2.7.7.60-RXN
ASC78_21150	Unknown	GLYOXIII-RXN
ASC78_03685	Unknown	GLUTATHIONE-SYN-RXN
ASC78_01020	Unknown	PGLYCDEHYDROG-RXN
ASC78_05375	Unknown	DALADALALIG-RXN
ASC78_17465	Unknown	2.6.1.18-RXN
ASC78_04975	Unknown	AMIDASE-RXN;GUANIDINOBUTANAMIDE-NH3-RXN;PYRAZIN-RXN;R311-RXN;RXN-14727;RXN-14728;RXN-17608;RXNN-404
ASC78_15705	Unknown	R601-RXN;RXN-14963
ASC78_17745	Unknown	GLY-X-CARBOXYPEPTIDASE-RXN
ASC78_24895	Unknown	2.3.2.13-RXN;RXN-19236
ASC78_18950	Unknown	RXN0-4961
ASC78_19120	Unknown	RXN-11586
ASC78_10675	Unknown	FMNREDUCT-RXN;NADPH-DEHYDROGENASE-FLAVIN-RXN;RXN-12444
ASC78_02390	Unknown	ACYLCOADEHYDROG-RXN;RXN-17775;RXN-17779;RXN-17783;RXN-17784;RXN-17788;RXN-17792;RXN-17796
ASC78_11785	Unknown	3-NUCLEOTID-RXN;5-NUCLEOTID-RXN;AMP-DEPHOSPHORYLATION-RXN;CYCPHOSDIESTER-RXN;RXN-14025;RXN-14026;RXN-14064;RXN-14090;RXN-14091;RXN-14112;RXN-14113;RXN-14115;RXN-14124;RXN-14126;RXN-14227;RXN-5841;RXN-7607;RXN-7609;XMPXAN-RXN
ASC78_06850	Unknown	PRPPSYN-RXN
ASC78_00905	Unknown	ASPAMINOTRANS-RXN;RXN-10814;RXN-11737;RXN-13697
ASC78_19215	Unknown	ARYLESTERASE-RXN
ASC78_15075	Unknown	RXN-8846
ASC78_18575	Unknown	FORMYLMETHANOFURAN-DEHYDROGENASE-RXN
ASC78_20995	Unknown	3-ISOPROPYLMALISOM-RXN;RXN-13163;RXN-8991
ASC78_09940	Unknown	2.3.1.179-RXN;2.3.1.41-RXN;3-OXOACYL-ACP-SYNTH-BASE-RXN;3-OXOACYL-ACP-SYNTH-RXN;RXN-10654;RXN-10658;RXN-11474;RXN-11479;RXN-16615;RXN-16621;RXN-16625;RXN-16629;RXN-8391;RXN-9516;RXN-9523;RXN-9527;RXN-9531;RXN-9535;RXN-9539;RXN0-2141;RXN1G-460;RXN3O-1803
ASC78_12940	Unknown	GLYOXIII-RXN
ASC78_10560	Unknown	3.2.1.141-RXN
ASC78_04535	Unknown	AMIDASE-RXN;GUANIDINOBUTANAMIDE-NH3-RXN;PYRAZIN-RXN;R311-RXN;RXN-14727;RXN-14728;RXN-17608;RXNN-404
ASC78_04660	Unknown	3-OXOACYL-ACP-REDUCT-RXN;RXN-10060;RXN-10655;RXN-10659;RXN-11476;RXN-11480;RXN-13008;RXN-16616;RXN-16622;RXN-16626;RXN-16630;RXN-9514;RXN-9518;RXN-9524;RXN-9528;RXN-9532;RXN-9536;RXN-9540;RXN-9552;RXN-9556;RXN-9633;RXN0-2142;RXN1G-157;RXN1G-349;RXN1G-469;RXN1G-508
ASC78_08360	Unknown	RXN1A0-6303
ASC78_14820	Unknown	4.1.1.32-RXN;RXN-12481
ASC78_02205	Unknown	1.13.11.41-RXN
ASC78_13250	Unknown	DTDPGLUCDEHYDRAT-RXN
ASC78_05700	Unknown	GSHTRAN-RXN;GST-RXN;RXN-11663;RXN-13673;RXN-15680;RXN-18405;RXN-18407;RXNQT-4363
ASC78_17830	Unknown	METHYLCROTONYL-COA-CARBOXYLASE-RXN
ASC78_03965	Unknown	ISOCHORMAT-RXN
ASC78_07205	Unknown	RXN0-5510
ASC78_11490	Unknown	HOMOCYSMET-RXN;HOMOCYSMETB12-RXN
ASC78_23655	Unknown	MYO-INOSITOL-1OR-4-MONOPHOSPHATASE-RXN;RXN-7253;RXN0-5408
ASC78_11965	Unknown	DUTP-PYROP-RXN
ASC78_10005	Unknown	HOLO-ACP-SYNTH-RXN
ASC78_10650	Unknown	3.1.11.2-RXN
ASC78_13080	Unknown	HOLO-ACP-SYNTH-RXN
ASC78_01505	Unknown	RXN-10137;RXN-17556
ASC78_07515	Unknown	METHIONINE--TRNA-LIGASE-RXN;RXN-16165
ASC78_05160	Unknown	ACSERLY-RXN;RXN-12726
ASC78_03470	Unknown	ALKANE-1-MONOOXYGENASE-RXN
ASC78_15975	sucC	SUCCCOASYN-RXN
ASC78_16320	Unknown	1.2.7.8-RXN
ASC78_22335	Unknown	2.1.1.44-RXN;RXN-14431;RXN-14437;RXN-14438
ASC78_14175	Unknown	ACYLCOASYN-RXN;LINOLENOYL-RXN;R223-RXN;RXN-12184;RXN-12978;RXN-13290;RXN-13614;RXN-16380;RXN-16389;RXN-16393;RXN-16401;RXN-16402;RXN-16415;RXN-16418;RXN-7904;RXN-9623;RXN-9644;RXN-9673;RXN0-7238;RXN0-7239;RXN0-7248;RXN66-469;RXN66-477;RXN66-480;RXN66-483;RXN66-484;TRANS-RXN0-623
ASC78_19960	Unknown	ADENYL-KIN-RXN
ASC78_22610	Unknown	FMNREDUCT-RXN;NADPH-DEHYDROGENASE-FLAVIN-RXN;RXN-12444
ASC78_13615	Unknown	PROTOHEMEFERROCHELAT-RXN
ASC78_17850	Unknown	HYDROXYMETHYLGLUTARYL-COA-LYASE-RXN
ASC78_11670	Unknown	1.6.99.5-RXN;NADH-DEHYDROGENASE-QUINONE-RXN
ASC78_11275	Unknown	PEPTIDYLPROLYL-ISOMERASE-RXN
ASC78_04870	Unknown	GALACTONDEHYDRAT-RXN
ASC78_18010	Unknown	RXN0-4261
ASC78_17590	Unknown	ACYLCOASYN-RXN;LINOLENOYL-RXN;R223-RXN;RXN-12184;RXN-12978;RXN-13290;RXN-13614;RXN-16380;RXN-16389;RXN-16393;RXN-16401;RXN-16402;RXN-16415;RXN-16418;RXN-7904;RXN-9623;RXN-9644;RXN-9673;RXN0-7238;RXN0-7239;RXN0-7248;RXN66-469;RXN66-477;RXN66-480;RXN66-483;RXN66-484;TRANS-RXN0-623
ASC78_09610	Unknown	R524-RXN;RXN-12893
ASC78_09720	Unknown	3.1.26.4-RXN
ASC78_03535	Unknown	ADENOSYLHOMOCYSTEINE-NUCLEOSIDASE-RXN
ASC78_14750	Unknown	UROCANATE-HYDRATASE-RXN
ASC78_11060	Unknown	THRESYN-RXN
ASC78_19700	Unknown	GDPPYPHOSKIN-RXN;GTPPYPHOSKIN-RXN
ASC78_07930	Unknown	3-OXOACYL-ACP-REDUCT-RXN;RXN-10060;RXN-10655;RXN-10659;RXN-11476;RXN-11480;RXN-13008;RXN-16616;RXN-16622;RXN-16626;RXN-16630;RXN-9514;RXN-9518;RXN-9524;RXN-9528;RXN-9532;RXN-9536;RXN-9540;RXN-9552;RXN-9556;RXN-9633;RXN0-2142;RXN1G-157;RXN1G-349;RXN1G-469;RXN1G-508
ASC78_03490	Unknown	PYRNUTRANSHYDROGEN-RXN;TRANS-RXN0-277
ASC78_07605	Unknown	CYTOCHROME-C-OXIDASE-RXN;RXN-15830
ASC78_10080	Unknown	3-ISOPROPYLMALISOM-RXN;RXN-13163;RXN-8991
ASC78_09605	Unknown	2.7.13.3-RXN
ASC78_09220	Unknown	SPERMIDINESYN-RXN
ASC78_12505	gcvT	GCVT-RXN
ASC78_19520	Unknown	COBINPGUANYLYLTRANS-RXN
ASC78_14260	Unknown	GSHTRAN-RXN;GST-RXN;RXN-11663;RXN-13673;RXN-15680;RXN-18405;RXN-18407;RXNQT-4363
ASC78_20520	guaA	GLUTAMIN-RXN;GMP-SYN-GLUT-RXN;GMP-SYN-NH3-RXN
ASC78_10100	gltA	CITSYN-RXN
ASC78_12595	Unknown	2.7.13.3-RXN
ASC78_16925	Unknown	2.7.13.3-RXN
ASC78_08810	Unknown	HISTALDEHYD-RXN;HISTOLDEHYD-RXN;RXN-8001
ASC78_14915	Unknown	CATECHOL-12-DIOXYGENASE-RXN
ASC78_16745	Unknown	2.1.1.79-RXN;RXN-7421;RXN1G-2544;RXN1G-3641
ASC78_13850	Unknown	RXN-12019
ASC78_16185	Unknown	2OXOGLUTARATEDEH-RXN;2OXOGLUTDECARB-RXN;RXN-7716;RXN0-1147
ASC78_23240	Unknown	2-OCTAPRENYL-6-OHPHENOL-METHY-RXN;DHHB-METHYLTRANSFER-RXN
ASC78_05125	Unknown	DIHYDROOROT-RXN
ASC78_14955	Unknown	METHYLISOCITRATE-LYASE-RXN
ASC78_15990	Unknown	3.1.3.16-RXN
ASC78_20715	Unknown	CYTOCHROME-C-OXIDASE-RXN;RXN-15830
ASC78_20950	Unknown	2-NITROPROPANE-DIOXYGENASE-RXN
ASC78_01375	Unknown	HYDROXY-MANDELATE-RACEMASE-RXN;MANDELATE-RACEMASE-RXN
ASC78_18585	Unknown	FORMYLMETHANOFURAN-DEHYDROGENASE-RXN
ASC78_07865	Unknown	ALKAPHOSPHA-RXN;RXN-5822;RXN-8748
ASC78_22515	Unknown	GLUCOSE-1-DEHYDROGENASE-RXN
ASC78_15935	Unknown	2.7.13.3-RXN
ASC78_05795	Unknown	PROTEIN-TYROSINE-PHOSPHATASE-RXN
ASC78_14295	Unknown	2-OXOPENT-4-ENOATE-HYDRATASE-RXN;RXN-10381
ASC78_01350	Unknown	HYDROXY-MANDELATE-RACEMASE-RXN;MANDELATE-RACEMASE-RXN
ASC78_00595	Unknown	RXN-13179
ASC78_15290	Unknown	2.3.2.13-RXN;RXN-19236
ASC78_05895	Unknown	ALDOSE1EPIM-RXN
ASC78_13430	glyA	GLYOHMETRANS-RXN;RXN0-5234
ASC78_03610	Unknown	GLYCOGEN-BRANCH-RXN;RXN-14371;RXN-14372;RXN-18777;RXN-7669;RXN-7710
ASC78_07770	Unknown	2-OCTAPRENYL-6-OHPHENOL-METHY-RXN;DHHB-METHYLTRANSFER-RXN
ASC78_05475	Unknown	DAHPSYN-RXN
ASC78_18060	Unknown	LIPIDXSYNTHESIS-RXN
ASC78_01965	Unknown	NQOR-RXN;RXN-12303
ASC78_21490	Unknown	ACYLCOADEHYDROG-RXN;RXN-17775;RXN-17779;RXN-17783;RXN-17784;RXN-17788;RXN-17792;RXN-17796
ASC78_14490	Unknown	4-HYDROXYBUTYRATE-DEHYDROGENASE-RXN
ASC78_25415	Unknown	GLUCONOLACT-RXN;RXN-8783
ASC78_25670	Unknown	DNA-DIRECTED-RNA-POLYMERASE-RXN
ASC78_24505	Unknown	RXN-11135
ASC78_06745	Unknown	ALLOPHANATE-HYDROLASE-RXN
ASC78_11720	Unknown	RXN0-1441
ASC78_11080	Unknown	1.11.1.15-RXN;RXN0-5468
ASC78_08825	Unknown	HISTAMINOTRANS-RXN
ASC78_25345	Unknown	PROTEIN-KINASE-RXN
ASC78_16620	Unknown	PYRROLINECARBREDUCT-RXN;RXN66-546
ASC78_17885	Unknown	ORNITHINE-CYCLODEAMINASE-RXN
ASC78_12830	Unknown	2.7.8.23-RXN;RXN-10827;RXN-10828
ASC78_12910	Unknown	UDPNACETYLGLUCOSAMENOLPYRTRANS-RXN
ASC78_17815	Unknown	METHYLCROTONYL-COA-CARBOXYLASE-RXN
ASC78_21325	Unknown	PROTEIN-TYROSINE-PHOSPHATASE-RXN
ASC78_07225	Unknown	MANNPISOM-RXN
ASC78_01690	Unknown	3.1.1.64-RXN;CARBOXYLESTERASE-RXN;RETINYL-PALMITATE-ESTERASE-RXN;RXN-10711;RXN-10767;RXN-12252;RXN-12575;RXNQT-4366
ASC78_06560	Unknown	6.2.1.34-RXN
ASC78_15440	Unknown	PROTEIN-KINASE-RXN
ASC78_25310	Unknown	RXN-17884;RXN-2962
ASC78_25290	Unknown	GLYOXIII-RXN
ASC78_04385	trpC	IGPSYN-RXN
ASC78_25860	Unknown	RXN-11135
ASC78_24915	Unknown	ACETYLORNTRANSAM-RXN;RXN-15007
ASC78_01730	Unknown	CARBOXYMETHYLENEBUTENOLIDASE-RXN;DIENELACHYDRO-RXN;RXN-9857;RXN-9868;RXN-9887;RXN-9890
ASC78_11360	Unknown	NICOTINATEPRIBOSYLTRANS-RXN
ASC78_02825	Unknown	4.1.2.20-RXN;KDGALDOL-RXN
ASC78_14780	Unknown	RXN0-4261
ASC78_11040	Unknown	DIHYDRODIPICSYN-RXN
ASC78_06405	Unknown	KETOACYLCOATHIOL-RXN;RXN-10699;RXN-10700;RXN-10701;RXN-11246;RXN-12565;RXN-12710;RXN-13617;RXN-14268;RXN-14274;RXN-14277;RXN-14394;RXN-14774;RXN-14788;RXN-14793;RXN-14799;RXN-14803;RXN-16137;RXN-17116;RXN-17778;RXN-17782;RXN-17787;RXN-17791;RXN-17795;RXN-17799;RXN-3641
ASC78_18385	Unknown	RXN0-5410
ASC78_25260	Unknown	GLUCONOKIN-RXN
ASC78_21190	Unknown	FUMARYLACETOACETASE-RXN
ASC78_12090	Unknown	2.3.2.13-RXN;RXN-19236
ASC78_16900	Unknown	2.7.3.9-RXN;RXN-17354;RXN-17355
ASC78_08510	gabD	RXN0-5293;SUCCINATE-SEMIALDEHYDE-DEHYDROGENASE-RXN
ASC78_05670	Unknown	2-AMINOADIPATE-AMINOTRANSFERASE-RXN
ASC78_09925	Unknown	MALONYL-COA-ACP-TRANSACYL-RXN
ASC78_15565	Unknown	KDO-8PPHOSPHAT-RXN
ASC78_26440	Unknown	ACYLCOASYN-RXN;LINOLENOYL-RXN;R223-RXN;RXN-12184;RXN-12978;RXN-13290;RXN-13614;RXN-16380;RXN-16389;RXN-16393;RXN-16401;RXN-16402;RXN-16415;RXN-16418;RXN-7904;RXN-9623;RXN-9644;RXN-9673;RXN0-7238;RXN0-7239;RXN0-7248;RXN66-469;RXN66-477;RXN66-480;RXN66-483;RXN66-484;TRANS-RXN0-623
ASC78_08115	Unknown	RXN0-5289;TSA-REDUCT-RXN
ASC78_07775	Unknown	RXN0-2161;SERINE--TRNA-LIGASE-RXN
ASC78_04380	trpD	PRTRANS-RXN
ASC78_18750	Unknown	RIBULOSE-BISPHOSPHATE-CARBOXYLASE-RXN
ASC78_00690	Unknown	GLYCERATE-DEHYDROGENASE-RXN;HYDROXYPYRUVATE-REDUCTASE-RXN;RXN0-300
ASC78_06625	Unknown	CYTOCHROME-C-OXIDASE-RXN;RXN-15830
ASC78_26590	Unknown	PROTEIN-TYROSINE-PHOSPHATASE-RXN
ASC78_03810	argS	ARGININE--TRNA-LIGASE-RXN
ASC78_24475	Unknown	DNA-DIRECTED-DNA-POLYMERASE-RXN
ASC78_10055	Unknown	PRAISOM-RXN
ASC78_04355	Unknown	ANTHRANSYN-RXN
ASC78_23870	Unknown	RXN-9615
ASC78_10960	Unknown	GSHTRAN-RXN;GST-RXN;RXN-11663;RXN-13673;RXN-15680;RXN-18405;RXN-18407;RXNQT-4363
ASC78_16370	Unknown	METHIONYL-TRNA-FORMYLTRANSFERASE-RXN
ASC78_00955	Unknown	LYSOPHOSPHOLIPASE-RXN;RXN-15035;RXN-19312
ASC78_24945	Unknown	RXN-8665
ASC78_20305	Unknown	GLUTAMATE-N-ACETYLTRANSFERASE-RXN;N-ACETYLTRANSFER-RXN;RXN0-6948
ASC78_26225	Unknown	PGLUCISOM-RXN
ASC78_11935	eno	2PGADEHYDRAT-RXN
ASC78_07895	Unknown	2.7.13.3-RXN
ASC78_07260	ugpQ	GLYCPDIESTER-RXN;RXN-14073;RXN-14136;RXN-14160
ASC78_19290	Unknown	3-HYDROXYBUTYRATE-DEHYDROGENASE-RXN
ASC78_08740	Unknown	RXN0-5131
ASC78_15920	Unknown	HISTONE-LYSINE-N-METHYLTRANSFERASE-RXN
ASC78_01855	Unknown	RXN-15122;THREDEHYD-RXN
ASC78_09865	Unknown	3.1.26.12-RXN;RXN0-6478;RXN0-6485;RXN0-6521;RXN0-6522;RXN0-6523
ASC78_26210	Unknown	2-HALOACID-DEHALOGENASE-RXN
ASC78_22545	Unknown	PORPHOBILSYNTH-RXN
ASC78_00120	Unknown	CYSTEINE-DIOXYGENASE-RXN
ASC78_14685	Unknown	3.5.2.18-RXN
ASC78_21655	Unknown	D-AMINO-ACID-OXIDASE-RXN;RXN-8163
ASC78_18975	Unknown	DIHYDROOROTATE-DEHYDROGENASE-RXN;RXN-9929;RXN0-6491;RXN0-6554
ASC78_21045	Unknown	3-ISOPROPYLMALISOM-RXN;RXN-13163;RXN-8991
ASC78_19435	Unknown	DIHYDROXYISOVALDEHYDRAT-RXN;DIHYDROXYMETVALDEHYDRAT-RXN
ASC78_04280	Unknown	ASPAMINOTRANS-RXN;RXN-10814;RXN-11737;RXN-13697
ASC78_08620	Unknown	S-ADENMETSYN-RXN
ASC78_24135	Unknown	CHORISMATEMUT-RXN
ASC78_12695	Unknown	HYDROXYMETHYLGLUTARYL-COA-LYASE-RXN
ASC78_08065	Unknown	CYTIDEAM-RXN;CYTIDEAM2-RXN
ASC78_05715	Unknown	5-FORMYL-THF-CYCLO-LIGASE-RXN
ASC78_14815	Unknown	RXN-15122;THREDEHYD-RXN
ASC78_19610	Unknown	PHOSGLYPHOS-RXN
ASC78_26280	Unknown	XYLULOKIN-RXN
ASC78_16725	Unknown	ACYLCOADEHYDROG-RXN;RXN-17775;RXN-17779;RXN-17783;RXN-17784;RXN-17788;RXN-17792;RXN-17796
ASC78_05340	Unknown	UDP-NACMURALGLDAPLIG-RXN
ASC78_25505	Unknown	GLYOXII-RXN;RXN-7919
ASC78_13810	Unknown	OHMETPYRKIN-RXN;PYRIMSYN3-RXN
ASC78_18780	Unknown	PHOSPHORIBULOKINASE-RXN
ASC78_12965	Unknown	RXN1A0-6303
ASC78_19745	Unknown	3-OXOACYL-ACP-REDUCT-RXN;RXN-10060;RXN-10655;RXN-10659;RXN-11476;RXN-11480;RXN-13008;RXN-16616;RXN-16622;RXN-16626;RXN-16630;RXN-9514;RXN-9518;RXN-9524;RXN-9528;RXN-9532;RXN-9536;RXN-9540;RXN-9552;RXN-9556;RXN-9633;RXN0-2142;RXN1G-157;RXN1G-349;RXN1G-469;RXN1G-508
ASC78_00680	Unknown	D-AMINO-ACID-OXIDASE-RXN;RXN-8163
ASC78_16045	Unknown	DNA-DIRECTED-DNA-POLYMERASE-RXN
ASC78_05260	Unknown	DIAMINOPIMEPIM-RXN
ASC78_14670	Unknown	6-HYDROXYNICOTINATE-REDUCTASE-RXN
ASC78_11395	Unknown	RXN0-7023
ASC78_17605	Unknown	4-HYDROXYPHENYLPYRUVATE-DIOXYGENASE-RXN;RXN-10815
ASC78_04985	aspA	ASPARTASE-RXN
ASC78_14380	Unknown	2-OCTAPRENYL-6-OHPHENOL-METHY-RXN;DHHB-METHYLTRANSFER-RXN
ASC78_24330	Unknown	2.6.1.18-RXN
ASC78_05510	Unknown	RXN0-5419
ASC78_10140	Unknown	RXN0-2441
ASC78_25220	Unknown	3.1.1.75-RXN
ASC78_12985	Unknown	DNA-DIRECTED-DNA-POLYMERASE-RXN;RXN0-4961
ASC78_22840	Unknown	ADOMET-DMK-METHYLTRANSFER-RXN
ASC78_23010	Unknown	QUERCETIN-23-DIOXYGENASE-RXN
ASC78_13385	Unknown	RIBOFLAVIN-SYN-RXN
ASC78_20680	Unknown	RXN1A0-6303
ASC78_19115	Unknown	CDPKIN-RXN;DADPKIN-RXN;DCDPKIN-RXN;DGDPKIN-RXN;DTDPKIN-RXN;DUDPKIN-RXN;GDPKIN-RXN;NUCLEOSIDE-DIP-KIN-RXN;RXN-14120;RXN-14228;UDPKIN-RXN
ASC78_20190	Unknown	ADOMET-DMK-METHYLTRANSFER-RXN
ASC78_06665	Unknown	CYTOCHROME-C-OXIDASE-RXN;RXN-15830
ASC78_00995	Unknown	1.13.11.15-RXN
ASC78_14980	Unknown	ACYLCOADEHYDROG-RXN;RXN-17775;RXN-17779;RXN-17783;RXN-17784;RXN-17788;RXN-17792;RXN-17796
ASC78_19990	Unknown	3.1.11.6-RXN
ASC78_12630	Unknown	1-PHOSPHATIDYLINOSITOL-KINASE-RXN
ASC78_11335	Unknown	3-ISOPROPYLMALDEHYDROG-RXN;RXN-13158;RXN-14986;RXN-18200;RXN-18202;RXN-18204;RXN-18206;RXN-18208;RXN-18210;RXNQT-4165;RXNQT-4168;RXNQT-4171;RXNQT-4174;RXNQT-4178
ASC78_23180	Unknown	FMNREDUCT-RXN;NADPH-DEHYDROGENASE-FLAVIN-RXN;RXN-12444
ASC78_21955	Unknown	GSHTRAN-RXN;GST-RXN;RXN-11663;RXN-13673;RXN-15680;RXN-18405;RXN-18407;RXNQT-4363
ASC78_08275	Unknown	2-HALOACID-DEHALOGENASE-RXN
ASC78_22215	Unknown	RXN-11109
ASC78_15320	Unknown	GLYOXIII-RXN
ASC78_08370	Unknown	RXN-10462;RXN-13805;RXN-1381;RXN-15045;RXN-16024;RXN-16117;RXN-17016;RXN-17017;RXN-17018
ASC78_25965	Unknown	THIOREDOXIN-REDUCT-NADPH-RXN
ASC78_15035	Unknown	FUMARYLACETOACETASE-RXN
ASC78_12255	Unknown	ACYLCOADEHYDROG-RXN;RXN-17775;RXN-17779;RXN-17783;RXN-17784;RXN-17788;RXN-17792;RXN-17796
ASC78_00705	Unknown	AKBLIG-RXN
ASC78_19445	Unknown	RXN0-20
ASC78_19970	Unknown	TETRAACYLDISACC4KIN-RXN
ASC78_23095	Unknown	3.1.1.73-RXN
ASC78_08865	hisI	HISTCYCLOHYD-RXN
ASC78_10050	Unknown	RXN0-2382;TRYPSYN-RXN
ASC78_18980	Unknown	RIB5PISOM-RXN
ASC78_01090	Unknown	CITSYN-RXN
ASC78_13195	Unknown	FORMAMIDASE-RXN
ASC78_22315	Unknown	ACYLCOASYN-RXN;LINOLENOYL-RXN;R223-RXN;RXN-12184;RXN-12978;RXN-13290;RXN-13614;RXN-16380;RXN-16389;RXN-16393;RXN-16401;RXN-16402;RXN-16415;RXN-16418;RXN-7904;RXN-9623;RXN-9644;RXN-9673;RXN0-7238;RXN0-7239;RXN0-7248;RXN66-469;RXN66-477;RXN66-480;RXN66-483;RXN66-484;TRANS-RXN0-623
ASC78_19090	Unknown	RXN0-4261
ASC78_17175	Unknown	GLYOXIII-RXN
ASC78_06025	Unknown	5-NUCLEOTID-RXN;AMP-DEPHOSPHORYLATION-RXN;RXN-14025;RXN-14026;RXN-14227;RXN-5841;RXN-7607;RXN-7609;XMPXAN-RXN
ASC78_03660	Unknown	GLUTSEMIALDEHYDROG-RXN
ASC78_22105	Unknown	GSHTRAN-RXN;GST-RXN;RXN-11663;RXN-13673;RXN-15680;RXN-18405;RXN-18407;RXNQT-4363
ASC78_19670	Unknown	2.7.13.3-RXN
ASC78_18990	Unknown	3.4.24.70-RXN
ASC78_25140	Unknown	THYMIDYLATESYN-RXN
ASC78_06120	Unknown	RXN0-1382
ASC78_06950	Unknown	PROTEIN-KINASE-RXN
ASC78_14135	Unknown	3.4.11.18-RXN;RXN-17873;RXN-17874;RXN-17875;RXN-17876;RXN-17877;RXN-17878
ASC78_04000	Unknown	SUCCGLUDESUCC-RXN
ASC78_18480	Unknown	2.7.8.25-RXN
ASC78_17900	Unknown	2-HALOACID-DEHALOGENASE-RXN;3.8.1.11-RXN;RXN-6263;RXN-6264
ASC78_24450	Unknown	ASPARTATE-RACEMASE-RXN
ASC78_01285	Unknown	HOLO-ACP-SYNTH-RXN
ASC78_07460	Unknown	QUINOLINATE-SYNTHA-RXN
ASC78_01565	Unknown	RXN-10078;RXN-10079;RXN-9912;RXN-9914;SALICYLATE-1-MONOOXYGENASE-RXN
ASC78_15800	Unknown	AMIDASE-RXN;GUANIDINOBUTANAMIDE-NH3-RXN;PYRAZIN-RXN;R311-RXN;RXN-14727;RXN-14728;RXN-17608;RXNN-404
ASC78_07175	Unknown	RXN-8992
ASC78_10365	Unknown	CITRYLY-RXN;RXN-7929
ASC78_19370	Unknown	ALARACECAT-RXN
ASC78_03005	Unknown	3.1.11.2-RXN
ASC78_10785	Unknown	2.7.10.1-RXN
ASC78_08995	Unknown	GSHTRAN-RXN;GST-RXN;RXN-11663;RXN-13673;RXN-15680;RXN-18405;RXN-18407;RXNQT-4363
ASC78_21990	Unknown	KDOTRANS-RXN
ASC78_17790	Unknown	2-HALOACID-DEHALOGENASE-RXN;3.8.1.11-RXN;RXN-6263;RXN-6264
ASC78_06430	Unknown	ATPASE-RXN
ASC78_13330	Unknown	RXN-11135
ASC78_07760	ispH	ISPH2-RXN;RXN0-884
ASC78_10955	Unknown	RIBOFLAVIN-SYN-RXN
ASC78_11650	Unknown	1.6.99.5-RXN;NADH-DEHYDROGENASE-QUINONE-RXN
ASC78_13475	Unknown	CYSTEINE--TRNA-LIGASE-RXN
ASC78_08840	Unknown	PRIBFAICARPISOM-RXN
ASC78_26330	Unknown	GLUCONATE-5-DEHYDROGENASE-RXN
ASC78_23435	Unknown	GLYCERATE-DEHYDROGENASE-RXN;HYDROXYPYRUVATE-REDUCTASE-RXN;RXN0-300
ASC78_08350	Unknown	ASPARTATE-RACEMASE-RXN
ASC78_07070	Unknown	ATPASE-RXN
ASC78_22495	Unknown	ACYLCOASYN-RXN;LINOLENOYL-RXN;R223-RXN;RXN-12184;RXN-12978;RXN-13290;RXN-13614;RXN-16380;RXN-16389;RXN-16393;RXN-16401;RXN-16402;RXN-16415;RXN-16418;RXN-7904;RXN-9623;RXN-9644;RXN-9673;RXN0-7238;RXN0-7239;RXN0-7248;RXN66-469;RXN66-477;RXN66-480;RXN66-483;RXN66-484;TRANS-RXN0-623
ASC78_22640	Unknown	RXN-8823
ASC78_03210	Unknown	ACYLCOADEHYDROG-RXN;RXN-17775;RXN-17779;RXN-17783;RXN-17784;RXN-17788;RXN-17792;RXN-17796
ASC78_00395	Unknown	DIHYDROXYISOVALDEHYDRAT-RXN;DIHYDROXYMETVALDEHYDRAT-RXN
ASC78_23200	Unknown	CHLOROMALERED-RXN;MALEYLACETATE-REDUCTASE-RXN;RXN-9885;RXN-9891
ASC78_06125	Unknown	2.7.13.3-RXN
ASC78_21435	Unknown	1.18.1.2-RXN
ASC78_19205	Unknown	CYSTATHIONINE-BETA-LYASE-RXN;RXN-12729;RXN-15131;RXN-15137;RXN-15577;RXN-15582;RXN-18212;RXN-6763;RXN-8052;RXN-8054;RXNQT-4319;RXNQT-4320;RXNQT-4321;RXNQT-4322;RXNQT-4323;S-ALKYLCYSTEINE-LYASE-RXN
ASC78_17920	Unknown	ADENOSYLHOMOCYSTEINASE-RXN
ASC78_24130	Unknown	PSERTRANSAM-RXN;PSERTRANSAMPYR-RXN
ASC78_22400	Unknown	GLUTATHIONE-REDUCT-NADPH-RXN
ASC78_23415	Unknown	3.5.2.17-RXN
ASC78_25125	ligD	DNA-LIGASE-ATP-RXN;RXN-17917;RXN-17918;RXN-17919
ASC78_05355	Unknown	UDP-NACMURALA-GLU-LIG-RXN
ASC78_17195	Unknown	RXN-8974
ASC78_06785	Unknown	RXN-8529
ASC78_14240	Unknown	GLUCONATE-5-DEHYDROGENASE-RXN
ASC78_13390	Unknown	RIBOFLAVINSYNDEAM-RXN
ASC78_12375	Unknown	2.7.13.3-RXN
ASC78_07210	Unknown	PROLINE--TRNA-LIGASE-RXN
ASC78_22520	Unknown	RXNN-386
ASC78_04665	Unknown	CREATININASE-RXN
ASC78_02260	Unknown	NQOR-RXN;RXN-12303
ASC78_03060	Unknown	HOMOGENTISATE-12-DIOXYGENASE-RXN
ASC78_15325	Unknown	2.7.13.3-RXN
ASC78_12100	Unknown	IMP-DEHYDROG-RXN
ASC78_05680	Unknown	TREHALOSE6PSYN-RXN
ASC78_09320	Unknown	ISOLEUCINE--TRNA-LIGASE-RXN
ASC78_19650	Unknown	PSERPHOSPHA-RXN;RXN0-5114
ASC78_13165	Unknown	ATPASE-RXN
ASC78_11660	Unknown	1.6.99.5-RXN;NADH-DEHYDROGENASE-QUINONE-RXN
ASC78_03720	Unknown	ACYLCOADEHYDROG-RXN;RXN-17775;RXN-17779;RXN-17783;RXN-17784;RXN-17788;RXN-17792;RXN-17796
ASC78_25740	Unknown	4-HYDROXYBENZOATE-3-MONOOXYGENASE-RXN
ASC78_05255	Unknown	RXNN-386
ASC78_08105	Unknown	MALIC-NADP-RXN;OXALODECARB-RXN
ASC78_25395	garD	GALACTARDEHYDRA-RXN
ASC78_00290	Unknown	ACYLCOADEHYDROG-RXN;RXN-17775;RXN-17779;RXN-17783;RXN-17784;RXN-17788;RXN-17792;RXN-17796
ASC78_04780	Unknown	GDPMANDEHYDRA-RXN
ASC78_06530	Unknown	2-OCTAPRENYL-6-OHPHENOL-METHY-RXN;DHHB-METHYLTRANSFER-RXN
ASC78_16460	Unknown	SAICARSYN-RXN
ASC78_22735	Unknown	RXN-2462
ASC78_25435	Unknown	4.2.1.41-RXN
ASC78_02900	Unknown	DNA-DIRECTED-DNA-POLYMERASE-RXN
ASC78_20625	Unknown	2.7.13.3-RXN
ASC78_15925	Unknown	BIOTINLIG-RXN;RXN0-7192
ASC78_13280	Unknown	TRNA-GUANINE-N7--METHYLTRANSFERASE-RXN
ASC78_25445	gudD	GLUCARDEHYDRA-RXN
ASC78_19185	hisZ	ATPPHOSPHORIBOSYLTRANS-RXN
ASC78_22160	Unknown	DEHYDDEOXPHOSGALACT-ALDOL-RXN
ASC78_24935	Unknown	3-HYDROXY-KYNURENINASE-RXN;KYNURENINASE-RXN
ASC78_12435	Unknown	3-OXOADIPATE-ENOL-LACTONASE-RXN;RXN-10083
ASC78_25970	Unknown	GSHTRAN-RXN;GST-RXN;RXN-11663;RXN-13673;RXN-15680;RXN-18405;RXN-18407;RXNQT-4363
ASC78_23460	Unknown	3.1.2.23-RXN
ASC78_03575	Unknown	RXN-14014
ASC78_24445	Unknown	CARBOXYMETHYLENEBUTENOLIDASE-RXN;DIENELACHYDRO-RXN;RXN-9857;RXN-9868;RXN-9887;RXN-9890
ASC78_05855	Unknown	RXN0-5100
ASC78_13325	dnaE	DNA-DIRECTED-DNA-POLYMERASE-RXN
ASC78_05275	Unknown	RXN0-5100
ASC78_18020	Unknown	CDPDIGLYSYN-RXN;RXN0-5515
ASC78_13830	Unknown	1.18.1.2-RXN
ASC78_06395	Unknown	3-OXOADIPATE-COA-TRANSFERASE-RXN;RXN-10085
ASC78_07120	Unknown	RXN-11396
ASC78_03780	Unknown	HYDROXYMETHYLGLUTARYL-COA-LYASE-RXN
ASC78_09050	Unknown	3.4.21.92-RXN
ASC78_24850	Unknown	AIRS-RXN
ASC78_09935	Unknown	RXN-17155
ASC78_24145	Unknown	2.5.1.19-RXN;RXN-11832;RXN-12002;RXN-7913
ASC78_06935	Unknown	DNA-DIRECTED-RNA-POLYMERASE-RXN
ASC78_25225	Unknown	GSHTRAN-RXN;GST-RXN;RXN-11663;RXN-13673;RXN-15680;RXN-18405;RXN-18407;RXNQT-4363
ASC78_18050	Unknown	RXN0-4261
ASC78_10000	Unknown	PDXJ-RXN
ASC78_24395	Unknown	MERCAPYSTRANS-RXN;RXN-18702;RXN-18703;RXN0-6945
ASC78_14725	Unknown	HOMOCYSMETB12-RXN
ASC78_02545	Unknown	DAHPSYN-RXN
ASC78_18845	Unknown	METHYLMALONYL-COA-MUT-RXN
ASC78_25955	Unknown	POLYPHOSPHATE-KINASE-RXN
ASC78_22085	Unknown	2-HALOACID-DEHALOGENASE-RXN
ASC78_08205	Unknown	RXN-9387;RXN-9781
ASC78_21985	Unknown	PHOSMANMUT-RXN;PHOSPHOGLUCMUT-RXN;RXN-16997;RXN-16998
ASC78_08225	Unknown	ACETATEKIN-RXN
ASC78_21070	Unknown	PGLYCDEHYDROG-RXN
ASC78_09540	Unknown	O-SUCCINYLBENZOATE-COA-LIG-RXN;RXN-7614
ASC78_03635	Unknown	1.5.1.19-RXN
ASC78_16600	Unknown	RXN0-4261
ASC78_04845	Unknown	DIHYDROOROTATE-DEHYDROGENASE-RXN;RXN0-6491
