id	Common name	linked reactions
ASC64_19010	Unknown	FMNREDUCT-RXN;NADPH-DEHYDROGENASE-FLAVIN-RXN;RXN-12444
ASC64_18545	Unknown	DNA-DIRECTED-DNA-POLYMERASE-RXN
ASC64_09300	Unknown	RXN-15122;THREDEHYD-RXN
ASC64_06010	Unknown	RXN0-302
ASC64_08950	Unknown	RXN-11376;RXN3DJ-11417;RXN3O-458;SPHINGANINE-KINASE-RXN
ASC64_05235	Unknown	1.14.13.8-RXN;RXN66-81
ASC64_19595	Unknown	RXN-11586
ASC64_03400	Unknown	ADPREDUCT-RXN;CDPREDUCT-RXN;GDPREDUCT-RXN;RIBONUCLEOSIDE-DIP-REDUCTI-RXN;RIBONUCLEOSIDE-DIP-REDUCTII-RXN;RXN0-722;RXN0-747;RXN0-748;UDPREDUCT-RXN
ASC64_02155	Unknown	AIRS-RXN
ASC64_16630	Unknown	RXN-11752
ASC64_20970	Unknown	FPPSYN-RXN;GPPSYN-RXN
ASC64_19220	Unknown	1.10.2.2-RXN;RXN-15829
ASC64_05660	Unknown	ADDALT-RXN;ADENODEAMIN-RXN
ASC64_08425	Unknown	DUTP-PYROP-RXN
ASC64_09660	Unknown	2-HALOACID-DEHALOGENASE-RXN;3.8.1.11-RXN;RXN-6263;RXN-6264
ASC64_06365	nadE	NAD-SYNTH-GLN-RXN;NAD-SYNTH-NH3-RXN
ASC64_18080	Unknown	DIMETHUROPORDEHYDROG-RXN;SIROHEME-FERROCHELAT-RXN;UROPORIIIMETHYLTRANSA-RXN
ASC64_08765	Unknown	RXN1A0-6303
ASC64_09785	Unknown	RXN0-1281
ASC64_08465	Unknown	2-HALOACID-DEHALOGENASE-RXN
ASC64_18270	Unknown	ALARACECAT-RXN
ASC64_01035	Unknown	1.2.1.25-RXN;1.2.4.4-RXN;2.3.1.168-RXN;2KETO-3METHYLVALERATE-RXN;2KETO-4METHYL-PENTANOATE-DEHYDROG-RXN;ISOVALERYLCOA-DHLIPOAMIDE-RXN;KETOISOCAPROATE-RXN;MBCOA-DHLIPOAMIDE-RXN;METHYLVALERATE-RXN;RXN-7719
ASC64_15765	Unknown	3.1.3.16-RXN
ASC64_20705	Unknown	3.1.22.4-RXN
ASC64_06680	Unknown	CATECHOL-12-DIOXYGENASE-RXN
ASC64_20710	Unknown	ADCLY-RXN
ASC64_21180	Unknown	3.1.3.16-RXN
ASC64_14450	Unknown	GALPMUT-RXN
ASC64_10790	Unknown	2.7.13.3-RXN
ASC64_08365	Unknown	MERCAPYSTRANS-RXN;RXN-18702;RXN-18703;RXN0-6945
ASC64_03010	Unknown	RXN0-5100
ASC64_04900	Unknown	3.4.21.53-RXN
ASC64_13740	Unknown	BRANCHED-CHAINAMINOTRANSFERILEU-RXN;BRANCHED-CHAINAMINOTRANSFERLEU-RXN;BRANCHED-CHAINAMINOTRANSFERVAL-RXN
ASC64_19865	Unknown	DALADALALIG-RXN
ASC64_17780	Unknown	1TRANSKETO-RXN;2TRANSKETO-RXN
ASC64_13470	Unknown	HOMOCYSMET-RXN;HOMOCYSMETB12-RXN
ASC64_07380	Unknown	1.8.1.4-RXN;2OXOGLUTARATEDEH-RXN;2OXOGLUTDECARB-RXN;RXN-7716;RXN-7719;RXN-8629;RXN0-1132;RXN0-1147
ASC64_13250	Unknown	RXN0-2601
ASC64_17335	Unknown	ADENPHOSPHOR-RXN;DEOXYADENPHOSPHOR-RXN;DEOXYGUANPHOSPHOR-RXN;DEOXYINOPHOSPHOR-RXN;INOPHOSPHOR-RXN;PNP-RXN;RXN-11715;RXN-11743;RXN-14029;RXN-7001;RXN0-5199;XANTHOSINEPHOSPHORY-RXN
ASC64_01615	Unknown	BTUR2-RXN;COBALADENOSYLTRANS-RXN;R344-RXN
ASC64_00505	Unknown	UGD-RXN
ASC64_12910	cysM	ACSERLY-RXN;RXN-12726
ASC64_19505	Unknown	RXN0-5131
ASC64_04980	Unknown	TRANS-RXN-283
ASC64_17770	Unknown	PGLUCISOM-RXN
ASC64_03200	Unknown	GLYCPDIESTER-RXN;RXN-14073;RXN-14136;RXN-14160
ASC64_02675	Unknown	ACYLCOADEHYDROG-RXN;RXN-17775;RXN-17779;RXN-17783;RXN-17784;RXN-17788;RXN-17792;RXN-17796
ASC64_06685	Unknown	HYDROXY-MANDELATE-RACEMASE-RXN;MANDELATE-RACEMASE-RXN
ASC64_04385	Unknown	PGLUCONDEHYDRAT-RXN
ASC64_18260	Unknown	ALDOSE1EPIM-RXN
ASC64_08480	acnA	ACONITATEDEHYDR-RXN;ACONITATEHYDR-RXN;RXN-14047
ASC64_17110	Unknown	ATPASE-RXN
ASC64_04365	Unknown	4.1.99.4-RXN;RXN-15149
ASC64_05035	Unknown	QUINOPRIBOTRANS-RXN
ASC64_13445	Unknown	GLUTKIN-RXN
ASC64_08690	Unknown	DNA-DIRECTED-RNA-POLYMERASE-RXN
ASC64_17645	Unknown	CARBOXYMETHYLENEBUTENOLIDASE-RXN;DIENELACHYDRO-RXN;RXN-9857;RXN-9868;RXN-9887;RXN-9890
ASC64_08555	Unknown	ACETYL-COA-ACETYLTRANSFER-RXN;METHYLACETOACETYLCOATHIOL-RXN;RXN-12561
ASC64_20370	Unknown	1.2.1.66-RXN;RXN-18814
ASC64_10530	Unknown	HOMOSERDEHYDROG-RXN
ASC64_20315	Unknown	ALARACECAT-RXN
ASC64_18720	Unknown	HISTALDEHYD-RXN;HISTOLDEHYD-RXN;RXN-8001
ASC64_05580	Unknown	GLU6PDEHYDROG-RXN
ASC64_13700	Unknown	PGLYCDEHYDROG-RXN
ASC64_08870	Unknown	3.6.4.8-RXN
ASC64_15975	Unknown	3.4.13.19-RXN;RXN-15682;RXN66-337
ASC64_05260	Unknown	PORPHOBILSYNTH-RXN
ASC64_04440	Unknown	RXN1A0-6303
ASC64_00135	Unknown	PROTEIN-KINASE-RXN
ASC64_15505	Unknown	ALARACECAT-RXN
ASC64_07525	Unknown	3.2.1.3-RXN;RXN-9024
ASC64_12980	Unknown	RXN0-1061
ASC64_04550	Unknown	POLYPHOSPHATE-KINASE-RXN
ASC64_04525	Unknown	QOR-RXN
ASC64_21405	Unknown	THRESYN-RXN
ASC64_12490	Unknown	RXN0-5055
ASC64_12195	Unknown	GLYOXIII-RXN
ASC64_12925	Unknown	GLUTRACE-RXN
ASC64_18730	Unknown	IMIDPHOSDEHYD-RXN
ASC64_05655	Unknown	UDPNACETYLMURAMATEDEHYDROG-RXN
ASC64_18435	Unknown	DAHPSYN-RXN
ASC64_10795	Unknown	PEPTIDYLPROLYL-ISOMERASE-RXN
ASC64_14735	Unknown	PYRUVATE-CARBOXYLASE-RXN
ASC64_03105	Unknown	RXN0-5131
ASC64_11895	aspA	ASPARTASE-RXN
ASC64_21050	Unknown	GABATRANSAM-RXN;RXN-2901
ASC64_15310	Unknown	GUANINE-DEAMINASE-RXN;RXN-15261
ASC64_04920	Unknown	RXN-1961
ASC64_16860	Unknown	ALKAPHOSPHA-RXN;RXN-5822;RXN-8748
ASC64_03275	Unknown	RXN-14480;RXN-14481;RXN0-5063
ASC64_07135	Unknown	2-HALOACID-DEHALOGENASE-RXN
ASC64_15340	Unknown	3.5.2.17-RXN
ASC64_13220	Unknown	3.4.11.2-RXN
ASC64_14125	Unknown	RXN-11109
ASC64_18695	Unknown	DNA-DIRECTED-DNA-POLYMERASE-RXN
ASC64_07870	Unknown	2.7.13.3-RXN
ASC64_10040	Unknown	DNA-DIRECTED-DNA-POLYMERASE-RXN
ASC64_03310	Unknown	GAMMA-GLUTAMYLTRANSFERASE-RXN;RXN-18092;RXN-6601;RXN-9157;RXN66-336
ASC64_11225	Unknown	RXN-18694;RXN-8342
ASC64_13230	Unknown	METHIONINE--TRNA-LIGASE-RXN;RXN-16165
ASC64_13115	Unknown	ADDALT-RXN;ADENODEAMIN-RXN
ASC64_00215	Unknown	SUCCGLUDESUCC-RXN
ASC64_07120	Unknown	ATPASE-RXN
ASC64_08315	Unknown	5.99.1.2-RXN
ASC64_12505	Unknown	DNA-LIGASE-NAD+-RXN;RXN-17918;RXN-17919;RXN-17920
ASC64_03410	Unknown	RXN0-4261
ASC64_07850	Unknown	NADPH-DEHYDROGENASE-FLAVIN-RXN
ASC64_11680	Unknown	RXN1F-20
ASC64_11310	Unknown	BARBITURASE-RXN
ASC64_12260	Unknown	RXN1G-2
ASC64_07540	Unknown	RXN0-2601
ASC64_05315	Unknown	DMK-RXN
ASC64_06745	Unknown	ACETYL-COA-ACETYLTRANSFER-RXN;METHYLACETOACETYLCOATHIOL-RXN;RXN-12561
ASC64_02625	Unknown	GDPMANDEHYDRA-RXN
ASC64_12940	Unknown	2.7.13.3-RXN
ASC64_01640	Unknown	RXN0-4261
ASC64_16865	Unknown	ALPHAGALACTOSID-RXN;MALTODEXGLUCOSID-RXN;RXN-11501;RXN-11502;RXN-12088;RXN-14281;RXN-14282;RXN-14283;RXN-15910;RXN-17754;RXN-17830;RXN0-5183
ASC64_08795	Unknown	1-PHOSPHATIDYLINOSITOL-KINASE-RXN
ASC64_10130	Unknown	NICONUCADENYLYLTRAN-RXN
ASC64_15670	Unknown	5.99.1.2-RXN
ASC64_17340	Unknown	ACETATE--COA-LIGASE-RXN;RXN-18446;RXN-18447;RXN-18448
ASC64_01625	Unknown	RXN1F-20
ASC64_05485	Unknown	2-OXOGLUTARATE-SYNTHASE-RXN
ASC64_00705	Unknown	RXN-11109
ASC64_05270	Unknown	GSAAMINOTRANS-RXN
ASC64_04945	Unknown	GTP-CYCLOHYDRO-I-RXN
ASC64_15635	Unknown	3.1.26.5-RXN
ASC64_19610	Unknown	DTDPDEHYRHAMREDUCT-RXN
ASC64_08320	Unknown	CARBODEHYDRAT-RXN;RXN0-5224
ASC64_00290	Unknown	CARBODEHYDRAT-RXN;RXN0-5224
ASC64_02850	Unknown	CITSYN-RXN
ASC64_02555	Unknown	R125-RXN
ASC64_06825	Unknown	ATPASE-RXN
ASC64_11365	Unknown	5-OXOPROLINASE-ATP-HYDROLYSING-RXN
ASC64_05155	Unknown	PYRROLINECARBREDUCT-RXN;RXN66-546
ASC64_02975	Unknown	GLUC1PURIDYLTRANS-RXN
ASC64_16220	Unknown	ACETYL-COA-CARBOXYLTRANSFER-RXN;RXN0-5055
ASC64_04435	araD	RIBULPEPIM-RXN
ASC64_21275	Unknown	ATPASE-RXN
ASC64_00805	Unknown	EXOPOLYPHOSPHATASE-RXN
ASC64_18340	Unknown	N-ACETYLGLUTPREDUCT-RXN;RXN-15006
ASC64_16230	Unknown	RXN1A0-6303
ASC64_05120	Unknown	EXOPOLYPHOSPHATASE-RXN
ASC64_13330	Unknown	CDPKIN-RXN;DADPKIN-RXN;DCDPKIN-RXN;DGDPKIN-RXN;DTDPKIN-RXN;DUDPKIN-RXN;GDPKIN-RXN;NUCLEOSIDE-DIP-KIN-RXN;RXN-14120;RXN-14228;UDPKIN-RXN
ASC64_01435	Unknown	FORMIMINOGLUTAMATE-DEIMINASE-RXN
ASC64_04025	glmU	2.3.1.157-RXN;NAG1P-URIDYLTRANS-RXN
ASC64_14560	Unknown	ACYLCOADEHYDROG-RXN;RXN-17775;RXN-17779;RXN-17783;RXN-17784;RXN-17788;RXN-17792;RXN-17796
ASC64_00635	Unknown	GLUTAMIN-RXN;GMP-SYN-GLUT-RXN;GMP-SYN-NH3-RXN
ASC64_17570	Unknown	ALKYLMERCURY-LYASE-RXN;R581-RXN
ASC64_12755	Unknown	3-OXOACYL-ACP-REDUCT-RXN;RXN-10060;RXN-10655;RXN-10659;RXN-11476;RXN-11480;RXN-13008;RXN-16616;RXN-16622;RXN-16626;RXN-16630;RXN-9514;RXN-9518;RXN-9524;RXN-9528;RXN-9532;RXN-9536;RXN-9540;RXN-9552;RXN-9556;RXN-9633;RXN0-2142;RXN1G-157;RXN1G-349;RXN1G-469;RXN1G-508
ASC64_05910	Unknown	GSHTRAN-RXN;GST-RXN;RXN-11663;RXN-13673;RXN-15680;RXN-18405;RXN-18407;RXNQT-4363
ASC64_19215	Unknown	1.10.2.2-RXN;RXN-15829
ASC64_12335	Unknown	SUCCDIAMINOPIMDESUCC-RXN
ASC64_00730	Unknown	ACETYL-COA-ACETYLTRANSFER-RXN;METHYLACETOACETYLCOATHIOL-RXN;RXN-12561
ASC64_13305	valS	VALINE--TRNA-LIGASE-RXN
ASC64_09395	Unknown	3.2.1.3-RXN;RXN-9024
ASC64_00880	Unknown	2.1.1.79-RXN;RXN-7421;RXN1G-2544;RXN1G-3641
ASC64_21255	Unknown	2.7.13.3-RXN
ASC64_10850	Unknown	ACYLCOADEHYDROG-RXN;RXN-17775;RXN-17779;RXN-17783;RXN-17784;RXN-17788;RXN-17792;RXN-17796
ASC64_14585	Unknown	RXN0-5364
ASC64_14215	Unknown	ACYLCOADEHYDROG-RXN;RXN-17775;RXN-17779;RXN-17783;RXN-17784;RXN-17788;RXN-17792;RXN-17796
ASC64_08620	Unknown	GLYOXIII-RXN
ASC64_16170	Unknown	2-HALOACID-DEHALOGENASE-RXN
ASC64_15650	Unknown	DNA-DIRECTED-DNA-POLYMERASE-RXN
ASC64_12375	Unknown	RXN0-5131
ASC64_01420	Unknown	ACETYLORNDEACET-RXN;RXN-7933
ASC64_08990	Unknown	4.3.1.14-RXN
ASC64_15095	Unknown	METHENYLTHFCYCLOHYDRO-RXN;METHYLENETHFDEHYDROG-NADP-RXN
ASC64_11570	eno	2PGADEHYDRAT-RXN
ASC64_13460	Unknown	RXN-12587;RXN-12588;RXN-14382;RXN-14385;RXN-15881;RXN-9787;RXN0-308
ASC64_17970	Unknown	3-OXOACYL-ACP-REDUCT-RXN;RXN-10060;RXN-10655;RXN-10659;RXN-11476;RXN-11480;RXN-13008;RXN-16616;RXN-16622;RXN-16626;RXN-16630;RXN-9514;RXN-9518;RXN-9524;RXN-9528;RXN-9532;RXN-9536;RXN-9540;RXN-9552;RXN-9556;RXN-9633;RXN0-2142;RXN1G-157;RXN1G-349;RXN1G-469;RXN1G-508
ASC64_08200	Unknown	DEPHOSPHOCOAKIN-RXN
ASC64_17775	Unknown	TRANSALDOL-RXN
ASC64_11400	Unknown	AMIDASE-RXN;GUANIDINOBUTANAMIDE-NH3-RXN;PYRAZIN-RXN;R311-RXN;RXN-14727;RXN-14728;RXN-17608;RXNN-404
ASC64_07995	Unknown	RXN0-2382;TRYPSYN-RXN
ASC64_15950	Unknown	RXN0-5100
ASC64_02150	Unknown	PRPPAMIDOTRANS-RXN
ASC64_11615	Unknown	CYSTATHIONINE-BETA-SYNTHASE-RXN;RXN-19038;RXN66-534;RXN66-562
ASC64_11920	Unknown	FUMHYDR-RXN
ASC64_15155	Unknown	RXN0-4261
ASC64_04380	Unknown	GLU6PDEHYDROG-RXN
ASC64_11585	Unknown	EXOPOLYPHOSPHATASE-RXN
ASC64_15580	Unknown	THIOREDOXIN-REDUCT-NADPH-RXN
ASC64_01205	Unknown	DCTP-DEAM-RXN;RXN-14118
ASC64_20730	Unknown	SHIKIMATE-KINASE-RXN
ASC64_00210	Unknown	RXN-12587;RXN-12588;RXN-14382;RXN-14385;RXN-15881;RXN-9787;RXN0-308
ASC64_16825	Unknown	AGMATIN-RXN
ASC64_17980	Unknown	UDP-NACMURALGLDAPLIG-RXN
ASC64_15855	Unknown	ALKANE-1-MONOOXYGENASE-RXN
ASC64_14410	Unknown	RXN-8078
ASC64_17120	Unknown	RXNI-2
ASC64_08355	Unknown	DURIDKI-RXN;THYKI-RXN
ASC64_13995	Unknown	3-ISOPROPYLMALISOM-RXN;R-2-METHYLMALATE-DEHYDRATASE-RXN;RXN-13163;RXN-7744;RXN-8991
ASC64_10725	Unknown	RXN0-5131
ASC64_21075	Unknown	RXN0-2601
ASC64_02965	Unknown	PENICILLIN-AMIDASE-RXN;RXN-17099
ASC64_19575	Unknown	PROTEIN-KINASE-RXN
ASC64_18820	Unknown	GLYOHMETRANS-RXN;RXN0-5234
ASC64_15480	Unknown	3.1.21.2-RXN
ASC64_02630	Unknown	GDPMANDEHYDRA-RXN
ASC64_14075	Unknown	ATPASE-RXN
ASC64_03215	Unknown	GLYOXIII-RXN
ASC64_04330	Unknown	DNA-DIRECTED-DNA-POLYMERASE-RXN
ASC64_06305	Unknown	3.4.11.18-RXN;RXN-17873;RXN-17874;RXN-17875;RXN-17876;RXN-17877;RXN-17878
ASC64_12030	Unknown	F16BDEPHOS-RXN
ASC64_15245	Unknown	ACYLCOADEHYDROG-RXN;RXN-17775;RXN-17779;RXN-17783;RXN-17784;RXN-17788;RXN-17792;RXN-17796
ASC64_04595	Unknown	ALLOPHANATE-HYDROLASE-RXN
ASC64_12440	Unknown	PYRROLINECARBDEHYDROG-RXN;RXN-14116
ASC64_07375	Unknown	RXN0-1133
ASC64_13145	Unknown	3.4.11.1-RXN
ASC64_14680	Unknown	ACYLCOADEHYDROG-RXN;RXN-17775;RXN-17779;RXN-17783;RXN-17784;RXN-17788;RXN-17792;RXN-17796
ASC64_13825	Unknown	AMIDASE-RXN;GUANIDINOBUTANAMIDE-NH3-RXN;PYRAZIN-RXN;R311-RXN;RXN-14727;RXN-14728;RXN-17608;RXNN-404
ASC64_05350	Unknown	2.5.1.64-RXN
ASC64_16275	Unknown	2-HALOACID-DEHALOGENASE-RXN;3.8.1.11-RXN;RXN-6263;RXN-6264
ASC64_20600	Unknown	3.1.22.4-RXN
ASC64_17175	Unknown	2.7.13.3-RXN
ASC64_20205	Unknown	ACYLCOADEHYDROG-RXN;RXN-17775;RXN-17779;RXN-17783;RXN-17784;RXN-17788;RXN-17792;RXN-17796
ASC64_00830	Unknown	ACYLCOADEHYDROG-RXN;RXN-17775;RXN-17779;RXN-17783;RXN-17784;RXN-17788;RXN-17792;RXN-17796
ASC64_05030	Unknown	L-ASPARTATE-OXID-RXN;RXN-9772
ASC64_06735	Unknown	RXNI-2
ASC64_06860	Unknown	RXN-7682;RXN0-901
ASC64_08560	Unknown	3.4.25.1-RXN
ASC64_18585	Unknown	RXN-11638
ASC64_05040	Unknown	PANTOTHENATE-KIN-RXN
ASC64_05480	Unknown	2-OXOBUTYRATE-SYNTHASE-RXN;RXN-14474
ASC64_20180	porA	PYFLAVOXRE-RXN;PYRUFLAVREDUCT-RXN
ASC64_12365	Unknown	3.4.11.1-RXN
ASC64_00885	Unknown	2.1.1.79-RXN;RXN-7421;RXN1G-2544;RXN1G-3641
ASC64_07620	Unknown	PYRIMSYN3-RXN
ASC64_08685	Unknown	GUANYL-KIN-RXN
ASC64_19015	Unknown	2.7.13.3-RXN
ASC64_11315	Unknown	CARBAMATE-KINASE-RXN
ASC64_00810	Unknown	ACYLCOADEHYDROG-RXN;RXN-17775;RXN-17779;RXN-17783;RXN-17784;RXN-17788;RXN-17792;RXN-17796
ASC64_11305	Unknown	RXN-11135
ASC64_16450	Unknown	2.7.13.3-RXN
ASC64_16500	Unknown	NAPHTHOATE-SYN-RXN
ASC64_18345	Unknown	GLUTAMATE-N-ACETYLTRANSFERASE-RXN;N-ACETYLTRANSFER-RXN;RXN0-6948
ASC64_09165	Unknown	1.1.1.274-RXN
ASC64_19645	Unknown	RXN0-5100
ASC64_01975	Unknown	ACYLCOASYN-RXN;LINOLENOYL-RXN;R223-RXN;RXN-12184;RXN-12978;RXN-13290;RXN-13614;RXN-16380;RXN-16389;RXN-16393;RXN-16401;RXN-16402;RXN-16415;RXN-16418;RXN-7904;RXN-9623;RXN-9644;RXN-9673;RXN0-7238;RXN0-7239;RXN0-7248;RXN66-469;RXN66-477;RXN66-480;RXN66-483;RXN66-484;TRANS-RXN0-623
ASC64_00115	Unknown	THIOREDOXIN-REDUCT-NADPH-RXN
ASC64_03710	Unknown	DEOXYRIBODIPYRIMIDINE-PHOTOLYASE-RXN;RXN-19025;RXN-19026;RXN-19242;RXN-19243;RXN-19244;RXN-19245;RXN-19246;RXN-19247;RXN-19248
ASC64_10245	Unknown	PYRUVATEORTHOPHOSPHATE-DIKINASE-RXN
ASC64_17070	Unknown	ASPARTATE-SEMIALDEHYDE-DEHYDROGENASE-RXN
ASC64_08860	Unknown	RXN0-5131
ASC64_13320	Unknown	DIHYDROFOLATESYNTH-RXN
ASC64_01995	Unknown	FGAMSYN-RXN
ASC64_06155	Unknown	RXN-17155
ASC64_09895	Unknown	CYTIDEAM-RXN;CYTIDEAM2-RXN
ASC64_14530	Unknown	CARBOXYMETHYLENEBUTENOLIDASE-RXN;DIENELACHYDRO-RXN;RXN-9857;RXN-9868;RXN-9887;RXN-9890
ASC64_16390	Unknown	ACYLCOADEHYDROG-RXN;RXN-17775;RXN-17779;RXN-17783;RXN-17784;RXN-17788;RXN-17792;RXN-17796
ASC64_01795	Unknown	RXN0-5268
ASC64_00925	Unknown	RXN0-4261
ASC64_06150	Unknown	2.3.1.179-RXN;2.3.1.41-RXN;3-OXOACYL-ACP-SYNTH-BASE-RXN;3-OXOACYL-ACP-SYNTH-RXN;RXN-10654;RXN-10658;RXN-11474;RXN-11479;RXN-16615;RXN-16621;RXN-16625;RXN-16629;RXN-8391;RXN-9516;RXN-9523;RXN-9527;RXN-9531;RXN-9535;RXN-9539;RXN0-2141;RXN1G-460;RXN3O-1803
ASC64_09750	Unknown	RXN0-5021
ASC64_06410	Unknown	GSADENYLATION-RXN
ASC64_14575	Unknown	GLUTAMATE-DEHYDROGENASE-NADP+-RXN;GLUTAMATE-DEHYDROGENASE-RXN;GLUTDEHYD-RXN
ASC64_20455	guaA	GLUTAMIN-RXN;GMP-SYN-GLUT-RXN;GMP-SYN-NH3-RXN
ASC64_06445	Unknown	GLUTAMIN-RXN
ASC64_13180	Unknown	ACETYL-COA-ACETYLTRANSFER-RXN;METHYLACETOACETYLCOATHIOL-RXN;RXN-12561
ASC64_05390	Unknown	1.6.99.5-RXN;NADH-DEHYDROGENASE-QUINONE-RXN
ASC64_11530	Unknown	GLYOXIII-RXN
ASC64_08525	Unknown	STRICTOSIDINE-SYNTHASE-RXN
ASC64_20560	Unknown	ALANINE-DEHYDROGENASE-RXN
ASC64_18725	Unknown	HISTAMINOTRANS-RXN
ASC64_15895	Unknown	RXN-8269
ASC64_20585	Unknown	GLUTAMIN-RXN;RXN-11322;RXN-12590
ASC64_16010	Unknown	CARBPSYN-RXN;GLUTAMIN-RXN;RXN-13202;RXN-14196;RXN-16909;RXN-16910
ASC64_08085	Unknown	DNA-DIRECTED-DNA-POLYMERASE-RXN
ASC64_05250	Unknown	OHMETHYLBILANESYN-RXN
ASC64_20210	Unknown	ACYLCOADEHYDROG-RXN;RXN-17775;RXN-17779;RXN-17783;RXN-17784;RXN-17788;RXN-17792;RXN-17796
ASC64_20725	Unknown	CHORISMATE-SYNTHASE-RXN
ASC64_15930	Unknown	R229-RXN
ASC64_02610	Unknown	DTDPGLUCDEHYDRAT-RXN
ASC64_15595	Unknown	ALANINE-AMINOTRANSFERASE-RXN;RXN-13698
ASC64_21085	Unknown	GLYOXIII-RXN
ASC64_04030	Unknown	PRPPSYN-RXN
ASC64_01685	Unknown	R322-RXN
ASC64_10775	Unknown	RXN0-5462
ASC64_02275	Unknown	2.5.1.32-RXN;RXN-13323;RXNARA-8002
ASC64_03890	Unknown	RXN-13418;RXN-15341;RXN0-280;RXN0-6973
ASC64_03915	Unknown	PROTOPORGENOXI-RXN
ASC64_16705	Unknown	RXN-13908;RXN-7908
ASC64_07325	Unknown	GLUTAMINESYN-RXN
ASC64_14350	Unknown	ISOCHORMAT-RXN
ASC64_20090	Unknown	2-DEHYDROPANTOATE-REDUCT-RXN
ASC64_15050	Unknown	TRYPTOPHAN--TRNA-LIGASE-RXN
ASC64_10895	Unknown	RXN1A0-6303
ASC64_15335	Unknown	ALLANTOINASE-RXN
ASC64_09510	Unknown	RXN-11832;RXN-12002;RXN-7913
ASC64_06955	Unknown	F16ALDOLASE-RXN;RXN-8631
ASC64_20095	Unknown	DIHYDROFOLATEREDUCT-RXN;RXN-18357
ASC64_08715	Unknown	METHIONYL-TRNA-FORMYLTRANSFERASE-RXN
ASC64_06905	Unknown	2-HALOACID-DEHALOGENASE-RXN
ASC64_14995	Unknown	METHYLMALONYL-COA-MUT-RXN
ASC64_18110	Unknown	ACYLCOADEHYDROG-RXN;RXN-17775;RXN-17779;RXN-17783;RXN-17784;RXN-17788;RXN-17792;RXN-17796
ASC64_02290	Unknown	PGLYCDEHYDROG-RXN
ASC64_02535	Unknown	RXN-12720;SULFATE-ADENYLYLTRANS-RXN
ASC64_19685	Unknown	RXN0-5131
ASC64_04935	Unknown	GUANPRIBOSYLTRAN-RXN;HYPOXANPRIBOSYLTRAN-RXN
ASC64_18140	Unknown	IMP-DEHYDROG-RXN
ASC64_14985	Unknown	AMINOACYLASE-RXN;RXN-13684
ASC64_05245	Unknown	GLUTRNAREDUCT-RXN
ASC64_09770	Unknown	DGTPTRIPHYDRO-RXN
ASC64_11295	Unknown	ADENPHOSPHOR-RXN;DEOXYADENPHOSPHOR-RXN;DEOXYGUANPHOSPHOR-RXN;DEOXYINOPHOSPHOR-RXN;INOPHOSPHOR-RXN;PNP-RXN;RXN-11715;RXN-11743;RXN-14029;RXN-7001;RXN0-5199;XANTHOSINEPHOSPHORY-RXN
ASC64_10540	Unknown	ARGININE--TRNA-LIGASE-RXN
ASC64_18215	Unknown	RIBOFLAVINSYNDEAM-RXN;RIBOFLAVINSYNREDUC-RXN
ASC64_14785	Unknown	RXN1A0-6303
ASC64_06460	Unknown	2.7.1.156-RXN;COBINAMIDEKIN-RXN;RXN-14063
ASC64_14000	Unknown	3-ISOPROPYLMALISOM-RXN;R-2-METHYLMALATE-DEHYDRATASE-RXN;RXN-13163;RXN-7744;RXN-8991
ASC64_13735	Unknown	3-ISOPROPYLMALDEHYDROG-RXN;RXN-13158;RXN-14986;RXN-18200;RXN-18202;RXN-18204;RXN-18206;RXN-18208;RXN-18210;RXNQT-4165;RXNQT-4168;RXNQT-4171;RXNQT-4174;RXNQT-4178
ASC64_18650	Unknown	ALARACECAT-RXN
ASC64_18220	Unknown	RIBOFLAVIN-SYN-RXN
ASC64_18370	Unknown	ARGSUCCINSYN-RXN;RXN-10
ASC64_10360	Unknown	GLYOXIII-RXN
ASC64_11300	Unknown	RXN-11135
ASC64_04560	Unknown	ALARACECAT-RXN
ASC64_18100	Unknown	3.5.1.27-RXN;3.5.1.88-RXN
ASC64_10135	Unknown	GLUTSEMIALDEHYDROG-RXN
ASC64_14320	Unknown	2.7.13.3-RXN
ASC64_08010	Unknown	RXN0-20
ASC64_17065	Unknown	ASPARTATEKIN-RXN
ASC64_09855	Unknown	2-ISOPROPYLMALATESYN-RXN
ASC64_05750	purU	FORMYLTHFDEFORMYL-RXN
ASC64_06525	Unknown	3-NUCLEOTID-RXN;5-NUCLEOTID-RXN;AMP-DEPHOSPHORYLATION-RXN;CYCPHOSDIESTER-RXN;RXN-14025;RXN-14026;RXN-14064;RXN-14090;RXN-14091;RXN-14112;RXN-14113;RXN-14115;RXN-14124;RXN-14126;RXN-14227;RXN-5841;RXN-7607;RXN-7609;XMPXAN-RXN
ASC64_02530	Unknown	RXN-12720;SULFATE-ADENYLYLTRANS-RXN
ASC64_05745	Unknown	FORMATETHFLIG-RXN
ASC64_18235	Unknown	LUMAZINESYN-RXN
ASC64_18600	Unknown	UDP-NACMURALGLDAPLIG-RXN
ASC64_00315	Unknown	GLYCPDIESTER-RXN;RXN-14073;RXN-14136;RXN-14160
ASC64_04815	Unknown	METHYLMALONYL-COA-MUT-RXN
ASC64_08895	Unknown	3.4.25.1-RXN
ASC64_08405	Unknown	DUTP-PYROP-RXN
ASC64_11095	Unknown	PHOSACETYLTRANS-RXN
ASC64_20415	Unknown	IMP-DEHYDROG-RXN
ASC64_06005	Unknown	2.7.1.148-RXN
ASC64_19515	Unknown	PROLINE--TRNA-LIGASE-RXN
ASC64_18615	murD	UDP-NACMURALA-GLU-LIG-RXN
ASC64_01030	Unknown	RXN-12508;RXN-12583;RXN0-1134
ASC64_01100	Unknown	1.14.19.1-RXN;RXN-10664
ASC64_15550	Unknown	TRNA-CYTIDYLYLTRANSFERASE-RXN
ASC64_11525	Unknown	325-BISPHOSPHATE-NUCLEOTIDASE-RXN
ASC64_15725	Unknown	PEPTIDYLPROLYL-ISOMERASE-RXN
ASC64_18405	Unknown	GLYCEROL-KIN-RXN
ASC64_01665	cobH	5.4.1.2-RXN
ASC64_05585	Unknown	3.2.1.3-RXN;RXN-9024
ASC64_01830	Unknown	F16ALDOLASE-RXN;RXN-8631
ASC64_13820	Unknown	FMNREDUCT-RXN;NADPH-DEHYDROGENASE-FLAVIN-RXN;RXN-12444
ASC64_05255	Unknown	RXN-13403;RXN-8675;UROGENIIISYN-RXN;UROPORIIIMETHYLTRANSA-RXN
ASC64_19615	Unknown	CDPDIGLYSYN-RXN;RXN0-5515
ASC64_08700	Unknown	S-ADENMETSYN-RXN
ASC64_15005	Unknown	R601-RXN;RXN-14963
ASC64_10665	Unknown	ATPASE-RXN
ASC64_11275	Unknown	RXN0-4261
ASC64_10570	kgd	RXN-7774
ASC64_00645	Unknown	1.14.13.8-RXN;RXN66-81
ASC64_11290	Unknown	NADPYROPHOSPHAT-RXN;RXN0-4401
ASC64_06535	Unknown	GLYCPDIESTER-RXN;RXN-14073;RXN-14136;RXN-14160
ASC64_02660	Unknown	ADENYLATECYC-RXN
ASC64_06835	Unknown	DNA-DIRECTED-DNA-POLYMERASE-RXN;RXN0-4961
ASC64_06960	Unknown	PEPSYNTH-RXN
ASC64_08785	Unknown	RXN-17131;RXN-17132;RXN-17133
ASC64_20450	Unknown	CHOLESTEROL-OXIDASE-RXN;RXN-12694;RXN-12778
ASC64_01965	Unknown	SAICARSYN-RXN
ASC64_02620	Unknown	DTDPGLUCOSEPP-RXN
ASC64_09335	Unknown	GLYOXIII-RXN
ASC64_09230	Unknown	GCVP-RXN
ASC64_13245	Unknown	RIB5PISOM-RXN
ASC64_20745	Unknown	3-DEHYDROQUINATE-DEHYDRATASE-RXN
ASC64_13530	Unknown	6.3.5.7-RXN
ASC64_05490	Unknown	3.2.1.14-RXN;RXN-12309
ASC64_13645	Unknown	RXN-13908;RXN-7908
ASC64_16805	Unknown	GLUCISOM-RXN;XYLISOM-RXN
ASC64_10295	Unknown	METHYLMALONYL-COA-EPIM-RXN;RXN-16391
ASC64_06190	Unknown	2OXOGLUTARATEDEH-RXN;2OXOGLUTDECARB-RXN;RXN-7716;RXN0-1147
ASC64_20610	Unknown	RXN0-4261
ASC64_10415	Unknown	BTUR2-RXN;COBALADENOSYLTRANS-RXN;R344-RXN
ASC64_05970	Unknown	2.7.13.3-RXN
ASC64_20145	Unknown	RXN1A0-6303
ASC64_13625	Unknown	GLYOXIII-RXN
ASC64_17095	Unknown	6.3.5.7-RXN
ASC64_18150	Unknown	PURINE-NUCLEOSIDASE-RXN;RXN0-363;RXN0-366;XANTHOSINEPHOSPHORY-RXN
ASC64_01335	Unknown	UROCANATE-HYDRATASE-RXN
ASC64_19805	Unknown	3.2.2.23-RXN;RXN-18435
ASC64_20955	Unknown	1.18.1.2-RXN
ASC64_09120	Unknown	RXN-10819
ASC64_01330	Unknown	HISTIDINE-AMMONIA-LYASE-RXN
ASC64_09605	Unknown	RXN0-5100
ASC64_13615	Unknown	3-HYDROXY-KYNURENINASE-RXN;KYNURENINASE-RXN
ASC64_20080	Unknown	DNA-DIRECTED-RNA-POLYMERASE-RXN
ASC64_20200	Unknown	ACYLCOADEHYDROG-RXN;RXN-17775;RXN-17779;RXN-17783;RXN-17784;RXN-17788;RXN-17792;RXN-17796
ASC64_10535	Unknown	DIAMINOPIMDECARB-RXN
ASC64_08695	Unknown	P-PANTOCYSDECARB-RXN
ASC64_03750	Unknown	GDPPYPHOSKIN-RXN;GTPPYPHOSKIN-RXN
ASC64_13880	Unknown	GLUTAMINESYN-RXN
ASC64_05420	Unknown	1.6.99.5-RXN;NADH-DEHYDROGENASE-QUINONE-RXN
ASC64_19850	Unknown	THI-P-KIN-RXN
ASC64_07475	Unknown	RXN-6883;RXN0-5266
ASC64_09795	Unknown	GLYCINE--TRNA-LIGASE-RXN
ASC64_09695	Unknown	TYROSINE--TRNA-LIGASE-RXN
ASC64_08770	Unknown	UNDECAPRENYL-DIPHOSPHATASE-RXN
ASC64_19385	Unknown	2.7.7.8-RXN
ASC64_02270	Unknown	RXN-11355;RXN-12243;RXN-12244
ASC64_12015	Unknown	GALACTOKIN-RXN
ASC64_21020	Unknown	PHENDEHYD-RXN
ASC64_03880	Unknown	RXN-14709
ASC64_09825	Unknown	RXN-8999
ASC64_04635	Unknown	PHENDEHYD-RXN
ASC64_04890	Unknown	4-CARBOXYMUCONOLACTONE-DECARBOXYLASE-RXN
ASC64_20305	Unknown	HOLO-ACP-SYNTH-RXN
ASC64_14610	Unknown	ADENYLATECYC-RXN
ASC64_02920	Unknown	1.5.1.9-RXN
ASC64_16150	Unknown	PREPHENATEDEHYDRAT-RXN
ASC64_11810	Unknown	3.5.1.80-RXN;NAG6PDEACET-RXN
ASC64_15180	Unknown	ATPASE-RXN
ASC64_08710	Unknown	3.5.1.27-RXN;3.5.1.88-RXN
ASC64_14625	Unknown	2.1.3.1-RXN
ASC64_13660	Unknown	ACETOLACTREDUCTOISOM-RXN;ACETOOHBUTREDUCTOISOM-RXN
ASC64_10285	Unknown	ACETYL-COA-ACETYLTRANSFER-RXN;METHYLACETOACETYLCOATHIOL-RXN;RXN-12561
ASC64_06065	Unknown	PYRAMKIN-RXN
ASC64_07625	Unknown	PYRIMSYN1-RXN
ASC64_00640	Unknown	PMPOXI-RXN;PNPOXI-RXN
ASC64_01905	Unknown	ACYLPHOSPHATASE-RXN
ASC64_12965	Unknown	1.11.1.15-RXN;RXN0-5468
ASC64_04145	nadE	NAD-SYNTH-NH3-RXN
ASC64_09520	Unknown	CHORISMATEMUT-RXN
ASC64_03645	Unknown	3.2.1.39-RXN
ASC64_06075	Unknown	RXN0-2584
ASC64_08655	Unknown	DIHYDROOROTATE-DEHYDROGENASE-RXN;RXN0-6491;RXN0-6554
ASC64_00030	Unknown	RXN1A0-6303
ASC64_18555	Unknown	DNA-DIRECTED-DNA-POLYMERASE-RXN
ASC64_03100	Unknown	RXN0-5131
ASC64_13535	Unknown	6.3.5.7-RXN
ASC64_08530	Unknown	DXS-RXN
ASC64_12590	Unknown	3.2.1.141-RXN
ASC64_04160	Unknown	RXN-17155
ASC64_08395	Unknown	PROTOHEMEFERROCHELAT-RXN
ASC64_21425	Unknown	TREHALOSE6PSYN-RXN
ASC64_03795	Unknown	RXN-9718
ASC64_17730	pgk	PHOSGLYPHOS-RXN
ASC64_05345	Unknown	O-SUCCINYLBENZOATE-COA-SYN-RXN
ASC64_06730	Unknown	RXNI-2
ASC64_05505	Unknown	ABC-70-RXN
ASC64_01790	Unknown	OROPRIBTRANS-RXN
ASC64_19785	Unknown	ALANINE--GLYOXYLATE-AMINOTRANSFERASE-RXN
ASC64_05460	Unknown	FARNESYLTRANSTRANSFERASE-RXN
ASC64_02635	Unknown	UDPGLUCEPIM-RXN
ASC64_00350	Unknown	ATPASE-RXN
ASC64_12865	Unknown	NICOTINAMID-RXN
ASC64_12585	Unknown	5.4.99.15-RXN
ASC64_14600	Unknown	AIRCARBOXY-RXN
ASC64_01040	Unknown	1.2.4.4-RXN;2.3.1.168-RXN;KETOISOCAPROATE-RXN;METHYLVALERATE-RXN;RXN-7790
ASC64_17445	Unknown	UROGENIIISYN-RXN
ASC64_17590	Unknown	2-HALOACID-DEHALOGENASE-RXN
ASC64_14865	Unknown	ADDALT-RXN;ADENODEAMIN-RXN
ASC64_15020	Unknown	RXN-14971;RXN-15378;SUCCINATE-DEHYDROGENASE-UBIQUINONE-RXN
ASC64_03185	Unknown	2.7.1.148-RXN
ASC64_08225	Unknown	GLUTCYSLIG-RXN
ASC64_08955	Unknown	RXN-11109
ASC64_02855	Unknown	PMPOXI-RXN;PNPOXI-RXN
ASC64_14885	Unknown	CYTIDEAM-RXN;CYTIDEAM2-RXN
ASC64_08585	Unknown	ACETYL-COA-ACETYLTRANSFER-RXN;METHYLACETOACETYLCOATHIOL-RXN;RXN-12561
ASC64_19440	Unknown	1PFRUCTPHOSN-RXN
ASC64_12870	Unknown	NICOTINATEPRIBOSYLTRANS-RXN
ASC64_17145	Unknown	GLYOXIII-RXN
ASC64_18375	Unknown	ARGSUCCINLYA-RXN;RXN-22
ASC64_03775	Unknown	DIACYLGLYCEROL-O-ACYLTRANSFERASE-RXN
ASC64_01610	Unknown	R341-RXN;RXN-14256;RXN-14257;RXN-8769
ASC64_16990	Unknown	ATPASE-RXN
ASC64_07845	Unknown	1.8.4.8-RXN
ASC64_07860	Unknown	GLYOHMETRANS-RXN;RXN0-5234
ASC64_01585	Unknown	RXN-8765
ASC64_20185	Unknown	PYFLAVOXRE-RXN;PYRUFLAVREDUCT-RXN
ASC64_20920	Unknown	RXN0-2621
ASC64_19625	pyrH	RXN-12002
ASC64_14835	Unknown	DEOXYRIBOSE-P-ALD-RXN
ASC64_09610	Unknown	ALANINE-DEHYDROGENASE-RXN
ASC64_05440	Unknown	1.6.99.5-RXN;NADH-DEHYDROGENASE-QUINONE-RXN
ASC64_01680	cobN	R342-RXN
ASC64_07450	Unknown	DIHYDRODIPICSYN-RXN
ASC64_03770	Unknown	RXN0-2621
ASC64_05565	Unknown	FUMARYLACETOACETASE-RXN
ASC64_20435	Unknown	IMP-DEHYDROG-RXN
ASC64_05940	Unknown	RXN-6501
ASC64_04390	Unknown	4OH2OXOGLUTARALDOL-RXN;KDPGALDOL-RXN
ASC64_15045	Unknown	RXN0-5062
ASC64_09730	Unknown	3.1.1.69-RXN
ASC64_06740	Unknown	3-OXOADIPATE-ENOL-LACTONASE-RXN;RXN-10083
ASC64_17125	Unknown	RXNI-2
ASC64_17840	Unknown	RXN-12587;RXN-12588;RXN-14382;RXN-14385;RXN-15881;RXN-9787;RXN0-308
ASC64_14810	Unknown	PHOSMANMUT-RXN
ASC64_12205	Unknown	RXN0-5398
ASC64_15330	Unknown	URUR-RXN
ASC64_15980	Unknown	RXN0-4261
ASC64_13730	Unknown	CYTIDEAM-RXN;CYTIDEAM2-RXN
ASC64_12805	Unknown	4-HYDROXYPHENYLPYRUVATE-DIOXYGENASE-RXN;RXN-10815
ASC64_14880	Unknown	THYM-PHOSPH-RXN;URA-PHOSPH-RXN;URPHOS-RXN
ASC64_01990	Unknown	FGAMSYN-RXN
ASC64_13440	Unknown	RXN0-5462
ASC64_18010	Unknown	PSERPHOSPHA-RXN;RXN0-5114
ASC64_09500	engA	RXN0-5462
ASC64_02900	Unknown	DIHYDROFOLATEREDUCT-RXN;RXN-18357
ASC64_08810	Unknown	HOMOCYSMET-RXN;HOMOCYSMETB12-RXN
ASC64_04060	Unknown	NAG1P-URIDYLTRANS-RXN
ASC64_09035	Unknown	IMP-DEHYDROG-RXN
ASC64_12945	rph	RXN0-6481;RXN0-6482;TRNA-NUCLEOTIDYLTRANSFERASE-RXN
ASC64_01895	Unknown	AICARSYN-RXN;AMPSYN-RXN
ASC64_05065	Unknown	RXN0-2661
ASC64_01655	Unknown	2.1.1.133-RXN
ASC64_05740	Unknown	RXN-8102
ASC64_21195	Unknown	RXN0-4261
ASC64_16355	pntB	PYRNUTRANSHYDROGEN-RXN;TRANS-RXN0-277
ASC64_09065	Unknown	PMPOXI-RXN;PNPOXI-RXN
ASC64_15025	sdhA	RXN-14971;RXN-15378;SUCCINATE-DEHYDROGENASE-UBIQUINONE-RXN
ASC64_01020	Unknown	GSHTRAN-RXN;GST-RXN;RXN-11663;RXN-13673;RXN-15680;RXN-18405;RXN-18407;RXNQT-4363
ASC64_18250	Unknown	ATPPHOSPHORIBOSYLTRANS-RXN
ASC64_17480	Unknown	2.7.13.3-RXN
ASC64_14805	Unknown	GLYOXIII-RXN
ASC64_01885	Unknown	GLYRIBONUCSYN-RXN
ASC64_16165	Unknown	RXN0-2161;SERINE--TRNA-LIGASE-RXN
ASC64_09645	ppnK	NAD-KIN-RXN
ASC64_11590	Unknown	RXN0-2584
ASC64_07340	Unknown	RXN-14950;RXN-14957;RXN-14959;RXN0-949
ASC64_08025	Unknown	PEPDEPHOS-RXN;RXN-14117;RXN-14192;RXN-14207
ASC64_11335	Unknown	2.7.13.3-RXN
ASC64_18515	Unknown	GALPMUT-RXN
ASC64_20265	Unknown	5.4.2.10-RXN;RXN-16424;RXN0-7139
ASC64_15835	Unknown	2.7.1.63-RXN
ASC64_18625	Unknown	NACGLCTRANS-RXN;RXN-8976
ASC64_12430	Unknown	DIACYLGLYCEROL-O-ACYLTRANSFERASE-RXN
ASC64_02740	Unknown	RXN-9990
ASC64_04120	Unknown	RXN-17155
ASC64_16460	Unknown	N-FORMYLGLUTAMATE-DEFORMYLASE-RXN
ASC64_03045	Unknown	RXN-14950;RXN-14957;RXN-14959;RXN0-949
ASC64_01620	Unknown	RXN-8771
ASC64_04875	Unknown	RXN-10696;RXN-10706;RXN-10707;RXN-11026;RXN-12518;RXN-12669;RXN-14576;RXN-14771;RXN-14775;RXN-14785;RXN-14789;RXN-14796;RXN-15977;RXN-16134;RXN-17113;RXN-18383;RXN-18461
ASC64_12110	Unknown	ACYLCOADEHYDROG-RXN;RXN-17775;RXN-17779;RXN-17783;RXN-17784;RXN-17788;RXN-17792;RXN-17796
ASC64_00975	Unknown	2.7.13.3-RXN
ASC64_17785	Unknown	HEMEOSYN-RXN
ASC64_04425	Unknown	RIBULOKIN-RXN;RXN0-5116
ASC64_03315	Unknown	DIAMINOPIMEPIM-RXN
ASC64_15325	Unknown	RXN-7682;RXN0-901
ASC64_10770	Unknown	2.5.1.19-RXN
ASC64_02510	Unknown	UDPGLUCEPIM-RXN
ASC64_20640	Unknown	HISTIDINE--TRNA-LIGASE-RXN
ASC64_16895	Unknown	TAGAALDOL-RXN
ASC64_07355	Unknown	RXN-13037;RXN0-947
ASC64_17955	Unknown	6.4.1.6-RXN;RXN-17566
ASC64_19460	Unknown	FADSYN-RXN;RIBOFLAVINKIN-RXN;RXN-18510;RXN-18511
ASC64_19550	Unknown	RXN0-882
ASC64_07515	Unknown	PHOSPHAGLYPSYN-RXN
ASC64_19320	Unknown	ATPSYN-RXN
ASC64_05415	Unknown	1.6.99.5-RXN;NADH-DEHYDROGENASE-QUINONE-RXN
ASC64_14705	Unknown	PROPIONYL-COA-CARBOXY-RXN;RXN0-5055;RXN1G-4355
ASC64_11360	Unknown	DIHYDROPYRIMIDINASE-RXN;RXN-11211;RXN-11217
ASC64_11005	Unknown	ALKANE-1-MONOOXYGENASE-RXN
ASC64_07990	Unknown	IGPSYN-RXN
ASC64_20605	Unknown	RXN0-4261
ASC64_09275	Unknown	PHOSPHAGLYPSYN-RXN
ASC64_01055	Unknown	RXN0-5055
ASC64_04305	Unknown	5.99.1.2-RXN
ASC64_19430	Unknown	2.7.3.9-RXN;RXN-17354;RXN-17355
ASC64_11410	Unknown	RXN-7682;RXN0-901
ASC64_15525	Unknown	MYO-INOSITOL-1-PHOSPHATE-SYNTHASE-RXN;RXN66-579
ASC64_02455	Unknown	RXN-19040;RXN0-6359;RXN0-6385;THIOSULFATE-SULFURTRANSFERASE-RXN
ASC64_12305	Unknown	TETHYDPICSUCC-RXN
ASC64_19670	Unknown	3.1.26.4-RXN
ASC64_19510	Unknown	2-HALOACID-DEHALOGENASE-RXN
ASC64_04600	Unknown	ALLOPHANATE-HYDROLASE-RXN
ASC64_01955	Unknown	O-SUCCINYLBENZOATE-COA-SYN-RXN
ASC64_13065	Unknown	THIOREDOXIN-REDUCT-NADPH-RXN
ASC64_18630	Unknown	UDP-NACMUR-ALA-LIG-RXN
ASC64_05575	Unknown	HOMOGENTISATE-12-DIOXYGENASE-RXN
ASC64_00325	Unknown	METHELENE-THMPT-OXI-RXN
ASC64_15145	Unknown	DEOXYRIBODIPYRIMIDINE-PHOTOLYASE-RXN;RXN-19025;RXN-19026;RXN-19242;RXN-19243;RXN-19244;RXN-19245;RXN-19246;RXN-19247;RXN-19248
ASC64_05765	Unknown	CHD-RXN;RXN0-7230
ASC64_00600	Unknown	ACYLCOASYN-RXN;LINOLENOYL-RXN;R223-RXN;RXN-12184;RXN-12978;RXN-13290;RXN-13614;RXN-16380;RXN-16389;RXN-16393;RXN-16401;RXN-16402;RXN-16415;RXN-16418;RXN-7904;RXN-9623;RXN-9644;RXN-9673;RXN0-7238;RXN0-7239;RXN0-7248;RXN66-469;RXN66-477;RXN66-480;RXN66-483;RXN66-484;TRANS-RXN0-623
ASC64_03865	Unknown	RXN-10642;UROGENDECARBOX-RXN
ASC64_16325	Unknown	URACIL-PRIBOSYLTRANS-RXN
ASC64_16180	Unknown	2-HALOACID-DEHALOGENASE-RXN
ASC64_17150	Unknown	12-OXOPHYTODIENOATE-REDUCTASE-RXN
ASC64_18245	hisE	HISTPRATPHYD-RXN
ASC64_09030	Unknown	UDPNACETYLGLUCOSAMENOLPYRTRANS-RXN
ASC64_15615	Unknown	RXN-11578
ASC64_17735	Unknown	TRIOSEPISOMERIZATION-RXN
ASC64_08580	fabG	3-OXOACYL-ACP-REDUCT-RXN;RXN-10060;RXN-10655;RXN-10659;RXN-11476;RXN-11480;RXN-13008;RXN-16616;RXN-16622;RXN-16626;RXN-16630;RXN-9514;RXN-9518;RXN-9524;RXN-9528;RXN-9532;RXN-9536;RXN-9540;RXN-9552;RXN-9556;RXN-9633;RXN0-2142;RXN1G-157;RXN1G-349;RXN1G-469;RXN1G-508
ASC64_19560	Unknown	DXPREDISOM-RXN
ASC64_08215	Unknown	DNA-DIRECTED-DNA-POLYMERASE-RXN
ASC64_06205	Unknown	1.11.1.15-RXN;RXN0-5468
ASC64_04510	Unknown	CITSYN-RXN
ASC64_09625	Unknown	CTPSYN-RXN;GLUTAMIN-RXN;RXN-14325
ASC64_02235	Unknown	IPPISOM-RXN
ASC64_01880	Unknown	ADENYLOSUCCINATE-SYNTHASE-RXN
ASC64_07910	Unknown	PHOSPHOGLUCMUT-RXN;RXN-16997;RXN-16998
ASC64_04045	Unknown	AMINOCYL-TRNA-HYDROLASE-RXN;RXN-16637
ASC64_17525	Unknown	MALEYLPYRUVATE-ISOMERASE-RXN
ASC64_06400	Unknown	GLUTAMINESYN-RXN
ASC64_21055	Unknown	SUCCINATE-SEMIALDEHYDE-DEHYDROGENASE-RXN
ASC64_08600	Unknown	ASPCARBTRANS-RXN
ASC64_04340	Unknown	1.11.1.15-RXN;RXN0-5468
ASC64_05550	Unknown	3.1.4.17-RXN
ASC64_02580	Unknown	ASPARAGHYD-RXN
ASC64_06830	Unknown	DNA-DIRECTED-DNA-POLYMERASE-RXN
ASC64_05150	Unknown	RXN-14903;RXN0-7008
ASC64_10905	Unknown	RXN-11752
ASC64_16810	Unknown	XYLULOKIN-RXN
ASC64_16925	Unknown	4.1.1.32-RXN;RXN-12481
ASC64_12330	ileS	ISOLEUCINE--TRNA-LIGASE-RXN
ASC64_14960	Unknown	R262-RXN
ASC64_06275	Unknown	4.2.3.12-RXN
ASC64_16120	Unknown	GUANYLCYC-RXN
ASC64_04960	Unknown	H2PTERIDINEPYROPHOSPHOKIN-RXN;RXN-15733
ASC64_06120	Unknown	RXN0-5131
ASC64_08135	Unknown	ATPASE-RXN
ASC64_12455	Unknown	1.2.1.42-RXN;RXN-14169
ASC64_05365	Unknown	ISOCHORSYN-RXN
ASC64_05400	Unknown	1.6.99.5-RXN;NADH-DEHYDROGENASE-QUINONE-RXN
ASC64_02040	Unknown	GLYRIBONUCSYN-RXN
ASC64_11780	Unknown	RXN-15122;THREDEHYD-RXN
ASC64_15295	Unknown	3.4.11.18-RXN;RXN-17873;RXN-17874;RXN-17875;RXN-17876;RXN-17877;RXN-17878
ASC64_15320	Unknown	RXN-7682;RXN0-901
ASC64_16110	Unknown	GLYCPDIESTER-RXN;RXN-14073;RXN-14136;RXN-14160
ASC64_16005	Unknown	METHYLCROTONYL-COA-CARBOXYLASE-RXN
ASC64_05920	Unknown	ASPARTATE-RACEMASE-RXN
ASC64_09885	Unknown	2.1.1.79-RXN;RXN-7421;RXN1G-2544;RXN1G-3641
ASC64_08670	Unknown	OROTPDECARB-RXN
ASC64_04545	Unknown	QOR-RXN
ASC64_10100	rocD	ORNITHINE--OXO-ACID-AMINOTRANSFERASE-RXN;ORNITHINE-GLU-AMINOTRANSFERASE-RXN
ASC64_15085	Unknown	MALATE-DEH-RXN
ASC64_11655	Unknown	GLYOXIII-RXN
ASC64_13525	Unknown	6.3.5.7-RXN
ASC64_15435	Unknown	RXN0-4261
ASC64_03695	Unknown	THIOREDOXIN-REDUCT-NADPH-RXN
ASC64_21160	Unknown	3-HYDROXYBUTYRATE-DEHYDROGENASE-RXN
ASC64_18575	Unknown	ATPASE-RXN
ASC64_20620	Unknown	ADENPRIBOSYLTRAN-RXN;RXN-14270
ASC64_00180	Unknown	DNA-DIRECTED-DNA-POLYMERASE-RXN
ASC64_19360	Unknown	RXN-14014
ASC64_20285	Unknown	FMNREDUCT-RXN;NADPH-DEHYDROGENASE-FLAVIN-RXN;RXN-12444
ASC64_14330	Unknown	ADENOSYLHOMOCYSTEINASE-RXN
ASC64_17705	Unknown	RXN0-2621
ASC64_03800	Unknown	ATPASE-RXN
ASC64_20570	Unknown	F16BDEPHOS-RXN
ASC64_15515	Unknown	GLY-X-CARBOXYPEPTIDASE-RXN
ASC64_06595	Unknown	HYALURONATE-LYASE-RXN
ASC64_06180	Unknown	GLYOXIII-RXN
ASC64_20010	Unknown	3.4.11.18-RXN;RXN-17873;RXN-17874;RXN-17875;RXN-17876;RXN-17877;RXN-17878
ASC64_04260	Unknown	RXN0-4261
ASC64_19185	Unknown	PRTRANS-RXN
ASC64_17045	Unknown	DNA-DIRECTED-DNA-POLYMERASE-RXN
ASC64_18355	Unknown	ACETYLORNTRANSAM-RXN;RXN-15007
ASC64_17260	Unknown	4.2.99.18-RXN
ASC64_19295	Unknown	QUINOLINATE-SYNTHA-RXN
ASC64_11415	Unknown	OHBENZCOARED-RXN
ASC64_04325	Unknown	DTMPKI-RXN
ASC64_13465	Unknown	RXN0-2023
ASC64_17290	Unknown	2.7.13.3-RXN
ASC64_19835	Unknown	RXN0-4261
ASC64_02085	Unknown	PHOSPHOKETOLASE-RXN
ASC64_10785	Unknown	HISTIDPHOS-RXN
ASC64_02970	Unknown	5-FORMYL-THF-CYCLO-LIGASE-RXN
ASC64_13610	Unknown	DIHYDROXYISOVALDEHYDRAT-RXN;DIHYDROXYMETVALDEHYDRAT-RXN
ASC64_00050	Unknown	CATAL-RXN;RXN-8667
ASC64_10520	Unknown	HOMOSERKIN-RXN
ASC64_07420	Unknown	THYMIDYLATESYN-RXN
ASC64_20700	Unknown	ALANINE--TRNA-LIGASE-RXN
ASC64_19655	Unknown	RXN1F-20
ASC64_06675	Unknown	MUCONOLACTONE-DELTA-ISOMERASE-RXN;RXN-10082
ASC64_10525	Unknown	THRESYN-RXN
ASC64_20890	Unknown	RXN-8665
ASC64_04125	Unknown	DIAMINOPIMDECARB-RXN
ASC64_13570	Unknown	RXN-11334
ASC64_09020	Unknown	GLYCPDIESTER-RXN;RXN-14073;RXN-14136;RXN-14160
ASC64_15070	Unknown	ISOCITDEH-RXN;RXN-8642;RXN-9951
ASC64_16045	Unknown	LEUCYLTRANSFERASE-RXN;RXN-17846;RXN-17847;RXN-17848
ASC64_05625	Unknown	AMIDASE-RXN;GUANIDINOBUTANAMIDE-NH3-RXN;PYRAZIN-RXN;R311-RXN;RXN-14727;RXN-14728;RXN-17608;RXNN-404
ASC64_15030	Unknown	RXN-14971;RXN-15378;SUCCINATE-DEHYDROGENASE-UBIQUINONE-RXN
ASC64_11195	Unknown	RXN-8529
ASC64_18985	thrS	THREONINE--TRNA-LIGASE-RXN
ASC64_03320	Unknown	1.1.1.178-RXN
ASC64_10200	Unknown	GLYCOPHOSPHORYL-RXN;GLYMALTOPHOSPHORYL-RXN;RXN-12171;RXN-12392;RXN-14284;RXN-14285;RXN-14286;RXN-14353;RXN-1826;RXN-9025;RXN0-5182;RXN0-5184
ASC64_04620	Unknown	1.2.1.27-RXN;RXN-11213;RXN-2902
ASC64_17535	Unknown	ALKYLMERCURY-LYASE-RXN;R581-RXN
ASC64_00470	Unknown	ALKYLGLYCERONE-PHOSPHATE-SYNTHASE-RXN
ASC64_01440	Unknown	IMIDAZOLONEPROPIONASE-RXN
ASC64_16470	Unknown	GLUTATHIONE-SYN-RXN
ASC64_19465	Unknown	TRNA-PSEUDOURIDINE-SYNTHASE-I-RXN
ASC64_14055	Unknown	RXN-9591
ASC64_09450	Unknown	2OXOGLUTARATEDEH-RXN;2OXOGLUTDECARB-RXN;RXN-7716;RXN0-1147
ASC64_08020	gltD	GLUTAMATESYN-RXN;GLUTAMIN-RXN;GLUTDEHYD-RXN
ASC64_20040	Unknown	ATPASE-RXN
ASC64_14675	Unknown	2.7.13.3-RXN
ASC64_15105	purH	AICARTRANSFORM-RXN;IMPCYCLOHYDROLASE-RXN
ASC64_03300	Unknown	RXN0-6274
ASC64_14760	Unknown	1.8.1.4-RXN;RXN-7716;RXN-7719;RXN-8629;RXN0-1132
ASC64_07970	Unknown	ADCLY-RXN
ASC64_05385	Unknown	RXN-9235
ASC64_18350	Unknown	ACETYLGLUTKIN-RXN;RXN-15005
ASC64_19825	Unknown	PANTEPADENYLYLTRAN-RXN
ASC64_04430	Unknown	ARABISOM-RXN
ASC64_16440	Unknown	2.7.13.3-RXN
ASC64_00820	Unknown	ACETYL-COA-CARBOXYLTRANSFER-RXN;RXN0-5055
ASC64_00990	Unknown	PROTEIN-TYROSINE-PHOSPHATASE-RXN
ASC64_07510	Unknown	RXN0-6366
ASC64_20735	Unknown	3-DEHYDROQUINATE-SYNTHASE-RXN
ASC64_08335	Unknown	5.99.1.2-RXN
ASC64_02390	Unknown	POLYPHOSPHATE-KINASE-RXN
ASC64_16350	Unknown	PYRNUTRANSHYDROGEN-RXN;TRANS-RXN0-277
ASC64_19830	Unknown	RXN0-6515
ASC64_16070	Unknown	ATPASE-RXN
ASC64_10635	Unknown	SUPEROX-DISMUT-RXN
ASC64_06330	Unknown	3-CH3-2-OXOBUTANOATE-OH-CH3-XFER-RXN;RXN-15635
ASC64_07975	Unknown	HISTCYCLOHYD-RXN
ASC64_02825	Unknown	PSERTRANSAM-RXN;PSERTRANSAMPYR-RXN
ASC64_08605	Unknown	DIHYDROOROT-RXN
ASC64_19020	Unknown	RXN-9591
ASC64_15875	Unknown	2.7.9.3-RXN
ASC64_02605	Unknown	DTDPDEHYRHAMREDUCT-RXN
ASC64_20005	Unknown	ADENYL-KIN-RXN
ASC64_11770	Unknown	METHYLASPARTATE-MUTASE-RXN
ASC64_05930	Unknown	3.1.26.4-RXN
ASC64_14020	Unknown	GLYC3PDEHYDROGBIOSYN-RXN
ASC64_02820	Unknown	5.99.1.2-RXN
ASC64_16385	Unknown	RXN0-5062
ASC64_16115	Unknown	5.99.1.3-RXN
ASC64_19770	Unknown	3.1.2.23-RXN
ASC64_12290	Unknown	SUCCINYLDIAMINOPIMTRANS-RXN
ASC64_12100	Unknown	3.1.11.2-RXN
ASC64_19810	Unknown	3.1.26.3-RXN
ASC64_16015	Unknown	HYDROXYMETHYLGLUTARYL-COA-LYASE-RXN
ASC64_19875	Unknown	TRNA-GUANINE-N7--METHYLTRANSFERASE-RXN
ASC64_19450	Unknown	PROTEIN-KINASE-RXN
ASC64_18420	Unknown	2.7.1.90-RXN
ASC64_11090	Unknown	ACETATEKIN-RXN
ASC64_09875	Unknown	RXN0-5462
ASC64_10860	Unknown	KANAMYCIN-KINASE-RXN
ASC64_10060	Unknown	LEUCINE--TRNA-LIGASE-RXN
ASC64_04195	Unknown	RXN0-5131
ASC64_06475	Unknown	DMBPPRIBOSYLTRANS-RXN;RXN-19295;RXN-19298;RXN-19299;RXN-19300;RXN-19301;RXN-19306
ASC64_15010	sdhA	RXN-14971;RXN-15378;SUCCINATE-DEHYDROGENASE-UBIQUINONE-RXN
ASC64_19065	Unknown	ACYLCOASYN-RXN;LINOLENOYL-RXN;R223-RXN;RXN-12184;RXN-12978;RXN-13290;RXN-13614;RXN-16380;RXN-16389;RXN-16393;RXN-16401;RXN-16402;RXN-16415;RXN-16418;RXN-7904;RXN-9623;RXN-9644;RXN-9673;RXN0-7238;RXN0-7239;RXN0-7248;RXN66-469;RXN66-477;RXN66-480;RXN66-483;RXN66-484;TRANS-RXN0-623
ASC64_04905	Unknown	INORGPYROPHOSPHAT-RXN
ASC64_16950	Unknown	ATPASE-RXN
ASC64_13100	Unknown	3.1.13.3-RXN
ASC64_07885	Unknown	GLUC1PADENYLTRANS-RXN
ASC64_08885	Unknown	RXN-16706;RXN-16708
ASC64_17115	Unknown	ATPASE-RXN
ASC64_10915	Unknown	RXN0-4261
ASC64_14770	Unknown	ADENPHOSPHOR-RXN;DEOXYADENPHOSPHOR-RXN;DEOXYGUANPHOSPHOR-RXN;DEOXYINOPHOSPHOR-RXN;INOPHOSPHOR-RXN;PNP-RXN;RXN-11715;RXN-11743;RXN-14029;RXN-7001;RXN0-5199;XANTHOSINEPHOSPHORY-RXN
ASC64_18770	Unknown	PRAISOM-RXN;PRIBFAICARPISOM-RXN
ASC64_07610	Unknown	THIAZOLSYN2-RXN
ASC64_10835	Unknown	2.7.7.39-RXN
ASC64_15000	Unknown	METHYLMALONYL-COA-MUT-RXN
ASC64_15660	Unknown	RXN0-5100
ASC64_02415	Unknown	RXN1G-4
ASC64_15675	Unknown	5.99.1.3-RXN
ASC64_20625	Unknown	GDPPYPHOSKIN-RXN;GTPPYPHOSKIN-RXN
ASC64_06200	Unknown	ACYLCOASYN-RXN;LINOLENOYL-RXN;R223-RXN;RXN-12184;RXN-12702;RXN-12746;RXN-12978;RXN-13290;RXN-13614;RXN-16380;RXN-16389;RXN-16393;RXN-16401;RXN-16402;RXN-16415;RXN-16418;RXN-7904;RXN-9623;RXN-9644;RXN-9673;RXN0-7238;RXN0-7239;RXN0-7248;RXN66-469;RXN66-477;RXN66-480;RXN66-483;RXN66-484;TRANS-RXN0-623
ASC64_06145	Unknown	PROPIONYL-COA-CARBOXY-RXN;RXN1G-4355
ASC64_09580	Unknown	GLUCONOKIN-RXN
ASC64_19260	Unknown	RIBOKIN-RXN;RXN-14223
ASC64_21410	Unknown	2-HALOACID-DEHALOGENASE-RXN
ASC64_18960	Unknown	CATAL-RXN;RXN-14189;RXN66-1
ASC64_20845	ligB	DNA-LIGASE-ATP-RXN;RXN-17917;RXN-17918;RXN-17919
ASC64_17995	Unknown	3.4.15.6-RXN
ASC64_06030	Unknown	CYSTEINE--TRNA-LIGASE-RXN
