{
    "com_prodtargets": [],
    "com_scope": [
        "M_2__45__KETO__45__3__45__METHYL__45__VALERATE_c",
        "M_CPD__45__650_c",
        "M_OXALO__45__SUCCINATE_c",
        "M_PHENYL__45__PYRUVATE_c",
        "M_CPD__45__11495_c",
        "M_SUC__45__COA_c",
        "M_THIAMINE__45__PYROPHOSPHATE_c",
        "M_FUM_c",
        "M_4__45__IMIDAZOLONE__45__5__45__PROPIONATE_c",
        "M_HOMOGENTISATE_c",
        "M_S__45__ADENOSYLMETHIONINE_c",
        "M_CAMP_c",
        "M_THZ__45__P_c",
        "M_GLUTATHIONE_c",
        "M_GLC__45__D__45__LACTONE_c",
        "M_OROTATE_c",
        "M_CPD__45__1106_c",
        "M_G3P_c",
        "M_CIS__45__ACONITATE_c",
        "M_2__45__PG_c",
        "M_2__45__AMINOACRYLATE_c",
        "M_GDP__45__TP_c",
        "M_CPD__45__302_c",
        "M_L__45__GLUTAMATE__45__5__45__P_c",
        "M_INDOLE_PYRUVATE_c",
        "M_S__45__3__45__HYDROXYBUTANOYL__45__COA_c",
        "M_CARBAMATE_c",
        "M_CPD__45__551_c",
        "M_P__45__HYDROXY__45__PHENYLPYRUVATE_c",
        "M_INOSINE_c",
        "M_ADENYLOSUCC_c",
        "M_ACETONE_c",
        "M_CPD__45__618_c",
        "M_2__45__ACETO__45__2__45__HYDROXY__45__BUTYRATE_c",
        "M_PHOSPHO__45__ENOL__45__PYRUVATE_c",
        "M_CPD__45__479_c",
        "M_CPD__45__14443_c",
        "M_NMNH_c",
        "M_MAL_c",
        "M_CGMP_c",
        "M_GLN_c",
        "M_CPD__45__335_c",
        "M_CPD0__45__1699_c",
        "M_3__45__P__45__HYDROXYPYRUVATE_c",
        "M_DIHYDRONEOPTERIN__45__P3_c",
        "M_H2CO3_c",
        "M_2__45__KETO__45__ISOVALERATE_c",
        "M_ADENOSINE_c",
        "M_ACETALD_c",
        "M_THZ_c",
        "M_L__45__GAMMA__45__GLUTAMYLCYSTEINE_c",
        "M_IMINOASPARTATE_c",
        "M_ACET_c",
        "M_GLYCOLLATE_c",
        "M_N__45__ACETYL__45__GLUTAMYL__45__P_c",
        "M_HCO3_c",
        "M_ACETOACETYL__45__COA_c",
        "M_2__45__D__45__THREO__45__HYDROXY__45__3__45__CARBOXY__45__ISOCAPROATE_c",
        "M_CPD0__45__2015_c",
        "M_ACETYL__45__COA_c",
        "M_L__45__GLUTAMATE_GAMMA__45__SEMIALDEHYDE_c",
        "M_D__45__ALA__45__D__45__ALA_c",
        "M_7__45__CYANO__45__7__45__DEAZAGUANINE_c",
        "M_CARBAMOYL__45__P_c",
        "M_AMINO__45__HYDROXYMETHYL__45__METHYLPYRIMIDINE__45__PP_c",
        "M_HS_c",
        "M_L__45__ORNITHINE_c",
        "M_3__45__KETOBUTYRATE_c",
        "M_NICOTINAMIDE_RIBOSE_c",
        "M_FORMAMIDE_c",
        "M_CHORISMATE_c",
        "M_NICOTINAMIDE_NUCLEOTIDE_c",
        "M_AMINO__45__HYDROXYMETHYL__45__METHYL__45__PYR__45__P_c",
        "M_L__45__ASPARTATE__45__SEMIALDEHYDE_c",
        "M_L__45__BETA__45__ASPARTYL__45__P_c",
        "M_GLYOX_c",
        "M_CPD__45__7100_c",
        "M_DI__45__H__45__OROTATE_c",
        "M_OXALACETIC_ACID_c",
        "M_GUANOSINE__45__5DP__45__3DP_c",
        "M_2__45__OXOBUTANOATE_c",
        "M_CPD__45__18238_c",
        "M_2__45__KETOGLUTARATE_c",
        "M_CTP_c",
        "M_PREPHENATE_c",
        "M_PYRUVATE_c",
        "M_N__45__ALPHA__45__ACETYLORNITHINE_c",
        "M_CPD__45__13357_c",
        "M_THIAMINE__45__P_c",
        "M_UROCANATE_c",
        "M_ACETYL__45__P_c",
        "M_MALONYL__45__COA_c",
        "M_ACETYL__45__GLU_c",
        "M_CPD__45__15435_c",
        "M_ACETYLSERINE_c",
        "M_CPD__45__470_c",
        "M_P3I_c",
        "M_CARBAMYUL__45__L__45__ASPARTATE_c",
        "M_2K__45__4CH3__45__PENTANOATE_c",
        "M_APS_c",
        "M_FORMATE_c",
        "M_CPD__45__9451_c",
        "M_UTP_c",
        "M_7__45__AMINOMETHYL__45__7__45__DEAZAGUANINE_c",
        "M_HMP_c",
        "M_N__45__FORMIMINO__45__L__45__GLUTAMATE_c",
        "M_CPD__45__469_c",
        "M_L__45__ARGININO__45__SUCCINATE_c",
        "M_3__45__P__45__SERINE_c",
        "M_D__45__GLT_c",
        "M_2__45__ACETO__45__LACTATE_c",
        "M_D__45__ALANINE_c",
        "M_DPG_c",
        "M_1__45__KETO__45__2__45__METHYLVALERATE_c",
        "M_3__45__CARBOXY__45__3__45__HYDROXY__45__ISOCAPROATE_c",
        "M_CPD__45__13043_c",
        "M_THREO__45__DS__45__ISO__45__CITRATE_c",
        "M_CPD__45__15056_c"
    ],
    "com_unprodtargets": [
        "M_ETHYLENE__45__CMPD_c",
        "M_CPD__45__734_c",
        "M_CPD__45__693_c",
        "M_CPD__45__110_c"
    ],
    "targets_producers": {}
}