{
    "com_prodtargets": [],
    "com_scope": [
        "M_2__45__KETO__45__3__45__METHYL__45__VALERATE_c",
        "M_CPD__45__650_c",
        "M_OXALO__45__SUCCINATE_c",
        "M_GLYCERATE_c",
        "M_PHENYL__45__PYRUVATE_c",
        "M_CPD__45__11495_c",
        "M_SUC__45__COA_c",
        "M_ADENINE_c",
        "M_FUM_c",
        "M_2__45__METHYL__45__ACETO__45__ACETYL__45__COA_c",
        "M_HOMOGENTISATE_c",
        "M_S__45__ADENOSYLMETHIONINE_c",
        "M_CAMP_c",
        "M_O__45__SUCCINYL__45__L__45__HOMOSERINE_c",
        "M_GLUTATHIONE_c",
        "M_O__45__PHOSPHO__45__L__45__HOMOSERINE_c",
        "M_HOMO__45__SER_c",
        "M_2__45__PG_c",
        "M_CIS__45__ACONITATE_c",
        "M_2__45__AMINOACRYLATE_c",
        "M_GDP__45__TP_c",
        "M_L__45__GLUTAMATE__45__5__45__P_c",
        "M_S__45__ADENOSYLMETHIONINAMINE_c",
        "M_CPD__45__1083_c",
        "M_INDOLE_PYRUVATE_c",
        "M_HYDROGEN__45__MOLECULE_c",
        "M_TARTRONATE__45__S__45__ALD_c",
        "M_METHYL__45__MALONYL__45__COA_c",
        "M_P__45__HYDROXY__45__PHENYLPYRUVATE_c",
        "M_INOSINE_c",
        "M_CPD__45__564_c",
        "M_CPD__45__15317_c",
        "M_3__45__SULFINOALANINE_c",
        "M_ADENYLOSUCC_c",
        "M_CPD__45__618_c",
        "M_ADENOSYL__45__HOMO__45__CYS_c",
        "M_4__45__MALEYL__45__ACETOACETATE_c",
        "M_PHOSPHO__45__ENOL__45__PYRUVATE_c",
        "M_CPD__45__14443_c",
        "M_CPD__45__479_c",
        "M_MAL_c",
        "M_GLN_c",
        "M_CPD__45__335_c",
        "M_CPD__45__15285_c",
        "M_4__45__HYDROXY__45__2__45__KETOVALERATE_c",
        "M_PROPIONYL__45__COA_c",
        "M_H2CO3_c",
        "M_2__45__KETO__45__ISOVALERATE_c",
        "M_ADENOSINE_c",
        "M_ACETALD_c",
        "M_L__45__GAMMA__45__GLUTAMYLCYSTEINE_c",
        "M_IMINOASPARTATE_c",
        "M_ACET_c",
        "M_D__45__METHYL__45__MALONYL__45__COA_c",
        "M_N__45__ACETYL__45__GLUTAMYL__45__P_c",
        "M_HCO3_c",
        "M_ACETOACETYL__45__COA_c",
        "M_2__45__D__45__THREO__45__HYDROXY__45__3__45__CARBOXY__45__ISOCAPROATE_c",
        "M_CPD0__45__2015_c",
        "M_2__45__METHYL__45__3__45__HYDROXY__45__BUTYRYL__45__COA_c",
        "M_CPD__45__667_c",
        "M_ACETYL__45__COA_c",
        "M_L__45__GLUTAMATE_GAMMA__45__SEMIALDEHYDE_c",
        "M_D__45__ALA__45__D__45__ALA_c",
        "M_5__45__KETO__45__4__45__DEOXY__45__D__45__GLUCARATE_c",
        "M_HS_c",
        "M_L__45__ORNITHINE_c",
        "M_3__45__KETOBUTYRATE_c",
        "M_OH__45__PYR_c",
        "M_CPD__45__15280_c",
        "M_L__45__ASPARTATE__45__SEMIALDEHYDE_c",
        "M_L__45__BETA__45__ASPARTYL__45__P_c",
        "M_CPD__45__9409_c",
        "M_UREA_c",
        "M_GLYOX_c",
        "M_CPD__45__7100_c",
        "M_GUANOSINE__45__5DP__45__3DP_c",
        "M_OXALACETIC_ACID_c",
        "M_2__45__OXOBUTANOATE_c",
        "M_2__45__KETOGLUTARATE_c",
        "M_CTP_c",
        "M_PYRUVATE_c",
        "M_N__45__ALPHA__45__ACETYLORNITHINE_c",
        "M_NALPHANALPHA__45__DIMETHYL__45__L__45__HISTIDINE_c",
        "M_4__45__FUMARYL__45__ACETOACETATE_c",
        "M_ACETYL__45__GLU_c",
        "M_MALONYL__45__COA_c",
        "M_CPD__45__208_c",
        "M_ACETYLSERINE_c",
        "M_CADAVERINE_c",
        "M_2K__45__4CH3__45__PENTANOATE_c",
        "M_APS_c",
        "M_2__45__KETO__45__3__45__DEOXY__45__D__45__GLUCARATE_c",
        "M_OXOPENTENOATE_c",
        "M_CPD__45__9451_c",
        "M_UTP_c",
        "M_3__45__HYDROXY__45__ISOVALERYL__45__COA_c",
        "M_CPD__45__469_c",
        "M_L__45__ARGININO__45__SUCCINATE_c",
        "M_D__45__GLT_c",
        "M_HOMO__45__CYS_c",
        "M_D__45__ALANINE_c",
        "M_3__45__CARBOXY__45__3__45__HYDROXY__45__ISOCAPROATE_c",
        "M_THREO__45__DS__45__ISO__45__CITRATE_c",
        "M_CPD__45__15056_c"
    ],
    "com_unprodtargets": [
        "M_ETHYLENE__45__CMPD_c",
        "M_CPD__45__734_c",
        "M_CPD__45__693_c",
        "M_CPD__45__110_c"
    ],
    "targets_producers": {}
}