{
    "com_prodtargets": [],
    "com_scope": [
        "M_2__45__KETO__45__3__45__METHYL__45__VALERATE_c",
        "M_OXALO__45__SUCCINATE_c",
        "M_SUC__45__COA_c",
        "M_DIMETHYLBENZIMIDAZOLE_c",
        "M_FUM_c",
        "M_4__45__P__45__PANTOTHENATE_c",
        "M_S__45__ADENOSYLMETHIONINE_c",
        "M_GLUTATHIONE_c",
        "M_FMN_c",
        "M_CIS__45__ACONITATE_c",
        "M_GDP__45__TP_c",
        "M_L__45__GLUTAMATE__45__5__45__P_c",
        "M_2__45__METHYL__45__BUTYRYL__45__COA_c",
        "M_METHYL__45__MALONYL__45__COA_c",
        "M_ADENYLOSUCC_c",
        "M_CPD__45__3736_c",
        "M_CPD__45__317_c",
        "M_CIT_c",
        "M_ISOBUTYRYL__45__COA_c",
        "M_CPD__45__14443_c",
        "M_MAL_c",
        "M_CGMP_c",
        "M_GLN_c",
        "M_ERYTHROSE__45__4P_c",
        "M_PROPIONYL__45__COA_c",
        "M_H2CO3_c",
        "M_DIHYDRONEOPTERIN__45__P3_c",
        "M_2__45__KETO__45__ISOVALERATE_c",
        "M_ACRYLYL__45__COA_c",
        "M_L__45__GAMMA__45__GLUTAMYLCYSTEINE_c",
        "M_IMINOASPARTATE_c",
        "M_D__45__METHYL__45__MALONYL__45__COA_c",
        "M_HCO3_c",
        "M_HYDROXYLAMINE_c",
        "M_CPD__45__15999_c",
        "M_FMNH2_c",
        "M_SUCC__45__S__45__ALD_c",
        "M_L__45__GLUTAMATE_GAMMA__45__SEMIALDEHYDE_c",
        "M_D__45__ALA__45__D__45__ALA_c",
        "M_HS_c",
        "M_SUC_c",
        "M_L__45__ORNITHINE_c",
        "M_L__45__ASPARTATE__45__SEMIALDEHYDE_c",
        "M_L__45__BETA__45__ASPARTYL__45__P_c",
        "M_GUANOSINE__45__5DP__45__3DP_c",
        "M_OXALACETIC_ACID_c",
        "M_2__45__OXOBUTANOATE_c",
        "M_2__45__KETOGLUTARATE_c",
        "M_CPD__45__316_c",
        "M_CTP_c",
        "M_4__45__AMINO__45__4__45__DEOXYCHORISMATE_c",
        "M_4__45__AMINO__45__BUTYRATE_c",
        "M_PYRUVATE_c",
        "M_2K__45__4CH3__45__PENTANOATE_c",
        "M_APS_c",
        "M_FORMATE_c",
        "M_NIACINE_c",
        "M_UTP_c",
        "M_L__45__ARGININO__45__SUCCINATE_c",
        "M_D__45__GLT_c",
        "M_D__45__ALANINE_c",
        "M_ISOVALERYL__45__COA_c",
        "M_THREO__45__DS__45__ISO__45__CITRATE_c",
        "M_CPD__45__15056_c"
    ],
    "com_unprodtargets": [
        "M_INDOLE_ACETATE_AUXIN_c",
        "M_ETHYLENE__45__CMPD_c",
        "M_CPD__45__693_c",
        "M_CPD__45__734_c",
        "M_CPD__45__110_c"
    ],
    "targets_producers": {}
}