id	Common name	linked reactions
ASC97_21390	Unknown	DAPASYN-RXN
ASC97_03460	Unknown	GSADENYLATION-RXN
ASC97_29985	Unknown	ASPAMINOTRANS-RXN;ASPARTATE-4-DECARBOXYLASE-RXN;RXN-10814;RXN-11737;RXN-13697
ASC97_03065	Unknown	NAG1P-URIDYLTRANS-RXN
ASC97_09060	Unknown	DNA-DIRECTED-DNA-POLYMERASE-RXN;RXN0-4961
ASC97_15605	Unknown	RXN-18399;RXN-18428;RXN-18430
ASC97_28210	Unknown	N-ACETYLGLUCOSAMINE-KINASE-RXN
ASC97_28060	Unknown	4.2.1.41-RXN
ASC97_21020	Unknown	PMPOXI-RXN;PNPOXI-RXN
ASC97_10705	Unknown	RXN-13908;RXN-7908
ASC97_12945	Unknown	XYLULOKIN-RXN
ASC97_17075	Unknown	2.4.1.36-RXN;RXN-761;TREHALOSE6PSYN-RXN
ASC97_06440	Unknown	GLYOXI-RXN
ASC97_01390	Unknown	GLUTCYSLIG-RXN
ASC97_31500	Unknown	ISOCHORMAT-RXN
ASC97_26910	Unknown	GLUCISOM-RXN;XYLISOM-RXN
ASC97_15035	Unknown	MALONYL-COA-ACP-TRANSACYL-RXN
ASC97_19765	Unknown	PGLYCDEHYDROG-RXN
ASC97_14875	Unknown	PHOSPHASERDECARB-RXN
ASC97_09345	Unknown	1.10.2.2-RXN;RXN-15829
ASC97_08060	Unknown	RXN1A0-6303
ASC97_17600	Unknown	3.6.1.41-RXN
ASC97_02605	Unknown	GSHTRAN-RXN;GST-RXN;RXN-11663;RXN-13673;RXN-15680;RXN-18405;RXN-18407;RXNQT-4363
ASC97_10205	Unknown	ACETYL-COA-ACETYLTRANSFER-RXN;METHYLACETOACETYLCOATHIOL-RXN;RXN-12561
ASC97_15410	Unknown	GLYCEROL-1-PHOSPHATASE-RXN;RXN-14964;RXN-14965
ASC97_25455	Unknown	PEPTIDYLPROLYL-ISOMERASE-RXN
ASC97_04645	Unknown	RXN-16427;RXN-16456;RXN0-262
ASC97_12290	Unknown	3-NUCLEOTID-RXN;5-NUCLEOTID-RXN;AMP-DEPHOSPHORYLATION-RXN;CYCPHOSDIESTER-RXN;RXN-14025;RXN-14026;RXN-14064;RXN-14090;RXN-14091;RXN-14112;RXN-14113;RXN-14115;RXN-14124;RXN-14126;RXN-14227;RXN-5841;RXN-7607;RXN-7609;XMPXAN-RXN
ASC97_09980	proA	GLUTSEMIALDEHYDROG-RXN
ASC97_08515	Unknown	LYSOPHOSPHOLIPASE-RXN;RXN-15035;RXN-19312
ASC97_10810	Unknown	GLUTAMIN-RXN;GMP-SYN-GLUT-RXN;GMP-SYN-NH3-RXN
ASC97_19810	Unknown	ADENYLATECYC-RXN
ASC97_21920	Unknown	DNA-DIRECTED-DNA-POLYMERASE-RXN
ASC97_27895	Unknown	3.2.1.52-RXN;RXN-12625;RXN-12626;RXN-18082;RXN0-5226
ASC97_19000	Unknown	ACYLCOADEHYDROG-RXN;RXN-17775;RXN-17779;RXN-17783;RXN-17784;RXN-17788;RXN-17792;RXN-17796
ASC97_20755	Unknown	ALLANTOINASE-RXN
ASC97_24265	Unknown	3.5.5.1-RXN;RXN-1404;RXN-17607;RXN-18229
ASC97_25985	Unknown	RXN-9591
ASC97_04090	Unknown	DNA-DIRECTED-DNA-POLYMERASE-RXN
ASC97_10185	Unknown	GSHTRAN-RXN;GST-RXN;RXN-11663;RXN-13673;RXN-15680;RXN-18405;RXN-18407;RXNQT-4363
ASC97_13220	Unknown	1.11.1.15-RXN;RXN0-5468
ASC97_18570	Unknown	DIHYDROXYISOVALDEHYDRAT-RXN;DIHYDROXYMETVALDEHYDRAT-RXN
ASC97_14200	Unknown	ACYLCOADEHYDROG-RXN;RXN-17775;RXN-17779;RXN-17783;RXN-17784;RXN-17788;RXN-17792;RXN-17796
ASC97_25955	Unknown	GLYOXII-RXN;RXN-7919
ASC97_23960	Unknown	N-FORMYLGLUTAMATE-DEFORMYLASE-RXN
ASC97_11530	Unknown	3-DEHYDROQUINATE-DEHYDRATASE-RXN
ASC97_00785	Unknown	CDP-GLUCOSE-46-DEHYDRATASE-RXN
ASC97_31165	Unknown	GPPSYN-RXN
ASC97_25860	Unknown	RXN0-5100
ASC97_14100	Unknown	DIHYDRODIPICSYN-RXN
ASC97_09920	Unknown	METHYLCROTONYL-COA-CARBOXYLASE-RXN
ASC97_31790	Unknown	GLUCISOM-RXN;XYLISOM-RXN
ASC97_25015	Unknown	RXN1A0-6303
ASC97_11640	Unknown	CYTDEAM-RXN;RXN-14129;RXN-14197
ASC97_09780	purH	AICARTRANSFORM-RXN;IMPCYCLOHYDROLASE-RXN
ASC97_09480	Unknown	PRIBFAICARPISOM-RXN
ASC97_20630	Unknown	MYO-INOSITOL-2-DEHYDROGENASE-RXN
ASC97_25385	Unknown	ADENYLATECYC-RXN
ASC97_14070	araG	3.6.3.17-RXN;TRANS-RXN-320
ASC97_06420	Unknown	RXN-12508;RXN-12583;RXN0-1134
ASC97_01680	Unknown	3-OXOACYL-ACP-REDUCT-RXN;RXN-10060;RXN-10655;RXN-10659;RXN-11476;RXN-11480;RXN-13008;RXN-16616;RXN-16622;RXN-16626;RXN-16630;RXN-9514;RXN-9518;RXN-9524;RXN-9528;RXN-9532;RXN-9536;RXN-9540;RXN-9552;RXN-9556;RXN-9633;RXN0-2142;RXN1G-157;RXN1G-349;RXN1G-469;RXN1G-508
ASC97_08370	murC	UDP-NACMUR-ALA-LIG-RXN
ASC97_14820	Unknown	PROTEIN-TYROSINE-PHOSPHATASE-RXN
ASC97_14675	Unknown	RXN-14149
ASC97_28675	Unknown	ISOCHORMAT-RXN
ASC97_27125	Unknown	3-CH3-2-OXOBUTANOATE-OH-CH3-XFER-RXN;RXN-15635
ASC97_12220	Unknown	DIMETHUROPORDEHYDROG-RXN;SIROHEME-FERROCHELAT-RXN;UROPORIIIMETHYLTRANSA-RXN
ASC97_14240	Unknown	GUANINE-DEAMINASE-RXN;RXN-15261
ASC97_08085	Unknown	PSERPHOSPHA-RXN;RXN0-5114
ASC97_19570	Unknown	RXN0-4261
ASC97_19865	Unknown	RXN0-2023
ASC97_13195	Unknown	N-ACETYLGLUCOSAMINE-KINASE-RXN
ASC97_14965	Unknown	ALARACECAT-RXN
ASC97_15325	Unknown	AMIDASE-RXN;GUANIDINOBUTANAMIDE-NH3-RXN;PYRAZIN-RXN;R311-RXN;RXN-14727;RXN-14728;RXN-17608;RXNN-404
ASC97_19290	Unknown	ALKAPHOSPHA-RXN;RXN-5822;RXN-8748
ASC97_25655	Unknown	3.1.3.16-RXN
ASC97_12590	Unknown	IMP-DEHYDROG-RXN
ASC97_26010	Unknown	GUANPRIBOSYLTRAN-RXN;HYPOXANPRIBOSYLTRAN-RXN
ASC97_05950	Unknown	ADENYLATECYC-RXN
ASC97_15360	Unknown	LUMAZINESYN-RXN
ASC97_21405	Unknown	2.8.1.6-RXN;RXN-17472;RXN-17473
ASC97_10535	Unknown	3-ISOPROPYLMALISOM-RXN;R-2-METHYLMALATE-DEHYDRATASE-RXN;RXN-13163;RXN-7744;RXN-8991
ASC97_22770	Unknown	2.7.13.3-RXN
ASC97_28235	Unknown	TAGAALDOL-RXN
ASC97_02930	Unknown	SUPEROX-DISMUT-RXN
ASC97_13530	Unknown	2.1.1.79-RXN;RXN-7421;RXN1G-2544;RXN1G-3641
ASC97_10345	Unknown	ACYLCOADEHYDROG-RXN;RXN-17775;RXN-17779;RXN-17783;RXN-17784;RXN-17788;RXN-17792;RXN-17796
ASC97_14830	Unknown	GCVT-RXN
ASC97_05960	Unknown	CITSYN-RXN
ASC97_02420	Unknown	ACETATEKIN-RXN
ASC97_18070	Unknown	URACIL-PRIBOSYLTRANS-RXN
ASC97_08995	Unknown	6.3.5.7-RXN
ASC97_19315	Unknown	D-ALANINE-AMINOTRANSFERASE-RXN
ASC97_01735	Unknown	ATPSYN-RXN
ASC97_23725	Unknown	AGMATIN-RXN
ASC97_09495	Unknown	PANTOTHENATE-KIN-RXN
ASC97_31635	Unknown	GLYCEROL-1-PHOSPHATASE-RXN;RXN-14964;RXN-14965
ASC97_18135	Unknown	NICOTINATEPRIBOSYLTRANS-RXN
ASC97_07610	Unknown	RXN0-5131
ASC97_15065	Unknown	GUANYL-KIN-RXN
ASC97_11590	Unknown	R321-RXN
ASC97_00590	Unknown	ATPASE-RXN
ASC97_12310	Unknown	RXN-12093
ASC97_20025	Unknown	N-FORMYLGLUTAMATE-DEFORMYLASE-RXN
ASC97_07715	Unknown	RXN0-5131
ASC97_14870	Unknown	PHOSPHASERSYN-RXN
ASC97_20805	lldD	L-LACTATE-DEHYDROGENASE-CYTOCHROME-RXN
ASC97_08455	Unknown	2.7.1.90-RXN
ASC97_31125	Unknown	MANNONDEHYDRAT-RXN
ASC97_02470	Unknown	GLYOXIII-RXN
ASC97_01555	Unknown	2-HALOACID-DEHALOGENASE-RXN;3.8.1.11-RXN;RXN-6263;RXN-6264
ASC97_27090	Unknown	GLUTAMINESYN-RXN
ASC97_06455	gltA	CITSYN-RXN
ASC97_18230	Unknown	RXN-17954;RXN-17957;RXN0-6732
ASC97_13625	Unknown	GLUCONATE-5-DEHYDROGENASE-RXN
ASC97_02120	Unknown	HEMEOSYN-RXN
ASC97_06040	Unknown	THREONINE--TRNA-LIGASE-RXN
ASC97_15055	Unknown	ADCLY-RXN
ASC97_23825	dnaE2	DNA-DIRECTED-DNA-POLYMERASE-RXN;RXN0-4961
ASC97_26290	Unknown	ASPARTATEKIN-RXN
ASC97_24335	Unknown	2-HALOACID-DEHALOGENASE-RXN;3.8.1.11-RXN;RXN-6263;RXN-6264
ASC97_17595	Unknown	NADPYROPHOSPHAT-RXN;RXN0-4401
ASC97_04545	Unknown	2.7.13.3-RXN
ASC97_19200	Unknown	RXN0-5131
ASC97_18625	Unknown	N-ACETYLGLUTPREDUCT-RXN;RXN-15006
ASC97_04455	Unknown	RXN-2
ASC97_16515	Unknown	R4-RXN
ASC97_09975	Unknown	GLUTKIN-RXN
ASC97_24845	Unknown	AMIDASE-RXN;GUANIDINOBUTANAMIDE-NH3-RXN;PYRAZIN-RXN;R311-RXN;RXN-14727;RXN-14728;RXN-17608;RXNN-404
ASC97_07965	Unknown	ASPARTATE-RACEMASE-RXN
ASC97_12915	Unknown	ADENYLATECYC-RXN
ASC97_19775	Unknown	ATPASE-RXN
ASC97_19960	Unknown	ALPHAGALACTOSID-RXN;MALTODEXGLUCOSID-RXN;RXN-11501;RXN-11502;RXN-12088;RXN-14281;RXN-14282;RXN-14283;RXN-15910;RXN-17754;RXN-17830;RXN0-5183
ASC97_23780	Unknown	KDUD-RXN
ASC97_21495	Unknown	PROTEIN-KINASE-RXN
ASC97_17750	Unknown	RXN-11832;RXN-12002;RXN-7913
ASC97_09735	Unknown	LEUCINE--TRNA-LIGASE-RXN
ASC97_01650	Unknown	2.7.13.3-RXN
ASC97_04555	Unknown	RXN0-2584
ASC97_11135	Unknown	5-METHYLTHIORIBOSE-KINASE-RXN
ASC97_28145	Unknown	DIHYDRODIPICSYN-RXN
ASC97_06840	Unknown	RXN0-2161;SERINE--TRNA-LIGASE-RXN
ASC97_19745	glmM	5.4.2.10-RXN;RXN-16424;RXN0-7139
ASC97_26765	Unknown	CYTOCHROME-C-OXIDASE-RXN;RXN-15830
ASC97_14320	Unknown	CYTDEAM-RXN;RXN-14129;RXN-14197
ASC97_21305	Unknown	ADENYLATECYC-RXN
ASC97_11120	Unknown	1TRANSKETO-RXN;2TRANSKETO-RXN
ASC97_23540	Unknown	RXN0-5131
ASC97_06435	Unknown	KDO-8PSYNTH-RXN
ASC97_20255	Unknown	4-CARBOXYMUCONOLACTONE-DECARBOXYLASE-RXN
ASC97_30760	Unknown	RXN0-5131
ASC97_15345	Unknown	RIBOFLAVIN-SYN-RXN
ASC97_29300	Unknown	ACYLCOADEHYDROG-RXN;RXN-17775;RXN-17779;RXN-17783;RXN-17784;RXN-17788;RXN-17792;RXN-17796
ASC97_00555	Unknown	GLYOXIII-RXN
ASC97_23345	Unknown	MANNPISOM-RXN
ASC97_08145	Unknown	RXN1A0-6303
ASC97_11580	Unknown	2.1.1.130-RXN
ASC97_25670	Unknown	GLYCPDIESTER-RXN;RXN-14073;RXN-14136;RXN-14160
ASC97_13465	Unknown	DNA-DIRECTED-DNA-POLYMERASE-RXN;RXN0-4961
ASC97_20230	Unknown	4-HYDROXYBENZOATE-3-MONOOXYGENASE-RXN
ASC97_14720	Unknown	DIHYDRODIPICSYN-RXN
ASC97_02415	Unknown	PHOSACETYLTRANS-RXN
ASC97_15120	Unknown	GALACTODEHYDROG-RXN
ASC97_02340	Unknown	PYRUVATEORTHOPHOSPHATE-DIKINASE-RXN
ASC97_07495	Unknown	GUANPRIBOSYLTRAN-RXN;HYPOXANPRIBOSYLTRAN-RXN;XANPRIBOSYLTRAN-RXN
ASC97_04930	Unknown	ALKAPHOSPHA-RXN;RXN-5822;RXN-8748
ASC97_20210	Unknown	3-OXOADIPATE-COA-TRANSFERASE-RXN;RXN-10085
ASC97_00465	Unknown	HISTALDEHYD-RXN;HISTOLDEHYD-RXN;RXN-8001
ASC97_14790	Unknown	RXN-8351
ASC97_21120	Unknown	3.4.21.92-RXN
ASC97_13650	Unknown	MYO-INOSITOL-1OR-4-MONOPHOSPHATASE-RXN;RXN-7253;RXN0-5408
ASC97_16670	Unknown	METHIONYL-TRNA-FORMYLTRANSFERASE-RXN
ASC97_10180	Unknown	RXN-16650
ASC97_06405	Unknown	ARYLESTERASE-RXN
ASC97_03785	Unknown	DAHPSYN-RXN
ASC97_25775	Unknown	RXN-11135
ASC97_09225	Unknown	RXN0-20
ASC97_17530	Unknown	RXN0-5100
ASC97_20505	Unknown	DTDPGLUCDEHYDRAT-RXN
ASC97_01565	ileS	ISOLEUCINE--TRNA-LIGASE-RXN
ASC97_28230	Unknown	L-GLN-FRUCT-6-P-AMINOTRANS-RXN
ASC97_10230	Unknown	ALDOSE1EPIM-RXN
ASC97_01615	Unknown	325-BISPHOSPHATE-NUCLEOTIDASE-RXN
ASC97_19385	purE	RXN0-743
ASC97_17575	Unknown	PREPHENATEDEHYDRAT-RXN
ASC97_08635	Unknown	MANNPISOM-RXN
ASC97_06725	Unknown	PROTEIN-TYROSINE-PHOSPHATASE-RXN
ASC97_04595	Unknown	ATPASE-RXN
ASC97_13240	Unknown	ADENYLATECYC-RXN
ASC97_01830	Unknown	2.5.1.19-RXN
ASC97_14910	Unknown	3.4.11.5-RXN
ASC97_01855	Unknown	ADENPHOSPHOR-RXN;DEOXYADENPHOSPHOR-RXN;DEOXYGUANPHOSPHOR-RXN;DEOXYINOPHOSPHOR-RXN;INOPHOSPHOR-RXN;PNP-RXN;RXN-11715;RXN-11743;RXN-14029;RXN-7001;RXN0-5199;XANTHOSINEPHOSPHORY-RXN
ASC97_19155	Unknown	2.7.13.3-RXN
ASC97_19090	Unknown	LEUCYLTRANSFERASE-RXN;RXN-17846;RXN-17847;RXN-17848
ASC97_08730	Unknown	DNA-LIGASE-NAD+-RXN;RXN-17918;RXN-17919;RXN-17920
ASC97_29705	Unknown	2.7.13.3-RXN
ASC97_21130	Unknown	2-ISOPROPYLMALATESYN-RXN
ASC97_20775	Unknown	UREIDOGLYCOLATE-HYDROLASE-RXN
ASC97_01305	Unknown	EXOPOLYPHOSPHATASE-RXN
ASC97_17300	Unknown	ADENOSYLHOMOCYSTEINE-NUCLEOSIDASE-RXN;METHYLTHIOADENOSINE-NUCLEOSIDASE-RXN
ASC97_09240	Unknown	3.4.13.9-RXN
ASC97_15975	Unknown	GLYCERATE-DEHYDROGENASE-RXN;HYDROXYPYRUVATE-REDUCTASE-RXN
ASC97_17690	Unknown	2.7.7.8-RXN
ASC97_19250	Unknown	AMIDASE-RXN;GUANIDINOBUTANAMIDE-NH3-RXN;PYRAZIN-RXN;R311-RXN;RXN-14727;RXN-14728;RXN-17608;RXNN-404
ASC97_09775	Unknown	4.2.2.7-RXN
ASC97_27005	Unknown	XYLULOKIN-RXN
ASC97_15045	Unknown	RXN-17155
ASC97_15760	Unknown	2.7.13.3-RXN
ASC97_09900	Unknown	RXN-9591
ASC97_14565	Unknown	GLUTAMINESYN-RXN
ASC97_01840	Unknown	GLYRIBONUCSYN-RXN
ASC97_03900	Unknown	2.3.1.41-RXN;3-OXOACYL-ACP-SYNTH-BASE-RXN;3-OXOACYL-ACP-SYNTH-RXN;RXN-10059;RXN-10654;RXN-10658;RXN-11474;RXN-11479;RXN-16615;RXN-16621;RXN-16625;RXN-16629;RXN-9516;RXN-9523;RXN-9527;RXN-9531;RXN-9535;RXN-9539;RXN-9632;RXN-9648;RXN-9650;RXN-9651;RXN-9652;RXN-9653;RXN-9654;RXN0-2141;RXN1G-368;RXN1G-445;RXN1G-460;RXN1G-499;RXN3O-1803
ASC97_01725	Unknown	ATPSYN-RXN
ASC97_06415	Unknown	RXN-12508;RXN-12583;RXN0-1134
ASC97_30035	Unknown	QOR-RXN
ASC97_10340	Unknown	RXN-17155
ASC97_03015	Unknown	RXN0-6373
ASC97_02490	Unknown	1.8.4.8-RXN
ASC97_09795	Unknown	PYRAMKIN-RXN
ASC97_29320	Unknown	1.8.1.4-RXN;2OXOGLUTARATEDEH-RXN;2OXOGLUTDECARB-RXN;RXN-7716;RXN-7719;RXN-8629;RXN0-1132;RXN0-1147
ASC97_18905	Unknown	DNA-DIRECTED-DNA-POLYMERASE-RXN
ASC97_16325	nadE	NAD-SYNTH-GLN-RXN;NAD-SYNTH-NH3-RXN
ASC97_20545	Unknown	1.11.1.15-RXN;RXN0-5468
ASC97_17570	Unknown	CPM-KDOSYNTH-RXN
ASC97_08235	Unknown	NICOTINAMID-RXN
ASC97_30705	Unknown	RXN-10462;RXN-13805;RXN-1381;RXN-15045;RXN-16024;RXN-16117;RXN-17016;RXN-17017;RXN-17018
ASC97_10165	ispG	RXN0-882
ASC97_06075	Unknown	IMP-DEHYDROG-RXN
ASC97_10215	Unknown	3.5.1.80-RXN;NAG6PDEACET-RXN
ASC97_05215	Unknown	GCVP-RXN
ASC97_05250	Unknown	ATPASE-RXN
ASC97_00560	Unknown	2.7.13.3-RXN
ASC97_21395	Unknown	DETHIOBIOTIN-SYN-RXN
ASC97_24660	Unknown	FMNREDUCT-RXN;NADPH-DEHYDROGENASE-FLAVIN-RXN;RXN-12444
ASC97_05030	Unknown	CYTOCHROME-C-OXIDASE-RXN;RXN-15830
ASC97_14340	Unknown	3-OXOACYL-ACP-REDUCT-RXN;RXN-10060;RXN-10655;RXN-10659;RXN-11476;RXN-11480;RXN-13008;RXN-16616;RXN-16622;RXN-16626;RXN-16630;RXN-9514;RXN-9518;RXN-9524;RXN-9528;RXN-9532;RXN-9536;RXN-9540;RXN-9552;RXN-9556;RXN-9633;RXN0-2142;RXN1G-157;RXN1G-349;RXN1G-469;RXN1G-508
ASC97_01945	Unknown	ACYLCOADEHYDROG-RXN;RXN-17775;RXN-17779;RXN-17783;RXN-17784;RXN-17788;RXN-17792;RXN-17796
ASC97_08345	Unknown	DALADALALIG-RXN
ASC97_17330	Unknown	RXN0-5062
ASC97_17065	Unknown	GLY-X-CARBOXYPEPTIDASE-RXN
ASC97_28435	Unknown	PROLINE-RACEMASE-RXN
ASC97_31990	Unknown	SAICARSYN-RXN
ASC97_26280	Unknown	2.1.1.71-RXN;RXN4FS-2
ASC97_01355	Unknown	CARBOXYMETHYLENEBUTENOLIDASE-RXN;DIENELACHYDRO-RXN;RXN-9857;RXN-9868;RXN-9887;RXN-9890
ASC97_12575	Unknown	ADENYLATECYC-RXN
ASC97_08065	Unknown	ACETOLACTSYN-RXN;ACETOOHBUTSYN-RXN
ASC97_32390	Unknown	FMNREDUCT-RXN;NADPH-DEHYDROGENASE-FLAVIN-RXN;RXN-12444
ASC97_14075	araH	3.6.3.17-RXN;TRANS-RXN-320
ASC97_31615	Unknown	CPM-KDOSYNTH-RXN
ASC97_18965	Unknown	RXN0-7023
ASC97_06920	Unknown	2.1.1.77-RXN
ASC97_14760	Unknown	3.1.26.3-RXN
ASC97_26385	Unknown	3-DEHYDROQUINATE-SYNTHASE-RXN
ASC97_08025	Unknown	NITRILE-HYDRATASE-RXN;R310-RXN;R313-RXN;RXN-14725;RXN-14726;RXN-17609;RXN-7567
ASC97_17305	guaA	GLUTAMIN-RXN;GMP-SYN-GLUT-RXN;GMP-SYN-NH3-RXN
ASC97_15245	Unknown	POLYPHOSPHATE-KINASE-RXN
ASC97_01505	hisG	ATPPHOSPHORIBOSYLTRANS-RXN
ASC97_26180	Unknown	PEPTIDYLPROLYL-ISOMERASE-RXN
ASC97_28245	Unknown	3.4.11.5-RXN
ASC97_22855	Unknown	RXN0-5131
ASC97_03490	Unknown	DNA-DIRECTED-DNA-POLYMERASE-RXN;RXN0-4961
ASC97_17070	Unknown	2-HALOACID-DEHALOGENASE-RXN
ASC97_12140	Unknown	FMNREDUCT-RXN;NADPH-DEHYDROGENASE-FLAVIN-RXN;RXN-12444
ASC97_08980	Unknown	RXN0-4261
ASC97_14735	Unknown	DNA-DIRECTED-RNA-POLYMERASE-RXN
ASC97_09660	Unknown	RXN0-4961
ASC97_20780	Unknown	3.5.2.17-RXN
ASC97_23865	Unknown	CHLORIDE-PEROXIDASE-RXN
ASC97_27365	Unknown	TRANS-RXN-298
ASC97_00960	Unknown	METHENYLTHFCYCLOHYDRO-RXN;METHYLENETHFDEHYDROG-NADP-RXN
ASC97_09540	Unknown	ADENOSYLHOMOCYSTEINASE-RXN
ASC97_05400	Unknown	LIPIDXSYNTHESIS-RXN
ASC97_14690	Unknown	MYO-INOSITOL-2-DEHYDROGENASE-RXN
ASC97_01670	Unknown	DEHYDDEOXPHOSGALACT-ALDOL-RXN
ASC97_19685	Unknown	UDPGLUCEPIM-RXN
ASC97_04425	Unknown	RXN0-2621
ASC97_18790	Unknown	1.6.99.5-RXN;NADH-DEHYDROGENASE-QUINONE-RXN
ASC97_14190	Unknown	MERCURY-II-REDUCTASE-RXN
ASC97_24565	Unknown	DIHYDRODIPICSYN-RXN
ASC97_14680	Unknown	5-DEHYDRO-2-DEOXYGLUCONOKINASE-RXN
ASC97_09685	Unknown	RXN-10642;UROGENDECARBOX-RXN
ASC97_00315	Unknown	2.7.13.3-RXN
ASC97_16980	Unknown	ENOYL-COA-HYDRAT-RXN;METHYLACYLYLCOA-HYDROXY-RXN;RXN-10697;RXN-10704;RXN-10705;RXN-11244;RXN-12567;RXN-13616;RXN-14266;RXN-14272;RXN-14273;RXN-16135;RXN-16558;RXN-17114;RXN-17475;RXN-17776;RXN-17780;RXN-17785;RXN-17789;RXN-17793;RXN-17797;RXN-2425;RXN0-5393;TIGLYLCOA-HYDROXY-RXN
ASC97_10870	Unknown	RXN-14971;RXN-15378;SUCCINATE-DEHYDROGENASE-UBIQUINONE-RXN
ASC97_22220	Unknown	2.7.13.3-RXN
ASC97_02440	Unknown	PHOSPHOKETOLASE-RXN
ASC97_20055	Unknown	METHELENE-THMPT-OXI-RXN
ASC97_19050	gatA	6.3.5.7-RXN
ASC97_02310	Unknown	RXN0-2661
ASC97_14290	Unknown	GSHTRAN-RXN;GST-RXN;RXN-11663;RXN-13673;RXN-15680;RXN-18405;RXN-18407;RXNQT-4363
ASC97_17700	Unknown	ENOYL-ACP-REDUCT-NADH-RXN;RXN-10062;RXN-10657;RXN-10661;RXN-11478;RXN-11482;RXN-16620;RXN-16624;RXN-16628;RXN-16632;RXN-9558;RXN-9635;RXN-9657;RXN-9658;RXN-9659;RXN-9660;RXN-9661;RXN-9662;RXN-9663;RXN0-2145;RXN1G-395;RXN1G-488;RXN1G-526
ASC97_03535	Unknown	CITSYN-RXN
ASC97_05395	Unknown	MALIC-NADP-RXN;OXALODECARB-RXN
ASC97_32245	Unknown	1.8.4.12-RXN
ASC97_15955	Unknown	ATPASE-RXN
ASC97_17435	Unknown	RXN1A0-6303
ASC97_15180	Unknown	RXN0-2621
ASC97_01715	Unknown	ATPSYN-RXN
ASC97_17935	purU	FORMYLTHFDEFORMYL-RXN
ASC97_17855	Unknown	HYDROXY-MANDELATE-RACEMASE-RXN;MANDELATE-RACEMASE-RXN
ASC97_13905	Unknown	RXN-8668
ASC97_14110	Unknown	DIHYDROXYISOVALDEHYDRAT-RXN;DIHYDROXYMETVALDEHYDRAT-RXN
ASC97_22555	Unknown	3-HYDROXYISOBUTYRATE-DEHYDROGENASE-RXN
ASC97_26395	Unknown	RXN0-5100
ASC97_18795	Unknown	1.6.99.5-RXN;NADH-DEHYDROGENASE-QUINONE-RXN
ASC97_29810	Unknown	RXN0-5131
ASC97_14765	Unknown	RXN0-5462
ASC97_06325	Unknown	D-ALANINE-AMINOTRANSFERASE-RXN
ASC97_12585	Unknown	2.7.13.3-RXN
ASC97_24850	Unknown	ISOCHORMAT-RXN
ASC97_09465	Unknown	IMIDPHOSDEHYD-RXN
ASC97_13740	Unknown	UDPGLUCEPIM-RXN
ASC97_12810	Unknown	SERINE-O-ACETTRAN-RXN
ASC97_30560	Unknown	3-OXOACYL-ACP-REDUCT-RXN;RXN-10060;RXN-10655;RXN-10659;RXN-11476;RXN-11480;RXN-13008;RXN-16616;RXN-16622;RXN-16626;RXN-16630;RXN-9514;RXN-9518;RXN-9524;RXN-9528;RXN-9532;RXN-9536;RXN-9540;RXN-9552;RXN-9556;RXN-9633;RXN0-2142;RXN1G-157;RXN1G-349;RXN1G-469;RXN1G-508
ASC97_10755	Unknown	ARGSUCCINSYN-RXN;RXN-10
ASC97_10475	Unknown	2-OCTAPRENYL-6-METHOXYPHENOL-HYDROX-RXN
ASC97_26185	Unknown	GLUTAMATE-N-ACETYLTRANSFERASE-RXN;N-ACETYLTRANSFER-RXN;RXN0-6948
ASC97_13445	Unknown	MALEYLACETOACETATE-ISOMERASE-RXN
ASC97_27050	Unknown	QUINOLINATE-SYNTHA-RXN
ASC97_30840	Unknown	RXN0-5131
ASC97_00475	Unknown	RXN-982
ASC97_09725	Unknown	DNA-DIRECTED-DNA-POLYMERASE-RXN
ASC97_09565	Unknown	RXN0-4261
ASC97_15805	Unknown	DIHYDROPYRIMIDINASE-RXN;RXN-11211;RXN-11217
ASC97_10855	Unknown	1.10.2.2-RXN;RXN-15829
ASC97_00070	Unknown	ACETYLORNTRANSAM-RXN;RXN-15007
ASC97_04860	Unknown	RXN0-5398
ASC97_06460	Unknown	LIPIDADISACCHARIDESYNTH-RXN
ASC97_20340	Unknown	ADENYLATECYC-RXN
ASC97_14500	Unknown	HYDROXY-MANDELATE-RACEMASE-RXN;MANDELATE-RACEMASE-RXN
ASC97_02700	Unknown	PYRROLINECARBREDUCT-RXN;RXN66-546
ASC97_32110	Unknown	NAD-KIN-RXN
ASC97_08385	murD	UDP-NACMURALA-GLU-LIG-RXN
ASC97_07465	Unknown	RXN-15122;THREDEHYD-RXN
ASC97_27505	pntB	PYRNUTRANSHYDROGEN-RXN;TRANS-RXN0-277
ASC97_19505	gapA	GAPOXNPHOSPHN-RXN
ASC97_14420	Unknown	1.5.1.9-RXN
ASC97_21865	Unknown	3-OXOACYL-ACP-REDUCT-RXN;RXN-10060;RXN-10655;RXN-10659;RXN-11476;RXN-11480;RXN-13008;RXN-16616;RXN-16622;RXN-16626;RXN-16630;RXN-9514;RXN-9518;RXN-9524;RXN-9528;RXN-9532;RXN-9536;RXN-9540;RXN-9552;RXN-9556;RXN-9633;RXN0-2142;RXN1G-157;RXN1G-349;RXN1G-469;RXN1G-508
ASC97_03895	Unknown	2.3.1.41-RXN;3-OXOACYL-ACP-SYNTH-BASE-RXN;3-OXOACYL-ACP-SYNTH-RXN;RXN-10059;RXN-10654;RXN-10658;RXN-11474;RXN-11479;RXN-16615;RXN-16621;RXN-16625;RXN-16629;RXN-9516;RXN-9523;RXN-9527;RXN-9531;RXN-9535;RXN-9539;RXN-9632;RXN-9648;RXN-9650;RXN-9651;RXN-9652;RXN-9653;RXN-9654;RXN0-2141;RXN1G-368;RXN1G-445;RXN1G-460;RXN1G-499;RXN3O-1803
ASC97_10315	Unknown	RXN0-4261
ASC97_08030	Unknown	NITRILE-HYDRATASE-RXN;R310-RXN;R313-RXN;RXN-14725;RXN-14726;RXN-17609;RXN-7567
ASC97_16135	Unknown	UGD-RXN
ASC97_20990	Unknown	DEOXYGLUCONOKIN-RXN
ASC97_29890	Unknown	ADENYLATECYC-RXN
ASC97_27450	Unknown	SUCCINATE-SEMIALDEHYDE-DEHYDROGENASE-RXN
ASC97_27330	Unknown	UDP-GLUCURONATE-5-EPIMERASE-RXN
ASC97_00370	Unknown	2.7.13.3-RXN
ASC97_26915	Unknown	ARYLESTERASE-RXN
ASC97_31705	Unknown	RXN-17131;RXN-17132;RXN-17133
ASC97_06280	Unknown	2-OCTAPRENYL-6-METHOXYPHENOL-HYDROX-RXN
ASC97_12135	Unknown	METHYLMALONYL-COA-MUT-RXN
ASC97_28750	Unknown	ARYLSULFAT-RXN
ASC97_08195	Unknown	RXN0-4261
ASC97_06480	Unknown	UDPHYDROXYMYRGLUCOSAMNACETYLTRANS-RXN
ASC97_23015	Unknown	3-OXOACYL-ACP-REDUCT-RXN;RXN-10060;RXN-10655;RXN-10659;RXN-11476;RXN-11480;RXN-13008;RXN-16616;RXN-16622;RXN-16626;RXN-16630;RXN-9514;RXN-9518;RXN-9524;RXN-9528;RXN-9532;RXN-9536;RXN-9540;RXN-9552;RXN-9556;RXN-9633;RXN0-2142;RXN1G-157;RXN1G-349;RXN1G-469;RXN1G-508
ASC97_06475	Unknown	3-HYDROXYDECANOYL-ACP-DEHYDR-RXN
ASC97_31160	Unknown	ADOMET-DMK-METHYLTRANSFER-RXN
ASC97_18175	Unknown	GLUCOKIN-RXN;HEXOKINASE-RXN
ASC97_14050	Unknown	2PGADEHYDRAT-RXN
ASC97_06030	Unknown	RXN-13853
ASC97_03995	Unknown	RXN0-5410
ASC97_29560	Unknown	HYDROXY-MANDELATE-RACEMASE-RXN;MANDELATE-RACEMASE-RXN
ASC97_29310	Unknown	1.2.1.25-RXN;1.2.4.4-RXN;2.3.1.168-RXN;2KETO-3METHYLVALERATE-RXN;2KETO-4METHYL-PENTANOATE-DEHYDROG-RXN;ISOVALERYLCOA-DHLIPOAMIDE-RXN;KETOISOCAPROATE-RXN;MBCOA-DHLIPOAMIDE-RXN;METHYLVALERATE-RXN;RXN-7719
ASC97_18745	Unknown	RXN1A0-6303
ASC97_10885	Unknown	RXN-14971;RXN-15378;SUCCINATE-DEHYDROGENASE-UBIQUINONE-RXN
ASC97_22645	Unknown	2.7.13.3-RXN
ASC97_25370	Unknown	5.3.1.17-RXN
ASC97_19825	Unknown	3.5.5.7-RXN;R309-RXN
ASC97_27215	Unknown	R502-RXN
ASC97_14850	Unknown	RXN0-1441
ASC97_19700	Unknown	3.1.2.23-RXN
ASC97_19735	Unknown	RXN-1961
ASC97_08365	Unknown	UDPNACETYLMURAMATEDEHYDROG-RXN
ASC97_27645	Unknown	ADENYLATECYC-RXN
ASC97_12835	Unknown	ORNDECARBOX-RXN
ASC97_25925	Unknown	1.2.1.2-RXN
ASC97_19600	Unknown	ALKANE-1-MONOOXYGENASE-RXN
ASC97_02585	Unknown	GSHTRAN-RXN;GST-RXN;RXN-11663;RXN-13673;RXN-15680;RXN-18405;RXN-18407;RXNQT-4363
ASC97_12715	Unknown	D-AMINO-ACID-OXIDASE-RXN;RXN-8163
ASC97_17795	Unknown	GALACTUROISOM-RXN;GLUCUROISOM-RXN
ASC97_32415	Unknown	ADENYLATECYC-RXN
ASC97_12360	gltD	GLUTAMATESYN-RXN;GLUTAMIN-RXN;GLUTDEHYD-RXN
ASC97_12245	Unknown	PABASYN-RXN
ASC97_21705	Unknown	RXN-19040;RXN0-6359;RXN0-6385;THIOSULFATE-SULFURTRANSFERASE-RXN
ASC97_06540	Unknown	GLYCPDIESTER-RXN;RXN-14073;RXN-14136;RXN-14160
ASC97_20695	Unknown	2.3.2.13-RXN;RXN-19236
ASC97_29305	Unknown	1.2.1.25-RXN;1.2.4.4-RXN;2.3.1.168-RXN;2KETO-3METHYLVALERATE-RXN;2KETO-4METHYL-PENTANOATE-DEHYDROG-RXN;ISOVALERYLCOA-DHLIPOAMIDE-RXN;KETOISOCAPROATE-RXN;MBCOA-DHLIPOAMIDE-RXN;METHYLVALERATE-RXN;RXN-7719
ASC97_14985	Unknown	RXN0-4261
ASC97_17985	Unknown	CYTOCHROME-C-OXIDASE-RXN;RXN-15830
ASC97_01500	hisZ	ATPPHOSPHORIBOSYLTRANS-RXN
ASC97_13965	Unknown	ARYLSULFAT-RXN
ASC97_24905	Unknown	ADENYLATECYC-RXN
ASC97_29520	Unknown	ADOMET-DMK-METHYLTRANSFER-RXN
ASC97_15210	Unknown	RXN0-1441
ASC97_12725	Unknown	NAD-SYNTH-GLN-RXN;NAD-SYNTH-NH3-RXN
ASC97_09025	Unknown	RXN1A0-6303
ASC97_20840	Unknown	RXN-12587;RXN-12588;RXN-14382;RXN-14385;RXN-15881;RXN-9787;RXN0-308
ASC97_04400	Unknown	RXN0-1281
ASC97_22960	Unknown	3-OXOACYL-ACP-REDUCT-RXN;RXN-10060;RXN-10655;RXN-10659;RXN-11476;RXN-11480;RXN-13008;RXN-16616;RXN-16622;RXN-16626;RXN-16630;RXN-9514;RXN-9518;RXN-9524;RXN-9528;RXN-9532;RXN-9536;RXN-9540;RXN-9552;RXN-9556;RXN-9633;RXN0-2142;RXN1G-157;RXN1G-349;RXN1G-469;RXN1G-508
ASC97_22875	Unknown	ATPASE-RXN
ASC97_20760	Unknown	RXN-6201
ASC97_08190	Unknown	CHLORIDE-PEROXIDASE-RXN
ASC97_15250	Unknown	EXOPOLYPHOSPHATASE-RXN
ASC97_17775	Unknown	GABATRANSAM-RXN;RXN-2901
ASC97_30085	Unknown	3.4.21.92-RXN
ASC97_09250	Unknown	PRPPSYN-RXN
ASC97_23705	Unknown	ORNITHINE-CYCLODEAMINASE-RXN
ASC97_02465	Unknown	URUR-RXN
ASC97_15635	Unknown	RXN0-5131
ASC97_09195	Unknown	ATPASE-RXN
ASC97_08650	Unknown	RXN-9387;RXN-9781
ASC97_11185	Unknown	ADENYLATECYC-RXN
ASC97_20500	Unknown	DTDPDEHYRHAMREDUCT-RXN
ASC97_06605	Unknown	CYSTATHIONINE-BETA-LYASE-RXN;RXN-12729;RXN-15131;RXN-15137;RXN-15577;RXN-15582;RXN-18212;RXN-6763;RXN-8052;RXN-8054;RXNQT-4319;RXNQT-4320;RXNQT-4321;RXNQT-4322;RXNQT-4323;S-ALKYLCYSTEINE-LYASE-RXN
ASC97_16825	Unknown	TRYPTOPHAN--TRNA-LIGASE-RXN
ASC97_20560	Unknown	ISOCIT-CLEAV-RXN
ASC97_22700	Unknown	GLYOXIII-RXN
ASC97_21290	Unknown	1-PHOSPHATIDYLINOSITOL-KINASE-RXN
ASC97_20010	Unknown	FORMIMINOGLUTAMATE-DEIMINASE-RXN
ASC97_06880	Unknown	ARGININE--TRNA-LIGASE-RXN
ASC97_01630	Unknown	2-HALOACID-DEHALOGENASE-RXN
ASC97_24270	Unknown	ADOMET-DMK-METHYLTRANSFER-RXN
ASC97_20745	Unknown	D-AMINO-ACID-OXIDASE-RXN;RXN-8163
ASC97_29925	Unknown	2.7.13.3-RXN
ASC97_26260	Unknown	2-OCTAPRENYL-6-OHPHENOL-METHY-RXN;DHHB-METHYLTRANSFER-RXN
ASC97_03885	Unknown	RXN-17155
ASC97_09575	Unknown	DIHYDROFOLATESYNTH-RXN;FOLYLPOLYGLUTAMATESYNTH-RXN;FORMYLTHFGLUSYNTH-RXN;RXN-6341;RXN0-2921
ASC97_06885	Unknown	DGTPTRIPHYDRO-RXN
ASC97_15230	Unknown	AIRS-RXN
ASC97_32300	Unknown	RXN0-5131
ASC97_19360	ggt	GAMMA-GLUTAMYLTRANSFERASE-RXN;RXN-18092;RXN-18093;RXN-6601;RXN-9157;RXN66-336
ASC97_12865	Unknown	4OH2OXOGLUTARALDOL-RXN;KDPGALDOL-RXN
ASC97_21220	Unknown	POLYNUCLEOTIDE-ADENYLYLTRANSFERASE-RXN
ASC97_30895	Unknown	RXN0-5375
ASC97_07885	Unknown	RXN1A0-6303
ASC97_06350	Unknown	RXN0-1281
ASC97_19800	Unknown	GUANYLCYC-RXN
ASC97_20490	Unknown	DTDPDEHYDRHAMEPIM-RXN
ASC97_08295	Unknown	RXN0-4961
ASC97_18205	Unknown	RXN-17954;RXN-17957;RXN0-6732
ASC97_14635	Unknown	HISTAMINOTRANS-RXN
ASC97_02145	Unknown	CYTOCHROME-C-OXIDASE-RXN;RXN-15830
ASC97_30885	Unknown	RXN0-5131
ASC97_03870	Unknown	R341-RXN;RXN-14256;RXN-14257;RXN-8769
ASC97_29780	Unknown	2.7.13.3-RXN
ASC97_19380	Unknown	AIRCARBOXY-RXN
ASC97_16085	Unknown	ARGINASE-RXN;RXN-34
ASC97_23330	Unknown	MYO-INOSITOL-1OR-4-MONOPHOSPHATASE-RXN;RXN-7253;RXN0-5408
ASC97_06430	eno	2PGADEHYDRAT-RXN
ASC97_01560	Unknown	FADSYN-RXN;RIBOFLAVINKIN-RXN;RXN-18510;RXN-18511
ASC97_15165	Unknown	RXN-18694;RXN-8342
ASC97_15260	Unknown	ADENYLATECYC-RXN
ASC97_14890	Unknown	LYSDECARBOX-RXN
ASC97_01415	Unknown	ADENOSYLHOMOCYSTEINASE-RXN
ASC97_12335	Unknown	GLUC1PURIDYLTRANS-RXN
ASC97_08985	Unknown	RXN0-5021
ASC97_22660	Unknown	GSHTRAN-RXN;GST-RXN;RXN-11663;RXN-13673;RXN-15680;RXN-18405;RXN-18407;RXNQT-4363
ASC97_10430	Unknown	1.4.3.19-RXN;RXN-12614;RXN-17951;RXN-8672;RXN-8673;RXN-8674
ASC97_26285	Unknown	RXN0-7167
ASC97_18060	Unknown	D-PPENTOMUT-RXN;PPENTOMUT-RXN
ASC97_28470	Unknown	DIHYDROOROT-RXN
ASC97_24610	Unknown	IMPCYCLOHYDROLASE-RXN
ASC97_00395	Unknown	3-HYDROXYISOBUTYRYL-COA-HYDROLASE-RXN;RXN-13721;RXN-6384
ASC97_27870	Unknown	CARBOXYMETHYLENEBUTENOLIDASE-RXN;DIENELACHYDRO-RXN;RXN-9857;RXN-9868;RXN-9887;RXN-9890
ASC97_06290	Unknown	NADPH-DEHYDROGENASE-FLAVIN-RXN
ASC97_19915	Unknown	RXN0-5131
ASC97_09445	Unknown	UNSPECIFIC-MONOOXYGENASE-RXN
ASC97_03875	Unknown	4.1.1.81-RXN
ASC97_27950	Unknown	ASPAMINOTRANS-RXN;RXN-10814;RXN-11737;RXN-13697
ASC97_30055	Unknown	ATPASE-RXN
ASC97_30210	Unknown	2PGADEHYDRAT-RXN
ASC97_25440	Unknown	GLU6PDEHYDROG-RXN
ASC97_22475	Unknown	LYSOPHOSPHOLIPASE-RXN;RXN-15035;RXN-19312
ASC97_11455	Unknown	RIBULOSE-BISPHOSPHATE-CARBOXYLASE-RXN
ASC97_05320	Unknown	RXN-13037;RXN-13039;RXN-17127;RXN-8654;RXN-8655;RXN0-1141;RXN0-5098;RXN0-947
ASC97_07825	Unknown	ADENYLATECYC-RXN
ASC97_16740	Unknown	3.4.21.92-RXN
ASC97_28045	Unknown	DNA-DIRECTED-DNA-POLYMERASE-RXN
ASC97_16865	Unknown	RXN-14480;RXN-14481;RXN0-5063
ASC97_24975	Unknown	RXN-2043
ASC97_09885	Unknown	PHOSPHAGLYPSYN-RXN
ASC97_26270	Unknown	ADENYLATECYC-RXN
ASC97_10415	Unknown	RXN-12610;RXN-12611;THI-P-SYN-RXN
ASC97_21170	Unknown	RXN0-7010
ASC97_09180	Unknown	BRANCHED-CHAINAMINOTRANSFERILEU-RXN;BRANCHED-CHAINAMINOTRANSFERLEU-RXN;BRANCHED-CHAINAMINOTRANSFERVAL-RXN
ASC97_26695	Unknown	RXN-12130
ASC97_14370	gabD	RXN0-5293;SUCCINATE-SEMIALDEHYDE-DEHYDROGENASE-RXN
ASC97_20215	Unknown	3-OXOADIPATE-COA-TRANSFERASE-RXN;RXN-10085
ASC97_25745	Unknown	SUCCINATE-SEMIALDEHYDE-DEHYDROGENASE-RXN
ASC97_28505	Unknown	OROPRIBTRANS-RXN
ASC97_17110	Unknown	DUTP-PYROP-RXN
ASC97_22865	Unknown	RXN0-5131
ASC97_07710	Unknown	RXN0-5131
ASC97_18170	Unknown	METHGLYSYN-RXN
ASC97_11365	Unknown	ADDALT-RXN;ADENODEAMIN-RXN
ASC97_16780	Unknown	RXN-17362
ASC97_02730	Unknown	GLYOXIII-RXN
ASC97_03840	Unknown	BTUR2-RXN;COBALADENOSYLTRANS-RXN;R344-RXN
ASC97_25825	Unknown	GPPSYN-RXN
ASC97_07615	Unknown	RXN0-5131
ASC97_20675	Unknown	DIHYDROXYISOVALDEHYDRAT-RXN;DIHYDROXYMETVALDEHYDRAT-RXN
ASC97_29255	Unknown	RXN-15849;RXN-7563
ASC97_10920	Unknown	RXN0-1147
ASC97_15395	Unknown	2.3.1.180-RXN
ASC97_18535	Unknown	ADENYL-KIN-RXN
ASC97_07620	Unknown	RXN0-5131
ASC97_18780	Unknown	1.6.99.5-RXN;NADH-DEHYDROGENASE-QUINONE-RXN
ASC97_18065	Unknown	ADDALT-RXN;ADENODEAMIN-RXN
ASC97_11710	Unknown	DIAMINOPIMDECARB-RXN
ASC97_20735	Unknown	2.7.13.3-RXN
ASC97_10210	Unknown	RXN-12560;RXN-13279;RXN-5901
ASC97_00330	Unknown	ACETYL-COA-ACETYLTRANSFER-RXN;METHYLACETOACETYLCOATHIOL-RXN;RXN-12561
ASC97_16610	Unknown	ACETYLGLUTKIN-RXN;RXN-15005
ASC97_31780	Unknown	DIHYDROFOLATEREDUCT-RXN;RXN-18357
ASC97_28640	Unknown	GALACTONDEHYDRAT-RXN
ASC97_05100	Unknown	RXN-11109
ASC97_10830	Unknown	UROGENIIISYN-RXN
ASC97_05460	Unknown	RXN0-1342
ASC97_12610	Unknown	GLYCOPHOSPHORYL-RXN;GLYMALTOPHOSPHORYL-RXN;RXN-12171;RXN-12392;RXN-14284;RXN-14285;RXN-14286;RXN-14353;RXN-1826;RXN-9025;RXN0-5182;RXN0-5184
ASC97_11570	Unknown	RXN-8765
ASC97_04940	Unknown	GLUTAMIN-RXN
ASC97_02110	Unknown	CYTOCHROME-C-OXIDASE-RXN;RXN-15830
ASC97_13415	Unknown	RXN-13907;RXN-14206;RXN66-569
ASC97_09875	Unknown	UDPGLUCEPIM-RXN
ASC97_25045	Unknown	2.7.13.3-RXN
ASC97_12940	Unknown	GLUCISOM-RXN;XYLISOM-RXN
ASC97_29115	Unknown	RXN0-5131
ASC97_14235	Unknown	3-HYDROXYISOBUTYRATE-DEHYDROGENASE-RXN
ASC97_10090	Unknown	3-ISOPROPYLMALISOM-RXN;RXN-13163;RXN-8991
ASC97_08415	Unknown	RXN-11638
ASC97_30280	Unknown	ARGINASE-RXN;RXN-34
ASC97_20015	Unknown	IMIDAZOLONEPROPIONASE-RXN
ASC97_19580	Unknown	3.1.22.4-RXN
ASC97_05360	Unknown	DAHPSYN-RXN
ASC97_05495	Unknown	RXN0-5131
ASC97_10895	Unknown	ATPASE-RXN
ASC97_11575	Unknown	2.1.1.131-RXN
ASC97_14005	Unknown	ALDOSE1EPIM-RXN
ASC97_08400	Unknown	UDP-NACMURALGLDAPLIG-RXN
ASC97_10935	Unknown	GLUCOSE-1-DEHYDROGENASE-RXN
ASC97_31180	Unknown	3-OXOACYL-ACP-REDUCT-RXN;RXN-10060;RXN-10655;RXN-10659;RXN-11476;RXN-11480;RXN-13008;RXN-16616;RXN-16622;RXN-16626;RXN-16630;RXN-9514;RXN-9518;RXN-9524;RXN-9528;RXN-9532;RXN-9536;RXN-9540;RXN-9552;RXN-9556;RXN-9633;RXN0-2142;RXN1G-157;RXN1G-349;RXN1G-469;RXN1G-508
ASC97_03935	Unknown	ISOCHORMAT-RXN
ASC97_08375	Unknown	NACGLCTRANS-RXN;RXN-8976
ASC97_00015	Unknown	2-NITROPROPANE-DIOXYGENASE-RXN
ASC97_09930	Unknown	ENOYL-COA-HYDRAT-RXN;METHYLACYLYLCOA-HYDROXY-RXN;RXN-10697;RXN-10704;RXN-10705;RXN-11244;RXN-12567;RXN-13616;RXN-14266;RXN-14272;RXN-14273;RXN-16135;RXN-16558;RXN-17114;RXN-17475;RXN-17776;RXN-17780;RXN-17785;RXN-17789;RXN-17793;RXN-17797;RXN-2425;RXN0-5393;TIGLYLCOA-HYDROXY-RXN
ASC97_08110	Unknown	THYMIDYLATESYN-RXN
ASC97_02115	Unknown	HEMEOSYN-RXN
ASC97_28930	Unknown	4-CARBOXYMUCONOLACTONE-DECARBOXYLASE-RXN
ASC97_11980	Unknown	OHMETPYRKIN-RXN;PYRIMSYN3-RXN
ASC97_05345	Unknown	GLUTATHIONE-REDUCT-NADPH-RXN
ASC97_02170	Unknown	RXN-11453
ASC97_10695	Unknown	RXN0-5062
ASC97_04885	Unknown	GSHTRAN-RXN;GST-RXN;RXN-11663;RXN-13673;RXN-15680;RXN-18405;RXN-18407;RXNQT-4363
ASC97_04965	Unknown	PRODISULFREDUCT-RXN;RXN0-7271
ASC97_09710	Unknown	RXN-11578
ASC97_06100	Unknown	2.3.2.13-RXN;RXN-19236
ASC97_08390	mraY	PHOSNACMURPENTATRANS-RXN;RXN-11347;RXN-8975
ASC97_19620	Unknown	CYTOCHROME-C-OXIDASE-RXN;RXN-15830
ASC97_18245	Unknown	3.1.26.4-RXN
ASC97_20495	Unknown	DTDPGLUCOSEPP-RXN
ASC97_02155	Unknown	HOMOSERKIN-RXN
ASC97_12795	Unknown	CREATININASE-RXN
ASC97_31645	Unknown	1.1.1.274-RXN
ASC97_22615	Unknown	GLUCISOM-RXN;XYLISOM-RXN
ASC97_02480	Unknown	RXN-12720;SULFATE-ADENYLYLTRANS-RXN
ASC97_22805	Unknown	RXN-7682;RXN0-901
ASC97_27095	Unknown	GLUTAMINESYN-RXN
ASC97_10880	Unknown	R601-RXN;RXN-14963
ASC97_09545	Unknown	ALKAPHOSPHA-RXN;RXN-5822;RXN-8748
ASC97_10285	Unknown	RXN0-3221
ASC97_19425	Unknown	MYO-INOSITOL-1OR-4-MONOPHOSPHATASE-RXN;RXN-7253;RXN0-5408
ASC97_06305	Unknown	CYTIDEAM-RXN;CYTIDEAM2-RXN
ASC97_12390	Unknown	LYSOPHOSPHOLIPASE-RXN;RXN-15035;RXN-19312
ASC97_27325	Unknown	RXN0-4961
ASC97_20565	Unknown	RXN0-5131
ASC97_16795	Unknown	MALIC-NADP-RXN;OXALODECARB-RXN
ASC97_01160	Unknown	GLUCONOKIN-RXN
ASC97_10175	Unknown	FPPSYN-RXN;GPPSYN-RXN
ASC97_25030	Unknown	XYLULOKIN-RXN
ASC97_02865	Unknown	RXN0-2441
ASC97_15330	glyA	GLYOHMETRANS-RXN;RXN0-5234
ASC97_27130	Unknown	PANTOATE-BETA-ALANINE-LIG-RXN
ASC97_32255	Unknown	RXN0-5131
ASC97_11330	Unknown	N-ACYLMANNOSAMINE-KINASE-RXN;NANK-RXN
ASC97_18610	Unknown	KANAMYCIN-KINASE-RXN
ASC97_29315	Unknown	1.2.4.4-RXN;2.3.1.168-RXN;KETOISOCAPROATE-RXN;METHYLVALERATE-RXN;RXN-7790
ASC97_01215	Unknown	2.7.13.3-RXN
ASC97_01465	Unknown	2-HALOACID-DEHALOGENASE-RXN;3.8.1.11-RXN;RXN-6263;RXN-6264
ASC97_01595	Unknown	RXN0-6515
ASC97_18095	Unknown	CYTIDEAM-RXN;CYTIDEAM2-RXN
ASC97_26400	Unknown	ACETYL-COA-CARBOXYLTRANSFER-RXN;RXN0-5055
ASC97_03985	Unknown	GLUCISOM-RXN;XYLISOM-RXN
ASC97_28900	Unknown	ADENYLATECYC-RXN
ASC97_20935	Unknown	3.4.11.18-RXN;RXN-17873;RXN-17874;RXN-17875;RXN-17876;RXN-17877;RXN-17878
ASC97_31685	Unknown	RXN0-5131
ASC97_01010	Unknown	GLU6PDEHYDROG-RXN
ASC97_29515	Unknown	GLYOXIII-RXN
ASC97_22850	Unknown	GSHTRAN-RXN;GST-RXN;RXN-11663;RXN-13673;RXN-15680;RXN-18405;RXN-18407;RXNQT-4363
ASC97_05465	Unknown	QUEUOSINE-TRNA-RIBOSYLTRANSFERASE-RXN;RXN0-1321
ASC97_21545	Unknown	2.6.1.37-RXN
ASC97_30915	Unknown	RXN0-5131
ASC97_17190	Unknown	DNA-DIRECTED-DNA-POLYMERASE-RXN
ASC97_20880	Unknown	3-HYDROXYBUTYRATE-DEHYDROGENASE-RXN
ASC97_10420	Unknown	THIAZOLSYN2-RXN
ASC97_01220	Unknown	ATPASE-RXN
ASC97_16530	Unknown	CHLORIDE-PEROXIDASE-RXN
ASC97_25320	Unknown	ORNITHINE-CYCLODEAMINASE-RXN
ASC97_31385	Unknown	NQOR-RXN
ASC97_13510	Unknown	GLUCONOLACT-RXN;RXN-8783
ASC97_18825	Unknown	1.6.99.5-RXN;NADH-DEHYDROGENASE-QUINONE-RXN
ASC97_06715	Unknown	3.4.11.18-RXN;RXN-17873;RXN-17874;RXN-17875;RXN-17876;RXN-17877;RXN-17878
ASC97_21490	Unknown	AGMATIN-RXN
ASC97_20235	Unknown	ADENYLATECYC-RXN
ASC97_22665	Unknown	PMPOXI-RXN;PNPOXI-RXN
ASC97_30325	Unknown	DXPREDISOM-RXN
ASC97_03520	Unknown	1.5.5.1-RXN;RXN66-550
ASC97_06165	glmU	2.3.1.157-RXN;NAG1P-URIDYLTRANS-RXN
ASC97_04040	Unknown	5.3.3.10-RXN
ASC97_18700	Unknown	ATPASE-RXN
ASC97_27460	Unknown	GLUCONOLACT-RXN;RXN-8783
ASC97_03095	Unknown	GLYOXIII-RXN
ASC97_01125	Unknown	1.2.1.27-RXN;RXN-11213;RXN-2902
ASC97_19630	Unknown	CYTOCHROME-C-OXIDASE-RXN;RXN-15830
ASC97_22950	Unknown	RXN-8529
ASC97_14750	Unknown	HOLO-ACP-SYNTH-RXN
ASC97_06410	Unknown	1.2.4.4-RXN;2.3.1.168-RXN;KETOISOCAPROATE-RXN;METHYLVALERATE-RXN;RXN-7790
ASC97_08645	Unknown	FMNREDUCT-RXN;NADPH-DEHYDROGENASE-FLAVIN-RXN;RXN-12444
ASC97_28115	Unknown	PYRROLINECARBREDUCT-RXN;RXN66-546
ASC97_17475	Unknown	3.7.1.9-RXN
ASC97_18870	Unknown	METHYLMALONYL-COA-EPIM-RXN;RXN-16391
ASC97_08630	Unknown	HOMOCYSMET-RXN;HOMOCYSMETB12-RXN
ASC97_19295	Unknown	N-FORMYLGLUTAMATE-DEFORMYLASE-RXN
ASC97_20830	Unknown	GUANINE-DEAMINASE-RXN;RXN-15261
ASC97_25085	Unknown	1.11.1.15-RXN;RXN0-5468
ASC97_25560	Unknown	2-HALOACID-DEHALOGENASE-RXN;3.8.1.11-RXN;RXN-6263;RXN-6264
ASC97_00090	Unknown	RXN-9384
ASC97_09330	Unknown	ADENPRIBOSYLTRAN-RXN;RXN-14270
ASC97_19560	Unknown	RXN0-4261
ASC97_26215	Unknown	PRODISULFREDUCT-RXN;RXN0-7271
ASC97_28575	Unknown	GLYOXI-RXN
ASC97_29995	Unknown	ADENYLATECYC-RXN
ASC97_24875	Unknown	GAMMA-GLUTAMYLTRANSFERASE-RXN;RXN-18092;RXN-6601;RXN-9157;RXN66-336
ASC97_23950	Unknown	GLUTATHIONE-SYN-RXN
ASC97_16010	Unknown	325-BISPHOSPHATE-NUCLEOTIDASE-RXN
ASC97_18260	Unknown	RXN0-5462
ASC97_17090	Unknown	CHOLINE-SULFATASE-RXN
ASC97_31805	Unknown	RXN0-5131
ASC97_28180	Unknown	2.6.1.18-RXN
ASC97_03510	Unknown	3-OXOACYL-ACP-REDUCT-RXN;RXN-10060;RXN-10655;RXN-10659;RXN-11476;RXN-11480;RXN-13008;RXN-16616;RXN-16622;RXN-16626;RXN-16630;RXN-9514;RXN-9518;RXN-9524;RXN-9528;RXN-9532;RXN-9536;RXN-9540;RXN-9552;RXN-9556;RXN-9633;RXN0-2142;RXN1G-157;RXN1G-349;RXN1G-469;RXN1G-508
ASC97_09510	Unknown	PEPCARBOXYKIN-RXN
ASC97_06025	Unknown	FMNREDUCT-RXN;NADPH-DEHYDROGENASE-FLAVIN-RXN;RXN-12444
ASC97_31735	Unknown	ADDALT-RXN;ADENODEAMIN-RXN
ASC97_00295	Unknown	METHIONINE-GAMMA-LYASE-RXN;RXN-14301
ASC97_05245	Unknown	2-HALOACID-DEHALOGENASE-RXN;3.8.1.11-RXN;RXN-6263;RXN-6264
ASC97_19045	Unknown	6.3.5.7-RXN
ASC97_25180	Unknown	XYLULOKIN-RXN
ASC97_27465	Unknown	3-OXOACYL-ACP-REDUCT-RXN
ASC97_27790	Unknown	MANNONDEHYDRAT-RXN
ASC97_26050	Unknown	3-HYDROXYBUTYRYL-COA-DEHYDROGENASE-RXN
ASC97_20970	Unknown	RXN0-5462
ASC97_05190	Unknown	RXN-12587;RXN-12588;RXN-14382;RXN-14385;RXN-15881;RXN-9787;RXN0-308
ASC97_06220	Unknown	2.7.8.24-RXN
ASC97_06125	Unknown	4.3.1.17-RXN;RXN-15125
ASC97_18985	Unknown	RXN-10462;RXN-13805;RXN-1381;RXN-15045;RXN-16024;RXN-16117;RXN-17016;RXN-17017;RXN-17018
ASC97_01620	Unknown	MYO-INOSITOL-1OR-4-MONOPHOSPHATASE-RXN;RXN-7253;RXN0-5408
ASC97_04755	Unknown	RXN-12752;RXN-13142
ASC97_14025	Unknown	3-OXOACYL-ACP-REDUCT-RXN;RXN-10060;RXN-10655;RXN-10659;RXN-11476;RXN-11480;RXN-13008;RXN-16616;RXN-16622;RXN-16626;RXN-16630;RXN-9514;RXN-9518;RXN-9524;RXN-9528;RXN-9532;RXN-9536;RXN-9540;RXN-9552;RXN-9556;RXN-9633;RXN0-2142;RXN1G-157;RXN1G-349;RXN1G-469;RXN1G-508
ASC97_25210	Unknown	XYLULOKIN-RXN
ASC97_16935	Unknown	RXN0-6481;RXN0-6482;TRNA-NUCLEOTIDYLTRANSFERASE-RXN
ASC97_26440	Unknown	DIHYDRODIPICSYN-RXN
ASC97_17810	Unknown	CHOLINE-KINASE-RXN
ASC97_10255	Unknown	THIAMIN-PYROPHOSPHOKINASE-RXN
ASC97_04690	Unknown	FUMHYDR-RXN
ASC97_29555	Unknown	HYDROXY-MANDELATE-RACEMASE-RXN;MANDELATE-RACEMASE-RXN
ASC97_19035	Unknown	3.1.22.4-RXN
ASC97_17565	Unknown	RXN-12587;RXN-12588;RXN-14382;RXN-14385;RXN-15881;RXN-9787;RXN0-308
ASC97_09970	obgE	RXN0-5462
ASC97_19405	Unknown	RXN-12610;RXN-12611;THI-P-SYN-RXN
ASC97_10605	Unknown	DIAMINOPIMEPIM-RXN
ASC97_27830	Unknown	DIHYDRODIPICSYN-RXN
ASC97_26165	Unknown	DALADALALIG-RXN
ASC97_03410	Unknown	2.7.13.3-RXN
ASC97_25310	Unknown	DIMETHYLARGININASE-RXN
ASC97_24260	Unknown	ORNITHINE-CYCLODEAMINASE-RXN
ASC97_02805	Unknown	3-OXOACYL-ACP-REDUCT-RXN;RXN-10060;RXN-10655;RXN-10659;RXN-11476;RXN-11480;RXN-13008;RXN-16616;RXN-16622;RXN-16626;RXN-16630;RXN-9514;RXN-9518;RXN-9524;RXN-9528;RXN-9532;RXN-9536;RXN-9540;RXN-9552;RXN-9556;RXN-9633;RXN0-2142;RXN1G-157;RXN1G-349;RXN1G-469;RXN1G-508
ASC97_29525	Unknown	GALACTONDEHYDRAT-RXN
ASC97_00230	Unknown	R4-RXN
ASC97_05065	Unknown	ATPASE-RXN
ASC97_01365	Unknown	CATAL-RXN;RXN-14189;RXN66-1
ASC97_24715	Unknown	RXN-15849;RXN-7563
ASC97_17370	Unknown	3.1.11.6-RXN
ASC97_00325	Unknown	ACYLCOADEHYDROG-RXN;RXN-17775;RXN-17779;RXN-17783;RXN-17784;RXN-17788;RXN-17792;RXN-17796
ASC97_00095	Unknown	DCTP-DEAM-RXN;RXN-14118
ASC97_09130	Unknown	ASPAMINOTRANS-RXN;RXN-10814;RXN-11737;RXN-13697
ASC97_14345	Unknown	1.11.1.15-RXN;R4-RXN;RXN0-5468
ASC97_19675	Unknown	5-FORMYL-THF-CYCLO-LIGASE-RXN
ASC97_08080	Unknown	RXN0-6274
ASC97_00795	Unknown	DTDPDEHYDRHAMEPIM-RXN
ASC97_15030	Unknown	RXN1A0-6303
ASC97_14350	Unknown	R4-RXN
ASC97_06585	Unknown	SERINE-O-ACETTRAN-RXN
ASC97_28635	Unknown	PYRIDOXAL-4-DEHYDROGENASE-RXN
ASC97_09490	Unknown	HISTPRATPHYD-RXN
ASC97_04875	Unknown	ALANINE--TRNA-LIGASE-RXN
ASC97_24935	Unknown	1TRANSKETO-RXN;2TRANSKETO-RXN
ASC97_19625	Unknown	CYTOCHROME-C-OXIDASE-RXN
ASC97_15110	Unknown	DNA-DIRECTED-DNA-POLYMERASE-RXN
ASC97_09595	Unknown	PRAISOM-RXN
ASC97_15645	Unknown	GLYOXIII-RXN
ASC97_24750	Unknown	RXN0-5131
ASC97_31155	Unknown	MANNONDEHYDRAT-RXN
ASC97_06870	Unknown	3.2.1.52-RXN;RXN-12625;RXN-12626;RXN-18082;RXN0-5226
ASC97_09085	Unknown	THIOREDOXIN-REDUCT-NADPH-RXN
ASC97_10835	Unknown	OHMETHYLBILANESYN-RXN
ASC97_11595	Unknown	R322-RXN
ASC97_20315	Unknown	ADENYLATECYC-RXN
ASC97_14440	Unknown	DIHYDRODIPICSYN-RXN
ASC97_19120	Unknown	2-DEHYDROPANTOATE-REDUCT-RXN
ASC97_12415	Unknown	N-FORMYLGLUTAMATE-DEFORMYLASE-RXN
ASC97_11735	Unknown	DNA-DIRECTED-DNA-POLYMERASE-RXN
ASC97_22420	Unknown	GLYOXI-RXN
ASC97_05905	Unknown	PRTRANS-RXN
ASC97_05965	Unknown	CITSYN-RXN
ASC97_22055	Unknown	CATAL-RXN;RXN-14189;RXN66-1
ASC97_05010	Unknown	SAICARSYN-RXN
ASC97_06675	Unknown	HOMOSERDEHYDROG-RXN
ASC97_30120	Unknown	SUCCINATE-SEMIALDEHYDE-DEHYDROGENASE-RXN
ASC97_26895	araD	RIBULPEPIM-RXN
ASC97_29485	Unknown	NICOTINAMID-RXN
ASC97_27560	Unknown	3-OXOACYL-ACP-REDUCT-RXN;RXN-10060;RXN-10655;RXN-10659;RXN-11476;RXN-11480;RXN-13008;RXN-16616;RXN-16622;RXN-16626;RXN-16630;RXN-9514;RXN-9518;RXN-9524;RXN-9528;RXN-9532;RXN-9536;RXN-9540;RXN-9552;RXN-9556;RXN-9633;RXN0-2142;RXN1G-157;RXN1G-349;RXN1G-469;RXN1G-508
ASC97_26740	Unknown	2.7.13.3-RXN
ASC97_24665	Unknown	SUCCINATE-SEMIALDEHYDE-DEHYDROGENASE-RXN
ASC97_05410	Unknown	HYDROXY-MANDELATE-RACEMASE-RXN;MANDELATE-RACEMASE-RXN
ASC97_18820	Unknown	1.6.99.5-RXN;NADH-DEHYDROGENASE-QUINONE-RXN
ASC97_19080	Unknown	NADH-DEHYDROGENASE-RXN
ASC97_00455	Unknown	UDPNACETYLGLUCOSAMENOLPYRTRANS-RXN
ASC97_12615	Unknown	GLYCOGEN-BRANCH-RXN;RXN-14371;RXN-14372;RXN-18777;RXN-7669;RXN-7710
ASC97_24535	Unknown	3-OXOACYL-ACP-REDUCT-RXN
ASC97_25490	Unknown	2.7.13.3-RXN
ASC97_21810	Unknown	ACYLCOADEHYDROG-RXN;RXN-17775;RXN-17779;RXN-17783;RXN-17784;RXN-17788;RXN-17792;RXN-17796
ASC97_08805	Unknown	2.6.1.57-RXN;ASPAMINOTRANS-RXN;PHEAMINOTRANS-RXN;RXN-10814;RXN-11737;RXN-13697;RXN-14147;RXN-15200;TYROSINE-AMINOTRANSFERASE-RXN
ASC97_26070	Unknown	BTUR2-RXN;COBALADENOSYLTRANS-RXN;R344-RXN
ASC97_09420	Unknown	ATPASE-RXN
ASC97_04695	fumC	FUMHYDR-RXN
ASC97_18810	Unknown	1.6.99.5-RXN;NADH-DEHYDROGENASE-QUINONE-RXN
ASC97_21670	Unknown	ADENYLATECYC-RXN
ASC97_02790	Unknown	3.1.1.64-RXN;CARBOXYLESTERASE-RXN;RETINYL-PALMITATE-ESTERASE-RXN;RXN-10711;RXN-10767;RXN-12252;RXN-12575;RXNQT-4366
ASC97_11835	Unknown	2-OXOPENT-4-ENOATE-HYDRATASE-RXN;RXN-10381
ASC97_21540	Unknown	3.11.1.2-RXN
ASC97_09525	Unknown	PROTEIN-KINASE-RXN
ASC97_20020	Unknown	HISTIDINE-AMMONIA-LYASE-RXN
ASC97_05260	Unknown	2.1.3.1-RXN
ASC97_06395	Unknown	1.8.1.4-RXN;2OXOGLUTARATEDEH-RXN;2OXOGLUTDECARB-RXN;RXN-7716;RXN-7719;RXN-8629;RXN0-1132;RXN0-1147
ASC97_18550	Unknown	DNA-DIRECTED-RNA-POLYMERASE-RXN
ASC97_16700	Unknown	RIBOKIN-RXN;RXN-14223
ASC97_12410	Unknown	MYO-INOSITOL-1OR-4-MONOPHOSPHATASE-RXN;RXN-7253;RXN0-5408
ASC97_11125	Unknown	1TRANSKETO-RXN;2TRANSKETO-RXN
ASC97_13190	Unknown	2.7.13.3-RXN
ASC97_06065	Unknown	HISTCYCLOHYD-RXN
ASC97_10725	Unknown	RXN-11586
ASC97_13260	Unknown	GLUCONOLACT-RXN;RXN-8783
ASC97_19615	Unknown	CYTOCHROME-C-OXIDASE-RXN;RXN-15830
ASC97_10355	Unknown	RXN0-2161;SERINE--TRNA-LIGASE-RXN
ASC97_08035	Unknown	NITRILE-HYDRATASE-RXN;R310-RXN;R313-RXN;RXN-14725;RXN-14726;RXN-17609;RXN-7567
ASC97_17480	Unknown	2.3.2.13-RXN;RXN-19236
ASC97_05970	Unknown	CTPSYN-RXN;GLUTAMIN-RXN;RXN-14325
ASC97_01770	Unknown	2.7.1.148-RXN
ASC97_05160	Unknown	RXN0-4621
ASC97_12600	Unknown	2.3.2.13-RXN;RXN-19236
ASC97_02895	Unknown	CATAL-RXN;RXN-14189;RXN66-1
ASC97_00380	Unknown	ASPAMINOTRANS-RXN;RXN-10814;RXN-11737;RXN-13697
ASC97_27735	Unknown	DIHYDROPYRIMIDINASE-RXN;RXN-11211;RXN-11217
ASC97_05335	Unknown	RIB5PISOM-RXN
ASC97_16650	Unknown	SUCCDIAMINOPIMDESUCC-RXN
ASC97_03910	Unknown	LAUROYLACYLTRAN-RXN
ASC97_08075	Unknown	ATPASE-RXN
ASC97_17040	Unknown	P-PANTOCYSDECARB-RXN;P-PANTOCYSLIG-RXN;RXN-11781
ASC97_09925	Unknown	HYDROXYMETHYLGLUTARYL-COA-LYASE-RXN
ASC97_05385	Unknown	RXN-8771
ASC97_19840	Unknown	ACYLPHOSPHATASE-RXN
ASC97_16660	Unknown	RXN-982
ASC97_17500	Unknown	ADENYLATECYC-RXN
ASC97_19610	Unknown	CYTOCHROME-C-OXIDASE-RXN;RXN-15830
ASC97_21085	Unknown	ANTHRANSYN-RXN
ASC97_04950	Unknown	MYO-INOSITOL-1OR-4-MONOPHOSPHATASE-RXN;RXN-7253;RXN0-5408
ASC97_25275	Unknown	RXN-9387;RXN-9781
ASC97_02690	ampC	BETA-LACTAMASE-RXN
ASC97_04530	Unknown	COBALAMIN5PSYN-RXN;COBALAMINSYN-RXN;RXN-19296;RXN-19297;RXN-19302;RXN-19303;RXN-19304;RXN-19305;RXN-19307;RXN-19308
ASC97_18140	Unknown	GLYCERATE-DEHYDROGENASE-RXN;HYDROXYPYRUVATE-REDUCTASE-RXN;RXN0-300
ASC97_25965	Unknown	HISTAMINOTRANS-RXN
ASC97_00780	Unknown	2.7.7.33-RXN
ASC97_01890	ubiA	4OHBENZOATE-OCTAPRENYLTRANSFER-RXN
ASC97_23350	Unknown	2-OCTAPRENYL-6-OHPHENOL-METHY-RXN;DHHB-METHYLTRANSFER-RXN
ASC97_01405	Unknown	NUCLEOTIDE-PYROPHOSPHATASE-RXN
ASC97_18990	Unknown	DIHYDROOROT-RXN
ASC97_22815	Unknown	3.4.24.40-RXN
ASC97_00985	Unknown	MALTODEXGLUCOSID-RXN;RXN-14281;RXN-14282;RXN-14283;RXN-15910;RXN0-5183
ASC97_32265	Unknown	CARBOXYMETHYLENEBUTENOLIDASE-RXN;DIENELACHYDRO-RXN;RXN-9857;RXN-9868;RXN-9887;RXN-9890
ASC97_23590	Unknown	OROTPDECARB-RXN
ASC97_03700	Unknown	GLYCEROL-KIN-RXN
ASC97_26210	Unknown	PRPPAMIDOTRANS-RXN
ASC97_10700	Unknown	PROTEIN-TYROSINE-PHOSPHATASE-RXN
ASC97_05170	Unknown	RXN-12587;RXN-12588;RXN-14382;RXN-14385;RXN-15881;RXN-9787;RXN0-308
ASC97_10875	Unknown	RXN-14971;RXN-15378;SUCCINATE-DEHYDROGENASE-UBIQUINONE-RXN
ASC97_17140	Unknown	ACSERLY-RXN;RXN-12726
ASC97_12870	Unknown	ADENYLATECYC-RXN
ASC97_27370	Unknown	RXN0-5294
ASC97_04710	Unknown	RXN0-4261
ASC97_04395	Unknown	CHORISMATEMUT-RXN
ASC97_17205	Unknown	OROTPDECARB-RXN
ASC97_09800	Unknown	CARBODEHYDRAT-RXN;RXN0-5224
ASC97_12740	Unknown	CYTOCHROME-C-OXIDASE-RXN;RXN-15830
ASC97_07395	Unknown	ACSERLY-RXN;RXN-12726
ASC97_13235	Unknown	3-OXOACYL-ACP-REDUCT-RXN
ASC97_04200	Unknown	RXN0-5021
ASC97_17710	Unknown	RXN-9655
ASC97_11005	Unknown	2.7.13.3-RXN
ASC97_18185	Unknown	RXN-14014
ASC97_04895	Unknown	ISOCITDEH-RXN;RXN-8642;RXN-9951
ASC97_25175	Unknown	RXN-15740;RXN-15745;RXN0-5260
ASC97_10905	sucC	SUCCCOASYN-RXN
ASC97_27500	Unknown	PYRNUTRANSHYDROGEN-RXN;TRANS-RXN0-277
ASC97_24775	Unknown	RXN0-5131
ASC97_16895	Unknown	S-ADENMETSYN-RXN
ASC97_10115	Unknown	GLYOXIII-RXN
ASC97_23775	Unknown	5.3.1.17-RXN
ASC97_27040	Unknown	QUINOPRIBOTRANS-RXN
ASC97_29250	Unknown	ALARACECAT-RXN
ASC97_28915	Unknown	GLYOXIII-RXN
ASC97_32130	Unknown	RXN0-3221
ASC97_16810	Unknown	URITRANS-RXN
ASC97_29955	Unknown	ADENYLATECYC-RXN
ASC97_04535	Unknown	DMBPPRIBOSYLTRANS-RXN;RXN-19295;RXN-19298;RXN-19299;RXN-19300;RXN-19301;RXN-19306
ASC97_00390	Unknown	UDPGLUCEPIM-RXN
ASC97_00030	Unknown	2.7.13.3-RXN
ASC97_13440	Unknown	2-OXOPENT-4-ENOATE-HYDRATASE-RXN;RXN-10381
ASC97_06800	Unknown	2.5.1.32-RXN;RXN-13323;RXNARA-8002
ASC97_23685	Unknown	ADENYLATECYC-RXN
ASC97_06225	Unknown	1.18.1.2-RXN
ASC97_15770	Unknown	DIHYDROURACIL-DEHYDROGENASE-NAD+-RXN;RXN0-6565
ASC97_31830	Unknown	RXN0-5131
ASC97_31630	Unknown	GLYOXIII-RXN
ASC97_11560	Unknown	2.1.1.133-RXN
ASC97_10360	Unknown	3.2.1.25-RXN
ASC97_05060	Unknown	RXN-8505
ASC97_14670	Unknown	MYO-INOSOSE-2-DEHYDRATASE-RXN
ASC97_01470	Unknown	RXN1A0-6303
ASC97_27845	Unknown	RXN-13179
ASC97_13435	Unknown	HOMOGENTISATE-12-DIOXYGENASE-RXN
ASC97_21995	Unknown	2.7.13.3-RXN
ASC97_18915	Unknown	DNA-DIRECTED-DNA-POLYMERASE-RXN
ASC97_20075	Unknown	GLYOXII-RXN;RXN-7919
ASC97_09895	Unknown	CDPDIGLYSYN-RXN;RXN0-5515
ASC97_08475	Unknown	RXN-12347
ASC97_23420	Unknown	RXN0-5131
ASC97_02035	Unknown	CHORISMATE-SYNTHASE-RXN
ASC97_25805	Unknown	GLYOXIII-RXN
ASC97_03890	Unknown	3-HYDROXYDECANOYL-ACP-DEHYDR-RXN
ASC97_29475	Unknown	ATPASE-RXN
ASC97_02370	Unknown	1.5.1.9-RXN
ASC97_13565	Unknown	ALLOPHANATE-HYDROLASE-RXN
ASC97_23130	Unknown	FMNREDUCT-RXN;NADPH-DEHYDROGENASE-FLAVIN-RXN;RXN-12444
ASC97_12100	Unknown	ALARACECAT-RXN
ASC97_01930	Unknown	3.2.1.17-RXN
ASC97_20250	Unknown	3-OXOADIPATE-ENOL-LACTONASE-RXN;RXN-10083
ASC97_24655	Unknown	DIOHBUTANONEPSYN-RXN
ASC97_14305	Unknown	R231-RXN
ASC97_06510	pyrH	RXN-12002
ASC97_12305	Unknown	4.2.3.12-RXN
ASC97_21000	Unknown	MALTODEXGLUCOSID-RXN;RXN-14281;RXN-14282;RXN-14283;RXN-15910;RXN0-5183
ASC97_01975	Unknown	DXS-RXN
ASC97_31960	Unknown	ADENYLATECYC-RXN;GUANYLCYC-RXN
ASC97_08325	Unknown	UDPACYLGLCNACDEACETYL-RXN
ASC97_05040	Unknown	AICARSYN-RXN;AMPSYN-RXN
ASC97_06830	pcm	2.1.1.77-RXN
ASC97_31175	Unknown	RXN-8529
ASC97_02565	Unknown	ASPARAGHYD-RXN
ASC97_10990	Unknown	ADENYLATECYC-RXN
ASC97_15370	hppA	INORGPYROPHOSPHAT-RXN
ASC97_23150	Unknown	GLYOXIII-RXN
ASC97_18315	Unknown	DNA-DIRECTED-DNA-POLYMERASE-RXN
ASC97_28480	Unknown	GLYOXIII-RXN
ASC97_02255	Unknown	2-HALOACID-DEHALOGENASE-RXN;3.8.1.11-RXN;RXN-6263;RXN-6264
ASC97_05445	Unknown	PANTEPADENYLYLTRAN-RXN
ASC97_17780	gabD	RXN0-5293;SUCCINATE-SEMIALDEHYDE-DEHYDROGENASE-RXN
ASC97_04975	Unknown	FGAMSYN-RXN
ASC97_06495	Unknown	CDPDIGLYSYN-RXN;RXN0-5515
ASC97_09915	Unknown	METHYLCROTONYL-COA-CARBOXYLASE-RXN
ASC97_09910	Unknown	RXN-14264;RXN0-2301
ASC97_09810	Unknown	ASPARTATE-SEMIALDEHYDE-DEHYDROGENASE-RXN
ASC97_18675	Unknown	ACETYLHOMOSER-CYS-RXN;O-ACETYLHOMOSERINE-THIOL-LYASE-RXN
ASC97_27220	Unknown	GUANYLCYC-RXN
ASC97_09520	Unknown	2.7.13.3-RXN
ASC97_21860	Unknown	DIHYDROXYISOVALDEHYDRAT-RXN;DIHYDROXYMETVALDEHYDRAT-RXN
ASC97_15535	Unknown	HOMOCYSMET-RXN
ASC97_21010	Unknown	2.6.1.18-RXN
ASC97_10095	Unknown	4.3.1.17-RXN;RXN-15125
ASC97_06150	Unknown	3.5.1.27-RXN;3.5.1.88-RXN
ASC97_02670	Unknown	4-CARBOXYMUCONOLACTONE-DECARBOXYLASE-RXN
ASC97_15575	Unknown	RXN-11791
ASC97_23185	Unknown	2.7.13.3-RXN
ASC97_18420	tuf	RXN0-5462
ASC97_20170	Unknown	DIHYDROXYISOVALDEHYDRAT-RXN;DIHYDROXYMETVALDEHYDRAT-RXN
ASC97_20270	Unknown	5.5.1.2-RXN
ASC97_20725	Unknown	RXN-11109
ASC97_23040	Unknown	25-DIOXOVALERATE-DEHYDROGENASE-RXN;RXN-8775
ASC97_14810	Unknown	SUPEROX-DISMUT-RXN
ASC97_09790	Unknown	GLUTAMATE-DEHYDROGENASE-RXN
ASC97_13145	Unknown	RIBULOKIN-RXN;RXN0-5116
ASC97_13050	Unknown	AMINOBUTDEHYDROG-RXN
ASC97_17705	Unknown	2.3.1.41-RXN;3-OXOACYL-ACP-SYNTH-BASE-RXN;3-OXOACYL-ACP-SYNTH-RXN;RXN-10059;RXN-10654;RXN-10658;RXN-11474;RXN-11479;RXN-16615;RXN-16621;RXN-16625;RXN-16629;RXN-9516;RXN-9523;RXN-9527;RXN-9531;RXN-9535;RXN-9539;RXN-9632;RXN-9648;RXN-9650;RXN-9651;RXN-9652;RXN-9653;RXN-9654;RXN0-2141;RXN1G-368;RXN1G-445;RXN1G-460;RXN1G-499;RXN3O-1803
ASC97_02765	Unknown	ARYLSULFATE-SULFOTRANSFERASE-RXN
ASC97_05330	Unknown	GPH-RXN
ASC97_10900	Unknown	MALATE-DEH-RXN
ASC97_22745	Unknown	LYSOPHOSPHOLIPASE-RXN;RXN-15035;RXN-19312
ASC97_12070	Unknown	3.2.1.52-RXN;RXN-12625;RXN-12626;RXN-18082;RXN0-5226
ASC97_18605	Unknown	DIHYDRODIPICSYN-RXN
ASC97_06095	Unknown	3.4.11.5-RXN
ASC97_19115	Unknown	4.1.99.4-RXN;RXN-15149
ASC97_11565	Unknown	2.1.1.132-RXN;RXN-13824;RXN-13826
ASC97_16785	Unknown	2.7.13.3-RXN
ASC97_17230	Unknown	RXN-12104
ASC97_16990	Unknown	RXN-9235
ASC97_05155	Unknown	TYROSINE--TRNA-LIGASE-RXN
ASC97_22940	Unknown	GPPSYN-RXN
ASC97_10790	Unknown	INORGPYROPHOSPHAT-RXN
ASC97_27615	Unknown	RXN-7682;RXN0-901
ASC97_15850	Unknown	PHOSGLYPHOS-RXN
ASC97_17605	Unknown	DNA-DIRECTED-DNA-POLYMERASE-RXN
ASC97_12020	Unknown	FMNREDUCT-RXN;NADPH-DEHYDROGENASE-FLAVIN-RXN;RXN-12444
ASC97_28395	rnpA	3.1.26.5-RXN;RXN0-6480
ASC97_08260	Unknown	RXN0-5419
ASC97_29565	Unknown	HYDROXY-MANDELATE-RACEMASE-RXN;MANDELATE-RACEMASE-RXN
ASC97_01235	Unknown	ATPASE-RXN
ASC97_00720	fliI	ATPSYN-RXN
ASC97_04815	Unknown	CARBOXYMETHYLENEBUTENOLIDASE-RXN;DIENELACHYDRO-RXN;RXN-9857;RXN-9868;RXN-9887;RXN-9890
ASC97_11885	Unknown	R4-RXN
ASC97_05995	Unknown	1.11.1.15-RXN;RXN0-5468
ASC97_30385	Unknown	RXN0-5131
ASC97_19235	Unknown	ACYLCOADEHYDROG-RXN;RXN-17775;RXN-17779;RXN-17783;RXN-17784;RXN-17788;RXN-17792;RXN-17796
ASC97_04610	Unknown	2-OCTAPRENYL-6-OHPHENOL-METHY-RXN;DHHB-METHYLTRANSFER-RXN
ASC97_20175	Unknown	FUMARYLACETOACETASE-RXN
ASC97_24570	Unknown	RXN-2425
ASC97_05910	Unknown	IGPSYN-RXN
ASC97_06215	Unknown	NQOR-RXN
ASC97_04615	Unknown	ASPARTATE-SEMIALDEHYDE-DEHYDROGENASE-RXN
ASC97_05290	Unknown	RXN-17884;RXN-2962
ASC97_10035	Unknown	RXN0-5510
ASC97_05455	Unknown	PEPTIDYLPROLYL-ISOMERASE-RXN
ASC97_14945	Unknown	PRPPAMIDOTRANS-RXN
ASC97_22300	Unknown	2.7.13.3-RXN
ASC97_13615	Unknown	1.11.1.15-RXN;RXN0-5468
ASC97_28570	Unknown	3.2.1.25-RXN
ASC97_16185	Unknown	3-OXOACYL-ACP-REDUCT-RXN
ASC97_10945	Unknown	1.8.1.4-RXN;2OXOGLUTARATEDEH-RXN;2OXOGLUTDECARB-RXN;RXN-7716;RXN-7719;RXN-8629;RXN0-1132;RXN0-1147
ASC97_05450	Unknown	PEPTIDYLPROLYL-ISOMERASE-RXN
ASC97_01495	Unknown	HISTIDINE--TRNA-LIGASE-RXN
ASC97_06300	Unknown	DIMETHUROPORDEHYDROG-RXN;SIROHEME-FERROCHELAT-RXN;UROPORIIIMETHYLTRANSA-RXN
ASC97_07420	Unknown	ALANINE-DEHYDROGENASE-RXN
ASC97_31870	Unknown	RXN0-5131
ASC97_19070	gatB	6.3.5.7-RXN
ASC97_21105	Unknown	RXN0-4022
ASC97_12645	Unknown	GLYOXI-RXN
ASC97_03825	Unknown	2.7.1.156-RXN;COBINAMIDEKIN-RXN;RXN-14063
ASC97_20030	Unknown	UROCANATE-HYDRATASE-RXN
ASC97_30580	Unknown	RXN0-5131
ASC97_14615	Unknown	AMP-NUCLEOSID-RXN
ASC97_05085	Unknown	2.7.1.148-RXN
ASC97_28855	Unknown	GLUCISOM-RXN;XYLISOM-RXN
ASC97_13230	Unknown	GALACTONDEHYDRAT-RXN
ASC97_04855	Unknown	2.7.13.3-RXN
ASC97_18080	Unknown	THYM-PHOSPH-RXN
ASC97_19475	Unknown	F16ALDOLASE-RXN;RXN-8631
ASC97_16900	Unknown	TRNA-GUANINE-N7--METHYLTRANSFERASE-RXN
ASC97_09295	Unknown	AMINOCYL-TRNA-HYDROLASE-RXN;RXN-16637
ASC97_08590	Unknown	N-FORMYLGLUTAMATE-DEFORMYLASE-RXN
ASC97_17545	Unknown	GLYCERATE-DEHYDROGENASE-RXN;HYDROXYPYRUVATE-REDUCTASE-RXN
ASC97_21535	Unknown	RXN-12513
ASC97_04680	Unknown	PMPOXI-RXN;PNPOXI-RXN
ASC97_22560	Unknown	RXN0-305
ASC97_01740	Unknown	KANAMYCIN-KINASE-RXN
ASC97_25265	Unknown	5-OXOPROLINASE-ATP-HYDROLYSING-RXN
ASC97_20045	tauB	3.6.3.36-RXN;ABC-64-RXN
ASC97_17680	truB	TRNA-PSEUDOURIDINE-SYNTHASE-I-RXN
ASC97_00160	Unknown	DIHYDROOROTATE-DEHYDROGENASE-RXN;RXN0-6491;RXN0-6554
ASC97_09625	Unknown	5.99.1.3-RXN
ASC97_03930	Unknown	RXN-9952
ASC97_02200	Unknown	R4-RXN
ASC97_28405	Unknown	2.7.13.3-RXN
ASC97_08125	Unknown	ARYLSULFATE-SULFOTRANSFERASE-RXN
ASC97_28200	Unknown	ALPHAGALACTOSID-RXN;MALTODEXGLUCOSID-RXN;RXN-11501;RXN-11502;RXN-12088;RXN-14281;RXN-14282;RXN-14283;RXN-15910;RXN-17754;RXN-17830;RXN0-5183
ASC97_06600	Unknown	RXN-10078;RXN-10079;RXN-9912;RXN-9914;SALICYLATE-1-MONOOXYGENASE-RXN
ASC97_23980	Unknown	3-OXOACYL-ACP-REDUCT-RXN;RXN-10060;RXN-10655;RXN-10659;RXN-11476;RXN-11480;RXN-13008;RXN-16616;RXN-16622;RXN-16626;RXN-16630;RXN-9514;RXN-9518;RXN-9524;RXN-9528;RXN-9532;RXN-9536;RXN-9540;RXN-9552;RXN-9556;RXN-9633;RXN0-2142;RXN1G-157;RXN1G-349;RXN1G-469;RXN1G-508
ASC97_19095	Unknown	BIOTIN-CARBOXYL-RXN
ASC97_21400	Unknown	7KAPSYN-RXN;RXN-11484
ASC97_32385	Unknown	3.4.13.9-RXN
ASC97_01050	Unknown	ISOCIT-CLEAV-RXN
ASC97_20885	Unknown	GLYCEROL-KIN-RXN
ASC97_03190	Unknown	RXN0-5131
ASC97_00320	Unknown	2-OCTAPRENYL-6-OHPHENOL-METHY-RXN;DHHB-METHYLTRANSFER-RXN
ASC97_13010	lysS	LYSINE--TRNA-LIGASE-RXN
ASC97_04580	Unknown	RXN-13418;RXN-15341;RXN0-280;RXN0-6973
ASC97_05530	Unknown	DTMPKI-RXN
ASC97_21460	Unknown	HISTIDINE-AMMONIA-LYASE-RXN
ASC97_10655	Unknown	ACONITATEDEHYDR-RXN;ACONITATEHYDR-RXN;RXN-14047
ASC97_07365	Unknown	DEOXYRIBODIPYRIMIDINE-PHOTOLYASE-RXN;RXN-19025;RXN-19026;RXN-19242;RXN-19243;RXN-19244;RXN-19245;RXN-19246;RXN-19247;RXN-19248
ASC97_25155	Unknown	TRIOSEPISOMERIZATION-RXN
ASC97_11715	Unknown	RXN-17155
ASC97_14255	Unknown	R122-RXN
ASC97_13070	Unknown	TRANSALDOL-RXN
ASC97_08580	Unknown	GLUTAMINESYN-RXN
ASC97_22795	Unknown	3.2.1.40-RXN;QUERCITRINASE-RXN;RXN-13788;RXN-14574;RXN-16248;RXN-16249;RXN-16250
ASC97_16640	Unknown	LYSDECARBOX-RXN
ASC97_18220	Unknown	RXN-17956;RXN0-6734
ASC97_04820	Unknown	H2PTERIDINEPYROPHOSPHOKIN-RXN;RXN-15733
ASC97_05900	Unknown	PEPTIDYLPROLYL-ISOMERASE-RXN
ASC97_10235	Unknown	HOMSUCTRAN-RXN
ASC97_01995	Unknown	3.1.11.6-RXN
ASC97_16130	cpsB	2.7.7.13-RXN
ASC97_30455	Unknown	DLACTDEHYDROGNAD-RXN
ASC97_02030	Unknown	DIOHBUTANONEPSYN-RXN
ASC97_06895	Unknown	3.1.11.2-RXN
ASC97_17970	Unknown	AMIDASE-RXN;GUANIDINOBUTANAMIDE-NH3-RXN;PYRAZIN-RXN;R311-RXN;RXN-14727;RXN-14728;RXN-17608;RXNN-404
ASC97_28925	Unknown	RXN0-5131
ASC97_12720	Unknown	2.7.13.3-RXN
ASC97_25220	Unknown	F16ALDOLASE-RXN;RXN-10053;RXN-8631
ASC97_07505	Unknown	ADPREDUCT-RXN;CDPREDUCT-RXN;GDPREDUCT-RXN;RIBONUCLEOSIDE-DIP-REDUCTI-RXN;RIBONUCLEOSIDE-DIP-REDUCTII-RXN;RXN0-722;RXN0-747;RXN0-748;UDPREDUCT-RXN
ASC97_28555	Unknown	PGLUCISOM-RXN
ASC97_24495	Unknown	GLYCERATE-DEHYDROGENASE-RXN;HYDROXYPYRUVATE-REDUCTASE-RXN;RXN0-300
ASC97_20555	Unknown	RXN0-5131
ASC97_18630	Unknown	AGMATIN-RXN
ASC97_29480	Unknown	PMPOXI-RXN;PNPOXI-RXN
ASC97_28105	Unknown	QOR-RXN
ASC97_15145	ndk	CDPKIN-RXN;DADPKIN-RXN;DCDPKIN-RXN;DGDPKIN-RXN;DTDPKIN-RXN;DUDPKIN-RXN;GDPKIN-RXN;NUCLEOSIDE-DIP-KIN-RXN;RXN-14120;RXN-14228;UDPKIN-RXN
ASC97_14785	Unknown	RXN1A0-6303
ASC97_09580	Unknown	ACETYL-COA-CARBOXYLTRANSFER-RXN;RXN0-5055
ASC97_09665	Unknown	DEPHOSPHOCOAKIN-RXN
ASC97_18970	Unknown	5.99.1.2-RXN
ASC97_17800	Unknown	MANNONOXIDOREDUCT-RXN
ASC97_16120	Unknown	RXN0-2584
ASC97_03550	Unknown	RXN-9387;RXN-9781
ASC97_27190	Unknown	TAGAALDOL-RXN
ASC97_06355	ispDF	2.7.7.60-RXN;RXN0-302
ASC97_04745	glnA	GLUTAMINESYN-RXN
ASC97_19345	Unknown	RXN-15122;THREDEHYD-RXN
ASC97_15075	Unknown	RXN-13179
ASC97_02160	Unknown	3.1.26.4-RXN
ASC97_12015	Unknown	AGMATIN-RXN
ASC97_16410	Unknown	POLYPHOSPHATE-KINASE-RXN
ASC97_18215	Unknown	RXN-17956;RXN0-6734
ASC97_05980	Unknown	TRIOSEPISOMERIZATION-RXN
ASC97_18085	Unknown	DEOXYRIBOSE-P-ALD-RXN
ASC97_08395	Unknown	UDP-NACMURALGLDAPAALIG-RXN
ASC97_07720	Unknown	RXN0-5131
ASC97_13795	Unknown	2.7.13.3-RXN
ASC97_01195	Unknown	RXN0-4261
ASC97_04995	Unknown	FGAMSYN-RXN
ASC97_08900	Unknown	2-OCTAPRENYL-6-OHPHENOL-METHY-RXN;DHHB-METHYLTRANSFER-RXN
ASC97_23070	Unknown	GLYOXIII-RXN
ASC97_18090	Unknown	ADENPHOSPHOR-RXN;DEOXYADENPHOSPHOR-RXN;DEOXYGUANPHOSPHOR-RXN;DEOXYINOPHOSPHOR-RXN;INOPHOSPHOR-RXN;PNP-RXN;RXN-11715;RXN-11743;RXN-14029;RXN-7001;RXN0-5199;XANTHOSINEPHOSPHORY-RXN
ASC97_19305	Unknown	PEPDEPHOS-RXN;RXN-14117;RXN-14192;RXN-14207
ASC97_15285	Unknown	5.99.1.2-RXN
ASC97_16095	Unknown	ADENYLOSUCCINATE-SYNTHASE-RXN
ASC97_10050	Unknown	DNA-DIRECTED-DNA-POLYMERASE-RXN;RXN0-4961
ASC97_27520	Unknown	RXN-8529
ASC97_10445	Unknown	RXN0-5131
ASC97_18720	clpP	3.4.21.92-RXN
ASC97_06910	Unknown	VALINE--TRNA-LIGASE-RXN
ASC97_16145	Unknown	RXN0-5289;TSA-REDUCT-RXN
ASC97_09755	Unknown	ACETATE--COA-LIGASE-RXN;RXN-18446;RXN-18447;RXN-18448
ASC97_31605	Unknown	RXN1A0-6303
ASC97_13430	Unknown	4-HYDROXYPHENYLPYRUVATE-DIOXYGENASE-RXN;RXN-10815
ASC97_28685	Unknown	DTDPGLUCDEHYDRAT-RXN
ASC97_00440	Unknown	GLYOXIII-RXN
ASC97_28795	Unknown	GLYCPDIESTER-RXN;RXN-14073;RXN-14136;RXN-14160
ASC97_09985	Unknown	NICONUCADENYLYLTRAN-RXN
ASC97_13100	Unknown	4.2.99.18-RXN
ASC97_18880	Unknown	PROLINE--TRNA-LIGASE-RXN
ASC97_01675	Unknown	DEHYDDEOXGALACTKIN-RXN
ASC97_20205	Unknown	KETOACYLCOATHIOL-RXN;RXN-10699;RXN-10700;RXN-10701;RXN-11246;RXN-12565;RXN-12710;RXN-13617;RXN-14268;RXN-14274;RXN-14277;RXN-14394;RXN-14774;RXN-14788;RXN-14793;RXN-14799;RXN-14803;RXN-16137;RXN-17116;RXN-17778;RXN-17782;RXN-17787;RXN-17791;RXN-17795;RXN-17799;RXN-3641
ASC97_11520	Unknown	R125-RXN
ASC97_29295	Unknown	ACETYL-COA-ACETYLTRANSFER-RXN;METHYLACETOACETYLCOATHIOL-RXN;RXN-12561
ASC97_18995	pyrB	ASPCARBTRANS-RXN
ASC97_08965	tdh	RXN-14249;THREODEHYD-RXN
ASC97_20395	Unknown	RXN-6883;RXN0-5266
ASC97_07925	Unknown	2.7.13.3-RXN
ASC97_16645	Unknown	TETHYDPICSUCC-RXN
ASC97_22930	Unknown	2.7.7.46-RXN
ASC97_12620	Unknown	GLUC1PADENYLTRANS-RXN
ASC97_11130	Unknown	5.3.1.23-RXN
ASC97_18210	Unknown	RXN-17954;RXN-17957;RXN0-6732
ASC97_26520	Unknown	3-OCTAPRENYL-4-OHBENZOATE-DECARBOX-RXN
ASC97_27280	Unknown	DIHYDRODIPICSYN-RXN
ASC97_15290	Unknown	ATPASE-RXN
ASC97_19510	Unknown	1TRANSKETO-RXN;2TRANSKETO-RXN
ASC97_28865	Unknown	GUANYLCYC-RXN
ASC97_28065	Unknown	MANNONDEHYDRAT-RXN
ASC97_12890	Unknown	FMNREDUCT-RXN;NADPH-DEHYDROGENASE-FLAVIN-RXN;RXN-12444
ASC97_01005	Unknown	6PGLUCONOLACT-RXN
ASC97_10915	sucA	2-KETO-ADIPATE-DEHYDROG-RXN;2OXOGLUTARATEDEH-RXN;2OXOGLUTDECARB-RXN;RXN-7716;RXN0-1147
ASC97_08970	Unknown	AKBLIG-RXN
ASC97_09260	Unknown	1.11.1.15-RXN;RXN0-5468
ASC97_19105	Unknown	3-DEHYDROQUINATE-DEHYDRATASE-RXN
ASC97_01000	Unknown	PGLUCONDEHYDRAT-RXN
ASC97_13250	Unknown	1.14.11.18-RXN;RXN66-470
ASC97_26355	Unknown	R342-RXN
ASC97_03105	Unknown	ADOMET-DMK-METHYLTRANSFER-RXN
ASC97_10965	Unknown	ATPASE-RXN
ASC97_12300	Unknown	RXN0-6575
ASC97_26040	Unknown	ARGSUCCINLYA-RXN;RXN-22
ASC97_01315	Unknown	GLYOXIII-RXN
ASC97_16630	Unknown	2-HALOACID-DEHALOGENASE-RXN;3.8.1.11-RXN;RXN-6263;RXN-6264
ASC97_13660	Unknown	GLYCPDIESTER-RXN;RXN-14073;RXN-14136;RXN-14160
ASC97_17150	Unknown	GLUTATHIONE-SYN-RXN
ASC97_15195	Unknown	GSHTRAN-RXN;GST-RXN;RXN-11663;RXN-13673;RXN-15680;RXN-18405;RXN-18407;RXNQT-4363
ASC97_20330	Unknown	ADENYLATECYC-RXN
ASC97_28560	Unknown	ACYLCOASYN-RXN;LINOLENOYL-RXN;R223-RXN;RXN-12184;RXN-12978;RXN-13290;RXN-13614;RXN-16380;RXN-16389;RXN-16393;RXN-16401;RXN-16402;RXN-16415;RXN-16418;RXN-7904;RXN-9623;RXN-9644;RXN-9673;RXN0-7238;RXN0-7239;RXN0-7248;RXN66-469;RXN66-477;RXN66-480;RXN66-483;RXN66-484;TRANS-RXN0-623
ASC97_15255	Unknown	GLYCPDIESTER-RXN;RXN-14073;RXN-14136;RXN-14160
ASC97_18295	Unknown	PRPPSYN-RXN
ASC97_05990	Unknown	5.99.1.2-RXN
ASC97_16510	Unknown	2.7.13.3-RXN
ASC97_07705	Unknown	RXN0-5131
ASC97_15310	Unknown	PORPHOBILSYNTH-RXN
ASC97_16155	Unknown	GLYOXIII-RXN
ASC97_14150	Unknown	2.7.13.3-RXN
ASC97_05005	Unknown	FGAMSYN-RXN
ASC97_11585	cobH	5.4.1.2-RXN
ASC97_02240	Unknown	THRESYN-RXN
ASC97_11975	fabG	3-OXOACYL-ACP-REDUCT-RXN;RXN-10060;RXN-10655;RXN-10659;RXN-11476;RXN-11480;RXN-13008;RXN-16616;RXN-16622;RXN-16626;RXN-16630;RXN-9514;RXN-9518;RXN-9524;RXN-9528;RXN-9532;RXN-9536;RXN-9540;RXN-9552;RXN-9556;RXN-9633;RXN0-2142;RXN1G-157;RXN1G-349;RXN1G-469;RXN1G-508
ASC97_10435	Unknown	PYRIMSYN1-RXN
ASC97_19585	Unknown	3.1.22.4-RXN
ASC97_01525	Unknown	GSHTRAN-RXN;GST-RXN;RXN-11663;RXN-13673;RXN-15680;RXN-18405;RXN-18407;RXNQT-4363
ASC97_22635	Unknown	ADENYLATECYC-RXN
ASC97_11035	Unknown	GABATRANSAM-RXN;RXN-2901
ASC97_26935	Unknown	1.5.1.9-RXN
ASC97_10085	Unknown	GLYOXIII-RXN
ASC97_01020	Unknown	GLUTAMINESYN-RXN
ASC97_11195	Unknown	3.1.11.2-RXN
ASC97_10585	Unknown	CHORISMATEMUT-RXN
ASC97_23010	Unknown	2-NITROPROPANE-DIOXYGENASE-RXN
ASC97_05525	Unknown	DNA-DIRECTED-DNA-POLYMERASE-RXN
ASC97_26390	Unknown	SHIKIMATE-KINASE-RXN
ASC97_19950	Unknown	3.2.1.55-RXN
ASC97_01635	Unknown	TETRAACYLDISACC4KIN-RXN
ASC97_01745	Unknown	3.1.26.4-RXN
ASC97_20680	Unknown	GSHTRAN-RXN;GST-RXN;RXN-11663;RXN-13673;RXN-15680;RXN-18405;RXN-18407;RXNQT-4363
ASC97_19760	Unknown	PSERTRANSAM-RXN;PSERTRANSAMPYR-RXN
ASC97_05515	Unknown	METHIONINE--TRNA-LIGASE-RXN;RXN-16165
ASC97_13645	Unknown	GLYCPDIESTER-RXN;RXN-14073;RXN-14136;RXN-14160
ASC97_31485	Unknown	AMIDASE-RXN;GUANIDINOBUTANAMIDE-NH3-RXN;PYRAZIN-RXN;R311-RXN;RXN-14727;RXN-14728;RXN-17608;RXNN-404
ASC97_09265	Unknown	ADENYLATECYC-RXN
ASC97_06780	Unknown	TRNA-URACIL-5--METHYLTRANSFERASE-RXN
ASC97_08285	Unknown	ALDOSE1EPIM-RXN
ASC97_08155	Unknown	AMONITRO-RXN
ASC97_01875	Unknown	2.1.1.79-RXN;RXN-7421;RXN1G-2544;RXN1G-3641
ASC97_01625	Unknown	KDOTRANS-RXN
ASC97_02505	Unknown	CHD-RXN;RXN0-7230
ASC97_09040	Unknown	2.7.13.3-RXN
ASC97_30320	Unknown	5-AMINOLEVULINIC-ACID-SYNTHASE-RXN
ASC97_07805	Unknown	GLYOXIII-RXN
ASC97_14295	Unknown	ADDALT-RXN;ADENODEAMIN-RXN
ASC97_10950	Unknown	RXN0-5131
ASC97_07910	Unknown	ACETOLACTREDUCTOISOM-RXN;ACETOOHBUTREDUCTOISOM-RXN
ASC97_15265	Unknown	3.1.13.5-RXN;RXN0-6483;RXN0-6484
ASC97_00540	Unknown	RXN-18029;TRANS-RXN-314
ASC97_10505	Unknown	3.1.11.2-RXN
ASC97_07995	Unknown	PDXJ-RXN
ASC97_02280	Unknown	DNA-DIRECTED-DNA-POLYMERASE-RXN
ASC97_21065	Unknown	FORMATETHFLIG-RXN
ASC97_31820	Unknown	RXN0-5131
ASC97_08255	Unknown	3.4.11.1-RXN
ASC97_15340	Unknown	RIBOFLAVINSYNDEAM-RXN;RIBOFLAVINSYNREDUC-RXN
ASC97_15175	Unknown	PHOSPHAGLYPSYN-RXN
ASC97_11170	Unknown	ALKANE-1-MONOOXYGENASE-RXN
ASC97_09745	prpE	PROPIONATE--COA-LIGASE-RXN
ASC97_21815	Unknown	RXN-13418;RXN-15341;RXN0-280;RXN0-6973
ASC97_03455	Unknown	2.7.13.3-RXN
ASC97_17225	Unknown	GSHTRAN-RXN;GST-RXN;RXN-11663;RXN-13673;RXN-15680;RXN-18405;RXN-18407;RXNQT-4363
ASC97_31530	Unknown	MANNONDEHYDRAT-RXN
ASC97_14930	Unknown	CYSTEINE--TRNA-LIGASE-RXN
ASC97_30275	rocD	ORNITHINE--OXO-ACID-AMINOTRANSFERASE-RXN;ORNITHINE-GLU-AMINOTRANSFERASE-RXN
ASC97_24115	Unknown	ADDALT-RXN;ADENODEAMIN-RXN
ASC97_28540	Unknown	ATPASE-RXN
ASC97_31825	Unknown	RXN0-5131
ASC97_10135	Unknown	FMNREDUCT-RXN;NADPH-DEHYDROGENASE-FLAVIN-RXN;RXN-12444
ASC97_19985	Unknown	ALPHAGALACTOSID-RXN;MALTODEXGLUCOSID-RXN;RXN-11501;RXN-11502;RXN-12088;RXN-14281;RXN-14282;RXN-14283;RXN-15910;RXN-17754;RXN-17830;RXN0-5183
ASC97_14665	Unknown	RXN-14150
ASC97_21040	Unknown	DURIDKI-RXN;THYKI-RXN
ASC97_01330	Unknown	IMP-DEHYDROG-RXN
ASC97_12630	Unknown	PHOSPHOGLUCMUT-RXN;RXN-16997;RXN-16998
ASC97_27045	Unknown	L-ASPARTATE-OXID-RXN;RXN-9772
ASC97_09210	Unknown	PYRROLINECARBREDUCT-RXN;RXN66-546
ASC97_01205	Unknown	3.4.11.4-RXN
ASC97_11090	Unknown	ACETYLORNDEACET-RXN;RXN-7933
ASC97_09740	Unknown	ALARACECAT-RXN
ASC97_26030	Unknown	DIAMINOPIMDECARB-RXN
ASC97_31325	Unknown	GLUCONOLACT-RXN;RXN-8783
ASC97_25080	Unknown	ATPASE-RXN
ASC97_02055	Unknown	ENOYL-ACP-REDUCT-NADPH-RXN;RXN-9515;RXN-9521;RXN-9526;RXN-9530;RXN-9534;RXN-9538;RXN-9542;RXN3O-5293
ASC97_26195	Unknown	NUCLEOTIDE-PYROPHOSPHATASE-RXN
ASC97_06770	Unknown	GSHTRAN-RXN;GST-RXN;RXN-11663;RXN-13673;RXN-15680;RXN-18405;RXN-18407;RXNQT-4363
ASC97_16125	Unknown	PHOSMANMUT-RXN
ASC97_29585	Unknown	HISTALDEHYD-RXN;HISTOLDEHYD-RXN;RXN-8001
ASC97_04605	Unknown	GSHTRAN-RXN;GST-RXN;RXN-11663;RXN-13673;RXN-15680;RXN-18405;RXN-18407;RXNQT-4363
ASC97_04840	Unknown	RXN-17131;RXN-17132;RXN-17133
ASC97_09440	Unknown	MALSYN-RXN
ASC97_14445	Unknown	3.4.13.9-RXN
ASC97_16860	Unknown	RXN-9591
ASC97_11985	Unknown	RXN-12610;RXN-12611;THI-P-SYN-RXN
ASC97_07450	Unknown	RXN0-5375
ASC97_22735	Unknown	4.2.2.3-RXN
ASC97_05275	Unknown	S-FORMYLGLUTATHIONE-HYDROLASE-RXN
ASC97_25150	Unknown	RIB5PISOM-RXN
ASC97_02070	Unknown	PMPOXI-RXN;PNPOXI-RXN
ASC97_08070	Unknown	ACETOLACTSYN-RXN;ACETOOHBUTSYN-RXN
ASC97_11990	Unknown	THIAZOLSYN3-RXN
ASC97_26220	Unknown	3.5.5.1-RXN;RXN-1404;RXN-17607;RXN-18229
ASC97_04000	Unknown	3.2.1.37-RXN
ASC97_20705	Unknown	2.3.2.13-RXN;RXN-19236
ASC97_03980	Unknown	3.2.1.25-RXN
ASC97_12010	putA	PYRROLINECARBDEHYDROG-RXN;RXN-14116;RXN-14903;RXN0-7008
ASC97_29715	Unknown	3.1.1.64-RXN;CARBOXYLESTERASE-RXN;RETINYL-PALMITATE-ESTERASE-RXN;RXN-10711;RXN-10767;RXN-12252;RXN-12575;RXNQT-4366
ASC97_12295	hemH	PROTOHEMEFERROCHELAT-RXN
ASC97_28130	Unknown	PROLINE-RACEMASE-RXN
ASC97_05225	gcvT	GCVT-RXN
ASC97_07405	sseA	MERCAPYSTRANS-RXN;RXN-18702;RXN-18703;RXN0-6945
ASC97_23035	Unknown	ISOCHORMAT-RXN
ASC97_07380	Unknown	2.1.1.79-RXN;RXN-7421;RXN1G-2544;RXN1G-3641
ASC97_07830	Unknown	RXN0-305
ASC97_23615	Unknown	CARBOXYMETHYLENEBUTENOLIDASE-RXN;DIENELACHYDRO-RXN;RXN-9857;RXN-9868;RXN-9887;RXN-9890
ASC97_10100	Unknown	3-ISOPROPYLMALDEHYDROG-RXN;RXN-13158;RXN-14986;RXN-18200;RXN-18202;RXN-18204;RXN-18206;RXN-18208;RXN-18210;RXNQT-4165;RXNQT-4168;RXNQT-4171;RXNQT-4174;RXNQT-4178
ASC97_19480	pgk	PHOSGLYPHOS-RXN
ASC97_14740	Unknown	GDPPYPHOSKIN-RXN;GTPPYPHOSKIN-RXN
ASC97_10130	Unknown	PYRUVATE-CARBOXYLASE-RXN
ASC97_20195	Unknown	GSHTRAN-RXN;GST-RXN;RXN-11663;RXN-13673;RXN-15680;RXN-18405;RXN-18407;RXNQT-4363
ASC97_11400	Unknown	3.2.1.141-RXN
ASC97_23520	Unknown	2.1.1.79-RXN;RXN-7421;RXN1G-2544;RXN1G-3641
ASC97_20480	Unknown	GLYCERATE-DEHYDROGENASE-RXN;HYDROXYPYRUVATE-REDUCTASE-RXN;RXN0-300
ASC97_09100	Unknown	12-OXOPHYTODIENOATE-REDUCTASE-RXN
ASC97_02485	Unknown	RXN-12720;SULFATE-ADENYLYLTRANS-RXN
ASC97_00275	Unknown	THIOREDOXIN-REDUCT-NADPH-RXN
ASC97_21530	Unknown	RXN0-5364
ASC97_24105	Unknown	2.7.13.3-RXN
ASC97_31260	Unknown	2-HALOACID-DEHALOGENASE-RXN
ASC97_13110	Unknown	GLYOXIII-RXN
ASC97_06380	Unknown	RXN-14950;RXN-14957;RXN-14959;RXN0-949
ASC97_13485	Unknown	ATPASE-RXN
ASC97_06160	Unknown	L-GLN-FRUCT-6-P-AMINOTRANS-RXN
ASC97_04915	Unknown	GLUTRACE-RXN
ASC97_07770	Unknown	ARYLSULFAT-RXN
ASC97_21765	Unknown	ACYLCOADEHYDROG-RXN;RXN-17775;RXN-17779;RXN-17783;RXN-17784;RXN-17788;RXN-17792;RXN-17796
ASC97_03145	Unknown	1.8.4.12-RXN
ASC97_16685	Unknown	3.5.1.27-RXN;3.5.1.88-RXN
ASC97_24810	Unknown	RXN0-5131
ASC97_24125	Unknown	CYTDEAM-RXN;RXN-14129;RXN-14197
ASC97_11215	Unknown	POLYPHOSPHATE-KINASE-RXN
ASC97_11405	Unknown	5.99.1.2-RXN
ASC97_15300	Unknown	ARGINYLTRANSFERASE-RXN;RXN-17888;RXN-17889;RXN-17890;RXN-17891
ASC97_29290	Unknown	1.1.1.178-RXN
ASC97_22620	Unknown	RXN-13179
ASC97_04780	Unknown	5.99.1.3-RXN
ASC97_15050	Unknown	2.3.1.179-RXN;2.3.1.41-RXN;3-OXOACYL-ACP-SYNTH-BASE-RXN;3-OXOACYL-ACP-SYNTH-RXN;RXN-10654;RXN-10658;RXN-11474;RXN-11479;RXN-16615;RXN-16621;RXN-16625;RXN-16629;RXN-8391;RXN-9516;RXN-9523;RXN-9527;RXN-9531;RXN-9535;RXN-9539;RXN0-2141;RXN1G-460;RXN3O-1803
ASC97_21990	Unknown	PROTEIN-KINASE-RXN
ASC97_07440	cpdB	3-NUCLEOTID-RXN;CYCPHOSDIESTER-RXN;RXN-14064;RXN-14090;RXN-14091;RXN-14112;RXN-14113;RXN-14115;RXN-14124;RXN-14126
ASC97_21955	Unknown	NQOR-RXN
ASC97_13900	Unknown	RXN-8668
ASC97_17925	Unknown	RXN-2043
ASC97_11845	Unknown	RXN0-5306
ASC97_28880	Unknown	GLYOXIII-RXN
