dbRef_id	Common name	Produced (p), Consumed (c), Both (cp)
Plastoquinols	a plastoquinol	cp
UDP-OHMYR-ACETYLGLUCOSAMINE	UDP-3-O-[(3R)-3-hydroxymyristoyl]-N-acetyl-&alpha;-D-glucosamine	c
S-Substituted-Glutathione	a glutathione-toxin conjugate	p
CPD-13172	6-hydroxy-2-cyclohexen-one-carboxylate	p
HYPOXANTHINE	hypoxanthine	p
S-Substituted-L-Cysteines	an L-cysteine-S-conjugate	c
PHOSPHO-ENOL-PYRUVATE	phosphoenolpyruvate	cp
L-CANALINE	L-canaline	p
4-MALEYL-ACETOACETATE	4-maleyl-acetoacetate	cp
CPD-13174	salicyl-6-hydroxy-2-cyclohexene-on-oyl	c
Poly-Hydroxybutyrate	poly-3-hydroxybutanoate	cp
UDP-OHMYR-GLUCOSAMINE	UDP-3-O-(3-hydroxymyristoyl)-&alpha;-D-glucosamine	cp
S2O3	thiosulfate	cp
METHENYLTETRAHYDROMETHANOPTERIN	5,10-methenyltetrahydromethanopterin	cp
Halide-Anions	a halide anion	p
CPD-13227	N,N',N''-triacetylchitotriose	c
Actinorhodin-Intermediate-2	9-hydroxy-3,5,7,11,13,15-hexaoxohexadecanoyl-[PKS-acp]	p
L-CITRULLINE	L-citrulline	c
4-METHYLCATECHOL	4-methylcatechol	c
L-CYSTATHIONINE	L-cystathionine	c
FARNESYL-PP	(2E,6E)-farnesyl diphosphate	c
CPD-68	1-aminocyclopropane-1-carboxylate	c
SACCHAROPINE	L-saccharopine	c
DUMP	dUMP	cp
CPD-687	hydrogenobyrinate	c
CPD-13339	(2Z,4E)-2-hydroxyhexa-2,4-dienedioate	cp
PANTOTHENATE	(R)-pantothenate	cp
Acyl-Phosphates	an acyl phosphate	c
Hepta-oxo-hexadecanoyl-ACPs	a 3,5,7,9,11,13,15-hepta-oxo-hexadecanoyl-[PKS-acp]	c
CPD-13357	(2R)-2,3-dihydroxy-3-methylbutanoate	cp
DUTP	dUTP	cp
ARSENATE	arsenate	c
4-NITROANILINE	4-nitroaniline	p
CPD-688	hydrogenobyrinate a,c-diamide	p
Hexanoyl-ACPs	a hexanoyl-[acyl-carrier-protein]	c
COPROPORPHYRINOGEN_I	coproporphyrinogen I	p
COPROPORPHYRINOGEN_III	coproporphyrinogen III	cp
ADENINE	adenine	cp
CPD-689	cob(II)yrinate a,c-diamide	p
L-CYSTEATE	L-cysteate	cp
CPD-13524	all-trans-retinol	p
PHOSPHORIBOSYL-AMP	1-(5-phospho-&beta;-D-ribosyl)-AMP	cp
BIPHENYL	biphenyl	c
4-P-PANTOTHENATE	(R)-4'-phosphopantothenate	p
L-Cysteine-Desulfurase-persulfide	an [L-cysteine desulfurase]-S-sulfanyl-L-cysteine	cp
Histone-Acetyl-Lysine	a [histone]-N6-acetyl-L-lysine	p
CPD-13533	(3R)-3-hydroxypentanoyl-CoA	c
Histone-L-lysine	a [histone]-L-lysine	c
CPD-10019	(5S)-5-benzyl-hydantoin	cp
CPD0-2123	3-oxodecanoyl-CoA	c
CPD-9148	(2Z,4E)-2-amino-5-methyl-muconate semialdehyde	c
R-3-Hydroxypalmitoyl-ACPs	a (3R)-3-hydroxypalmitoyl-[acp]	p
R-3-hydroxy-cis-vaccenoyl-ACPs	(R)-3-hydroxy-cis-vacc-11-enoyl-[acp]	p
CPD-9150	(2Z,4E)-2-amino-5-methyl-muconate	p
R-3-hydroxyarachidoyl-ACPs	a (3R)-3-hydroxyarachidoyl-[acp]	p
CPD0-2171	(S)-3-hydroxytetradecanoyl-CoA	p
R-3-hydroxybehenoyl-ACPs	a (3R)-3-hydroxybehenoyl-[acp]	p
2C-METH-D-ERYTHRITOL-CYCLODIPHOSPHATE	2-C-methyl-D-erythritol-2,4-cyclodiphosphate	c
R-3-hydroxycerotoyl-ACPs	a (3R)-3-hydroxycerotoyl-[acp]	p
HISTIDINAL	histidinal	cp
CPD-9151	3-chlorocatechol	p
R-3-hydroxydodecanoyl-ACPs	a (3R)-3-hydroxydodecanoyl-[acp]	p
XYLULOSE-5-PHOSPHATE	D-xylulose 5-phosphate	cp
R-3-hydroxyhexanoyl-ACPs	a (3R)-3-hydroxyhexanoyl-[acp]	p
R-3-hydroxylignoceroyl-ACPs	a (3R)-3-hydroxylignoceroyl-[acp]	p
R-3-hydroxymyristoyl-ACPs	a (3R)-3-hydroxymyristoyl-[acp]	cp
CPD-9152	4-chlorocatechol	p
CPD0-2231	dIDP	cp
R-3-hydroxypetroselinoyl-ACPs	a (3R)-3-hydroxypetroselinoyl-[acp]	p
R-3-hydroxystearoyl-ACPs	a (3R)-3-hydroxystearoyl-[acp]	p
2H6OH2-4DIENOATE	cis,cis-2-hydroxy-6-oxohepta-2,4-dienoate	p
Xylans	xylan	p
DNA-Adjacent-Pyrimidines	two adjacent pyrimidine nucleosides in DNA	p
CD-S-SP-Complex	a [cysteine desulfurase]-S-sulfanyl-[disordered-form scaffold protein] complex	c
Nonadjacent-pyrimidine-dimer-in-DNA	a dimer of non-adjacent pyrimidine nucleosides in DNA	c
2K-4CH3-PENTANOATE	4-methyl-2-oxopentanoate	cp
CPD0-2232	(S)-3-hydroxyhexadecanoyl-CoA	p
PROTOPORPHYRINOGEN	protoporphyrinogen IX	p
DNA-Combined-With-Exogenous-DNA	DNA combined with exogenous DNA to form a recombinational junction	c
2K-ADIPATE	2-oxoadipate	cp
PAPS	3'-phosphoadenylyl-sulfate	cp
apo-ACP	an apo-[acyl-carrier protein]	c
Nonmethylated-Ribosomal-Protein-L11s	a non-methylated ribosomal protein L11	c
DNA-Cytidines	a 2'-deoxycytidine in DNA	p
CPD0-2244	(S)-3-hydroxydecanoyl-CoA	p
b-Hydroxy-cis-D5-dodecenoyl-ACPs	a (3R,5Z)-3-hydroxy-dodec-5-enoyl-[acp]	p
b-Keto-cis-D5-dodecenoyl-ACPs	a (5Z)-3-oxo-dodec-5-enoyl-[acp]	cp
biotin-L-lysine-in-BCCP-dimers	a [biotin carboxyl-carrier-protein dimer]-N6-biotinyl-L-lysine	cp
PHOSPHORIBOSYL-ATP	1-(5-phospho-&beta;-D-ribosyl)-ATP	cp
CPD-1828	GDP-&alpha;-D-mannuronate	p
DGDP	dGDP	c
CDP	CDP	cp
METHIONYL-PEPTIDE	an N-terminal L-methionyl-[protein]	p
ALLO-THR	DL-allothreonine	c
CDP-2-3-4-Saturated-Diacylglycerols	a CDP-2,3,4-saturated-diacylglycerol	p
CPD-18320	5-methylbenzimidazole	c
2-OCTAPRENYL-6-HYDROXYPHENOL	3-(all-trans-octaprenyl)benzene-1,2-diol	c
Nucleoside-Diphosphates	a nucleoside diphosphate	cp
HISTIDINOL	histidinol	cp
BISOHMYR-GLC	lipid A disaccharide	cp
CPD-18321	5-methoxybenzimidazole	c
ALLYSINE	(S)-2-amino-6-oxohexanoate	p
BISOHMYR-GLUCOSAMINYL-1P	lipid X	cp
ALPHA-GLC-6-P	&alpha;-D-glucose 6-phosphate	cp
Nucleoside-Monophosphates	a nucleoside 5'-monophosphate	p
DGTP	dGTP	cp
PHOSPHORIBOSYL-CARBOXY-AMINOIMIDAZOLE	5-amino-1-(5-phospho-D-ribosyl)imidazole-4-carboxylate	cp
METHYL-GLYOXAL	methylglyoxal	cp
2-OCTAPRENYL-6-METHOXYPHENOL	2-methoxy-6-(all-trans-octaprenyl)phenol	cp
CPD-18346	cis-vaccenoyl-CoA	cp
PROTOPORPHYRIN_IX	protoporphyrin IX	cp
CDPDIACYLGLYCEROL	a CDP-diacylglycerol	cp
Nucleoside-Triphosphates	a nucleoside triphosphate	cp
CPD-18348	1-cis-vaccenoylglycerol-3-phosphate	p
PENICILLIN	a penicillin	cp
CPD-18379	1-myristoylglycerol 3-phosphate	p
ALPHA-GLUCOSE-16-BISPHOSPHATE	&alpha;-glucose 1,6-bisphosphate	cp
GDP	GDP	cp
METHYL-MALONYL-COA	(R)-methylmalonyl-CoA	cp
PENICILLIN-G	penicillin G	cp
ALPHA-RIBAZOLE	&alpha;-ribazole	cp
2-OCTAPRENYLPHENOL	2-octaprenylphenol	p
ALPHA-RIBAZOLE-5-P	&alpha;-ribazole 5'-phosphate	cp
PHOSPHORIBOSYL-FORMAMIDO-CARBOXAMIDE	5-formamido-1-(5-phospho-D-ribosyl)-imidazole-4-carboxamide	cp
Carboxylates	a carboxylate	cp
CPD-196	octanoyl-CoA	p
GMP	GMP	cp
CPD-19695	UDP-4-amino-D-fucose	cp
GDP-4-DEHYDRO-6-DEOXY-D-MANNOSE	GDP-4-dehydro-&alpha;-D-rhamnose	p
GLUTARYL-COA	glutaryl-CoA	p
Hpr-Histidine	an [HPr]-L-histidine	c
Light	h&nu;	c
CPD-11444	uroporphyrinogen-I	c
L-Cysteine-Desulfurases	an [L-cysteine desulfurase]	c
CPD-3745	isethionate	c
Hpr-pi-phospho-L-histidines	an [HPr protein]-N&pi;-phospho-L-histidine	p
3-METHYLTHIOPROPYLHYDROXAMIC-ACID	(E)-N-hydroxy-4-(methylsulfanyl)butimidothioate	cp
L-DELTA1-PYRROLINE_5-CARBOXYLATE	(S)-1-pyrroline-5-carboxylate	c
L-GAMMA-GLUTAMYLCYSTEINE	&gamma;-L-glutamyl-L-cysteine	cp
Lipid-dihydrosterculate	a [glycerolipid]-dihydrosterculate	p
3-Methyl-Saturated-Fatty-Acids	a 3-methyl-branched 2,3,4-saturated fatty acid	c
3-Methyl-Saturated-Fatty-Acyl-CoA	a 3-methyl-branched 2,3,4-saturated fatty acyl-CoA	p
CPD-11447	rhodopin	c
CPD-3762	5-amino-4-imidazolecarboxyamide	c
3-OCTAPRENYL-4-HYDROXYBENZOATE	3-octaprenyl-4-hydroxybenzoate	cp
O-PHOSPHO-L-HOMOSERINE	O-phospho-L-homoserine	cp
GDP-MANNOSE	GDP-&alpha;-D-mannose	cp
CPD-11495	(2-hydroxyphenyl)acetate	p
ADENOSINE	adenosine	cp
SE-2	selenide	c
ADENOSINE_DIPHOSPHATE_RIBOSE	ADP-D-ribose	c
GLUTATHIONE	glutathione	cp
Lipoprotein-signal-peptide	a lipoprotein signal peptide	p
CPD-19731	5-chloro-3-oxoadipate	p
Lipoyl-Protein-L-Lysine	a [lipoyl-carrier protein]-L-lysine	c
CPD-3766	menadione	c
CPD-19732	2,5-dichloro-3-oxohexanedioate	p
Lipoyl-Protein-N6-lipoyllysine	a [lipoyl-carrier protein]-N6-lipoyl-L-lysine	p
N-ALPHA-ACETYLORNITHINE	N-acetyl-L-ornithine	cp
3-OXO-EICOSAPENTAENOYL-ACP	a 3-oxo-docosapentaenoyl [acp]	c
IDP	IDP	cp
CPD-19733	(2Z,4Z)-2-chloro-3-hydroxyhexa-2,4-dienedioate	c
L-GLUTAMATE-5-P	&gamma;-L-glutamyl 5-phosphate	cp
CPD-11518	3-oxo-2-(cis-2'-pentenyl)-cyclopentane-1-(E-octa-2-enoyl)-CoA	c
CPD-19734	(2Z)-5-chloro-4-hydroxyhex-2-enedioate	p
PRPP	5-phospho-&alpha;-D-ribose 1-diphosphate	cp
Decanoyl-ACPs	a decanoyl-[acp]	c
CPD-11519	3-oxo-2-(cis-2'-pentenyl)-cyclopentane-1-(3R-hydroxyoctanoyl)-CoA	p
SELENATE	selenate	c
CPD-380	3-sulfopyruvate	cp
CPD-11520	3-oxo-2-(cis-2'-pentenyl)-cyclopentane-1-(3-oxooctanoyl)-CoA	c
Delta4-hexadecenoyl-ACPs	a (4Z)-hexadec-4-enoyl-[acp]	c
Long-Chain-Acyl-CoAs	a long-chain acyl-CoA	p
O-SUCCINYL-L-HOMOSERINE	O-succinyl-L-homoserine	cp
ADENOSYL-HOMO-CYS	S-adenosyl-L-homocysteine	cp
CPD-15676	6-trans-3-oxo-tridecenoyl-CoA	c
4-PHOSPHONOOXY-THREONINE	4-phosphooxy-L-threonine	cp
carboxybiotin-L-lysine-in-BCCP-dimers	a [carboxyl-carrier protein dimer]-N6-carboxybiotinyl-L-lysine	cp
CPD-10020	(5R)-5-benzyl-hydantoin	cp
Initiation-tRNAmet	initiator tRNAMet	c
CPD-15677	4-trans-undecenoyl-CoA	p
4-hydroxybenzoate	4-hydroxybenzoate	cp
cis-19-CP-37-Mex-38-Me-C59-ACPs	a cis-methoxy-C59-meroacyl-[acp]	p
CPD-69	cyanate	c
cis-21-CP-39-keto-40-Me-C60-ACPs	a cis-keto-C60-meroacyl-[acp]	p
CPD-9245	palmitoleate	c
cis-D19-37-MOH-38-Me-C57-1-ACPs	a cis-delta19-37-methoxy-38-methyl-C57:1-[acp]	c
FE+2	Fe2+	cp
METHYL-THMPT	N5-methyltetrahydromethanopterin	cp
CPD-15678	4-trans-3-oxo-undecenoyl-CoA	c
cis-D21-39-oxo-40-Me-C59-1-ACPs	a cis-delta21-39-oxo-40-methyl-C59:1-[acp]	c
CPD-13534	3-oxopentanoyl-CoA	cp
CPD-101	&epsilon;-caprolactone	p
CPD-9247	cis-vaccenate	c
7-AMINOMETHYL-7-DEAZAGUANINE	preQ1	cp
CPD-15687	5-cis, 7-trans-3-oxo-tetradecadienoyl-CoA	c
Prolipoprotein-Cysteines	a [prolipoprotein]-L-cysteine	c
O-UREIDOHOMOSERINE	O-ureido-L-homoserine	c
CPD-13575	2-[(2R,5Z)-2-carboxy-4-methylthiazol-5(2H)-ylidene]ethyl phosphate	p
CPD-7000	isobutanal	cp
THMPT	tetrahydromethanopterin	cp
CPD-15688	(3Z,5E)-dodeca-3,5-dienoyl-CoA	p
CPD-9385	&gamma;-glutamyl-p-nitroanilide	c
CPD-15691	(5E)-3-oxo-dodec-5-enoyl-CoA	c
CPD-7002	dihydrogeranylgeranyl diphosphate	cp
Protein-Disulfides	a protein disulfide	cp
7-CYANO-7-DEAZAGUANINE	preQ0	cp
THR	L-threonine	cp
Protein-Dithiols	a protein dithiol	cp
THR-tRNAs	a tRNAThr	c
CPD-13689	(25S)-3-oxocholest-4-en-26-oate	c
CPD-9406	(2S)-ethylmalonyl-CoA	c
CPD-15692	(3E)-dec-3-enoyl-CoA	p
CPD-7003	tetrahydrogeranylgeranyl diphosphate	cp
OCTADEC-9-ENE-118-DIOIC-ACID	&alpha;,&omega;-9Z-octadecenedioate	c
Protein-Histidines	a [protein]-L-histidine	cp
CPD-13691	(25S)-3-oxocholest-4-en-26-oyl-CoA	p
THREO-DS-ISO-CITRATE	D-threo-isocitrate	cp
CPD-9409	(2R,3S)-&beta;-methylmalyl-CoA	cp
CPD-7004	dihydrogeranylgeranyl chlorophyll a	cp
GDP-TP	pppGpp	p
CPD-10267	decanoyl-CoA	cp
METHYLENE-THF-GLU-N	a 5,10-methylene-tetrahydrofolate	cp
CPD-15711	&beta;-D-mannopyranose 6-phosphate	cp
OCTAPRENYL-DIPHOSPHATE	all-trans-octaprenyl diphosphate	cp
Protein-L-Aspartates	a [protein]-L-aspartate	c
3-4-DIHYDROXYBENZOATE	protocatechuate	p
SUPER-OXIDE	superoxide	c
mRNA-Fragments	an mRNA fragment	p
CPD-7005	geranylgeranyl chlorophyll a	c
CPD-13699	3,22-dioxochol-4-en-24-oyl-CoA	c
CPD-9451	2-isopropylmaleate	cp
PHOSPHORIBOSYL-FORMIMINO-AICAR-P	1-(5-phospho-&beta;-D-ribosyl)-5-[(5-phosphoribosylamino)methylideneamino]imidazole-4-carboxamide	cp
CPD0-2298	(S)-ureidoglycine	p
CPD0-2350	a polycistronic tRNA precursor	cp
OCTAPRENYL-METHOXY-BENZOQUINONE	2-methoxy-6-all trans-octaprenyl-1,4-benzoquinol	p
CPD0-2351	a tRNA precursor with a 5' extension and a long 3' trailer	p
CPD0-2352	a tRNA precursor with a 5' extension and a short 3' extension	cp
CPD0-2353	a tRNA precursor with a short 3' extension	c
CPD0-2354	a tRNA precursor with a 5' extension	p
SELENOHOMOCYSTEINE	seleno-L-homocysteine	p
SEPO3	selenophosphate	cp
PHOSPHORIBULOSYL-FORMIMINO-AICAR-P	phosphoribulosylformimino-AICAR-phosphate	p
CPD0-881	N-acetyl-D-muramate 6-phosphate	p
BUTANAL	butan-1-al	p
REDUCED-MENAQUINONE	menaquinol-8	p
SER	L-serine	cp
BUTYRYL-COA	butanoyl-CoA	c
CPD0-882	1,6-anhydro-N-acetyl-&beta;-muramate	cp
SER-tRNAs	a tRNAser	c
N-Acetyl-beta-D-Hexosaminides	an N-acetyl-&beta;-D-hexosaminide	c
L-GLUTAMATE_GAMMA-SEMIALDEHYDE	L-glutamate-5-semialdehyde	cp
Carboxylic-esters	a carboxylic ester	c
2-OXOBUTANOATE	2-oxobutanoate	p
OCTAPRENYL-METHYL-METHOXY-BENZQ	6-methoxy-3-methyl-2-all-trans-octaprenyl-1,4-benzoquinol	c
CPD-405	a phosphatidyl-N-methylethanolamine	c
DNA-Holder	DNA	p
CPD-4211	dimethylallyl diphosphate	cp
OCTAPRENYL-METHYL-OH-METHOXY-BENZQ	3-demethylubiquinol-8	cp
N-CARBAMOYLGLYCINE	N-carbamoylglycine	cp
TTP	dTTP	cp
CH3-MALONATE-S-ALD	(S)-methylmalonate-semialdehyde	cp
Saturated-Fatty-Acyl-ACPs	a 2,3,4-saturated fatty acyl-[acp]	c
Saturated-Fatty-Acyl-CoA	a 2,3,4-saturated fatty acyl CoA	cp
TUM1-L-cysteine	a [3-mercaptopyruvate sulfurtransferase]-L-cysteine	cp
L-Glutamyl-Peptides	an N-terminal L-glutamyl-[protein]	c
N-ISOPROPYLAMMELIDE	N-isopropylammelide	p
2-Oxo-carboxylates	a 2-oxo carboxylate	cp
TUM1-S-sulfanylcysteine	a [3-mercaptopyruvate sulfurtransferase]-S-sulfanyl-L-cysteine	cp
CH33ADO	5'-deoxyadenosine	p
TYR	L-tyrosine	cp
CPD-464	prephytoene diphosphate	cp
TYR-tRNAs	a tRNATyr	c
L-HISTIDINOL-P	L-histidinol phosphate	cp
2-PG	2-phospho-D-glycerate	cp
Charged-ALA-tRNAs	an L-alanyl-[tRNAAla]	p
N-SUCCINYL-2-AMINO-6-KETOPIMELATE	N-succinyl-2-amino-6-ketopimelate	cp
Charged-ARG-tRNAs	an L-arginyl-[tRNAArg]	cp
2-PHOSPHO-4-CYTIDINE-5-DIPHOSPHO-2-C-MET	2-phospho-4-(cytidine 5'-diphospho)-2-C-methyl-D-erythritol	p
CPD-465	presqualene diphosphate	cp
CHITIN	chitin	cp
CHITOBIOSE	N,N'-diacetylchitobiose	cp
OH-ACYL-ACP	a (3R)-3-hydroxyacyl-[acyl-carrier protein]	cp
Serines	serine	p
CPD-19761	2,6-dichloro-3-(glutathione-S-yl)-hydroquinone	p
OH-HEXANOYL-COA	(S)-3-hydroxyhexanoyl-CoA	c
CPD-11521	3-oxo-2-(cis-2'-pentenyl)-cyclopentane-1-hexanoyl-CoA	p
Adjacent-pyrimidine-dimer-in-DNA	a dimer of adjacent pyrimidine nucleosides in DNA	c
7Z-3-oxo-hexadec-7-enoyl-ACPs	a (7Z)-3-oxo-hexadec-7-enoyl-[acp]	cp
CPD-19763	2,3,5-trichloro-6-(glutathione-S-yl)-hydroquinone	p
Charged-CYS-tRNAs	an L-cysteinyl-[tRNACys]	cp
ADENOSYL-P4	5',5'''-diadenosine tetraphosphate	c
7Z-hexadec-7-enoyl-ACPs	a (7Z)-hexadec-7-enoyl-[acp]	c
Alcohols	an alcohol	p
CPD-11522	3-oxo-2-(cis-2'-pentenyl)-cyclopentane-1-(E-hexa-2-enoyl)-CoA	c
CPD-18492	(2E,6Z,9Z,12Z,15Z,18Z)-tetracosahexaenoyl-CoA	c
8-AMINO-7-OXONONANOATE	8-amino-7-oxononanoate	p
Charged-GLN-tRNAs	an L-glutaminyl-[tRNAGln]	p
3-5-ADP	adenosine 3',5'-bisphosphate	cp
CPD-11523	3-oxo-2-(cis-2'-pentenyl)-cyclopentane-1-(3R-hydroxyhexanoyl)-CoA	p
Deoxy-Ribonucleoside-Monophosphates	a 2'-deoxyribonucleoside 5'-monophosphate	p
Aldehydes	an aldehyde	cp
CPD-19778	(2Z,4Z)-2-amino-5-chloro-6-oxohexa-2,4-dienoate	c
Deoxy-Ribonucleoside-Triphosphates	a 2'-deoxyribonucleoside 5'-triphosphate	c
CPD-18493	(3S)-hydroxy-(6Z,9Z,12Z,15Z,18Z)-tetracosapentaenoyl-CoA	p
Charged-GLT-tRNAs	an L-glutamyl-[tRNAGlu]	c
FMN	FMN	cp
ADENOSYLCOBALAMIN	adenosylcobalamin	cp
CPD-19779	(2Z,4Z)-2-amino-5-chlorohexa-2,4-dienedioate	p
CPD-11524	3-oxo-2-(cis-2'-pentenyl)-cyclopentane-1-(3-oxohexanoyl)-CoA	c
DNA-Ligase-L-lysine	a [DNA ligase]-L-lysine	cp
HMP	4-amino-2-methyl-5-pyrimidinemethanol	c
CPD-18494	3-oxo-(6Z,9Z,12Z,15Z,18Z)-tetracosapentaenoyl-CoA	c
FMNH2	FMNH2	cp
AMINO-HYDROXYMETHYL-METHYL-PYR-P	4-amino-2-methyl-5-(phosphooxymethyl)pyrimidine	cp
OH-MYRISTOYL	UDP-2-N,3-O-bis[(3R)-3-hydroxytetradecanoyl]-&alpha;-D-glucosamine	cp
Charged-HIS-tRNAs	an L-histidyl-[tRNAHis]	p
CPD-11525	3-oxo-2-(cis-2'-pentenyl)-cyclopentane-1-butanoyl-CoA	p
ADENOSYLCOBALAMIN-5-P	adenosylcobalamin 5'-phosphate	p
UMP	UMP	cp
Charged-ILE-tRNAs	an L-isoleucyl-[tRNAIle]	p
Charged-LEU-tRNAs	an L-leucyl-[tRNALeu]	cp
CPD-11526	3-oxo-2-(cis-2'-pentenyl)-cyclopentane-1-(E-buta-2-enoyl)-CoA	c
CPD-18495	5-methoxy-6-methylbenzimidazole	c
ADENOSYLCOBINAMIDE-GDP	adenosylcobinamide-GDP	cp
OH-PYR	hydroxypyruvate	cp
Charged-LYS-tRNAs	an L-lysyl-[tRNALys]	p
9S-RRNA	a 9S rRNA	c
CPD-18497	5-hydroxy-benzimidazole	c
CPD-11527	3-oxo-2-(cis-2'-pentenyl)-cyclopentane-1-(3R-hydroxybutanoyl)-CoA	p
CPD-19782	(3E)-5-chloro-2-oxopent-3-enoate	c
Charged-MET-tRNAs	an L-methionyl-[elongator tRNAMet]	p
9Z-3-oxo-octadec-9-enoyl-ACPs	a (9Z)-3-oxo-octadec-9-enoyl-[acp]	cp
A-5-prime-PP-5-prime-DNA	an adenosine-5'-diphospho-5'-[DNA]	cp
CPD-19833	roseoflavin	c
Charged-PHE-tRNAs	an L-phenylalanyl-[tRNAPhe]	c
AMINO-HYDROXYMETHYL-METHYLPYRIMIDINE-PP	4-amino-2-methyl-5-(diphosphomethyl)pyrimidine	p
Diacylglycerol-Prolipoproteins	an [apolipoprotein]-(S-diacylglyceryl)-L-cysteine	p
CPD-11528	3-oxo-2-(cis-2'-pentenyl)-cyclopentane-1-(3-oxobutanoyl)-CoA	c
CPD-18550	quinoxaline-2-carboxyl adenylate	c
ADENOSYLCOBINAMIDE-P	adenosyl-cobinamide phosphate	c
UNDECAPRENYL-DIPHOSPHATE	di-trans,octa-cis-undecaprenyl diphosphate	p
DNA-Ligase-L-lysine-adenylate	a [DNA ligase]-N6-(5'-adenylyl)-L-lysine	cp
ACET	acetate	cp
Dihydro-Lipoyl-Proteins	a [lipoyl-carrier protein] N6-dihydrolipoyl-L-lysine	c
Charged-PRO-tRNAs	an L-prolyl-[tRNAPro]	p
AMINO-OH-HYDROXYMETHYL-DIHYDROPTERIDINE	6-(hydroxymethyl)-7,8-dihydropterin	cp
CPD-19839	roseoflavin 5'-phosphate	cp
CPD-11529	(+)-7-epi-jasmonoyl-CoA	p
ACETALD	acetaldehyde	cp
Charged-SER-tRNAs	an L-seryl-[tRNAser]	p
GTP	GTP	cp
ILE	L-isoleucine	cp
CPD-15712	&beta;-D-galactose 6-phosphate	cp
CPD1F-2	(-)-methyl jasmonate	c
ILE-tRNAs	a tRNAIle	c
Charged-THR-tRNAs	an L-threonyl-[tRNAThr]	p
Protein-L-glutamine	a [protein]-L-glutamine	c
DI-H-OROTATE	(S)-dihydroorotate	cp
Charged-TRP-tRNAs	an L-tryptophanyl-[tRNATrp]	p
K-HEXANOYL-COA	3-oxohexanoyl-CoA	p
Protein-L-lysine	a [protein]-L-lysine	c
Charged-TYR-tRNAs	an L-tyrosyl-[tRNATyr]	p
CPD-15873	bis(guanylyl molybdopterin cofactor)	p
Charged-VAL-tRNAs	an L-valyl-[tRNAVal]	p
CPD66-21	leukotriene-D4	p
Protein-L-methionine	a [protein]-L-methionine	cp
CPD-15874	bis(molybdenum cofactor)	c
Protein-L-methionine-R-S-oxides	a protein-L-methionine-(R)-S-oxide	cp
Charged-fMET-tRNAs	an N-formyl-L-methionylaminoacyl-tRNA	c
CPD66-39	a 2,3,4-saturated fatty acid	c
CPDN-384	2-hydroxychromene-2-carboxylate	c
Protein-L-serine-or-L-threonine	a [protein]-(L-serine/L-threonine)	cp
DI-H-URACIL	5,6-dihydrouracil	cp
CPD-159	(S)-5-amino-3-oxohexanoate	cp
CPD-15979	D-mannopyranose 6-phosphate	cp
Beta-3-hydroxybutyryl-ACPs	a (3R)-3-hydroxybutanoyl-[acp]	p
IMIDAZOLE-ACETOL-P	imidazole acetol-phosphate	cp
3-CARBOXY-3-HYDROXY-ISOCAPROATE	(2S)-2-isopropylmalate	cp
CPDN-385	trans-O-hydroxybenzylidenepyruvate	p
Protein-N-terminal-L-Arginine	an N-terminal arginyl-[protein]	cp
Beta-hydroxydecanoyl-ACPs	a (3R)-3-hydroxydecanoyl-[acp]	p
DIACYLGLYCEROL	a 1,2-diacyl-sn-glycerol	c
3-Oxo-octanoyl-ACPs	a 3-oxo-octanoyl-[acp]	cp
Protein-N-terminal-L-Lysine	an N-terminal L-lysyl-[protein]	c
CPDQT-27	6-(methylthio)-2-oxohexanoate	p
KDO	3-deoxy-&alpha;-D-manno-2-octulosonate	cp
Protein-N-terminal-L-threonine	an N-terminal L-threonyl-[protein]	p
3-P-HYDROXYPYRUVATE	3-phosphooxypyruvate	cp
KDO-8P	3-deoxy-D-manno-octulosonate 8-phosphate	cp
CPDQT-28	7-(methylthio)-2-oxoheptanoate	p
CPD-160	a phosphatidyl-N-dimethylethanolamine	cp
Protein-N6-5-glutamyl-lysine-crosslinks	a protein with an N6-(&gamma;-glutamyl)-L-lysine crosslink	p
3-P-SERINE	3-phospho-L-serine	cp
Protein-N6-5-glutamyl-serotonin	a [protein] N6-[(5-hydroxy-1H-indol-3-yl)ethyl]-L-glutamine	p
3-DEHYDRO-SHIKIMATE	3-dehydroshikimate	cp
3-PHENYLPROPIONATE	3-phenylpropanoate	p
CPD-10269	palmitoleoyl-CoA	cp
mRNAs	an mRNA	cp
mRNAs-with-5-monophosphate	a 5'-phospho-[mRNA]	p
CPD-13700	3-oxo-4-pregnene-20-carboxyl-CoA	p
CPD-10284	3-oxo-myristoyl-CoA	c
PHYTYL-PYROPHOSPHATE	phytyl diphosphate	cp
CPD-7006	tetrahydrogeranylgeranyl chlorophyll a	cp
mRNAs-with-5-triphosphate	a 5' triphospho-[mRNA]	c
CPD-13711	3-[(3aS,4S,7aS)-7a-methyl-1,5-dioxo-octahydro-1H-inden-4-yl]propanoate	c
METHYLENETETRAHYDROMETHANOPTERIN	5,10-methylene-tetrahydromethanopterin	cp
CPD-7066	(2R,3S)-3-methylmalate	p
PLASTOQUINONE	a plastoquinone	cp
CPD-7076	2-methylbutanoate	c
Single-Stranded-DNAs	a single stranded DNA	cp
DNA-N	DNAn	cp
CPD-13713	adenosine 5'-phosphoselenate	p
CPD-10546	methyl (indol-3-yl)acetate	c
CPD-7100	(2S)-2-isopropyl-3-oxosuccinate	cp
CPD-13717	L-selenocystathionine	c
CPD-10598	4-hydroxyacetophenone	c
OLEATE-CPD	oleate	c
PHE	L-phenylalanine	cp
SEROTONIN	serotonin	c
CPD-7221	(3Z)-dodec-3-enoyl-CoA	p
rRNA-fragments	an rRNA fragment	p
Stearoyl-ACPs	a stearoyl-[acp]	c
CPD-13754	3-[(3aS,4S,7aS)-7a-methyl-1,5-dioxo-octahydro-1H-inden-4-yl]propanoyl-CoA	p
CPD-10600	4-hydroxybenzoyl-acetyl-CoA	c
CPD-10608	trans-dienelactone	c
Cis-Delta5-dodecenoyl-ACPs	a (5Z)-dodec-5-enoyl-[acp]	c
CPD-13847	UDP-2-acetamido-2,6-dideoxy-&alpha;-D-xylo-hex-4-ulose	cp
ssDNA-RNA-primer-hybrid	an ssDNA/RNA primer hybrid	p
ssRNAs	a single-stranded RNA	cp
Long-Chain-Fatty-Acids	a long-chain fatty acid	c
CPD-18739	diphenyl ether	c
Cis-Delta7-tetradecenoyl-ACPs	a cis-&Delta;7-tetradecenoyl-[acp]	c
N-SUCCINYLLL-2-6-DIAMINOPIMELATE	N-succinyl-L,L-2,6-diaminopimelate	cp
Cis-delta-3-decenoyl-ACPs	a (3Z)-dec-3-enoyl-[acp]	c
Long-Chain-Polyphosphate	long chain polyphosphate	cp
CPD-18740	(1S,2S)-3-phenoxycyclohexa-3,5-diene-1,2-diol	p
URACIL	uracil	cp
RIBOFLAVIN	riboflavin	cp
Cis-vaccenoyl-ACPs	a cis-vaccenoyl-[acp]	c
CHLOROPHYLL-A	chlorophyll a	p
AMINO-RIBOSYLAMINO-1H-3H-PYR-DIONE	5-amino-6-(D-ribitylamino)uracil	cp
CPD-468	L-2-aminoadipate	cp
L-Methionylaminoacyl-tRNAs	a L-methionylaminoacyl-tRNA	p
DNA-Segment-Placeholder	a DNA segment	cp
N-Substituted-Amino-Acids	an N-modified amino acid	p
L-ORNITHINE	L-ornithine	cp
IMINOASPARTATE	2-iminosuccinate	cp
GUANINE	guanine	cp
CPD-469	N-acetyl-L-glutamate 5-semialdehyde	cp
OLEOYL-COA	oleoyl-CoA	cp
N-Substituted-Aminoacyl-tRNA	an N-modified aminoacyl-[tRNA]	c
DNA-Segment-in-Reverse-Orientations	a DNA segment in reverse orientation	cp
N-acetyl-D-glucosamine	N-acetyl-D-glucosamine	p
LysW-L-glutamate	a [2-aminoadipate carrier protein]-L-glutamate	c
CPD-18743	4-bromodiphenyl ether	cp
LysW-L-glutamate-5-phosphate	a [2-aminoadipate carrier protein]-L-glutamate 5-phosphate	cp
LysW-L-glutamate-5-semialdehyde	a [2-aminoadipate carrier protein]-L-glutamate 5-semialdehyde	cp
CHLOROPHYLLIDE-A	chlorophyllide a	p
OLIGOPEPTIDES	an oligopeptide	c
DNA-With-GO	a 7,8-dihydro-8-oxoguanine in DNA	c
CPD-18745	4-bromo-2,3-dihydrodiol-diphenyl ether	cp
N-acetyl-beta-D-hexosamines	an N-acetyl-&beta;-D-hexosamine	p
AMINOMETHYLDIHYDROLIPOYL-GCVH	a [glycine-cleavage complex H protein] N6-aminomethyldihydrolipoyl-L-lysine	cp
L-PANTOATE	(R)-pantoate	cp
N-formyl-L-methionyl-tRNAfmet	an N-formyl-L-methionyl-[initiator tRNAmet]	p
LysW-L-ornithine	a [2-aminoadipate carrier protein]-L-ornithine	cp
DNA-With-GO-A-Mismatch	DNA with adenine:7,8-dihydro-8-oxoguanine mismatch	c
CHOCOLA_A	all-trans-retinyl palmitate	c
Lysidine-tRNA-Ile2	a lysidine34 in tRNAIle2	p
PHE-tRNAs	a tRNAPhe	p
N-terminal-L-Serine	an N-terminal L-seryl-[protein]	p
Cleaved-Type-IV-Prepillins	a cleaved type IV prepilin	p
IMP	IMP	cp
N-terminal-L-alanine	an N-terminal L-alanyl-[protein]	p
L-PHOSPHATIDATE	a 1,2-diacyl-sn-glycerol 3-phosphate	c
L-SELENOCYSTEINE	L-selenocysteine	p
MAL	(S)-malate	cp
CPD-19014	2-hydroxy-2-methylpropanoate	cp
N-terminal-L-cysteine	an N-terminal L-cysteinyl-[protein]	p
PYRAZINAMIDE	pyrazinamide	c
N-terminal-L-cysteine-sulfinate	an N-terminal 3-sulfino-L-alanyl-[protein]	c
DNA-With-Hypoxanthines	a DNA with hypoxanthine	c
N-terminal-L-cysteine-sulfonate	an N-terminal 3-sulfo-L-alanyl-[protein]	c
CHORISMATE	chorismate	cp
N-terminal-L-valine	an N-terminal L-valyl-[protein]	p
CPD-479	4-(methylsulfanyl)-2-oxobutanoate	cp
CPD-19042	2-hydroxyisobutyramide	c
2-PROTOCATECHUOYLPHLOROGLUCINOLCARBOXYLA	2-protocatechuoylphloroglucinolcarboxylate	p
Aliphatic-Nitriles	an aliphatic nitrile	cp
DIAMINO-OH-PHOSPHORIBOSYLAMINO-PYR	2,5-diamino-6-(5-phospho-D-ribosylamino)pyrimidin-4(3H)-one	c
GUANOSINE	guanosine	p
Alkanesulfonates	an alkylsulfonate	c
CPD-9612	caldariellaquinone	c
GUANOSINE-5DP-3DP	ppGpp	cp
DNA-containing-a-Apyrimidinic-Sites	an apyrimidinic site in DNA	p
5-10-METHENYL-THF-GLU-N	a 5,10-methenyltetrahydrofolate	cp
Alkyl-Hydro-Peroxides	an organic hydroperoxide	c
5-AMINO-LEVULINATE	5-aminolevulinate	cp
2-hydroxyacyl-glutathiones	S-(2-hydroxyacyl)glutathione	c
5-BETA-L-THREO-PENTAPYRANOSYL-4-ULOSE-	UDP-&beta;-L-threo-pentapyranos-4-ulose	cp
CPD-9646	di-trans,octa-cis-undecaprenyl phosphate	c
Alkyl-Thiols	an alkyl-thiol	cp
Sulfur-Carrier-Proteins-ThiI	a [ThiI sulfur-carrier protein]-L-cysteine	cp
ACETAMIDE	acetamide	c
KDO-LIPID-IVA	&alpha;-Kdo-(2&rarr;6)-lipid IVA	p
Alkylated-Bases	an alkylated nucleobase	p
DNA-containing-aPurinic-Sites	an apurinic site within DNA	p
CPD-9699	hypoglycin A	c
Alkylated-DNAs	an alkylated DNA	c
Sulfurated-Sulfur-Acceptors	a sulfurated [sulfur carrier]	cp
CPD-9700	hypoglycin B	p
DNA-containing-abasic-Sites	a DNA containing an apurinic/apyrimidinic site	cp
Sulfurylated-ThiI	a [ThiI sulfur-carrier protein]-S-sulfanyl-L-cysteine	cp
KDO2-LAUROYL-LIPID-IVA	&alpha;-Kdo-(2->4)-&alpha;-Kdo-(2->6)-(lauroyl)-lipid IVA	c
CPD-9869	all trans-decaprenyl-2-methoxy-6-1,4-benzoquinol	c
DIHYDRO-DIOH-BENZOATE	(2S,3S)-2,3-dihydroxy-2,3-dihydrobenzoate	p
KDO2-LIPID-A	&alpha;-D-Kdo-(2&rarr;4)-&alpha;-D-Kdo-(2&rarr;6)-lipid A	p
SHIKIMATE	shikimate	cp
PROTON	H+	cp
Supercoiled-Duplex-DNAs	a supercoiled duplex DNA	c
DNA-containing-diamino-hydro-formamidops	a ring-opened 7-methylguanine in DNA	c
CPD-9871	6-methoxy-3-methyl-2-all-trans-decaprenyl-1,4-benzoquinol	p
5-HYDROXYISOURATE	(S)-5-hydroxyisourate	c
CPDQT-29	8-(methylthio)-2-oxooctanoate	p
T2-DECENOYL-COA	(2E)-dec-2-enoyl-CoA	c
CPD-11592	2-methylsulfanyl-N6-dimethylallyladenosine37 in tRNA	p
Protein-Ser-or-Thr-phosphate	a [protein] (L-serine/L-threonine) phosphate	cp
GERANYLGERANYL-PP	geranylgeranyl diphosphate	cp
Protein-Tyrosines	a [protein]-L-tyrosine	cp
CPDQT-30	9-(methylthio)-2-oxononanoate	p
CPD-11643	two adjacent thymidines in DNA	p
TARTRATE	L-tartrate	cp
Cyclic-3-5-Nucleoside-Monophosphates	a nucleoside cyclic 3',5'-monophosphate	c
Protein-With-N-Terminal-Met	a peptide with an N-terminal L-methionine	c
DNA-deoxycytidine-dimer	a dimer of non-adjacent 2'-deoxycytidines in DNA	c
GLC-1-P	&alpha;-D-glucopyranose 1-phosphate	cp
Protein-With-N-Terminal-Pro	a peptide with an N-terminal L-proline	p
2-ACETO-2-HYDROXY-BUTYRATE	(S)-2-aceto-2-hydroxybutanoate	c
CPDQT-36	3-[(3'-methylthio)propyl]malate	cp
Diribonucleotide	a diribonucleotide	p
Protein-With-N-Terminal-X-Pro	a peptide with an N-terminal X-L-proline	c
PHENOL	phenol	c
METOH	methanol	cp
FORMALDEHYDE	formaldehyde	p
HOMO-CYS	L-homocysteine	cp
CPDQT-37	3-[(4'-methylthio)butyl]malate	cp
OROTATE	orotate	cp
CPD-11770	7,8-dihydromonapterin	c
3-Phosphomonucleotides	a ribonucleoside 3'-phosphate	p
GLC-6-P	&beta;-D-glucose 6-phosphate	cp
Protein-phospho-L-histidines	a [protein]-N-phospho-L-histidine	cp
2-ACETO-LACTATE	(S)-2-acetolactate	c
Protein-pi-phospho-L-histidines	a [protein]-N&pi;-phospho-L-histidine	c
CPDQT-38	3-[(5'-methylthio)pentyl]malate	cp
Dodecanoyl-ACPs	a dodecanoyl-[acp]	c
DNA-deoxycytidine-thymidine-dimer	a dimer of non-adjacent 2'-deoxycytidine and thymidine in DNA	c
Protein-tauphospho-L-histidines	a [protein]-N&tau;-phospho-L-histidine	c
DNA-pyrimidines	a pyrimidine nucleoside in DNA	p
Donor-H2	a reduced electron acceptor	cp
Protein-tyrosine-phosphates	a [protein]-L-tyrosine phosphate	cp
CPD-13940	Co&alpha;-[a-(5-methoxybenzimidazolyl)]-Co&beta;-adenosylcobamide 5'-phosphate	p
CPD-12115	demethylmenaquinol-8	c
CPDQT-39	3-[(6'-methylthio)hexyl]malate	cp
Double-Stranded-DNAs	a double stranded DNA	cp
2-AMINO-MUCONATE	(2Z,4E)-2-aminomuconate	p
CPD-14018	icosapentaenoyl-CoA	p
3-SULFINOALANINE	3-sulfinoalanine	p
DNA-thymidine-deoxycytidine-dimer	a dimer of non-adjacent thymidine and 2'-deoxycytidine in DNA	c
Double-helix-DNA	a double-helix DNA	c
Proteins-With-N-Terminal-Asp	an N-terminal L-aspartyl-[protein]	c
CPDQT-40	3-[(7'-methylthio)heptyl]malate	cp
Cysteine-Desulfurase-L-cysteine	an [L-cysteine desulfurase]-L-cysteine	cp
CPDQT-406	S-5-methylthiopentylhydroximoyl-L-cysteine	cp
CPD-14053	(6R)-L-erythro-5,6,7,8-tetrahydrobiopterin	c
3-SULFOCATECHOL	3-sulfocatechol	c
DNA-thymidine-dimer	a dimer of non-adjacent thymidines in DNA	c
HOMO-SER	L-homoserine	cp
CPD-12173	(S)-3-hydroxy-isobutanoyl-CoA	cp
Proteins-with-correct-disulfides	a protein with correct disulfide bonds	cp
Cytidine-34-tRNAIle2	a cytidine34 in tRNAIle2	c
CPDQT-407	S-6-methylthiohexylhydroximoyl-L-cysteine	cp
GLY	glycine	cp
2-AMINOACRYLATE	2-aminoprop-2-enoate	p
GLC-D-LACTONE	D-glucono-1,5-lactone	cp
Proteins-with-incorrect-disulfides	a protein with incorrect disulfide bonds	cp
CPD-12175	(S)-3-hydroxy-isobutanoate	c
GLYCERALD	D-glyceraldehyde	p
CPDQT-408	S-7-methylthioheptylhydroximoyl-L-cysteine	cp
DNA-thymidines	a thymidine in DNA	p
GLN	L-glutamine	cp
FORMAMIDE	formamide	c
GLN-tRNAs	a tRNAGln	c
GLYCERATE	D-glycerate	cp
CPDQT-409	S-8-methylthiooctylhydroximoyl-L-cysteine	cp
Gcv-H	[glycine cleavage system lipoyl-carrier protein]-L-lysine	c
CPD-14268	(15Z)-tetracosenoate	c
TARTRONATE-S-ALD	tartronate semialdehyde	cp
Cytochromes-C-Oxidized	an oxidized c-type cytochrome	cp
General-Protein-Substrates	a protein	cp
DNA-with-Uracils	a uracil in DNA	c
CPD-19840	roseoflavin adenine dinucleotide	p
Butanoyl-ACPs	a butanoyl-[acp]	c
CPD-16458	7,8-dihydrolumazine	p
CPD-201	4-hydroxybenzoyl-CoA	cp
CPD-520	quercetin	c
tRNA-2-thiouridine34	a 2-thiouridine34 in tRNA	p
Cytochromes-C-Reduced	a reduced c-type cytochrome	cp
C1	UDP-N-acetyl-&alpha;-D-muramoyl-L-alanyl-&gamma;-D-glutamyl-meso-2,6-diaminopimeloyl-D-alanyl-D-alanine	p
CPD-16491	2,6-diamino-4-hydroxy-5-(N-methyl)formamidopyrimidine	p
tRNA-Adenosines-37	an adenosine37 in tRNA	c
OROTIDINE-5-PHOSPHATE	orotidine 5'-phosphate	cp
UREA	urea	cp
tRNA-Containing-5MeAminoMe-2-ThioU	a 5-methylaminomethyl-2-thiouridine34 in tRNA	c
DODECANOATE	laurate	c
CPD-16549	3-(N-morpholino)propanal	p
C4	undecaprenyl-diphospho-N-acetylmuramoyl-L-alanyl-&gamma;-D-glutamyl-L-lysyl- D-alanyl-D-alanine	c
tRNA-Containing-N7-Methylguanine-46	an N7-methylguanine46 in tRNA	p
tRNA-Dihydrouridines	a 5,6-dihydrouridine in tRNA	p
CPD-16606	UDP-2-acetamido-4-amino-2,4,6-trideoxy-&alpha;-D-galactose	cp
DPG	3-phospho-D-glyceroyl-phosphate	cp
RIBOSE-5P	D-ribose 5-phosphate	cp
CPD-207	phenylacetyl-CoA	p
CPD-535	&beta;-D-fructose 2,6-bisphosphate	c
D-3-HYDROXYACYL-COA	a (3R)-3-hydroxyacyl-CoA	cp
URIDINE	uridine	p
3-DEOXY-D-ARABINO-HEPTULOSONATE-7-P	3-deoxy-D-arabino-heptulosonate 7-phosphate	cp
CPD-20735	two adjacent 2'-deoxycytidines in DNA	p
CPD-20736	adjacent 2'-deoxycytidine-thymidine in DNA	p
CPD-16953	2-amino-6-[1-hydroxyethyl]-7-methyl-7,8-dihydropterin	c
D-5-Monosubstituted-Hydantoins	a D-5-monosubstituted hydantoin	cp
C5	undecaprenyldiphospho-N-acetylmuramoyl-L-alanyl-&gamma;-D-glutamyl-meso-2,6-diaminopimeloyl-D-alanyl-D-alanine	cp
CPD-20737	adjacent thymidine-2'-deoxycytidine in DNA	p
tRNA-Sec	a tRNAsec	c
Thi-S	a ThiS sulfur-carrier protein	p
D-ALA-D-ALA	D-alanyl-D-alanine	cp
CPD-20741	a dimer of adjacent 2'-deoxycytidines in DNA	c
C6	ditrans,octacis-undecaprenyldiphospho-[(N-acetyl-&beta;-D-glucosaminyl)-(1,4)-]-N-acetyl-&alpha;-D-muramoyl-L-alanyl-&gamma;-D-glutamyl-meso-2,6-diaminopimeloyl-D-alanyl-D-alanine	cp
CPD-558	pimeloyl-CoA	c
CPD-20742	a dimer of adjacent thymidines in DNA	c
RIBULOSE-5P	D-ribulose 5-phosphate	cp
CPD-20743	a dimer of adjacent 2'-deoxycytidine and thymidine in DNA	c
TDP	dTDP	cp
CPD-20744	a dimer of adjacent thymidine and 2'-deoxycytidine in DNA	c
CPD-16954	[1-(2-amino-7-methyl-4-oxo-7,8-dihydro-3H-pteridin-6-yl)]ethyl diphosphate	p
tRNA-pseudouridine-38-40	a pseudouridine38-40 in tRNA	p
URIDYLYL-PROTEIN-PII	a uridylylated PII protein	p
CPD-17045	3-benzyl-3,6-dihydroxy-6-(hydroxymethyl)-diketopiperazine	c
tRNA-uridine-38-40	a uridine38-40 in tRNA	c
CADAVERINE	cadaverine	p
CPD-564	S-ribosyl-L-homocysteine	p
tRNA-uridine34	a uridine34 in tRNA	c
N-terminal-glycine	an N-terminal glycyl-[protein]	p
CPD-734	(-)-jasmonate	p
MALONATE-S-ALD	3-oxopropanoate	cp
AMMONIUM	ammonium	cp
All-trans-Retinyl-Esters	an all-trans-retinyl ester	c
PYRAZINOIC-ACID	pyrazine-2-carboxylate	p
N2-SUCCINYLGLUTAMATE	N2-succinylglutamate	c
DIHYDRO-NEO-PTERIN	7,8-dihydroneopterin	c
PTS-I-Histidines	a [PTS enzyme I]-L-histidine	cp
PTS-I-pi-phospho-L-histidines	a [PTS enzyme I]-N&pi;-phospho-L-histidine	cp
D-ALANINE	D-alanine	cp
DIHYDRO-THYMINE	5,6-dihydrothymine	cp
DTDP-D-GLUCOSE	dTDP-&alpha;-D-glucose	cp
INDOLE	indole	c
INDOLE-3-GLYCEROL-P	(1S,2R)-1-C-(indol-3-yl)glycerol 3-phosphate	cp
FORMATE	formate	cp
PUTRESCINE	putrescine	cp
ACETOACETYL-COA	acetoacetyl-CoA	cp
AMP	AMP	cp
INDOLEYL-CPD	(indole-3-yl)acetonitrile	c
CPD-7535	9,15,9'-tri-cis-&zeta;-carotene	p
Amino-Acids	an amino acid	c
Amino-Acids-20	a proteinogenic amino acid	cp
CPD-7545	S-(phenylacetothiohydroximoyl)-L-cysteine	cp
D-ALPHABETA-D-HEPTOSE-7-PHOSPHATE	D-glycero-D-manno-heptose 7-phosphate	p
PYRIDOXAL_PHOSPHATE	pyridoxal 5'-phosphate	p
INDOLE_ACETATE_AUXIN	(indol-3-yl)acetate	p
ADENYLOSUCC	adenylo-succinate	cp
N5-Formyl-THF-Glu-N	an (6S)-N5-formyl-tetrahydrofolate	cp
ACETOIN	acetoin	c
CPD-7546	S-(4-methylthiobutylhydroximoyl)-L-cysteine	cp
PYRIDOXAMINE-5P	pyridoxamine 5'-phosphate	c
TMP	dTMP	cp
CPD-10633	5-chloro-trans-dienelactone	c
CPD-763	arsenite	p
DIHYDROFOLATE	7,8-dihydrofolate monoglutamate	p
OXALACETIC_ACID	oxaloacetate	cp
DIHYDROFOLATE-GLU-N	a 7,8-dihydrofolate	p
INDOLE_PYRUVATE	(indol-3-yl)pyruvate	cp
CPD-10634	5-chloromaleylacetate	p
FORMYL-L-METHIONYL-PEPTIDE	a [protein] N-terminal-formyl-L-methionine	c
FORMYL-THF-GLU-N	an N10-formyl-tetrahydrofolate	cp
CPD-7671	methanethiol	c
CIS-2-CHLORO-4-CARBOXYMETHYLENEBUT-2-EN-	2-chloro-cis-dienelactone	c
FORMYL-THMPT	5-formyl-tetrahydromethanopterin	cp
NAD	NAD+	cp
ACETYL-ACP	an acetyl-[acp]	c
DTDP-DEOH-DEOXY-GLUCOSE	dTDP-4-dehydro-6-deoxy-&alpha;-D-glucopyranose	cp
CPD-10636	2,5-dichloro-trans-dienelactone	c
OXALO-SUCCINATE	oxalosuccinate	cp
L-arginyl-3-sulfino-L-alaninyl-Peptides	an N-terminal L-arginiyl-3-sulfino-L-alanyl-[protein]	p
D-ERYTHRO-IMIDAZOLE-GLYCEROL-P	D-erythro-imidazole-glycerol-phosphate	c
L-arginyl-3-sulfo-L-alaninyl-Peptides	an N-terminal L-arginiyl-3-sulfo-L-alanyl-[protein]	p
CPD-19144	(7Z)-hexadecenoyl-CoA	cp
L-arginyl-L-Glutamyl-Peptides	an N-terminal L-arginiyl-L-glutamyl-[protein]	p
DTDP-DEOH-DEOXY-MANNOSE	dTDP-4-dehydro-&beta;-L-rhamnose	cp
L-arginyl-L-aspartyl-Peptides	an N-terminal L-arginiyl-L-aspartyl-[protein]	p
L-glutamyl-tRNAGln	an L-glutamyl-[tRNAGln]	c
CPD-19147	(7Z)-tetradecenoyl-CoA	cp
5-KETO-4-DEOXY-D-GLUCARATE	5-dehydro-4-deoxy-D-glucarate	cp
MG+2	Mg2+	c
D-GLT	D-glutamate	cp
L-leucyl-L-arginyl-Protein	a [protein] N-terminal L-leucyl-L-arginine	p
5-L-GLUTAMYL-AMINO-ACID	an &alpha;-(5-L-glutamyl)-amino acid	p
MG-PROTOPORPHYRIN	Mg-protoporphyrin	p
CPD-19148	(5Z)-dodecenoyl-CoA	cp
HOMOGENTISATE	homogentisate	cp
L-leucyl-L-lysyl-Protein	a [protein] N-terminal L-leucyl-L-lysine	p
5-L-GLUTAMYL-L-AMINO-ACID	an &alpha;-(&gamma;-L-glutamyl)-L-amino acid	p
L-methionyl-L-alanyl-Protein	an N-terminal-L-methionyl-L-alanyl-[protein]	c
CPD-19150	(2E,5Z)-dodecenoyl-CoA	cp
L-methionyl-L-cysteinyl-Protein	an N-terminal-L-methionyl-L-cysteinyl-[protein]	c
L-methionyl-L-seryl-Protein	an N-terminal-L-methionyl-L-seryl-[protein]	c
DTDP-RHAMNOSE	dTDP-&beta;-L-rhamnose	p
L-methionyl-L-threonyl-Protein	an N-terminal-L-methionyl-L-threonyl-[protein]	c
L-methionyl-L-valyl-Protein	an N-terminal-L-methionyl-L-valyl-[protein]	c
L-methionyl-glycyl-Protein	an N-terminal-L-methionyl-glycyl-[protein]	c
GLYCEROL	glycerol	cp
MALONYL-ACP	a malonyl-[acp]	cp
L-methionyl-tRNAfmet	an L-methionyl-[initiator tRNAMet]	cp
CPD-19151	(S)-3-hydroxy-(5Z)-dodecenoyl-CoA	p
5-L-GLUTAMYL-PEPTIDE	a 5-L-glutamyl-[peptide]	c
GLYCEROL-3P	sn-glycerol 3-phosphate	cp
MALONYL-COA	malonyl-CoA	cp
5-METHYL-THF-GLU-N	a 5-methyltetrahydrofolate	cp
PORPHOBILINOGEN	porphobilinogen	cp
L-phenylalanyl-L-arginyl-Protein	L-phenylalanyl-L-arginyl-[protein]	p
CPD-19153	3-oxo-(5Z)-dodecenoyl-CoA	c
L-phenylalanyl-L-lysyl-Protein	L-phenylalanyl-L-lysyl-[protein]	p
L-seryl-SEC-tRNAs	an L-seryl-[tRNAsec]	p
5-METHYLTHIOADENOSINE	S-methyl-5'-thioadenosine	cp
LAUROYLCOA-CPD	lauroyl-CoA	p
CPD-19154	(S)-3-hydroxy-(7Z)-tetradecenoyl-CoA	p
MONO-VINYL-PROTOCHLOROPHYLLIDE-A	protochlorophyllide a	c
CPD-19155	(S)-3-hydroxy-(9Z)-hexadecenoyl-CoA	p
MONOMER0-4342	a [prolipoprotein]-(S-diacylglyceryl)-L-cysteine	cp
CPD-19157	3-oxo-(7Z)-tetradecenoyl-CoA	c
D-GLUCARATE	D-glucarate	c
Phosphoserines	L(or D)-O-phosphoserine	c
tRNA-uridines	a uridine in tRNA	c
Phosphorylated-phosphoglucomutase	a phosphorylated phosphoglucomutase	cp
tRNA-with-7-aminomethyl-7-deazaguanine	a 7-aminomethyl-7-deazaguanosine34 in tRNA	cp
CPD-9956	ubiquinol-8	p
3-UREIDO-ISOBUTYRATE	3-(carbamoylamino)-2-methylpropanoate	cp
CPD-14269	(Z)-15-tetracosenoyl-CoA	p
D-GLUCOSAMINE-6-P	D-glucosamine 6-phosphate	cp
Red-Glutaredoxins	a reduced glutaredoxin	c
3-UREIDO-PROPIONATE	3-ureidopropanoate	cp
tRNAs	an uncharged tRNA	p
Red-Thioredoxin	a reduced thioredoxin	cp
tRNAs-containing-epoxy-quenosine	an epoxyqueuosine34 in tRNA	cp
CPD-9965	icosanoyl-CoA	cp
3-ENOLPYRUVYL-SHIKIMATE-5P	5-enolpyruvoyl-shikimate 3-phosphate	cp
Reduced-2Fe-2S-Ferredoxins	a reduced [2Fe-2S] ferredoxin	c
GLT	L-glutamate	cp
Reduced-CycA1-cytochromes	a reduced CycA1 cytochrome	c
3-HYDROXY-3-METHYL-GLUTARYL-COA	(S)-3-hydroxy-3-methylglutaryl-CoA	c
GLT-tRNAs	a tRNAglu	p
Reduced-Factor-F420	a reduced coenzyme F420	cp
tRNAs-with-queuine	a queuosine34 in tRNA	p
CPD0-1027	a debranched &alpha;-limit dextrin	c
3-hydroxy-cis-D7-tetraecenoyl-ACPs	a (3R)-3-hydroxy cis &Delta;7-tetradecenoyl-[acp]	p
3-hydroxy-cis-D9-hexaecenoyl-ACPs	a (3R)-3-hydroxy cis &Delta;9-hexadecenoyl-[acp]	p
CPD0-1080	GlcNAc-1,6-anhMurNAc-L-Ala-&gamma;-D-Glu-DAP-D-Ala	c
3-hydroxypimeloyl-ACP-methyl-esters	a (3R)-3-hydroxypimeloyl-[acp] methyl ester	p
3-oxo-arachidoyl-ACPs	a 3-oxo-arachidoyl-[acp]	c
type-IV-prepillin	a type IV prepilin	c
CPD-14443	(2S,4S)-4-hydroxy-2,3,4,5-tetrahydrodipicolinate	cp
CPD0-1081	N-acetyl-&beta;-D-glucosamine-1,6-anhydro-N-acetyl-&beta;-D-muramate	cp
3-oxo-behenoyl-ACPs	a 3-oxo-behenoyl-[acp]	cp
Reduced-ferredoxins	a reduced ferredoxin [iron-sulfur] cluster	cp
3-oxo-cerotoyl-ACPs	a 3-oxo-cerotoyl-[acp]	c
3-HYDROXY-CISCIS-MUCONATE	3-hydroxy-cis,cis-muconate	p
CPD0-1082	L-alanyl-&gamma;-D-glutamyl-meso-2,6-diaminopimeloyl-D-alanine	cp
3OH-4P-OH-ALPHA-KETOBUTYRATE	(3R)-3-hydroxy-2-oxo-4 phosphooxybutanoate	cp
CPD-14553	UDP-&alpha;-D-galactose	cp
1-AMINO-PROPAN-2-ONE-3-PHOSPHATE	3-amino-1-hydroxyacetone 1-phosphate	cp
3-oxo-cis-D7-tetradecenoyl-ACPs	a 3-oxo-cis-&Delta;7-tetradecenoyl-[acp]	cp
CPD0-1096	glucosamine 1,6-diphosphate	cp
OXIDIZED-GLUTATHIONE	glutathione disulfide	cp
Relaxed-DNAs	a relaxed DNA	cp
3-oxo-cis-D9-hexadecenoyl-ACPs	a 3-oxo-cis-&Delta;9-hexadecenoyl-[acp]	cp
Resolution-of-Recombinational-Junction	resolution of recombinational junction formation of two intact strands	p
3-HYDROXY-DOCOSAPENTAENOYL-ACP	a (3R)-3-hydroxy-docosapentaenoyl-[acp]	p
3-oxo-cis-vaccenoyl-ACPs	a 3-oxo-cis-vacc-11-enoyl-[acp]	cp
3-oxo-decanoyl-ACPs	a 3-oxo-decanoyl-[acp]	cp
Retinols	a retinol	p
CPD-17046	3-benzyl-3,6 -bis(glutathione)- 6-(hydroxymethyl)-diketopiperazine	p
CPD-5662	9-mercaptodethiobiotin	cp
ERYTHROSE-4P	D-erythrose 4-phosphate	cp
Thiocarboxyadenylated-ThiS-Proteins	a thiocarboxy-[ThiS-Protein]	c
CPDQT-41	10-(methylthio)-2-oxodecanoate	p
CPD-10637	2,5-dichloromaleylacetate	cp
CPDQT-410	S-9-methylthiononylhydroximoyl-L-cysteine	cp
ACETYL-COA	acetyl-CoA	cp
CPD-17063	ferroheme o	p
D-LACTATE	(R)-lactate	p
RNA-DNA-hybrids	a RNA-DNA hybrid	c
CPDQT-411	(E)-N-hydroxy-5-(methylsulfanyl)pentimidothioate	cp
CPD-12179	methylmalonate semialdehyde	c
Thiols	a thiol	p
RNA-Holder	a ribonucleic acid	cp
OXOPENTENOATE	2-oxopent-4-enoate	cp
CPD-12199	3S-(4-hydroxyphenyl)-3-hydroxy-propanoyl-CoA	p
CPD-17189	pseudo-adenosyl cobamide	p
CPD-10750	UDP-2-acetamido-2,6-dideoxy-&beta;-L-arabino-hex-4-ulose	cp
CPDQT-412	(E)-N-hydroxy-6-(methylsulfanyl)heximidothioate	cp
Thiopurine-Methylethers	a thiopurine S-methylether	p
CPD-578	urea-1-carboxylate	c
Thiopurines	a thiopurine	c
CPDQT-413	(E)-N-hydroxy-7-(methylsulfanyl)heptimidothioate	cp
CPD-7695	ditrans,octacis-undecaprenyldiphospho-N-acetyl-(N-acetyl-&beta;-D-glucosaminyl)muramoyl-L-alanyl-&gamma;-D-glutamyl-L-lysyl-D-alanyl-D-alanine	p
UROPORPHYRINOGEN-III	uroporphyrinogen-III	cp
CPD-173	salicyl alcohol	p
CPD-10751	UDP-4-amino-4,6-dideoxy-N-acetyl-&beta;-L-altrosamine	cp
CPDQT-414	(E)-N-hydroxy-8-(methylsulfanyl)octimidothioate	cp
CPD-12279	2-iminoacetate	c
CPD-17312	docosahexaenoyl-CoA	p
RNASE-E-DEGRADATION-SUBSTRATE-MRNA	RNase E degradation substrate mRNA	c
ETF-Oxidized	an oxidized electron-transfer flavoprotein	cp
CPDQT-415	(E)-N-hydroxy-9-(methylsulfanyl)nonimidothioate	cp
ADP	ADP	cp
RNASE-E-MRNA-PROCESSING-SUBSTRATE	RNase E mRNA processing substrate	c
CPD-582	guanylyl molybdenum cofactor	p
CPD-5821	(S)-2-oxo-4-hydroxy-4-carboxy-5-ureidoimidazoline	p
RNASE-E-PROCESSING-PRODUCT-MRNA	RNase E processing product mRNA	p
CPD-12321	15-cis-phytoene	cp
RNASE-G-DEGRADATION-SUBSTRATE-MRNA	RNase G degradation substrate mRNA	c
D-METHYL-MALONYL-COA	(S)-methylmalonyl-CoA	cp
CPDQT-429	indolylmethylisothiocyanate	c
RNASE-III-MRNA-PROCESSING-SUBSTRATE	RNase III mRNA processing substrate	c
ETF-Reduced	a reduced electron-transfer flavoprotein	cp
CPD-782	3,4-dihydroxyphenylacetate	p
OXYGEN-MOLECULE	oxygen	cp
CPD-12365	8-oxo-dGMP	p
Triacylglycerols	a triacyl-sn-glycerol	p
RNASE-III-PROCESSING-PRODUCT-MRNA	RNase III processing product mRNA	p
D-MYO-INOSITOL-1-MONOPHOSPHATE	1D-myo-inositol 1-monophosphate	c
CPDQT-434	indol-3-ylmethylisothiocyanate-glutathione	p
RNASE-R-DEGRADATION-SUBSTRATE-RNA	RNase R degradation substrate RNA	c
CPD-5881	(6R)-4a-hydroxy-tetrahydrobiopterin	p
CPDQT-520	phosphatidylglycerophosphate (1-octadecenoyl(9Z), 2-palmitoyl)	c
ACETYL-GLU	N-acetyl-L-glutamate	cp
ETHANAMINE	ethylamine	p
TusE-L-cysteine	a [TusE sulfur carrier protein]-L-cysteine	p
TusE-S-sulfanylcysteine	a [TusE sulfur carrier protein]-S-sulfanylcysteine	c
AGMATHINE	agmatine	c
UTP	UTP	cp
CPD-17365	(4Z,7Z,10Z,13Z,16Z)-docosapentaenoyl-CoA	p
PYRIDOXINE-5P	pyridoxine 5'-phosphate	cp
SHIKIMATE-5P	shikimate 3-phosphate	cp
MYO-INOSITOL	myo-inositol	p
Gln-B	a PII protein	c
2-AMINOMUCONATE_SEMIALDEHYDE	(2Z,4E)-2-amino-6-oxohexa-2,4-dienoate	c
D-RIBULOSE-15-P2	D-ribulose-1,5-bisphosphate	cp
Glucopyranose	D-glucopyranose	cp
NAD-P-OR-NOP	NAD(P)+	cp
PPI	diphosphate	cp
2-C-METHYL-D-ERYTHRITOL-4-PHOSPHATE	2-C-methyl-D-erythritol 4-phosphate	cp
Glutamine-synthetase-Tyr	a [glutamine-synthetase]-L-tyrosine	c
Glutamine-synthetase-adenylyl-Tyr	a [glutamine synthetase]-O4-(5'-adenylyl)-L-tyrosine	p
RX	RX	c
5-OXOPROLINE	5-oxo-L-proline	c
Glutaryl-ACP-methyl-esters	a glutaryl-[acp] methyl ester	c
5-P-BETA-D-RIBOSYL-AMINE	5-phospho-&beta;-D-ribosylamine	cp
DIHYDROLIPOYL-GCVH	a [glycine-cleavage complex H protein] N6-dihydrolipoyl-L-lysine	cp
2-CHLOROMALEYLACETATE	2-chloromaleylacetate	cp
CAMP	cyclic-AMP	p
DIHYDRONEOPTERIN-P3	7,8-dihydroneopterin 3'-triphosphate	c
ANTHRANILATE	anthranilate	cp
Octanoyl-ACPs	an octanoyl-[acp]	c
CANAVANINE	L-canavanine	cp
Octanoylated-Gcv-H	a [glycine-cleavage complex H protein] N6-octanoyl-L-lysine	p
PYRROLINE-HYDROXY-CARBOXYLATE	(3R,5S)-3-hydroxy-1-pyrroline-5-carboxylate	c
2-D-THREO-HYDROXY-3-CARBOXY-ISOCAPROATE	(2R,3S)-3-isopropylmalate	cp
Octanoylated-domains	a [lipoyl-carrier protein] N6-octanoyl-L-lysine	p
2-DEHYDROPANTOATE	2-dehydropantoate	cp
Glycerophosphodiesters	a glycerophosphodiester	c
FRU1P	&beta;-D-fructofuranose 1-phosphate	c
NADH	NADH	cp
Malonyl-acp-methyl-ester	a malonyl-[acp] methyl ester	c
Odd-Saturated-Fatty-Acyl-CoA	an odd numbered straight chain 2,3,4-saturated fatty acyl CoA	p
DUDP	dUDP	c
5-P-RIBOSYL-N-FORMYLGLYCINEAMIDE	N2-formyl-N1-(5-phospho-&beta;-D-ribosyl)glycinamide	c
Odd-Straight-Chain-234-Sat-FA	an odd numbered straight chain 2,3,4-saturated fatty acid	c
FRUCTOSE-16-DIPHOSPHATE	&beta;-D-fructose 1,6-bisphosphate	cp
Glycogens	a glycogen	cp
APS	adenosine 5'-phosphosulfate	cp
PREPHENATE	prephenate	cp
5-PHOSPHO-RIBOSYL-GLYCINEAMIDE	N1-(5-phospho-&beta;-D-ribosyl)glycinamide	p
D-SEDOHEPTULOSE-7-P	D-sedoheptulose 7-phosphate	cp
FRUCTOSE-6P	&beta;-D-fructofuranose 6-phosphate	cp
CPD-208	(S)-malyl-CoA	cp
CIS-3-PHENYLCYCLOHEXA-35-DIENE-12-DIOL	cis-3-phenylcyclohexa-3,5-diene-1,2-diol	p
1-CHLORO-24-DINITROBENZENE	1-chloro-2,4-dinitrobenzene	cp
CPD-20826	7-(5-phospho-&alpha;-D-ribosyl)adenine	p
Aromatic-Amino-Acids	an aromatic amino acid	cp
LEU	L-leucine	cp
LEU-tRNAs	a tRNALeu	cp
Oleoyl-ACPs	an oleoyl-[acp]	c
Aromatic-Oxoacids	an aromatic 2-oxo-acid	cp
CPD-20827	phenolyl-Co&beta;-adenosylcobamide 5'-phosphate	p
Ubiquinols	an ubiquinol	cp
CIS-ACONITATE	cis-aconitate	cp
1-KETO-2-METHYLVALERATE	(R)-2,3-dihydroxy-3-methylpentanoate	cp
Oleoyl-lipid	a [glycerolipid]-oleate	c
CPD-20828	4-methylphenolyl-Co&beta;-adenosylcobamide 5'-phosphate	p
CPD-20829	[(2R,3S,4R,5S)-5-(1,3-benzodiazol-1-yl)-3,4-dihydroxyoxolan-2-yl]methyl phosphate	cp
Ubiquinones	a ubiquinone	cp
Aryl-sulfates	an aryl sulfate	cp
CPD-20830	[(2R,3S,4R,5S)-3,4-dihydroxy-5-(5-hydroxy-1,3-benzodiazol-1-yl)oxolan-2-yl]methyl phosphate	p
CPD-20831	[(2R,3S,4R,5S)-3,4-dihydroxy-5-(5-methoxy-1,3-benzodiazol-1-yl)oxolan-2-yl]methyl phosphate	cp
Unfolded-Proteins	an unfolded protein	cp
CPD-20832	[(2R,3S,4R,5S)-3,4-dihydroxy-5-(5-methoxy-6-methyl-1,3-benzodiazol-1-yl)oxolan-2-yl]methyl phosphate	cp
GLYCEROPHOSPHOGLYCEROL	glycerophosphoglycerol	c
INOSINE	inosine	p
1-L-MYO-INOSITOL-1-P	1D-myo-inositol 3-monophosphate	c
CPD-20833	Co&alpha;-[a-(benzimidazolyl)]-Co&beta;-adenosylcobamide 5'-phosphate	p
CIS-D2-ENOYL-COA	a cis-2-enoyl-CoA	cp
TRANS-2-CHLORO-4-CARBOXYMETHYLENEBUT-2-E	2-chloro-trans-dienelactone	c
Oligonucleotides	an oligonucleotide	c
Unspecified-Degradation-Products	[unspecified degradation products]	p
CPD-20836	Co&alpha;-[a-(5-methoxy-6-methyl-benzimidazolyl)]-Co&beta;-adenosylcobamide 5'-phosphate	p
1-PALMITOYLGLYCEROL-3-PHOSPHATE	1-palmitoylglycerol 3-phosphate	p
Unsulfurated-Sulfur-Acceptors	an unsulfurated [sulfur carrier]	cp
Unwound-DNA	an unwound double-stranded DNA	p
CPD-20838	[(2R,3S,4R,5S)-3,4-dihydroxy-5-(5-methyl-1,3-benzodiazol-1-yl)oxolan-2-yl]methyl phosphate	cp
B-ALANINE	&beta;-alanine	cp
CPD-20839	Co&alpha;-[a-(5-methylbenzimidazolyl)]-Co&beta;-adenosylcobamide 5'-phosphate	p
Unwound-RNA	an unwound RNA	p
CPD-20840	7-&alpha;-D-ribosyladenine	c
D-glucopyranose-6-phosphate	D-glucopyranose 6-phosphate	cp
CPD-20841	(2S,3R,4S,5R)-2-(5-hydroxy-1,3-benzodiazol-1-yl)-5-(hydroxymethyl)oxolane-3,4-diol	c
LEUKOTRIENE-C4	leukotriene-C4	c
CPD-20849	Co&alpha;-[a-(5-hydroxybenzimidazolyl)]-Co&beta;-adenosylcobamide	p
CIT	citrate	cp
CPD-2183	1-oleoyl-2-palmitoyl-phosphatidylglycerol	p
B-KETOACYL-ACP	a 3-oxoacyl-[acp]	cp
TRANS-23-DEHYDROADIPYL-COA	trans-2,3-dehydroadipyl-coA	cp
VAL	L-valine	cp
VAL-tRNAs	a tRNAVal	c
HS	hydrogen sulfide	cp
3-HYDROXY-ISOVALERYL-COA	3-hydroxyisovaleryl-CoA	cp
3-oxo-dodecanoyl-ACPs	a 3-oxo-dodecanoyl-[acp]	cp
SN-GLYCEROL-1-PHOSPHATE	sn-glycerol 1-phosphate	p
Rhodoquinols	a rhodoquinol	c
3R-11Z-3-hydroxy-icos-11-enoyl-ACPs	a (3R,11Z)-3-hydroxy-icos-11-enoyl-[acp]	p
Rhodoquinones	a rhodoquinone	p
DADP	dADP	c
3-oxo-hexanoyl-ACPs	a 3-oxo-hexanoyl-[acp]	cp
3R-5Z-3-hydroxy-tetradec-5-enoyl-ACPs	a (3R,5Z)-3-hydroxy-tetradec-5-enoyl-[acp]	p
Ribonucleoside-Diphosphates	a ribonucleoside diphosphate	p
3R-7Z-3-hydroxy-hexadec-7-enoyl-ACPs	a (3R,7Z)-3-hydroxy-hexadec-7-enoyl-[acp]	p
Ribonucleoside-Monophosphates	a ribonucleoside 5'-monophosphate	cp
3-oxo-lignoceroyl-ACPs	a 3-oxo-lignoceroyl-[acp]	c
3R-9Z-3-hydroxy-octadec-9-enoyl-ACPs	a (3R,9Z)-3-hydroxy-octadec-9-enoyl-[acp]	p
SO3	sulfite	cp
Ribonucleoside-Triphosphates	a ribonucleoside triphosphate	c
3-oxo-myristoyl-ACPs	a 3-oxo-myristoyl-[acp]	cp
Ribonucleosides	a ribonucleoside	p
3Z-dodec-3-enoyl-ACPs	a (3Z)-dodec-3-enoyl-[acp]	c
3-oxo-palmitoyl-ACPs	a 3-oxo-palmitoyl-[acp]	cp
3-oxo-petroselinoyl-ACPs	a 3-oxo-petroselinoyl-[acp]	cp
4-AMINO-4-DEOXYCHORISMATE	4-amino-4-deoxychorismate	cp
Ribosomal-protein-L3-L-glutamine	a [ribosomal protein L3]-L-glutamine	c
3-oxo-stearoyl-ACPs	a 3-oxo-stearoyl-[acp]	cp
Ribosomal-protein-L3-N5M-L-glutamine	a [ribosomal protein L3]-N5-methyl-L-glutamine	p
Ribosomal-protein-S12-3-methylthio-Asp89	a [ribosomal protein S12]-3-methylsulfanyl-L-aspartate89	p
PRISTANATE	pristanate	c
3-phosphooligoribonucleotides	a 3' phosphooligo-ribonucleotide RNA	p
Ribosomal-protein-S12-Asp89	a [ribosomal protein S12] L-aspartate89	c
3-terminal-unsaturated-sugars	a 3'-terminal unsaturated sugar	p
GLUCOSAMINE-1P	D-glucosamine 1-phosphate	cp
4-AMINO-BUTYRATE	4-aminobutanoate	cp
S-2-Haloacids	an (S)-2-haloacid	c
SPERMIDINE	spermidine	cp
3-HYDROXYADIPYL-COA	(3S)-hydroxyadipyl-CoA	cp
S-2-Hydroxyacids1	an (S)-2-hydroxyacid	p
S-2-INDOL-3-YLACETYL-COA	S-2-(indol-3 yl)acetyl-CoA	cp
PHENYL-PYRUVATE	keto-phenylpyruvate	cp
4-CARBOXYMETHYLENEBUT-2-EN-4-OLIDE	cis-dienelactone	c
PHENYLACETATE	phenylacetate	cp
S-24-DINITROPHENYLGLUTATHIONE	2,4-dinitrophenyl-S-glutathione	cp
PRO	L-proline	cp
PRO-tRNAs	a tRNAPro	c
Ox-Glutaredoxins	an oxidized glutaredoxin	p
CPD-14673	3-phenylpropionitrile	c
TRANS-3-METHYL-GLUTACONYL-COA	3-methylglutaconyl-CoA	p
CPD-784	5-carboxymethyl-2-hydroxymuconate	c
HSCN	thiocyanate	p
Guanine34-in-tRNAs	a guanine34 in tRNA	c
5-PHOSPHORIBOSYL-5-AMINOIMIDAZOLE	5-amino-1-(5-phospho-&beta;-D-ribosyl)imidazole	cp
Guanine46-in-tRNA	a guanine46 in tRNA	c
NADH-P-OR-NOP	NAD(P)H	cp
DEAMIDO-NAD	nicotinate adenine dinucleotide	c
CPD-1241	&alpha;-D-galactose 6-phosphate	cp
AICAR	5-amino-1-(5-phospho-D-ribosyl)imidazole-4-carboxamide	cp
CPD-14675	pristanoyl-CoA	p
TRANS-D2-ENOYL-ACP	a trans-2-enoyl-[acyl-carrier protein]	p
Ox-Thioredoxin	an oxidized thioredoxin	cp
H2CO3	carbonic acid	cp
TRANS-D2-ENOYL-COA	a (2E)-alkan-2-enoyl-CoA	cp
FUM	fumarate	cp
CPD-785	(3E,5R)-5-carboxy-2-oxohept-3-enedioate	p
CPD0-1162	(2E,5Z)-tetradecenoyl-CoA	cp
MANNOSE-1P	&alpha;-D-mannose 1-phosphate	cp
LINOLEIC_ACID	linoleate	c
DEHYDROQUINATE	3-dehydroquinate	cp
CPD-12427	7,8-dihydro-8-oxoguanine	p
CPD-14704	4-hydroxy-2-nonenal-glutathione conjugate	p
2-HYDROXY-2-METHYLPROPANENITRILE	2-hydroxy-2-methylpropanenitrile	cp
MANNOSE-6P	&alpha;-D-mannopyranose 6-phosphate	cp
5-PHOSPHORIBOSYL-N-FORMYLGLYCINEAMIDINE	2-(formamido)-N1-(5-phospho-&beta;-D-ribosyl)acetamidine	cp
Oxidized-2Fe-2S-Ferredoxins	an oxidized [2Fe-2S] ferredoxin	p
Oxidized-CycA1-cytochromes	an oxidized CycA1 cytochrome	p
CPD-14772	hexadecanedioyl-CoA	cp
CPD0-1163	(S)-3-hydroxy-(5Z)-tetradecenoyl-CoA	p
Oxidized-Factor-F420	an oxidized coenzyme F420	cp
CPD-14828	1-C16:0-&alpha;,&omega;-dicarboxyl-2-lysophosphatidate	cp
CPD-12575	UDP-&alpha;-D-glucose	cp
NADP	NADP+	cp
CPD0-1456	UDP-N-acetyl-&alpha;-D-muramoyl-L-alanine	cp
5-Phospho-terminated-DNAs	a 5'-phospho-[DNA]	cp
LINOLENIC_ACID	&alpha;-linolenate	c
CPD-14925	(3Z)-dec-3-enoyl-CoA	p
DELTA1-PIPERIDEINE-2-6-DICARBOXYLATE	(S)-2,3,4,5-tetrahydrodipicolinate	cp
MENADIOL	menadiol	p
TREHALOSE-6P	&alpha;,&alpha;-trehalose 6-phosphate	p
CPD-14927	phytenate	c
CPD-12611	3,4-didehydrorhodopin	p
5-phosphooligonucleotides	a 5'-phosphooligonucleotide	p
HCN	hydrogen cyanide	c
CPD0-1699	6-carboxy-5,6,7,8-tetrahydropterin	c
2-Hydroxy-carboxylates	a 2-hydroxy carboxylate	p
CPD-804	(4S)-4-hydroxy-2-oxoheptanedioate	c
CPD-14928	phytenoyl-CoA	p
LINOLENOYL-COA	&alpha;-linolenoyl-CoA	p
CPD-12634	(glutathion-S-yl)(1H-indol-3-yl)acetonitrile	p
CPD-8123	MoO2-molybdopterin cofactor	c
HX	HX	p
DELTA3-ISOPENTENYL-PP	isopentenyl diphosphate	cp
Oxidized-ferredoxins	an oxidized ferredoxin [iron-sulfur] cluster	cp
2-KETO-3-DEOXY-D-GLUCARATE	(2S,3S)-2,3-dihydroxy-5-oxohexanedioate	cp
HYDANTOIN	hydantoin	cp
CPD0-1718	7,8-dihydropterin	c
CPD-592	4-guanidinobutanoate	p
IS30-Insertion-Sequences	an insertion sequence element IS30	cp
CPD-1078	CDP-4-dehydro-3,6-dideoxy-D-glucose	p
IS30-with-Integrated-Transposon	an insertion sequence IS30 with integrated transposon	cp
ARABINOSE-5P	aldehydo-D-arabinose 5-phosphate	cp
PYRUVATE	pyruvate	cp
CPD-19158	3-oxo-(9Z)-hexadecenoyl-CoA	c
NADPH	NADPH	cp
CPD-10789	7,8-dihydromethanopterin	cp
Kanamycin-3-phosphates	a kanamycin 3'-phosphate	p
ISOBUTYRATE	isobutanoate	c
Kanamycins	a kanamycin	c
ETHANOL-AMINE	ethanolamine	cp
CPD-602	5-amino-6-(5-phospho-D-ribosylamino)uracil	p
CPD-19159	(S)-3-hydroxy-(11Z)-octadecenoyl-CoA	p
ACETYLSERINE	O-acetyl-L-serine	cp
Oxo-glutarate-dehydro-suc-DH-lipoyl	a [2-oxoglutarate dehydrogenase E2 protein] N6-S-succinyldihydrolipoyl-L-lysine	cp
ISOBUTYRYL-COA	isobutanoyl-CoA	cp
Oxo-glutarate-dehydrogenase-DH-lipoyl	a [2-oxoglutarate dehydrogenase E2 protein] N6-dihydrolipoyl-L-lysine	cp
CPD-19160	3-oxo-(11Z)-octadecenoyl-CoA	c
CPD-10791	6-deoxy-5-ketofructose 1-phosphate	p
Menaquinols	a menaquinol	cp
Oxo-glutarate-dehydrogenase-lipoyl	a [2-oxoglutarate dehydrogenase E2 protein] N6-lipoyl-L-lysine	cp
CPD-19161	(2E,7Z)-tetradecenoyl-CoA	cp
L-1-GLYCEROPHOSPHORYLETHANOL-AMINE	sn-glycero-3-phosphoethanolamine	c
Menaquinones	a menaquinone	cp
CPD-618	(2R,3S)-2-methylisocitrate	cp
CPD-19162	(2E,9Z)-hexadecenoyl-CoA	cp
P-AMINO-BENZOATE	4-aminobenzoate	cp
CPD-10806	4-hydroxy-2-nonenal	c
CPD-19163	(2E,11Z)-octadecenoyl-CoA	cp
P-COUMAROYL-COA	4-coumaroyl-CoA	c
Methanofurans	a methanofuran	cp
ARG	L-arginine	cp
ETOH	ethanol	c
CPD-10826	4-methyl-3-oxoadipate	c
Palmitoleoyl-ACPs	a palmitoleoyl-[acp]	c
CPD-19167	3-oxo-(7Z)-hexadecenoyl-CoA	c
ISOCHORISMATE	isochorismate	c
Palmitoyl-ACPs	a palmitoyl-[acp]	c
CPD-1083	(E)-2-methylcrotonoyl-CoA	cp
L-1-LYSOPHOSPHATIDATE	1-oleyl-2-lyso-phosphatidate	p
CPD-6321	a [procollagen] trans 4-hyroxy-L-proline	p
CPD-10832	4-methyl-3-oxoadipyl-CoA	p
CPD-19168	(S)-3-hydroxy-(7Z)-hexadecenoyl-CoA	p
CANAVANINOSUCCINATE	canavaninosuccinate	cp
SQUALENE	squalene	p
PROCOLLAGEN-L-PROLINE	a [procollagen]-L-proline	c
UDP	UDP	cp
DATP	dATP	p
CARBAMATE	carbamate	p
UDP-4-AMINO-4-DEOXY-L-ARABINOSE	UDP-4-amino-4-deoxy-&beta;-L-arabinopyranose	cp
GLYCOLALDEHYDE	glycolaldehyde	p
SS-Oligodeoxyribonucleotides	a single-stranded oligodeoxyribonucleotide	p
ARG-tRNAs	a tRNAArg	cp
P-HYDROXY-PHENYLPYRUVATE	4-hydroxyphenylpyruvate	cp
CTP	CTP	cp
STEARIC_ACID	stearate	c
CPD-17370	18-hydroxyoleoyl-CoA	cp
CARBAMOYL-P	carbamoyl phosphate	cp
UDP-AA-GLUTAMATE	UDP-N-acetyl-&alpha;-D-muramoyl-L-alanyl-D-glutamate	cp
CPD-17372	1-[18-hydroxyoleyl]-2-lyso-phosphatidate	p
DIHYDROPTERIN-CH2OH-PP	(7,8-dihydropterin-6-yl)methyl diphosphate	p
PROPIONAMIDE	propionamide	c
STEAROYL-COA	stearoyl-CoA	p
UDP-AAGM-DIAMINOHEPTANEDIOATE	UDP-N-acetyl-&alpha;-D-muramoyl-L-alanyl-&gamma;-D-glutamyl-meso-2,6-diaminopimelate	cp
GLYCOLLATE	glycolate	p
CARBAMYUL-L-ASPARTATE	N-carbamoyl-L-aspartate	cp
P-RIBOSYL-4-SUCCCARB-AMINOIMIDAZOLE	5'-phosphoribosyl-4-(N-succinocarboxamide)-5-aminoimidazole	cp
UDP-ACETYL-CARBOXYVINYL-GLUCOSAMINE	UDP-N-acetyl-&alpha;-D-glucosamine-enolpyruvate	cp
CL-	chloride	cp
VANILLATE	vanillate	c
CPD-17386	(2E,6Z,9Z,12Z,15Z,18Z,21Z)-tetracosaheptaenoyl-CoA	c
DCDP	dCDP	cp
PROPIONATE	propanoate	p
SUC	succinate	cp
CPD-17387	(3S)-hydroxy-(6Z,9Z,12Z,15Z,18Z,21Z)-tetracosahexaenoyl-CoA	p
SUC-COA	succinyl-CoA	cp
CARBON-DIOXIDE	CO2	cp
SUCC-S-ALD	succinate semialdehyde	cp
CPD-17388	3-oxo-(6Z,9Z,12Z,15Z,18Z,21Z)-tetracosahexaenoyl-CoA	c
DIHYDROXY-ACETONE-PHOSPHATE	glycerone phosphate	cp
L-1-PHOSPHATIDYL-ETHANOLAMINE	an L-1-phosphatidylethanolamine	p
4-CYTIDINE-5-DIPHOSPHO-2-C	4-(cytidine 5'-diphospho)-2-C-methyl-D-erythritol	cp
CMP	CMP	cp
Pyruvate-dehydrogenase-acetylDHlipoyl	a [pyruvate dehydrogenase E2 protein] N6-S-acetyldihydrolipoyl-L-lysine	c
L-1-PHOSPHATIDYL-GLYCEROL	an L-1-phosphatidyl-sn-glycerol	cp
4-FUMARYL-ACETOACETATE	4-fumaryl-acetoacetate	cp
L-1-PHOSPHATIDYL-GLYCEROL-P	1-(3-sn-phosphatidyl)-sn-glycerol 3-phosphate	cp
HYDROGEN-MOLECULE	H2	cp
CMP-KDO	CMP-3-deoxy-&beta;-D-manno-octulosonate	cp
Pyruvate-dehydrogenase-dihydrolipoate	a [pyruvate dehydrogenase E2 protein] N6-dihydrolipoyl-L-lysine	cp
S-ADENOSYLMETHIONINAMINE	S-adenosyl 3-(methylthio)propylamine	cp
L-1-PHOSPHATIDYL-SERINE	a 3-O-sn-phosphatidyl-L-serine	cp
Pyruvate-dehydrogenase-lipoate	a [pyruvate dehydrogenase E2 protein] N6-lipoyl-L-lysine	p
LIPID-IV-A	lipid IVA	cp
2-KETO-3-METHYL-VALERATE	(S)-3-methyl-2-oxopentanoate	cp
BCAA-dehydrogenase-DH-lipoyl	an [apo BCAA dehydrogenase E2 protein] N6-dihydrolipoyl-L-lysine	cp
S-ADENOSYLMETHIONINE	S-adenosyl-L-methionine	cp
L-3-HYDROXYACYL-COA	a (3S)-3-hydroxyacyl-CoA	p
QUEUINE	queuine	c
HYDROGEN-PEROXIDE	hydrogen peroxide	cp
L-5-Monosubstituted-Hydantoins	an L-5-monosubstituted hydantoin	cp
DEOXYADENOSINE	2'-deoxyadenosine	c
BCAA-dehydrogenase-lipoyl	an [apo BCAA dehydrogenase E2 protein] N6-lipoyl-L-lysine	cp
4-GUANIDO-BUTYRAMIDE	4-guanidinobutyramide	c
Fatty-Acids	a fatty acid	p
DCMP	dCMP	c
L-ALA-GAMMA-D-GLU-DAP	L-alanyl-&gamma;-D-glutamyl-meso-diaminopimelate	c
BCCP-L-lysine	a [biotin carboxyl-carrier protein]-L-lysine	c
ALA-tRNAs	a tRNAAla	c
NALPHANALPHA-DIMETHYL-L-HISTIDINE	N&alpha;,N&alpha;-dimethyl-L-histidine	cp
DCTP	dCTP	cp
L-ALPHA-ALANINE	L-alanine	cp
BCCP-biotin-L-lysine	a [biotin carboxyl-carrier protein]-biotin-N6-L-lysine	p
BENZIMIDAZOLE	benzimidazole	c
2-KETO-ISOVALERATE	3-methyl-2-oxobutanoate	cp
DEOXYCYTIDINE	2'-deoxycytidine	c
LIPOIC-ACID	(R)-lipoate	c
QUINOLINATE	quinolinate	cp
2-KETOGLUTARATE	2-oxoglutarate	cp
4-HYDROXY-2-KETOVALERATE	(S)-4-hydroxy-2-oxopentanoate	cp
ATP	ATP	cp
LIPOYL-AMP	lipoyl-adenylate	cp
4-HYDROXY-BUTYRATE	4-hydroxybutanoate	p
2-METHYL-3-HYDROXY-BUTYRYL-COA	(2S,3S)-3-hydroxy-2-methylbutanoyl-CoA	cp
4-HYDROXY-L-PROLINE	trans-4-hydroxy-L-proline	p
DEOXYGUANOSINE	2'-deoxyguanosine	p
HYDROXY-METHYL-BUTENYL-DIP	(E)-4-hydroxy-3-methylbut-2-en-1-yl diphosphate	cp
CPD-6442	methylsalicylate	c
ETR-Quinols	an electron-transfer quinol	cp
CPD-8130	hydroxyquinol	c
CPD-237	(indol-3-yl)acetamide	c
ETR-Quinones	an electron-transfer quinone	cp
PHENYLACETOTHIOHYDROXIMATE	(Z)-N-hydroxy-2-phenylacetimidothioate	cp
CPD0-181	N5-carboxyaminoimidazole ribonucleotide	c
CPD-8180	DNA with lesion	c
Peptide-3-hydroxy-L-Aspartates	a [protein]-3-hydroxy-L-aspartate	p
CPD-650	(3R)-3-hydroxybutanoyl-CoA	p
ACP	a holo-[acyl-carrier protein]	cp
Peptides-holder	a peptide	p
CPD-294	2-maleylacetate	cp
ACRYLAMIDE	acrylamide	c
CPD0-1905	8-oxo-dGTP	c
Persulfurated-L-cysteine-desulfurases	an S-sulfanyl-[L-cysteine desulfurase]	p
CPD0-1958	3-(N-morpholino)propanesulfonate	c
CPD-31	(R)-citramalate	cp
CPD-316	reduced riboflavin	p
CPD-8259	&beta;-D-ribosylnicotinate	p
CYCLOHEXANONE	cyclohexanone	c
Formyl-methanofurans	a formylmethanofuran	cp
CPD-8534	DNA without lesion	p
Elongation-tRNAMet	elongator tRNAMet	c
Phenols	a phenol	cp
CPD0-2015	N-acetyl-L-methionine	p
Phenyl-Acetates	a phenyl acetate	c
G3P	3-phospho-D-glycerate	cp
CPD-658	CDP-4-dehydro-6-deoxy-D-glucose	c
CPD-8579	a [histone] N6-methyl-L-lysine	p
GLUTAMATE-1-SEMIALDEHYDE	(S)-4-amino-5-oxopentanoate	cp
CPD-8624	a [protein]-L-proline (&omega; = 180)	cp
ACRYLATE	acrylate	p
CPD-320	ethylnitronate	c
CPD-8625	a [protein]-L-proline (&omega; = 0)	cp
CPD0-2030	glycerophosphoserine	c
CPD-66	2-hydroxy-3-oxosuccinate	cp
CPD-8742	(3E)-2-oxohex-3-enedioate	cp
CPD-663	UDP-4-dehydro-6-deoxy-&alpha;-D-glucose	cp
CYS	L-cysteine	cp
CPD-14931	a 10-formyltetrahydrofolate-4a-carbinolamine	p
CPD-15056	(2Z)-2-aminobut-2-enoate	cp
DIHYDROXY-BUTANONE-P	1-deoxy-L-glycero-tetrulose 4-phosphate	cp
UDP-GLUCURONATE	UDP-&alpha;-D-glucuronate	p
CPD-12760	(R)-4-phosphopantoate	c
S-ALLANTOIN	(S)-(+)-allantoin	c
CPD-15159	(6R)-6,7-dihydrobiopterin	p
MESO-DIAMINOPIMELATE	meso-diaminopimelate	cp
UDP-MURNAC-TETRAPEPTIDE	UDP-N-acetylmuramoyl-L-alanyl-&gamma;-D-glutamyl-meso-2,6-diaminopimeloyl-D-alanine	p
MESO-TARTRATE	meso-tartrate	cp
NIACINE	nicotinate	cp
CPD-12773	&alpha;-D-glucopyranosyl-diphosphoundecaprenol	p
ACRYLONITRILE	acrylonitrile	c
CPD-15182	cob(II)yrinate c-monoamide	cp
CPD-17621	16-hydroxypalmitoyl-CoA	p
NICOTINAMIDE_NUCLEOTIDE	&beta;-nicotinamide D-ribonucleotide	cp
HCO3	hydrogencarbonate	cp
3-Hydroxy-Terminated-DNAs	a [DNA]-3'-hydroxyl	c
MET	L-methionine	cp
S-Alkyl-L-Cysteines	an S-alkyl-L-cysteine	cp
UDP-N-ACETYL-D-GLUCOSAMINE	UDP-N-acetyl-&alpha;-D-glucosamine	cp
VERY-LONG-CHAIN-FATTY-ACYL-COA	a very long chain fatty acyl-CoA	p
CPD-15244	3-oxo-(5Z)-tetradecenoyl-CoA	c
CPD-17624	&omega;-carboxy-(9Z)-octadec-9-enoyl-CoA	p
3-Hydroxy-octanoyl-ACPs	a (3R)-3-hydroxyoctanoyl-[acp]	p
TETRACHLOROHYDROQUINONE	2,3,5,6-tetrachlorohydroquinone	c
S-CD-S-SP-Complex	an S-sulfanyl-[cysteine desulfurase]-S-sulfanyl-[disordered-form scaffold protein] complex	p
UDP-N-ACETYLMURAMATE	UDP-N-acetyl-&alpha;-D-muramate	cp
CPD-17635	(2R)-ethylmalonyl-CoA	p
CPD-15280	hercynine	p
3-Hydroxyglutaryl-ACP-methyl-ester	a (3R)-3-hydroxyglutaryl-[acp] methyl ester	p
NICOTINAMIDE_RIBOSE	1-(&beta;-D ribofuranosyl)nicotinamide	p
S-LACTOYL-GLUTATHIONE	(R)-S-lactoylglutathione	cp
CPD-13035	adenylyl molybdenum cofactor	p
CPD-17637	7-hydroxylaurate	c
Very-long-chain-fatty-acids	a very-long-chain fatty acid	c
CPD-13043	7-carboxy-7-deazaguanine	cp
CPD-15285	N&alpha;-methyl-L-histidine	cp
METHACRYLYL-COA	methylacrylyl-CoA	cp
ACYL-ACP	an acyl-[acyl-carrier protein]	cp
11Z-3-oxo-icos-11-enoyl-ACPs	an (11Z)-3-oxo-icos-11-enoyl-[acp]	cp
CPD-17638	7-hydroxylauroyl-CoA	p
ACYL-COA	an acyl-CoA	c
CPD-13171	15,9'-di-cis-phytofluene	cp
CPD-15301	caldariellaquinol	p
CPD-17640	18-hydroxystearate	c
BETAINE	glycine betaine	cp
CPD-19169	3-oxo-(9Z)-octadecenoyl-CoA	c
BETAINE_ALDEHYDE	betaine aldehyde	cp
Methylated-Ribosomal-Protein-L11s	a methylated ribosomal protein L11	p
CPD-19170	(2E,7Z)-hexadecenoyl-CoA	cp
PROPIONYL-COA	propanoyl-CoA	cp
CARBON-MONOXIDE	carbon monoxide	p
CPD-19171	(S)-3-hydroxy-(9Z)-octadecenoyl-CoA	p
Mnm5Se2U-containing-tRNAs	a 5-methylaminomethyl-2-selenouridine in tRNA	p
CPD-19172	(2E,9Z)-octadecenoyl-CoA	cp
PROT-CYS	a [protein]-L-cysteine	c
CPD-19202	L-4-hydroxyphenylglycine-L-arginyl-D-4-hydroxyphenylglycine-L-seryl-L 4-hydroxyphenylglycine	c
BIO-5-AMP	biotinyl-5'-adenylate	p
4-HYDROXYPHENYLACETATE	4-hydroxyphenylacetate	cp
CPD-19203	D-4-hydroxyphenylglycine-L-seryl-L 4-hydroxyphenylglycine	p
PROTEIN-L-BETA-ISOASPARTATES	a [protein]-L-&beta;-isoaspartate	c
PROTEIN-L-BETA-ISOSPARTATE-METHYL-ESTERS	a protein L-&beta;-isoaspartate &alpha;-methyl ester	p
PROTEIN-LIPOYLLYSINE	a [glycine-cleavage complex H protein] N6-lipoyl-L-lysine	cp
CPD-19205	L-4-hydroxyphenylglycine-L-arginine	p
BIOTIN	biotin	cp
NICOTINATE_NUCLEOTIDE	&beta;-nicotinate D-ribonucleotide	cp
Monocarboxylates	a monocarboxylate	p
CPD-19395	&gamma;-L-glutamyl-glycylglycine	p
3-KETO-ADIPATE	3-oxoadipate	cp
CPD0-2105	3-oxododecanoyl-CoA	cp
L-ARGININO-SUCCINATE	L-arginino-succinate	cp
CPD-10866	2-chlorophenol	c
HYDROXYATRAZINE	hydroxyatrazine	c
CPD0-2106	3-oxooctanoyl-CoA	cp
DEOXYINOSINE	2'-deoxyinosine	p
THF-GLU-N	a tetrahydrofolate	cp
GLYCYLGLYCINE	glycyl-glycine	c
HYDROXYMETHYLBILANE	preuroporphyrinogen	cp
L-ASPARTATE	L-aspartate	cp
16-HYDROXYPALMITATE	16-hydroxypalmitate	c
NITRITE	nitrite	p
THIAMINE-P	thiamine phosphate	c
CPD-10868	3-chlorophenol	c
5S-rRNAs	a 5S rRNA	p
THIAMINE-PYROPHOSPHATE	thiamine diphosphate	p
CPD0-2113	1-stearoyl-sn-glycerol 3-phosphate	p
L-ASPARTATE-SEMIALDEHYDE	L-aspartate-semialdehyde	cp
CARBOXYPHENYLAMINO-DEOXYRIBULOSE-P	1-(o-carboxyphenylamino)-1'-deoxyribulose 5'-phosphate	cp
DEOXYURIDINE	2'-deoxyuridine	p
P3I	PPPi	p
CPD0-2117	trans-hexadec-2-enoyl-CoA	c
HYDROXYMUCONATE-SALD	(2Z,4E)-2-hydroxy-6-oxohexa-2,4-dienoate	p
GLYOX	glyoxylate	cp
CPD-10870	4-chlorophenol	c
5Z-3-oxo-tetradec-5-enoyl-ACPs	a (5Z)-3-oxo-tetradec-5-enoyl-[acp]	cp
CPD0-2121	trans-hex-2-enoyl-CoA	p
3-KETO-ADIPYL-COA	3-oxoadipyl-CoA	cp
L-BETA-ASPARTYL-P	L-aspartyl-4-phosphate	cp
5Z-tetradec-5-enoyl-ACPs	a (5Z)-tetradec-5-enoyl-[acp]	c
CO-A	coenzyme A	cp
CPD-15317	D-ribofuranose 5-phosphate	p
CYS-GLY	L-cysteinyl-glycine	p
Phosphoglucomutase	a phosphoglucomutase	cp
CPD-15360	2-sulfanyl-N6-dimethylallyladenosine37 in tRNA	cp
Phosphoglucosamine-Mutase	a phosphoglucosamine mutase	cp
CPD-8781	2-hydroxy-5-methyl-6-oxohexa-2,4-dienoate	p
WATER	H2O	cp
CPD-17641	18-hydroxystearoyl-CoA	p
16S-rRNA-N2-methylguanine966	an N2-methylguanine966 in 16S rRNA	p
HEXANOYL-COA	hexanoyl-CoA	cp
236-TRICHLOROHYDROQUINONE	2,3,6-trichlorohydroquinone	c
CPD-667	O-acetyl-L-homoserine	cp
16S-rRNA-N4-methylcytidine1402	an N4-methylcytidine1402  in 16S rRNA	p
CPD-15436	(5Z)-tetradecenoyl-CoA	cp
CPD-8782	2-hydroxy-6-oxohepta-2,4-dienoate	p
Phospholipid-Cyclopropane-Fatty-Acids	a [phospholipid] cyclopropane fatty acid	p
CPD-17813	(2E,11Z)-hexadec-2,11-dienoyl-CoA	c
16S-rRNA-N7-methylguanine527	an N7-methylguanine527 in 16S rRNA	p
Phospholipid-Olefinic-Fatty-Acids	a [phospholipid] olefinic fatty acid	c
CPD-15539	phenyl 5-phospho-&alpha;-D-ribofuranoside	c
16S-rRNA-cytidine1402	a cytidine1402 in 16S rRNA	c
CPD-8879	acetylacetone	c
CPD-17814	(11Z)-(S)-3-hydroxyhexadec-11-enoyl-CoA	p
CYS-tRNAs	a tRNACys	cp
3-KETOACYL-COA	a 3-oxoacyl-CoA	cp
3-KETOBUTYRATE	acetoacetate	cp
16S-rRNA-guanine-527	a guanine527 in 16S rRNA	c
Phosphorylated-Phosphoglucosamine-Mutase	a phosphorylated phosphoglucosamine mutase	cp
CPD-9000	4-(&gamma;-L-glutamylamino)butanoate	c
Wound-RNA	wound RNA	c
16S-rRNA-guanine-966	a guanine966 in 16S rRNA	c
XANTHINE	xanthine	p
3-Ketoglutaryl-ACP-methyl-ester	a 3-oxo-glutaryl-[acp] methyl ester	cp
QXC-ACP	a quinoxaline-2-carboxyl-[acyl-carrier protein]	p
CPD-67	2-phosphoglycolate	c
FAD	FAD	cp
CPD-17927	a nascent peptidoglycan with (L-alanyl-&gamma;-D-glutamyl-meso-2,6-diaminopimeloyl-D-alanyl-D-alanine) pentapeptide	cp
16S-rRNA-pseudouridine516	a 16S rRNA pseudouridine516	p
3-Ketopimeloyl-ACP-methyl-esters	a 3-oxo-pimeloyl-[acp] methyl ester	cp
HIS	L-histidine	cp
CPD-15568	2E)-tetradec-2-enoyl-CoA	c
CPD-672	(S)-3-aminobutanoyl-CoA	cp
CPD-18	linoleoyl-CoA	p
16S-rRNA-uridine516	a uridine516 in 16S rRNA	c
HIS-tRNAs	a tRNAHis	c
ALLANTOATE	allantoate	cp
23S-rRNA-2-methyladenine2503	a 2-methyladenine2503 in 23S rRNA	p
CPD-9049	cobyrinate	c
Pi	phosphate	cp
FADH2	FADH2	cp
CPD-6746	1D-myo-inositol 2-monophosphate	c
CPD-15663	2-trans-nonenoyl-CoA	p
XANTHOSINE	xanthosine	p
CPD-18105	4-methylphenyl 5-phospho-&alpha;-D-ribofuranoside	c
Pimeloyl-ACPs	a pimeloyl-[acp]	c
23S-rRNA-adenine-2503	adenine2503 in 23S rRNA	c
XANTHOSINE-5-PHOSPHATE	XMP	cp
3-MERCAPTO-PYRUVATE	3-mercaptopyruvate	c
23S-rRNA-pseudouridine955-2504-2580	a pseudouridine955/2504/2580 in 23S rRNA	p
CPD-18118	D-arabinofuranose 5-phosphate	c
23S-rRNA-uridine955-2504-2580	uridine955/2504/2580 in 23S rRNA	c
CPD-15667	6-cis, 3-oxo-tridecenoyl-CoA	c
3-METHYL-CROTONYL-COA	3-methylcrotonyl-CoA	cp
CPD-9065	3-deacetyl-3-(1-hydroxyethyl)bacteriochlorophyllide a	c
R-2-Haloacids	an (R)-2-haloacid	c
R-2-Hydroxyacids	an (R)-2-hydroxyacid	p
18-HYDROXYOLEATE	18-hydroxyoleate	c
PHOSPHATIDYLCHOLINE	a phosphatidylcholine	p
CPD-678	hydrogen selenide	c
CPD-15668	4-cis-undecenoyl-CoA	p
CPD-9066	bacteriochlorophyllide a	p
Monocarboxylic-Acid-Amides	a monocarboxylic acid amide	c
5Z8Z11Z14Z17Z-EICOSAPENTAENOATE	icosapentaenoate	c
2-METHYL-ACETO-ACETYL-COA	2-methylacetoacetyl-CoA	cp
PROTOHEME	ferroheme b	cp
DIMETHYL-D-RIBITYL-LUMAZINE	6,7-dimethyl-8-(1-D-ribityl)lumazine	cp
LL-DIAMINOPIMELATE	L,L-diaminopimelate	cp
CPD-335	(R)-3-hydroxybutanoate	cp
ISOVALERATE	isovalerate	c
6-AMINOPENICILLANATE	6-aminopenicillanate	cp
CPD-3617	decanoate	c
DIMETHYLBENZIMIDAZOLE	5,6-dimethylbenzimidazole	c
TRP	L-tryptophan	cp
PALMITATE	palmitate	cp
ISOVALERYL-COA	isovaleryl-CoA	cp
Myristoyl-ACPs	a myristoyl-[acp]	c
CPD-19487	3-isopropyl-10-(methylthio)-2-oxodecanoate	cp
N-5-PHOSPHORIBOSYL-ANTHRANILATE	N-(5-phosphoribosyl)-anthranilate	cp
TRP-tRNAs	a tRNATrp	c
CPD-3618	2-oxovalerate	p
PALMITYL-COA	palmitoyl-CoA	p
CPD-19488	3-isopropyl-9-(methylthio)-2-oxononanoate	cp
N-ACETYL-D-GLUCOSAMINE	N-acetyl-&beta;-D-glucosamine	p
CPD-19489	3-isopropyl-8-(methylthio)-2-oxooctanoate	cp
N-ACETYL-D-GLUCOSAMINE-1-P	N-acetyl-&alpha;-D-glucosamine 1-phosphate	p
2-METHYL-BUTYRYL-COA	2-methylbutanoyl-CoA	p
CATECHOL	catechol	cp
CPD-19490	3-isopropyl-7-(methylthio)-2-oxoheptanoate	cp
LYS	L-lysine	cp
2-METHYLMALEATE	citraconate	cp
LYS-tRNAs	a tRNALys	c
CPD-19491	3-isopropyl-6-(methylthio)-2-oxohexanoate	cp
2-3-4-Saturated-L-Phosphatidates	a 1,2-diacyl-sn-glycerol 3-phosphate	c
ITP	ITP	cp
CPD-3734	thiophosphate	p
CPD-19492	3-ethyl-2-oxosuccinate	cp
CPD-19493	S-(mercaptomethyl)-L-cysteine	p
CPD-195	octanoate	c
N-ACETYL-GLUTAMYL-P	N-acetylglutamyl-phosphate	cp
6-Dimethylallyladenosine37-tRNAs	N6-dimethylallyladenosine37 in tRNA	cp
2-Me-Branched-234-Sat-FA	a 2-methyl branched 2,3,4-saturated fatty acid	c
CPD-3740	djenkolate	c
2-Me-Branched-234-Sat-Fatty-Acyl-CoA	a 2-methyl branched 2,3,4-saturated fatty acyl-CoA	p
CPD-3744	1-butanesulfonate	c
DITP	dITP	cp
Negatively-super-coiled-DNAs	a negatively supercoiled DNA	cp
Acceptor	an oxidized electron acceptor	cp
DEOXYXYLULOSE-5P	1-deoxy-D-xylulose 5-phosphate	cp
ACYL-SN-GLYCEROL-3P	a 1-acyl-sn-glycerol 3-phosphate	p
2-5-TRIPHOSPHORIBOSYL-3-DEPHOSPHO-	2'-(5''-triphospho-&alpha;-D-ribosyl)-3'-dephospho-CoA	p
6-PYRUVOYL-5678-TETRAHYDROPTERIN	(6R)-6-pyruvoyl-5,6,7,8-tetrahydropterin	p
DEPHOSPHO-COA	3'-dephospho-CoA	cp
CPD-110	salicylate	p
CPD-11020	5-chloro-4-hydroxy-2-oxopentanoate	p
Acetoacetyl-ACPs	an acetoacetyl-[acp]	cp
PANTETHEINE-P	4'-phosphopantetheine	c
CPD-111	3-methylcatechol	c
DETHIOBIOTIN	dethiobiotin	c
GAP	D-glyceraldehyde 3-phosphate	cp
Nitriles	a nitrile	c
7-8-DIHYDROPTEROATE	7,8-dihydropteroate	c
CPD-11281	S-sulfanylglutathione	c
CYTIDINE	cytidine	cp
SULFATE	sulfate	cp
Acetylxylan	acetylxylan	c
CPD-1130	3-ethylmalate	cp
