id	Common name	linked reactions
ASC73_04980	Unknown	3.1.26.12-RXN;RXN0-6478;RXN0-6485;RXN0-6521;RXN0-6522;RXN0-6523
ASC73_03225	Unknown	SUCCDIAMINOPIMDESUCC-RXN
ASC73_10770	Unknown	RXN-982
ASC73_15510	Unknown	CATAL-RXN;RXN-8667
ASC73_00440	Unknown	GSADENYLATION-RXN
ASC73_12915	Unknown	DIOHBUTANONEPSYN-RXN
ASC73_09960	Unknown	ACYLPHOSPHATASE-RXN
ASC73_03010	Unknown	RXN0-2001
ASC73_04490	Unknown	DIHYDROOROT-RXN
ASC73_03795	Unknown	CARBODEHYDRAT-RXN;RXN0-5224
ASC73_08955	Unknown	DNA-LIGASE-NAD+-RXN;RXN-17918;RXN-17919;RXN-17920
ASC73_07290	Unknown	5.99.1.3-RXN
ASC73_02215	Unknown	ACETYLORNTRANSAM-RXN;RXN-15007
ASC73_02605	Unknown	METHYLCROTONYL-COA-CARBOXYLASE-RXN
ASC73_19580	Unknown	3.3.2.8-RXN;RXN-9412;RXN-9413;RXN-9464
ASC73_16015	Unknown	RXN0-5510
ASC73_02245	Unknown	3.1.11.6-RXN
ASC73_03195	Unknown	ACYLCOADEHYDROG-RXN;RXN-17775;RXN-17779;RXN-17783;RXN-17784;RXN-17788;RXN-17792;RXN-17796
ASC73_09045	Unknown	UDP-NACMURALGLDAPAALIG-RXN
ASC73_01250	Unknown	RXN0-5422
ASC73_02945	Unknown	CARBPSYN-RXN;GLUTAMIN-RXN;RXN-13202;RXN-14196;RXN-16909;RXN-16910
ASC73_05530	Unknown	PRTRANS-RXN
ASC73_17330	Unknown	ACETYL-COA-ACETYLTRANSFER-RXN;METHYLACETOACETYLCOATHIOL-RXN;RXN-12561
ASC73_15610	Unknown	GSHTRAN-RXN;GST-RXN;RXN-11663;RXN-13673;RXN-15680;RXN-18405;RXN-18407;RXNQT-4363
ASC73_04515	Unknown	6.3.5.7-RXN
ASC73_13715	Unknown	CYSTATHIONINE-BETA-SYNTHASE-RXN;RXN-19038;RXN66-534;RXN66-562
ASC73_17150	Unknown	ACETOLACTREDUCTOISOM-RXN;ACETOOHBUTREDUCTOISOM-RXN
ASC73_20475	Unknown	2.7.13.3-RXN
ASC73_19410	Unknown	PROTEIN-KINASE-RXN
ASC73_00310	Unknown	PEPTIDYLPROLYL-ISOMERASE-RXN
ASC73_11775	Unknown	ACYLCOADEHYDROG-RXN;RXN-17775;RXN-17779;RXN-17783;RXN-17784;RXN-17788;RXN-17792;RXN-17796
ASC73_08260	Unknown	GLUTATHIONE-REDUCT-NADPH-RXN
ASC73_13460	Unknown	ATPPHOSPHORIBOSYLTRANS-RXN
ASC73_05020	Unknown	TYROSINE--TRNA-LIGASE-RXN
ASC73_19900	Unknown	GLYOXIII-RXN
ASC73_09445	Unknown	CARBODEHYDRAT-RXN;RXN0-5224
ASC73_08795	Unknown	3.4.11.5-RXN
ASC73_10240	Unknown	ACYLCOASYN-RXN;LINOLENOYL-RXN;R223-RXN;RXN-12184;RXN-12702;RXN-12746;RXN-12978;RXN-13290;RXN-13614;RXN-16380;RXN-16389;RXN-16393;RXN-16401;RXN-16402;RXN-16415;RXN-16418;RXN-7904;RXN-9623;RXN-9644;RXN-9673;RXN0-7238;RXN0-7239;RXN0-7248;RXN66-469;RXN66-477;RXN66-480;RXN66-483;RXN66-484;TRANS-RXN0-623
ASC73_00420	Unknown	ATPASE-RXN
ASC73_07830	Unknown	2.7.10.1-RXN
ASC73_07285	Unknown	PANTEPADENYLYLTRAN-RXN
ASC73_15295	Unknown	DNA-DIRECTED-DNA-POLYMERASE-RXN
ASC73_17595	Unknown	GLYOXIII-RXN
ASC73_19515	Unknown	3-ISOPROPYLMALISOM-RXN;R-2-METHYLMALATE-DEHYDRATASE-RXN;RXN-13163;RXN-7744;RXN-8991
ASC73_02270	Unknown	MYO-INOSITOL-1OR-4-MONOPHOSPHATASE-RXN;RXN-7253;RXN0-5408
ASC73_09080	Unknown	3-OXOACYL-ACP-REDUCT-RXN;RXN-10060;RXN-10655;RXN-10659;RXN-11476;RXN-11480;RXN-13008;RXN-16616;RXN-16622;RXN-16626;RXN-16630;RXN-9514;RXN-9518;RXN-9524;RXN-9528;RXN-9532;RXN-9536;RXN-9540;RXN-9552;RXN-9556;RXN-9633;RXN0-2142;RXN1G-157;RXN1G-349;RXN1G-469;RXN1G-508
ASC73_10510	Unknown	KETOACYLCOATHIOL-RXN;RXN-10699;RXN-10700;RXN-10701;RXN-11246;RXN-12565;RXN-12710;RXN-13617;RXN-14268;RXN-14274;RXN-14277;RXN-14394;RXN-14774;RXN-14788;RXN-14793;RXN-14799;RXN-14803;RXN-16137;RXN-17116;RXN-17778;RXN-17782;RXN-17787;RXN-17791;RXN-17795;RXN-17799;RXN-3641
ASC73_02345	Unknown	PHOSPHOGLUCMUT-RXN;RXN-16997;RXN-16998
ASC73_00595	Unknown	2.7.13.3-RXN
ASC73_04940	Unknown	3-DEHYDROQUINATE-DEHYDRATASE-RXN
ASC73_06720	Unknown	PEPTIDYLPROLYL-ISOMERASE-RXN
ASC73_06000	Unknown	RXN-18399;RXN-18428;RXN-18430
ASC73_07080	Unknown	3-CH3-2-OXOBUTANOATE-OH-CH3-XFER-RXN;RXN-15635
ASC73_15690	Unknown	2.5.1.19-RXN
ASC73_19350	Unknown	METHIONINE--TRNA-LIGASE-RXN;RXN-16165
ASC73_14070	Unknown	CARBOXYMETHYLENEBUTENOLIDASE-RXN;DIENELACHYDRO-RXN;RXN-9857;RXN-9868;RXN-9887;RXN-9890
ASC73_06380	Unknown	DTMPKI-RXN
ASC73_00855	Unknown	4.2.3.12-RXN
ASC73_10090	Unknown	PRODISULFREDUCT-RXN;RXN0-7271
ASC73_00865	Unknown	RXN-12093
ASC73_10330	Unknown	RXN-2043
ASC73_04820	Unknown	GDPPYPHOSKIN-RXN;GTPPYPHOSKIN-RXN
ASC73_02160	Unknown	KDOTRANS-RXN
ASC73_07700	Unknown	ACYLCOASYN-RXN;LINOLENOYL-RXN;R223-RXN;RXN-12184;RXN-12978;RXN-13290;RXN-13614;RXN-16380;RXN-16389;RXN-16393;RXN-16401;RXN-16402;RXN-16415;RXN-16418;RXN-7904;RXN-9623;RXN-9644;RXN-9673;RXN0-7238;RXN0-7239;RXN0-7248;RXN66-469;RXN66-477;RXN66-480;RXN66-483;RXN66-484;TRANS-RXN0-623
ASC73_12695	Unknown	RXN1A0-6303
ASC73_04270	Unknown	RXN-13039;RXN-17127;RXN-8654;RXN-8655;RXN0-1141;RXN0-5098
ASC73_19845	Unknown	1.8.1.4-RXN;2OXOGLUTARATEDEH-RXN;2OXOGLUTDECARB-RXN;RXN-7716;RXN-7719;RXN-8629;RXN0-1132;RXN0-1147
ASC73_19260	Unknown	GLYCEROL-KIN-RXN
ASC73_05795	Unknown	AIRS-RXN
ASC73_00630	Unknown	PROLINE--TRNA-LIGASE-RXN
ASC73_04885	Unknown	5.99.1.2-RXN
ASC73_03350	Unknown	ACYLCOADEHYDROG-RXN;RXN-17775;RXN-17779;RXN-17783;RXN-17784;RXN-17788;RXN-17792;RXN-17796
ASC73_19620	Unknown	GLUTRACE-RXN
ASC73_15135	Unknown	1.11.1.15-RXN;RXN0-5468
ASC73_04815	Unknown	DNA-DIRECTED-RNA-POLYMERASE-RXN
ASC73_05300	Unknown	1.6.99.5-RXN;NADH-DEHYDROGENASE-QUINONE-RXN
ASC73_04015	tuf	RXN0-5462
ASC73_05905	glyA	GLYOHMETRANS-RXN;RXN0-5234
ASC73_14855	Unknown	2.7.13.3-RXN
ASC73_04360	Unknown	ACYLCOASYN-RXN;LINOLENOYL-RXN;R223-RXN;RXN-12184;RXN-12702;RXN-12746;RXN-12978;RXN-13290;RXN-13614;RXN-16380;RXN-16389;RXN-16393;RXN-16401;RXN-16402;RXN-16415;RXN-16418;RXN-7904;RXN-9623;RXN-9644;RXN-9673;RXN0-7238;RXN0-7239;RXN0-7248;RXN66-469;RXN66-477;RXN66-480;RXN66-483;RXN66-484;TRANS-RXN0-623
ASC73_11720	Unknown	RXN0-4261
ASC73_05750	Unknown	2-OXOGLUTARATE-SYNTHASE-RXN
ASC73_14895	Unknown	GLUTATHIONE-SYN-RXN
ASC73_08185	Unknown	3.1.11.2-RXN
ASC73_17220	Unknown	3.1.1.64-RXN;CARBOXYLESTERASE-RXN;RETINYL-PALMITATE-ESTERASE-RXN;RXN-10711;RXN-10767;RXN-12252;RXN-12575;RXNQT-4366
ASC73_06855	Unknown	RXN-17155
ASC73_11905	Unknown	DMBPPRIBOSYLTRANS-RXN;RXN-19295;RXN-19298;RXN-19299;RXN-19300;RXN-19301;RXN-19306
ASC73_15820	Unknown	R601-RXN;RXN-14963
ASC73_18475	Unknown	GSHTRAN-RXN;GST-RXN;RXN-11663;RXN-13673;RXN-15680;RXN-18405;RXN-18407;RXNQT-4363
ASC73_05110	glnA	GLUTAMINESYN-RXN
ASC73_16940	Unknown	UDPNACETYLGLUCOSAMENOLPYRTRANS-RXN
ASC73_14005	Unknown	P-PANTOCYSDECARB-RXN;P-PANTOCYSLIG-RXN;RXN-11781
ASC73_01925	Unknown	THRESYN-RXN
ASC73_05420	Unknown	DNA-DIRECTED-DNA-POLYMERASE-RXN
ASC73_14365	Unknown	NQOR-RXN
ASC73_05260	Unknown	DCMP-DEAMINASE-RXN
ASC73_03345	Unknown	GSHTRAN-RXN;GST-RXN;RXN-11663;RXN-13673;RXN-15680;RXN-18405;RXN-18407;RXNQT-4363
ASC73_00825	Unknown	GLUCONOKIN-RXN
ASC73_13825	Unknown	ADENOSYLHOMOCYSTEINASE-RXN
ASC73_06135	Unknown	KDO-8PSYNTH-RXN
ASC73_16605	Unknown	ORNITHINE-CYCLODEAMINASE-RXN
ASC73_09985	Unknown	ARYLSULFAT-RXN
ASC73_07165	Unknown	EXOPOLYPHOSPHATASE-RXN
ASC73_09110	Unknown	GLYOXIII-RXN
ASC73_06160	Unknown	RXN0-4261
ASC73_13505	Unknown	R4-RXN
ASC73_07280	Unknown	PEPTIDYLPROLYL-ISOMERASE-RXN
ASC73_04255	Unknown	1.8.4.12-RXN
ASC73_01770	Unknown	HOMOSERKIN-RXN
ASC73_06030	Unknown	1.8.4.12-RXN
ASC73_11940	Unknown	4.1.1.81-RXN
ASC73_03055	Unknown	HISTCYCLOHYD-RXN
ASC73_14495	Unknown	PRIBFAICARPISOM-RXN
ASC73_14745	Unknown	RXN-14014
ASC73_10870	Unknown	RXN0-882
ASC73_17970	Unknown	GALPMUT-RXN
ASC73_17745	Unknown	KANAMYCIN-KINASE-RXN
ASC73_13475	Unknown	GSHTRAN-RXN;GST-RXN;RXN-11663;RXN-13673;RXN-15680;RXN-18405;RXN-18407;RXNQT-4363
ASC73_12420	Unknown	2.3.1.179-RXN;2.3.1.41-RXN;3-OXOACYL-ACP-SYNTH-BASE-RXN;3-OXOACYL-ACP-SYNTH-RXN;RXN-10654;RXN-10658;RXN-11474;RXN-11479;RXN-16615;RXN-16621;RXN-16625;RXN-16629;RXN-8391;RXN-9516;RXN-9523;RXN-9527;RXN-9531;RXN-9535;RXN-9539;RXN0-2141;RXN1G-460;RXN3O-1803
ASC73_16250	Unknown	3.1.1.64-RXN;CARBOXYLESTERASE-RXN;RETINYL-PALMITATE-ESTERASE-RXN;RXN-10711;RXN-10767;RXN-12252;RXN-12575;RXNQT-4366
ASC73_05955	Unknown	1.10.2.2-RXN;RXN-15829
ASC73_15285	Unknown	RXN0-5100
ASC73_09430	Unknown	SELENOCYSTEINE-LYASE-RXN
ASC73_18755	Unknown	3.5.1.80-RXN;NAG6PDEACET-RXN
ASC73_16930	Unknown	RXN-10001
ASC73_03025	Unknown	THREONINE--TRNA-LIGASE-RXN
ASC73_05490	Unknown	LIPIDXSYNTHESIS-RXN
ASC73_13140	Unknown	CPM-KDOSYNTH-RXN
ASC73_15505	Unknown	GSHTRAN-RXN;GST-RXN;RXN-11663;RXN-13673;RXN-15680;RXN-18405;RXN-18407;RXNQT-4363
ASC73_15130	Unknown	ACYLCOADEHYDROG-RXN;RXN-17775;RXN-17779;RXN-17783;RXN-17784;RXN-17788;RXN-17792;RXN-17796
ASC73_10815	Unknown	ASPARTATEKIN-RXN
ASC73_15280	Unknown	5.99.1.3-RXN
ASC73_05935	Unknown	THI-P-KIN-RXN
ASC73_06385	Unknown	DNA-DIRECTED-DNA-POLYMERASE-RXN
ASC73_10435	Unknown	DNA-DIRECTED-DNA-POLYMERASE-RXN;RXN0-4961
ASC73_01275	Unknown	7KAPSYN-RXN;RXN-11484
ASC73_18670	Unknown	DEOXYRIBODIPYRIMIDINE-PHOTOLYASE-RXN;RXN-19025;RXN-19026;RXN-19242;RXN-19243;RXN-19244;RXN-19245;RXN-19246;RXN-19247;RXN-19248
ASC73_05315	Unknown	1.6.99.5-RXN;NADH-DEHYDROGENASE-QUINONE-RXN
ASC73_06450	Unknown	2-OCTAPRENYL-6-OHPHENOL-METHY-RXN;DHHB-METHYLTRANSFER-RXN
ASC73_12685	Unknown	IMIDAZOLONEPROPIONASE-RXN
ASC73_02700	Unknown	GLYOXI-RXN
ASC73_05495	Unknown	LIPIDADISACCHARIDESYNTH-RXN
ASC73_15460	Unknown	DTDPDEHYDRHAMEPIM-RXN
ASC73_03255	Unknown	RXN0-5100
ASC73_10145	Unknown	ALANINE--TRNA-LIGASE-RXN
ASC73_15785	Unknown	1.2.1.27-RXN;RXN-11213;RXN-2902
ASC73_12085	Unknown	2.7.7.33-RXN
ASC73_03595	gapA	GAPOXNPHOSPHN-RXN
ASC73_04810	Unknown	2-HALOACID-DEHALOGENASE-RXN;3.8.1.11-RXN;RXN-6263;RXN-6264
ASC73_17045	Unknown	RXN0-2621
ASC73_16855	Unknown	2-HALOACID-DEHALOGENASE-RXN;3.8.1.11-RXN;RXN-6263;RXN-6264
ASC73_20020	Unknown	DNA-DIRECTED-DNA-POLYMERASE-RXN;RXN0-4961
ASC73_05830	Unknown	POLYPHOSPHATE-KINASE-RXN
ASC73_19645	Unknown	R4-RXN
ASC73_15355	Unknown	RXN0-4361
ASC73_08170	Unknown	DGTPTRIPHYDRO-RXN
ASC73_19965	Unknown	2.7.13.3-RXN
ASC73_08910	Unknown	RXN-11135
ASC73_03960	Unknown	3.4.13.9-RXN
ASC73_04005	Unknown	ACYLCOADEHYDROG-RXN;RXN-17775;RXN-17779;RXN-17783;RXN-17784;RXN-17788;RXN-17792;RXN-17796
ASC73_14205	Unknown	2-HALOACID-DEHALOGENASE-RXN
ASC73_13555	Unknown	AGMATINE-DEIMINASE-RXN
ASC73_14380	Unknown	PROTOHEMEFERROCHELAT-RXN
ASC73_06020	Unknown	N-ACETYLGLUTPREDUCT-RXN;RXN-15006
ASC73_12035	Unknown	ATPASE-RXN
ASC73_06130	Unknown	2.1.1.79-RXN;RXN-7421;RXN1G-2544;RXN1G-3641
ASC73_01765	ispH	ISPH2-RXN;RXN0-884
ASC73_06850	Unknown	2.3.1.179-RXN;2.3.1.41-RXN;3-OXOACYL-ACP-SYNTH-BASE-RXN;3-OXOACYL-ACP-SYNTH-RXN;RXN-10654;RXN-10658;RXN-11474;RXN-11479;RXN-16615;RXN-16621;RXN-16625;RXN-16629;RXN-8391;RXN-9516;RXN-9523;RXN-9527;RXN-9531;RXN-9535;RXN-9539;RXN0-2141;RXN1G-460;RXN3O-1803
ASC73_19670	Unknown	RXN0-1001
ASC73_08600	Unknown	1.8.4.8-RXN
ASC73_12825	purE	RXN0-743
ASC73_06335	Unknown	ACYLCOADEHYDROG-RXN;RXN-17775;RXN-17779;RXN-17783;RXN-17784;RXN-17788;RXN-17792;RXN-17796
ASC73_13645	Unknown	ACETYL-COA-ACETYLTRANSFER-RXN;METHYLACETOACETYLCOATHIOL-RXN;RXN-12561
ASC73_05845	Unknown	ARGINYLTRANSFERASE-RXN;RXN-17888;RXN-17889;RXN-17890;RXN-17891
ASC73_01635	Unknown	RXN0-5061
ASC73_05615	Unknown	1.8.1.4-RXN;2OXOGLUTARATEDEH-RXN;2OXOGLUTDECARB-RXN;RXN-7716;RXN-7719;RXN-8629;RXN0-1132;RXN0-1147
ASC73_06145	Unknown	5.1.3.20-RXN
ASC73_08655	Unknown	MALIC-NADP-RXN;OXALODECARB-RXN
ASC73_07945	Unknown	NAD-SYNTH-GLN-RXN;NAD-SYNTH-NH3-RXN
ASC73_15695	Unknown	RXN-11832;RXN-12002;RXN-7913
ASC73_02190	Unknown	DCTP-DEAM-RXN;RXN-14118
ASC73_13190	Unknown	THIOREDOXIN-REDUCT-NADPH-RXN
ASC73_07985	Unknown	RIBOFLAVIN-SYN-RXN
ASC73_04855	Unknown	HOLO-ACP-SYNTH-RXN
ASC73_10975	Unknown	PRODISULFREDUCT-RXN;RXN0-7271
ASC73_19065	Unknown	RXN1A0-6303
ASC73_19910	Unknown	AMIDASE-RXN;GUANIDINOBUTANAMIDE-NH3-RXN;PYRAZIN-RXN;R311-RXN;RXN-14727;RXN-14728;RXN-17608;RXNN-404
ASC73_02370	Unknown	ADDALT-RXN;ADENODEAMIN-RXN
ASC73_15540	Unknown	CITSYN-RXN
ASC73_13595	Unknown	RXN-527;RXN1F-93
ASC73_05120	Unknown	ACETYL-COA-ACETYLTRANSFER-RXN;METHYLACETOACETYLCOATHIOL-RXN;RXN-12561
ASC73_11500	Unknown	MALSYN-RXN
ASC73_03440	Unknown	RXN-17362
ASC73_09815	Unknown	AICARSYN-RXN;AMPSYN-RXN
ASC73_11115	Unknown	RXN-12134;RXN-12140;RXN-12141;RXN-12142
ASC73_06585	Unknown	GSAAMINOTRANS-RXN
ASC73_11260	Unknown	ACYLCOADEHYDROG-RXN;RXN-17775;RXN-17779;RXN-17783;RXN-17784;RXN-17788;RXN-17792;RXN-17796
ASC73_02585	Unknown	RXN-17884;RXN-2962
ASC73_00115	Unknown	1.3.1.62-RXN
ASC73_06055	Unknown	HOMOSERDEHYDROG-RXN
ASC73_15810	Unknown	RXN-14971;RXN-15378;SUCCINATE-DEHYDROGENASE-UBIQUINONE-RXN
ASC73_18710	Unknown	2.6.1.57-RXN;PHEAMINOTRANS-RXN;RXN-14147;RXN-15200;TRYPTOPHAN-AMINOTRANSFERASE-RXN;TYROSINE-AMINOTRANSFERASE-RXN
ASC73_10810	Unknown	2-OCTAPRENYL-6-OHPHENOL-METHY-RXN;DHHB-METHYLTRANSFER-RXN
ASC73_14050	Unknown	2.7.7.8-RXN
ASC73_08995	Unknown	DALADALALIG-RXN
ASC73_18725	Unknown	FUMARYLACETOACETASE-RXN
ASC73_05105	Unknown	5.99.1.2-RXN
ASC73_11315	Unknown	LYSOPHOSPHOLIPASE-RXN;RXN-15035;RXN-19312
ASC73_02425	Unknown	HOMSUCTRAN-RXN
ASC73_07115	Unknown	ALARACECAT-RXN
ASC73_06220	Unknown	PMPOXI-RXN;PNPOXI-RXN
ASC73_19440	Unknown	ASPARTATE-SEMIALDEHYDE-DEHYDROGENASE-RXN
ASC73_17780	Unknown	3.4.15.6-RXN
ASC73_13575	Unknown	RXNI-2
ASC73_03580	Unknown	1TRANSKETO-RXN;2TRANSKETO-RXN
ASC73_04225	Unknown	ATPASE-RXN
ASC73_09050	Unknown	UDP-NACMURALGLDAPLIG-RXN
ASC73_15730	Unknown	ACETYL-COA-CARBOXYLTRANSFER-RXN;RXN0-5055
ASC73_09965	Unknown	ACID-PHOSPHATASE-RXN;RXN-5822
ASC73_00975	Unknown	PHOSPHAGLYPSYN-RXN
ASC73_20345	Unknown	FMNREDUCT-RXN;NADPH-DEHYDROGENASE-FLAVIN-RXN;RXN-12444
ASC73_18545	Unknown	METHYLMALONYL-COA-MUT-RXN
ASC73_08025	Unknown	1.14.11.2-RXN
ASC73_15735	Unknown	DIHYDROFOLATESYNTH-RXN;FOLYLPOLYGLUTAMATESYNTH-RXN;FORMYLTHFGLUSYNTH-RXN;RXN-6341;RXN0-2921
ASC73_12575	Unknown	DIHYDROXYISOVALDEHYDRAT-RXN;DIHYDROXYMETVALDEHYDRAT-RXN
ASC73_11625	Unknown	2.7.13.3-RXN
ASC73_07815	Unknown	RXN-8665
ASC73_14630	Unknown	2-OCTAPRENYL-6-METHOXYPHENOL-HYDROX-RXN
ASC73_10900	Unknown	RXN-8351
ASC73_20405	Unknown	RXN-2841
ASC73_14360	Unknown	CARBOXYMETHYLENEBUTENOLIDASE-RXN;DIENELACHYDRO-RXN;RXN-9857;RXN-9868;RXN-9887;RXN-9890
ASC73_18390	Unknown	RXN1A0-6303
ASC73_09475	Unknown	SERINE-O-ACETTRAN-RXN
ASC73_05600	Unknown	RXN-12508;RXN-12583;RXN0-1134
ASC73_07010	Unknown	RXN0-4261
ASC73_02165	Unknown	TETRAACYLDISACC4KIN-RXN
ASC73_01895	Unknown	ACYLCOADEHYDROG-RXN;RXN-17775;RXN-17779;RXN-17783;RXN-17784;RXN-17788;RXN-17792;RXN-17796
ASC73_04875	Unknown	RXN0-5462
ASC73_05085	Unknown	ENOYL-COA-HYDRAT-RXN;METHYLACYLYLCOA-HYDROXY-RXN;RXN-10697;RXN-10704;RXN-10705;RXN-11244;RXN-12567;RXN-13616;RXN-14266;RXN-14272;RXN-14273;RXN-16135;RXN-16558;RXN-17114;RXN-17475;RXN-17776;RXN-17780;RXN-17785;RXN-17789;RXN-17793;RXN-17797;RXN-2425;RXN0-5393;TIGLYLCOA-HYDROXY-RXN
ASC73_06060	glpX	F16BDEPHOS-RXN
ASC73_12930	Unknown	ACYLCOADEHYDROG-RXN;RXN-17775;RXN-17779;RXN-17783;RXN-17784;RXN-17788;RXN-17792;RXN-17796
ASC73_03480	Unknown	RXN0-6515
ASC73_08565	Unknown	GSHTRAN-RXN;GST-RXN;RXN-11663;RXN-13673;RXN-15680;RXN-18405;RXN-18407;RXNQT-4363
ASC73_18880	Unknown	3.2.2.15-RXN
ASC73_16110	Unknown	ALANINE-DEHYDROGENASE-RXN
ASC73_13850	Unknown	RXN-9998
ASC73_15415	Unknown	4-CARBOXYMUCONOLACTONE-DECARBOXYLASE-RXN
ASC73_00990	Unknown	ACYLCOASYN-RXN;LINOLENOYL-RXN;R223-RXN;RXN-12184;RXN-12978;RXN-13290;RXN-13614;RXN-16380;RXN-16389;RXN-16393;RXN-16401;RXN-16402;RXN-16415;RXN-16418;RXN-7904;RXN-9623;RXN-9644;RXN-9673;RXN0-7238;RXN0-7239;RXN0-7248;RXN66-469;RXN66-477;RXN66-480;RXN66-483;RXN66-484;TRANS-RXN0-623
ASC73_13925	Unknown	DNA-DIRECTED-DNA-POLYMERASE-RXN
ASC73_08505	Unknown	ATPASE-RXN
ASC73_15385	Unknown	RXN-15122;THREDEHYD-RXN
ASC73_04685	Unknown	2.7.13.3-RXN
ASC73_08455	Unknown	KETOACYLCOATHIOL-RXN
ASC73_15535	Unknown	ENOYL-COA-HYDRAT-RXN;METHYLACYLYLCOA-HYDROXY-RXN;RXN-10697;RXN-10704;RXN-10705;RXN-11244;RXN-12567;RXN-13616;RXN-14266;RXN-14272;RXN-14273;RXN-16135;RXN-16558;RXN-17114;RXN-17475;RXN-17776;RXN-17780;RXN-17785;RXN-17789;RXN-17793;RXN-17797;RXN-2425;RXN0-5393;TIGLYLCOA-HYDROXY-RXN
ASC73_15530	Unknown	2.7.13.3-RXN
ASC73_02175	Unknown	KANAMYCIN-KINASE-RXN
ASC73_08395	Unknown	2-NITROPROPANE-DIOXYGENASE-RXN
ASC73_00610	Unknown	ENOYL-COA-HYDRAT-RXN;METHYLACYLYLCOA-HYDROXY-RXN;RXN-10697;RXN-10704;RXN-10705;RXN-11244;RXN-12567;RXN-13616;RXN-14266;RXN-14272;RXN-14273;RXN-16135;RXN-16558;RXN-17114;RXN-17475;RXN-17776;RXN-17780;RXN-17785;RXN-17789;RXN-17793;RXN-17797;RXN-2425;RXN0-5393;TIGLYLCOA-HYDROXY-RXN
ASC73_11630	Unknown	GUANPRIBOSYLTRAN-RXN;HYPOXANPRIBOSYLTRAN-RXN
ASC73_15390	Unknown	PEPTIDYLPROLYL-ISOMERASE-RXN
ASC73_04695	Unknown	GLYOXIII-RXN
ASC73_14530	Unknown	4.2.99.18-RXN
ASC73_13390	Unknown	GSHTRAN-RXN;GST-RXN;RXN-11663;RXN-13673;RXN-15680;RXN-18405;RXN-18407;RXNQT-4363
ASC73_16595	Unknown	ORNITHINE-CYCLODEAMINASE-RXN
ASC73_04350	Unknown	GLYCPDIESTER-RXN;RXN-14073;RXN-14136;RXN-14160
ASC73_07745	Unknown	ACYLCOADEHYDROG-RXN;RXN-17775;RXN-17779;RXN-17783;RXN-17784;RXN-17788;RXN-17792;RXN-17796
ASC73_01435	Unknown	CARBOXYMETHYLENEBUTENOLIDASE-RXN;DIENELACHYDRO-RXN;RXN-9857;RXN-9868;RXN-9887;RXN-9890
ASC73_02380	Unknown	L-GLN-FRUCT-6-P-AMINOTRANS-RXN
ASC73_03850	Unknown	2.7.13.3-RXN
ASC73_03750	Unknown	ENOYL-COA-HYDRAT-RXN;METHYLACYLYLCOA-HYDROXY-RXN;RXN-10697;RXN-10704;RXN-10705;RXN-11244;RXN-12567;RXN-13616;RXN-14266;RXN-14272;RXN-14273;RXN-16135;RXN-16558;RXN-17114;RXN-17475;RXN-17776;RXN-17780;RXN-17785;RXN-17789;RXN-17793;RXN-17797;RXN-2425;RXN0-5393;TIGLYLCOA-HYDROXY-RXN
ASC73_11790	Unknown	ACYLCOADEHYDROG-RXN;RXN-17775;RXN-17779;RXN-17783;RXN-17784;RXN-17788;RXN-17792;RXN-17796
ASC73_13470	Unknown	HISTIDINE--TRNA-LIGASE-RXN
ASC73_07705	Unknown	VALINE--TRNA-LIGASE-RXN
ASC73_16660	Unknown	ARYLSULFAT-RXN
ASC73_01420	Unknown	AMINOCYL-TRNA-HYDROLASE-RXN;RXN-16637
ASC73_14835	Unknown	RXN-11586
ASC73_16060	obgE	RXN0-5462
ASC73_02530	Unknown	RXN-8668
ASC73_20140	Unknown	ACETYL-COA-ACETYLTRANSFER-RXN;METHYLACETOACETYLCOATHIOL-RXN;RXN-12561
ASC73_04930	Unknown	BIOTIN-CARBOXYL-RXN
ASC73_17580	Unknown	CATAL-RXN;RXN-8667
ASC73_05875	Unknown	ACYLCOADEHYDROG-RXN;RXN-17775;RXN-17779;RXN-17783;RXN-17784;RXN-17788;RXN-17792;RXN-17796
ASC73_13830	Unknown	PNKIN-RXN;PYRAMKIN-RXN;PYRIDOXKIN-RXN
ASC73_02195	Unknown	RXN-9384
ASC73_03745	Unknown	FMNREDUCT-RXN;NADPH-DEHYDROGENASE-FLAVIN-RXN;RXN-12444
ASC73_06725	Unknown	RXN-13179
ASC73_07250	Unknown	RXN0-1342
ASC73_13320	Unknown	ALANINE--GLYOXYLATE-AMINOTRANSFERASE-RXN
ASC73_02375	Unknown	5.4.2.10-RXN;RXN-16424;RXN0-7139
ASC73_00615	Unknown	ACYLCOASYN-RXN;LINOLENOYL-RXN;R223-RXN;RXN-12184;RXN-12702;RXN-12746;RXN-12978;RXN-13290;RXN-13614;RXN-16380;RXN-16389;RXN-16393;RXN-16401;RXN-16402;RXN-16415;RXN-16418;RXN-7904;RXN-9623;RXN-9644;RXN-9673;RXN0-7238;RXN0-7239;RXN0-7248;RXN66-469;RXN66-477;RXN66-480;RXN66-483;RXN66-484;TRANS-RXN0-623
ASC73_15715	Unknown	PRAISOM-RXN
ASC73_05380	Unknown	6.3.4.10-RXN;6.3.4.11-RXN;6.3.4.9-RXN;BIOTINLIG-RXN
ASC73_10485	Unknown	LYSOPHOSPHOLIPASE-RXN;RXN-15035;RXN-19312
ASC73_09665	Unknown	3.4.11.18-RXN;RXN-17873;RXN-17874;RXN-17875;RXN-17876;RXN-17877;RXN-17878
ASC73_16715	Unknown	1.5.1.9-RXN
ASC73_00585	Unknown	2.7.13.3-RXN
ASC73_13865	Unknown	2-HALOACID-DEHALOGENASE-RXN;3.8.1.11-RXN;RXN-6263;RXN-6264
ASC73_07110	Unknown	RXN-15849;RXN-7563
ASC73_03200	Unknown	ACETYLGLUTKIN-RXN;RXN-15005
ASC73_10385	Unknown	FPPSYN-RXN;GPPSYN-RXN
ASC73_11045	Unknown	ACETYL-COA-ACETYLTRANSFER-RXN;METHYLACETOACETYLCOATHIOL-RXN;RXN-12561
ASC73_02085	Unknown	GAMMA-GLUTAMYLTRANSFERASE-RXN;RXN-18092;RXN-6601;RXN-9157;RXN66-336
ASC73_05560	Unknown	GLYOXI-RXN
ASC73_00395	Unknown	ACYLCOADEHYDROG-RXN;RXN-17775;RXN-17779;RXN-17783;RXN-17784;RXN-17788;RXN-17792;RXN-17796
ASC73_07490	Unknown	RXN3O-218
ASC73_02600	Unknown	METHYLCROTONYL-COA-CARBOXYLASE-RXN
ASC73_14735	Unknown	OROTPDECARB-RXN
ASC73_00220	Unknown	GLYOXIII-RXN
ASC73_14575	Unknown	RXN-9655
ASC73_03405	Unknown	3-HYDROXYBUTYRYL-COA-DEHYDROGENASE-RXN
ASC73_14275	Unknown	3.1.11.2-RXN
ASC73_18650	Unknown	IMIDAZOLONEPROPIONASE-RXN
ASC73_05925	Unknown	LUMAZINESYN-RXN
ASC73_07905	Unknown	GLYOXIII-RXN
ASC73_05000	Unknown	R229-RXN
ASC73_03865	Unknown	SUPEROX-DISMUT-RXN
ASC73_01825	Unknown	KDUD-RXN
ASC73_17590	Unknown	PMPOXI-RXN;PNPOXI-RXN
ASC73_12310	Unknown	GAMMA-GLUTAMYLTRANSFERASE-RXN;RXN-18092;RXN-6601;RXN-9157;RXN66-336
ASC73_06830	Unknown	GUANYL-KIN-RXN
ASC73_05800	Unknown	3.1.13.5-RXN;RXN0-6483;RXN0-6484
ASC73_09845	Unknown	ACETYL-COA-ACETYLTRANSFER-RXN;METHYLACETOACETYLCOATHIOL-RXN;RXN-12561
ASC73_16050	Unknown	GLUTSEMIALDEHYDROG-RXN
ASC73_01405	Unknown	PRPPSYN-RXN
ASC73_03375	Unknown	BTUR2-RXN;COBALADENOSYLTRANS-RXN;R344-RXN
ASC73_19985	Unknown	PGLYCDEHYDROG-RXN
ASC73_20120	Unknown	ACYLCOADEHYDROG-RXN;RXN-17775;RXN-17779;RXN-17783;RXN-17784;RXN-17788;RXN-17792;RXN-17796
ASC73_13550	Unknown	N-CARBAMOYLPUTRESCINE-AMIDASE-RXN
ASC73_10535	Unknown	GSHTRAN-RXN;GST-RXN;RXN-11663;RXN-13673;RXN-15680;RXN-18405;RXN-18407;RXNQT-4363
ASC73_16270	Unknown	ACETYL-COA-ACETYLTRANSFER-RXN;METHYLACETOACETYLCOATHIOL-RXN;RXN-12561
ASC73_01170	Unknown	ASPARAGHYD-RXN
ASC73_07820	Unknown	3-HYDROXY-KYNURENINASE-RXN;KYNURENINASE-RXN
ASC73_06995	Unknown	RXN1F-20
ASC73_08460	Unknown	R223-RXN
ASC73_18550	Unknown	METHYLMALONYL-COA-MUT-RXN
ASC73_09040	mraY	PHOSNACMURPENTATRANS-RXN;RXN-11347;RXN-8975
ASC73_05865	Unknown	PORPHOBILSYNTH-RXN
ASC73_08265	Unknown	RIB5PISOM-RXN
ASC73_09440	Unknown	ENOYL-COA-HYDRAT-RXN;METHYLACYLYLCOA-HYDROXY-RXN;RXN-10697;RXN-10704;RXN-10705;RXN-11244;RXN-12567;RXN-13616;RXN-14266;RXN-14272;RXN-14273;RXN-16135;RXN-16558;RXN-17114;RXN-17475;RXN-17776;RXN-17780;RXN-17785;RXN-17789;RXN-17793;RXN-17797;RXN-2425;RXN0-5393;TIGLYLCOA-HYDROXY-RXN
ASC73_12460	Unknown	2.1.1.79-RXN;RXN-7421;RXN1G-2544;RXN1G-3641
ASC73_06300	Unknown	CYTOCHROME-C-OXIDASE-RXN;RXN-15830
ASC73_08775	lldD	L-LACTATE-DEHYDROGENASE-CYTOCHROME-RXN
ASC73_15205	Unknown	RXN-10002
ASC73_10645	Unknown	ACETOLACTSYN-RXN;ACETOOHBUTSYN-RXN
ASC73_04380	Unknown	DNA-DIRECTED-DNA-POLYMERASE-RXN
ASC73_02180	Unknown	GLYRIBONUCSYN-RXN
ASC73_12470	Unknown	ACYLCOASYN-RXN;LINOLENOYL-RXN;R223-RXN;RXN-12184;RXN-12702;RXN-12746;RXN-12978;RXN-13290;RXN-13614;RXN-16380;RXN-16389;RXN-16393;RXN-16401;RXN-16402;RXN-16415;RXN-16418;RXN-7904;RXN-9623;RXN-9644;RXN-9673;RXN0-7238;RXN0-7239;RXN0-7248;RXN66-469;RXN66-477;RXN66-480;RXN66-483;RXN66-484;TRANS-RXN0-623
ASC73_08550	Unknown	METHENYLTHFCYCLOHYDRO-RXN;METHYLENETHFDEHYDROG-NADP-RXN
ASC73_13635	Unknown	3-OXOACYL-ACP-REDUCT-RXN;RXN-10060;RXN-10655;RXN-10659;RXN-11476;RXN-11480;RXN-13008;RXN-16616;RXN-16622;RXN-16626;RXN-16630;RXN-9514;RXN-9518;RXN-9524;RXN-9528;RXN-9532;RXN-9536;RXN-9540;RXN-9552;RXN-9556;RXN-9633;RXN0-2142;RXN1G-157;RXN1G-349;RXN1G-469;RXN1G-508
ASC73_06865	Unknown	MALONYL-COA-ACP-TRANSACYL-RXN
ASC73_05945	hppA	INORGPYROPHOSPHAT-RXN
ASC73_08275	Unknown	GPH-RXN
ASC73_11085	Unknown	2-ISOPROPYLMALATESYN-RXN
ASC73_06845	Unknown	ADCLY-RXN
ASC73_02715	Unknown	2-NITROPROPANE-DIOXYGENASE-RXN
ASC73_10390	Unknown	3.1.11.6-RXN
ASC73_03820	Unknown	PHOSGLYPHOS-RXN
ASC73_13960	Unknown	DUTP-PYROP-RXN
ASC73_05435	pyrH	RXN-12002
ASC73_13895	Unknown	1.11.1.15-RXN;RXN0-5468
ASC73_03435	ileS	ISOLEUCINE--TRNA-LIGASE-RXN
ASC73_03635	Unknown	MYO-INOSITOL-1OR-4-MONOPHOSPHATASE-RXN;RXN-7253;RXN0-5408
ASC73_20500	Unknown	RXN0-5268
ASC73_16180	Unknown	DIMETHUROPORDEHYDROG-RXN;SIROHEME-FERROCHELAT-RXN;UROPORIIIMETHYLTRANSA-RXN
ASC73_13780	Unknown	GSHTRAN-RXN;GST-RXN;RXN-11663;RXN-13673;RXN-15680;RXN-18405;RXN-18407;RXNQT-4363
ASC73_13300	Unknown	ADCLY-RXN
ASC73_05635	Unknown	RXN-14950;RXN-14957;RXN-14959;RXN0-949
ASC73_01020	Unknown	PYRIMSYN1-RXN
ASC73_19950	Unknown	OHMETPYRKIN-RXN;PYRIMSYN3-RXN
ASC73_01485	Unknown	POLYNUCLEOTIDE-ADENYLYLTRANSFERASE-RXN
ASC73_18715	Unknown	4-HYDROXYPHENYLPYRUVATE-DIOXYGENASE-RXN;RXN-10815
ASC73_02785	Unknown	ACYLCOADEHYDROG-RXN;RXN-17775;RXN-17779;RXN-17783;RXN-17784;RXN-17788;RXN-17792;RXN-17796
ASC73_12635	Unknown	NAD-SYNTH-GLN-RXN;NAD-SYNTH-NH3-RXN
ASC73_00815	Unknown	GLYOXIII-RXN
ASC73_05030	Unknown	AMINOACYLASE-RXN;RXN-13684
ASC73_03180	Unknown	3.1.26.5-RXN
ASC73_18875	Unknown	RIB5PISOM-RXN
ASC73_11850	Unknown	1.14.13.8-RXN;RXN66-81
ASC73_08945	Unknown	3.4.11.1-RXN
ASC73_19000	Unknown	GSHTRAN-RXN;GST-RXN;RXN-11663;RXN-13673;RXN-15680;RXN-18405;RXN-18407;RXNQT-4363
ASC73_08870	Unknown	ASPAMINOTRANS-RXN;RXN-10814;RXN-11737;RXN-13697
ASC73_16515	Unknown	GLUCISOM-RXN;XYLISOM-RXN
ASC73_01755	Unknown	ARGININE--TRNA-LIGASE-RXN
ASC73_11100	Unknown	RXN-11989;RXN-11999
ASC73_02780	Unknown	ACYLCOADEHYDROG-RXN;RXN-17775;RXN-17779;RXN-17783;RXN-17784;RXN-17788;RXN-17792;RXN-17796
ASC73_05610	Unknown	1.2.4.4-RXN;2.3.1.168-RXN;KETOISOCAPROATE-RXN;METHYLVALERATE-RXN;RXN-7790
ASC73_20065	Unknown	3.2.1.3-RXN;RXN-9024
ASC73_05070	Unknown	RXN-12587;RXN-12588;RXN-14382;RXN-14385;RXN-15881;RXN-9787;RXN0-308
ASC73_12795	Unknown	2-HALOACID-DEHALOGENASE-RXN;3.8.1.11-RXN;RXN-6263;RXN-6264
ASC73_06810	Unknown	NICOTINATEPRIBOSYLTRANS-RXN
ASC73_17170	Unknown	DIHYDROFOLATEREDUCT-RXN;RXN-18357
ASC73_01550	Unknown	RXN-8529
ASC73_19230	Unknown	2.7.13.3-RXN
ASC73_13450	Unknown	ACYLCOASYN-RXN;LINOLENOYL-RXN;R223-RXN;RXN-12184;RXN-12702;RXN-12746;RXN-12978;RXN-13290;RXN-13614;RXN-16380;RXN-16389;RXN-16393;RXN-16401;RXN-16402;RXN-16415;RXN-16418;RXN-7904;RXN-9623;RXN-9644;RXN-9673;RXN0-7238;RXN0-7239;RXN0-7248;RXN66-469;RXN66-477;RXN66-480;RXN66-483;RXN66-484;TRANS-RXN0-623
ASC73_16645	Unknown	GSHTRAN-RXN;GST-RXN;RXN-11663;RXN-13673;RXN-15680;RXN-18405;RXN-18407;RXNQT-4363
ASC73_18635	Unknown	UROCANATE-HYDRATASE-RXN
ASC73_02030	Unknown	4OHBENZOATE-OCTAPRENYLTRANSFER-RXN
ASC73_04485	Unknown	RXN-10462;RXN-13805;RXN-1381;RXN-15045;RXN-16024;RXN-16117;RXN-17016;RXN-17017;RXN-17018
ASC73_15515	Unknown	RXN-12104
ASC73_17130	Unknown	GLYOXIII-RXN
ASC73_04135	Unknown	ADENYL-KIN-RXN
ASC73_13465	Unknown	ATPPHOSPHORIBOSYLTRANS-RXN
ASC73_18970	Unknown	GLYOXIII-RXN
ASC73_04850	Unknown	PDXJ-RXN
ASC73_11680	Unknown	CHORISMATEMUT-RXN
ASC73_04950	Unknown	THIAZOLSYN2-RXN
ASC73_07740	Unknown	CATAL-RXN;RXN-14189;RXN66-1
ASC73_08855	Unknown	GSHTRAN-RXN;GST-RXN;RXN-11663;RXN-13673;RXN-15680;RXN-18405;RXN-18407;RXNQT-4363
ASC73_04470	Unknown	RXN0-7023
ASC73_03015	Unknown	HYDROXYMETHYLGLUTARYL-COA-LYASE-RXN
ASC73_02260	Unknown	MYRISTOYLACYLTRAN-RXN
ASC73_19025	astD	SUCCGLUALDDEHYD-RXN
ASC73_05455	Unknown	DXPREDISOM-RXN
ASC73_08065	Unknown	GSHTRAN-RXN;GST-RXN;RXN-11663;RXN-13673;RXN-15680;RXN-18405;RXN-18407;RXNQT-4363
ASC73_12955	Unknown	LIPIDXSYNTHESIS-RXN
ASC73_00485	Unknown	2.7.13.3-RXN
ASC73_14325	Unknown	DNA-DIRECTED-DNA-POLYMERASE-RXN
ASC73_13350	Unknown	AMP-NUCLEOSID-RXN
ASC73_19840	Unknown	RXN0-1147
ASC73_06895	Unknown	3.4.21.26-RXN
ASC73_00995	Unknown	GPH-RXN
ASC73_04925	Unknown	LEUCYLTRANSFERASE-RXN;RXN-17846;RXN-17847;RXN-17848
ASC73_19945	Unknown	3-OXOACYL-ACP-REDUCT-RXN;RXN-10060;RXN-10655;RXN-10659;RXN-11476;RXN-11480;RXN-13008;RXN-16616;RXN-16622;RXN-16626;RXN-16630;RXN-9514;RXN-9518;RXN-9524;RXN-9528;RXN-9532;RXN-9536;RXN-9540;RXN-9552;RXN-9556;RXN-9633;RXN0-2142;RXN1G-157;RXN1G-349;RXN1G-469;RXN1G-508
ASC73_13935	Unknown	MALIC-NADP-RXN;OXALODECARB-RXN
ASC73_03805	Unknown	FUMARYLACETOACETASE-RXN
ASC73_08250	Unknown	DAHPSYN-RXN
ASC73_02130	Unknown	MYO-INOSITOL-1OR-4-MONOPHOSPHATASE-RXN;RXN-7253;RXN0-5408
ASC73_02045	Unknown	3-OXOACYL-ACP-REDUCT-RXN;RXN-10060;RXN-10655;RXN-10659;RXN-11476;RXN-11480;RXN-13008;RXN-16616;RXN-16622;RXN-16626;RXN-16630;RXN-9514;RXN-9518;RXN-9524;RXN-9528;RXN-9532;RXN-9536;RXN-9540;RXN-9552;RXN-9556;RXN-9633;RXN0-2142;RXN1G-157;RXN1G-349;RXN1G-469;RXN1G-508
ASC73_05545	Unknown	ANTHRANSYN-RXN
ASC73_15450	Unknown	ACETYLORNDEACET-RXN;RXN-7933
ASC73_10075	Unknown	GLYOXIII-RXN
ASC73_10475	Unknown	R4-RXN
ASC73_09690	Unknown	GSHTRAN-RXN;GST-RXN;RXN-11663;RXN-13673;RXN-15680;RXN-18405;RXN-18407;RXNQT-4363
ASC73_19195	Unknown	ACYLCOADEHYDROG-RXN;RXN-17775;RXN-17779;RXN-17783;RXN-17784;RXN-17788;RXN-17792;RXN-17796
ASC73_05705	Unknown	RXN0-5462
ASC73_07610	Unknown	PYRUVATEORTHOPHOSPHATE-DIKINASE-RXN
ASC73_01820	Unknown	2-NITROPROPANE-DIOXYGENASE-RXN
ASC73_00330	Unknown	HOMOCYSMETB12-RXN
ASC73_12335	metX	HOMOSERINE-O-ACETYLTRANSFERASE-RXN
ASC73_15645	Unknown	ASPARTATE-SEMIALDEHYDE-DEHYDROGENASE-RXN
ASC73_19825	sucC	SUCCCOASYN-RXN
ASC73_00970	Unknown	GSHTRAN-RXN;GST-RXN;RXN-11663;RXN-13673;RXN-15680;RXN-18405;RXN-18407;RXNQT-4363
ASC73_03600	pgk	PHOSGLYPHOS-RXN
ASC73_17230	Unknown	HOMOCYSMET-RXN
ASC73_19870	Unknown	RXN0-5100
ASC73_01340	Unknown	BRANCHED-CHAINAMINOTRANSFERILEU-RXN;BRANCHED-CHAINAMINOTRANSFERLEU-RXN;BRANCHED-CHAINAMINOTRANSFERVAL-RXN
ASC73_20435	Unknown	AMIDASE-RXN;GUANIDINOBUTANAMIDE-NH3-RXN;PYRAZIN-RXN;R311-RXN;RXN-14727;RXN-14728;RXN-17608;RXNN-404
ASC73_05890	Unknown	3-HYDROXYISOBUTYRATE-DEHYDROGENASE-RXN
ASC73_08560	Unknown	3.1.30.1-RXN
ASC73_00195	Unknown	CARBOXYMETHYLENEBUTENOLIDASE-RXN;DIENELACHYDRO-RXN;RXN-9857;RXN-9868;RXN-9887;RXN-9890
ASC73_03800	Unknown	MALEYLACETOACETATE-ISOMERASE-RXN
ASC73_16740	Unknown	GLUTAMIN-RXN
ASC73_11545	Unknown	UDPGLUCEPIM-RXN
ASC73_16655	Unknown	DHLAXANAU-RXN;HALOALKANE-DEHALOGENASE-RXN;LINB1-RXN;LINB2-RXN
ASC73_11510	Unknown	ISOCIT-CLEAV-RXN
ASC73_12820	Unknown	AIRCARBOXY-RXN
ASC73_05695	Unknown	D-ALANINE-AMINOTRANSFERASE-RXN
ASC73_13845	Unknown	RXN-15376;RXN-18319;RXN-9999;RXN0-1863
ASC73_04780	Unknown	DIHYDRODIPICSYN-RXN
ASC73_08510	Unknown	2.7.13.3-RXN
ASC73_05415	Unknown	GLYOXIII-RXN
ASC73_09485	Unknown	RXN-13853
ASC73_11705	Unknown	GSHTRAN-RXN;GST-RXN;RXN-11663;RXN-13673;RXN-15680;RXN-18405;RXN-18407;RXNQT-4363
ASC73_02645	Unknown	CARBOXYMETHYLENEBUTENOLIDASE-RXN;DIENELACHYDRO-RXN;RXN-9857;RXN-9868;RXN-9887;RXN-9890
ASC73_19685	Unknown	DIAMINOPIMEPIM-RXN
ASC73_10000	Unknown	3.4.11.5-RXN
ASC73_14580	Unknown	2.3.1.41-RXN;3-OXOACYL-ACP-SYNTH-BASE-RXN;3-OXOACYL-ACP-SYNTH-RXN;RXN-10059;RXN-10654;RXN-10658;RXN-11474;RXN-11479;RXN-16615;RXN-16621;RXN-16625;RXN-16629;RXN-9516;RXN-9523;RXN-9527;RXN-9531;RXN-9535;RXN-9539;RXN-9632;RXN-9648;RXN-9650;RXN-9651;RXN-9652;RXN-9653;RXN-9654;RXN0-2141;RXN1G-368;RXN1G-445;RXN1G-460;RXN1G-499;RXN3O-1803
ASC73_05340	Unknown	1.6.99.5-RXN;NADH-DEHYDROGENASE-QUINONE-RXN
ASC73_20050	Unknown	2-HALOACID-DEHALOGENASE-RXN
ASC73_02115	Unknown	GSHTRAN-RXN;GST-RXN;RXN-11663;RXN-13673;RXN-15680;RXN-18405;RXN-18407;RXNQT-4363
ASC73_19250	Unknown	NAD-KIN-RXN
ASC73_07130	guaA	GLUTAMIN-RXN;GMP-SYN-GLUT-RXN;GMP-SYN-NH3-RXN
ASC73_07245	Unknown	QUEUOSINE-TRNA-RIBOSYLTRANSFERASE-RXN;RXN0-1321
ASC73_08445	Unknown	ACETYL-COA-ACETYLTRANSFER-RXN;METHYLACETOACETYLCOATHIOL-RXN;RXN-12561
ASC73_10115	Unknown	2-NITROPROPANE-DIOXYGENASE-RXN;RXN-16322
ASC73_05970	Unknown	2.3.1.180-RXN
ASC73_11785	Unknown	ACYLCOADEHYDROG-RXN;RXN-17775;RXN-17779;RXN-17783;RXN-17784;RXN-17788;RXN-17792;RXN-17796
ASC73_14960	Unknown	OHMETHYLBILANESYN-RXN
ASC73_14780	Unknown	GLUTAMATE-DEHYDROGENASE-NADP+-RXN;GLUTAMATE-DEHYDROGENASE-RXN;GLUTDEHYD-RXN
ASC73_18700	Unknown	2.7.13.3-RXN
ASC73_12320	Unknown	DIHYDROOROTATE-DEHYDROGENASE-RXN;RXN0-6491;RXN0-6554
ASC73_01660	Unknown	3.2.2.21-RXN
ASC73_18525	Unknown	HYDROXY-MANDELATE-RACEMASE-RXN;MANDELATE-RACEMASE-RXN
ASC73_14825	Unknown	RXN-9235
ASC73_04585	Unknown	2-HALOACID-DEHALOGENASE-RXN;3.8.1.11-RXN;RXN-6263;RXN-6264
ASC73_18645	Unknown	HISTIDINE-AMMONIA-LYASE-RXN
ASC73_09875	Unknown	SAICARSYN-RXN
ASC73_16935	Unknown	THIOREDOXIN-REDUCT-NADPH-RXN
ASC73_08120	Unknown	2.1.1.77-RXN
ASC73_18500	Unknown	RXN-12720;SULFATE-ADENYLYLTRANS-RXN
ASC73_14775	purH	AICARTRANSFORM-RXN;IMPCYCLOHYDROLASE-RXN
ASC73_04530	gatB	6.3.5.7-RXN
ASC73_10490	Unknown	RXN0-2584
ASC73_05660	Unknown	RXN0-1281
ASC73_03705	gabD	RXN0-5293;SUCCINATE-SEMIALDEHYDE-DEHYDROGENASE-RXN
ASC73_20430	Unknown	ISOCHORMAT-RXN
ASC73_04500	pyrB	ASPCARBTRANS-RXN
ASC73_13125	Unknown	NADPYROPHOSPHAT-RXN;RXN0-4401
ASC73_01900	Unknown	R4-RXN
ASC73_08160	Unknown	3.2.1.52-RXN;RXN-12625;RXN-12626;RXN-18082;RXN0-5226
ASC73_08130	Unknown	RXN0-2161;SERINE--TRNA-LIGASE-RXN
ASC73_14340	Unknown	RXN-11578
ASC73_14115	Unknown	S-ADENMETSYN-RXN
ASC73_05475	Unknown	UDPHYDROXYMYRGLUCOSAMNACETYLTRANS-RXN
ASC73_17180	Unknown	12-OXOPHYTODIENOATE-REDUCTASE-RXN
ASC73_10635	Unknown	PSERPHOSPHA-RXN;RXN0-5114
ASC73_15500	Unknown	ENOYL-COA-HYDRAT-RXN;METHYLACYLYLCOA-HYDROXY-RXN;RXN-10697;RXN-10704;RXN-10705;RXN-11244;RXN-12567;RXN-13616;RXN-14266;RXN-14272;RXN-14273;RXN-16135;RXN-16558;RXN-17114;RXN-17475;RXN-17776;RXN-17780;RXN-17785;RXN-17789;RXN-17793;RXN-17797;RXN-2425;RXN0-5393;TIGLYLCOA-HYDROXY-RXN
ASC73_02040	Unknown	3-OXOACYL-ACP-REDUCT-RXN;RXN-10060;RXN-10655;RXN-10659;RXN-11476;RXN-11480;RXN-13008;RXN-16616;RXN-16622;RXN-16626;RXN-16630;RXN-9514;RXN-9518;RXN-9524;RXN-9528;RXN-9532;RXN-9536;RXN-9540;RXN-9552;RXN-9556;RXN-9633;RXN0-2142;RXN1G-157;RXN1G-349;RXN1G-469;RXN1G-508
ASC73_15185	Unknown	RXN0-4261
ASC73_04175	Unknown	ATPASE-RXN
ASC73_14105	Unknown	INORGPYROPHOSPHAT-RXN
ASC73_13020	Unknown	2.5.1.46-RXN;RXN-13414;RXN-13415;RXN-13416;RXN-13417
ASC73_07860	Unknown	PEPTIDYLPROLYL-ISOMERASE-RXN
ASC73_20320	Unknown	ACETYLHOMOSER-CYS-RXN;O-ACETYLHOMOSERINE-THIOL-LYASE-RXN
ASC73_05895	Unknown	5-AMINOLEVULINIC-ACID-SYNTHASE-RXN
ASC73_14150	Unknown	RXN-14480;RXN-14481;RXN0-5063
ASC73_12070	Unknown	DTDPDEHYDRHAMEPIM-RXN
ASC73_16710	Unknown	RXN-9380
ASC73_11335	Unknown	R342-RXN
ASC73_01035	Unknown	ASPARTATE-RACEMASE-RXN
ASC73_09115	Unknown	RXN0-4961
ASC73_06125	Unknown	ACSERLY-RXN;RXN-12726
ASC73_01950	Unknown	HEMEOSYN-RXN
ASC73_00955	Unknown	1.2.7.8-RXN
ASC73_09710	Unknown	RIBOKIN-RXN;RXN-14223
ASC73_14485	Unknown	HISTPRATPHYD-RXN
ASC73_08500	Unknown	3.6.3.12-RXN;TRANS-RXN-2
ASC73_05655	Unknown	RXN0-302
ASC73_13860	Unknown	RXN-13908;RXN-7908
ASC73_06490	Unknown	5.3.3.10-RXN
ASC73_05150	clpP	3.4.21.92-RXN
ASC73_01750	gcvT	GCVT-RXN
ASC73_11160	Unknown	SHIKIMATE-KINASE-RXN
ASC73_09065	Unknown	RXN-11638
ASC73_02135	Unknown	PROTEIN-TYROSINE-PHOSPHATASE-RXN
ASC73_19425	Unknown	2.7.13.3-RXN
ASC73_07205	Unknown	2.3.2.13-RXN;RXN-19236
ASC73_07840	Unknown	ACYLCOADEHYDROG-RXN;RXN-17775;RXN-17779;RXN-17783;RXN-17784;RXN-17788;RXN-17792;RXN-17796
ASC73_17925	Unknown	ISOCHORMAT-RXN
ASC73_03415	Unknown	2-HALOACID-DEHALOGENASE-RXN;3.8.1.11-RXN;RXN-6263;RXN-6264
ASC73_05605	Unknown	RXN-12508;RXN-12583;RXN0-1134
ASC73_05725	Unknown	ALKANE-1-MONOOXYGENASE-RXN
ASC73_11040	Unknown	PEPTIDYLPROLYL-ISOMERASE-RXN
ASC73_08610	Unknown	NADPH-DEHYDROGENASE-FLAVIN-RXN
ASC73_11035	Unknown	GLUTAMATE-N-ACETYLTRANSFERASE-RXN;N-ACETYLTRANSFER-RXN;RXN0-6948
ASC73_05525	Unknown	IGPSYN-RXN
ASC73_02000	Unknown	POLYPHOSPHATE-KINASE-RXN
ASC73_14385	Unknown	RXN-10642;UROGENDECARBOX-RXN
ASC73_08765	gltD	GLUTAMATESYN-RXN;GLUTAMIN-RXN;GLUTDEHYD-RXN
ASC73_09160	Unknown	RXN0-1281
ASC73_18455	Unknown	GSAAMINOTRANS-RXN
ASC73_17480	Unknown	3.1.11.2-RXN
ASC73_17115	Unknown	FARNESYLTRANSTRANSFERASE-RXN
ASC73_18735	Unknown	ACETYLHOMOSER-CYS-RXN;O-ACETYLHOMOSERINE-THIOL-LYASE-RXN
ASC73_11280	Unknown	PHOSPHAGLYPSYN-RXN
ASC73_08925	Unknown	RXN0-5419
ASC73_08290	Unknown	PEPTIDYLPROLYL-ISOMERASE-RXN
ASC73_14410	Unknown	RXN0-4961
ASC73_18410	Unknown	5.99.1.2-RXN
ASC73_01460	Unknown	1.10.2.2-RXN
ASC73_11165	Unknown	3-DEHYDROQUINATE-SYNTHASE-RXN
ASC73_04795	Unknown	DNA-DIRECTED-DNA-POLYMERASE-RXN;RXN0-4961
ASC73_10865	Unknown	3-ISOPROPYLMALDEHYDROG-RXN;RXN-13158;RXN-14986;RXN-18200;RXN-18202;RXN-18204;RXN-18206;RXN-18208;RXN-18210;RXNQT-4165;RXNQT-4168;RXNQT-4171;RXNQT-4174;RXNQT-4178
ASC73_14035	Unknown	1.1.1.178-RXN
ASC73_06120	sseA	MERCAPYSTRANS-RXN;RXN-18702;RXN-18703;RXN0-6945
ASC73_03920	Unknown	2.7.13.3-RXN
ASC73_05025	Unknown	RXN0-4621
ASC73_09015	murC	UDP-NACMUR-ALA-LIG-RXN
ASC73_16165	Unknown	1.3.99.16-RXN
ASC73_20070	Unknown	PEPDEPHOS-RXN;RXN-14117;RXN-14192;RXN-14207
ASC73_16895	Unknown	GLYOXIII-RXN
ASC73_05555	Unknown	TRIOSEPISOMERIZATION-RXN
ASC73_13580	Unknown	RXNI-2
ASC73_01465	Unknown	1.10.2.2-RXN;RXN-15829
ASC73_05790	Unknown	ENOYL-COA-HYDRAT-RXN;METHYLACYLYLCOA-HYDROXY-RXN;RXN-10697;RXN-10704;RXN-10705;RXN-11244;RXN-12567;RXN-13616;RXN-14266;RXN-14272;RXN-14273;RXN-16135;RXN-16558;RXN-17114;RXN-17475;RXN-17776;RXN-17780;RXN-17785;RXN-17789;RXN-17793;RXN-17797;RXN-2425;RXN0-5393;TIGLYLCOA-HYDROXY-RXN
ASC73_05505	gltA	CITSYN-RXN
ASC73_17960	Unknown	DTDPDEHYRHAMREDUCT-RXN
ASC73_02125	Unknown	325-BISPHOSPHATE-NUCLEOTIDASE-RXN
ASC73_01085	Unknown	ATPASE-RXN
ASC73_14110	Unknown	TRNA-GUANINE-N7--METHYLTRANSFERASE-RXN
ASC73_19880	Unknown	RXN0-313;TRANSALDOL-RXN
ASC73_17065	Unknown	ACETYL-COA-ACETYLTRANSFER-RXN;METHYLACETOACETYLCOATHIOL-RXN;RXN-12561
ASC73_18775	Unknown	3.2.1.52-RXN;RXN-12625;RXN-12626;RXN-18082;RXN0-5226
ASC73_14845	Unknown	3.4.24.11-RXN
ASC73_19495	Unknown	3-ISOPROPYLMALISOM-RXN;RXN-13163;RXN-8991
ASC73_12555	Unknown	3.1.22.4-RXN
ASC73_10275	Unknown	ATPASE-RXN
ASC73_17765	Unknown	RXN0-4961
ASC73_05650	Unknown	SPERMIDINESYN-RXN
ASC73_12560	Unknown	RXN0-4261
ASC73_01380	Unknown	RXN0-20
ASC73_20370	Unknown	METHELENE-THMPT-OXI-RXN
ASC73_12850	Unknown	3-OCTAPRENYL-4-OHBENZOATE-DECARBOX-RXN
ASC73_07050	Unknown	RXN0-5462
ASC73_12715	Unknown	FMNREDUCT-RXN;NADPH-DEHYDROGENASE-FLAVIN-RXN;RXN-12444
ASC73_14585	Unknown	ENOYL-ACP-REDUCT-NADPH-RXN;RXN-9515;RXN-9521;RXN-9526;RXN-9530;RXN-9534;RXN-9538;RXN-9542;RXN3O-5293
ASC73_10640	Unknown	RXN0-6274
ASC73_15740	Unknown	SPERMIDINESYN-RXN
ASC73_05395	Unknown	METHYLMALONYL-COA-EPIM-RXN;RXN-16391
ASC73_01290	Unknown	ACYLCOASYN-RXN;LINOLENOYL-RXN;R223-RXN;RXN-12184;RXN-12702;RXN-12746;RXN-12978;RXN-13290;RXN-13614;RXN-16380;RXN-16389;RXN-16393;RXN-16401;RXN-16402;RXN-16415;RXN-16418;RXN-7904;RXN-9623;RXN-9644;RXN-9673;RXN0-7238;RXN0-7239;RXN0-7248;RXN66-469;RXN66-477;RXN66-480;RXN66-483;RXN66-484;TRANS-RXN0-623
ASC73_18070	Unknown	RXN0-2621
ASC73_04320	Unknown	PANTOATE-BETA-ALANINE-LIG-RXN
ASC73_02315	Unknown	ENOYL-COA-HYDRAT-RXN;METHYLACYLYLCOA-HYDROXY-RXN;RXN-10697;RXN-10704;RXN-10705;RXN-11244;RXN-12567;RXN-13616;RXN-14266;RXN-14272;RXN-14273;RXN-16135;RXN-16558;RXN-17114;RXN-17475;RXN-17776;RXN-17780;RXN-17785;RXN-17789;RXN-17793;RXN-17797;RXN-2425;RXN0-5393;TIGLYLCOA-HYDROXY-RXN
ASC73_11935	Unknown	BTUR2-RXN;COBALADENOSYLTRANS-RXN;R344-RXN
ASC73_01325	Unknown	H2NEOPTERINALDOL-RXN;RXN-10857
ASC73_08270	glmU	2.3.1.157-RXN;NAG1P-URIDYLTRANS-RXN
ASC73_11915	Unknown	6.3.1.10-RXN;RXN-6261
ASC73_11150	Unknown	RXN0-5100
ASC73_05780	Unknown	ACYLCOADEHYDROG-RXN;RXN-17775;RXN-17779;RXN-17783;RXN-17784;RXN-17788;RXN-17792;RXN-17796
ASC73_10125	Unknown	ISOCITDEH-RXN;RXN-8642;RXN-9951
ASC73_03980	Unknown	325-BISPHOSPHATE-NUCLEOTIDASE-RXN
ASC73_18920	Unknown	ACETYLORNDEACET-RXN;RXN-7933
ASC73_07275	Unknown	PEPTIDYLPROLYL-ISOMERASE-RXN
ASC73_15825	Unknown	RXN-14971;RXN-15378;SUCCINATE-DEHYDROGENASE-UBIQUINONE-RXN
ASC73_18750	Unknown	ATPASE-RXN
ASC73_11565	Unknown	PHOSPHASERDECARB-RXN
ASC73_13720	Unknown	CYSTATHIONINE-BETA-LYASE-RXN;RXN-15131
ASC73_07640	Unknown	2.7.1.148-RXN
ASC73_02550	Unknown	4.3.1.17-RXN;RXN-15125
ASC73_04165	Unknown	GLYOXIII-RXN
ASC73_00830	Unknown	PMPOXI-RXN;PNPOXI-RXN
ASC73_00950	Unknown	PEPTIDYLPROLYL-ISOMERASE-RXN
ASC73_20100	Unknown	PGLUCONDEHYDRAT-RXN
ASC73_02390	Unknown	GLUC1PURIDYLTRANS-RXN
ASC73_04510	Unknown	3.1.22.4-RXN
ASC73_18830	Unknown	HISTALDEHYD-RXN;HISTOLDEHYD-RXN;RXN-8001
ASC73_06485	Unknown	GLYOXIII-RXN
ASC73_14935	Unknown	AMIDASE-RXN;GUANIDINOBUTANAMIDE-NH3-RXN;PYRAZIN-RXN;R311-RXN;RXN-14727;RXN-14728;RXN-17608;RXNN-404
ASC73_17465	Unknown	1-PHOSPHATIDYLINOSITOL-KINASE-RXN
ASC73_15545	Unknown	CITSYN-RXN
ASC73_01680	Unknown	RXN0-2661
ASC73_16105	Unknown	RXN-16650
ASC73_00055	Unknown	RXN1A0-6303
ASC73_15340	Unknown	RXN0-6481;RXN0-6482;TRNA-NUCLEOTIDYLTRANSFERASE-RXN
ASC73_18555	Unknown	2-NITROPROPANE-DIOXYGENASE-RXN
ASC73_15150	Unknown	ACSERLY-RXN;RXN-12726
ASC73_05450	Unknown	CDPDIGLYSYN-RXN;RXN0-5515
ASC73_03755	Unknown	2-NITROPROPANE-DIOXYGENASE-RXN;RXN-16322
ASC73_03210	Unknown	TETHYDPICSUCC-RXN
ASC73_03325	Unknown	MALTODEXGLUCOSID-RXN;RXN-14281;RXN-14282;RXN-14283;RXN-15910;RXN0-5183
ASC73_17495	Unknown	CYTOCHROME-C-OXIDASE-RXN;RXN-15830
ASC73_03630	Unknown	RXN-12610;RXN-12611;THI-P-SYN-RXN
ASC73_04805	Unknown	H2PTERIDINEPYROPHOSPHOKIN-RXN;RXN-15733
ASC73_06225	Unknown	RXN-11833
ASC73_04825	Unknown	IMP-DEHYDROG-RXN
ASC73_05095	Unknown	RXN-11109
ASC73_19650	Unknown	R4-RXN
ASC73_16120	Unknown	RXN-7682;RXN0-901
ASC73_13495	Unknown	PGLUCISOM-RXN
ASC73_02895	Unknown	KANAMYCIN-KINASE-RXN
ASC73_13305	Unknown	PABASYN-RXN
ASC73_17965	Unknown	UDPGLUCEPIM-RXN
ASC73_10800	Unknown	ACYLCOASYN-RXN;LINOLENOYL-RXN;R223-RXN;RXN-12184;RXN-12978;RXN-13290;RXN-13614;RXN-16380;RXN-16389;RXN-16393;RXN-16401;RXN-16402;RXN-16415;RXN-16418;RXN-7904;RXN-9623;RXN-9644;RXN-9673;RXN0-7238;RXN0-7239;RXN0-7248;RXN66-469;RXN66-477;RXN66-480;RXN66-483;RXN66-484;TRANS-RXN0-623
ASC73_03300	Unknown	RXN-12134;RXN-12140;RXN-12141;RXN-12142
ASC73_16555	Unknown	RXN0-6373
ASC73_05330	Unknown	1.6.99.5-RXN;NADH-DEHYDROGENASE-QUINONE-RXN
ASC73_15075	Unknown	ACETATE--COA-LIGASE-RXN;RXN-18446;RXN-18447;RXN-18448
ASC73_15900	Unknown	2.7.13.3-RXN
ASC73_00390	Unknown	ACYLCOADEHYDROG-RXN;RXN-17775;RXN-17779;RXN-17783;RXN-17784;RXN-17788;RXN-17792;RXN-17796
ASC73_11070	Unknown	NAD-SYNTH-NH3-RXN
ASC73_15800	Unknown	ATPASE-RXN
ASC73_17135	Unknown	2.4.1.36-RXN;RXN-761;TREHALOSE6PSYN-RXN
ASC73_13000	Unknown	RXN-19040;RXN0-6359;THIOSULFATE-SULFURTRANSFERASE-RXN
ASC73_06920	Unknown	SAICARSYN-RXN
ASC73_15520	Unknown	GSHTRAN-RXN;GST-RXN;RXN-11663;RXN-13673;RXN-15680;RXN-18405;RXN-18407;RXNQT-4363
ASC73_04150	Unknown	DNA-DIRECTED-RNA-POLYMERASE-RXN
ASC73_10655	Unknown	ACETOLACTSYN-RXN;ACETOOHBUTSYN-RXN
ASC73_01430	Unknown	CARBOXYMETHYLENEBUTENOLIDASE-RXN;DIENELACHYDRO-RXN;RXN-9857;RXN-9868;RXN-9887;RXN-9890
ASC73_12215	tauD	RXN0-299
ASC73_20485	Unknown	GPH-RXN
ASC73_15770	Unknown	KANAMYCIN-KINASE-RXN
ASC73_01830	Unknown	GSHTRAN-RXN;GST-RXN;RXN-11663;RXN-13673;RXN-15680;RXN-18405;RXN-18407;RXNQT-4363
ASC73_19760	Unknown	ACONITATEDEHYDR-RXN;ACONITATEHYDR-RXN;RXN-14047
ASC73_06680	Unknown	RXN0-262
ASC73_04475	Unknown	5.99.1.2-RXN
ASC73_00445	Unknown	2.7.13.3-RXN
ASC73_19485	Unknown	3-ISOPROPYLMALDEHYDROG-RXN;RXN-13158;RXN-14986;RXN-18200;RXN-18202;RXN-18204;RXN-18206;RXN-18208;RXN-18210;RXNQT-4165;RXNQT-4168;RXNQT-4171;RXNQT-4174;RXNQT-4178
ASC73_08630	Unknown	CHORISMATEMUT-RXN
ASC73_01735	Unknown	GCVP-RXN
ASC73_20110	Unknown	4OH2OXOGLUTARALDOL-RXN;KDPGALDOL-RXN
ASC73_05480	Unknown	3-HYDROXYDECANOYL-ACP-DEHYDR-RXN
ASC73_16965	Unknown	QUINOLINATE-SYNTHA-RXN
ASC73_01160	Unknown	2-OXOPENT-4-ENOATE-HYDRATASE-RXN;RXN-10381
ASC73_03040	Unknown	CYSTEINE--TRNA-LIGASE-RXN
ASC73_12705	Unknown	ACYLCOADEHYDROG-RXN;RXN-17775;RXN-17779;RXN-17783;RXN-17784;RXN-17788;RXN-17792;RXN-17796
ASC73_02350	Unknown	UGD-RXN
ASC73_09020	Unknown	NACGLCTRANS-RXN;RXN-8976
ASC73_18640	Unknown	N-FORMYLGLUTAMATE-DEFORMYLASE-RXN
ASC73_07295	Unknown	SUPEROX-DISMUT-RXN
ASC73_00175	Unknown	5.3.4.1-RXN;DISULISOM-RXN
ASC73_12375	Unknown	GLYOXII-RXN;RXN-7919
ASC73_11620	Unknown	DIAMINOPIMDECARB-RXN
ASC73_15485	Unknown	1.5.1.9-RXN
ASC73_19680	Unknown	3.4.21.26-RXN
ASC73_11030	Unknown	RXN-11109
ASC73_03530	Unknown	GLYOXIII-RXN
ASC73_07655	Unknown	DNA-DIRECTED-DNA-POLYMERASE-RXN;RXN0-4961
ASC73_09620	Unknown	DTDPGLUCOSEPP-RXN
ASC73_11140	Unknown	ACETYL-COA-CARBOXYLTRANSFER-RXN;RXN0-5055
ASC73_15405	Unknown	ATPASE-RXN
ASC73_06675	Unknown	2.7.13.3-RXN
ASC73_02635	Unknown	S-FORMYLGLUTATHIONE-HYDROLASE-RXN
ASC73_09355	Unknown	IMP-DEHYDROG-RXN
ASC73_11770	Unknown	ACYLCOADEHYDROG-RXN;RXN-17775;RXN-17779;RXN-17783;RXN-17784;RXN-17788;RXN-17792;RXN-17796
ASC73_07175	Unknown	RXN-13907;RXN-14206;RXN66-569
ASC73_06110	Unknown	CYSTATHIONINE-BETA-LYASE-RXN;RXN-15131
ASC73_00840	Unknown	CHORISMATE-SYNTHASE-RXN
ASC73_07650	Unknown	1.5.5.1-RXN;RXN66-550
ASC73_14315	Unknown	LEUCINE--TRNA-LIGASE-RXN
ASC73_04325	Unknown	ATPASE-RXN
ASC73_08495	Unknown	ATPASE-RXN
ASC73_17110	fumC	FUMHYDR-RXN
ASC73_01620	Unknown	6.2.1.34-RXN
ASC73_12660	Unknown	CYTOCHROME-C-OXIDASE-RXN;RXN-15830
ASC73_05665	Unknown	ATPASE-RXN
ASC73_00860	Unknown	RXN0-6575
ASC73_09895	Unknown	FGAMSYN-RXN
ASC73_16975	Unknown	QUINOPRIBOTRANS-RXN
ASC73_03095	Unknown	GLYOXIII-RXN
ASC73_06690	Unknown	DNA-DIRECTED-DNA-POLYMERASE-RXN
ASC73_14195	Unknown	URITRANS-RXN
ASC73_01630	Unknown	DIHYDROOROT-RXN
ASC73_02980	Unknown	ACETYL-COA-ACETYLTRANSFER-RXN;METHYLACETOACETYLCOATHIOL-RXN;RXN-12561
ASC73_09035	murD	UDP-NACMURALA-GLU-LIG-RXN
ASC73_11300	Unknown	RXN0-299
ASC73_14185	Unknown	TRYPTOPHAN--TRNA-LIGASE-RXN
ASC73_05680	Unknown	DAHPSYN-RXN
ASC73_07035	Unknown	PRPPAMIDOTRANS-RXN
ASC73_16825	Unknown	RXN0-5021
ASC73_19835	sucA	2-KETO-ADIPATE-DEHYDROG-RXN;2OXOGLUTARATEDEH-RXN;2OXOGLUTDECARB-RXN;RXN-7716;RXN0-1147
ASC73_19980	Unknown	PSERTRANSAM-RXN;PSERTRANSAMPYR-RXN
ASC73_00165	Unknown	RXN0-5375
ASC73_13530	Unknown	4.2.1.107-RXN;RXN-9847
ASC73_17805	Unknown	CATAL-RXN;RXN-14189;RXN66-1
ASC73_13565	Unknown	RXN0-2001
ASC73_03235	Unknown	METHIONYL-TRNA-FORMYLTRANSFERASE-RXN
ASC73_03060	Unknown	ALKAPHOSPHA-RXN;RXN-5822;RXN-8748
ASC73_12925	Unknown	ACYLCOASYN-RXN;LINOLENOYL-RXN;R223-RXN;RXN-12184;RXN-12978;RXN-13290;RXN-13614;RXN-16380;RXN-16389;RXN-16393;RXN-16401;RXN-16402;RXN-16415;RXN-16418;RXN-7904;RXN-9623;RXN-9644;RXN-9673;RXN0-7238;RXN0-7239;RXN0-7248;RXN66-469;RXN66-477;RXN66-480;RXN66-483;RXN66-484;TRANS-RXN0-623
ASC73_08595	Unknown	1.18.1.2-RXN
ASC73_15655	Unknown	PRPPSYN-RXN
ASC73_19805	Unknown	3.6.1.41-RXN
ASC73_03320	Unknown	3.4.21.92-RXN
ASC73_12920	Unknown	FMNREDUCT-RXN;NADPH-DEHYDROGENASE-FLAVIN-RXN;RXN-12444
ASC73_10630	Unknown	2-HALOACID-DEHALOGENASE-RXN;3.8.1.11-RXN;RXN-6263;RXN-6264
ASC73_20185	Unknown	IMP-DEHYDROG-RXN
ASC73_03950	Unknown	RXN0-299
ASC73_03605	Unknown	F16ALDOLASE-RXN;RXN-10053;RXN-8631
ASC73_13100	Unknown	N-FORMYLGLUTAMATE-DEFORMYLASE-RXN
ASC73_14300	Unknown	THI-P-SYN-RXN
ASC73_09880	Unknown	FGAMSYN-RXN
ASC73_18720	Unknown	HOMOGENTISATE-12-DIOXYGENASE-RXN
ASC73_14505	Unknown	IMIDPHOSDEHYD-RXN
ASC73_01665	Unknown	3.1.26.4-RXN
ASC73_12315	Unknown	2.7.13.3-RXN
ASC73_15445	purU	FORMYLTHFDEFORMYL-RXN
ASC73_03170	Unknown	3.4.11.18-RXN;RXN-17873;RXN-17874;RXN-17875;RXN-17876;RXN-17877;RXN-17878
ASC73_14260	Unknown	4.1.1.32-RXN;RXN-12481
ASC73_00140	Unknown	5-OXOPROLINASE-ATP-HYDROLYSING-RXN
ASC73_19785	Unknown	RXN0-5062
ASC73_09290	Unknown	2.8.1.6-RXN;RXN-17472;RXN-17473
ASC73_10380	Unknown	DXS-RXN
ASC73_11685	Unknown	HISTAMINOTRANS-RXN
ASC73_14020	Unknown	LINC-RXN
ASC73_03640	Unknown	GLYCPDIESTER-RXN;RXN-14073;RXN-14136;RXN-14160
ASC73_06330	Unknown	ACYLCOASYN-RXN;LINOLENOYL-RXN;R223-RXN;RXN-12184;RXN-12702;RXN-12746;RXN-12978;RXN-13290;RXN-13614;RXN-16380;RXN-16389;RXN-16393;RXN-16401;RXN-16402;RXN-16415;RXN-16418;RXN-7904;RXN-9623;RXN-9644;RXN-9673;RXN0-7238;RXN0-7239;RXN0-7248;RXN66-469;RXN66-477;RXN66-480;RXN66-483;RXN66-484;TRANS-RXN0-623
ASC73_00985	Unknown	RXN0-2621
ASC73_09630	Unknown	DTDPGLUCDEHYDRAT-RXN
ASC73_16970	Unknown	L-ASPARTATE-OXID-RXN;RXN-9772
ASC73_08900	Unknown	ARYLSULFATE-SULFOTRANSFERASE-RXN
ASC73_07720	Unknown	2.1.1.77-RXN
ASC73_17260	Unknown	2.7.13.3-RXN
ASC73_10045	Unknown	FGAMSYN-RXN
ASC73_16055	Unknown	GLUTKIN-RXN
ASC73_05280	Unknown	FMNREDUCT-RXN;NADPH-DEHYDROGENASE-FLAVIN-RXN;RXN-12444
ASC73_04830	Unknown	AMINOACYLASE-RXN;RXN-13684
ASC73_14705	Unknown	ARGSUCCINSYN-RXN;RXN-10
ASC73_08850	Unknown	2-ISOPROPYLMALATESYN-RXN
ASC73_05590	eno	2PGADEHYDRAT-RXN
ASC73_13200	Unknown	RXN0-299
ASC73_02910	Unknown	ATPASE-RXN
ASC73_01990	Unknown	GLUTCYSLIG-RXN
ASC73_05575	Unknown	CTPSYN-RXN;GLUTAMIN-RXN;RXN-14325
ASC73_13135	Unknown	PREPHENATEDEHYDRAT-RXN
ASC73_18655	Unknown	FORMIMINOGLUTAMATE-DEIMINASE-RXN
ASC73_03090	Unknown	ADENYLOSUCCINATE-SYNTHASE-RXN
ASC73_08950	Unknown	1.10.2.2-RXN;RXN-15829
ASC73_18495	Unknown	ADENYLYLSULFKIN-RXN;GSADENYLATION-RXN;RXN-12720;SULFATE-ADENYLYLTRANS-RXN
ASC73_02975	Unknown	RXN-12560;RXN-13279;RXN-5901
ASC73_17165	Unknown	THYMIDYLATESYN-RXN
ASC73_20055	Unknown	GLU6PDEHYDROG-RXN
ASC73_13120	Unknown	DNA-DIRECTED-DNA-POLYMERASE-RXN
ASC73_12835	Unknown	GLYOXIII-RXN
ASC73_08075	Unknown	TRNA-URACIL-5--METHYLTRANSFERASE-RXN
ASC73_12080	Unknown	CDP-GLUCOSE-46-DEHYDRATASE-RXN
ASC73_02610	Unknown	RXN-14264;RXN0-2301
ASC73_03205	Unknown	2-HALOACID-DEHALOGENASE-RXN;3.8.1.11-RXN;RXN-6263;RXN-6264
ASC73_06295	Unknown	CYTOCHROME-C-OXIDASE-RXN;RXN-15830
ASC73_11610	Unknown	ARGSUCCINLYA-RXN;RXN-22
ASC73_01775	rnhA	3.1.26.4-RXN
ASC73_15815	Unknown	RXN-14971;RXN-15378;SUCCINATE-DEHYDROGENASE-UBIQUINONE-RXN
ASC73_05825	Unknown	EXOPOLYPHOSPHATASE-RXN
ASC73_10580	Unknown	3-OXOACYL-ACP-REDUCT-RXN;RXN-10060;RXN-10655;RXN-10659;RXN-11476;RXN-11480;RXN-13008;RXN-16616;RXN-16622;RXN-16626;RXN-16630;RXN-9514;RXN-9518;RXN-9524;RXN-9528;RXN-9532;RXN-9536;RXN-9540;RXN-9552;RXN-9556;RXN-9633;RXN0-2142;RXN1G-157;RXN1G-349;RXN1G-469;RXN1G-508
ASC73_01230	Unknown	GLYOXIII-RXN
ASC73_08320	Unknown	1.14.13.8-RXN;RXN66-81
ASC73_00885	Unknown	2.1.1.71-RXN;RXN4FS-2
ASC73_07145	Unknown	IMP-DEHYDROG-RXN
ASC73_19090	Unknown	3-OXOACYL-ACP-REDUCT-RXN
ASC73_03940	Unknown	GSHTRAN-RXN;GST-RXN;RXN-11663;RXN-13673;RXN-15680;RXN-18405;RXN-18407;RXNQT-4363
ASC73_18820	Unknown	UDPNACETYLGLUCOSAMENOLPYRTRANS-RXN
ASC73_01365	Unknown	PYRROLINECARBREDUCT-RXN;RXN66-546
ASC73_16305	Unknown	3.4.13.9-RXN
ASC73_04160	Unknown	GLYOXIII-RXN
ASC73_11780	Unknown	ACYLCOADEHYDROG-RXN;RXN-17775;RXN-17779;RXN-17783;RXN-17784;RXN-17788;RXN-17792;RXN-17796
ASC73_11950	Unknown	2.7.1.156-RXN;COBINAMIDEKIN-RXN;RXN-14063
ASC73_02955	Unknown	1.3.99.16-RXN
ASC73_11020	Unknown	NUCLEOTIDE-PYROPHOSPHATASE-RXN
ASC73_11655	Unknown	RXN-9591
ASC73_06260	Unknown	HYDROXY-MANDELATE-RACEMASE-RXN;MANDELATE-RACEMASE-RXN
ASC73_05775	ndk	CDPKIN-RXN;DADPKIN-RXN;DCDPKIN-RXN;DGDPKIN-RXN;DTDPKIN-RXN;DUDPKIN-RXN;GDPKIN-RXN;NUCLEOSIDE-DIP-KIN-RXN;RXN-14120;RXN-14228;UDPKIN-RXN
ASC73_17070	Unknown	RXN0-2023
ASC73_03525	Unknown	ACYLCOADEHYDROG-RXN;RXN-17775;RXN-17779;RXN-17783;RXN-17784;RXN-17788;RXN-17792;RXN-17796
ASC73_04755	emrB	3.6.3.44-RXN;TRANS-RXN-311
ASC73_03250	Unknown	3.5.1.27-RXN;3.5.1.88-RXN
ASC73_04845	Unknown	OROPRIBTRANS-RXN
ASC73_08970	Unknown	UDPACYLGLCNACDEACETYL-RXN
ASC73_12565	Unknown	RXN0-4261
ASC73_05125	Unknown	PHOSGLYPHOS-RXN
ASC73_02070	Unknown	GLYOXIII-RXN
ASC73_04520	gatA	6.3.5.7-RXN
ASC73_05920	Unknown	RIBOFLAVIN-SYN-RXN
ASC73_15115	lysK	LYSINE--TRNA-LIGASE-RXN
ASC73_01845	Unknown	3-HYDROXYBUTYRATE-DEHYDROGENASE-RXN
ASC73_11135	Unknown	2-NITROPROPANE-DIOXYGENASE-RXN;RXN-16322
ASC73_14405	Unknown	DEPHOSPHOCOAKIN-RXN
ASC73_09010	Unknown	UDPNACETYLMURAMATEDEHYDROG-RXN
ASC73_07210	Unknown	2.7.7.46-RXN
ASC73_16045	Unknown	NICONUCADENYLYLTRAN-RXN
ASC73_13945	Unknown	RXN-14014
ASC73_14565	Unknown	GLYCERATE-DEHYDROGENASE-RXN;HYDROXYPYRUVATE-REDUCTASE-RXN
ASC73_15850	Unknown	2.7.13.3-RXN
ASC73_05335	Unknown	1.6.99.5-RXN;NADH-DEHYDROGENASE-QUINONE-RXN
ASC73_11235	Unknown	RXN-7682;RXN0-901
ASC73_01355	Unknown	2.7.13.3-RXN
ASC73_08790	Unknown	RXN-12134;RXN-12140;RXN-12141;RXN-12142
ASC73_05310	Unknown	1.6.99.5-RXN;NADH-DEHYDROGENASE-QUINONE-RXN
ASC73_04310	Unknown	ENOYL-COA-HYDRAT-RXN;METHYLACYLYLCOA-HYDROXY-RXN;RXN-10697;RXN-10704;RXN-10705;RXN-11244;RXN-12567;RXN-13616;RXN-14266;RXN-14272;RXN-14273;RXN-16135;RXN-16558;RXN-17114;RXN-17475;RXN-17776;RXN-17780;RXN-17785;RXN-17789;RXN-17793;RXN-17797;RXN-2425;RXN0-5393;TIGLYLCOA-HYDROXY-RXN
ASC73_09490	Unknown	RXN0-4022
ASC73_11185	Unknown	RXN-7682;RXN0-901
ASC73_06645	Unknown	DIMETHUROPORDEHYDROG-RXN;SIROHEME-FERROCHELAT-RXN;UROPORIIIMETHYLTRANSA-RXN
ASC73_11425	Unknown	2.7.13.3-RXN
