{
    "alternative_symbionts": [
        "Root85",
        "Root83",
        "Root630",
        "Root65",
        "Root181"
    ],
    "bacteria": [
        "Root83",
        "Root65"
    ],
    "enum_bacteria": {
        "1": [
            "Root85",
            "Root65"
        ],
        "2": [
            "Root83",
            "Root65"
        ],
        "3": [
            "Root181",
            "Root65"
        ],
        "4": [
            "Root630",
            "Root83"
        ],
        "5": [
            "Root181",
            "Root630"
        ],
        "6": [
            "Root85",
            "Root630"
        ]
    },
    "enum_exchanged": {
        "1": [],
        "2": [],
        "3": [],
        "4": [],
        "5": [],
        "6": []
    },
    "enum_targetsproducers": {
        "1": {
            "M_ARG_c": [
                "Root85",
                "Root65"
            ],
            "M_ASN_c": [
                "Root65"
            ],
            "M_CYS_c": [
                "Root85",
                "Root65"
            ],
            "M_GLN_c": [
                "Root85",
                "Root65"
            ],
            "M_GLY_c": [
                "Root85"
            ],
            "M_HIS_c": [
                "Root65",
                "Root85"
            ],
            "M_LEU_c": [
                "Root85",
                "Root65"
            ],
            "M_L__45__ASPARTATE_c": [
                "Root85",
                "Root65"
            ],
            "M_PHE_c": [
                "Root65",
                "Root85"
            ],
            "M_PRO_c": [
                "Root85"
            ],
            "M_TRP_c": [
                "Root85",
                "Root65"
            ],
            "M_TYR_c": [
                "Root65"
            ],
            "M_VAL_c": [
                "Root85",
                "Root65"
            ]
        },
        "2": {
            "M_ARG_c": [
                "Root65",
                "Root83"
            ],
            "M_ASN_c": [
                "Root65"
            ],
            "M_CYS_c": [
                "Root65",
                "Root83"
            ],
            "M_GLN_c": [
                "Root65",
                "Root83"
            ],
            "M_GLY_c": [
                "Root83"
            ],
            "M_HIS_c": [
                "Root83",
                "Root65"
            ],
            "M_LEU_c": [
                "Root65",
                "Root83"
            ],
            "M_L__45__ASPARTATE_c": [
                "Root83",
                "Root65"
            ],
            "M_PHE_c": [
                "Root83",
                "Root65"
            ],
            "M_PRO_c": [
                "Root83"
            ],
            "M_TRP_c": [
                "Root83",
                "Root65"
            ],
            "M_TYR_c": [
                "Root65",
                "Root83"
            ],
            "M_VAL_c": [
                "Root65",
                "Root83"
            ]
        },
        "3": {
            "M_ARG_c": [
                "Root181",
                "Root65"
            ],
            "M_ASN_c": [
                "Root65"
            ],
            "M_CYS_c": [
                "Root65",
                "Root181"
            ],
            "M_GLN_c": [
                "Root65",
                "Root181"
            ],
            "M_GLY_c": [
                "Root181"
            ],
            "M_HIS_c": [
                "Root65",
                "Root181"
            ],
            "M_LEU_c": [
                "Root65",
                "Root181"
            ],
            "M_L__45__ASPARTATE_c": [
                "Root181",
                "Root65"
            ],
            "M_PHE_c": [
                "Root181",
                "Root65"
            ],
            "M_PRO_c": [
                "Root181"
            ],
            "M_TRP_c": [
                "Root181",
                "Root65"
            ],
            "M_TYR_c": [
                "Root65"
            ],
            "M_VAL_c": [
                "Root65",
                "Root181"
            ]
        },
        "4": {
            "M_ARG_c": [
                "Root83",
                "Root630"
            ],
            "M_ASN_c": [
                "Root630"
            ],
            "M_CYS_c": [
                "Root83",
                "Root630"
            ],
            "M_GLN_c": [
                "Root630",
                "Root83"
            ],
            "M_GLY_c": [
                "Root83"
            ],
            "M_HIS_c": [
                "Root83",
                "Root630"
            ],
            "M_LEU_c": [
                "Root630",
                "Root83"
            ],
            "M_L__45__ASPARTATE_c": [
                "Root630",
                "Root83"
            ],
            "M_PHE_c": [
                "Root83",
                "Root630"
            ],
            "M_PRO_c": [
                "Root83"
            ],
            "M_TRP_c": [
                "Root83",
                "Root630"
            ],
            "M_TYR_c": [
                "Root630",
                "Root83"
            ],
            "M_VAL_c": [
                "Root83",
                "Root630"
            ]
        },
        "5": {
            "M_ARG_c": [
                "Root181",
                "Root630"
            ],
            "M_ASN_c": [
                "Root630"
            ],
            "M_CYS_c": [
                "Root181",
                "Root630"
            ],
            "M_GLN_c": [
                "Root630",
                "Root181"
            ],
            "M_GLY_c": [
                "Root181"
            ],
            "M_HIS_c": [
                "Root181",
                "Root630"
            ],
            "M_LEU_c": [
                "Root630",
                "Root181"
            ],
            "M_L__45__ASPARTATE_c": [
                "Root181",
                "Root630"
            ],
            "M_PHE_c": [
                "Root181",
                "Root630"
            ],
            "M_PRO_c": [
                "Root181"
            ],
            "M_TRP_c": [
                "Root630",
                "Root181"
            ],
            "M_TYR_c": [
                "Root630"
            ],
            "M_VAL_c": [
                "Root181",
                "Root630"
            ]
        },
        "6": {
            "M_ARG_c": [
                "Root85",
                "Root630"
            ],
            "M_ASN_c": [
                "Root630"
            ],
            "M_CYS_c": [
                "Root85",
                "Root630"
            ],
            "M_GLN_c": [
                "Root630",
                "Root85"
            ],
            "M_GLY_c": [
                "Root85"
            ],
            "M_HIS_c": [
                "Root85",
                "Root630"
            ],
            "M_LEU_c": [
                "Root85",
                "Root630"
            ],
            "M_L__45__ASPARTATE_c": [
                "Root85",
                "Root630"
            ],
            "M_PHE_c": [
                "Root85",
                "Root630"
            ],
            "M_PRO_c": [
                "Root85"
            ],
            "M_TRP_c": [
                "Root630",
                "Root85"
            ],
            "M_TYR_c": [
                "Root630"
            ],
            "M_VAL_c": [
                "Root85",
                "Root630"
            ]
        }
    },
    "essential_symbionts": [],
    "exchanged": [],
    "inter_bacteria": [],
    "inter_exchanged": [],
    "inter_targetsproducers": {},
    "key_species": [
        "Root181",
        "Root630",
        "Root65",
        "Root85",
        "Root83"
    ],
    "newly_prod": [
        "M_GLY_c",
        "M_GLN_c",
        "M_L__45__ASPARTATE_c",
        "M_HIS_c",
        "M_PHE_c",
        "M_CYS_c",
        "M_VAL_c",
        "M_ARG_c",
        "M_LEU_c",
        "M_TRP_c",
        "M_PRO_c",
        "M_TYR_c",
        "M_ASN_c"
    ],
    "one_model": {
        "chosen_bacteria": [
            "Root83",
            "Root65"
        ],
        "newly_producible_target": [
            "M_GLY_c",
            "M_GLN_c",
            "M_L__45__ASPARTATE_c",
            "M_HIS_c",
            "M_PHE_c",
            "M_CYS_c",
            "M_VAL_c",
            "M_ARG_c",
            "M_LEU_c",
            "M_TRP_c",
            "M_PRO_c",
            "M_TYR_c",
            "M_ASN_c"
        ],
        "producible_target": [
            "M_GLY_c",
            "M_GLN_c",
            "M_L__45__ASPARTATE_c",
            "M_HIS_c",
            "M_PHE_c",
            "M_CYS_c",
            "M_VAL_c",
            "M_ARG_c",
            "M_LEU_c",
            "M_PRO_c",
            "M_TRP_c",
            "M_TYR_c",
            "M_ASN_c"
        ],
        "target_producer_coop_selectedcom": {
            "M_ARG_c": [
                "Root65",
                "Root83"
            ],
            "M_ASN_c": [
                "Root65"
            ],
            "M_CYS_c": [
                "Root65",
                "Root83"
            ],
            "M_GLN_c": [
                "Root65",
                "Root83"
            ],
            "M_GLY_c": [
                "Root83"
            ],
            "M_HIS_c": [
                "Root83",
                "Root65"
            ],
            "M_LEU_c": [
                "Root65",
                "Root83"
            ],
            "M_L__45__ASPARTATE_c": [
                "Root83",
                "Root65"
            ],
            "M_PHE_c": [
                "Root83",
                "Root65"
            ],
            "M_PRO_c": [
                "Root83"
            ],
            "M_TRP_c": [
                "Root83",
                "Root65"
            ],
            "M_TYR_c": [
                "Root65",
                "Root83"
            ],
            "M_VAL_c": [
                "Root65",
                "Root83"
            ]
        },
        "unproducible_target": [
            "M_MET_c",
            "M_THR_c",
            "M_LYS_c",
            "M_ILE_c"
        ]
    },
    "one_model_targetsproducers": {
        "M_ARG_c": [
            "Root65",
            "Root83"
        ],
        "M_ASN_c": [
            "Root65"
        ],
        "M_CYS_c": [
            "Root65",
            "Root83"
        ],
        "M_GLN_c": [
            "Root65",
            "Root83"
        ],
        "M_GLY_c": [
            "Root83"
        ],
        "M_HIS_c": [
            "Root83",
            "Root65"
        ],
        "M_LEU_c": [
            "Root65",
            "Root83"
        ],
        "M_L__45__ASPARTATE_c": [
            "Root83",
            "Root65"
        ],
        "M_PHE_c": [
            "Root83",
            "Root65"
        ],
        "M_PRO_c": [
            "Root83"
        ],
        "M_TRP_c": [
            "Root83",
            "Root65"
        ],
        "M_TYR_c": [
            "Root65",
            "Root83"
        ],
        "M_VAL_c": [
            "Root65",
            "Root83"
        ]
    },
    "producible": [
        "M_GLY_c",
        "M_GLN_c",
        "M_L__45__ASPARTATE_c",
        "M_HIS_c",
        "M_PHE_c",
        "M_CYS_c",
        "M_VAL_c",
        "M_ARG_c",
        "M_LEU_c",
        "M_PRO_c",
        "M_TRP_c",
        "M_TYR_c",
        "M_ASN_c"
    ],
    "score_optimum_inter": "2",
    "score_optimum_union": "2",
    "still_unprod": [
        "M_MET_c",
        "M_THR_c",
        "M_LYS_c",
        "M_ILE_c"
    ],
    "union_bacteria": [
        "Root181",
        "Root630",
        "Root65",
        "Root85",
        "Root83"
    ],
    "union_exchanged": [],
    "union_targetsproducers": {
        "M_ARG_c": [
            "Root85",
            "Root181",
            "Root65",
            "Root83",
            "Root630"
        ],
        "M_ASN_c": [
            "Root630",
            "Root65"
        ],
        "M_CYS_c": [
            "Root85",
            "Root65",
            "Root630",
            "Root83",
            "Root181"
        ],
        "M_GLN_c": [
            "Root85",
            "Root65",
            "Root630",
            "Root83",
            "Root181"
        ],
        "M_GLY_c": [
            "Root83",
            "Root85",
            "Root181"
        ],
        "M_HIS_c": [
            "Root181",
            "Root83",
            "Root65",
            "Root85",
            "Root630"
        ],
        "M_LEU_c": [
            "Root65",
            "Root630",
            "Root181",
            "Root85",
            "Root83"
        ],
        "M_L__45__ASPARTATE_c": [
            "Root83",
            "Root65",
            "Root181",
            "Root85",
            "Root630"
        ],
        "M_PHE_c": [
            "Root630",
            "Root83",
            "Root181",
            "Root65",
            "Root85"
        ],
        "M_PRO_c": [
            "Root83",
            "Root181",
            "Root85"
        ],
        "M_TRP_c": [
            "Root85",
            "Root65",
            "Root83",
            "Root630",
            "Root181"
        ],
        "M_TYR_c": [
            "Root65",
            "Root630",
            "Root83"
        ],
        "M_VAL_c": [
            "Root85",
            "Root65",
            "Root83",
            "Root181",
            "Root630"
        ]
    }
}