dbRef_id	Common name	Produced (p), Consumed (c), Both (cp)
UDP-GLUCURONATE	UDP-&alpha;-D-glucuronate	p
CPD-8625	a [protein]-L-proline (&omega; = 0)	cp
INDOLE_ACETATE_AUXIN	(indol-3-yl)acetate	p
CPD-323	cholest-4-en-3-one	p
CPD-734	(-)-jasmonate	p
LYS	L-lysine	cp
3-Hydroxy-Terminated-DNAs	a [DNA]-3'-hydroxyl	c
CPD-14736	L-kynurenine	c
Long-linear-glucans	a long-linear &alpha;-D-glucan	cp
3-HYDROXY-DOCOSAPENTAENOYL-ACP	a (3R)-3-hydroxy-docosapentaenoyl-[acp]	p
NADP	NADP+	cp
LYS-tRNAs	a tRNALys	c
CPD-8973	methyl parathion	c
CPD-15436	(5Z)-tetradecenoyl-CoA	cp
3-HYDROXY-ISOBUTYRATE	3-hydroxy-isobutanoate	p
CPD-11528	3-oxo-2-(cis-2'-pentenyl)-cyclopentane-1-(3-oxobutanoyl)-CoA	c
DNA-containing-abasic-Sites	a DNA containing an apurinic/apyrimidinic site	p
UDP-N-ACETYL-D-GLUCOSAMINE	UDP-N-acetyl-&alpha;-D-glucosamine	cp
LysW-L-glutamate	a [2-aminoadipate carrier protein]-L-glutamate	c
CPD-3713	cytidine 2',3'-cyclic monophosphate	c
Polyisoprenyl-Diphosphates	an isoprenoid diphosphate	c
DGDP	dGDP	c
ADENYLOSUCC	adenylo-succinate	cp
CPD-8974	dimethylthiophosphate	p
CPD-597	N-carbamoylputrescine	p
LysW-L-glutamate-5-phosphate	a [2-aminoadipate carrier protein]-L-glutamate 5-phosphate	cp
3-Hydroxy-octanoyl-ACPs	a (3R)-3-hydroxyoctanoyl-[acp]	p
PROTOPORPHYRIN_IX	protoporphyrin IX	cp
CPD-15568	2E)-tetradec-2-enoyl-CoA	c
Semiquinones	a semiquinone	p
HEXANOYL-COA	hexanoyl-CoA	cp
Cis-Delta5-dodecenoyl-ACPs	a (5Z)-dodec-5-enoyl-[acp]	c
PYRROLINE-HYDROXY-CARBOXYLATE	(3R,5S)-3-hydroxy-1-pyrroline-5-carboxylate	c
Ox-Thioredoxin	an oxidized thioredoxin	cp
DNA-3-methyladenines	an N3-methyladenine in DNA	c
2-Lysophosphatidylcholines	a 1-acyl-sn-glycero-3-phosphocholine	c
3-HYDROXY-ISOVALERYL-COA	3-hydroxyisovaleryl-CoA	cp
LysW-L-glutamate-5-semialdehyde	a [2-aminoadipate carrier protein]-L-glutamate 5-semialdehyde	cp
CPD-11529	(+)-7-epi-jasmonoyl-CoA	p
3OH-4P-OH-ALPHA-KETOBUTYRATE	(3R)-3-hydroxy-2-oxo-4 phosphooxybutanoate	cp
Cis-Delta7-tetradecenoyl-ACPs	a cis-&Delta;7-tetradecenoyl-[acp]	c
ACP	a holo-[acyl-carrier protein]	cp
3-Hydroxyglutaryl-ACP-methyl-ester	a (3R)-3-hydroxyglutaryl-[acp] methyl ester	p
Oxidized-2Fe-2S-Ferredoxins	an oxidized [2Fe-2S] ferredoxin	p
ACETAMIDE	acetamide	c
Cis-delta-3-decenoyl-ACPs	a (3Z)-dec-3-enoyl-[acp]	c
CPD-148	n-octane	c
FORMYL-L-METHIONYL-PEPTIDE	a [protein] N-terminal-formyl-L-methionine	c
Oxidized-CycA1-cytochromes	an oxidized CycA1 cytochrome	p
DNA-Adjacent-Pyrimidines	two adjacent pyrimidine nucleosides in DNA	p
CPD-335	(R)-3-hydroxybutanoate	cp
CPD-11592	2-methylsulfanyl-N6-dimethylallyladenosine37 in tRNA	p
DNA-Combined-With-Exogenous-DNA	DNA combined with exogenous DNA to form a recombinational junction	c
CPD-602	5-amino-6-(5-phospho-D-ribosylamino)uracil	cp
UDP-N-ACETYLMURAMATE	UDP-N-acetyl-&alpha;-D-muramate	cp
Oxidized-Factor-F420	an oxidized coenzyme F420	cp
XYLULOSE-5-PHOSPHATE	D-xylulose 5-phosphate	cp
METHYLENE-THF-GLU-N	a 5,10-methylene-tetrahydrofolate	cp
FORMYL-THF-GLU-N	an N10-formyl-tetrahydrofolate	cp
LysW-L-ornithine	a [2-aminoadipate carrier protein]-L-ornithine	cp
Citrate-Lyase-Citryl-Form	a citryl-holo [citrate lyase acyl-carrier protein]	cp
CPD-3724	uridine 3'-monophosphate	cp
NADPH	NADPH	cp
ACRYLAMIDE	acrylamide	c
THZ	5-(2-hydroxyethyl)-4-methylthiazole	c
Serines	serine	p
DNA-Cytidines	a 2'-deoxycytidine in DNA	p
CPD-3617	decanoate	c
CPD-7535	9,15,9'-tri-cis-&zeta;-carotene	p
Lysidine-tRNA-Ile2	a lysidine34 in tRNAIle2	p
DNA-containing-diamino-hydro-formamidops	a ring-opened 7-methylguanine in DNA	c
ANTHRANILATE	anthranilate	cp
CPD-8978	ethylphosphate	c
METHYLENETETRAHYDROMETHANOPTERIN	5,10-methylene-tetrahydromethanopterin	cp
2-METHYL-3-HYDROXY-BUTYRYL-COA	(2S,3S)-3-hydroxy-2-methylbutanoyl-CoA	cp
3R-11Z-3-hydroxy-icos-11-enoyl-ACPs	a (3R,11Z)-3-hydroxy-icos-11-enoyl-[acp]	p
PHENYLETHYLAMINE	2-phenylethylamine	c
THZ-P	4-methyl-5-(2-phosphooxyethyl)thiazole	cp
CPD-11643	two adjacent thymidines in DNA	p
11Z-3-oxo-icos-11-enoyl-ACPs	an (11Z)-3-oxo-icos-11-enoyl-[acp]	cp
PRISTANATE	pristanate	c
3R-5Z-3-hydroxy-tetradec-5-enoyl-ACPs	a (3R,5Z)-3-hydroxy-tetradec-5-enoyl-[acp]	p
Oxidized-Rubredoxins	an oxidized rubredoxin	p
3R-7Z-3-hydroxy-hexadec-7-enoyl-ACPs	a (3R,7Z)-3-hydroxy-hexadec-7-enoyl-[acp]	p
3-HYDROXY-L-KYNURENINE	3-hydroxy-L-kynurenine	c
2-METHYL-ACETO-ACETYL-COA	2-methylacetoacetyl-CoA	cp
DGTP	dGTP	cp
CPD-901	mercuriphenyl acetate	c
CPD-13699	3,22-dioxochol-4-en-24-oyl-CoA	c
CPD-15663	2-trans-nonenoyl-CoA	p
CPD-761	3-carboxy-2,5-dihydro-5-oxofuran-2-acetate	cp
3R-9Z-3-hydroxy-octadec-9-enoyl-ACPs	a (3R,9Z)-3-hydroxy-octadec-9-enoyl-[acp]	p
CPD-3618	2-oxovalerate	p
CPD-14925	(3Z)-dec-3-enoyl-CoA	p
HG+2	Hg2+	cp
PREPHENATE	prephenate	cp
Cleaved-Repressor-LexA	cleaved repressor LexA	p
Damaged-DNA-Pyrimidine	a damaged DNA pyrimidine	c
CPD-9148	(2Z,4E)-2-amino-5-methyl-muconate semialdehyde	c
Oxidized-ferredoxins	an oxidized ferredoxin [iron-sulfur] cluster	p
POLY-GLUCOSYLATED-GLYCOGENINS	a glucosylated glycogenin	c
DNA-deoxycytidine-dimer	a dimer of non-adjacent 2'-deoxycytidines in DNA	c
CPD-13700	3-oxo-4-pregnene-20-carboxyl-CoA	p
CPD-618	(2R,3S)-2-methylisocitrate	cp
3Z-dodec-3-enoyl-ACPs	a (3Z)-dodec-3-enoyl-[acp]	c
GUANINE	guanine	cp
Decanoyl-ACPs	a decanoyl-[acp]	c
PRPP	5-phospho-&alpha;-D-ribose 1-diphosphate	cp
3-DEOXY-D-ARABINO-HEPTULOSONATE-7-P	3-deoxy-D-arabino-heptulosonate 7-phosphate	cp
Oxo-glutarate-dehydro-suc-DH-lipoyl	a [2-oxoglutarate dehydrogenase E2 protein] N6-S-succinyldihydrolipoyl-L-lysine	cp
CPD-15667	6-cis, 3-oxo-tridecenoyl-CoA	c
4-AMINO-4-DEOXYCHORISMATE	4-amino-4-deoxychorismate	cp
CPD-11746	N-acetyldemethyl-L-phosphinothricin	p
3-HYDROXY-PROPIONATE	3-hydroxypropanoate	p
Oxo-glutarate-dehydrogenase-DH-lipoyl	a [2-oxoglutarate dehydrogenase E2 protein] N6-dihydrolipoyl-L-lysine	cp
CPD-13711	3-[(3aS,4S,7aS)-7a-methyl-1,5-dioxo-octahydro-1H-inden-4-yl]propanoate	c
CPD-6442	methylsalicylate	c
CPD-7671	methanethiol	c
1-4-D-xylooligosaccharides	a (1->4)-&beta;-D-xylan oligosaccharide	p
Delta4-hexadecenoyl-ACPs	a (4Z)-hexadec-4-enoyl-[acp]	c
DNA-Holder	DNA	p
CPD-3725	uridine 2'3'-cyclic monophosphate	c
INOSINE	inosine	cp
1-4-alpha-D-Glucan	a 1,4-&alpha;-D-glucan	cp
CARBOXYPHENYLAMINO-DEOXYRIBULOSE-P	1-(o-carboxyphenylamino)-1'-deoxyribulose 5'-phosphate	cp
PHE	L-phenylalanine	cp
PRO	L-proline	cp
3-HYDROXY-PROPIONYL-COA	3-hydroxypropanoyl-CoA	c
Oxo-glutarate-dehydrogenase-lipoyl	a [2-oxoglutarate dehydrogenase E2 protein] N6-lipoyl-L-lysine	cp
MAL	(S)-malate	c
CPD-7695	ditrans,octacis-undecaprenyldiphospho-N-acetyl-(N-acetyl-&beta;-D-glucosaminyl)muramoyl-L-alanyl-&gamma;-D-glutamyl-L-lysyl-D-alanyl-D-alanine	p
PRO-tRNAs	a tRNAPro	c
CPD-3706	adenosine 3'-monophosphate	cp
PALMITATE	palmitate	cp
CPD-15668	4-cis-undecenoyl-CoA	p
PYRUVATE	pyruvate	cp
2-METHYL-BUTYRYL-COA	2-methylbutanoyl-CoA	cp
1-4-beta-Xylan	a (1&rarr;4)-&beta;-D-xylan	c
CPD-14927	phytenate	c
HIS	L-histidine	cp
a-2-oxoglutarate-dehydrogenase-E2-protei	a [2-oxoglutarate-dehydrogenase E2 protein] N6-octanoyl-L-lysine	c
CPD-9150	(2Z,4E)-2-amino-5-methyl-muconate	p
HIS-tRNAs	a tRNAHis	c
4-AMINO-BUTYRALDEHYDE	4-aminobutanal	p
ACRYLATE	acrylate	p
2-METHYLMALEATE	citraconate	cp
PHLORETIN	phloretin	p
1-5-L-Arabinooligosaccharides	a (1->5)-&alpha;-L-arabinan oligosaccharide	c
PALMITYL-COA	palmitoyl-CoA	p
DNA-deoxycytidine-thymidine-dimer	a dimer of non-adjacent 2'-deoxycytidine and thymidine in DNA	c
ARG	L-arginine	cp
FRU1P	&beta;-D-fructofuranose 1-phosphate	c
CPD-15676	6-trans-3-oxo-tridecenoyl-CoA	c
CPD-14928	phytenoyl-CoA	p
a-pyruvate-dehydrogenase-E2-protein-Nsup	a [pyruvate dehydrogenase E2 protein] N6-octanoyl-L-lysine	c
CPD-3736	lanthionine	p
3-4-DIHYDROXYBENZOATE	protocatechuate	cp
4-AMINO-BUTYRATE	4-aminobutanoate	cp
GUANOSINE	guanosine	cp
CPD-11855	(R)-4-hydroxy-4-methyl-2-oxoglutarate	cp
apo-ACP	an apo-[acyl-carrier protein]	cp
CPD-9151	3-chlorocatechol	p
P-COUMAROYL-COA	4-coumaroyl-CoA	c
CPD-3762	5-amino-4-imidazolecarboxyamide	c
GUANOSINE-5DP-3DP	ppGpp	p
Primary-Alcohols	a primary alcohol	cp
MALONATE-S-ALD	3-oxopropanoate	cp
CPD-15895	aldehydo-D-ribose 5-phosphate	c
Dipeptides-With-Asp-At-N-Terminal	a dipetide with an N-terminal L-aspartate	c
TRANS-D2-ENOYL-COA	a (2E)-alkan-2-enoyl-CoA	cp
L-HISTIDINOL-P	L-histidinol phosphate	c
CPD-9612	caldariellaquinone	c
PYRIDOXINE-5P	pyridoxine 5'-phosphate	c
1-KETO-2-METHYLVALERATE	(R)-2,3-dihydroxy-3-methylpentanoate	cp
Acceptor	an oxidized electron acceptor	p
CPD-245	3-carboxy-cis,cis-muconate	cp
CPD-19160	3-oxo-(11Z)-octadecenoyl-CoA	c
CPD-678	hydrogen selenide	c
ACETYL-P	acetyl phosphate	cp
CHOCOLA_A	all-trans-retinyl palmitate	c
CPD-10269	palmitoleoyl-CoA	cp
6-Dimethylallyladenosine37-tRNAs	N6-dimethylallyladenosine37 in tRNA	cp
L-Cysteine-Desulfurases	an [L-cysteine desulfurase]	c
PYRAZINOIC-ACID	pyrazine-2-carboxylate	p
CPD-18550	quinoxaline-2-carboxyl adenylate	c
DELTA1-PIPERIDEINE-2-6-DICARBOXYLATE	(S)-2,3,4,5-tetrahydrodipicolinate	cp
CPD-20012	naringenin chalcone	p
L-DELTA1-PYRROLINE_5-CARBOXYLATE	(S)-1-pyrroline-5-carboxylate	c
CPD-15975	D-cellobiose	cp
CPD-10633	5-chloro-trans-dienelactone	c
CHOLESTEROL	cholesterol	c
3-OXO-EICOSAPENTAENOYL-ACP	a 3-oxo-docosapentaenoyl [acp]	c
CO-A	coenzyme A	cp
CIS-D2-ENOYL-COA	a cis-2-enoyl-CoA	cp
CPD-10284	3-oxo-myristoyl-CoA	c
CPD-15979	D-mannopyranose 6-phosphate	cp
CPD-9646	di-trans,octa-cis-undecaprenyl phosphate	cp
L-EPINEPHRINE	(R)-adrenaline	c
2-OXOBUTANOATE	2-oxobutanoate	cp
CPD-19161	(2E,7Z)-tetradecenoyl-CoA	cp
NICOTINATE_NUCLEOTIDE	&beta;-nicotinate D-ribonucleotide	cp
TYR	L-tyrosine	c
GAP	D-glyceraldehyde 3-phosphate	cp
CPD-464	prephytoene diphosphate	cp
1-L-MYO-INOSITOL-1-P	1D-myo-inositol 3-monophosphate	c
UREA	urea	cp
CPD-10634	5-chloromaleylacetate	p
TYR-tRNAs	a tRNATyr	c
FMN	FMN	cp
LIPOIC-ACID	(R)-lipoate	c
23S-rRNA-2-methyladenine2503	a 2-methyladenine2503 in 23S rRNA	p
TRP	L-tryptophan	cp
CPD-259	4-aminophenol	p
CPD-187	4-hydroxy-4-methyl-2-oxoglutarate	p
Dodecanoyl-ACPs	a dodecanoyl-[acp]	c
CPD-10636	2,5-dichloro-trans-dienelactone	c
TRP-tRNAs	a tRNATrp	c
TYRAMINE	tyramine	c
CPD-19162	(2E,9Z)-hexadecenoyl-CoA	cp
LIPOYL-AMP	lipoyl-adenylate	cp
CPD-26	hexulose 6-phosphate	cp
L-IDONATE	L-idonate	c
Negatively-super-coiled-DNAs	a negatively supercoiled DNA	cp
DELTA3-ISOPENTENYL-PP	isopentenyl diphosphate	cp
FMNH2	FMNH2	p
CPD-9852	3-heptaprenyl-4-hydroxybenzoate	p
PHOSPHO-ENOL-PYRUVATE	phosphoenolpyruvate	cp
Alkanes	an alkane	cp
NITRITE	nitrite	p
CPD-6972	4-(2'-carboxyphenyl)-4-oxobutyryl-CoA	c
CPD-3707	adenosine 2',3'-cyclic monophosphate	c
Donor-H2	a reduced electron acceptor	c
TREHALOSE	&alpha;,&alpha;-trehalose	cp
repressor-LexA	repressor LexA	c
4-Hydroxy-3-polyprenylbenzoates	a 4-hydroxy-3-polyprenylbenzoate	p
CPD-10637	2,5-dichloromaleylacetate	p
Acetate-esters	an acetyl ester	c
CPD-19163	(2E,11Z)-octadecenoyl-CoA	cp
CPD-9864	3-decaprenyl-4-hydroxybenzoate	p
CPD-10330	&alpha;-D-ribofuranose	c
Double-Stranded-DNAs	a double stranded DNA	cp
TREHALOSE-6P	&alpha;,&alpha;-trehalose 6-phosphate	cp
CIT	citrate	cp
4-IMIDAZOLONE-5-PROPIONATE	4-imidazolone-5-propanoate	cp
ssDNA-RNA-primer-hybrid	an ssDNA/RNA primer hybrid	p
Sialyloligosaccharides	a sialyloligosaccharide	c
Double-helix-DNA	a double-helix DNA	c
Acetoacetyl-ACPs	an acetoacetyl-[acp]	cp
DUDP	dUDP	c
URIDINE	uridine	cp
Alkyl-Hydro-Peroxides	an organic hydroperoxide	c
ssRNAs	a single-stranded RNA	cp
23S-rRNA-adenine-2503	adenine2503 in 23S rRNA	c
CPD-9869	all trans-decaprenyl-2-methoxy-6-1,4-benzoquinol	c
L-GLUTAMATE-5-P	&gamma;-L-glutamyl 5-phosphate	cp
CPD-19014	2-hydroxy-2-methylpropanoate	p
CPD-16491	2,6-diamino-4-hydroxy-5-(N-methyl)formamidopyrimidine	p
ASN	L-asparagine	c
PYRIDOXAL_PHOSPHATE	pyridoxal 5'-phosphate	p
2-Oxo-carboxylates	a 2-oxo carboxylate	cp
4-OH-4-ACETYL-2-OXOGLUTARATE	2-hydroxy-4-oxobutane-1,2,4-tricarboxylate	cp
CPD-19167	3-oxo-(7Z)-hexadecenoyl-CoA	c
LL-DIAMINOPIMELATE	L,L-diaminopimelate	cp
CPD-10418	4-sulfocatechol	c
ADP	ADP	cp
tRNA-2-thiouridine34	a 2-thiouridine34 in tRNA	p
25-DIDEHYDRO-D-GLUCONATE	2,5-didehydro-D-gluconate	cp
Alkylated-Bases	an alkylated nucleobase	p
CPD-294	2-maleylacetate	p
SUCROSE	sucrose	p
CPD-9871	6-methoxy-3-methyl-2-all-trans-decaprenyl-1,4-benzoquinol	p
CITRATE-LYASE	an acetyl-holo [citrate lyase acyl-carrier protein]	cp
CPD-469	N-acetyl-L-glutamate 5-semialdehyde	cp
Single-Stranded-DNAs	a single stranded DNA	cp
Light	h&nu;	c
Alkylated-DNAs	an alkylated DNA	c
CPD-19042	2-hydroxyisobutyramide	c
CPD-19168	(S)-3-hydroxy-(7Z)-hexadecenoyl-CoA	p
ASP-tRNAs	tRNAasp	c
CPD-10750	UDP-2-acetamido-2,6-dideoxy-&beta;-L-arabino-hex-4-ulose	cp
L-GLUTAMATE_GAMMA-SEMIALDEHYDE	L-glutamate-5-semialdehyde	cp
L-Methionylaminoacyl-tRNAs	a L-methionylaminoacyl-tRNA	p
GLYCEROPHOSPHOGLYCEROL	glycerophosphoglycerol	c
ADP-D-GLUCOSE	ADP-&alpha;-D-glucose	p
2-PG	2-phospho-D-glycerate	cp
4-OXALOMESACONATE	(1E)-4-oxobut-1-ene-1,2,4-tricarboxylate	p
L-ORNITHINE	L-ornithine	cp
CPD-7043	amylopectin	p
UROCANATE	urocanate	cp
tRNA-Adenosines-37	an adenosine37 in tRNA	c
16-HYDROXYPALMITATE	16-hydroxypalmitate	c
CPD-7066	(2R,3S)-3-methylmalate	p
CHORISMATE	chorismate	cp
CPD-19144	(7Z)-hexadecenoyl-CoA	cp
CPD-9923	(1R,6R)-6-hydroxy-2-succinylcyclohexa-2,4-diene-1-carboxylate	c
2-PHOSPHO-4-CYTIDINE-5-DIPHOSPHO-2-C-MET	2-phospho-4-(cytidine 5'-diphospho)-2-C-methyl-D-erythritol	cp
NMNH	reduced &beta;-nicotinamide D-ribonucleotide	p
DEOXY-D-RIBOSE-1-PHOSPHATE	2-deoxy-&alpha;-D-ribose 1-phosphate	cp
ACYL-ACP	an acyl-[acyl-carrier protein]	cp
CPD-10419	3-sulfomuconate	p
Linear-Malto-Oligosaccharides	a linear malto-oligosaccharide	cp
LONG-CHAIN-KETONE	a ketone	cp
CPD-10751	UDP-4-amino-4,6-dideoxy-N-acetyl-&beta;-L-altrosamine	cp
CPD-19169	3-oxo-(9Z)-octadecenoyl-CoA	c
CPD-7076	2-methylbutanoate	c
CPD-2961	D-gluconate 6-phosphate	p
CPD-19147	(7Z)-tetradecenoyl-CoA	cp
tRNA-Containing-N7-Methylguanine-46	an N7-methylguanine46 in tRNA	p
Soluble-Heteroglycans	a plant soluble heteroglycan	cp
tRNA-Dihydrouridines	a 5,6-dihydrouridine in tRNA	p
CPD-16566	keto-L-rhamnulose	cp
2C-METH-D-ERYTHRITOL-CYCLODIPHOSPHATE	2-C-methyl-D-erythritol-2,4-cyclodiphosphate	cp
WATER	H2O	cp
D-ALA-D-ALA	D-alanyl-D-alanine	p
Phosphoglucosamine-Mutase	a phosphoglucosamine mutase	cp
DNA-pyrimidines	a pyrimidine nucleoside in DNA	p
BCCP-L-lysine	a [biotin carboxyl-carrier protein]-L-lysine	c
CPD0-2231	dIDP	cp
CPD-19489	3-isopropyl-8-(methylthio)-2-oxooctanoate	cp
Malonyl-acp-methyl-ester	a malonyl-[acp] methyl ester	c
Histone-Acetyl-Lysine	a [histone]-N6-acetyl-L-lysine	p
Histone-L-lysine	a [histone]-L-lysine	c
CPD1G-1344	&alpha;, &alpha;'-trehalose 6-&alpha;-mycolate	p
BCCP-biotin-L-lysine	a [biotin carboxyl-carrier protein]-biotin-N6-L-lysine	p
AMINOMETHYLDIHYDROLIPOYL-GCVH	a [glycine-cleavage complex H protein] N6-aminomethyldihydrolipoyl-L-lysine	cp
CPD-19490	3-isopropyl-7-(methylthio)-2-oxoheptanoate	cp
Sophorosyloxy-FAs-O-6-Acet	a sophorosyloxyfatty acid  O(6'')-acetate	cp
Glycogens	a glycogen	cp
CPD-18	linoleoyl-CoA	p
TDP	dTDP	cp
ITP	ITP	cp
CPD-1083	(E)-2-methylcrotonoyl-CoA	cp
CPD0-1096	glucosamine 1,6-diphosphate	cp
DNA-thymidine-deoxycytidine-dimer	a dimer of non-adjacent thymidine and 2'-deoxycytidine in DNA	c
FRUCTOSE-16-DIPHOSPHATE	&beta;-D-fructose 1,6-bisphosphate	cp
D-MANNONATE	D-mannonate	cp
Maltodextrins	a maltodextrin	cp
Sophorosyloxy-FAs-O-6-Diacet	a sophorosyloxyfatty acid 6',6''-diacetate	c
Non-Galactosylated-Galactose-Acceptors	a non galactosylated galactose acceptor	p
CPD-19491	3-isopropyl-6-(methylthio)-2-oxohexanoate	cp
METHIONYL-PEPTIDE	an N-terminal L-methionyl-[protein]	p
Man6-GlcNAc2-protein-A12B2	Man6GlcNAc2-[protein] (isomer 6A1,2B2)	cp
CANAVANINOSUCCINATE	canavaninosuccinate	cp
DNA-thymidine-dimer	a dimer of non-adjacent thymidines in DNA	c
Non-Glucosylated-Glucose-Acceptors	a non glucosylated D-glucose acceptor	p
CPD-1086	5-amino-6-(5-phospho-D-ribitylamino)uracil	p
Sophorosyloxy-Fatty-Acids	a sophorosyloxyfatty acid	p
BENZENE	benzene	p
DEOXYINOSINE	2'-deoxyinosine	cp
Phosphorylated-Phosphoglucosamine-Mutase	a phosphorylated phosphoglucosamine mutase	cp
CPD-10866	2-chlorophenol	c
3-5-ADP	adenosine 3',5'-bisphosphate	p
CPD-19492	3-ethyl-2-oxosuccinate	cp
CPD1G-1345	trehalose-cis-methoxy-mono-mycolate	p
CPD0-2232	(S)-3-hydroxyhexadecanoyl-CoA	p
Man6GlcNAc2-protein-A123	Man6GlcNAc2-[protein] (isomer 6A1,2,3)	cp
Wound-RNA	wound RNA	c
ADENOSINE	adenosine	cp
FRUCTOSE-6P	&beta;-D-fructofuranose 6-phosphate	cp
CPD0-1108	&beta;-D-ribofuranose	cp
Hpr-Histidine	an [HPr]-L-histidine	c
XANTHINE	xanthine	p
Phosphorylated-phosphoglucomutase	a phosphorylated phosphoglucomutase	cp
Phosphoserines	L(or D)-O-phosphoserine	c
D-ALANINE	D-alanine	cp
CPD1G-1346	trehalose-trans-methoxy-mono-mycolate	p
Hpr-pi-phospho-L-histidines	an [HPr protein]-N&pi;-phospho-L-histidine	p
DNA-thymidines	a thymidine in DNA	p
CPD-195	octanoate	c
Man6GlcNAc2-protein-A12B1	Man6GlcNAc2-[protein] (isomer 6A1,2B1)	cp
ADENOSINE_DIPHOSPHATE_RIBOSE	ADP-D-ribose	c
R-3-hydroxydodecanoyl-ACPs	a (3R)-3-hydroxydodecanoyl-[acp]	p
D-METHYL-MALONYL-COA	(S)-methylmalonyl-CoA	cp
ACETOACETYL-COA	acetoacetyl-CoA	cp
Sphingoid-1-phosphates	a sphingoid 1-phosphate	p
2-Me-Branched-234-Sat-FA	a 2-methyl branched 2,3,4-saturated fatty acid	c
GMP	GMP	cp
CPD1G-1353	trehalose-cis-keto-mono-mycolate	p
Man7GlcNAc2-protein-A123B1	Man7GlcNAc2-protein (isomer 7A1,2,3B1)	cp
NIACINAMIDE	nicotinamide	c
CPD-18346	cis-vaccenoyl-CoA	cp
CPD0-1110	&beta;-D-ribopyranose	cp
D-MYO-INOSITOL-1-MONOPHOSPHATE	1D-myo-inositol 1-monophosphate	c
Guanine46-in-tRNA	a guanine46 in tRNA	c
Sphingoids	a sphingoid base	c
UMP	UMP	cp
DIETHYLPHOSPHATE	diethylphosphate	p
Man7GlcNAc2-protein-A123B2	Man7GlcNAc2-[protein] (isomer 7A1,2,3B2)	cp
Actinorhodin-Intermediate-2	9-hydroxy-3,5,7,11,13,15-hexaoxohexadecanoyl-[PKS-acp]	p
CPD0-2244	(S)-3-hydroxydecanoyl-CoA	p
CPD1G-1354	trehalose-trans-keto-mono-mycolate	p
Initiation-tRNAmet	initiator tRNAMet	c
CARBAMOYL-P	carbamoyl phosphate	cp
FARNESYL-PP	(2E,6E)-farnesyl diphosphate	cp
CPD-10868	3-chlorophenol	c
Nonadjacent-pyrimidine-dimer-in-DNA	a dimer of non-adjacent pyrimidine nucleosides in DNA	c
SPHINGOSINE	sphingosine	c
CPD-196	octanoyl-CoA	p
2-Me-Branched-234-Sat-Fatty-Acyl-CoA	a 2-methyl branched 2,3,4-saturated fatty acyl-CoA	p
H2CO3	carbonic acid	cp
CPD1G-277	cerotoyl-CoA	c
CPD-19695	UDP-4-amino-D-fucose	cp
Man7GlcNAc2-protein-A123B3	Man7GlcNAc2-[protein] (isomer 7A1,2,3B3)	c
Pi	phosphate	cp
METHYL-GLYOXAL	methylglyoxal	c
XANTHOSINE	xanthosine	cp
DIETHYLTHIOPHOSPHATE	diethylthiophosphate	p
CPD-184	2-pyrone-4,6-dicarboxylate	c
3-KETO-ADIPYL-COA	3-oxoadipyl-CoA	c
CPD0-1112	&beta;-L-rhamnopyranose	cp
XANTHOSINE-5-PHOSPHATE	XMP	cp
DNA-with-Uracils	a uracil in DNA	c
Man7GlcNAc2-protein-A12B12	Man7GlcNAc2-[protein] (isomer 7A1,2B1,2)	cp
GLY-tRNAs	a tRNAGly	c
FRUCTURONATE	D-fructuronate	cp
DIHYDROXYNAPHTHOATE	2-carboxy-1,4-naphthoquinol	c
CPD1G-332	2-carboxy-cerotoyl-CoA	p
16S-rRNA-N2-methylguanine966	an N2-methylguanine966 in 16S rRNA	p
CPD-18492	(2E,6Z,9Z,12Z,15Z,18Z)-tetracosahexaenoyl-CoA	c
CPD0-2352	a tRNA precursor with a 5' extension and a short 3' extension	c
D-ERYTHRO-IMIDAZOLE-GLYCEROL-P	D-erythro-imidazole-glycerol-phosphate	cp
Man8-GlcNAc2-protein-A123B12	Man8GlcNAc2-[protein] (isomer 8A1,2,3B1,2)	cp
CARBAMYUL-L-ASPARTATE	N-carbamoyl-L-aspartate	cp
CPD0-2353	a tRNA precursor with a short 3' extension	cp
Acyl-Phosphates	an acyl phosphate	c
AMMONIUM	ammonium	cp
16S-rRNA-N4-methylcytidine1402	an N4-methylcytidine1402  in 16S rRNA	p
UNDECAPRENYL-DIPHOSPHATE	di-trans,octa-cis-undecaprenyl diphosphate	p
STEARIC_ACID	stearate	c
CPD0-2354	a tRNA precursor with a 5' extension	p
CPD0-1123	N-acetyl-&beta;-neuraminate	cp
D-GALACTOSAMINE-6-PHOSPHATE	D-galactosamine 6-phosphate	p
SELENOHOMOCYSTEINE	seleno-L-homocysteine	c
Man8GlcNAc2-protein-A123B13	Man8GlcNAc2-[protein] (isomer 8A1,2,3B1,3)	c
CPD1G-768	6-O-&alpha;-mycolyl-trehalose 6-phosphate	c
Nucleoside-Diphosphates	a nucleoside diphosphate	cp
16S-rRNA-N7-methylguanine527	an N7-methylguanine527 in 16S rRNA	p
CPD-10870	4-chlorophenol	c
CPD-18493	(3S)-hydroxy-(6Z,9Z,12Z,15Z,18Z)-tetracosapentaenoyl-CoA	p
Starch	starch	p
Man8GlcNAc2-protein-A123B23	Man8GlcNAc2-[protein] (isomer 8A1,2,3B2,3)	cp
CPD1G-771	6-O-cis-methoxy-mycolyl-trehalose 6-phosphate	c
16S-rRNA-cytidine1402	a cytidine1402 in 16S rRNA	c
METHYL-THMPT	N5-methyltetrahydromethanopterin	cp
Nucleoside-Monophosphates	a nucleoside 5'-monophosphate	p
DEOXYURIDINE	2'-deoxyuridine	cp
PROTOHEME	ferroheme b	cp
IDP	IDP	cp
ADENOSYL-HOMO-CYS	S-adenosyl-L-homocysteine	p
D-SEDOHEPTULOSE-7-P	D-sedoheptulose 7-phosphate	cp
Nucleoside-Triphosphates	a nucleoside triphosphate	cp
Plastoquinols	a plastoquinol	p
16S-rRNA-guanine-527	a guanine527 in 16S rRNA	c
CPD0-1133	maltoheptaose	c
Red-Thioredoxin	a reduced thioredoxin	cp
DIGLUCO-DOCOSANOATE	sophorosyloxydocosanoate	p
HCN	hydrogen cyanide	c
D-XYLULOSE	D-xylulose	cp
SELENOMETHIONINE	seleno-L-methionine	p
Man9GlcNAc2-proteins	Man9GlcNAc2-[protein]	c
CPD-1099	raffinose	cp
BETAINE	glycine betaine	cp
THF-GLU-N	a tetrahydrofolate	cp
16S-rRNA-guanine-966	a guanine966 in 16S rRNA	c
3-KETOACYL-COA	a 3-oxoacyl-CoA	c
CPD1G-773	6-O-cis-keto-mycolyl-trehalose 6-phosphate	c
CPD-18494	3-oxo-(6Z,9Z,12Z,15Z,18Z)-tetracosapentaenoyl-CoA	c
BETAINE_ALDEHYDE	betaine aldehyde	cp
STEAROYL-COA	stearoyl-CoA	p
DODECANOATE	laurate	c
NIACINE	nicotinate	cp
3-KETOBUTYRATE	acetoacetate	cp
ACETYL-ACP	an acetyl-[acp]	c
Reduced-2Fe-2S-Ferredoxins	a reduced [2Fe-2S] ferredoxin	c
Ribonucleosides	a ribonucleoside	p
Octanoylated-domains	a [lipoyl-carrier protein] N6-octanoyl-L-lysine	cp
CPDQT-38	3-[(5'-methylthio)pentyl]malate	cp
CPD-13575	2-[(2R,5Z)-2-carboxy-4-methylthiazol-5(2H)-ylidene]ethyl phosphate	c
OROTATE	orotate	cp
Beta-D-glucosides	a &beta;-D glucoside	c
Folates	a folate	c
UDP	UDP	cp
18-HYDROXYOLEATE	18-hydroxyoleate	c
3-hydroxy-cis-D7-tetraecenoyl-ACPs	a (3R)-3-hydroxy cis &Delta;7-tetradecenoyl-[acp]	p
3-hydroxy-cis-D9-hexaecenoyl-ACPs	a (3R)-3-hydroxy cis &Delta;9-hexadecenoyl-[acp]	p
N-FORMYLKYNURENINE	N-formylkynurenine	p
5-METHYLTHIOADENOSINE	S-methyl-5'-thioadenosine	cp
R-3-hydroxyhexanoyl-ACPs	a (3R)-3-hydroxyhexanoyl-[acp]	p
LAUROYLCOA-CPD	lauroyl-CoA	p
GERANYLGERANYL-PP	geranylgeranyl diphosphate	cp
3-hydroxypimeloyl-ACP-methyl-esters	a (3R)-3-hydroxypimeloyl-[acp] methyl ester	p
MALTOTRIOSE	maltotriose	cp
CPD0-181	N5-carboxyaminoimidazole ribonucleotide	c
Primary-Amines	a primary amine	p
CPD-11519	3-oxo-2-(cis-2'-pentenyl)-cyclopentane-1-(3R-hydroxyoctanoyl)-CoA	p
Prolipoprotein-Cysteines	a [prolipoprotein]-L-cysteine	c
SHIKIMATE	shikimate	cp
ALA-tRNAs	a tRNAAla	c
Odd-Saturated-Fatty-Acyl-CoA	an odd numbered straight chain 2,3,4-saturated fatty acyl CoA	p
Beta-hydroxydecanoyl-ACPs	a (3R)-3-hydroxydecanoyl-[acp]	p
3-oxo-arachidoyl-ACPs	a 3-oxo-arachidoyl-[acp]	c
Odd-Straight-Chain-234-Sat-FA	an odd numbered straight chain 2,3,4-saturated fatty acid	c
CPDQT-39	3-[(6'-methylthio)hexyl]malate	cp
SHIKIMATE-5P	shikimate 3-phosphate	cp
CPD-1301	tetrahydropteroyl tri-L-glutamate	cp
DOLICHOLP	a dolichyl phosphate	p
R-3-hydroxylignoceroyl-ACPs	a (3R)-3-hydroxylignoceroyl-[acp]	p
CPD-17365	(4Z,7Z,10Z,13Z,16Z)-docosapentaenoyl-CoA	p
RIBOSE-1-ARSENATE	ribose-1-arsenate	p
CPD-12287	hydrogen bromide	c
R-3-hydroxymyristoyl-ACPs	a (3R)-3-hydroxymyristoyl-[acp]	p
CPD-13576	2-(2-carboxy-4-methylthiazol-5-yl)ethyl phosphate	c
3-ENOLPYRUVYL-SHIKIMATE-5P	5-enolpyruvoyl-shikimate 3-phosphate	cp
G3P	3-phospho-D-glycerate	cp
2-KETO-3-DEOXY-D-GLUCARATE	(2S,3S)-2,3-dihydroxy-5-oxohexanedioate	cp
R-3-hydroxypetroselinoyl-ACPs	a (3R)-3-hydroxypetroselinoyl-[acp]	p
CPD-11520	3-oxo-2-(cis-2'-pentenyl)-cyclopentane-1-(3-oxooctanoyl)-CoA	c
Oleoyl-ACPs	an oleoyl-[acp]	c
3-oxo-behenoyl-ACPs	a 3-oxo-behenoyl-[acp]	cp
DATP	dATP	p
P-NITROPHENOL	4-nitrophenol	p
S-2-Haloacids	an (S)-2-haloacid	c
CPD-3708	guanosine 3'-monophosphate	cp
METOH	methanol	cp
CPDQT-40	3-[(7'-methylthio)heptyl]malate	cp
L-ASPARTATE	L-aspartate	cp
S-2-Hydroxyacids1	an (S)-2-hydroxyacid	p
VAL	L-valine	cp
3-HEXAPRENYL-4-HYDROXYBENZOATE	3-hexaprenyl-4-hydroxybenzoate	p
PORPHOBILINOGEN	porphobilinogen	cp
VAL-tRNAs	a tRNAVal	c
R-3-hydroxystearoyl-ACPs	a (3R)-3-hydroxystearoyl-[acp]	p
MELIBIOSE	melibiose	c
S-3-HYDROXYBUTANOYL-COA	(S)-3-hydroxybutanoyl-CoA	p
CPD-11876	3-methoxy-4-hydroxyphenylglycolaldehyde	p
3-oxo-cerotoyl-ACPs	a 3-oxo-cerotoyl-[acp]	c
Oligonucleotides	an oligonucleotide	c
CPD-1302	5-methyltetrahydropteroyl tri-L-glutamate	cp
CPD-17370	18-hydroxyoleoyl-CoA	p
UDP-AA-GLUTAMATE	UDP-N-acetyl-&alpha;-D-muramoyl-L-alanyl-D-glutamate	cp
CPD-11521	3-oxo-2-(cis-2'-pentenyl)-cyclopentane-1-hexanoyl-CoA	p
Adjacent-pyrimidine-dimer-in-DNA	a dimer of adjacent pyrimidine nucleosides in DNA	c
CPD-13612	D-erythro-sphinganine	c
R-4-PHOSPHOPANTOTHENOYL-L-CYSTEINE	(R)-4'-phosphopantothenoyl-L-cysteine	c
GLC	&beta;-D-glucopyranose	cp
CPD-12321	15-cis-phytoene	cp
RIBOSE-1P	&alpha;-D-ribose-1-phosphate	cp
CPDQT-41	10-(methylthio)-2-oxodecanoate	p
GLUTATHIONE	glutathione	p
3-oxo-cis-D7-tetradecenoyl-ACPs	a 3-oxo-cis-&Delta;7-tetradecenoyl-[acp]	cp
Protein-Disulfides	a protein disulfide	p
Pyruvate-dehydrogenase-acetylDHlipoyl	a [pyruvate dehydrogenase E2 protein] N6-S-acetyldihydrolipoyl-L-lysine	cp
3-oxo-cis-D9-hexadecenoyl-ACPs	a 3-oxo-cis-&Delta;9-hexadecenoyl-[acp]	cp
Alcohols	an alcohol	p
PANTETHEINE-P	4'-phosphopantetheine	cp
N-SUCCINYL-2-AMINO-6-KETOPIMELATE	N-succinyl-2-amino-6-ketopimelate	cp
OLEOYL-COA	oleoyl-CoA	cp
L-1-GLYCERO-PHOSPHORYLCHOLINE	sn-glycero-3-phosphocholine	p
MESO-DIAMINOPIMELATE	meso-diaminopimelate	cp
L-ASPARTATE-SEMIALDEHYDE	L-aspartate-semialdehyde	cp
CPD-13684	cholest-5-en-3-one	cp
CPD-17386	(2E,6Z,9Z,12Z,15Z,18Z,21Z)-tetracosaheptaenoyl-CoA	c
PHENOL	phenol	c
Aldehydes	an aldehyde	cp
CPD-11522	3-oxo-2-(cis-2'-pentenyl)-cyclopentane-1-(E-hexa-2-enoyl)-CoA	c
CPD-207	phenylacetyl-CoA	p
UDP-AAGM-DIAMINOHEPTANEDIOATE	UDP-N-acetyl-&alpha;-D-muramoyl-L-alanyl-&gamma;-D-glutamyl-meso-2,6-diaminopimelate	p
Bromide	an organobromine compound	p
CPD-11877	metanephrine	c
LEU	L-leucine	cp
3-oxo-cis-vaccenoyl-ACPs	a 3-oxo-cis-vacc-11-enoyl-[acp]	cp
CPD0-2015	N-acetyl-L-methionine	p
CPD-20735	two adjacent 2'-deoxycytidines in DNA	p
L-1-GLYCEROPHOSPHORYLETHANOL-AMINE	sn-glycero-3-phosphoethanolamine	cp
Pyruvate-dehydrogenase-lipoate	a [pyruvate dehydrogenase E2 protein] N6-lipoyl-L-lysine	cp
CPD-10546	methyl (indol-3-yl)acetate	c
DCDP	dCDP	cp
3-oxo-decanoyl-ACPs	a 3-oxo-decanoyl-[acp]	cp
CPD-20736	adjacent 2'-deoxycytidine-thymidine in DNA	p
GLC-1-P	&alpha;-D-glucopyranose 1-phosphate	cp
OROTIDINE-5-PHOSPHATE	orotidine 5'-phosphate	cp
Oligosaccharides	an oligosaccharide	p
Protein-Histidines	a [protein]-L-histidine	cp
UDP-ACETYL-CARBOXYVINYL-GLUCOSAMINE	UDP-N-acetyl-&alpha;-D-glucosamine-enolpyruvate	cp
CPD-20737	adjacent thymidine-2'-deoxycytidine in DNA	p
LEU-tRNAs	a tRNALeu	c
RIBOSE-5P	D-ribose 5-phosphate	cp
CPD-13171	15,9'-di-cis-phytofluene	cp
DOPAMINE	dopamine	c
OLIGOPEPTIDES	an oligopeptide	c
THMPT	tetrahydromethanopterin	p
GLYOX	glyoxylate	cp
CTP	CTP	cp
Butanoyl-ACPs	a butanoyl-[acp]	c
3-oxo-dodecanoyl-ACPs	a 3-oxo-dodecanoyl-[acp]	cp
GDP	GDP	cp
CPD-17387	(3S)-hydroxy-(6Z,9Z,12Z,15Z,18Z,21Z)-tetracosahexaenoyl-CoA	p
CPD-20741	a dimer of adjacent 2'-deoxycytidines in DNA	c
CPD-20742	a dimer of adjacent thymidines in DNA	c
2-KETO-3-METHYL-VALERATE	(S)-3-methyl-2-oxopentanoate	cp
S-ADENOSYLMETHIONINAMINE	S-adenosyl 3-(methylthio)propylamine	cp
Pyruvate-dehydrogenase-dihydrolipoate	a [pyruvate dehydrogenase E2 protein] N6-dihydrolipoyl-L-lysine	cp
CPD-20743	a dimer of adjacent 2'-deoxycytidine and thymidine in DNA	c
CPD-12018	5-methoxytryptamine	c
3-HYDROXY-ANTHRANILATE	3-hydroxyanthranilate	p
CPD-3709	guanosine 2',3'-cyclic monophosphate	c
N-SUCCINYLLL-2-6-DIAMINOPIMELATE	N-succinyl-L,L-2,6-diaminopimelate	cp
ALL-TRANS-HEPTAPRENYL-DIPHOSPHATE	all-trans-heptaprenyl diphosphate	c
3-oxo-hexanoyl-ACPs	a 3-oxo-hexanoyl-[acp]	cp
CPD-13689	(25S)-3-oxocholest-4-en-26-oate	c
CPD-20744	a dimer of adjacent thymidine and 2'-deoxycytidine in DNA	c
CPD-11524	3-oxo-2-(cis-2'-pentenyl)-cyclopentane-1-(3-oxohexanoyl)-CoA	c
MET	L-methionine	cp
2-KETO-ISOVALERATE	3-methyl-2-oxobutanoate	cp
QUINOLINATE	quinolinate	cp
C1	UDP-N-acetyl-&alpha;-D-muramoyl-L-alanyl-&gamma;-D-glutamyl-meso-2,6-diaminopimeloyl-D-alanyl-D-alanine	c
CPD0-2030	glycerophosphoserine	c
CATECHOL	catechol	p
NICOTINAMIDE_NUCLEOTIDE	&beta;-nicotinamide D-ribonucleotide	cp
P-RIBOSYL-4-SUCCCARB-AMINOIMIDAZOLE	5'-phosphoribosyl-4-(N-succinocarboxamide)-5-aminoimidazole	cp
UDP-D-GALACTO-14-FURANOSE	UDP-&alpha;-D-galactofuranose	cp
Protein-L-glutamine	a [protein]-L-glutamine	c
CPD-17388	3-oxo-(6Z,9Z,12Z,15Z,18Z,21Z)-tetracosahexaenoyl-CoA	c
HS	hydrogen sulfide	cp
2-KETOGLUTARATE	2-oxoglutarate	cp
P3I	PPPi	p
5-P-BETA-D-RIBOSYL-AMINE	5-phospho-&beta;-D-ribosylamine	cp
DIHYDROLIPOYL-GCVH	a [glycine-cleavage complex H protein] N6-dihydrolipoyl-L-lysine	cp
5-10-METHENYL-THF-GLU-N	a 5,10-methenyltetrahydrofolate	cp
3-oxo-lignoceroyl-ACPs	a 3-oxo-lignoceroyl-[acp]	c
S-ADENOSYLMETHIONINE	S-adenosyl-L-methionine	cp
THR	L-threonine	cp
CPD-11525	3-oxo-2-(cis-2'-pentenyl)-cyclopentane-1-butanoyl-CoA	p
NICOTINAMIDE_RIBOSE	1-(&beta;-D ribofuranosyl)nicotinamide	p
DIHYDRONEOPTERIN-P3	7,8-dihydroneopterin 3'-triphosphate	p
DPG	3-phospho-D-glyceroyl-phosphate	cp
CPD-13172	6-hydroxy-2-cyclohexen-one-carboxylate	p
HSCN	thiocyanate	p
CPD-13691	(25S)-3-oxocholest-4-en-26-oyl-CoA	p
THR-tRNAs	a tRNAThr	c
Protein-L-lysine	a [protein]-L-lysine	c
3-oxo-myristoyl-ACPs	a 3-oxo-myristoyl-[acp]	cp
CPD-9965	icosanoyl-CoA	cp
5-AMINO-LEVULINATE	5-aminolevulinate	c
CPD-12019	5-methoxyindoleacetaldehyde	p
RIBULOSE-5P	D-ribulose 5-phosphate	cp
2-3-4-Saturated-L-Phosphatidates	a 1,2-diacyl-sn-glycerol 3-phosphate	c
Palmitoleoyl-ACPs	a palmitoleoyl-[acp]	c
CPD-237	(indol-3-yl)acetamide	c
CPD0-2105	3-oxododecanoyl-CoA	cp
N-Substituted-Amino-Acids	an N-modified amino acid	p
PPI	diphosphate	cp
SN-GLYCEROL-1-PHOSPHATE	sn-glycerol 1-phosphate	p
3-oxo-palmitoyl-ACPs	a 3-oxo-palmitoyl-[acp]	cp
CPD-3711	cytidine-3'-monophosphate	cp
L-1-PHOSPHATIDYL-GLYCEROL	an L-1-phosphatidyl-sn-glycerol	c
Protein-L-methionine	a [protein]-L-methionine	cp
CPD-12427	7,8-dihydro-8-oxoguanine	p
DCMP	dCMP	c
CPD-12045	&alpha;-L-arabinofuranose	p
CPD-11526	3-oxo-2-(cis-2'-pentenyl)-cyclopentane-1-(E-buta-2-enoyl)-CoA	c
Palmitoyl-ACPs	a palmitoyl-[acp]	c
Protein-L-methionine-R-S-oxides	a protein-L-methionine-(R)-S-oxide	cp
CPD-13174	salicyl-6-hydroxy-2-cyclohexene-on-oyl	c
C4	undecaprenyl-diphospho-N-acetylmuramoyl-L-alanyl-&gamma;-D-glutamyl-L-lysyl- D-alanyl-D-alanine	c
3-oxo-petroselinoyl-ACPs	a 3-oxo-petroselinoyl-[acp]	cp
OLEATE-CPD	oleate	cp
N-Substituted-Aminoacyl-tRNA	an N-modified aminoacyl-[tRNA]	c
L-1-PHOSPHATIDYL-GLYCEROL-P	1-(3-sn-phosphatidyl)-sn-glycerol 3-phosphate	p
CPD0-2106	3-oxooctanoyl-CoA	cp
MANNITOL-1P	D-mannitol 1-phosphate	cp
N-acetyl-D-glucosamine	N-acetyl-D-glucosamine	p
L-3-HYDROXYACYL-COA	a (3S)-3-hydroxyacyl-CoA	p
VERY-LONG-CHAIN-FATTY-ACYL-COA	a very long chain fatty acyl-CoA	p
2-LYSOPHOSPHATIDYLETHANOLAMINES	a 1-acyl 2-lyso-phosphatidylethanolamine	c
5-DEHYDROGLUCONATE	5-dehydro-D-gluconate	p
Protein-L-methionine-S-S-oxides	a protein-L-methionine-(S)-S-oxide	c
DCTP	dCTP	cp
THREO-DS-ISO-CITRATE	D-threo-isocitrate	cp
S-CD-S-SP-Complex	an S-sulfanyl-[cysteine desulfurase]-S-sulfanyl-[disordered-form scaffold protein] complex	p
PANTOTHENATE	(R)-pantothenate	p
Orthophosphoric-Monoesters	a phosphate monoester	c
CPD-11527	3-oxo-2-(cis-2'-pentenyl)-cyclopentane-1-(3R-hydroxybutanoyl)-CoA	p
CPD-9925	1,4-dihydroxy-2-naphthoyl-CoA	p
CL-	chloride	cp
3-oxo-stearoyl-ACPs	a 3-oxo-stearoyl-[acp]	cp
LINOLEIC_ACID	linoleate	c
CPD-15677	4-trans-undecenoyl-CoA	p
Charged-GLT-tRNAs	an L-glutamyl-[tRNAGlu]	c
b-Hydroxy-cis-D5-dodecenoyl-ACPs	a (3R,5Z)-3-hydroxy-dodec-5-enoyl-[acp]	p
CPD-649	sphinganine 1-phosphate	p
DIGLUCOACETYL-DOCOSANOATE	13-[O(2')-&beta;-D-glucopyranosyl-&beta;-D-glucopyranosyloxy]docosanoate O(6'')-acetate	cp
CPD-15056	(2Z)-2-aminobut-2-enoate	cp
CPD-14268	(15Z)-tetracosenoate	c
Proteins-with-correct-disulfides	a protein with correct disulfide bonds	cp
Cyclic-2-3-Ribonucleoside-Monophosphates	a ribonucleoside 2',3'-cyclic phosphate	c
2-AMINOMUCONATE_SEMIALDEHYDE	(2Z,4E)-2-amino-6-oxohexa-2,4-dienoate	c
Proteins-with-incorrect-disulfides	a protein with incorrect disulfide bonds	cp
b-Keto-cis-D5-dodecenoyl-ACPs	a (5Z)-3-oxo-dodec-5-enoyl-[acp]	cp
N-ACETYL-D-GLUCOSAMINE-6-P	N-acetyl-D-glucosamine 6-phosphate	cp
L-PANTOATE	(R)-pantoate	c
GLUTAMATE-1-SEMIALDEHYDE	(S)-4-amino-5-oxopentanoate	p
Charged-GLY-tRNAs	a glycyl-[tRNAGly]	p
Charged-HIS-tRNAs	an L-histidyl-[tRNAHis]	p
CPD-30	4-acetamidobutanal	p
O-UREIDOHOMOSERINE	O-ureido-L-homoserine	c
DNA-Ligase-L-lysine	a [DNA ligase]-L-lysine	cp
Cyclic-3-5-Nucleoside-Monophosphates	a nucleoside cyclic 3',5'-monophosphate	c
IMP	IMP	cp
ALL-TRANS-HEXAPRENYL-DIPHOSPHATE	all-trans-hexaprenyl diphosphate	c
CPD-15678	4-trans-3-oxo-undecenoyl-CoA	c
Charged-ILE-tRNAs	an L-isoleucyl-[tRNAIle]	p
biotin-L-lysine-in-BCCP-dimers	a [biotin carboxyl-carrier-protein dimer]-N6-biotinyl-L-lysine	cp
Charged-LEU-tRNAs	an L-leucyl-[tRNALeu]	p
CPD-377	2-keto-D-gluconate	cp
HYDROXYMETHYLBILANE	preuroporphyrinogen	cp
TMP	dTMP	cp
All-tRNAs	a tRNA	p
ALPHA-GLUCOSE	&alpha;-D-glucopyranose	cp
Charged-LYS-tRNAs	an L-lysyl-[tRNALys]	p
ETR-Quinols	an electron-transfer quinol	p
PROPIONAMIDE	propionamide	c
PHTYOSPHINGOSINE-1-P	phytosphingosine 1-phosphate	p
OXALACETIC_ACID	oxaloacetate	cp
CPD-782	3,4-dihydroxyphenylacetate	c
ALPHA-GLUCOSE-16-BISPHOSPHATE	&alpha;-glucose 1,6-bisphosphate	cp
Charged-MET-tRNAs	an L-methionyl-[elongator tRNAMet]	p
DIGLUCODIACETYL-DOCOSANOATE	13-sophorosyloxydocosanoate 6',6''-diacetate	c
ETR-Quinones	an electron-transfer quinone	c
4-CARBOXYMETHYLENEBUT-2-EN-4-OLIDE	cis-dienelactone	c
carboxybiotin-L-lysine-in-BCCP-dimers	a [carboxyl-carrier protein dimer]-N6-carboxybiotinyl-L-lysine	cp
CPD-15687	5-cis, 7-trans-3-oxo-tetradecadienoyl-CoA	c
All-trans-Retinyl-Esters	an all-trans-retinyl ester	c
CPD-15244	3-oxo-(5Z)-tetradecenoyl-CoA	c
2-ACETO-2-HYDROXY-BUTYRATE	(S)-2-aceto-2-hydroxybutanoate	c
N-ACETYL-GLUTAMYL-P	N-acetylglutamyl-phosphate	cp
CPD-14269	(Z)-15-tetracosenoyl-CoA	p
GTP	GTP	cp
Alpha-6-alpha-14-glucans	a (1,6)-&alpha;-D-glucosyl-(1,4)-&alpha;-glucan	p
Charged-PRO-tRNAs	an L-prolyl-[tRNAPro]	p
CPD-31	(R)-citramalate	cp
TRANS-2-CHLORO-4-CARBOXYMETHYLENEBUT-2-E	2-chloro-trans-dienelactone	c
Purine-Bases	a purine base	cp
L-PHOSPHATIDATE	a 1,2-diacyl-sn-glycerol 3-phosphate	c
MALONYL-ACP	a malonyl-[acp]	cp
OXALO-SUCCINATE	oxalosuccinate	cp
Charged-SER-tRNAs	an L-seryl-[tRNAser]	p
Alpha-Amyloses	&alpha;-amylose	c
CPD-15688	(3Z,5E)-dodeca-3,5-dienoyl-CoA	p
L-PHOSPHINOTHRICIN	L-phosphinothricin	c
CPD-316	reduced riboflavin	p
HYDRPHENYLAC-CPD	(4-hydroxyphenyl)acetaldehyde	p
MALONYL-COA	malonyl-CoA	cp
PROPIONATE	propanoate	p
CPD-15301	caldariellaquinol	p
2-C-METHYL-D-ERYTHRITOL-4-PHOSPHATE	2-C-methyl-D-erythritol 4-phosphate	cp
Charged-THR-tRNAs	an L-threonyl-[tRNAThr]	p
CPD-380	3-sulfopyruvate	cp
CPD-783	2-hydroxy-5-carboxymethylmuconate semialdehyde	p
Alpha-D-Galactosides	an &alpha;-D-galactoside	c
Cysteine-Desulfurase-L-cysteine	an [L-cysteine desulfurase]-L-cysteine	cp
HISTIDINAL	histidinal	cp
CPD-654	2,5-dioxopentanoate	cp
Charged-TRP-tRNAs	an L-tryptophanyl-[tRNATrp]	p
CPD-14443	(2S,4S)-4-hydroxy-2,3,4,5-tetrahydrodipicolinate	cp
OCTADEC-9-ENE-118-DIOIC-ACID	&alpha;,&omega;-9Z-octadecenedioate	c
Purine-Deoxyribonucleosides	a purine 2'-deoxyribonucleoside	cp
Charged-TYR-tRNAs	an L-tyrosyl-[tRNATyr]	p
AGMATHINE	agmatine	c
CPD-15691	(5E)-3-oxo-dodec-5-enoyl-CoA	c
DIHYDRO-DIOH-BENZOATE	(2S,3S)-2,3-dihydroxy-2,3-dihydrobenzoate	p
CPD-8180	DNA with lesion	c
L-RIBULOSE	L-ribulose	cp
Cytidine-34-tRNAIle2	a cytidine34 in tRNAIle2	c
3-CARBOXY-3-HYDROXY-ISOCAPROATE	(2S)-2-isopropylmalate	cp
Charged-VAL-tRNAs	an L-valyl-[tRNAVal]	p
DTDP-D-GLUCOSE	dTDP-&alpha;-D-glucose	cp
CPD-15317	D-ribofuranose 5-phosphate	p
CPD-3801	melibionate	c
Charged-fMET-tRNAs	an N-formyl-L-methionylaminoacyl-tRNA	c
L-RIBULOSE-5-P	L-ribulose 5-phosphate	cp
CPD-15318	&alpha;-D-ribose 5-phosphate	p
DNA-Ligase-L-lysine-adenylate	a [DNA ligase]-N6-(5'-adenylyl)-L-lysine	cp
Cytochromes-C-Oxidized	an oxidized c-type cytochrome	cp
CPD-15692	(3E)-dec-3-enoyl-CoA	p
OCTANOL	1-octanol	p
ISOBUTYRATE	isobutanoate	c
CPD-8259	&beta;-D-ribosylnicotinate	p
2-CHLOROMALEYLACETATE	2-chloromaleylacetate	p
CPD-663	UDP-4-dehydro-6-deoxy-&alpha;-D-glucose	cp
CPD-317	CoA-disulfide	cp
4-CYTIDINE-5-DIPHOSPHO-2-C	4-(cytidine 5'-diphospho)-2-C-methyl-D-erythritol	c
THYMIDINE	thymidine	cp
PHENYL-PYRUVATE	keto-phenylpyruvate	cp
Purine-Ribonucleosides	a purine ribonucleoside	cp
PHYTOSPINGOSINE	phytosphingosine	c
UROPORPHYRINOGEN-III	uroporphyrinogen-III	cp
ALLO-THR	DL-allothreonine	c
Cytochromes-C-Reduced	a reduced c-type cytochrome	cp
OCTAPRENYL-DIPHOSPHATE	all-trans-octaprenyl diphosphate	c
CPD-14553	UDP-&alpha;-D-galactose	cp
CPD-8355	1-18:1-2-lysophosphatidylethanolamine	c
4-GUANIDO-BUTYRAMIDE	4-guanidinobutyramide	c
TRANS-23-DEHYDROADIPYL-COA	trans-2,3-dehydroadipyl-coA	cp
CPD-15360	2-sulfanyl-N6-dimethylallyladenosine37 in tRNA	cp
N-ACETYLNEURAMINATE	N-acetylneuraminate	p
PHENYLACETALDEHYDE	phenylacetaldehyde	cp
2-D-THREO-HYDROXY-3-CARBOXY-ISOCAPROATE	(2R,3S)-3-isopropylmalate	cp
GDP-TP	pppGpp	p
HYPOXANTHINE	hypoxanthine	cp
Sulfur-Carrier-Proteins-ThiI	a [ThiI sulfur-carrier protein]-L-cysteine	cp
CPD-320	ethylnitronate	c
CPD-667	O-acetyl-L-homoserine	cp
2-DEHYDRO-3-DEOXY-D-GLUCONATE	2-dehydro-3-deoxy-D-gluconate	p
CPD-4211	dimethylallyl diphosphate	cp
ERYTHROSE-4P	D-erythrose 4-phosphate	cp
Amino-Acids-20	a proteinogenic amino acid	cp
Elongation-tRNAMet	elongator tRNAMet	c
PLASTOQUINONE	a plastoquinone	c
AICAR	5-amino-1-(5-phospho-D-ribosyl)imidazole-4-carboxamide	cp
ALPHA-D-GALACTOSE	&alpha;-D-galactose	cp
DIHYDROFOLATE	7,8-dihydrofolate monoglutamate	p
CPD-8534	DNA without lesion	p
Sulfurated-Sulfur-Acceptors	a sulfurated [sulfur carrier]	cp
TRANS-3-METHYL-GLUTACONYL-COA	3-methylglutaconyl-CoA	p
ISOBUTYRYL-COA	isobutanoyl-CoA	cp
4-HYDROXY-L-PROLINE	trans-4-hydroxy-L-proline	p
D-3-HYDROXYACYL-COA	a (3R)-3-hydroxyacyl-CoA	cp
DIHYDROFOLATE-GLU-N	a 7,8-dihydrofolate	cp
3-DEHYDRO-SHIKIMATE	3-dehydroshikimate	cp
CPD-6746	1D-myo-inositol 2-monophosphate	c
mRNA-Fragments	an mRNA fragment	p
Sulfurylated-ThiI	a [ThiI sulfur-carrier protein]-S-sulfanyl-L-cysteine	cp
CPD-448	&beta;-D-glucopyranose 1-phosphate	cp
L-SELENOCYSTEINE	L-selenocysteine	p
D-6-P-GLUCONO-DELTA-LACTONE	6-phospho D-glucono-1,5-lactone	c
CPD-14675	pristanoyl-CoA	p
CPD-8624	a [protein]-L-proline (&omega; = 180)	cp
PHENYLACETATE	phenylacetate	cp
PROPIONYL-COA	propanoyl-CoA	cp
CPD-15382	keto-D-fructose	cp
MALTOHEXAOSE	maltohexaose	cp
AMINO-HYDROXYMETHYL-METHYLPYRIMIDINE-PP	4-amino-2-methyl-5-(diphosphomethyl)pyrimidine	c
2-DEHYDROPANTOATE	2-dehydropantoate	cp
AMP	AMP	cp
CPD-7100	(2S)-2-isopropyl-3-oxosuccinate	cp
FUM	fumarate	cp
CPD-9924	2-succinyl-5-enolpyruvoyl-6-hydroxy-3-cyclohexene-1-carboxylate	p
CPD-19148	(5Z)-dodecenoyl-CoA	cp
CPD-16569	kojibiose	cp
3-Ketoglutaryl-ACP-methyl-ester	a 3-oxo-glutaryl-[acp] methyl ester	cp
PYRIDOXAMINE	pyridoxamine	c
CPD-16572	selaginose	cp
ACYL-SN-GLYCEROL-3P	a 1-acyl-sn-glycerol 3-phosphate	p
PYRIDOXAMINE-5P	pyridoxamine 5'-phosphate	cp
3-HYDROXYADIPYL-COA	(3S)-hydroxyadipyl-CoA	cp
NAD	NAD+	cp
Lipoprotein-signal-peptide	a lipoprotein signal peptide	p
3-Ketopimeloyl-ACP-methyl-esters	a 3-oxo-pimeloyl-[acp] methyl ester	cp
DI-H-OROTATE	(S)-dihydroorotate	cp
CPD-9152	4-chlorocatechol	p
GLY	glycine	cp
Supercoiled-Duplex-DNAs	a supercoiled duplex DNA	c
CPD-19150	(2E,5Z)-dodecenoyl-CoA	cp
tRNA-Sec	a tRNAsec	c
ETF-Oxidized	an oxidized electron-transfer flavoprotein	c
DIHYDROXYPHENYLGLYCOLALDEHYDE	3,4-dihydroxyphenylglycolaldehyde	p
CPD-105	(R)-4-hydroxymandelate	c
Lipoyl-Protein-L-Lysine	a [lipoyl-carrier protein]-L-lysine	c
K-HEXANOYL-COA	3-oxohexanoyl-CoA	p
7-8-DIHYDROPTEROATE	7,8-dihydropteroate	c
MONOMER0-4342	a [prolipoprotein]-(S-diacylglyceryl)-L-cysteine	cp
B-ALANINE	&beta;-alanine	cp
Hepta-oxo-hexadecanoyl-ACPs	a 3,5,7,9,11,13,15-hepta-oxo-hexadecanoyl-[PKS-acp]	c
DTDP-DEOH-DEOXY-GLUCOSE	dTDP-4-dehydro-6-deoxy-&alpha;-D-glucopyranose	p
ATP	ATP	cp
SUC	succinate	cp
tRNA-fragment	a tRNA fragment	p
FORMALDEHYDE	formaldehyde	cp
Lipoyl-Protein-N6-lipoyllysine	a [lipoyl-carrier protein]-N6-lipoyl-L-lysine	p
D-Xylopyranose	D-xylopyranose	cp
SUPER-OXIDE	superoxide	c
CPD-16606	UDP-2-acetamido-4-amino-2,4,6-trideoxy-&alpha;-D-galactose	cp
T2-DECENOYL-COA	(2E)-dec-2-enoyl-CoA	c
TRYPTAMINE	tryptamine	c
DIMETHYL-D-RIBITYL-LUMAZINE	6,7-dimethyl-8-(1-D-ribityl)lumazine	cp
SUC-COA	succinyl-CoA	cp
ACETYLSERINE	O-acetyl-L-serine	cp
HOMO-CYS	L-homocysteine	cp
CPD-7221	(3Z)-dodec-3-enoyl-CoA	p
tRNA-precursors	a tRNA precursor	c
CPD-569	N-acetylputrescine	c
2K-4CH3-PENTANOATE	4-methyl-2-oxopentanoate	cp
DIAMINO-OH-PHOSPHORIBOSYLAMINO-PYR	2,5-diamino-6-(5-phospho-D-ribosylamino)pyrimidin-4(3H)-one	c
tRNA-pseudouridine-38-40	a pseudouridine38-40 in tRNA	p
ISOCHORISMATE	isochorismate	cp
CPD-19151	(S)-3-hydroxy-(5Z)-dodecenoyl-CoA	p
RHg	an alkylmercury	cp
CPD-9245	palmitoleate	c
DEOXYXYLULOSE-5P	1-deoxy-D-xylulose 5-phosphate	cp
CPD0-1162	(2E,5Z)-tetradecenoyl-CoA	cp
SUCC-S-ALD	succinate semialdehyde	cp
CPD-9956	ubiquinol-8	p
DTDP-DEOH-DEOXY-MANNOSE	dTDP-4-dehydro-&beta;-L-rhamnose	c
CPD-729	12-oxo-cis-10,15-phytodienoate	c
GLYCERALD	D-glyceraldehyde	p
TARTRONATE-S-ALD	tartronate semialdehyde	cp
CPD-16953	2-amino-6-[1-hydroxyethyl]-7-methyl-7,8-dihydropterin	c
tRNA-uridine-38-40	a uridine38-40 in tRNA	c
3-METHYL-CROTONYL-COA	3-methylcrotonyl-CoA	c
CPD-9247	cis-vaccenate	c
MYO-INOSITOL	myo-inositol	p
DEPHOSPHO-COA	3'-dephospho-CoA	cp
Fatty-Acids	a fatty acid	p
PROTON	H+	cp
B-KETOACYL-ACP	a 3-oxoacyl-[acp]	cp
CPD-19153	3-oxo-(5Z)-dodecenoyl-CoA	c
ETF-Reduced	a reduced electron-transfer flavoprotein	p
NAD-P-OR-NOP	NAD(P)+	cp
tRNA-uridine34	a uridine34 in tRNA	c
HCO3	hydrogencarbonate	cp
ISOVALERATE	isovalerate	c
CPD-16954	[1-(2-amino-7-methyl-4-oxo-7,8-dihydro-3H-pteridin-6-yl)]ethyl diphosphate	p
D-galactopyranose	D-galactopyranose	p
PHOSPHORIBOSYL-AMP	1-(5-phospho-&beta;-D-ribosyl)-AMP	cp
CPD0-1163	(S)-3-hydroxy-(5Z)-tetradecenoyl-CoA	p
Long-Chain-Acyl-CoAs	a long-chain acyl-CoA	p
CYTIDINE	cytidine	cp
2-OCTAPRENYL-6-HYDROXYPHENOL	3-(all-trans-octaprenyl)benzene-1,2-diol	c
tRNA-uridines	a uridine in tRNA	c
ETHANOL-AMINE	ethanolamine	p
CPD-170	stachyose	c
FORMAMIDE	formamide	p
CPD-730	3-oxo-2-(cis-2'-pentenyl)-cyclopentane-1-octanoate	p
RIBOFLAVIN	riboflavin	cp
D-glucopyranose-6-phosphate	D-glucopyranose 6-phosphate	cp
CPD-19154	(S)-3-hydroxy-(7Z)-tetradecenoyl-CoA	p
DUTP	dUTP	cp
CPD-17063	ferroheme o	p
tRNAs	an uncharged tRNA	p
PTS-I-Histidines	a [PTS enzyme I]-L-histidine	cp
COPROPORPHYRINOGEN_I	coproporphyrinogen I	p
THYMINE	thymine	cp
KDO2-LIPID-A	&alpha;-D-Kdo-(2&rarr;4)-&alpha;-D-Kdo-(2&rarr;6)-lipid A	c
COPROPORPHYRINOGEN_III	coproporphyrinogen III	p
BCAA-dehydrogenase-2MB-DH-lipoyl	an [apo BCAA dehydrogenase E2 protein] N6-S-[2-methylbutanoyl]dihydrolipoyl-L-lysine	cp
PTS-I-pi-phospho-L-histidines	a [PTS enzyme I]-N&pi;-phospho-L-histidine	cp
3-Methyl-Adenines	3-methyladenine	p
METHYLAMINE	methylamine	p
CPD-106	(S)-4-hydroxymandelate	p
CPD-10600	4-hydroxybenzoyl-acetyl-CoA	c
CPD-9451	2-isopropylmaleate	cp
DIPEPTIDES	a dipeptide	p
HOMO-SER	L-homoserine	cp
tRNAs-with-CCA	a tRNA containing a 3' CCA end	p
CPD-578	urea-1-carboxylate	c
CPD0-1189	4-amino-4-deoxy-&alpha;-L-arabinopyranosyl ditrans,octacis-undecaprenyl phosphate	c
CPD-19155	(S)-3-hydroxy-(9Z)-hexadecenoyl-CoA	p
5Z-3-oxo-tetradec-5-enoyl-ACPs	a (5Z)-3-oxo-tetradec-5-enoyl-[acp]	cp
Long-Chain-Fatty-Acids	a long-chain fatty acid	c
BCAA-dehydrogenase-2MP-DH-lipoyl	an [apo BCAA dehydrogenase E2 protein] N6-S-[2-methylpropanoyl]dihydrolipoyl-L-lysine	cp
CPD-10608	trans-dienelactone	c
PHOSPHORIBOSYL-ATP	1-(5-phospho-&beta;-D-ribosyl)-ATP	cp
CPD-9999	N-acetylphosphinothricin	p
DTDP-RHAMNOSE	dTDP-&beta;-L-rhamnose	p
CPD-11875	normetanephrine	c
2-ACETO-LACTATE	(S)-2-acetolactate	c
Long-Chain-Polyphosphate	long chain polyphosphate	cp
Saturated-Fatty-Acyl-ACPs	a 2,3,4-saturated fatty acyl-[acp]	c
2-OCTAPRENYL-6-METHOXYPHENOL	2-methoxy-6-(all-trans-octaprenyl)phenol	p
7Z-3-oxo-hexadec-7-enoyl-ACPs	a (7Z)-3-oxo-hexadec-7-enoyl-[acp]	cp
7Z-hexadec-7-enoyl-ACPs	a (7Z)-hexadec-7-enoyl-[acp]	c
CPD-19157	3-oxo-(7Z)-tetradecenoyl-CoA	c
3-Methyl-Saturated-Fatty-Acids	a 3-methyl-branched 2,3,4-saturated fatty acid	c
FORMATE	formate	p
DADP	dADP	c
Saturated-Fatty-Acyl-CoA	a 2,3,4-saturated fatty acyl CoA	cp
GERANYL-PP	geranyl diphosphate	cp
S2O3	thiosulfate	cp
9Z-3-oxo-octadec-9-enoyl-ACPs	a (9Z)-3-oxo-octadec-9-enoyl-[acp]	cp
3-Methyl-Saturated-Fatty-Acyl-CoA	a 3-methyl-branched 2,3,4-saturated fatty acyl-CoA	p
DITP	dITP	cp
PUTRESCINE	putrescine	cp
A-5-prime-PP-5-prime-DNA	an adenosine-5'-diphospho-5'-[DNA]	cp
CPD0-1027	a debranched &alpha;-limit dextrin	c
BCAA-dehydrogenase-3MB-DH-lipoyl	a [apo BCAA dehydrogenase E2 protein] N6-S-[3-methylbutanoyl]dihydrolipoyl-L-lysine	p
CPD-592	4-guanidinobutanoate	p
NADH	NADH	cp
CPD0-1456	UDP-N-acetyl-&alpha;-D-muramoyl-L-alanine	cp
ACET	acetate	cp
ISOVALERYL-COA	isovaleryl-CoA	cp
GLYCEROL	glycerol	cp
CPD-10011	demethyl-L-phosphinothricin	c
GLYCEROL-3P	sn-glycerol 3-phosphate	cp
CPD-5923	5'-deoxy-5'-fluoroadenosine	c
NADH-P-OR-NOP	NAD(P)H	cp
CPD-19158	3-oxo-(9Z)-hexadecenoyl-CoA	c
CPD-171	a dolichyl &beta;-D-mannosyl phosphate	c
PYRAZINAMIDE	pyrazinamide	c
Secondary-Alcohols	a secondary alcohol	cp
BCAA-dehydrogenase-DH-lipoyl	an [apo BCAA dehydrogenase E2 protein] N6-dihydrolipoyl-L-lysine	cp
CPD-173	salicyl alcohol	p
CPD-9610	all-trans-decaprenyl diphosphate	c
DNA-N	DNAn	cp
CPD0-1081	N-acetyl-&beta;-D-glucosamine-1,6-anhydro-N-acetyl-&beta;-D-muramate	c
CPD-17312	docosahexaenoyl-CoA	p
CPD-10267	decanoyl-CoA	cp
ACETALD	acetaldehyde	cp
ETOH	ethanol	cp
BCAA-dehydrogenase-lipoyl	an [apo BCAA dehydrogenase E2 protein] N6-lipoyl-L-lysine	cp
3-OCTAPRENYL-4-HYDROXYBENZOATE	3-octaprenyl-4-hydroxybenzoate	p
CPD-19159	(S)-3-hydroxy-(11Z)-octadecenoyl-CoA	p
L-BETA-ASPARTYL-P	L-aspartyl-4-phosphate	cp
CPD-110	salicylate	p
GALACTOSE	&beta;-D-galactose	cp
N-acetyl-D-mannosamine	N-acetyl-D-mannosamine	c
CPD-19170	(2E,7Z)-hexadecenoyl-CoA	cp
CPD1G-774	6-O-trans-keto-mycolyl-trehalose 6-phosphate	c
D-GLT	D-glutamate	cp
SO3	sulfite	cp
Deoxy-Ribonucleoside-Monophosphates	a 2'-deoxyribonucleoside 5'-monophosphate	p
DEOXY-RIBOSE-5P	2-deoxy-D-ribose 5-phosphate	cp
PHOSPHORIBOSYL-CARBOXY-AMINOIMIDAZOLE	5-amino-1-(5-phospho-D-ribosyl)imidazole-4-carboxylate	cp
GALACTOSE-1P	&alpha;-D-galactose 1-phosphate	cp
2-ALPHA-HYDROXYETHYL-THPP	2-(&alpha;-hydroxyethyl)thiamine diphosphate	cp
L-CANALINE	L-canaline	p
CPD0-2500	p-nitrophenyl-&alpha;-D-galactopyranoside	c
DEOXYADENOSINE	2'-deoxyadenosine	cp
N-acetyl-beta-D-hexosamines	an N-acetyl-&beta;-D-hexosamine	p
Octanoylated-Gcv-H	a [glycine-cleavage complex H protein] N6-octanoyl-L-lysine	cp
Deoxy-Ribonucleoside-Triphosphates	a 2'-deoxyribonucleoside 5'-triphosphate	c
Mannosyl5-N-Glycans	Man5GlcNAc2-[protein] (isomer 5A1,2)	p
NONAPRENYL-4-HYDROXYBENZOATE	3-nonaprenyl-4-hydroxybenzoate	p
SER	L-serine	cp
General-Protein-Substrates	a protein	cp
Gcv-H	[glycine cleavage system lipoyl-carrier protein]-L-lysine	c
ACETYL-COA	acetyl-CoA	cp
CPD-17621	16-hydroxypalmitoyl-CoA	p
CH3-MALONATE-S-ALD	(S)-methylmalonate-semialdehyde	cp
CPD-10753	2,4-diacetamido-2,4,6-trideoxy-&beta;-L-altropyranose	c
C5	undecaprenyldiphospho-N-acetylmuramoyl-L-alanyl-&gamma;-D-glutamyl-meso-2,6-diaminopimeloyl-D-alanyl-D-alanine	cp
CPD-19171	(S)-3-hydroxy-(9Z)-octadecenoyl-CoA	p
CPD0-881	N-acetyl-D-muramate 6-phosphate	cp
Peptide-with-N-terminal-Alanine	a peptide with an N-terminal L-alanine	c
ARG-tRNAs	a tRNAArg	c
GlcMan9GlcNAc2-proteins	GlcMan9GlcNAc2-[protein]	c
UDP-4-AMINO-4-DEOXY-L-ARABINOSE	UDP-4-amino-4-deoxy-&beta;-L-arabinopyranose	cp
N-formyl-L-methionyl-tRNAfmet	an N-formyl-L-methionyl-[initiator tRNAmet]	p
CPD0-2117	trans-hexadec-2-enoyl-CoA	c
RNA-DNA-hybrids	a RNA-DNA hybrid	c
CPD-13754	3-[(3aS,4S,7aS)-7a-methyl-1,5-dioxo-octahydro-1H-inden-4-yl]propanoyl-CoA	p
GlgE-Glycogen	a GlgE-glycogen	p
D-GLUCOSAMINE-6-P	D-glucosamine 6-phosphate	cp
SER-tRNAs	a tRNAser	c
Peptides-holder	a peptide	p
C6	ditrans,octacis-undecaprenyldiphospho-[(N-acetyl-&beta;-D-glucosaminyl)-(1,4)-]-N-acetyl-&alpha;-D-muramoyl-L-alanyl-&gamma;-D-glutamyl-meso-2,6-diaminopimeloyl-D-alanyl-D-alanine	cp
CPD-17624	&omega;-carboxy-(9Z)-octadec-9-enoyl-CoA	p
FE+2	Fe2+	cp
CPD66-39	a 2,3,4-saturated fatty acid	c
D-GLUCARATE	D-glucarate	c
RNA-Holder	a ribonucleic acid	cp
URACIL	uracil	cp
N-terminal-L-Serine	an N-terminal L-seryl-[protein]	p
ILE	L-isoleucine	cp
CPDQT-27	6-(methylthio)-2-oxohexanoate	p
CPD-19172	(2E,9Z)-octadecenoyl-CoA	cp
SOLANESYL-PYROPHOSPHATE	all-trans-nonaprenyl diphosphate	c
CPD-10754	pseudaminate	p
CPD-11281	S-sulfanylglutathione	c
GLUCONATE	D-gluconate	p
CPD-122	(S)-mandelate	p
PHOSPHORIBOSYL-FORMAMIDO-CARBOXAMIDE	5-formamido-1-(5-phospho-D-ribosyl)-imidazole-4-carboxamide	cp
N-terminal-L-alanine	an N-terminal L-alanyl-[protein]	p
4-PHOSPHONOOXY-THREONINE	4-phosphooxy-L-threonine	cp
THIAMINE-P	thiamine phosphate	cp
CPD-13847	UDP-2-acetamido-2,6-dideoxy-&alpha;-D-xylo-hex-4-ulose	cp
CH33ADO	5'-deoxyadenosine	p
CPD-17637	7-hydroxylaurate	c
ILE-tRNAs	a tRNAIle	c
Glucopyranose	D-glucopyranose	cp
RNASE-G-DEGRADATION-SUBSTRATE-MRNA	RNase G degradation substrate mRNA	c
L-CITRULLINE	L-citrulline	c
MALTOOLIGOSYLTREHALOSE	a maltooligosyl-trehalose	cp
CPD0-2121	trans-hex-2-enoyl-CoA	p
Persulfurated-L-cysteine-desulfurases	an S-sulfanyl-[L-cysteine desulfurase]	p
CPDQT-28	7-(methylthio)-2-oxoheptanoate	p
RNASE-III-MRNA-PROCESSING-SUBSTRATE	RNase III mRNA processing substrate	c
THIAMINE-PYROPHOSPHATE	thiamine diphosphate	cp
L-CYSTATHIONINE	L-cystathionine	cp
4-hydroxybenzoate	4-hydroxybenzoate	cp
CPD0-882	1,6-anhydro-N-acetyl-&beta;-muramate	cp
PHOSPHORIBOSYL-FORMIMINO-AICAR-P	1-(5-phospho-&beta;-D-ribosyl)-5-[(5-phosphoribosylamino)methylideneamino]imidazole-4-carboxamide	cp
RNASE-III-PROCESSING-PRODUCT-MRNA	RNase III processing product mRNA	p
CPD-19251	flavuxanthin	c
3-HYDROXY-ISOBUTYRYL-COA	3-hydroxy-isobutanoyl-CoA	c
N-terminal-L-cysteine	an N-terminal L-cysteinyl-[protein]	p
MALTOPENTAOSE	maltopentaose	cp
SPERMIDINE	spermidine	cp
DEOXYCYTIDINE	2'-deoxycytidine	c
NOREPINEPHRINE	(R)-noradrenaline	c
DIHYDROPTERIN-CH2OH-PP	(7,8-dihydropterin-6-yl)methyl diphosphate	p
2-AMINO-MUCONATE	(2Z,4E)-2-aminomuconate	p
CPD-17638	7-hydroxylauroyl-CoA	p
CPD-19254	decaprenoxanthin	p
CPDQT-29	8-(methylthio)-2-oxooctanoate	p
HYDROGEN-PEROXIDE	hydrogen peroxide	cp
ADENINE	adenine	cp
BIO-5-AMP	biotinyl-5'-adenylate	p
INDOLE	indole	cp
N-terminal-L-valine	an N-terminal L-valyl-[protein]	p
Diacylglycerol-Prolipoproteins	an [apolipoprotein]-(S-diacylglyceryl)-L-cysteine	p
INDOLE-3-GLYCEROL-P	(1S,2R)-1-C-(indol-3-yl)glycerol 3-phosphate	cp
CMP	CMP	cp
CPD0-2123	3-oxodecanoyl-CoA	c
CPD-17640	18-hydroxystearate	c
Phenols	a phenol	p
CPD0-971	an &alpha;-limit dextrin	p
CPDQT-30	9-(methylthio)-2-oxononanoate	p
CPD-1130	3-ethylmalate	cp
Dialkyl-phosphates	a dialkyl phosphate	p
DEAMIDO-NAD	nicotinate adenine dinucleotide	cp
LINOLENIC_ACID	&alpha;-linolenate	c
N-terminal-glycine	an N-terminal glycyl-[protein]	p
Very-long-chain-fatty-acids	a very-long-chain fatty acid	c
MALTOSE	maltose	cp
CHITIN	chitin	cp
INDOLE_ACETALDEHYDE	(indol-3-yl)acetaldehyde	p
CAMP	cyclic-AMP	p
Dihydro-Lipoyl-Proteins	a [lipoyl-carrier protein] N6-dihydrolipoyl-L-lysine	c
CHITOBIOSE	N,N'-diacetylchitobiose	cp
CMP-N-ACETYL-NEURAMINATE	CMP-N-acetyl-&beta;-neuraminate	p
Glutaryl-ACP-methyl-esters	a glutaryl-[acp] methyl ester	c
DEOXYGUANOSINE	2'-deoxyguanosine	cp
Menaquinols	a menaquinol	cp
CPDQT-36	3-[(3'-methylthio)propyl]malate	cp
BIOTIN	biotin	c
CPD-11444	uroporphyrinogen-I	c
N5-Formyl-THF-Glu-N	an (6S)-N5-formyl-tetrahydrofolate	c
DNA-Segment-Placeholder	a DNA segment	cp
PHOSPHORIBULOSYL-FORMIMINO-AICAR-P	phosphoribulosylformimino-AICAR-phosphate	cp
CPD-17641	18-hydroxystearoyl-CoA	p
CPD0-2171	(S)-3-hydroxytetradecanoyl-CoA	p
HISTIDINOL	histidinol	cp
MALTOTETRAOSE	maltotetraose	cp
CANAVANINE	L-canavanine	cp
DEHYDROQUINATE	3-dehydroquinate	cp
DIHYDROXY-ACETONE-PHOSPHATE	glycerone phosphate	cp
CHLORITE	chlorite	cp
Menaquinones	a menaquinone	cp
L-CYSTEATE	L-cysteate	cp
IMIDAZOLE-ACETOL-P	imidazole acetol-phosphate	p
DNA-Segment-in-Reverse-Orientations	a DNA segment in reverse orientation	cp
SEROTONIN	serotonin	c
CPD-17813	(2E,11Z)-hexadec-2,11-dienoyl-CoA	c
CPDQT-37	3-[(4'-methylthio)butyl]malate	cp
LINOLENOYL-COA	&alpha;-linolenoyl-CoA	p
ACETYL-GLU	N-acetyl-L-glutamate	cp
DIHYDROXY-BUTANONE-P	1-deoxy-L-glycero-tetrulose 4-phosphate	c
L-Cysteine-Desulfurase-persulfide	an [L-cysteine desulfurase]-S-sulfanyl-L-cysteine	cp
D-LACTATE	(R)-lactate	cp
CPD-19487	3-isopropyl-10-(methylthio)-2-oxodecanoate	cp
CPD1F-2	(-)-methyl jasmonate	c
SPERMINE	spermine	p
HYDROXY-METHYL-BUTENYL-DIP	(E)-4-hydroxy-3-methylbut-2-en-1-yl diphosphate	p
CPD-17814	(11Z)-(S)-3-hydroxyhexadec-11-enoyl-CoA	p
Glycerophosphodiesters	a glycerophosphodiester	c
CPD-14018	icosapentaenoyl-CoA	p
CPD-11518	3-oxo-2-(cis-2'-pentenyl)-cyclopentane-1-(E-octa-2-enoyl)-CoA	c
Phosphoglucomutase	a phosphoglucomutase	cp
CPD-19488	3-isopropyl-9-(methylthio)-2-oxononanoate	cp
2-AMINOACRYLATE	2-aminoprop-2-enoate	p
DNA-With-GO	a 7,8-dihydro-8-oxoguanine in DNA	c
CPD-13227	N,N',N''-triacetylchitotriose	c
Protein-L-serine-or-L-threonine	a [protein]-(L-serine/L-threonine)	cp
METHACRYLYL-COA	methylacrylyl-CoA	cp
Reduced-CycA1-cytochromes	a reduced CycA1 cytochrome	c
Aryl-Dialkyl-Phosphate	an aryl dialkyl phosphate	c
CPD-12449	4-dihydrocoumaroyl-CoA	c
Reduced-Factor-F420	a reduced coenzyme F420	cp
5Z-tetradec-5-enoyl-ACPs	a (5Z)-tetradec-5-enoyl-[acp]	c
CPD-121	(R)-mandelate	c
CARBON-DIOXIDE	CO2	cp
Monoamines	a monoamine	c
ARSENATE	arsenate	c
CPD-12115	demethylmenaquinol-8	p
L-ALPHA-ALANINE	L-alanine	cp
DNA-With-GO-A-Mismatch	DNA with adenine:7,8-dihydro-8-oxoguanine mismatch	c
BUTYRYL-COA	butanoyl-CoA	c
Monocarboxylates	a monocarboxylate	p
Monocarboxylic-Acid-Amides	a monocarboxylic acid amide	c
5Z8Z11Z14Z17Z-EICOSAPENTAENOATE	icosapentaenoate	c
CPD-12575	UDP-&alpha;-D-glucose	cp
CPD-13357	(2R)-2,3-dihydroxy-3-methylbutanoate	cp
3-Oxo-octanoyl-ACPs	a 3-oxo-octanoyl-[acp]	cp
Halide-Anions	a halide anion	p
Carboxylates	a carboxylate	cp
5-P-RIBOSYL-N-FORMYLGLYCINEAMIDE	N2-formyl-N1-(5-phospho-&beta;-D-ribosyl)glycinamide	c
QXC-ACP	a quinoxaline-2-carboxyl-[acyl-carrier protein]	p
Protein-N-terminal-L-threonine	an N-terminal L-threonyl-[protein]	p
UTP	UTP	cp
L-arabinopyranose	Unknown	cp
DUMP	dUMP	cp
OCTAPRENYL-METHYL-OH-METHOXY-BENZQ	3-demethylubiquinol-8	c
Carboxylic-esters	a carboxylic ester	c
Reduced-Rubredoxins	a reduced rubredoxin	c
CPD-12173	(S)-3-hydroxy-isobutanoyl-CoA	cp
L-glutamyl-tRNAGln	an L-glutamyl-[tRNAGln]	c
PARAOXON	paraoxon	c
6-AMINOPENICILLANATE	6-aminopenicillanate	cp
5-PHOSPHO-RIBOSYL-GLYCINEAMIDE	N1-(5-phospho-&beta;-D-ribosyl)glycinamide	p
N-ALPHA-ACETYLORNITHINE	N-acetyl-L-ornithine	cp
Protein-N6-5-glutamyl-lysine-crosslinks	a protein with an N6-(&gamma;-glutamyl)-L-lysine crosslink	p
L-methionyl-L-alanyl-Protein	an N-terminal-L-methionyl-L-alanyl-[protein]	c
CD-S-SP-Complex	a [cysteine desulfurase]-S-sulfanyl-[disordered-form scaffold protein] complex	c
2-KETO-3-DEOXY-6-P-GLUCONATE	2-dehydro-3-deoxy-D-gluconate 6-phosphate	c
GLN	L-glutamine	cp
Protein-N6-5-glutamyl-serotonin	a [protein] N6-[(5-hydroxy-1H-indol-3-yl)ethyl]-L-glutamine	p
CPD-12175	(S)-3-hydroxy-isobutanoate	cp
2-DEOXYRIBOSE	2'-deoxyribose	c
O-D-MANNOSYL-PROTEIN	a 3-O-(&alpha;-D-mannosyl)-(Ser/Thr)-[protein]	p
CPD-19778	(2Z,4Z)-2-amino-5-chloro-6-oxohexa-2,4-dienoate	c
CPD-12601	&beta;-D-mannopyranose	p
PARATHION	parathion	c
L-methionyl-L-cysteinyl-Protein	an N-terminal-L-methionyl-L-cysteinyl-[protein]	c
L-methionyl-L-seryl-Protein	an N-terminal-L-methionyl-L-seryl-[protein]	c
Protein-Ser-or-Thr-phosphate	a [protein] (L-serine/L-threonine) phosphate	cp
Reduced-ferredoxins	a reduced ferredoxin [iron-sulfur] cluster	c
3-P-HYDROXYPYRUVATE	3-phosphooxypyruvate	cp
L-methionyl-L-threonyl-Protein	an N-terminal-L-methionyl-L-threonyl-[protein]	c
CPD-19779	(2Z,4Z)-2-amino-5-chlorohexa-2,4-dienedioate	p
5-BETA-L-THREO-PENTAPYRANOSYL-4-ULOSE-	UDP-&beta;-L-threo-pentapyranos-4-ulose	cp
PROTOPORPHYRINOGEN	protoporphyrinogen IX	c
L-methionyl-L-valyl-Protein	an N-terminal-L-methionyl-L-valyl-[protein]	c
Protein-Tyrosines	a [protein]-L-tyrosine	p
AMINO-OH-HYDROXYMETHYL-DIHYDROPTERIDINE	6-(hydroxymethyl)-7,8-dihydropterin	c
CDP	CDP	cp
L-methionyl-glycyl-Protein	an N-terminal-L-methionyl-glycyl-[protein]	c
O-PHOSPHO-L-HOMOSERINE	O-phospho-L-homoserine	cp
RH-Group	an organic molecule	c
3-P-SERINE	3-phospho-L-serine	cp
PROT-CYS	a [protein]-L-cysteine	c
CPD-13524	all-trans-retinol	p
Quinones	a quinone	c
5-PHOSPHORIBOSYL-5-AMINOIMIDAZOLE	5-amino-1-(5-phospho-&beta;-D-ribosyl)imidazole	cp
L-methionyl-tRNAfmet	an L-methionyl-[initiator tRNAMet]	cp
GLUCOSAMINE-1P	D-glucosamine 1-phosphate	cp
Myristoyl-ACPs	a myristoyl-[acp]	c
MANNOSE-1P	&alpha;-D-mannose 1-phosphate	cp
CDP-2-3-4-Saturated-Diacylglycerols	a CDP-2,3,4-saturated-diacylglycerol	p
Relaxed-DNAs	a relaxed DNA	cp
CPD1G-772	6-O-trans-methoxy-mycolyl-trehalose 6-phosphate	c
Ubiquinols	an ubiquinol	cp
N-5-PHOSPHORIBOSYL-ANTHRANILATE	N-(5-phosphoribosyl)-anthranilate	cp
CPD-12676	5'-chloro-5'-deoxyadenosine	c
Resolution-of-Recombinational-Junction	resolution of recombinational junction formation of two intact strands	p
Protein-With-N-Terminal-Met	a peptide with an N-terminal L-methionine	c
CPD-19833	roseoflavin	c
TTP	dTTP	cp
R-2-Haloacids	an (R)-2-haloacid	c
GLT	L-glutamate	cp
Protein-With-N-Terminal-Pro	a peptide with an N-terminal L-proline	cp
R-2-Hydroxyacids	an (R)-2-hydroxyacid	p
FAD	FAD	p
OH-ACYL-ACP	a (3R)-3-hydroxyacyl-[acyl-carrier protein]	p
N-Acetyl-beta-D-Hexosaminides	an N-acetyl-&beta;-D-hexosaminide	c
Protein-With-N-Terminal-X-Pro	a peptide with an N-terminal X-L-proline	c
CYS	L-cysteine	cp
GLT-tRNAs	a tRNAglu	p
OXYGEN-MOLECULE	oxygen	cp
L-ARA4N-MODIFIED-KDO2-LIPID-A	4'-&alpha;-L-Ara4N-&alpha;-Kdo-(2&rarr;4)-&alpha;-Kdo-(2&rarr;6)-[P4'-&alpha;-L-ara4N]-lipid A	p
Retinols	a retinol	p
N-ACETYL-D-GALACTOSAMINE-6-PHOSPHATE	N-acetyl-D-galactosamine 6-phosphate	c
Ubiquinones	a ubiquinone	cp
DNA-containing-a-Apyrimidinic-Sites	an apyrimidinic site in DNA	p
OH-HEXANOYL-COA	(S)-3-hydroxyhexanoyl-CoA	c
L-seryl-SEC-tRNAs	an L-seryl-[tRNAsec]	p
IMINOASPARTATE	2-iminosuccinate	cp
PROTEIN-LIPOYLLYSINE	a [glycine-cleavage complex H protein] N6-lipoyl-L-lysine	cp
AMINO-PARATHION	amino-parathion	c
CYS-tRNAs	a tRNACys	cp
5-HYDROXYINDOLE_ACETALDEHYDE	5-hydroxyindole acetaldehyde	p
CPD-19839	roseoflavin 5'-phosphate	cp
CIS-2-CHLORO-4-CARBOXYMETHYLENEBUT-2-EN-	2-chloro-cis-dienelactone	c
5-PHOSPHORIBOSYL-N-FORMYLGLYCINEAMIDINE	2-(formamido)-N1-(5-phospho-&beta;-D-ribosyl)acetamidine	cp
CPD-12179	methylmalonate semialdehyde	c
CPD-11523	3-oxo-2-(cis-2'-pentenyl)-cyclopentane-1-(3R-hydroxyhexanoyl)-CoA	p
Protein-phospho-L-histidines	a [protein]-N-phospho-L-histidine	cp
Charged-ALA-tRNAs	an L-alanyl-[tRNAAla]	p
CPD-12199	3S-(4-hydroxyphenyl)-3-hydroxy-propanoyl-CoA	p
PENICILLIN	a penicillin	cp
R-3-Hydroxypalmitoyl-ACPs	a (3R)-3-hydroxypalmitoyl-[acp]	p
CPD3DJ-11366	sphingosine 1-phosphate	p
CPD-12677	5-chloro-5-deoxyribose 1-phosphate	p
Rhodoquinols	a rhodoquinol	c
Hexanoyl-ACPs	a hexanoyl-[acyl-carrier-protein]	c
CDPDIACYLGLYCEROL	a CDP-diacylglycerol	cp
Charged-ARG-tRNAs	an L-arginyl-[tRNAArg]	p
Protein-pi-phospho-L-histidines	a [protein]-N&pi;-phospho-L-histidine	c
AMINO-RIBOSYLAMINO-1H-3H-PYR-DIONE	5-amino-6-(D-ribitylamino)uracil	cp
Rhodoquinones	a rhodoquinone	p
CPD-13534	3-oxopentanoyl-CoA	c
RHAMNOSE	&alpha;-L-rhamnopyranose	c
Unspecified-Degradation-Products	[unspecified degradation products]	p
CPD-19840	roseoflavin adenine dinucleotide	p
R-3-hydroxy-cis-vaccenoyl-ACPs	(R)-3-hydroxy-cis-vacc-11-enoyl-[acp]	p
Ribonucleoside-Diphosphates	a ribonucleoside diphosphate	p
TusE-L-cysteine	a [TusE sulfur carrier protein]-L-cysteine	p
Charged-ASP-tRNAs	an L-aspartyl-[tRNAasp]	p
Unsulfurated-Sulfur-Acceptors	an unsulfurated [sulfur carrier]	cp
Beta-3-hydroxybutyryl-ACPs	a (3R)-3-hydroxybutanoyl-[acp]	p
Protein-tauphospho-L-histidines	a [protein]-N&tau;-phospho-L-histidine	c
TusE-S-sulfanylcysteine	a [TusE sulfur carrier protein]-S-sulfanylcysteine	c
5-KETO-4-DEOXY-D-GLUCARATE	5-dehydro-4-deoxy-D-glucarate	cp
Protein-tyrosine-phosphates	a [protein]-L-tyrosine phosphate	c
Ribonucleoside-Monophosphates	a ribonucleoside 5'-monophosphate	cp
R-3-hydroxyarachidoyl-ACPs	a (3R)-3-hydroxyarachidoyl-[acp]	p
Unwound-DNA	an unwound double-stranded DNA	p
34-DIHYDROXYPHENYLACETALDEHYDE	3,4-dihydroxyphenylacetaldehyde	p
N-ACETYL-D-GLUCOSAMINE	N-acetyl-&beta;-D-glucosamine	p
O-SUCCINYLBENZOATE	2-succinylbenzoate	p
CPD-12706	5-fluoro-5-deoxy-D-ribose 1-phosphate	p
CPD-13557	D-glucosyl-&alpha;(1&rarr;3)- &alpha;-D-mannose	p
L-ARGININO-SUCCINATE	L-arginino-succinate	cp
3-Phosphomonucleotides	a ribonucleoside 3'-phosphate	cp
N-ACETYL-D-GLUCOSAMINE-1-P	N-acetyl-&alpha;-D-glucosamine 1-phosphate	cp
Charged-CYS-tRNAs	an L-cysteinyl-[tRNACys]	cp
R-3-hydroxybehenoyl-ACPs	a (3R)-3-hydroxybehenoyl-[acp]	p
DNA-containing-aPurinic-Sites	an apurinic site within DNA	p
Unwound-RNA	an unwound RNA	p
CIS-ACONITATE	cis-aconitate	cp
5-Phospho-terminated-DNAs	a 5'-phospho-[DNA]	c
Octanoyl-ACPs	an octanoyl-[acp]	c
R-3-hydroxycerotoyl-ACPs	a (3R)-3-hydroxycerotoyl-[acp]	p
CPD-201	4-hydroxybenzoyl-CoA	cp
Ribonucleoside-Triphosphates	a ribonucleoside triphosphate	c
Charged-GLN-tRNAs	an L-glutaminyl-[tRNAGln]	p
N-FORMIMINO-L-GLUTAMATE	N-formimino-L-glutamate	cp
CPD-12849	(1E,3E)-4-hydroxybuta-1,3-diene-1,2,4-tricarboxylate	cp
PENICILLIN-G	penicillin G	cp
