id	Common name	linked reactions
ASD03_22630	Unknown	ADENYLATECYC-RXN
ASD03_06570	Unknown	CYTOCHROME-C-OXIDASE-RXN;RXN-15830
ASD03_08875	Unknown	FGAMSYN-RXN
ASD03_24610	Unknown	RXN0-4961
ASD03_13705	Unknown	ARYLSULFATE-SULFOTRANSFERASE-RXN
ASD03_13200	Unknown	TRIOSEPISOMERIZATION-RXN
ASD03_28090	Unknown	RXN0-4261
ASD03_12335	Unknown	RXN0-5433
ASD03_00495	Unknown	ACETYLHOMOSER-CYS-RXN;O-ACETYLHOMOSERINE-THIOL-LYASE-RXN
ASD03_06050	Unknown	ENOYL-ACP-REDUCT-NADH-RXN;RXN-10062;RXN-10657;RXN-10661;RXN-11478;RXN-11482;RXN-16620;RXN-16624;RXN-16628;RXN-16632;RXN-9558;RXN-9635;RXN-9657;RXN-9658;RXN-9659;RXN-9660;RXN-9661;RXN-9662;RXN-9663;RXN0-2145;RXN1G-395;RXN1G-488;RXN1G-526
ASD03_11655	Unknown	1.8.4.12-RXN
ASD03_21490	Unknown	RXN0-5131
ASD03_01270	Unknown	PROTEIN-TYROSINE-PHOSPHATASE-RXN
ASD03_12330	gabD	RXN0-5293;SUCCINATE-SEMIALDEHYDE-DEHYDROGENASE-RXN
ASD03_08785	Unknown	ALANINE--TRNA-LIGASE-RXN
ASD03_29880	Unknown	1.2.1.32-RXN;BADH-RXN;RXN-8831;RXN-8837
ASD03_30255	Unknown	1.8.1.4-RXN;2OXOGLUTARATEDEH-RXN;2OXOGLUTDECARB-RXN;RXN-7716;RXN-7719;RXN-8629;RXN0-1132;RXN0-1147
ASD03_10645	Unknown	DIHYDRODIPICSYN-RXN
ASD03_23160	Unknown	2.7.13.3-RXN
ASD03_01700	Unknown	2.7.13.3-RXN
ASD03_03090	Unknown	TETRAACYLDISACC4KIN-RXN
ASD03_11025	Unknown	FMNREDUCT-RXN;NADPH-DEHYDROGENASE-FLAVIN-RXN;RXN-12444
ASD03_01045	Unknown	GUANYL-KIN-RXN
ASD03_26670	Unknown	5-OXOPROLINASE-ATP-HYDROLYSING-RXN
ASD03_14885	pgk	PHOSGLYPHOS-RXN
ASD03_07355	Unknown	CHLORIDE-PEROXIDASE-RXN
ASD03_12915	Unknown	AMINOBUTDEHYDROG-RXN
ASD03_27295	Unknown	RXN0-5131
ASD03_05150	Unknown	GSHTRAN-RXN;GST-RXN;RXN-11663;RXN-13673;RXN-15680;RXN-18405;RXN-18407;RXNQT-4363
ASD03_33795	Unknown	ENOYL-COA-HYDRAT-RXN;METHYLACYLYLCOA-HYDROXY-RXN;RXN-10697;RXN-10704;RXN-10705;RXN-11244;RXN-12567;RXN-13616;RXN-14266;RXN-14272;RXN-14273;RXN-16135;RXN-16558;RXN-17114;RXN-17475;RXN-17776;RXN-17780;RXN-17785;RXN-17789;RXN-17793;RXN-17797;RXN-2425;RXN0-5393;TIGLYLCOA-HYDROXY-RXN
ASD03_29905	Unknown	RXN0-5433
ASD03_12210	Unknown	LEUCINE--TRNA-LIGASE-RXN
ASD03_15795	gabD	RXN0-5293;SUCCINATE-SEMIALDEHYDE-DEHYDROGENASE-RXN
ASD03_03300	Unknown	GLUTCYSLIG-RXN
ASD03_28040	Unknown	GUANPRIBOSYLTRAN-RXN;HYPOXANPRIBOSYLTRAN-RXN;XANPRIBOSYLTRAN-RXN
ASD03_12510	Unknown	PANTOTHENATE-KIN-RXN
ASD03_34375	Unknown	R4-RXN
ASD03_00540	Unknown	AGMATIN-RXN
ASD03_00455	clpP	3.4.21.92-RXN
ASD03_24855	Unknown	5-METHYLTHIORIBOSE-KINASE-RXN
ASD03_04980	Unknown	RXN-9591
ASD03_24705	Unknown	RXN0-5268
ASD03_27925	Unknown	ACSERLY-RXN;RXN-12726
ASD03_16195	Unknown	GLYOCARBOLIG-RXN
ASD03_14380	Unknown	ACETYL-COA-CARBOXYLTRANSFER-RXN;RXN0-5055
ASD03_11420	Unknown	RXN0-7167
ASD03_28530	Unknown	DGTPTRIPHYDRO-RXN
ASD03_22210	Unknown	D-AMINO-ACID-OXIDASE-RXN;RXN-8163
ASD03_34140	Unknown	5-FORMYL-THF-CYCLO-LIGASE-RXN
ASD03_10850	Unknown	CYTDEAM-RXN;RXN-14129;RXN-14197
ASD03_02540	Unknown	CYTOCHROME-C-OXIDASE-RXN;RXN-15830
ASD03_24845	Unknown	1TRANSKETO-RXN;2TRANSKETO-RXN
ASD03_34845	Unknown	ASPARTATEKIN-RXN
ASD03_00260	Unknown	DNA-DIRECTED-DNA-POLYMERASE-RXN
ASD03_36435	Unknown	ADENYLATECYC-RXN
ASD03_34020	Unknown	3.2.1.52-RXN;RXN-12625;RXN-12626;RXN-18082;RXN0-5226
ASD03_00590	Unknown	RXN-11791
ASD03_28380	Unknown	3.4.11.18-RXN;RXN-17873;RXN-17874;RXN-17875;RXN-17876;RXN-17877;RXN-17878
ASD03_28595	gltA	CITSYN-RXN
ASD03_20315	Unknown	RXN0-6575
ASD03_30445	Unknown	FMNREDUCT-RXN;NADPH-DEHYDROGENASE-FLAVIN-RXN;RXN-12444
ASD03_29940	Unknown	ATPASE-RXN
ASD03_29060	Unknown	5.99.1.2-RXN
ASD03_08835	Unknown	GLUTAMIN-RXN
ASD03_14765	Unknown	RXN0-5131
ASD03_22060	Unknown	RXN-2043
ASD03_28935	Unknown	RXN-12508;RXN-12583;RXN0-1134
ASD03_21930	Unknown	3.4.21.92-RXN
ASD03_02705	Unknown	DXS-RXN
ASD03_08690	Unknown	3.6.4.4-RXN
ASD03_15340	Unknown	PHOSPHOGLUCMUT-RXN;RXN-16997;RXN-16998
ASD03_33595	Unknown	2.6.1.57-RXN;ASPAMINOTRANS-RXN;PHEAMINOTRANS-RXN;RXN-10814;RXN-11737;RXN-13697;RXN-14147;RXN-15200;TYROSINE-AMINOTRANSFERASE-RXN
ASD03_29545	Unknown	R465-RXN
ASD03_13085	Unknown	UROCANATE-HYDRATASE-RXN
ASD03_05595	Unknown	GSHTRAN-RXN;GST-RXN;RXN-11663;RXN-13673;RXN-15680;RXN-18405;RXN-18407;RXNQT-4363
ASD03_00850	Unknown	AIRS-RXN
ASD03_09230	Unknown	THIOREDOXIN-REDUCT-NADPH-RXN
ASD03_17515	Unknown	1.10.2.2-RXN;RXN-15829
ASD03_21495	Unknown	RXN0-5131
ASD03_19295	Unknown	R502-RXN
ASD03_09550	Unknown	FUMARYLACETOACETASE-RXN
ASD03_02195	Unknown	GSHTRAN-RXN;GST-RXN;RXN-11663;RXN-13673;RXN-15680;RXN-18405;RXN-18407;RXNQT-4363
ASD03_04800	Unknown	ACETYLGLUTKIN-RXN;RXN-15005
ASD03_36115	Unknown	DALADALALIG-RXN
ASD03_09935	Unknown	FMNREDUCT-RXN;NADPH-DEHYDROGENASE-FLAVIN-RXN;RXN-12444
ASD03_09835	Unknown	RXN3DJ-170;RXN66-221
ASD03_20045	Unknown	RXN-17954;RXN-17957;RXN0-6732
ASD03_32665	Unknown	1.11.1.15-RXN;RXN0-5468
ASD03_27025	Unknown	ALPHAGALACTOSID-RXN;MALTODEXGLUCOSID-RXN;RXN-11501;RXN-11502;RXN-12088;RXN-14281;RXN-14282;RXN-14283;RXN-15910;RXN-17754;RXN-17830;RXN0-5183
ASD03_21670	Unknown	PYRROLINECARBREDUCT-RXN;RXN66-546
ASD03_13190	Unknown	ERYTH4PDEHYDROG-RXN
ASD03_28740	Unknown	CYSTATHIONINE-BETA-LYASE-RXN;RXN-12729;RXN-15131;RXN-15137;RXN-15577;RXN-15582;RXN-18212;RXN-6763;RXN-8052;RXN-8054;RXNQT-4319;RXNQT-4320;RXNQT-4321;RXNQT-4322;RXNQT-4323;S-ALKYLCYSTEINE-LYASE-RXN
ASD03_00550	Unknown	N-ACETYLGLUTPREDUCT-RXN;RXN-15006
ASD03_16565	Unknown	ADENYLATECYC-RXN
ASD03_34920	Unknown	PRPPAMIDOTRANS-RXN
ASD03_24915	Unknown	7KAPSYN-RXN;RXN-11484
ASD03_23150	Unknown	5.99.1.2-RXN
ASD03_32180	Unknown	ACYLCOADEHYDROG-RXN;RXN-17775;RXN-17779;RXN-17783;RXN-17784;RXN-17788;RXN-17792;RXN-17796
ASD03_17580	Unknown	INORGPYROPHOSPHAT-RXN
ASD03_13420	Unknown	RXN-11638
ASD03_28355	Unknown	HOMOSERDEHYDROG-RXN
ASD03_24670	Unknown	DIHYDROXYISOVALDEHYDRAT-RXN;DIHYDROXYMETVALDEHYDRAT-RXN
ASD03_12220	Unknown	DNA-DIRECTED-DNA-POLYMERASE-RXN
ASD03_17855	Unknown	3.1.11.2-RXN
ASD03_20290	Unknown	ACYLCOADEHYDROG-RXN;RXN-17775;RXN-17779;RXN-17783;RXN-17784;RXN-17788;RXN-17792;RXN-17796
ASD03_32800	Unknown	FMNREDUCT-RXN;NADPH-DEHYDROGENASE-FLAVIN-RXN;RXN-12444
ASD03_35630	Unknown	CHLOROMALERED-RXN;MALEYLACETATE-REDUCTASE-RXN;RXN-9885;RXN-9891
ASD03_20435	Unknown	2.1.1.77-RXN
ASD03_34650	Unknown	1.6.99.5-RXN;NADH-DEHYDROGENASE-QUINONE-RXN
ASD03_31995	Unknown	GLUCOKIN-RXN;HEXOKINASE-RXN
ASD03_29050	Unknown	FPPSYN-RXN;GPPSYN-RXN
ASD03_17150	Unknown	KANAMYCIN-KINASE-RXN
ASD03_00085	Unknown	3-DEHYDROQUINATE-DEHYDRATASE-RXN
ASD03_13060	Unknown	HISTIDINE-AMMONIA-LYASE-RXN
ASD03_32735	Unknown	ISOCHORMAT-RXN
ASD03_26190	Unknown	1-PHOSPHATIDYLINOSITOL-KINASE-RXN
ASD03_34945	Unknown	GLUTAMATE-N-ACETYLTRANSFERASE-RXN;N-ACETYLTRANSFER-RXN;RXN0-6948
ASD03_09295	Unknown	RXN1A0-6303
ASD03_04330	Unknown	R4-RXN
ASD03_12780	Unknown	ATPASE-RXN
ASD03_18595	Unknown	2.4.1.36-RXN;RXN-761;TREHALOSE6PSYN-RXN
ASD03_30805	Unknown	ORNITHINE-CYCLODEAMINASE-RXN
ASD03_01080	Unknown	RXN1A0-6303
ASD03_01380	Unknown	2.1.1.79-RXN;RXN-7421;RXN1G-2544;RXN1G-3641
ASD03_27765	Unknown	MUCONOLACTONE-DELTA-ISOMERASE-RXN;RXN-10082
ASD03_15320	Unknown	GLYCOPHOSPHORYL-RXN;GLYMALTOPHOSPHORYL-RXN;RXN-12171;RXN-12392;RXN-14284;RXN-14285;RXN-14286;RXN-14353;RXN-1826;RXN-9025;RXN0-5182;RXN0-5184
ASD03_02515	Unknown	R4-RXN
ASD03_33440	Unknown	GLYCERATE-DEHYDROGENASE-RXN;HYDROXYPYRUVATE-REDUCTASE-RXN
ASD03_33865	Unknown	RXN-14364;RXN-14365
ASD03_09320	Unknown	PEPTIDYLPROLYL-ISOMERASE-RXN
ASD03_17935	Unknown	CHORISMATEMUT-RXN
ASD03_10860	Unknown	FMNREDUCT-RXN;NADPH-DEHYDROGENASE-FLAVIN-RXN;RXN-12444
ASD03_28265	Unknown	FMNREDUCT-RXN;NADPH-DEHYDROGENASE-FLAVIN-RXN;RXN-12444
ASD03_14680	glmM	5.4.2.10-RXN;RXN-16424;RXN0-7139
ASD03_12085	Unknown	AMIDASE-RXN;GUANIDINOBUTANAMIDE-NH3-RXN;PYRAZIN-RXN;R311-RXN;RXN-14727;RXN-14728;RXN-17608;RXNN-404
ASD03_31805	Unknown	RXN0-5131
ASD03_00205	Unknown	RXN0-7023
ASD03_03040	Unknown	DIHYDROXYISOVALDEHYDRAT-RXN;DIHYDROXYMETVALDEHYDRAT-RXN
ASD03_03110	Unknown	KDOTRANS-RXN
ASD03_04260	Unknown	CHORISMATEMUT-RXN
ASD03_12285	Unknown	RXN0-4961
ASD03_12575	Unknown	DIHYDROPYRIMIDINASE-RXN;RXN-11211;RXN-11217
ASD03_34275	Unknown	R4-RXN
ASD03_21685	Unknown	RXN0-20
ASD03_20580	Unknown	HISTAMINOTRANS-RXN
ASD03_01420	Unknown	GDPPYPHOSKIN-RXN;GTPPYPHOSKIN-RXN
ASD03_33230	Unknown	RIBULOKIN-RXN;RXN0-5116
ASD03_28955	Unknown	GLYOXI-RXN
ASD03_14155	Unknown	ACETOLACTREDUCTOISOM-RXN;ACETOOHBUTREDUCTOISOM-RXN
ASD03_31630	Unknown	7KAPSYN-RXN
ASD03_11785	Unknown	2.6.1.37-RXN
ASD03_21250	Unknown	2.7.13.3-RXN
ASD03_12515	Unknown	HISTPRATPHYD-RXN
ASD03_09325	Unknown	PEPTIDYLPROLYL-ISOMERASE-RXN
ASD03_24840	Unknown	1TRANSKETO-RXN;2TRANSKETO-RXN
ASD03_28875	Unknown	RXN0-1281
ASD03_00295	Unknown	METHYLMALONYL-COA-EPIM-RXN;RXN-16391
ASD03_07650	Unknown	HOMOCYSMETB12-RXN
ASD03_35090	Unknown	2.6.1.18-RXN
ASD03_22980	Unknown	GLYOXI-RXN
ASD03_01555	Unknown	HISTAMINOTRANS-RXN
ASD03_05245	Unknown	DCMP-DEAMINASE-RXN
ASD03_02675	Unknown	ACETYL-COA-ACETYLTRANSFER-RXN;METHYLACETOACETYLCOATHIOL-RXN;RXN-12561
ASD03_15135	Unknown	GLUC1PURIDYLTRANS-RXN
ASD03_29450	Unknown	3.1.2.23-RXN
ASD03_08965	Unknown	RXN-8505
ASD03_09355	Unknown	RXN0-5131
ASD03_02670	Unknown	ACYLCOASYN-RXN;LINOLENOYL-RXN;R223-RXN;RXN-12184;RXN-12978;RXN-13290;RXN-13614;RXN-16380;RXN-16389;RXN-16393;RXN-16401;RXN-16402;RXN-16415;RXN-16418;RXN-7904;RXN-9623;RXN-9644;RXN-9673;RXN0-7238;RXN0-7239;RXN0-7248;RXN66-469;RXN66-477;RXN66-480;RXN66-483;RXN66-484;TRANS-RXN0-623
ASD03_21260	Unknown	XYLULOKIN-RXN
ASD03_13575	Unknown	3.4.11.1-RXN
ASD03_04745	Unknown	1.8.1.4-RXN;2OXOGLUTARATEDEH-RXN;2OXOGLUTDECARB-RXN;RXN-7716;RXN-7719;RXN-8629;RXN0-1132;RXN0-1147
ASD03_30975	Unknown	RXN0-5131
ASD03_00900	Unknown	GSHTRAN-RXN;GST-RXN;RXN-11663;RXN-13673;RXN-15680;RXN-18405;RXN-18407;RXNQT-4363
ASD03_36510	Unknown	3.1.26.4-RXN
ASD03_20070	Unknown	RXN-17954;RXN-17957;RXN0-6732
ASD03_30735	Unknown	SUCCINATE-SEMIALDEHYDE-DEHYDROGENASE-RXN
ASD03_08795	Unknown	ISOCITDEH-RXN;RXN-8642;RXN-9951
ASD03_25115	Unknown	MYO-INOSITOL-1OR-4-MONOPHOSPHATASE-RXN;RXN-7253;RXN0-5408
ASD03_05960	Unknown	PHOSMANMUT-RXN
ASD03_15395	Unknown	NAD-SYNTH-GLN-RXN;NAD-SYNTH-NH3-RXN
ASD03_28945	eno	2PGADEHYDRAT-RXN
ASD03_15860	Unknown	IMIDAZOLONEPROPIONASE-RXN
ASD03_08300	Unknown	2.7.13.3-RXN
ASD03_13730	Unknown	GSHTRAN-RXN;GST-RXN;RXN-11663;RXN-13673;RXN-15680;RXN-18405;RXN-18407;RXNQT-4363
ASD03_18200	Unknown	RXN-16650
ASD03_30800	Unknown	AGMATIN-RXN
ASD03_13975	Unknown	ISOCHORMAT-RXN
ASD03_08455	Unknown	RIB5PISOM-RXN
ASD03_28650	pyrH	RXN-12002
ASD03_19375	Unknown	2.7.13.3-RXN
ASD03_09050	Unknown	RXN-12587;RXN-12588;RXN-14382;RXN-14385;RXN-15881;RXN-9787;RXN0-308
ASD03_23465	Unknown	RXN0-5100
ASD03_15970	Unknown	MERCURY-II-REDUCTASE-RXN
ASD03_07955	Unknown	RXN-9952
ASD03_22340	Unknown	MYO-INOSITOL-2-DEHYDROGENASE-RXN
ASD03_00355	Unknown	1.6.99.5-RXN;NADH-DEHYDROGENASE-QUINONE-RXN
ASD03_13660	Unknown	R4-RXN
ASD03_13870	Unknown	NITRILE-HYDRATASE-RXN;R310-RXN;R313-RXN;RXN-14725;RXN-14726;RXN-17609;RXN-7567
ASD03_01385	Unknown	RXN0-7010
ASD03_08420	Unknown	PMPOXI-RXN;PNPOXI-RXN
ASD03_28055	glnA	GLUTAMINESYN-RXN
ASD03_06285	Unknown	3.5.1.80-RXN;NAG6PDEACET-RXN
ASD03_22430	Unknown	CDP-GLUCOSE-46-DEHYDRATASE-RXN
ASD03_13435	Unknown	UDP-NACMURALGLDAPLIG-RXN
ASD03_34215	Unknown	FMNREDUCT-RXN;NADPH-DEHYDROGENASE-FLAVIN-RXN;RXN-12444
ASD03_00920	Unknown	PHOSPHAGLYPSYN-RXN
ASD03_02145	Unknown	2.7.13.3-RXN
ASD03_02425	Unknown	RXN0-2661
ASD03_18640	Unknown	DNA-DIRECTED-DNA-POLYMERASE-RXN;RXN0-4961
ASD03_02470	Unknown	2-HALOACID-DEHALOGENASE-RXN;3.8.1.11-RXN;RXN-6263;RXN-6264
ASD03_12475	Unknown	2.7.13.3-RXN
ASD03_00075	Unknown	4.1.99.4-RXN;RXN-15149
ASD03_02735	Unknown	ACYLCOADEHYDROG-RXN;RXN-17775;RXN-17779;RXN-17783;RXN-17784;RXN-17788;RXN-17792;RXN-17796
ASD03_32060	Unknown	3-OXOACYL-ACP-REDUCT-RXN;RXN-10060;RXN-10655;RXN-10659;RXN-11476;RXN-11480;RXN-13008;RXN-16616;RXN-16622;RXN-16626;RXN-16630;RXN-9514;RXN-9518;RXN-9524;RXN-9528;RXN-9532;RXN-9536;RXN-9540;RXN-9552;RXN-9556;RXN-9633;RXN0-2142;RXN1G-157;RXN1G-349;RXN1G-469;RXN1G-508
ASD03_08585	Unknown	LIPIDXSYNTHESIS-RXN
ASD03_12400	Unknown	PRAISOM-RXN
ASD03_13445	mraY	PHOSNACMURPENTATRANS-RXN;RXN-11347;RXN-8975
ASD03_11400	Unknown	ACID-PHOSPHATASE-RXN;RXN-5822
ASD03_32260	Unknown	RXN0-5131
ASD03_18220	ispG	RXN0-882
ASD03_17415	Unknown	1.8.1.4-RXN;2OXOGLUTARATEDEH-RXN;2OXOGLUTDECARB-RXN;RXN-7716;RXN-7719;RXN-8629;RXN0-1132;RXN0-1147
ASD03_20000	Unknown	GSHTRAN-RXN;GST-RXN;RXN-11663;RXN-13673;RXN-15680;RXN-18405;RXN-18407;RXNQT-4363
ASD03_06730	Unknown	GUANYLCYC-RXN
ASD03_04740	Unknown	2.7.13.3-RXN
ASD03_33815	Unknown	METHYLCROTONYL-COA-CARBOXYLASE-RXN
ASD03_00150	Unknown	6.3.5.7-RXN
ASD03_03210	hisG	ATPPHOSPHORIBOSYLTRANS-RXN
ASD03_35220	Unknown	ADENYLATECYC-RXN
ASD03_30195	cobH	5.4.1.2-RXN
ASD03_20055	Unknown	RXN-17956;RXN0-6734
ASD03_13215	Unknown	RIBOFLAVIN-SYN-RXN
ASD03_18210	Unknown	HISTAMINOTRANS-RXN
ASD03_08925	Unknown	CYTOCHROME-C-OXIDASE-RXN;RXN-15830
ASD03_05035	Unknown	2.7.13.3-RXN
ASD03_16575	Unknown	ADENYLATECYC-RXN
ASD03_18995	Unknown	4-CARBOXYMUCONOLACTONE-DECARBOXYLASE-RXN
ASD03_16980	Unknown	ADENYLATECYC-RXN
ASD03_17825	Unknown	2-OCTAPRENYL-6-METHOXYPHENOL-HYDROX-RXN
ASD03_32970	Unknown	FUMARYLACETOACETASE-RXN
ASD03_01065	Unknown	RXN-17155
ASD03_28195	Unknown	2-OCTAPRENYL-6-METHOXYPHENOL-HYDROX-RXN
ASD03_06825	Unknown	GSHTRAN-RXN;GST-RXN;RXN-11663;RXN-13673;RXN-15680;RXN-18405;RXN-18407;RXNQT-4363
ASD03_24465	Unknown	NANE-RXN
ASD03_04640	Unknown	DIHYDROOROT-RXN
ASD03_28965	Unknown	CDPDIGLYSYN-RXN;RXN0-5515
ASD03_02900	Unknown	2.7.1.148-RXN
ASD03_04610	Unknown	PGLUCISOM-RXN
ASD03_15870	Unknown	N-FORMYLGLUTAMATE-DEFORMYLASE-RXN
ASD03_23820	Unknown	ACYLCOASYN-RXN;LINOLENOYL-RXN;R223-RXN;RXN-12184;RXN-12702;RXN-12746;RXN-12978;RXN-13290;RXN-13614;RXN-16380;RXN-16389;RXN-16393;RXN-16401;RXN-16402;RXN-16415;RXN-16418;RXN-7904;RXN-9623;RXN-9644;RXN-9673;RXN0-7238;RXN0-7239;RXN0-7248;RXN66-469;RXN66-477;RXN66-480;RXN66-483;RXN66-484;TRANS-RXN0-623
ASD03_06305	Unknown	RXN0-4641
ASD03_17535	Unknown	OHMETHYLBILANESYN-RXN
ASD03_16480	nadE	NAD-SYNTH-NH3-RXN
ASD03_08770	Unknown	RXN0-5398
ASD03_28575	Unknown	2.1.1.77-RXN
ASD03_03220	Unknown	HISTIDINE--TRNA-LIGASE-RXN
ASD03_17480	Unknown	RXN-14971;RXN-15378;SUCCINATE-DEHYDROGENASE-UBIQUINONE-RXN
ASD03_07655	Unknown	RXN-8102
ASD03_01365	Unknown	UGD-RXN
ASD03_11405	Unknown	2.7.13.3-RXN
ASD03_08380	Unknown	RXN-16427;RXN-16456;RXN0-262
ASD03_10550	Unknown	5.3.1.17-RXN
ASD03_13910	Unknown	GLYOXIII-RXN
ASD03_15300	Unknown	IMP-DEHYDROG-RXN
ASD03_26445	Unknown	RXN-8505
ASD03_09335	Unknown	QUEUOSINE-TRNA-RIBOSYLTRANSFERASE-RXN;RXN0-1321
ASD03_13725	Unknown	THYMIDYLATESYN-RXN
ASD03_02575	Unknown	CYTOCHROME-C-OXIDASE-RXN;RXN-15830
ASD03_14095	Unknown	3.4.13.21-RXN
ASD03_30905	Unknown	DTDPDEHYDRHAMEPIM-RXN
ASD03_09425	Unknown	DEHYDDEOXGALACTKIN-RXN
ASD03_11415	Unknown	2.1.1.71-RXN;RXN4FS-2
ASD03_27050	Unknown	ALPHAGALACTOSID-RXN;MALTODEXGLUCOSID-RXN;RXN-11501;RXN-11502;RXN-12088;RXN-14281;RXN-14282;RXN-14283;RXN-15910;RXN-17754;RXN-17830;RXN0-5183
ASD03_05105	Unknown	2.7.13.3-RXN
ASD03_04915	Unknown	RIBOKIN-RXN;RXN-14223
ASD03_29085	Unknown	FMNREDUCT-RXN;NADPH-DEHYDROGENASE-FLAVIN-RXN;RXN-12444
ASD03_00700	Unknown	RIBOFLAVIN-SYN-RXN
ASD03_15655	Unknown	GLYCEROL-1-PHOSPHATASE-RXN;RXN-14964;RXN-14965
ASD03_03025	Unknown	DEHYDDEOXGALACTKIN-RXN
ASD03_00190	Unknown	RXN-10462;RXN-13805;RXN-1381;RXN-15045;RXN-16024;RXN-16117;RXN-17016;RXN-17017;RXN-17018
ASD03_13465	murC	UDP-NACMUR-ALA-LIG-RXN
ASD03_25615	Unknown	ADENYLATECYC-RXN
ASD03_25450	Unknown	GLYCEROL-KIN-RXN
ASD03_17670	proA	GLUTSEMIALDEHYDROG-RXN
ASD03_12900	Unknown	TRANS-RXN-298
ASD03_04835	Unknown	LYSDECARBOX-RXN
ASD03_29560	Unknown	RXN-9387;RXN-9781
ASD03_31725	Unknown	RXN0-5131
ASD03_17470	Unknown	ATPASE-RXN
ASD03_15185	Unknown	MYO-INOSITOL-1OR-4-MONOPHOSPHATASE-RXN;RXN-7253;RXN0-5408
ASD03_24010	Unknown	PHOSACETYLTRANS-RXN
ASD03_14735	Unknown	3.1.2.23-RXN
ASD03_21660	Unknown	PROTEIN-TYROSINE-PHOSPHATASE-RXN
ASD03_12890	Unknown	ISOCHORMAT-RXN
ASD03_09850	Unknown	ALLANTOINASE-RXN
ASD03_22065	Unknown	2.6.1.18-RXN
ASD03_17170	rocD	ORNITHINE--OXO-ACID-AMINOTRANSFERASE-RXN;ORNITHINE-GLU-AMINOTRANSFERASE-RXN
ASD03_32825	Unknown	2-NITROPROPANE-DIOXYGENASE-RXN
ASD03_06275	Unknown	N-ACETYLGLUCOSAMINE-KINASE-RXN
ASD03_26070	Unknown	GUANYLCYC-RXN
ASD03_03905	fliI	ATPSYN-RXN
ASD03_14275	Unknown	RXN-9591
ASD03_11435	Unknown	3-OXOACYL-ACP-REDUCT-RXN;RXN-10060;RXN-10655;RXN-10659;RXN-11476;RXN-11480;RXN-13008;RXN-16616;RXN-16622;RXN-16626;RXN-16630;RXN-9514;RXN-9518;RXN-9524;RXN-9528;RXN-9532;RXN-9536;RXN-9540;RXN-9552;RXN-9556;RXN-9633;RXN0-2142;RXN1G-157;RXN1G-349;RXN1G-469;RXN1G-508
ASD03_16185	Unknown	RXN0-5289;TSA-REDUCT-RXN
ASD03_01395	Unknown	RXN0-5462
ASD03_08345	Unknown	ASPARTATE-SEMIALDEHYDE-DEHYDROGENASE-RXN
ASD03_01630	Unknown	DNA-DIRECTED-DNA-POLYMERASE-RXN;RXN0-4961
ASD03_05300	Unknown	RXN-14149
ASD03_22245	Unknown	RXN-11109
ASD03_06520	Unknown	GLUCOKIN-RXN;HEXOKINASE-RXN
ASD03_08595	Unknown	HYDROXY-MANDELATE-RACEMASE-RXN;MANDELATE-RACEMASE-RXN
ASD03_21445	Unknown	TAGAALDOL-RXN
ASD03_06190	Unknown	CPM-KDOSYNTH-RXN
ASD03_29490	Unknown	R125-RXN
ASD03_33775	Unknown	RXN0-5131
ASD03_10540	Unknown	25-DIOXOVALERATE-DEHYDROGENASE-RXN;RXN-8775
ASD03_30260	Unknown	ACETYL-COA-ACETYLTRANSFER-RXN;METHYLACETOACETYLCOATHIOL-RXN;RXN-12561
ASD03_07850	Unknown	RXN-17155
ASD03_21870	Unknown	RXN0-7010
ASD03_23145	Unknown	N-FORMYLGLUTAMATE-DEFORMYLASE-RXN
ASD03_13540	Unknown	GLYOXIII-RXN
ASD03_09970	Unknown	ISOCHORMAT-RXN
ASD03_22185	Unknown	UREIDOGLYCOLATE-HYDROLASE-RXN
ASD03_20740	Unknown	ATPASE-RXN
ASD03_27740	Unknown	3.4.13.21-RXN
ASD03_13585	Unknown	RXN0-5419
ASD03_13805	Unknown	ATPASE-RXN
ASD03_20305	Unknown	KETOACYLCOATHIOL-RXN;RXN-10699;RXN-10700;RXN-10701;RXN-11246;RXN-12565;RXN-12710;RXN-13617;RXN-14268;RXN-14274;RXN-14277;RXN-14394;RXN-14774;RXN-14788;RXN-14793;RXN-14799;RXN-14803;RXN-16137;RXN-17116;RXN-17778;RXN-17782;RXN-17787;RXN-17791;RXN-17795;RXN-17799;RXN-3641
ASD03_14870	Unknown	1TRANSKETO-RXN;2TRANSKETO-RXN
ASD03_03115	Unknown	MYO-INOSITOL-1OR-4-MONOPHOSPHATASE-RXN;RXN-7253;RXN0-5408
ASD03_24715	Unknown	RXN0-5268
ASD03_23025	Unknown	1.11.1.15-RXN;RXN0-5468
ASD03_05745	Unknown	RXN1A0-6303
ASD03_18065	Unknown	RXN-11586
ASD03_11845	Unknown	POLYPHOSPHATE-KINASE-RXN
ASD03_28800	Unknown	1.18.1.2-RXN
ASD03_08505	Unknown	NAD-SYNTH-GLN-RXN;NAD-SYNTH-NH3-RXN
ASD03_35955	Unknown	6-PHOSPHO-BETA-GLUCOSIDASE-RXN;RXN0-5295;RXN0-5297;RXN0-6994;RXN0-7002
ASD03_30050	Unknown	XYLULOKIN-RXN
ASD03_30040	Unknown	GLUCISOM-RXN;XYLISOM-RXN
ASD03_29925	Unknown	THIOREDOXIN-REDUCT-NADPH-RXN
ASD03_09275	Unknown	CARBPSYN-RXN;GLUTAMIN-RXN;RXN-13202;RXN-14196;RXN-16909;RXN-16910
ASD03_07770	Unknown	2.7.1.156-RXN;COBINAMIDEKIN-RXN;RXN-14063
ASD03_17540	Unknown	UROGENIIISYN-RXN
ASD03_31015	Unknown	OHMETPYRKIN-RXN;PYRIMSYN3-RXN
ASD03_28845	Unknown	D-ALANINE-AMINOTRANSFERASE-RXN
ASD03_08645	Unknown	FMNREDUCT-RXN;NADPH-DEHYDROGENASE-FLAVIN-RXN;RXN-12444
ASD03_00250	Unknown	DNA-DIRECTED-DNA-POLYMERASE-RXN
ASD03_05675	Unknown	3.1.11.6-RXN
ASD03_26610	Unknown	CREATININASE-RXN
ASD03_09330	Unknown	RXN0-1342
ASD03_26380	Unknown	ACYLCOADEHYDROG-RXN;RXN-17775;RXN-17779;RXN-17783;RXN-17784;RXN-17788;RXN-17792;RXN-17796
ASD03_35800	Unknown	GLYOXIII-RXN
ASD03_20645	Unknown	CYTDEAM-RXN;RXN-14129;RXN-14197
ASD03_22130	Unknown	GLYCEROL-KIN-RXN
ASD03_35015	Unknown	BTUR2-RXN;COBALADENOSYLTRANS-RXN;R344-RXN
ASD03_04975	Unknown	RXN-14480;RXN-14481;RXN0-5063
ASD03_10905	Unknown	ARGINASE-RXN;RXN-34
ASD03_15685	Unknown	2.7.13.3-RXN
ASD03_30205	Unknown	R322-RXN
ASD03_08440	fumC	FUMHYDR-RXN
ASD03_18445	Unknown	3.2.1.141-RXN
ASD03_14480	Unknown	ISOCHORMAT-RXN
ASD03_04460	Unknown	RXN-9384
ASD03_04525	Unknown	2.7.13.3-RXN
ASD03_26240	Unknown	GLUCISOM-RXN;XYLISOM-RXN
ASD03_25015	Unknown	GLYCERATE-DEHYDROGENASE-RXN;HYDROXYPYRUVATE-REDUCTASE-RXN;RXN0-300
ASD03_12160	Unknown	4.2.2.7-RXN
ASD03_32875	Unknown	25-DIOXOVALERATE-DEHYDROGENASE-RXN;RXN-8775
ASD03_32555	Unknown	1.3.99.16-RXN
ASD03_05990	Unknown	RXN-11832;RXN-12002;RXN-7913
ASD03_12870	Unknown	DIMETHYLGLYCINE-DEHYDROGENASE-RXN
ASD03_11490	Unknown	3-OCTAPRENYL-4-OHBENZOATE-DECARBOX-RXN
ASD03_28995	Unknown	TRIOSEPISOMERIZATION-RXN
ASD03_27170	Unknown	RXN-12720;SULFATE-ADENYLYLTRANS-RXN
ASD03_06975	Unknown	DIHYDROFOLATEREDUCT-RXN;RXN-18357
ASD03_09790	Unknown	GAMMA-GLUTAMYLTRANSFERASE-RXN;RXN-18092;RXN-6601;RXN-9157;RXN66-336
ASD03_05460	Unknown	OROTPDECARB-RXN
ASD03_13365	Unknown	RXN-12347
ASD03_06170	Unknown	NADPYROPHOSPHAT-RXN;RXN0-4401
ASD03_36120	Unknown	CARBOXYMETHYLENEBUTENOLIDASE-RXN;DIENELACHYDRO-RXN;RXN-9857;RXN-9868;RXN-9887;RXN-9890
ASD03_36905	Unknown	2-HALOACID-DEHALOGENASE-RXN
ASD03_31595	Unknown	3-OXOACYL-ACP-REDUCT-RXN
ASD03_17320	Unknown	KANAMYCIN-KINASE-RXN
ASD03_03285	Unknown	NUCLEOTIDE-PYROPHOSPHATASE-RXN
ASD03_08000	Unknown	GLUCISOM-RXN;XYLISOM-RXN
ASD03_22765	Unknown	ALLOPHANATE-HYDROLASE-RXN
ASD03_05215	Unknown	RXN-9235
ASD03_22425	Unknown	2.7.7.33-RXN
ASD03_06180	Unknown	GLYOXIII-RXN
ASD03_10805	Unknown	S-ADENOSYLHOMOCYSTEINE-DEAMINASE-RXN
ASD03_19990	Unknown	METHYLMALONYL-COA-MUT-RXN
ASD03_14485	Unknown	GLUTAMINESYN-RXN
ASD03_14070	Unknown	4.3.1.17-RXN;RXN-15122;RXN-15125;THREDEHYD-RXN
ASD03_02175	Unknown	DIHYDROFOLATEREDUCT-RXN;RXN-18357
ASD03_00375	Unknown	1.6.99.5-RXN;NADH-DEHYDROGENASE-QUINONE-RXN
ASD03_00915	Unknown	RXN0-2621
ASD03_24565	Unknown	MANNONDEHYDRAT-RXN
ASD03_25935	Unknown	3-OXOADIPATE-ENOL-LACTONASE-RXN
ASD03_20995	Unknown	GSHTRAN-RXN;GST-RXN;RXN-11663;RXN-13673;RXN-15680;RXN-18405;RXN-18407;RXNQT-4363
ASD03_32575	Unknown	IMP-DEHYDROG-RXN
ASD03_00535	Unknown	RXN-13907;RXN-14206;RXN66-569
ASD03_32275	Unknown	RXN-13179
ASD03_20145	Unknown	ADENYLATECYC-RXN
ASD03_24995	Unknown	ACETOLACTSYN-RXN;ACETOOHBUTSYN-RXN
ASD03_25755	Unknown	RXN0-5462
ASD03_06300	Unknown	N-ACETYLGLUCOSAMINE-KINASE-RXN
ASD03_28985	Unknown	CTPSYN-RXN;GLUTAMIN-RXN;RXN-14325
ASD03_01660	Unknown	2.7.13.3-RXN
ASD03_13320	Unknown	LYSOPHOSPHOLIPASE-RXN;RXN-15035;RXN-19312
ASD03_26680	Unknown	4.2.1.41-RXN
ASD03_21180	Unknown	GLYOXIII-RXN
ASD03_00160	Unknown	3.1.22.4-RXN
ASD03_15505	Unknown	GLYOXIII-RXN
ASD03_00340	Unknown	1.6.99.5-RXN;NADH-DEHYDROGENASE-QUINONE-RXN
ASD03_36350	Unknown	S-FORMYLGLUTATHIONE-HYDROLASE-RXN
ASD03_25250	Unknown	HYDROXY-MANDELATE-RACEMASE-RXN;MANDELATE-RACEMASE-RXN
ASD03_11375	Unknown	CYTIDEAM-RXN;CYTIDEAM2-RXN
ASD03_33210	Unknown	2.7.13.3-RXN
ASD03_01425	Unknown	DNA-DIRECTED-RNA-POLYMERASE-RXN
ASD03_07825	Unknown	4.1.1.81-RXN
ASD03_10465	Unknown	RXN-12130
ASD03_31990	Unknown	DNA-DIRECTED-DNA-POLYMERASE-RXN
ASD03_20955	Unknown	DIHYDROXYISOVALDEHYDRAT-RXN;DIHYDROXYMETVALDEHYDRAT-RXN
ASD03_22080	Unknown	MALTODEXGLUCOSID-RXN;RXN-14281;RXN-14282;RXN-14283;RXN-15910;RXN0-5183
ASD03_18160	Unknown	RXN0-4261
ASD03_13170	Unknown	RXN-15740;RXN-15745;RXN0-5260
ASD03_07855	Unknown	3-HYDROXYDECANOYL-ACP-DEHYDR-RXN
ASD03_01865	Unknown	ADOMET-DMK-METHYLTRANSFER-RXN
ASD03_23880	Unknown	25-DIOXOVALERATE-DEHYDROGENASE-RXN;RXN-8775
ASD03_00835	Unknown	POLYPHOSPHATE-KINASE-RXN
ASD03_18330	Unknown	RXN0-5131
ASD03_33535	Unknown	FMNREDUCT-RXN;NADPH-DEHYDROGENASE-FLAVIN-RXN;RXN-12444
ASD03_13655	Unknown	RXN0-4261
ASD03_17065	Unknown	DIHYDROOROT-RXN
ASD03_01190	Unknown	LYSDECARBOX-RXN
ASD03_29390	Unknown	UDPGLUCEPIM-RXN
ASD03_28110	glmU	2.3.1.157-RXN;NAG1P-URIDYLTRANS-RXN
ASD03_17485	Unknown	R601-RXN;RXN-14963
ASD03_00110	Unknown	NADH-DEHYDROGENASE-RXN
ASD03_34505	Unknown	GLUC1PURIDYLTRANS-RXN
ASD03_16190	Unknown	RXN0-305
ASD03_04380	Unknown	ACETYL-COA-ACETYLTRANSFER-RXN;METHYLACETOACETYLCOATHIOL-RXN;RXN-12561
ASD03_22135	Unknown	3-HYDROXYBUTYRATE-DEHYDROGENASE-RXN
ASD03_13065	Unknown	ALLANTOINASE-RXN
ASD03_15445	Unknown	CREATININASE-RXN
ASD03_20080	Unknown	PEPTIDYLPROLYL-ISOMERASE-RXN
ASD03_05130	Unknown	RXN0-6481;RXN0-6482;TRNA-NUCLEOTIDYLTRANSFERASE-RXN
ASD03_17100	Unknown	DXPREDISOM-RXN
ASD03_27075	Unknown	3.2.1.48-RXN;RXN-9985
ASD03_29885	Unknown	1.13.11.15-RXN
ASD03_13935	Unknown	PHOSGLYPHOS-RXN
ASD03_32045	Unknown	GLYCEROL-1-PHOSPHATASE-RXN;RXN-14964;RXN-14965
ASD03_30250	Unknown	1.2.4.4-RXN;2.3.1.168-RXN;KETOISOCAPROATE-RXN;METHYLVALERATE-RXN;RXN-7790
ASD03_12200	prpE	PROPIONATE--COA-LIGASE-RXN
ASD03_04750	Unknown	MERCURY-II-REDUCTASE-RXN
ASD03_25320	Unknown	3-OXOACYL-ACP-REDUCT-RXN
ASD03_06490	Unknown	4.2.99.18-RXN
ASD03_14250	Unknown	GUANPRIBOSYLTRAN-RXN;HYPOXANPRIBOSYLTRAN-RXN
ASD03_32635	dnaE2	DNA-DIRECTED-DNA-POLYMERASE-RXN;RXN0-4961
ASD03_33300	Unknown	ADENYLATECYC-RXN
ASD03_04840	Unknown	TETHYDPICSUCC-RXN
ASD03_02260	Unknown	CHOLINE-SULFATASE-RXN
ASD03_01575	Unknown	AMP-NUCLEOSID-RXN
ASD03_05405	Unknown	GLUTATHIONE-SYN-RXN
ASD03_26100	Unknown	SUCCINATE-SEMIALDEHYDE-DEHYDROGENASE-RXN
ASD03_29850	Unknown	2-HALOACID-DEHALOGENASE-RXN;3.8.1.11-RXN;RXN-6263;RXN-6264
ASD03_03030	Unknown	DEHYDDEOXPHOSGALACT-ALDOL-RXN
ASD03_36060	Unknown	CITSYN-RXN
ASD03_26960	Unknown	RXN0-5131
ASD03_34260	Unknown	NQOR-RXN
ASD03_22925	Unknown	1.5.1.9-RXN
ASD03_29235	Unknown	ADENYLATECYC-RXN
ASD03_08970	Unknown	ATPASE-RXN
ASD03_00385	Unknown	1.6.99.5-RXN;NADH-DEHYDROGENASE-QUINONE-RXN
ASD03_21500	Unknown	RXN0-5131
ASD03_22690	Unknown	RXN0-5131
ASD03_08905	Unknown	SAICARSYN-RXN
ASD03_17495	Unknown	RXN-14971;RXN-15378;SUCCINATE-DEHYDROGENASE-UBIQUINONE-RXN
ASD03_09540	Unknown	3-OXOACYL-ACP-REDUCT-RXN
ASD03_01310	Unknown	1.14.11.18-RXN;RXN66-470
ASD03_17465	Unknown	MALATE-DEH-RXN
ASD03_10560	Unknown	4.2.1.41-RXN
ASD03_29500	Unknown	ACETYLPUTRESCINE-DEACETYLASE-RXN
ASD03_29780	ggt	GAMMA-GLUTAMYLTRANSFERASE-RXN;RXN-18092;RXN-18093;RXN-6601;RXN-9157;RXN66-336
ASD03_28135	Unknown	PRTRANS-RXN
ASD03_33725	Unknown	CYTOCHROME-C-OXIDASE-RXN;RXN-15830
ASD03_32910	Unknown	SUCCINATE-SEMIALDEHYDE-DEHYDROGENASE-RXN
ASD03_24850	Unknown	5.3.1.23-RXN
ASD03_12280	Unknown	DEPHOSPHOCOAKIN-RXN
ASD03_01875	Unknown	GLYOXIII-RXN
ASD03_03105	Unknown	2-HALOACID-DEHALOGENASE-RXN
ASD03_06725	Unknown	RXN0-5131
ASD03_10490	Unknown	ARYLESTERASE-RXN
ASD03_24560	Unknown	ADOMET-DMK-METHYLTRANSFER-RXN
ASD03_34910	Unknown	3.5.5.1-RXN;RXN-1404;RXN-17607;RXN-18229
ASD03_16950	Unknown	POLYPHOSPHATE-KINASE-RXN
ASD03_30245	Unknown	1.2.1.25-RXN;1.2.4.4-RXN;2.3.1.168-RXN;2KETO-3METHYLVALERATE-RXN;2KETO-4METHYL-PENTANOATE-DEHYDROG-RXN;ISOVALERYLCOA-DHLIPOAMIDE-RXN;KETOISOCAPROATE-RXN;MBCOA-DHLIPOAMIDE-RXN;METHYLVALERATE-RXN;RXN-7719
ASD03_21070	Unknown	PYRIMSYN1-RXN
ASD03_06100	truB	TRNA-PSEUDOURIDINE-SYNTHASE-I-RXN
ASD03_09390	Unknown	ACID-PHOSPHATASE-RXN;RXN-5822
ASD03_02845	Unknown	2.5.1.19-RXN
ASD03_22595	Unknown	2.7.13.3-RXN
ASD03_09315	Unknown	PANTEPADENYLYLTRAN-RXN
ASD03_13930	Unknown	PDXJ-RXN
ASD03_13250	Unknown	N-FORMYLGLUTAMATE-DEFORMYLASE-RXN
ASD03_03020	Unknown	3-OXOACYL-ACP-REDUCT-RXN;RXN-10060;RXN-10655;RXN-10659;RXN-11476;RXN-11480;RXN-13008;RXN-16616;RXN-16622;RXN-16626;RXN-16630;RXN-9514;RXN-9518;RXN-9524;RXN-9528;RXN-9532;RXN-9536;RXN-9540;RXN-9552;RXN-9556;RXN-9633;RXN0-2142;RXN1G-157;RXN1G-349;RXN1G-469;RXN1G-508
ASD03_33505	Unknown	325-BISPHOSPHATE-NUCLEOTIDASE-RXN
ASD03_17760	Unknown	3-ISOPROPYLMALISOM-RXN;RXN-13163;RXN-8991
ASD03_24495	Unknown	RXN0-5131
ASD03_08450	Unknown	GPH-RXN
ASD03_17020	Unknown	MANNPISOM-RXN
ASD03_20120	Unknown	RXN-13179
ASD03_01290	Unknown	L-ASPARTATE-OXID-RXN;RXN-9772
ASD03_05070	Unknown	3.4.21.92-RXN
ASD03_30435	tauB	3.6.3.36-RXN;ABC-64-RXN
ASD03_22405	Unknown	DTDPDEHYDRHAMEPIM-RXN
ASD03_00200	Unknown	5.99.1.2-RXN
ASD03_00555	Unknown	RXN-18399;RXN-18428;RXN-18430
ASD03_18110	Unknown	THIAMIN-PYROPHOSPHOKINASE-RXN
ASD03_10680	Unknown	RXN-13179
ASD03_14370	Unknown	SHIKIMATE-KINASE-RXN
ASD03_00805	Unknown	3.1.13.5-RXN;RXN0-6483;RXN0-6484
ASD03_23185	Unknown	ASPARTATE-RACEMASE-RXN
ASD03_26340	Unknown	2.7.13.3-RXN
ASD03_18195	Unknown	GSHTRAN-RXN;GST-RXN;RXN-11663;RXN-13673;RXN-15680;RXN-18405;RXN-18407;RXNQT-4363
ASD03_04165	Unknown	7KAPSYN-RXN;RXN-11484
ASD03_22895	Unknown	3.2.1.52-RXN;RXN-12625;RXN-12626;RXN-18082;RXN0-5226
ASD03_22195	Unknown	ALLANTOINASE-RXN
ASD03_03385	Unknown	FUMARYLACETOACETASE-RXN
ASD03_03530	Unknown	ADENYLATECYC-RXN
ASD03_28600	Unknown	LIPIDADISACCHARIDESYNTH-RXN
ASD03_12260	Unknown	RXN-10642;UROGENDECARBOX-RXN
ASD03_30770	Unknown	CITSYN-RXN
ASD03_27205	Unknown	2.7.13.3-RXN
ASD03_07715	Unknown	HOMOCYSMET-RXN;HOMOCYSMETB12-RXN
ASD03_11350	Unknown	5.3.1.17-RXN
ASD03_02065	Unknown	2-HALOACID-DEHALOGENASE-RXN
ASD03_32820	Unknown	3-OXOACYL-ACP-REDUCT-RXN;RXN-10060;RXN-10655;RXN-10659;RXN-11476;RXN-11480;RXN-13008;RXN-16616;RXN-16622;RXN-16626;RXN-16630;RXN-9514;RXN-9518;RXN-9524;RXN-9528;RXN-9532;RXN-9536;RXN-9540;RXN-9552;RXN-9556;RXN-9633;RXN0-2142;RXN1G-157;RXN1G-349;RXN1G-469;RXN1G-508
ASD03_07420	Unknown	L-GLN-FRUCT-6-P-AMINOTRANS-RXN
ASD03_22760	Unknown	ACETYL-COA-CARBOXYLTRANSFER-RXN;BIOTIN-CARBOXYL-RXN
ASD03_27815	Unknown	DNA-DIRECTED-DNA-POLYMERASE-RXN
ASD03_03715	Unknown	UDPMANACATRANS-RXN
ASD03_05235	Unknown	3-OXOACYL-ACP-REDUCT-RXN;RXN-10060;RXN-10655;RXN-10659;RXN-11476;RXN-11480;RXN-13008;RXN-16616;RXN-16622;RXN-16626;RXN-16630;RXN-9514;RXN-9518;RXN-9524;RXN-9528;RXN-9532;RXN-9536;RXN-9540;RXN-9552;RXN-9556;RXN-9633;RXN0-2142;RXN1G-157;RXN1G-349;RXN1G-469;RXN1G-508
ASD03_03695	Unknown	METHENYLTHFCYCLOHYDRO-RXN;METHYLENETHFDEHYDROG-NADP-RXN
ASD03_25700	Unknown	3-DEHYDROQUINATE-DEHYDRATASE-RXN
ASD03_33960	Unknown	MYO-INOSITOL-1OR-4-MONOPHOSPHATASE-RXN;RXN-7253;RXN0-5408
ASD03_05015	Unknown	URITRANS-RXN
ASD03_19305	Unknown	PYRROLINECARBREDUCT-RXN;RXN66-546
ASD03_01285	Unknown	QUINOPRIBOTRANS-RXN
ASD03_12000	Unknown	2.3.2.15-RXN
ASD03_15890	Unknown	3.2.1.52-RXN;RXN-12625;RXN-12626;RXN-18082;RXN0-5226
ASD03_28900	Unknown	RXN-14950;RXN-14957;RXN-14959;RXN0-949
ASD03_32170	Unknown	4.1.1.82-RXN
ASD03_02830	Unknown	ADENPHOSPHOR-RXN;DEOXYADENPHOSPHOR-RXN;DEOXYGUANPHOSPHOR-RXN;DEOXYINOPHOSPHOR-RXN;INOPHOSPHOR-RXN;PNP-RXN;RXN-11715;RXN-11743;RXN-14029;RXN-7001;RXN0-5199;XANTHOSINEPHOSPHORY-RXN
ASD03_34915	Unknown	PRODISULFREDUCT-RXN;RXN0-7271
ASD03_06525	Unknown	METHGLYSYN-RXN
ASD03_28190	Unknown	2.7.8.24-RXN
ASD03_01440	Unknown	DIHYDRODIPICSYN-RXN
ASD03_01060	Unknown	2.3.1.179-RXN;2.3.1.41-RXN;3-OXOACYL-ACP-SYNTH-BASE-RXN;3-OXOACYL-ACP-SYNTH-RXN;RXN-10654;RXN-10658;RXN-11474;RXN-11479;RXN-16615;RXN-16621;RXN-16625;RXN-16629;RXN-8391;RXN-9516;RXN-9523;RXN-9527;RXN-9531;RXN-9535;RXN-9539;RXN0-2141;RXN1G-460;RXN3O-1803
ASD03_32885	Unknown	2.7.13.3-RXN
ASD03_27160	Unknown	325-BISPHOSPHATE-NUCLEOTIDASE-RXN
ASD03_05580	Unknown	ATPASE-RXN
ASD03_07950	Unknown	CYTOCHROME-C-OXIDASE-RXN;RXN-15830
ASD03_24800	Unknown	CITLY-RXN;CITRYLY-RXN;CITTRANS-RXN
ASD03_09435	Unknown	2PGADEHYDRAT-RXN
ASD03_03335	Unknown	IMP-DEHYDROG-RXN
ASD03_31255	Unknown	3.6.3.2-RXN;TRANS-RXN-250
ASD03_07020	Unknown	RXN0-5131
ASD03_12565	Unknown	UNSPECIFIC-MONOOXYGENASE-RXN
ASD03_24250	Unknown	ALKANE-1-MONOOXYGENASE-RXN
ASD03_27975	Unknown	RXN-15122;THREDEHYD-RXN
ASD03_05445	Unknown	DNA-DIRECTED-DNA-POLYMERASE-RXN
ASD03_24960	Unknown	ATPASE-RXN
ASD03_06165	Unknown	3.6.1.41-RXN
ASD03_30285	Unknown	HOMOGENTISATE-12-DIOXYGENASE-RXN
ASD03_06930	Unknown	2-OCTAPRENYL-6-OHPHENOL-METHY-RXN;DHHB-METHYLTRANSFER-RXN
ASD03_34625	Unknown	1.6.99.5-RXN;NADH-DEHYDROGENASE-QUINONE-RXN
ASD03_13025	Unknown	CARNDETRU-RXN
ASD03_28310	Unknown	GLYOXIII-RXN
ASD03_24000	Unknown	RXN-2364
ASD03_12675	Unknown	2-OCTAPRENYL-6-OHPHENOL-METHY-RXN;DHHB-METHYLTRANSFER-RXN
ASD03_04115	Unknown	HISTALDEHYD-RXN;HISTOLDEHYD-RXN;RXN-8001
ASD03_08280	Unknown	COBALAMIN5PSYN-RXN;COBALAMINSYN-RXN;RXN-19296;RXN-19297;RXN-19302;RXN-19303;RXN-19304;RXN-19305;RXN-19307;RXN-19308
ASD03_31590	Unknown	ACETOLACTSYN-RXN;ACETOOHBUTSYN-RXN
ASD03_11295	Unknown	RIBULOSE-BISPHOSPHATE-CARBOXYLASE-RXN
ASD03_29825	Unknown	FMNREDUCT-RXN;NADPH-DEHYDROGENASE-FLAVIN-RXN;RXN-12444
ASD03_08010	Unknown	RXN0-5410
ASD03_02390	Unknown	PYRUVATEORTHOPHOSPHATE-DIKINASE-RXN
ASD03_03510	Unknown	1.2.1.27-RXN;RXN-11213;RXN-2902
ASD03_23095	Unknown	2.9.1.1-RXN
ASD03_32955	Unknown	RXN0-5289;TSA-REDUCT-RXN
ASD03_23345	Unknown	RXN0-5131
ASD03_20210	Unknown	RXN-8665
ASD03_14665	Unknown	PSERTRANSAM-RXN;PSERTRANSAMPYR-RXN
ASD03_21575	Unknown	ASPAMINOTRANS-RXN;RXN-10814;RXN-11737;RXN-13697
ASD03_22075	Unknown	AMINOGLYCOSIDE-N6-ACETYLTRANSFERASE-RXN
ASD03_22540	Unknown	3.1.26.4-RXN
ASD03_20610	Unknown	RXN-17884;RXN-2962
ASD03_28545	Unknown	3.1.11.2-RXN
ASD03_14125	Unknown	PRPPSYN-RXN
ASD03_04590	Unknown	ATPASE-RXN
ASD03_33805	Unknown	METHYLCROTONYL-COA-CARBOXYLASE-RXN
ASD03_18845	Unknown	IMP-DEHYDROG-RXN
ASD03_18265	Unknown	RXN0-5131
ASD03_19875	Unknown	HISTALDEHYD-RXN;HISTOLDEHYD-RXN;RXN-8001
ASD03_35095	Unknown	GLYCERATE-DEHYDROGENASE-RXN;HYDROXYPYRUVATE-REDUCTASE-RXN;RXN0-300
ASD03_02820	Unknown	GLYRIBONUCSYN-RXN
ASD03_20890	Unknown	ACYLCOADEHYDROG-RXN;RXN-17775;RXN-17779;RXN-17783;RXN-17784;RXN-17788;RXN-17792;RXN-17796
ASD03_30240	Unknown	1.2.1.25-RXN;1.2.4.4-RXN;2.3.1.168-RXN;2KETO-3METHYLVALERATE-RXN;2KETO-4METHYL-PENTANOATE-DEHYDROG-RXN;ISOVALERYLCOA-DHLIPOAMIDE-RXN;KETOISOCAPROATE-RXN;MBCOA-DHLIPOAMIDE-RXN;METHYLVALERATE-RXN;RXN-7719
ASD03_14750	Unknown	UDPGLUCEPIM-RXN
ASD03_01390	Unknown	GLYCPDIESTER-RXN;RXN-14073;RXN-14136;RXN-14160
ASD03_31280	Unknown	2.7.13.3-RXN
ASD03_06920	Unknown	GSHTRAN-RXN;GST-RXN;RXN-11663;RXN-13673;RXN-15680;RXN-18405;RXN-18407;RXNQT-4363
ASD03_28720	Unknown	SERINE-O-ACETTRAN-RXN
ASD03_33655	Unknown	GLUTAMINESYN-RXN
ASD03_03350	Unknown	GLYOXIII-RXN
ASD03_18050	Unknown	RXN-13908;RXN-7908
ASD03_34050	Unknown	GLUTAMINESYN-RXN
ASD03_05550	guaA	GLUTAMIN-RXN;GMP-SYN-GLUT-RXN;GMP-SYN-NH3-RXN
ASD03_03175	Unknown	2-HALOACID-DEHALOGENASE-RXN;3.8.1.11-RXN;RXN-6263;RXN-6264
ASD03_06465	Unknown	GLYCERATE-DEHYDROGENASE-RXN;HYDROXYPYRUVATE-REDUCTASE-RXN
ASD03_26460	Unknown	R4-RXN
ASD03_14690	Unknown	RXN-1961
ASD03_32780	Unknown	GLYOXIII-RXN
ASD03_10405	Unknown	2.7.13.3-RXN
ASD03_12135	Unknown	CARBODEHYDRAT-RXN;RXN0-5224
ASD03_16705	Unknown	ACETYLHOMOSER-CYS-RXN;O-ACETYLHOMOSERINE-THIOL-LYASE-RXN
ASD03_17445	Unknown	RXN0-1147
ASD03_20965	Unknown	GALACTONDEHYDRAT-RXN
ASD03_13635	Unknown	ISOCHORMAT-RXN
ASD03_34935	Unknown	NUCLEOTIDE-PYROPHOSPHATASE-RXN
ASD03_11180	Unknown	RXN1A0-6303
ASD03_29570	Unknown	URUR-RXN
ASD03_11790	Unknown	3.11.1.2-RXN
ASD03_29980	Unknown	GLYOXIII-RXN
ASD03_18135	Unknown	RXN0-3221
ASD03_01160	Unknown	PRPPAMIDOTRANS-RXN
ASD03_23605	Unknown	R125-RXN
ASD03_30480	Unknown	4-CARBOXYMUCONOLACTONE-DECARBOXYLASE-RXN
ASD03_28675	Unknown	GLYCPDIESTER-RXN;RXN-14073;RXN-14136;RXN-14160
ASD03_28635	Unknown	CDPDIGLYSYN-RXN;RXN0-5515
ASD03_15865	Unknown	HISTIDINE-AMMONIA-LYASE-RXN
ASD03_08105	Unknown	RXN0-1281
ASD03_33800	Unknown	HYDROXYMETHYLGLUTARYL-COA-LYASE-RXN
ASD03_00470	Unknown	GLYOXIII-RXN
ASD03_27905	Unknown	2.1.1.79-RXN;RXN-7421;RXN1G-2544;RXN1G-3641
ASD03_36065	Unknown	CHLORIDE-PEROXIDASE-RXN
ASD03_19830	Unknown	2.7.13.3-RXN
ASD03_25920	Unknown	FMNREDUCT-RXN;NADPH-DEHYDROGENASE-FLAVIN-RXN;RXN-12444
ASD03_04720	Unknown	RXN1A0-6303
ASD03_21710	Unknown	PRPPSYN-RXN
ASD03_29310	Unknown	GLUC1PURIDYLTRANS-RXN
ASD03_04940	Unknown	TRNA-GUANINE-N7--METHYLTRANSFERASE-RXN
ASD03_05385	Unknown	ATPASE-RXN
ASD03_07865	Unknown	2.3.1.41-RXN;3-OXOACYL-ACP-SYNTH-BASE-RXN;3-OXOACYL-ACP-SYNTH-RXN;RXN-10059;RXN-10654;RXN-10658;RXN-11474;RXN-11479;RXN-16615;RXN-16621;RXN-16625;RXN-16629;RXN-9516;RXN-9523;RXN-9527;RXN-9531;RXN-9535;RXN-9539;RXN-9632;RXN-9648;RXN-9650;RXN-9651;RXN-9652;RXN-9653;RXN-9654;RXN0-2141;RXN1G-368;RXN1G-445;RXN1G-460;RXN1G-499;RXN3O-1803
ASD03_13555	Unknown	3-CH3-2-OXOBUTANOATE-OH-CH3-XFER-RXN;RXN-15635
ASD03_03060	Unknown	RXN-8102
ASD03_34895	Unknown	2-OCTAPRENYL-6-OHPHENOL-METHY-RXN;DHHB-METHYLTRANSFER-RXN
ASD03_29190	Unknown	4.3.1.17-RXN;RXN-15125
ASD03_00830	Unknown	EXOPOLYPHOSPHATASE-RXN
ASD03_25245	Unknown	4.2.1.41-RXN
ASD03_11865	Unknown	PRAISOM-RXN
ASD03_06160	Unknown	DNA-DIRECTED-DNA-POLYMERASE-RXN
ASD03_21195	Unknown	3-HYDROXYISOBUTYRATE-DEHYDROGENASE-RXN
ASD03_20715	Unknown	3-OXOADIPATE-COA-TRANSFERASE-RXN;RXN-10085
ASD03_28515	Unknown	3.2.1.52-RXN;RXN-12625;RXN-12626;RXN-18082;RXN0-5226
ASD03_28920	Unknown	ARYLESTERASE-RXN
ASD03_13040	Unknown	OHACYL-COA-DEHYDROG-RXN;RXN-10698;RXN-10702;RXN-10703;RXN-11245;RXN-11662;RXN-12490;RXN-12570;RXN-12705;RXN-12750;RXN-16133;RXN-17777;RXN-17781;RXN-17786;RXN-17790;RXN-17794;RXN-17798;RXN0-2044
ASD03_15115	hemH	PROTOHEMEFERROCHELAT-RXN
ASD03_11760	Unknown	ASPARTATE-4-DECARBOXYLASE-RXN
ASD03_14140	Unknown	RXN0-5131
ASD03_29650	Unknown	FORMYLTHFDEFORMYL-RXN
ASD03_35720	Unknown	ACYLCOADEHYDROG-RXN;RXN-17775;RXN-17779;RXN-17783;RXN-17784;RXN-17788;RXN-17792;RXN-17796
ASD03_13840	Unknown	CYTIDEAM-RXN;CYTIDEAM2-RXN
ASD03_17090	Unknown	GLYOXIII-RXN
ASD03_36295	Unknown	DNA-DIRECTED-RNA-POLYMERASE-RXN
ASD03_14365	Unknown	3-DEHYDROQUINATE-SYNTHASE-RXN
ASD03_06450	Unknown	RXN0-5100
ASD03_36710	Unknown	RXN0-5131
ASD03_00660	hppA	INORGPYROPHOSPHAT-RXN
ASD03_14120	Unknown	GLYOXIII-RXN
ASD03_14375	Unknown	RXN0-5100
ASD03_12810	Unknown	GLYOXIII-RXN
ASD03_04760	rnpA	3.1.26.5-RXN;RXN0-6480
ASD03_14340	Unknown	R342-RXN
ASD03_16775	Unknown	SPERMIDINESYN-RXN
ASD03_00810	Unknown	ADENYLATECYC-RXN
ASD03_23860	Unknown	DIHYDRODIPICSYN-RXN
ASD03_20980	araG	3.6.3.17-RXN;TRANS-RXN-320
ASD03_30180	Unknown	RXN-8765
ASD03_12605	Unknown	ATPASE-RXN
ASD03_06670	Unknown	CYTIDEAM-RXN;CYTIDEAM2-RXN
ASD03_34655	Unknown	NADH-DEHYDROG-A-RXN
ASD03_07765	Unknown	GUANYLCYC-RXN
ASD03_20375	Unknown	5.5.1.2-RXN
ASD03_15760	Unknown	F16ALDOLASE-RXN;RXN-10053;RXN-8631
ASD03_19410	Unknown	R4-RXN
ASD03_17015	Unknown	HOMOCYSMET-RXN;HOMOCYSMETB12-RXN
ASD03_18585	Unknown	3-OXOACYL-ACP-REDUCT-RXN
ASD03_15560	Unknown	ADENYLATECYC-RXN
ASD03_02300	Unknown	RXN-12720;SULFATE-ADENYLYLTRANS-RXN
ASD03_24720	Unknown	RXN0-5268
ASD03_13845	Unknown	RXN1A0-6303
ASD03_17490	Unknown	RXN-14971;RXN-15378;SUCCINATE-DEHYDROGENASE-UBIQUINONE-RXN
ASD03_12120	Unknown	ALKAPHOSPHA-RXN;RXN-5822;RXN-8748
ASD03_30235	Unknown	D-AMINO-ACID-OXIDASE-RXN;RXN-8163
ASD03_09150	Unknown	ADPREDUCT-RXN;CDPREDUCT-RXN;GDPREDUCT-RXN;RIBONUCLEOSIDE-DIP-REDUCTI-RXN;RIBONUCLEOSIDE-DIP-REDUCTII-RXN;RXN0-722;RXN0-747;RXN0-748;UDPREDUCT-RXN
ASD03_34190	Unknown	3-OXOACYL-ACP-REDUCT-RXN
ASD03_00175	Unknown	ACYLCOADEHYDROG-RXN;RXN-17775;RXN-17779;RXN-17783;RXN-17784;RXN-17788;RXN-17792;RXN-17796
ASD03_26675	Unknown	ASPAMINOTRANS-RXN;RXN-10814;RXN-11737;RXN-13697
ASD03_03645	Unknown	6PGLUCONOLACT-RXN
ASD03_06040	Unknown	RXN-9655
ASD03_21190	Unknown	QOR-RXN
ASD03_10600	Unknown	RXN-8999
ASD03_03170	Unknown	FADSYN-RXN;RIBOFLAVINKIN-RXN;RXN-18510;RXN-18511
ASD03_21800	Unknown	ADENPRIBOSYLTRAN-RXN;RXN-14270
ASD03_04945	Unknown	S-ADENMETSYN-RXN
ASD03_07820	Unknown	R341-RXN;RXN-14256;RXN-14257;RXN-8769
ASD03_20320	Unknown	4.2.3.12-RXN
ASD03_02485	Unknown	THRESYN-RXN
ASD03_05755	Unknown	GLYOXIII-RXN
ASD03_09105	gcvT	GCVT-RXN
ASD03_31585	Unknown	GSAAMINOTRANS-RXN
ASD03_15040	Unknown	PEPDEPHOS-RXN;RXN-14117;RXN-14192;RXN-14207
ASD03_19965	Unknown	ACYLCOADEHYDROG-RXN;RXN-17775;RXN-17779;RXN-17783;RXN-17784;RXN-17788;RXN-17792;RXN-17796
ASD03_10375	Unknown	PHOSACETYLTRANS-RXN
ASD03_12420	Unknown	DIHYDROFOLATESYNTH-RXN;FOLYLPOLYGLUTAMATESYNTH-RXN;FORMYLTHFGLUSYNTH-RXN;RXN-6341;RXN0-2921
ASD03_05025	Unknown	MALIC-NADP-RXN;OXALODECARB-RXN
ASD03_17385	Unknown	RXN0-313;TRANSALDOL-RXN
ASD03_06645	Unknown	ADDALT-RXN;ADENODEAMIN-RXN
ASD03_01295	Unknown	QUINOLINATE-SYNTHA-RXN
ASD03_16865	Unknown	ALARACECAT-RXN
ASD03_28480	Unknown	RXN0-2161;SERINE--TRNA-LIGASE-RXN
ASD03_30925	Unknown	RXN0-5131
ASD03_32145	Unknown	GLYOXIII-RXN
ASD03_05815	Unknown	2.1.1.79-RXN;RXN-7421;RXN1G-2544;RXN1G-3641
ASD03_36670	Unknown	PHOSPHOKETOLASE-RXN
ASD03_33280	Unknown	DIHYDROURACIL-DEHYDROGENASE-NAD+-RXN;RXN0-6565
ASD03_29090	Unknown	RXN-13853
ASD03_18000	Unknown	ACONITATEDEHYDR-RXN;ACONITATEHYDR-RXN;RXN-14047
ASD03_13160	Unknown	XYLULOKIN-RXN
ASD03_12055	fabG	3-OXOACYL-ACP-REDUCT-RXN;RXN-10060;RXN-10655;RXN-10659;RXN-11476;RXN-11480;RXN-13008;RXN-16616;RXN-16622;RXN-16626;RXN-16630;RXN-9514;RXN-9518;RXN-9524;RXN-9528;RXN-9532;RXN-9536;RXN-9540;RXN-9552;RXN-9556;RXN-9633;RXN0-2142;RXN1G-157;RXN1G-349;RXN1G-469;RXN1G-508
ASD03_22400	Unknown	ADENYLATECYC-RXN
ASD03_10485	Unknown	HYDROXY-MANDELATE-RACEMASE-RXN;MANDELATE-RACEMASE-RXN
ASD03_06095	Unknown	2.7.13.3-RXN
ASD03_17420	Unknown	GLUCOSE-1-DEHYDROGENASE-RXN
ASD03_07905	Unknown	CYTOCHROME-C-OXIDASE-RXN;RXN-15830
ASD03_22770	Unknown	ALLOPHANATE-HYDROLASE-RXN
ASD03_01170	Unknown	PHOSPHASERSYN-RXN
ASD03_03500	Unknown	RXN0-3221
ASD03_31800	Unknown	RXN0-5131
ASD03_13185	Unknown	2-HALOACID-DEHALOGENASE-RXN;3.8.1.11-RXN;RXN-6263;RXN-6264
ASD03_08075	Unknown	5.3.3.10-RXN
ASD03_15410	Unknown	CYTOCHROME-C-OXIDASE-RXN;RXN-15830
ASD03_04540	Unknown	2-NITROPROPANE-DIOXYGENASE-RXN
ASD03_09180	Unknown	5.99.1.3-RXN
ASD03_26540	Unknown	GALPMUT-RXN
ASD03_13490	Unknown	DALADALALIG-RXN
ASD03_13470	Unknown	UDPNACETYLMURAMATEDEHYDROG-RXN
ASD03_12815	Unknown	METHIONINE-GAMMA-LYASE-RXN;RXN-14301
ASD03_05295	Unknown	5-DEHYDRO-2-DEOXYGLUCONOKINASE-RXN
ASD03_15280	Unknown	GLYOXIII-RXN
ASD03_35725	Unknown	PYRIDOXAL-4-DEHYDROGENASE-RXN
ASD03_02070	Unknown	RXN0-2441
ASD03_17955	Unknown	DIAMINOPIMEPIM-RXN
ASD03_24710	Unknown	RXN0-5268
ASD03_30135	Unknown	2.7.13.3-RXN
ASD03_07510	Unknown	ADENYLATECYC-RXN
ASD03_21940	Unknown	RXN0-4022
ASD03_25605	Unknown	KANAMYCIN-KINASE-RXN
ASD03_01230	Unknown	CYSTEINE--TRNA-LIGASE-RXN
ASD03_31415	Unknown	RXN-12610;RXN-12611;THI-P-SYN-RXN
ASD03_32950	Unknown	DIHYDROXYISOVALDEHYDRAT-RXN;DIHYDROXYMETVALDEHYDRAT-RXN
ASD03_20720	Unknown	3-OXOADIPATE-COA-TRANSFERASE-RXN;RXN-10085
ASD03_27935	sseA	MERCAPYSTRANS-RXN;RXN-18702;RXN-18703;RXN0-6945
ASD03_27265	Unknown	3.1.1.69-RXN
ASD03_28435	Unknown	2.5.1.32-RXN;RXN-13323;RXNARA-8002
ASD03_27965	cpdB	3-NUCLEOTID-RXN;CYCPHOSDIESTER-RXN;RXN-14064;RXN-14090;RXN-14091;RXN-14112;RXN-14113;RXN-14115;RXN-14124;RXN-14126
ASD03_12140	Unknown	PYRAMKIN-RXN
ASD03_18175	Unknown	ACETYL-COA-ACETYLTRANSFER-RXN;METHYLACETOACETYLCOATHIOL-RXN;RXN-12561
ASD03_15295	Unknown	RXN1A0-6303
ASD03_14305	Unknown	GLYOXII-RXN;RXN-7919
ASD03_13780	Unknown	RXN0-6274
ASD03_02570	Unknown	HEMEOSYN-RXN
ASD03_11430	Unknown	RXN-8529
ASD03_27790	Unknown	SAICARSYN-RXN
ASD03_11355	Unknown	KDUD-RXN
ASD03_08335	Unknown	2-OCTAPRENYL-6-OHPHENOL-METHY-RXN;DHHB-METHYLTRANSFER-RXN
ASD03_30725	Unknown	GSHTRAN-RXN;GST-RXN;RXN-11663;RXN-13673;RXN-15680;RXN-18405;RXN-18407;RXNQT-4363
ASD03_06480	Unknown	GLYOXIII-RXN
ASD03_35295	Unknown	SUCCINATE-SEMIALDEHYDE-DEHYDROGENASE-RXN
ASD03_01035	Unknown	RXN-13179
ASD03_12430	Unknown	RXN0-4261
ASD03_22570	Unknown	KANAMYCIN-KINASE-RXN
ASD03_25345	Unknown	3.4.11.19-RXN
ASD03_04905	Unknown	3.5.1.27-RXN;3.5.1.88-RXN
ASD03_29425	Unknown	R4-RXN
ASD03_18040	Unknown	RXN0-5062
ASD03_16730	Unknown	2-HALOACID-DEHALOGENASE-RXN
ASD03_00825	Unknown	GLYCPDIESTER-RXN;RXN-14073;RXN-14136;RXN-14160
ASD03_17780	Unknown	HOMSUCTRAN-RXN
ASD03_03120	Unknown	325-BISPHOSPHATE-NUCLEOTIDASE-RXN
ASD03_17400	Unknown	RXN0-5100
ASD03_02295	Unknown	1.8.4.8-RXN
ASD03_30270	Unknown	MALEYLACETOACETATE-ISOMERASE-RXN
ASD03_30910	Unknown	DTDPGLUCDEHYDRAT-RXN
ASD03_20985	araH	3.6.3.17-RXN;TRANS-RXN-320
ASD03_13440	Unknown	UDP-NACMURALGLDAPAALIG-RXN
ASD03_22300	Unknown	DIHYDROXYISOVALDEHYDRAT-RXN;DIHYDROXYMETVALDEHYDRAT-RXN
ASD03_14225	Unknown	ARGSUCCINLYA-RXN;RXN-22
ASD03_27900	Unknown	DEOXYRIBODIPYRIMIDINE-PHOTOLYASE-RXN;RXN-19025;RXN-19026;RXN-19242;RXN-19243;RXN-19244;RXN-19245;RXN-19246;RXN-19247;RXN-19248
ASD03_29135	Unknown	HISTCYCLOHYD-RXN
ASD03_28140	Unknown	IGPSYN-RXN
ASD03_11795	Unknown	RXN-12513
ASD03_25310	Unknown	ADENYLATECYC-RXN
ASD03_35730	Unknown	GLYCERATE-DEHYDROGENASE-RXN;HYDROXYPYRUVATE-REDUCTASE-RXN;RXN0-300
ASD03_21985	Unknown	FORMATETHFLIG-RXN
ASD03_06080	Unknown	2.7.7.8-RXN
ASD03_01350	Unknown	ATPASE-RXN
ASD03_11895	Unknown	RIBOKIN-RXN;RXN-14223
ASD03_31165	Unknown	GLYOXIII-RXN
ASD03_36530	Unknown	2.1.1.77-RXN
ASD03_22930	Unknown	RXN-9380
ASD03_10700	Unknown	ADENYLATECYC-RXN
ASD03_09005	Unknown	RXN-11109
ASD03_19245	Unknown	TRANS-RXN-298
ASD03_16255	Unknown	ALLANTOICASE-RXN
ASD03_33850	Unknown	GLUCONOKIN-RXN
ASD03_00430	Unknown	ALKAPHOSPHA-RXN;RXN-5822;RXN-8748
ASD03_16010	Unknown	ORNITHINE-CYCLODEAMINASE-RXN
ASD03_30210	Unknown	RXN0-2584
ASD03_15015	Unknown	AIRCARBOXY-RXN
ASD03_00185	Unknown	DIHYDROOROT-RXN
ASD03_14890	Unknown	F16ALDOLASE-RXN;RXN-8631
ASD03_22020	Unknown	DURIDKI-RXN;THYKI-RXN
ASD03_30265	purU	FORMYLTHFDEFORMYL-RXN
ASD03_06905	Unknown	RXN1A0-6303
ASD03_30470	Unknown	GLUTAMIN-RXN;GMP-SYN-GLUT-RXN;GMP-SYN-NH3-RXN
ASD03_19730	Unknown	RXN0-5131
ASD03_15555	Unknown	4OH2OXOGLUTARALDOL-RXN;KDPGALDOL-RXN
ASD03_17460	sucC	SUCCCOASYN-RXN
ASD03_29790	Unknown	2.7.13.3-RXN
ASD03_02790	ubiA	4OHBENZOATE-OCTAPRENYLTRANSFER-RXN
ASD03_23830	Unknown	DHSHIKIMATE-DEHYDRO-RXN
ASD03_14045	Unknown	RXN-19040;RXN0-6359;THIOSULFATE-SULFURTRANSFERASE-RXN
ASD03_20205	Unknown	AMINOBENZCOALIG-RXN
ASD03_28810	Unknown	NADPH-DEHYDROGENASE-FLAVIN-RXN
ASD03_19975	Unknown	2.1.3.1-RXN
ASD03_16345	Unknown	ADDALT-RXN;ADENODEAMIN-RXN
ASD03_17705	Unknown	RXN0-5510
ASD03_30895	Unknown	DTDPGLUCOSEPP-RXN
ASD03_13550	Unknown	PANTOATE-BETA-ALANINE-LIG-RXN
ASD03_18680	Unknown	GLUCOKIN-RXN;HEXOKINASE-RXN
ASD03_34515	Unknown	2.7.13.3-RXN
ASD03_20350	Unknown	1.1.1.178-RXN
ASD03_29145	Unknown	IMP-DEHYDROG-RXN
ASD03_28820	Unknown	DIMETHUROPORDEHYDROG-RXN;SIROHEME-FERROCHELAT-RXN;UROPORIIIMETHYLTRANSA-RXN
ASD03_30460	Unknown	GLYOXII-RXN;RXN-7919
ASD03_29655	Unknown	RXN1A0-6303
ASD03_28925	Unknown	1.2.4.4-RXN;2.3.1.168-RXN;KETOISOCAPROATE-RXN;METHYLVALERATE-RXN;RXN-7790
ASD03_01055	Unknown	ADCLY-RXN
ASD03_34250	Unknown	NQOR-RXN
ASD03_05205	Unknown	ENOYL-COA-HYDRAT-RXN;METHYLACYLYLCOA-HYDROXY-RXN;RXN-10697;RXN-10704;RXN-10705;RXN-11244;RXN-12567;RXN-13616;RXN-14266;RXN-14272;RXN-14273;RXN-16135;RXN-16558;RXN-17114;RXN-17475;RXN-17776;RXN-17780;RXN-17785;RXN-17789;RXN-17793;RXN-17797;RXN-2425;RXN0-5393;TIGLYLCOA-HYDROXY-RXN
ASD03_30300	Unknown	4-HYDROXYPHENYLPYRUVATE-DIOXYGENASE-RXN;RXN-10815
ASD03_03165	ileS	ISOLEUCINE--TRNA-LIGASE-RXN
ASD03_34240	Unknown	GLYOXIII-RXN
ASD03_13450	murD	UDP-NACMURALA-GLU-LIG-RXN
ASD03_13030	Unknown	ACYLCOASYN-RXN;LINOLENOYL-RXN;R223-RXN;RXN-12184;RXN-12702;RXN-12746;RXN-12978;RXN-13290;RXN-13614;RXN-16380;RXN-16389;RXN-16393;RXN-16401;RXN-16402;RXN-16415;RXN-16418;RXN-7904;RXN-9623;RXN-9644;RXN-9673;RXN0-7238;RXN0-7239;RXN0-7248;RXN66-469;RXN66-477;RXN66-480;RXN66-483;RXN66-484;TRANS-RXN0-623
ASD03_06665	Unknown	ADENPHOSPHOR-RXN;DEOXYADENPHOSPHOR-RXN;DEOXYGUANPHOSPHOR-RXN;DEOXYINOPHOSPHOR-RXN;INOPHOSPHOR-RXN;PNP-RXN;RXN-11715;RXN-11743;RXN-14029;RXN-7001;RXN0-5199;XANTHOSINEPHOSPHORY-RXN
ASD03_07785	Unknown	BTUR2-RXN;COBALADENOSYLTRANS-RXN;R344-RXN
ASD03_18605	Unknown	1.11.1.15-RXN;RXN0-5468
ASD03_01075	Unknown	MALONYL-COA-ACP-TRANSACYL-RXN
ASD03_08035	Unknown	3.2.1.37-RXN
ASD03_00720	Unknown	AMIDASE-RXN;GUANIDINOBUTANAMIDE-NH3-RXN;PYRAZIN-RXN;R311-RXN;RXN-14727;RXN-14728;RXN-17608;RXNN-404
ASD03_28930	Unknown	RXN-12508;RXN-12583;RXN0-1134
ASD03_08715	Unknown	CARBOXYMETHYLENEBUTENOLIDASE-RXN;DIENELACHYDRO-RXN;RXN-9857;RXN-9868;RXN-9887;RXN-9890
ASD03_16000	Unknown	DIMETHYLARGININASE-RXN
ASD03_26450	Unknown	CHLOROMALERED-RXN;MALEYLACETATE-REDUCTASE-RXN;RXN-9885;RXN-9891
ASD03_32370	Unknown	3-OXOACYL-ACP-REDUCT-RXN;RXN-10060;RXN-10655;RXN-10659;RXN-11476;RXN-11480;RXN-13008;RXN-16616;RXN-16622;RXN-16626;RXN-16630;RXN-9514;RXN-9518;RXN-9524;RXN-9528;RXN-9532;RXN-9536;RXN-9540;RXN-9552;RXN-9556;RXN-9633;RXN0-2142;RXN1G-157;RXN1G-349;RXN1G-469;RXN1G-508
ASD03_14570	Unknown	RXN0-2023
ASD03_14790	Unknown	RXN0-4261
ASD03_05950	Unknown	ADENYLATECYC-RXN
ASD03_33820	Unknown	RXN-14264;RXN0-2301
ASD03_06555	Unknown	GLYCERATE-DEHYDROGENASE-RXN;HYDROXYPYRUVATE-REDUCTASE-RXN;RXN0-300
ASD03_35705	Unknown	GLUCISOM-RXN;XYLISOM-RXN
ASD03_34615	Unknown	1.6.99.5-RXN;NADH-DEHYDROGENASE-QUINONE-RXN
ASD03_13965	Unknown	ASPARTATE-RACEMASE-RXN
ASD03_27090	Unknown	3.2.1.23-RXN;BETAGALACTOSID-RXN
ASD03_25170	Unknown	MYO-INOSITOL-1OR-4-MONOPHOSPHATASE-RXN;RXN-7253;RXN0-5408
ASD03_08765	Unknown	2.7.13.3-RXN
ASD03_32335	Unknown	DIHYDRODIPICSYN-RXN
ASD03_31345	Unknown	2.1.1.71-RXN;RXN4FS-2
ASD03_15050	Unknown	N-FORMYLGLUTAMATE-DEFORMYLASE-RXN
ASD03_06650	Unknown	URACIL-PRIBOSYLTRANS-RXN
ASD03_04780	Unknown	1.8.4.12-RXN
ASD03_16295	Unknown	ATPASE-RXN
ASD03_13875	Unknown	NITRILE-HYDRATASE-RXN;R310-RXN;R313-RXN;RXN-14725;RXN-14726;RXN-17609;RXN-7567
ASD03_16085	Unknown	RIBOKIN-RXN;RXN-14223
ASD03_12525	Unknown	PRIBFAICARPISOM-RXN
ASD03_19390	Unknown	R4-RXN
ASD03_16110	Unknown	3.4.11.1-RXN
ASD03_20725	Unknown	KETOACYLCOATHIOL-RXN;RXN-10699;RXN-10700;RXN-10701;RXN-11246;RXN-12565;RXN-12710;RXN-13617;RXN-14268;RXN-14274;RXN-14277;RXN-14394;RXN-14774;RXN-14788;RXN-14793;RXN-14799;RXN-14803;RXN-16137;RXN-17116;RXN-17778;RXN-17782;RXN-17787;RXN-17791;RXN-17795;RXN-17799;RXN-3641
ASD03_08570	Unknown	2.3.1.184-RXN;RXN-10020;RXN-10022;RXN-10023;RXN-10024;RXN-10025;RXN-10026
ASD03_07990	Unknown	3.2.1.25-RXN
ASD03_27165	Unknown	ADENYLYLSULFKIN-RXN;GSADENYLATION-RXN;RXN-12720;SULFATE-ADENYLYLTRANS-RXN
ASD03_25520	Unknown	RXN-8529
ASD03_16180	Unknown	GLYCERATE-DEHYDROGENASE-RXN;HYDROXYPYRUVATE-REDUCTASE-RXN;RXN0-300
ASD03_16205	Unknown	GUANINE-DEAMINASE-RXN;RXN-15261
ASD03_27990	Unknown	2-HALOACID-DEHALOGENASE-RXN;3.8.1.11-RXN;RXN-6263;RXN-6264
ASD03_24085	Unknown	ADDALT-RXN;ADENODEAMIN-RXN
ASD03_29255	Unknown	RXN-13037;RXN-13039;RXN-17127;RXN-8654;RXN-8655;RXN0-1141;RXN0-5098;RXN0-947
ASD03_29875	Unknown	5.3.3.10-RXN
ASD03_09840	Unknown	3-OCTAPRENYL-4-OHBENZOATE-DECARBOX-RXN
ASD03_18600	Unknown	2-HALOACID-DEHALOGENASE-RXN
ASD03_35345	Unknown	RXN-18397
ASD03_23570	Unknown	1TRANSKETO-RXN;2TRANSKETO-RXN
ASD03_28910	Unknown	1.8.1.4-RXN;2OXOGLUTARATEDEH-RXN;2OXOGLUTDECARB-RXN;RXN-7716;RXN-7719;RXN-8629;RXN0-1132;RXN0-1147
ASD03_04575	Unknown	2.7.13.3-RXN
ASD03_28470	pcm	2.1.1.77-RXN
ASD03_04605	Unknown	ACYLCOASYN-RXN;LINOLENOYL-RXN;R223-RXN;RXN-12184;RXN-12978;RXN-13290;RXN-13614;RXN-16380;RXN-16389;RXN-16393;RXN-16401;RXN-16402;RXN-16415;RXN-16418;RXN-7904;RXN-9623;RXN-9644;RXN-9673;RXN0-7238;RXN0-7239;RXN0-7248;RXN66-469;RXN66-477;RXN66-480;RXN66-483;RXN66-484;TRANS-RXN0-623
ASD03_22165	Unknown	GUANINE-DEAMINASE-RXN;RXN-15261
ASD03_23680	Unknown	ADENOSYLHOMOCYSTEINASE-RXN
ASD03_02565	Unknown	HEMEOSYN-RXN
ASD03_13260	Unknown	GLUTAMINESYN-RXN
ASD03_29800	Unknown	RXN-14477;RXN-14478;RXN-14479;RXN0-1661
ASD03_15010	purE	RXN0-743
ASD03_01260	Unknown	GCVT-RXN
ASD03_17205	Unknown	1.2.1.2-RXN
ASD03_12180	Unknown	ACETATE--COA-LIGASE-RXN;RXN-18446;RXN-18447;RXN-18448
ASD03_03360	Unknown	EXOPOLYPHOSPHATASE-RXN
ASD03_23470	Unknown	RXN0-4261
ASD03_14800	Unknown	ALKANE-1-MONOOXYGENASE-RXN
ASD03_27760	Unknown	RXN-11355;RXN-12243;RXN-12244
ASD03_06185	Unknown	PREPHENATEDEHYDRAT-RXN
ASD03_22040	Unknown	PMPOXI-RXN;PNPOXI-RXN
ASD03_14490	Unknown	N-FORMYLGLUTAMATE-DEFORMYLASE-RXN
ASD03_13880	Unknown	NITRILE-HYDRATASE-RXN;R310-RXN;R313-RXN;RXN-14725;RXN-14726;RXN-17609;RXN-7567
ASD03_00930	Unknown	RXN-18694;RXN-8342
ASD03_04125	Unknown	UDPNACETYLGLUCOSAMENOLPYRTRANS-RXN
ASD03_09095	Unknown	GCVP-RXN
ASD03_00745	Unknown	ARGINYLTRANSFERASE-RXN;RXN-17888;RXN-17889;RXN-17890;RXN-17891
ASD03_23135	Unknown	GLUTATHIONE-SYN-RXN
ASD03_01205	Unknown	3.4.11.5-RXN
ASD03_20325	Unknown	RXN-12093
ASD03_05350	Unknown	DUTP-PYROP-RXN
ASD03_23555	Unknown	RXN-12134;RXN-12140;RXN-12141;RXN-12142
ASD03_34285	Unknown	CHLORIDE-PEROXIDASE-RXN
ASD03_34695	Unknown	GABATRANSAM-RXN;RXN-2901
ASD03_33720	Unknown	CYTOCHROME-C-OXIDASE-RXN;RXN-15830
ASD03_29690	Unknown	RXN-9235
ASD03_20100	Unknown	GLUCISOM-RXN;XYLISOM-RXN
ASD03_21365	Unknown	HOMOCYSMET-RXN
ASD03_14840	Unknown	5-FORMYL-THF-CYCLO-LIGASE-RXN
ASD03_13390	Unknown	2.7.1.90-RXN
ASD03_23475	Unknown	DNA-DIRECTED-DNA-POLYMERASE-RXN
ASD03_08285	Unknown	DMBPPRIBOSYLTRANS-RXN;RXN-19295;RXN-19298;RXN-19299;RXN-19300;RXN-19301;RXN-19306
ASD03_25285	Unknown	GSHTRAN-RXN;GST-RXN;RXN-11663;RXN-13673;RXN-15680;RXN-18405;RXN-18407;RXNQT-4363
ASD03_05305	Unknown	MYO-INOSOSE-2-DEHYDRATASE-RXN
ASD03_15810	Unknown	ACYLCOADEHYDROG-RXN;RXN-17775;RXN-17779;RXN-17783;RXN-17784;RXN-17788;RXN-17792;RXN-17796
ASD03_04265	Unknown	UDPGLUCEPIM-RXN
ASD03_35080	Unknown	ASPAMINOTRANS-RXN;RXN-10814;RXN-11737;RXN-13697
ASD03_18165	Unknown	RXN-12560;RXN-13279;RXN-5901
ASD03_36885	Unknown	RXN-11135
ASD03_03630	Unknown	GLUTAMINESYN-RXN
ASD03_08550	Unknown	1.14.11.18-RXN;RXN66-470
ASD03_00770	Unknown	UNSPECIFIC-MONOOXYGENASE-RXN
ASD03_03650	Unknown	PGLUCONDEHYDRAT-RXN
ASD03_02695	Unknown	3.1.11.6-RXN
ASD03_04485	Unknown	ACETYLORNTRANSAM-RXN;RXN-15007
ASD03_20410	Unknown	4-HYDROXYBENZOATE-3-MONOOXYGENASE-RXN
ASD03_20050	Unknown	RXN-17954;RXN-17957;RXN0-6732
ASD03_14785	Unknown	RXN0-4261
ASD03_28735	Unknown	RXN-10078;RXN-10079;RXN-9912;RXN-9914;SALICYLATE-1-MONOOXYGENASE-RXN
ASD03_22740	Unknown	PYRROLINECARBREDUCT-RXN;RXN66-546
ASD03_32655	Unknown	1-PHOSPHATIDYLINOSITOL-KINASE-RXN
ASD03_25035	Unknown	1.14.11.2-RXN
ASD03_23910	Unknown	4-HYDROXYPROLINE-EPIMERASE-RXN
ASD03_01410	Unknown	HOLO-ACP-SYNTH-RXN
ASD03_03320	Unknown	CARBOXYMETHYLENEBUTENOLIDASE-RXN;DIENELACHYDRO-RXN;RXN-9857;RXN-9868;RXN-9887;RXN-9890
ASD03_28620	Unknown	UDPHYDROXYMYRGLUCOSAMNACETYLTRANS-RXN
ASD03_19100	Unknown	CYTOCHROME-C-OXIDASE-RXN;RXN-15830
ASD03_04710	putA	PYRROLINECARBDEHYDROG-RXN;RXN-14116;RXN-14903;RXN0-7008
ASD03_35480	Unknown	DIHYDRODIPICSYN-RXN
ASD03_14235	Unknown	DIAMINOPIMDECARB-RXN
ASD03_13900	Unknown	AMONITRO-RXN
ASD03_33245	Unknown	D-SORBITOL-DEHYDROGENASE-RXN;L-IDITOL-2-DEHYDROGENASE-RXN;RXN-7644
ASD03_00675	Unknown	LUMAZINESYN-RXN
ASD03_15325	Unknown	GLYCOGEN-BRANCH-RXN;RXN-14371;RXN-14372;RXN-18777;RXN-7669;RXN-7710
ASD03_35215	Unknown	2.7.13.3-RXN
ASD03_31785	Unknown	RXN0-2584
ASD03_19065	Unknown	3.2.1.55-RXN
ASD03_19470	Unknown	RXN0-5131
ASD03_03520	Unknown	1.11.1.15-RXN;RXN0-5468
ASD03_31005	Unknown	THIAZOLSYN3-RXN
ASD03_12945	Unknown	3.1.1.64-RXN;CARBOXYLESTERASE-RXN;RETINYL-PALMITATE-ESTERASE-RXN;RXN-10711;RXN-10767;RXN-12252;RXN-12575;RXNQT-4366
ASD03_16660	Unknown	DIHYDROPYRIMIDINASE-RXN;RXN-11211;RXN-11217
ASD03_13460	Unknown	NACGLCTRANS-RXN;RXN-8976
ASD03_17340	Unknown	1.5.1.9-RXN
ASD03_21650	Unknown	ATPASE-RXN
ASD03_36705	Unknown	RXN0-5131
ASD03_07580	Unknown	ATPASE-RXN
ASD03_28825	Unknown	CYTIDEAM-RXN;CYTIDEAM2-RXN
ASD03_01175	Unknown	PHOSPHASERDECARB-RXN
ASD03_36005	Unknown	AGMATIN-RXN
ASD03_02595	Unknown	CHORISMATE-SYNTHASE-RXN
ASD03_32080	Unknown	RXN0-5131
ASD03_05005	Unknown	TRYPTOPHAN--TRNA-LIGASE-RXN
ASD03_34950	Unknown	PEPTIDYLPROLYL-ISOMERASE-RXN
ASD03_15235	Unknown	DIHYDRODIPICSYN-RXN
ASD03_15190	Unknown	N-FORMYLGLUTAMATE-DEFORMYLASE-RXN
ASD03_12415	Unknown	ACETYL-COA-CARBOXYLTRANSFER-RXN;RXN0-5055
ASD03_21405	Unknown	ACYLPHOSPHATASE-RXN
ASD03_09430	Unknown	DIHYDRODIPICSYN-RXN
ASD03_05705	Unknown	RXN0-5131
ASD03_15215	Unknown	1.11.1.15-RXN;RXN0-5468
ASD03_04025	Unknown	RXN0-5306
ASD03_22845	Unknown	DIHYDROPYRIMIDINASE-RXN;RXN-11211;RXN-11217
ASD03_25420	Unknown	RXN-14014
ASD03_06350	Unknown	FORMYLTHFDEFORMYL-RXN
ASD03_17720	Unknown	DNA-DIRECTED-DNA-POLYMERASE-RXN;RXN0-4961
ASD03_09035	Unknown	RXN0-4621
ASD03_17560	Unknown	GLUTAMIN-RXN;GMP-SYN-GLUT-RXN;GMP-SYN-NH3-RXN
ASD03_08750	Unknown	RXN-17131;RXN-17132;RXN-17133
ASD03_24965	Unknown	1.11.1.15-RXN;RXN0-5468
ASD03_15855	Unknown	PRPPSYN-RXN
ASD03_36090	Unknown	CHLORIDE-PEROXIDASE-RXN
ASD03_21515	Unknown	RXN0-4261
ASD03_12145	Unknown	GLUTAMATE-DEHYDROGENASE-RXN
ASD03_29445	Unknown	NUCLEOSIDE-DEOXYRIBOSYLTRANSFERASE-RXN
ASD03_33395	Unknown	1.11.1.15-RXN;RXN0-5468
ASD03_35400	Unknown	RIB5PISOM-RXN
ASD03_03640	Unknown	GLU6PDEHYDROG-RXN
ASD03_28960	Unknown	RXN-9591
ASD03_17345	cpsB	2.7.7.13-RXN
ASD03_29165	Unknown	2.3.2.13-RXN;RXN-19236
ASD03_02525	Unknown	HOMOSERKIN-RXN
ASD03_05480	Unknown	GSHTRAN-RXN;GST-RXN;RXN-11663;RXN-13673;RXN-15680;RXN-18405;RXN-18407;RXNQT-4363
ASD03_33585	Unknown	AGMATIN-RXN
ASD03_08580	Unknown	MALIC-NADP-RXN;OXALODECARB-RXN
ASD03_13205	Unknown	RIB5PISOM-RXN
ASD03_08135	Unknown	RXN0-2621
ASD03_04635	Unknown	OROPRIBTRANS-RXN
ASD03_23030	Unknown	ALKANE-1-MONOOXYGENASE-RXN
ASD03_01225	Unknown	GLYOXIII-RXN
ASD03_18975	Unknown	ADENYLATECYC-RXN
ASD03_19350	Unknown	GSHTRAN-RXN;GST-RXN;RXN-11663;RXN-13673;RXN-15680;RXN-18405;RXN-18407;RXNQT-4363
ASD03_19165	Unknown	GLUCONATE-5-DEHYDROGENASE-RXN
ASD03_10330	Unknown	3.1.11.2-RXN
ASD03_34300	Unknown	2.7.13.3-RXN
ASD03_01145	Unknown	ALARACECAT-RXN
ASD03_14645	Unknown	ADENYLOSUCCINATE-SYNTHASE-RXN
ASD03_13995	Unknown	1.11.1.15-RXN;RXN0-5468
ASD03_08900	Unknown	FGAMSYN-RXN
ASD03_13990	Unknown	ADENYLATECYC-RXN
ASD03_09765	Unknown	2-HALOACID-DEHALOGENASE-RXN;3.8.1.11-RXN;RXN-6263;RXN-6264
ASD03_00345	Unknown	1.6.99.5-RXN;NADH-DEHYDROGENASE-QUINONE-RXN
ASD03_04145	Unknown	NICOTINATEPRIBOSYLTRANS-RXN
ASD03_35645	Unknown	RXN-10075
ASD03_36845	Unknown	SUCCGLUDESUCC-RXN
ASD03_20060	Unknown	RXN-17956;RXN0-6734
ASD03_09890	Unknown	UDPGLUCEPIM-RXN
ASD03_30705	Unknown	TRANS-RXN-283
ASD03_20360	Unknown	SUPEROX-DISMUT-RXN
ASD03_21525	Unknown	RXN0-5021
ASD03_29205	Unknown	2.1.1.100-RXN
ASD03_20390	Unknown	4-CARBOXYMUCONOLACTONE-DECARBOXYLASE-RXN
ASD03_32500	Unknown	PYRROLINECARBREDUCT-RXN;RXN66-546
ASD03_14930	Unknown	ADENYLATECYC-RXN
ASD03_19950	Unknown	RXN-8529
ASD03_28975	Unknown	PHOSPHAGLYPSYN-RXN
ASD03_10555	Unknown	KDUD-RXN
ASD03_25940	Unknown	4-CARBOXYMUCONOLACTONE-DECARBOXYLASE-RXN
ASD03_12485	Unknown	PEPCARBOXYKIN-RXN
ASD03_18260	Unknown	RXN0-5131
ASD03_21960	Unknown	ANTHRANSYN-RXN
ASD03_15150	gltD	GLUTAMATESYN-RXN;GLUTAMIN-RXN;GLUTDEHYD-RXN
ASD03_34815	Unknown	1.5.1.9-RXN
ASD03_21540	Unknown	CARBPSYN-RXN;GLUTAMIN-RXN;RXN-13202;RXN-14196;RXN-16909;RXN-16910
ASD03_20395	Unknown	3-OXOADIPATE-ENOL-LACTONASE-RXN;RXN-10083
ASD03_12155	purH	AICARTRANSFORM-RXN;IMPCYCLOHYDROLASE-RXN
ASD03_15220	Unknown	ADENYLATECYC-RXN
ASD03_10595	Unknown	RXN-2103
ASD03_03595	Unknown	ISOCIT-CLEAV-RXN
ASD03_00950	ndk	CDPKIN-RXN;DADPKIN-RXN;DCDPKIN-RXN;DGDPKIN-RXN;DTDPKIN-RXN;DUDPKIN-RXN;GDPKIN-RXN;NUCLEOSIDE-DIP-KIN-RXN;RXN-14120;RXN-14228;UDPKIN-RXN
ASD03_36660	Unknown	3-OXOACYL-ACP-REDUCT-RXN;RXN-10060;RXN-10655;RXN-10659;RXN-11476;RXN-11480;RXN-13008;RXN-16616;RXN-16622;RXN-16626;RXN-16630;RXN-9514;RXN-9518;RXN-9524;RXN-9528;RXN-9532;RXN-9536;RXN-9540;RXN-9552;RXN-9556;RXN-9633;RXN0-2142;RXN1G-157;RXN1G-349;RXN1G-469;RXN1G-508
ASD03_12580	Unknown	MALSYN-RXN
ASD03_16965	Unknown	RXN-9387;RXN-9781
ASD03_29105	Unknown	THREONINE--TRNA-LIGASE-RXN
ASD03_36335	Unknown	2-HALOACID-DEHALOGENASE-RXN;3.8.1.11-RXN;RXN-6263;RXN-6264
ASD03_05380	Unknown	ACSERLY-RXN;RXN-12726
ASD03_19340	Unknown	ATPASE-RXN
ASD03_05865	Unknown	ACETYLPUTRESCINE-DEACETYLASE-RXN
ASD03_05545	Unknown	ADENOSYLHOMOCYSTEINE-NUCLEOSIDASE-RXN;METHYLTHIOADENOSINE-NUCLEOSIDASE-RXN
ASD03_15330	Unknown	GLUC1PADENYLTRANS-RXN
ASD03_18555	Unknown	GLYCOGEN-BRANCH-RXN;RXN-14371;RXN-14372;RXN-18777;RXN-7669;RXN-7710
ASD03_00635	Unknown	2.3.1.180-RXN
ASD03_22120	Unknown	3.4.11.18-RXN;RXN-17873;RXN-17874;RXN-17875;RXN-17876;RXN-17877;RXN-17878
ASD03_24075	Unknown	ADDALT-RXN;ADENODEAMIN-RXN
ASD03_27805	Unknown	METHIONINE--TRNA-LIGASE-RXN;RXN-16165
ASD03_16665	Unknown	DIHYDROPYRIMIDINASE-RXN;RXN-11211;RXN-11217
ASD03_01000	Unknown	GALACTODEHYDROG-RXN
ASD03_31430	Unknown	1.4.3.19-RXN;RXN-12614;RXN-17951;RXN-8672;RXN-8673;RXN-8674
ASD03_00705	Unknown	RIBOFLAVINSYNDEAM-RXN;RIBOFLAVINSYNREDUC-RXN
ASD03_02085	Unknown	1.1.1.274-RXN
ASD03_04105	Unknown	RXN-982
ASD03_12635	tdh	RXN-14249;THREODEHYD-RXN
ASD03_24460	Unknown	NANE-RXN
ASD03_12540	Unknown	IMIDPHOSDEHYD-RXN
ASD03_08465	Unknown	GLUTATHIONE-REDUCT-NADPH-RXN
ASD03_00125	gatB	6.3.5.7-RXN
ASD03_10090	Unknown	RXN0-2584
ASD03_29540	Unknown	CYTDEAM-RXN;RXN-14129;RXN-14197
ASD03_12350	Unknown	GALACTONDEHYDRAT-RXN
ASD03_01360	Unknown	UDP-GLUCURONATE-5-EPIMERASE-RXN
ASD03_01960	Unknown	RXN0-6373
ASD03_15180	Unknown	LYSOPHOSPHOLIPASE-RXN;RXN-15035;RXN-19312
ASD03_15875	Unknown	UROCANATE-HYDRATASE-RXN
ASD03_24295	Unknown	RXNN-386
ASD03_31420	Unknown	THIAZOLSYN2-RXN
ASD03_00760	Unknown	5.99.1.2-RXN
ASD03_17165	Unknown	ARGINASE-RXN;RXN-34
ASD03_30185	Unknown	2.1.1.131-RXN
ASD03_22905	Unknown	3.4.11.4-RXN
ASD03_22985	Unknown	RXN-15122;THREDEHYD-RXN
ASD03_33715	Unknown	CYTOCHROME-C-OXIDASE-RXN;RXN-15830
ASD03_28425	Unknown	TRNA-URACIL-5--METHYLTRANSFERASE-RXN
ASD03_17450	sucA	2-KETO-ADIPATE-DEHYDROG-RXN;2OXOGLUTARATEDEH-RXN;2OXOGLUTDECARB-RXN;RXN-7716;RXN0-1147
ASD03_30275	Unknown	2-OXOPENT-4-ENOATE-HYDRATASE-RXN;RXN-10381
ASD03_21060	Unknown	ATPASE-RXN
ASD03_05795	Unknown	3.7.1.9-RXN
ASD03_34605	Unknown	2.7.13.3-RXN
ASD03_07860	Unknown	2.3.1.41-RXN;3-OXOACYL-ACP-SYNTH-BASE-RXN;3-OXOACYL-ACP-SYNTH-RXN;RXN-10059;RXN-10654;RXN-10658;RXN-11474;RXN-11479;RXN-16615;RXN-16621;RXN-16625;RXN-16629;RXN-9516;RXN-9523;RXN-9527;RXN-9531;RXN-9535;RXN-9539;RXN-9632;RXN-9648;RXN-9650;RXN-9651;RXN-9652;RXN-9653;RXN-9654;RXN0-2141;RXN1G-368;RXN1G-445;RXN1G-460;RXN1G-499;RXN3O-1803
ASD03_13830	Unknown	ACETOLACTSYN-RXN;ACETOOHBUTSYN-RXN
ASD03_25560	Unknown	CYSTATHIONINE-BETA-LYASE-RXN;RXN-15131
ASD03_20530	Unknown	GUANYLCYC-RXN
ASD03_20950	Unknown	DIHYDRODIPICSYN-RXN
ASD03_20780	Unknown	GABATRANSAM-RXN;RXN-2901
ASD03_11620	Unknown	NQOR-RXN
ASD03_04150	Unknown	NICOTINAMID-RXN
ASD03_00145	gatA	6.3.5.7-RXN
ASD03_24395	Unknown	D-ALANINE-AMINOTRANSFERASE-RXN
ASD03_19765	Unknown	GLUCISOM-RXN;XYLISOM-RXN
ASD03_28525	Unknown	ARGININE--TRNA-LIGASE-RXN
ASD03_21815	Unknown	POLYNUCLEOTIDE-ADENYLYLTRANSFERASE-RXN
ASD03_14295	Unknown	HISTAMINOTRANS-RXN
ASD03_17665	Unknown	GLUTKIN-RXN
ASD03_12455	Unknown	ADENOSYLHOMOCYSTEINASE-RXN
ASD03_36280	Unknown	ADENYL-KIN-RXN
ASD03_00870	Unknown	RXN0-1441
ASD03_28560	Unknown	VALINE--TRNA-LIGASE-RXN
ASD03_29865	Unknown	PROTEIN-KINASE-RXN
ASD03_35110	Unknown	3-OXOACYL-ACP-REDUCT-RXN
ASD03_03670	Unknown	MALTODEXGLUCOSID-RXN;RXN-14281;RXN-14282;RXN-14283;RXN-15910;RXN0-5183
ASD03_05040	Unknown	RXN-17362
ASD03_28270	Unknown	RXN-982
ASD03_01845	Unknown	1.8.4.12-RXN
ASD03_22160	Unknown	RXN-12587;RXN-12588;RXN-14382;RXN-14385;RXN-15881;RXN-9787;RXN0-308
ASD03_25525	Unknown	GLUCONOLACT-RXN;RXN-8783
ASD03_17105	Unknown	5-AMINOLEVULINIC-ACID-SYNTHASE-RXN
ASD03_15080	Unknown	PABASYN-RXN
ASD03_28045	Unknown	RXN-12752;RXN-13142
ASD03_06005	Unknown	2.5.1.19-RXN
ASD03_00285	Unknown	PROLINE--TRNA-LIGASE-RXN
ASD03_05485	Unknown	RXN-12104
ASD03_36330	Unknown	ATPASE-RXN
ASD03_04300	Unknown	DIHYDROOROTATE-DEHYDROGENASE-RXN;RXN0-6491;RXN0-6554
ASD03_04900	Unknown	METHIONYL-TRNA-FORMYLTRANSFERASE-RXN
ASD03_22170	lldD	L-LACTATE-DEHYDROGENASE-CYTOCHROME-RXN
ASD03_34365	Unknown	1.5.1.19-RXN
ASD03_31030	Unknown	RXN0-5131
ASD03_19955	Unknown	3-HYDROXYISOBUTYRATE-DEHYDROGENASE-RXN
ASD03_28105	Unknown	L-GLN-FRUCT-6-P-AMINOTRANS-RXN
ASD03_22070	Unknown	ADDALT-RXN;ADENODEAMIN-RXN
ASD03_35335	eutB	RXN-15122;THREDEHYD-RXN
ASD03_08145	Unknown	ADENYLATECYC-RXN
ASD03_27130	Unknown	METHIONYL-TRNA-FORMYLTRANSFERASE-RXN
ASD03_02160	Unknown	GSHTRAN-RXN;GST-RXN;RXN-11663;RXN-13673;RXN-15680;RXN-18405;RXN-18407;RXNQT-4363
ASD03_10785	Unknown	RXN3DJ-170;RXN66-221
ASD03_33320	Unknown	DIHYDROPYRIMIDINASE-RXN;RXN-11211;RXN-11217
ASD03_36055	Unknown	CITSYN-RXN
ASD03_04375	Unknown	ACYLCOADEHYDROG-RXN;RXN-17775;RXN-17779;RXN-17783;RXN-17784;RXN-17788;RXN-17792;RXN-17796
ASD03_12015	Unknown	4.2.2.3-RXN
ASD03_28950	Unknown	KDO-8PSYNTH-RXN
ASD03_28185	Unknown	NQOR-RXN
ASD03_32765	Unknown	2.7.13.3-RXN
ASD03_22090	Unknown	RXN0-5462
ASD03_03215	hisZ	ATPPHOSPHORIBOSYLTRANS-RXN
ASD03_08860	Unknown	PRODISULFREDUCT-RXN;RXN0-7271
ASD03_14980	Unknown	MYO-INOSITOL-1OR-4-MONOPHOSPHATASE-RXN;RXN-7253;RXN0-5408
ASD03_20930	Unknown	ATPASE-RXN
ASD03_19930	Unknown	GLYOXI-RXN
ASD03_06985	Unknown	R4-RXN
ASD03_12190	Unknown	R103-RXN
ASD03_27950	Unknown	ALANINE-DEHYDROGENASE-RXN
ASD03_07015	Unknown	GSHTRAN-RXN;GST-RXN;RXN-11663;RXN-13673;RXN-15680;RXN-18405;RXN-18407;RXNQT-4363
ASD03_26520	Unknown	ACYLCOADEHYDROG-RXN;RXN-17775;RXN-17779;RXN-17783;RXN-17784;RXN-17788;RXN-17792;RXN-17796
ASD03_17745	Unknown	CITLY-RXN;CITRYLY-RXN;CITTRANS-RXN
ASD03_06355	Unknown	DNA-DIRECTED-DNA-POLYMERASE-RXN
ASD03_00370	Unknown	1.6.99.5-RXN;NADH-DEHYDROGENASE-QUINONE-RXN
ASD03_33730	Unknown	CYTOCHROME-C-OXIDASE-RXN
ASD03_12340	Unknown	MANNONOXIDOREDUCT-RXN
ASD03_30455	Unknown	RXN-13418;RXN-15341;RXN0-280;RXN0-6973
ASD03_06640	Unknown	D-PPENTOMUT-RXN;PPENTOMUT-RXN
ASD03_22280	Unknown	2.3.2.13-RXN;RXN-19236
ASD03_07875	Unknown	LAUROYLACYLTRAN-RXN
ASD03_30190	Unknown	2.1.1.130-RXN
ASD03_15110	Unknown	3-NUCLEOTID-RXN;5-NUCLEOTID-RXN;AMP-DEPHOSPHORYLATION-RXN;CYCPHOSDIESTER-RXN;RXN-14025;RXN-14026;RXN-14064;RXN-14090;RXN-14091;RXN-14112;RXN-14113;RXN-14115;RXN-14124;RXN-14126;RXN-14227;RXN-5841;RXN-7607;RXN-7609;XMPXAN-RXN
ASD03_12950	Unknown	RXN-8668
ASD03_09985	Unknown	PROTEIN-KINASE-RXN
ASD03_17600	Unknown	ALKAPHOSPHA-RXN;RXN-5822;RXN-8748
ASD03_05945	Unknown	ADENYLATECYC-RXN
ASD03_15310	Unknown	2.3.2.13-RXN;RXN-19236
ASD03_30105	lysS	LYSINE--TRNA-LIGASE-RXN
ASD03_02305	Unknown	RXN-12720;SULFATE-ADENYLYLTRANS-RXN
ASD03_25110	Unknown	3.1.3.16-RXN
ASD03_20285	Unknown	ENOYL-COA-HYDRAT-RXN;METHYLACYLYLCOA-HYDROXY-RXN;RXN-10697;RXN-10704;RXN-10705;RXN-11244;RXN-12567;RXN-13616;RXN-14266;RXN-14272;RXN-14273;RXN-16135;RXN-16558;RXN-17114;RXN-17475;RXN-17776;RXN-17780;RXN-17785;RXN-17789;RXN-17793;RXN-17797;RXN-2425;RXN0-5393;TIGLYLCOA-HYDROXY-RXN
ASD03_13820	Unknown	ATPASE-RXN
ASD03_18205	Unknown	FPPSYN-RXN;GPPSYN-RXN
ASD03_14990	Unknown	RXN-12610;RXN-12611;THI-P-SYN-RXN
ASD03_11625	Unknown	R4-RXN
ASD03_02590	Unknown	DIOHBUTANONEPSYN-RXN
ASD03_08470	Unknown	DAHPSYN-RXN
ASD03_16210	Unknown	RXN-12587;RXN-12588;RXN-14382;RXN-14385;RXN-15881;RXN-9787;RXN0-308
ASD03_32220	Unknown	SUCCINATE-SEMIALDEHYDE-DEHYDROGENASE-RXN
ASD03_10415	Unknown	2-HALOACID-DEHALOGENASE-RXN
ASD03_08845	Unknown	MYO-INOSITOL-1OR-4-MONOPHOSPHATASE-RXN;RXN-7253;RXN0-5408
ASD03_12235	Unknown	RXN-11578
ASD03_09030	Unknown	TYROSINE--TRNA-LIGASE-RXN
ASD03_10380	Unknown	ACETATEKIN-RXN
ASD03_01125	Unknown	RXN0-4261
ASD03_25425	Unknown	DIHYDRODIPICSYN-RXN
ASD03_36150	Unknown	GUANYLCYC-RXN
ASD03_01005	Unknown	DNA-DIRECTED-DNA-POLYMERASE-RXN
ASD03_21210	Unknown	5-OXOPROLINASE-ATP-HYDROLYSING-RXN
ASD03_21350	Unknown	RXN-9387;RXN-9781
ASD03_08935	Unknown	AICARSYN-RXN;AMPSYN-RXN
ASD03_08560	Unknown	RXN-8771
ASD03_19960	Unknown	3-HYDROXYISOBUTYRYL-COA-HYDROLASE-RXN;RXN-13721;RXN-6384
ASD03_31205	Unknown	3.1.2.23-RXN
ASD03_32240	Unknown	RXN-8529
ASD03_12450	Unknown	ALKAPHOSPHA-RXN;RXN-5822;RXN-8748
ASD03_05275	Unknown	P-PANTOCYSDECARB-RXN;P-PANTOCYSLIG-RXN;RXN-11781
ASD03_01655	Unknown	GSADENYLATION-RXN
ASD03_30170	Unknown	2.1.1.133-RXN
ASD03_18090	Unknown	ARGSUCCINSYN-RXN;RXN-10
ASD03_05165	Unknown	GLYOXIII-RXN
ASD03_17660	obgE	RXN0-5462
ASD03_09670	Unknown	ADENYLATECYC-RXN
ASD03_08895	Unknown	FGAMSYN-RXN
ASD03_08670	Unknown	1.10.2.2-RXN;RXN-15829
ASD03_25800	Unknown	PROTEIN-KINASE-RXN
ASD03_00100	Unknown	LEUCYLTRANSFERASE-RXN;RXN-17846;RXN-17847;RXN-17848
ASD03_06510	Unknown	RXN-14014
ASD03_14875	gapA	GAPOXNPHOSPHN-RXN
ASD03_34085	Unknown	ATPASE-RXN
ASD03_32340	Unknown	PROLINE-RACEMASE-RXN
ASD03_30320	Unknown	UDPGLUCEPIM-RXN
ASD03_36580	Unknown	THRESYN-RXN
ASD03_10920	Unknown	CHD-RXN;RXN0-7230
ASD03_24595	Unknown	MANNONDEHYDRAT-RXN
ASD03_33530	Unknown	GLYOXIII-RXN
ASD03_12205	Unknown	ALARACECAT-RXN
ASD03_02615	Unknown	ENOYL-ACP-REDUCT-NADPH-RXN;RXN-9515;RXN-9521;RXN-9526;RXN-9530;RXN-9534;RXN-9538;RXN-9542;RXN3O-5293
ASD03_29965	Unknown	RXN-15849;RXN-7563
ASD03_01400	Unknown	3.1.26.3-RXN
ASD03_25165	Unknown	3.1.3.16-RXN
ASD03_15730	Unknown	2.7.13.3-RXN
ASD03_26455	Unknown	RXN-10075
ASD03_16490	Unknown	RXN-17155
ASD03_31010	Unknown	RXN-12610;RXN-12611;THI-P-SYN-RXN
ASD03_12125	Unknown	ASPARTATE-SEMIALDEHYDE-DEHYDROGENASE-RXN
ASD03_04685	Unknown	ADENYLATECYC-RXN
ASD03_12355	Unknown	PYRIDOXAL-4-DEHYDROGENASE-RXN
ASD03_17675	Unknown	NICONUCADENYLYLTRAN-RXN
ASD03_22085	Unknown	DEOXYGLUCONOKIN-RXN
ASD03_13835	Unknown	ACETOLACTSYN-RXN;ACETOOHBUTSYN-RXN
ASD03_09360	Unknown	RXN0-5131
ASD03_06660	Unknown	THYM-PHOSPH-RXN
ASD03_04270	Unknown	ASPAMINOTRANS-RXN;RXN-10814;RXN-11737;RXN-13697
ASD03_00735	Unknown	PORPHOBILSYNTH-RXN
ASD03_30940	Unknown	RXN0-5131
ASD03_12790	Unknown	ENOYL-COA-HYDRAT-RXN;METHYLACYLYLCOA-HYDROXY-RXN;RXN-10697;RXN-10704;RXN-10705;RXN-11244;RXN-12567;RXN-13616;RXN-14266;RXN-14272;RXN-14273;RXN-16135;RXN-16558;RXN-17114;RXN-17475;RXN-17776;RXN-17780;RXN-17785;RXN-17789;RXN-17793;RXN-17797;RXN-2425;RXN0-5393;TIGLYLCOA-HYDROXY-RXN
ASD03_14660	Unknown	PGLYCDEHYDROG-RXN
ASD03_13775	Unknown	PSERPHOSPHA-RXN;RXN0-5114
ASD03_21920	Unknown	2-ISOPROPYLMALATESYN-RXN
ASD03_08720	Unknown	H2PTERIDINEPYROPHOSPHOKIN-RXN;RXN-15733
ASD03_20245	Unknown	3-HYDROXY-KYNURENINASE-RXN;KYNURENINASE-RXN
ASD03_15245	Unknown	DIHYDROXYISOVALDEHYDRAT-RXN;DIHYDROXYMETVALDEHYDRAT-RXN
ASD03_26005	Unknown	GSHTRAN-RXN;GST-RXN;RXN-11663;RXN-13673;RXN-15680;RXN-18405;RXN-18407;RXNQT-4363
ASD03_04455	Unknown	DCTP-DEAM-RXN;RXN-14118
ASD03_33735	Unknown	CYTOCHROME-C-OXIDASE-RXN;RXN-15830
ASD03_26510	Unknown	RXN-13418;RXN-15341;RXN0-280;RXN0-6973
ASD03_16245	Unknown	3.5.2.17-RXN
ASD03_00180	pyrB	ASPCARBTRANS-RXN
ASD03_11660	Unknown	RXN-8668
ASD03_23120	Unknown	2.7.9.3-RXN
ASD03_35680	Unknown	GLYOXIII-RXN
ASD03_28880	ispDF	2.7.7.60-RXN;RXN0-302
ASD03_03140	Unknown	RXN0-6515
ASD03_02025	Unknown	SUPEROX-DISMUT-RXN
ASD03_36720	Unknown	RXN0-5131
ASD03_13175	Unknown	N-ACYLMANNOSAMINE-1-DEHYDROGENASE-RXN
ASD03_15625	Unknown	CYTDEAM-RXN;RXN-14129;RXN-14197
ASD03_10965	Unknown	3-OXOACYL-ACP-REDUCT-RXN;RXN-10060;RXN-10655;RXN-10659;RXN-11476;RXN-11480;RXN-13008;RXN-16616;RXN-16622;RXN-16626;RXN-16630;RXN-9514;RXN-9518;RXN-9524;RXN-9528;RXN-9532;RXN-9536;RXN-9540;RXN-9552;RXN-9556;RXN-9633;RXN0-2142;RXN1G-157;RXN1G-349;RXN1G-469;RXN1G-508
ASD03_15675	Unknown	ARYLSULFAT-RXN
ASD03_23480	Unknown	RXN0-4961
ASD03_33645	Unknown	2.3.2.13-RXN;RXN-19236
ASD03_09215	Unknown	12-OXOPHYTODIENOATE-REDUCTASE-RXN
ASD03_23500	Unknown	PHOSGLYPHOS-RXN
ASD03_08310	Unknown	RXN0-2584
ASD03_00095	Unknown	BIOTIN-CARBOXYL-RXN
ASD03_18810	Unknown	2.7.13.3-RXN
ASD03_13510	Unknown	UDPACYLGLCNACDEACETYL-RXN
ASD03_35860	Unknown	DIHYDRODIPICSYN-RXN
ASD03_12320	Unknown	5.99.1.3-RXN
ASD03_22625	Unknown	2.7.13.3-RXN
ASD03_18780	Unknown	GLYCOGEN-BRANCH-RXN;RXN-14371;RXN-14372;RXN-18777;RXN-7669;RXN-7710
ASD03_05800	Unknown	2.3.2.13-RXN;RXN-19236
ASD03_31610	Unknown	1-PHOSPHATIDYLINOSITOL-KINASE-RXN
ASD03_00045	Unknown	NAD-KIN-RXN
ASD03_18960	Unknown	AMINOGLYCOSIDE-N3-ACETYLTRANSFERASE-RXN
ASD03_27370	Unknown	ADENYLATECYC-RXN
ASD03_21535	Unknown	6.3.5.7-RXN
ASD03_08810	Unknown	GLUTRACE-RXN
ASD03_30475	Unknown	R4-RXN
ASD03_02520	Unknown	3.1.26.4-RXN
ASD03_00895	Unknown	3.1.27.1-RXN
ASD03_04280	Unknown	2.7.13.3-RXN
ASD03_14210	Unknown	3-HYDROXYBUTYRYL-COA-DEHYDROGENASE-RXN
ASD03_09070	Unknown	RXN-12587;RXN-12588;RXN-14382;RXN-14385;RXN-15881;RXN-9787;RXN0-308
ASD03_04825	Unknown	2-HALOACID-DEHALOGENASE-RXN;3.8.1.11-RXN;RXN-6263;RXN-6264
ASD03_12470	Unknown	PROTEIN-KINASE-RXN
ASD03_24100	Unknown	2.7.13.3-RXN
ASD03_22190	Unknown	RXN-6201
ASD03_17790	Unknown	ALDOSE1EPIM-RXN
ASD03_30545	Unknown	HYDROXY-MANDELATE-RACEMASE-RXN;MANDELATE-RACEMASE-RXN
ASD03_04255	Unknown	RXN0-5268
ASD03_04885	Unknown	SUCCDIAMINOPIMDESUCC-RXN
ASD03_19020	Unknown	2.7.13.3-RXN
ASD03_10565	Unknown	HYDROXY-MANDELATE-RACEMASE-RXN;MANDELATE-RACEMASE-RXN
ASD03_05610	Unknown	2.6.1.57-RXN;PHEAMINOTRANS-RXN;RXN-14147;RXN-15200;TRYPTOPHAN-AMINOTRANSFERASE-RXN;TYROSINE-AMINOTRANSFERASE-RXN
ASD03_21700	Unknown	3.4.13.9-RXN
ASD03_15055	Unknown	ALKAPHOSPHA-RXN;RXN-5822;RXN-8748
ASD03_06045	Unknown	2.3.1.41-RXN;3-OXOACYL-ACP-SYNTH-BASE-RXN;3-OXOACYL-ACP-SYNTH-RXN;RXN-10059;RXN-10654;RXN-10658;RXN-11474;RXN-11479;RXN-16615;RXN-16621;RXN-16625;RXN-16629;RXN-9516;RXN-9523;RXN-9527;RXN-9531;RXN-9535;RXN-9539;RXN-9632;RXN-9648;RXN-9650;RXN-9651;RXN-9652;RXN-9653;RXN-9654;RXN0-2141;RXN1G-368;RXN1G-445;RXN1G-460;RXN1G-499;RXN3O-1803
ASD03_27820	Unknown	DTMPKI-RXN
ASD03_00030	Unknown	RXN0-5375
ASD03_07535	Unknown	2-OCTAPRENYL-6-OHPHENOL-METHY-RXN;DHHB-METHYLTRANSFER-RXN
ASD03_28615	Unknown	3-HYDROXYDECANOYL-ACP-DEHYDR-RXN
ASD03_16100	Unknown	DEOXYRIBOSE-P-ALD-RXN
ASD03_26745	Unknown	ATPASE-RXN
ASD03_14530	Unknown	HISTIDINE-AMMONIA-LYASE-RXN
ASD03_02630	Unknown	PMPOXI-RXN;PNPOXI-RXN
ASD03_32840	Unknown	GPPSYN-RXN
ASD03_30175	Unknown	2.1.1.132-RXN;RXN-13824;RXN-13826
ASD03_05635	Unknown	GSHTRAN-RXN;GST-RXN;RXN-11663;RXN-13673;RXN-15680;RXN-18405;RXN-18407;RXNQT-4363
ASD03_17895	Unknown	3-ISOPROPYLMALISOM-RXN;R-2-METHYLMALATE-DEHYDRATASE-RXN;RXN-13163;RXN-7744;RXN-8991
ASD03_33915	Unknown	2.7.13.3-RXN
ASD03_19665	Unknown	3-CH3-2-OXOBUTANOATE-OH-CH3-XFER-RXN;RXN-15635
ASD03_09510	Unknown	GLUCONOLACT-RXN;RXN-8783
ASD03_28795	Unknown	ACETYL-COA-HYDROLASE-RXN
ASD03_13800	Unknown	2-OCTAPRENYL-6-OHPHENOL-METHY-RXN;DHHB-METHYLTRANSFER-RXN
ASD03_06690	Unknown	ATPASE-RXN
ASD03_16415	Unknown	IMP-DEHYDROG-RXN
ASD03_20685	Unknown	GABATRANSAM-RXN;RXN-2901
ASD03_22180	Unknown	3.5.2.17-RXN
ASD03_30200	Unknown	R321-RXN
ASD03_00715	glyA	GLYOHMETRANS-RXN;RXN0-5234
ASD03_24880	Unknown	ALARACECAT-RXN
ASD03_14795	Unknown	3.1.22.4-RXN
ASD03_18365	Unknown	CATAL-RXN;RXN-14189;RXN66-1
ASD03_35715	Unknown	3-OXOACYL-ACP-REDUCT-RXN
ASD03_01905	Unknown	GSHTRAN-RXN;GST-RXN;RXN-11663;RXN-13673;RXN-15680;RXN-18405;RXN-18407;RXNQT-4363
ASD03_02215	Unknown	ASPARAGHYD-RXN
ASD03_22575	Unknown	GLYOXIII-RXN
ASD03_33830	Unknown	RXN-2043
ASD03_32000	Unknown	RXN0-304
ASD03_15515	Unknown	ORNDECARBOX-RXN
ASD03_33925	Unknown	3-HYDROXYDECANOYL-ACP-DEHYDR-RXN
ASD03_16800	Unknown	QUERCETIN-23-DIOXYGENASE-RXN
ASD03_28130	Unknown	PEPTIDYLPROLYL-ISOMERASE-RXN
ASD03_07465	Unknown	1.11.1.15-RXN;RXN0-5468
ASD03_22795	Unknown	3-OXOACYL-ACP-REDUCT-RXN;RXN-10060;RXN-10655;RXN-10659;RXN-11476;RXN-11480;RXN-13008;RXN-16616;RXN-16622;RXN-16626;RXN-16630;RXN-9514;RXN-9518;RXN-9524;RXN-9528;RXN-9532;RXN-9536;RXN-9540;RXN-9552;RXN-9556;RXN-9633;RXN0-2142;RXN1G-157;RXN1G-349;RXN1G-469;RXN1G-508
ASD03_13035	Unknown	ACYLCOADEHYDROG-RXN;RXN-17775;RXN-17779;RXN-17783;RXN-17784;RXN-17788;RXN-17792;RXN-17796
ASD03_11720	Unknown	NAD-SYNTH-NH3-RXN
ASD03_21635	Unknown	BRANCHED-CHAINAMINOTRANSFERILEU-RXN;BRANCHED-CHAINAMINOTRANSFERLEU-RXN;BRANCHED-CHAINAMINOTRANSFERVAL-RXN
ASD03_19995	Unknown	GLYOXIII-RXN
ASD03_14510	Unknown	FORMIMINOGLUTAMATE-DEIMINASE-RXN
ASD03_17755	Unknown	GLYOXIII-RXN
ASD03_18045	Unknown	PROTEIN-TYROSINE-PHOSPHATASE-RXN
ASD03_20275	Unknown	RXN-11740
ASD03_11670	Unknown	GSHTRAN-RXN;GST-RXN;RXN-11663;RXN-13673;RXN-15680;RXN-18405;RXN-18407;RXNQT-4363
ASD03_02270	Unknown	CHD-RXN;RXN0-7230
ASD03_03055	Unknown	R502-RXN
ASD03_05310	Unknown	RXN-14150
ASD03_15790	Unknown	GABATRANSAM-RXN;RXN-2901
ASD03_27705	Unknown	MANNPISOM-RXN
ASD03_16790	Unknown	NICOTINAMID-RXN
ASD03_21275	Unknown	RXN1A0-6303
ASD03_23190	Unknown	4.1.99.4-RXN;RXN-15149
ASD03_11395	Unknown	PROTEIN-TYROSINE-PHOSPHATASE-RXN
ASD03_20480	Unknown	3.4.13.9-RXN
ASD03_08990	Unknown	2.7.1.148-RXN
ASD03_17390	Unknown	ATPASE-RXN
ASD03_10125	Unknown	GLYOXI-RXN
ASD03_06735	Unknown	GUANYLCYC-RXN
ASD03_17610	Unknown	AMIDASE-RXN;GUANIDINOBUTANAMIDE-NH3-RXN;PYRAZIN-RXN;R311-RXN;RXN-14727;RXN-14728;RXN-17608;RXNN-404
ASD03_21760	Unknown	AMINOCYL-TRNA-HYDROLASE-RXN;RXN-16637
