id	Common name	linked reactions
ASD49_33825	Unknown	DIHYDRODIPICSYN-RXN
ASD49_25420	Unknown	BTUR2-RXN;COBALADENOSYLTRANS-RXN;R344-RXN
ASD49_25865	Unknown	RXN-1961
ASD49_14425	Unknown	AIRS-RXN
ASD49_08060	Unknown	GSHTRAN-RXN;GST-RXN;RXN-11663;RXN-13673;RXN-15680;RXN-18405;RXN-18407;RXNQT-4363
ASD49_16275	Unknown	2.7.13.3-RXN
ASD49_14610	Unknown	LUMAZINESYN-RXN
ASD49_05880	Unknown	GPH-RXN
ASD49_21945	Unknown	XYLULOKIN-RXN
ASD49_21780	Unknown	RXN0-2584
ASD49_11250	Unknown	ATPASE-RXN
ASD49_21545	Unknown	RXN0-5131
ASD49_01045	Unknown	R4-RXN
ASD49_10580	Unknown	MANNONOXIDOREDUCT-RXN
ASD49_00315	Unknown	RXN-8668
ASD49_01400	Unknown	AMONITRO-RXN
ASD49_24865	Unknown	DEOXYRIBOSE-P-ALD-RXN
ASD49_22945	Unknown	3.4.11.19-RXN
ASD49_05310	Unknown	2.3.1.41-RXN;3-OXOACYL-ACP-SYNTH-BASE-RXN;3-OXOACYL-ACP-SYNTH-RXN;RXN-10059;RXN-10654;RXN-10658;RXN-11474;RXN-11479;RXN-16615;RXN-16621;RXN-16625;RXN-16629;RXN-9516;RXN-9523;RXN-9527;RXN-9531;RXN-9535;RXN-9539;RXN-9632;RXN-9648;RXN-9650;RXN-9651;RXN-9652;RXN-9653;RXN-9654;RXN0-2141;RXN1G-368;RXN1G-445;RXN1G-460;RXN1G-499;RXN3O-1803
ASD49_33760	araH	3.6.3.17-RXN;TRANS-RXN-320
ASD49_24720	Unknown	MERCURY-II-REDUCTASE-RXN
ASD49_15905	Unknown	NICOTINAMID-RXN
ASD49_06150	Unknown	H2PTERIDINEPYROPHOSPHOKIN-RXN;RXN-15733
ASD49_13985	Unknown	L-ASPARTATE-OXID-RXN;RXN-9772
ASD49_29030	Unknown	2.7.13.3-RXN
ASD49_26040	gapA	GAPOXNPHOSPHN-RXN
ASD49_22565	Unknown	RXN1A0-6303
ASD49_32285	araD	RIBULPEPIM-RXN
ASD49_10045	Unknown	RXN0-3221
ASD49_16345	Unknown	2.7.13.3-RXN
ASD49_12255	Unknown	MUCONATE-CYCLOISOMERASE-RXN
ASD49_24475	Unknown	F16ALDOLASE-RXN;RXN-10053;RXN-8631
ASD49_19120	Unknown	ISOCHORMAT-RXN
ASD49_08555	Unknown	ACYLCOADEHYDROG-RXN;RXN-17775;RXN-17779;RXN-17783;RXN-17784;RXN-17788;RXN-17792;RXN-17796
ASD49_03860	guaA	GLUTAMIN-RXN;GMP-SYN-GLUT-RXN;GMP-SYN-NH3-RXN
ASD49_26820	Unknown	MALTODEXGLUCOSID-RXN;RXN-14281;RXN-14282;RXN-14283;RXN-15910;RXN0-5183
ASD49_03335	Unknown	RXN-9655
ASD49_05125	Unknown	RXN-8102
ASD49_32795	Unknown	SUPEROX-DISMUT-RXN
ASD49_16290	Unknown	2-NITROPROPANE-DIOXYGENASE-RXN
ASD49_20530	Unknown	IGPSYN-RXN
ASD49_24200	Unknown	RXN-8529
ASD49_33435	Unknown	4.2.2.3-RXN
ASD49_12870	Unknown	GLYOXIII-RXN
ASD49_24375	Unknown	GLYCEROL-1-PHOSPHATASE-RXN;RXN-14964;RXN-14965
ASD49_31545	Unknown	CYTOCHROME-C-OXIDASE-RXN
ASD49_19295	Unknown	25-DIOXOVALERATE-DEHYDROGENASE-RXN;RXN-8775
ASD49_23785	Unknown	AMIDASE-RXN;GUANIDINOBUTANAMIDE-NH3-RXN;PYRAZIN-RXN;R311-RXN;RXN-14727;RXN-14728;RXN-17608;RXNN-404
ASD49_19465	Unknown	4.3.1.17-RXN;RXN-15125
ASD49_23250	Unknown	CYTDEAM-RXN;RXN-14129;RXN-14197
ASD49_30360	Unknown	GLYCOGEN-BRANCH-RXN;RXN-14371;RXN-14372;RXN-18777;RXN-7669;RXN-7710
ASD49_32335	Unknown	UDPGLUCEPIM-RXN
ASD49_09590	Unknown	GLUTKIN-RXN
ASD49_23655	Unknown	DIHYDRODIPICSYN-RXN
ASD49_11055	gabD	RXN0-5293;SUCCINATE-SEMIALDEHYDE-DEHYDROGENASE-RXN
ASD49_29375	Unknown	ADDALT-RXN;ADENODEAMIN-RXN
ASD49_31555	Unknown	CYTOCHROME-C-OXIDASE-RXN;RXN-15830
ASD49_00400	Unknown	CARNDETRU-RXN
ASD49_05265	Unknown	R341-RXN;RXN-14256;RXN-14257;RXN-8769
ASD49_10435	prpE	PROPIONATE--COA-LIGASE-RXN
ASD49_07760	Unknown	AMINOPARATHION-PHOSPHATASE-RXN;ARYLDIALKYL-PHOSPHATASE-RXN;ARYLDIALKYLPHOSPHATASE-RXN;RXN-8743;RXN-8746
ASD49_12665	Unknown	DAPASYN-RXN
ASD49_05910	Unknown	DAHPSYN-RXN
ASD49_21690	Unknown	4-HYDROXYPHENYLPYRUVATE-DIOXYGENASE-RXN;RXN-10815
ASD49_27700	Unknown	3-HYDROXYISOBUTYRATE-DEHYDROGENASE-RXN
ASD49_24210	Unknown	ATPASE-RXN
ASD49_26700	Unknown	ANTHRANSYN-RXN
ASD49_00950	Unknown	PANTOATE-BETA-ALANINE-LIG-RXN
ASD49_16930	Unknown	GSHTRAN-RXN;GST-RXN;RXN-11663;RXN-13673;RXN-15680;RXN-18405;RXN-18407;RXNQT-4363
ASD49_14015	Unknown	GCVT-RXN
ASD49_15685	Unknown	HISTALDEHYD-RXN;HISTOLDEHYD-RXN;RXN-8001
ASD49_33270	Unknown	ASPARTATE-SEMIALDEHYDE-DEHYDROGENASE-RXN
ASD49_12040	Unknown	NICOTINAMID-RXN
ASD49_16365	Unknown	ATPASE-RXN
ASD49_19870	Unknown	1.18.1.2-RXN
ASD49_25960	Unknown	3.1.22.4-RXN
ASD49_03285	Unknown	2.7.13.3-RXN
ASD49_17610	Unknown	ADENPHOSPHOR-RXN;DEOXYADENPHOSPHOR-RXN;DEOXYGUANPHOSPHOR-RXN;DEOXYINOPHOSPHOR-RXN;INOPHOSPHOR-RXN;PNP-RXN;RXN-11715;RXN-11743;RXN-14029;RXN-7001;RXN0-5199;XANTHOSINEPHOSPHORY-RXN
ASD49_25950	Unknown	RXN0-4261
ASD49_34400	Unknown	CHLORIDE-PEROXIDASE-RXN
ASD49_31625	Unknown	2.3.2.13-RXN;RXN-19236
ASD49_02145	Unknown	D-THREO-ALDOSE-1-DEHYDROGENASE-RXN
ASD49_13945	Unknown	DTDPGLUCDEHYDRAT-RXN
ASD49_18795	eutB	RXN-15122;THREDEHYD-RXN
ASD49_20480	Unknown	2.7.8.24-RXN
ASD49_13890	Unknown	RXN0-7010
ASD49_00860	Unknown	NACGLCTRANS-RXN;RXN-8976
ASD49_00545	Unknown	XYLULOKIN-RXN
ASD49_19690	Unknown	PHOSPHAGLYPSYN-RXN
ASD49_12980	Unknown	HOMOCYSMET-RXN
ASD49_06020	Unknown	HYDROXY-MANDELATE-RACEMASE-RXN;MANDELATE-RACEMASE-RXN
ASD49_14725	Unknown	N-ACETYLGLUTPREDUCT-RXN;RXN-15006
ASD49_34375	Unknown	S-FORMYLGLUTATHIONE-HYDROLASE-RXN
ASD49_31540	Unknown	CYTOCHROME-C-OXIDASE-RXN;RXN-15830
ASD49_20950	Unknown	RXN1A0-6303
ASD49_19415	Unknown	RXN-13037;RXN-13039;RXN-17127;RXN-8654;RXN-8655;RXN0-1141;RXN0-5098;RXN0-947
ASD49_21195	Unknown	ORNITHINE-CYCLODEAMINASE-RXN
ASD49_15185	Unknown	BIOTIN-CARBOXYL-RXN
ASD49_22260	Unknown	GLYCOPHOSPHORYL-RXN;GLYMALTOPHOSPHORYL-RXN;RXN-12171;RXN-12392;RXN-14284;RXN-14285;RXN-14286;RXN-14353;RXN-1826;RXN-9025;RXN0-5182;RXN0-5184
ASD49_25710	Unknown	HISTIDINE-AMMONIA-LYASE-RXN
ASD49_13530	Unknown	GABATRANSAM-RXN;RXN-2901
ASD49_19235	Unknown	RXN-8999
ASD49_03820	Unknown	GSHTRAN-RXN;GST-RXN;RXN-11663;RXN-13673;RXN-15680;RXN-18405;RXN-18407;RXNQT-4363
ASD49_06095	Unknown	1.10.2.2-RXN;RXN-15829
ASD49_06955	Unknown	GDPMANDEHYDRA-RXN
ASD49_17790	Unknown	DIHYDROXYISOVALDEHYDRAT-RXN;DIHYDROXYMETVALDEHYDRAT-RXN
ASD49_06010	Unknown	LIPIDXSYNTHESIS-RXN
ASD49_03760	Unknown	GLYOXIII-RXN
ASD49_21260	Unknown	3.2.1.48-RXN;RXN-9985
ASD49_02335	Unknown	ADENYLATECYC-RXN
ASD49_20680	cpdB	3-NUCLEOTID-RXN;CYCPHOSDIESTER-RXN;RXN-14064;RXN-14090;RXN-14091;RXN-14112;RXN-14113;RXN-14115;RXN-14124;RXN-14126
ASD49_25815	Unknown	ADENYLOSUCCINATE-SYNTHASE-RXN
ASD49_02665	Unknown	ATPASE-RXN
ASD49_11095	Unknown	RXN0-5289;TSA-REDUCT-RXN
ASD49_07075	Unknown	OHMETPYRKIN-RXN;PYRIMSYN3-RXN
ASD49_06695	Unknown	ADENYLYLSULFKIN-RXN;GSADENYLATION-RXN;RXN-12720;SULFATE-ADENYLYLTRANS-RXN
ASD49_33790	Unknown	DIHYDROXYISOVALDEHYDRAT-RXN;DIHYDROXYMETVALDEHYDRAT-RXN
ASD49_06810	Unknown	RXN-8529
ASD49_00555	Unknown	RXN-15740;RXN-15745;RXN0-5260
ASD49_03295	Unknown	2.7.7.8-RXN
ASD49_15130	gatA	6.3.5.7-RXN
ASD49_12700	Unknown	GLUTATHIONE-SYN-RXN
ASD49_24875	Unknown	3.4.11.1-RXN
ASD49_24760	Unknown	ORNITHINE-CYCLODEAMINASE-RXN
ASD49_10440	Unknown	ALARACECAT-RXN
ASD49_20200	pcm	2.1.1.77-RXN
ASD49_27215	Unknown	2.7.7.33-RXN
ASD49_14275	Unknown	GALACTODEHYDROG-RXN
ASD49_01790	Unknown	RXN0-5100
ASD49_14890	Unknown	1.6.99.5-RXN;NADH-DEHYDROGENASE-QUINONE-RXN
ASD49_26725	Unknown	FORMATETHFLIG-RXN
ASD49_28140	Unknown	AMIDASE-RXN;GUANIDINOBUTANAMIDE-NH3-RXN;PYRAZIN-RXN;R311-RXN;RXN-14727;RXN-14728;RXN-17608;RXNN-404
ASD49_19510	Unknown	IMP-DEHYDROG-RXN
ASD49_09390	Unknown	RXN-14971;RXN-15378;SUCCINATE-DEHYDROGENASE-UBIQUINONE-RXN
ASD49_07055	Unknown	DTDPGLUCOSEPP-RXN
ASD49_23980	Unknown	TRANS-RXN-298
ASD49_32895	Unknown	GLUCISOM-RXN;XYLISOM-RXN
ASD49_05230	Unknown	BTUR2-RXN;COBALADENOSYLTRANS-RXN;R344-RXN
ASD49_21730	Unknown	ACETYL-COA-ACETYLTRANSFER-RXN;METHYLACETOACETYLCOATHIOL-RXN;RXN-12561
ASD49_09085	rocD	ORNITHINE--OXO-ACID-AMINOTRANSFERASE-RXN;ORNITHINE-GLU-AMINOTRANSFERASE-RXN
ASD49_19670	Unknown	CTPSYN-RXN;GLUTAMIN-RXN;RXN-14325
ASD49_17195	Unknown	RXN0-2661
ASD49_09020	Unknown	5-AMINOLEVULINIC-ACID-SYNTHASE-RXN
ASD49_27815	Unknown	FMNREDUCT-RXN;NADPH-DEHYDROGENASE-FLAVIN-RXN;RXN-12444
ASD49_10125	Unknown	HISTAMINOTRANS-RXN
ASD49_09745	Unknown	2-OCTAPRENYL-6-METHOXYPHENOL-HYDROX-RXN
ASD49_24230	Unknown	GLYOXIII-RXN
ASD49_23905	Unknown	3.1.2.23-RXN
ASD49_05600	Unknown	TYROSINE--TRNA-LIGASE-RXN
ASD49_33135	Unknown	POLYPHOSPHATE-KINASE-RXN
ASD49_10595	Unknown	PYRIDOXAL-4-DEHYDROGENASE-RXN
ASD49_11275	Unknown	RXN-2463
ASD49_03590	Unknown	2.3.2.13-RXN;RXN-19236
ASD49_23100	Unknown	3.4.11.4-RXN
ASD49_14535	Unknown	ARGINYLTRANSFERASE-RXN;RXN-17888;RXN-17889;RXN-17890;RXN-17891
ASD49_01650	Unknown	4.3.1.17-RXN;RXN-15125
ASD49_09910	Unknown	ACONITATEDEHYDR-RXN;ACONITATEHYDR-RXN;RXN-14047
ASD49_00050	Unknown	2-OCTAPRENYL-6-OHPHENOL-METHY-RXN;DHHB-METHYLTRANSFER-RXN
ASD49_22130	Unknown	CREATININASE-RXN
ASD49_10500	Unknown	RXN-10642;UROGENDECARBOX-RXN
ASD49_03330	Unknown	2.3.1.41-RXN;3-OXOACYL-ACP-SYNTH-BASE-RXN;3-OXOACYL-ACP-SYNTH-RXN;RXN-10059;RXN-10654;RXN-10658;RXN-11474;RXN-11479;RXN-16615;RXN-16621;RXN-16625;RXN-16629;RXN-9516;RXN-9523;RXN-9527;RXN-9531;RXN-9535;RXN-9539;RXN-9632;RXN-9648;RXN-9650;RXN-9651;RXN-9652;RXN-9653;RXN-9654;RXN0-2141;RXN1G-368;RXN1G-445;RXN1G-460;RXN1G-499;RXN3O-1803
ASD49_22420	gltD	GLUTAMATESYN-RXN;GLUTAMIN-RXN;GLUTDEHYD-RXN
ASD49_29985	Unknown	DIHYDRODIPICSYN-RXN
ASD49_26625	Unknown	RXN0-7010
ASD49_31335	Unknown	2.7.13.3-RXN
ASD49_31735	Unknown	FMNREDUCT-RXN;NADPH-DEHYDROGENASE-FLAVIN-RXN;RXN-12444
ASD49_22850	Unknown	2-OCTAPRENYL-6-OHPHENOL-METHY-RXN;DHHB-METHYLTRANSFER-RXN
ASD49_08940	Unknown	3.1.1.64-RXN;CARBOXYLESTERASE-RXN;RETINYL-PALMITATE-ESTERASE-RXN;RXN-10711;RXN-10767;RXN-12252;RXN-12575;RXNQT-4366
ASD49_07435	Unknown	RXN0-5268
ASD49_25575	Unknown	R342-RXN
ASD49_07350	Unknown	R465-RXN
ASD49_04505	Unknown	SUCCDIAMINOPIMDESUCC-RXN
ASD49_05570	Unknown	RXN0-1281
ASD49_26575	Unknown	POLYNUCLEOTIDE-ADENYLYLTRANSFERASE-RXN
ASD49_14150	Unknown	RXN0-4261
ASD49_09975	Unknown	RXN-11586
ASD49_33165	Unknown	4-CARBOXYMUCONOLACTONE-DECARBOXYLASE-RXN
ASD49_25620	Unknown	ACETYL-COA-CARBOXYLTRANSFER-RXN;RXN0-5055
ASD49_27490	Unknown	DIHYDROPYRIMIDINASE-RXN;RXN-11211;RXN-11217
ASD49_22555	Unknown	GLYOXIII-RXN
ASD49_21955	Unknown	GLUCISOM-RXN;XYLISOM-RXN
ASD49_19745	Unknown	1.2.4.4-RXN;2.3.1.168-RXN;KETOISOCAPROATE-RXN;METHYLVALERATE-RXN;RXN-7790
ASD49_25060	Unknown	PRODISULFREDUCT-RXN;RXN0-7271
ASD49_32930	Unknown	RXN-17956;RXN0-6734
ASD49_15695	Unknown	UDPNACETYLGLUCOSAMENOLPYRTRANS-RXN
ASD49_18110	Unknown	EXOPOLYPHOSPHATASE-RXN
ASD49_02085	Unknown	GSHTRAN-RXN;GST-RXN;RXN-11663;RXN-13673;RXN-15680;RXN-18405;RXN-18407;RXNQT-4363
ASD49_06235	Unknown	ISOCITDEH-RXN;RXN-8642;RXN-9951
ASD49_12215	Unknown	GSHTRAN-RXN;GST-RXN;RXN-11663;RXN-13673;RXN-15680;RXN-18405;RXN-18407;RXNQT-4363
ASD49_23190	Unknown	ADDALT-RXN;ADENODEAMIN-RXN
ASD49_23145	Unknown	PROTEIN-KINASE-RXN
ASD49_24255	Unknown	RXN-8668
ASD49_09355	Unknown	RXN0-1147
ASD49_09715	Unknown	ALDOSE1EPIM-RXN
ASD49_33535	Unknown	CHD-RXN;RXN0-7230
ASD49_02990	Unknown	DNA-DIRECTED-DNA-POLYMERASE-RXN
ASD49_09360	sucA	2-KETO-ADIPATE-DEHYDROG-RXN;2OXOGLUTARATEDEH-RXN;2OXOGLUTDECARB-RXN;RXN-7716;RXN0-1147
ASD49_21890	lysS	LYSINE--TRNA-LIGASE-RXN
ASD49_08695	Unknown	RXN0-305
ASD49_20815	Unknown	ADPREDUCT-RXN;CDPREDUCT-RXN;GDPREDUCT-RXN;RIBONUCLEOSIDE-DIP-REDUCTI-RXN;RIBONUCLEOSIDE-DIP-REDUCTII-RXN;RXN0-722;RXN0-747;RXN0-748;UDPREDUCT-RXN
ASD49_06940	Unknown	3-CH3-2-OXOBUTANOATE-OH-CH3-XFER-RXN;RXN-15635
ASD49_27830	Unknown	3-OXOADIPATE-ENOL-LACTONASE-RXN
ASD49_32060	Unknown	RXN-982
ASD49_21415	Unknown	NITRILE-HYDRATASE-RXN;R310-RXN;R313-RXN;RXN-14725;RXN-14726;RXN-17609;RXN-7567
ASD49_20695	Unknown	ALANINE-DEHYDROGENASE-RXN
ASD49_00720	Unknown	LYSOPHOSPHOLIPASE-RXN;RXN-15035;RXN-19312
ASD49_07520	Unknown	DIHYDROXYISOVALDEHYDRAT-RXN;DIHYDROXYMETVALDEHYDRAT-RXN
ASD49_16390	Unknown	ACYLCOASYN-RXN;LINOLENOYL-RXN;R223-RXN;RXN-12184;RXN-12978;RXN-13290;RXN-13614;RXN-16380;RXN-16389;RXN-16393;RXN-16401;RXN-16402;RXN-16415;RXN-16418;RXN-7904;RXN-9623;RXN-9644;RXN-9673;RXN0-7238;RXN0-7239;RXN0-7248;RXN66-469;RXN66-477;RXN66-480;RXN66-483;RXN66-484;TRANS-RXN0-623
ASD49_23850	Unknown	3-HYDROXY-KYNURENINASE-RXN;KYNURENINASE-RXN
ASD49_23620	Unknown	1TRANSKETO-RXN;2TRANSKETO-RXN
ASD49_26880	Unknown	GLYCEROL-KIN-RXN
ASD49_13870	Unknown	3.1.26.3-RXN
ASD49_13980	Unknown	QUINOLINATE-SYNTHA-RXN
ASD49_03120	Unknown	3.4.21.92-RXN
ASD49_08930	Unknown	ADENYLATECYC-RXN
ASD49_09380	Unknown	ATPASE-RXN
ASD49_01335	Unknown	NITRILE-HYDRATASE-RXN;R310-RXN;R313-RXN;RXN-14725;RXN-14726;RXN-17609;RXN-7567
ASD49_09465	Unknown	GLUTAMIN-RXN;GMP-SYN-GLUT-RXN;GMP-SYN-NH3-RXN
ASD49_05855	Unknown	PMPOXI-RXN;PNPOXI-RXN
ASD49_19055	Unknown	NANE-RXN
ASD49_33820	Unknown	ADOMET-DMK-METHYLTRANSFER-RXN
ASD49_26445	Unknown	3.4.13.9-RXN
ASD49_15095	pyrB	ASPCARBTRANS-RXN
ASD49_29910	Unknown	MYO-INOSOSE-2-DEHYDRATASE-RXN
ASD49_18280	Unknown	1.2.1.27-RXN;RXN-11213;RXN-2902
ASD49_15070	Unknown	RXN0-7023
ASD49_05985	Unknown	RXN-8771
ASD49_14375	Unknown	GSHTRAN-RXN;GST-RXN;RXN-11663;RXN-13673;RXN-15680;RXN-18405;RXN-18407;RXNQT-4363
ASD49_02015	Unknown	ADENYLATECYC-RXN
ASD49_22070	Unknown	GLYOXIII-RXN
ASD49_14470	Unknown	3.1.13.5-RXN;RXN0-6483;RXN0-6484
ASD49_34355	Unknown	ATPASE-RXN
ASD49_22390	Unknown	LYSOPHOSPHOLIPASE-RXN;RXN-15035;RXN-19312
ASD49_22220	Unknown	ATPASE-RXN;NUCLEOSIDE-TRIPHOSPHATASE-RXN;RXN-12195;RXN-12196;RXN0-5462
ASD49_26260	Unknown	3-NUCLEOTID-RXN;5-NUCLEOTID-RXN;AMP-DEPHOSPHORYLATION-RXN;CYCPHOSDIESTER-RXN;RXN-14025;RXN-14026;RXN-14064;RXN-14090;RXN-14091;RXN-14112;RXN-14113;RXN-14115;RXN-14124;RXN-14126;RXN-14227;RXN-5841;RXN-7607;RXN-7609;XMPXAN-RXN
ASD49_13580	Unknown	3-OXOADIPATE-COA-TRANSFERASE-RXN;RXN-10085
ASD49_25835	Unknown	PGLYCDEHYDROG-RXN
ASD49_20740	Unknown	2.1.1.79-RXN;RXN-7421;RXN1G-2544;RXN1G-3641
ASD49_27030	Unknown	2.3.2.13-RXN;RXN-19236
ASD49_15180	Unknown	LEUCYLTRANSFERASE-RXN;RXN-17846;RXN-17847;RXN-17848
ASD49_00890	Unknown	DALADALALIG-RXN
ASD49_19490	Unknown	2.3.2.13-RXN;RXN-19236
ASD49_19570	Unknown	FMNREDUCT-RXN;NADPH-DEHYDROGENASE-FLAVIN-RXN;RXN-12444
ASD49_10085	Unknown	ACETYL-COA-ACETYLTRANSFER-RXN;METHYLACETOACETYLCOATHIOL-RXN;RXN-12561
ASD49_13895	Unknown	2.1.1.79-RXN;RXN-7421;RXN1G-2544;RXN1G-3641
ASD49_05455	Unknown	3.2.1.25-RXN
ASD49_08595	Unknown	DIHYDROPYRIMIDINASE-RXN;RXN-11211;RXN-11217
ASD49_04015	Unknown	ACSERLY-RXN;RXN-12726
ASD49_13140	Unknown	3-HYDROXYISOBUTYRATE-DEHYDROGENASE-RXN
ASD49_17080	Unknown	RXN-12720;SULFATE-ADENYLYLTRANS-RXN
ASD49_04190	Unknown	ENOYL-COA-HYDRAT-RXN;METHYLACYLYLCOA-HYDROXY-RXN;RXN-10697;RXN-10704;RXN-10705;RXN-11244;RXN-12567;RXN-13616;RXN-14266;RXN-14272;RXN-14273;RXN-16135;RXN-16558;RXN-17114;RXN-17475;RXN-17776;RXN-17780;RXN-17785;RXN-17789;RXN-17793;RXN-17797;RXN-2425;RXN0-5393;TIGLYLCOA-HYDROXY-RXN
ASD49_11865	Unknown	ADENYLATECYC-RXN
ASD49_07345	Unknown	CYTDEAM-RXN;RXN-14129;RXN-14197
ASD49_13860	Unknown	HOLO-ACP-SYNTH-RXN
ASD49_17450	Unknown	ACETYL-COA-ACETYLTRANSFER-RXN;METHYLACETOACETYLCOATHIOL-RXN;RXN-12561
ASD49_21755	Unknown	D-AMINO-ACID-OXIDASE-RXN;RXN-8163
ASD49_20895	Unknown	THIOREDOXIN-REDUCT-NADPH-RXN
ASD49_22710	Unknown	DIHYDROOROT-RXN
ASD49_22250	Unknown	GLUC1PADENYLTRANS-RXN
ASD49_28360	Unknown	RXN0-4261
ASD49_11495	Unknown	ALLANTOICASE-RXN
ASD49_22300	Unknown	GLYOXIII-RXN
ASD49_17075	Unknown	RXN-12720;SULFATE-ADENYLYLTRANS-RXN
ASD49_20985	Unknown	RXN0-1342
ASD49_06355	Unknown	FGAMSYN-RXN
ASD49_20475	Unknown	2-OCTAPRENYL-6-METHOXYPHENOL-HYDROX-RXN
ASD49_04045	Unknown	DUTP-PYROP-RXN
ASD49_20745	Unknown	DEOXYRIBODIPYRIMIDINE-PHOTOLYASE-RXN;RXN-19025;RXN-19026;RXN-19242;RXN-19243;RXN-19244;RXN-19245;RXN-19246;RXN-19247;RXN-19248
ASD49_15285	tuf	RXN0-5462
ASD49_24585	Unknown	HISTIDINE-AMMONIA-LYASE-RXN
ASD49_12485	Unknown	PROTEIN-KINASE-RXN
ASD49_01495	Unknown	UREASE-RXN
ASD49_20975	Unknown	PEPTIDYLPROLYL-ISOMERASE-RXN
ASD49_13570	Unknown	KETOACYLCOATHIOL-RXN;RXN-10699;RXN-10700;RXN-10701;RXN-11246;RXN-12565;RXN-12710;RXN-13617;RXN-14268;RXN-14274;RXN-14277;RXN-14394;RXN-14774;RXN-14788;RXN-14793;RXN-14799;RXN-14803;RXN-16137;RXN-17116;RXN-17778;RXN-17782;RXN-17787;RXN-17791;RXN-17795;RXN-17799;RXN-3641
ASD49_20190	Unknown	RXN0-2161;SERINE--TRNA-LIGASE-RXN
ASD49_01430	Unknown	PDXJ-RXN
ASD49_21785	Unknown	R322-RXN
ASD49_26205	Unknown	ALKAPHOSPHA-RXN;RXN-5822;RXN-8748
ASD49_01180	Unknown	2-OCTAPRENYL-6-OHPHENOL-METHY-RXN;DHHB-METHYLTRANSFER-RXN
ASD49_11955	Unknown	ACETYLHOMOSER-CYS-RXN;O-ACETYLHOMOSERINE-THIOL-LYASE-RXN
ASD49_10360	Unknown	ASPARTATE-SEMIALDEHYDE-DEHYDROGENASE-RXN
ASD49_30450	Unknown	GABATRANSAM-RXN;RXN-2901
ASD49_22435	Unknown	GLUC1PURIDYLTRANS-RXN
ASD49_21015	Unknown	RXN0-5131
ASD49_12765	Unknown	AMIDASE-RXN;GUANIDINOBUTANAMIDE-NH3-RXN;PYRAZIN-RXN;R311-RXN;RXN-14727;RXN-14728;RXN-17608;RXNN-404
ASD49_01100	Unknown	ARYLSULFATE-SULFOTRANSFERASE-RXN
ASD49_17875	Unknown	RXN0-6515
ASD49_24750	Unknown	DIMETHYLARGININASE-RXN
ASD49_26910	Unknown	RXN-12587;RXN-12588;RXN-14382;RXN-14385;RXN-15881;RXN-9787;RXN0-308
ASD49_32090	Unknown	3-OXOACYL-ACP-REDUCT-RXN;RXN-10060;RXN-10655;RXN-10659;RXN-11476;RXN-11480;RXN-13008;RXN-16616;RXN-16622;RXN-16626;RXN-16630;RXN-9514;RXN-9518;RXN-9524;RXN-9528;RXN-9532;RXN-9536;RXN-9540;RXN-9552;RXN-9556;RXN-9633;RXN0-2142;RXN1G-157;RXN1G-349;RXN1G-469;RXN1G-508
ASD49_00445	Unknown	ALLANTOINASE-RXN
ASD49_05740	Unknown	2.7.13.3-RXN
ASD49_25080	Unknown	NUCLEOTIDE-PYROPHOSPHATASE-RXN
ASD49_01580	Unknown	3.4.13.21-RXN
ASD49_06510	Unknown	RXN-12587;RXN-12588;RXN-14382;RXN-14385;RXN-15881;RXN-9787;RXN0-308
ASD49_10715	Unknown	2.7.13.3-RXN
ASD49_33815	Unknown	3-OXOACYL-ACP-REDUCT-RXN;RXN-10060;RXN-10655;RXN-10659;RXN-11476;RXN-11480;RXN-13008;RXN-16616;RXN-16622;RXN-16626;RXN-16630;RXN-9514;RXN-9518;RXN-9524;RXN-9528;RXN-9532;RXN-9536;RXN-9540;RXN-9552;RXN-9556;RXN-9633;RXN0-2142;RXN1G-157;RXN1G-349;RXN1G-469;RXN1G-508
ASD49_17910	Unknown	2-HALOACID-DEHALOGENASE-RXN;3.8.1.11-RXN;RXN-6263;RXN-6264
ASD49_23970	pntB	PYRNUTRANSHYDROGEN-RXN;TRANS-RXN0-277
ASD49_17255	Unknown	THRESYN-RXN
ASD49_13880	Unknown	RXN-982
ASD49_22380	Unknown	N-FORMYLGLUTAMATE-DEFORMYLASE-RXN
ASD49_32970	Unknown	GSHTRAN-RXN;GST-RXN;RXN-11663;RXN-13673;RXN-15680;RXN-18405;RXN-18407;RXNQT-4363
ASD49_17385	Unknown	ENOYL-ACP-REDUCT-NADPH-RXN;RXN-9515;RXN-9521;RXN-9526;RXN-9530;RXN-9534;RXN-9538;RXN-9542;RXN3O-5293
ASD49_31495	Unknown	RXN1A0-6303
ASD49_06180	Unknown	RXN-17131;RXN-17132;RXN-17133
ASD49_10670	Unknown	RXN0-4261
ASD49_19190	Unknown	RXN-8643;TARTRATE-DEHYDROGENASE-RXN
ASD49_13395	Unknown	ACYLCOADEHYDROG-RXN;RXN-17775;RXN-17779;RXN-17783;RXN-17784;RXN-17788;RXN-17792;RXN-17796
ASD49_24185	Unknown	2-NITROPROPANE-DIOXYGENASE-RXN
ASD49_14920	Unknown	1.6.99.5-RXN;NADH-DEHYDROGENASE-QUINONE-RXN
ASD49_00255	Unknown	ISOCHORMAT-RXN
ASD49_28835	Unknown	CATAL-RXN;RXN-8667
ASD49_14270	Unknown	DNA-DIRECTED-DNA-POLYMERASE-RXN
ASD49_08900	Unknown	POLYPHOSPHATE-KINASE-RXN
ASD49_13885	Unknown	GLYCPDIESTER-RXN;RXN-14073;RXN-14136;RXN-14160
ASD49_02345	Unknown	1.11.1.15-RXN;RXN0-5468
ASD49_29385	Unknown	ADDALT-RXN;ADENODEAMIN-RXN
ASD49_13070	Unknown	2.7.13.3-RXN
ASD49_09240	cpsB	2.7.7.13-RXN
ASD49_28065	Unknown	GLYCEROL-KIN-RXN
ASD49_11980	Unknown	2-HALOACID-DEHALOGENASE-RXN
ASD49_29640	Unknown	R4-RXN
ASD49_01760	Unknown	ARYLSULFAT-RXN
ASD49_15075	Unknown	5.99.1.2-RXN
ASD49_15085	Unknown	RXN-10462;RXN-13805;RXN-1381;RXN-15045;RXN-16024;RXN-16117;RXN-17016;RXN-17017;RXN-17018
ASD49_19850	Unknown	DIMETHUROPORDEHYDROG-RXN;SIROHEME-FERROCHELAT-RXN;UROPORIIIMETHYLTRANSA-RXN
ASD49_21500	Unknown	1.6.99.5-RXN;NADH-DEHYDROGENASE-QUINONE-RXN
ASD49_24500	Unknown	ACETATEKIN-RXN
ASD49_17780	Unknown	DEHYDDEOXPHOSGALACT-ALDOL-RXN
ASD49_19715	Unknown	GLYOXI-RXN
ASD49_25530	Unknown	GLYOXII-RXN;RXN-7919
ASD49_02320	Unknown	GSHTRAN-RXN;GST-RXN;RXN-11663;RXN-13673;RXN-15680;RXN-18405;RXN-18407;RXNQT-4363
ASD49_20095	Unknown	2.1.1.77-RXN
ASD49_14720	Unknown	RXN-18399;RXN-18428;RXN-18430
ASD49_01260	Unknown	ACETOLACTSYN-RXN;ACETOOHBUTSYN-RXN
ASD49_26810	Unknown	ADDALT-RXN;ADENODEAMIN-RXN
ASD49_28325	Unknown	QOR-RXN
ASD49_19355	Unknown	ATPASE-RXN
ASD49_20050	Unknown	UDPHYDROXYMYRGLUCOSAMNACETYLTRANS-RXN
ASD49_07370	Unknown	RXN-9387;RXN-9781
ASD49_10415	Unknown	ACETATE--COA-LIGASE-RXN;RXN-18446;RXN-18447;RXN-18448
ASD49_17240	Unknown	2-HALOACID-DEHALOGENASE-RXN;3.8.1.11-RXN;RXN-6263;RXN-6264
ASD49_20020	pyrH	RXN-12002
ASD49_07410	Unknown	RXN0-7167
ASD49_07375	Unknown	FMNREDUCT-RXN;NADPH-DEHYDROGENASE-FLAVIN-RXN;RXN-12444
ASD49_19740	Unknown	RXN-12508;RXN-12583;RXN0-1134
ASD49_09805	Unknown	3-ISOPROPYLMALISOM-RXN;R-2-METHYLMALATE-DEHYDRATASE-RXN;RXN-13163;RXN-7744;RXN-8991
ASD49_10895	Unknown	ACYLCOASYN-RXN;LINOLENOYL-RXN;R223-RXN;RXN-12184;RXN-12978;RXN-13290;RXN-13614;RXN-16380;RXN-16389;RXN-16393;RXN-16401;RXN-16402;RXN-16415;RXN-16418;RXN-7904;RXN-9623;RXN-9644;RXN-9673;RXN0-7238;RXN0-7239;RXN0-7248;RXN66-469;RXN66-477;RXN66-480;RXN66-483;RXN66-484;TRANS-RXN0-623
ASD49_32555	Unknown	2.7.13.3-RXN
ASD49_11025	Unknown	ARYL-ALCOHOL-DEHYDROGENASE-RXN;BENZYL-ALC-DEHYDROGENASE-RXN;BENZYL-ALCOHOL-DEHYDROGENASE-RXN;RXN-16953;RXN-16954;RXN-8580;RXN-8581;RXN-9909
ASD49_16435	Unknown	GSADENYLATION-RXN
ASD49_22560	Unknown	ADENYLATECYC-RXN
ASD49_13830	Unknown	DIHYDRODIPICSYN-RXN
ASD49_04145	Unknown	DCMP-DEAMINASE-RXN
ASD49_20560	Unknown	L-GLN-FRUCT-6-P-AMINOTRANS-RXN
ASD49_10250	Unknown	3-OXOACYL-ACP-REDUCT-RXN
ASD49_05350	Unknown	CYTOCHROME-C-OXIDASE-RXN;RXN-15830
ASD49_10105	Unknown	GSHTRAN-RXN;GST-RXN;RXN-11663;RXN-13673;RXN-15680;RXN-18405;RXN-18407;RXNQT-4363
ASD49_20140	Unknown	DGTPTRIPHYDRO-RXN
ASD49_14880	Unknown	1.6.99.5-RXN;NADH-DEHYDROGENASE-QUINONE-RXN
ASD49_26935	Unknown	RXN-6201
ASD49_14650	Unknown	2.3.1.180-RXN
ASD49_26270	Unknown	RXN0-4261
ASD49_12800	Unknown	2.7.13.3-RXN
ASD49_30275	Unknown	R4-RXN
ASD49_06205	Unknown	RXN0-5398
ASD49_33490	Unknown	RXN-8529
ASD49_19750	Unknown	ARYLESTERASE-RXN
ASD49_27605	Unknown	GLYCERATE-DEHYDROGENASE-RXN;HYDROXYPYRUVATE-REDUCTASE-RXN
ASD49_03655	Unknown	GLYOXIII-RXN
ASD49_00265	Unknown	TRANS-RXN-298
ASD49_26140	Unknown	RXN-12610;RXN-12611;THI-P-SYN-RXN
ASD49_18290	Unknown	ADENYLATECYC-RXN
ASD49_19550	Unknown	THREONINE--TRNA-LIGASE-RXN
ASD49_05405	Unknown	CYTOCHROME-C-OXIDASE-RXN;RXN-15830
ASD49_14450	Unknown	GLYCPDIESTER-RXN;RXN-14073;RXN-14136;RXN-14160
ASD49_11420	Unknown	RXN0-5289;TSA-REDUCT-RXN
ASD49_32075	Unknown	RXN-982
ASD49_07895	Unknown	3-OXOACYL-ACP-REDUCT-RXN
ASD49_32080	Unknown	FMNREDUCT-RXN;NADPH-DEHYDROGENASE-FLAVIN-RXN;RXN-12444
ASD49_09485	Unknown	INORGPYROPHOSPHAT-RXN
ASD49_08255	Unknown	ADENYLATECYC-RXN
ASD49_05780	Unknown	ASPARTATE-SEMIALDEHYDE-DEHYDROGENASE-RXN
ASD49_02690	Unknown	ADENPHOSPHOR-RXN;DEOXYADENPHOSPHOR-RXN;DEOXYGUANPHOSPHOR-RXN;DEOXYINOPHOSPHOR-RXN;INOPHOSPHOR-RXN;PNP-RXN;RXN-11715;RXN-11743;RXN-14029;RXN-7001;RXN0-5199;XANTHOSINEPHOSPHORY-RXN
ASD49_26680	Unknown	RXN0-4022
ASD49_34360	Unknown	2-HALOACID-DEHALOGENASE-RXN;3.8.1.11-RXN;RXN-6263;RXN-6264
ASD49_01125	Unknown	GSHTRAN-RXN;GST-RXN;RXN-11663;RXN-13673;RXN-15680;RXN-18405;RXN-18407;RXNQT-4363
ASD49_26565	Unknown	ADENPRIBOSYLTRAN-RXN;RXN-14270
ASD49_31410	Unknown	CITLY-RXN;CITRYLY-RXN;CITTRANS-RXN
ASD49_22015	Unknown	ADENYLATECYC-RXN
ASD49_00820	Unknown	RXN-11638
ASD49_16135	Unknown	ACETYL-COA-ACETYLTRANSFER-RXN;METHYLACETOACETYLCOATHIOL-RXN;RXN-12561
ASD49_28920	Unknown	METHYLCROTONYL-COA-CARBOXYLASE-RXN
ASD49_20125	Unknown	3.1.11.2-RXN
ASD49_29365	Unknown	RXN-15122;THREDEHYD-RXN
ASD49_08915	Unknown	RXN-9387;RXN-9781
ASD49_02180	Unknown	CYTIDEAM-RXN;CYTIDEAM2-RXN
ASD49_24580	Unknown	IMIDAZOLONEPROPIONASE-RXN
ASD49_30295	Unknown	NQOR-RXN
ASD49_21330	Unknown	7KAPSYN-RXN;RXN-11484
ASD49_06530	Unknown	RXN-12587;RXN-12588;RXN-14382;RXN-14385;RXN-15881;RXN-9787;RXN0-308
ASD49_32860	Unknown	ADENYLATECYC-RXN
ASD49_16950	Unknown	DIHYDROFOLATEREDUCT-RXN;RXN-18357
ASD49_16440	Unknown	2.7.13.3-RXN
ASD49_14035	Unknown	RXN0-1441
ASD49_28665	Unknown	3.2.1.52-RXN;RXN-12625;RXN-12626;RXN-18082;RXN0-5226
ASD49_12590	Unknown	ALPHAGALACTOSID-RXN;MALTODEXGLUCOSID-RXN;RXN-11501;RXN-11502;RXN-12088;RXN-14281;RXN-14282;RXN-14283;RXN-15910;RXN-17754;RXN-17830;RXN0-5183
ASD49_19825	Unknown	D-ALANINE-AMINOTRANSFERASE-RXN
ASD49_33245	Unknown	2.7.13.3-RXN
ASD49_22055	Unknown	ORNDECARBOX-RXN
ASD49_32245	Unknown	3-HYDROXYISOBUTYRATE-DEHYDROGENASE-RXN
ASD49_16025	Unknown	CHORISMATEMUT-RXN
ASD49_09325	Unknown	1.8.1.4-RXN;2OXOGLUTARATEDEH-RXN;2OXOGLUTDECARB-RXN;RXN-7716;RXN-7719;RXN-8629;RXN0-1132;RXN0-1147
ASD49_04385	Unknown	TRYPTOPHAN--TRNA-LIGASE-RXN
ASD49_09015	Unknown	DXPREDISOM-RXN
ASD49_14240	Unknown	RXN-13179
ASD49_26780	Unknown	PMPOXI-RXN;PNPOXI-RXN
ASD49_23130	Unknown	1.2.1.32-RXN;BADH-RXN;RXN-8831;RXN-8837
ASD49_31560	Unknown	CYTOCHROME-C-OXIDASE-RXN;RXN-15830
ASD49_04555	Unknown	2-HALOACID-DEHALOGENASE-RXN;3.8.1.11-RXN;RXN-6263;RXN-6264
ASD49_23290	Unknown	MANNONDEHYDRAT-RXN
ASD49_09370	sucC	SUCCCOASYN-RXN
ASD49_16410	Unknown	DNA-DIRECTED-DNA-POLYMERASE-RXN;RXN0-4961
ASD49_12530	Unknown	25-DIOXOVALERATE-DEHYDROGENASE-RXN;RXN-8775
ASD49_10520	Unknown	DEPHOSPHOCOAKIN-RXN
ASD49_26885	Unknown	3-HYDROXYBUTYRATE-DEHYDROGENASE-RXN
ASD49_15900	Unknown	NICOTINATEPRIBOSYLTRANS-RXN
ASD49_33035	Unknown	3-HYDROXYISOBUTYRATE-DEHYDROGENASE-RXN
ASD49_26400	Unknown	PROTEIN-TYROSINE-PHOSPHATASE-RXN
ASD49_33015	Unknown	2.1.3.1-RXN
ASD49_00410	Unknown	ACYLCOADEHYDROG-RXN;RXN-17775;RXN-17779;RXN-17783;RXN-17784;RXN-17788;RXN-17792;RXN-17796
ASD49_30300	Unknown	RXN0-5131
ASD49_23455	Unknown	3.1.3.16-RXN
ASD49_20245	Unknown	TRNA-URACIL-5--METHYLTRANSFERASE-RXN
ASD49_26660	Unknown	2-ISOPROPYLMALATESYN-RXN
ASD49_03060	Unknown	3.5.1.80-RXN;NAG6PDEACET-RXN
ASD49_21670	Unknown	UDPGLUCEPIM-RXN
ASD49_09445	Unknown	UROGENIIISYN-RXN
ASD49_23460	Unknown	MYO-INOSITOL-1OR-4-MONOPHOSPHATASE-RXN;RXN-7253;RXN0-5408
ASD49_10000	Unknown	ARGSUCCINSYN-RXN;RXN-10
ASD49_14210	Unknown	RXN-17155
ASD49_24655	Unknown	GLYOXIII-RXN
ASD49_06700	Unknown	RXN-12720;SULFATE-ADENYLYLTRANS-RXN
ASD49_27565	Unknown	1.11.1.15-RXN;RXN0-5468
ASD49_06690	Unknown	325-BISPHOSPHATE-NUCLEOTIDASE-RXN
ASD49_14925	Unknown	1.6.99.5-RXN;NADH-DEHYDROGENASE-QUINONE-RXN
ASD49_01445	Unknown	GLYOXI-RXN
ASD49_10135	ispG	RXN0-882
ASD49_15480	Unknown	RXN0-5306
ASD49_13665	Unknown	4-HYDROXYBENZOATE-3-MONOOXYGENASE-RXN
ASD49_20710	sseA	MERCAPYSTRANS-RXN;RXN-18702;RXN-18703;RXN0-6945
ASD49_00465	Unknown	UROCANATE-HYDRATASE-RXN
ASD49_12540	Unknown	DIHYDRODIPICSYN-RXN
ASD49_19860	Unknown	NADPH-DEHYDROGENASE-FLAVIN-RXN
ASD49_01485	Unknown	ISOCHORMAT-RXN
ASD49_25920	Unknown	3.1.2.23-RXN
ASD49_29195	Unknown	ARGDECARBOX-RXN
ASD49_09505	Unknown	ALKAPHOSPHA-RXN;RXN-5822;RXN-8748
ASD49_26860	Unknown	3.4.11.18-RXN;RXN-17873;RXN-17874;RXN-17875;RXN-17876;RXN-17877;RXN-17878
ASD49_12595	Unknown	ATPASE-RXN
ASD49_16040	Unknown	2.7.13.3-RXN
ASD49_00590	Unknown	RIB5PISOM-RXN
ASD49_19025	Unknown	5.99.1.2-RXN
ASD49_26455	Unknown	PRPPSYN-RXN
ASD49_14100	Unknown	PHOSPHASERDECARB-RXN
ASD49_20980	Unknown	PEPTIDYLPROLYL-ISOMERASE-RXN
ASD49_33290	Unknown	CATAL-RXN;RXN-14189;RXN66-1
ASD49_21465	Unknown	1.6.99.5-RXN;NADH-DEHYDROGENASE-QUINONE-RXN
ASD49_22690	Unknown	ASPARTATE-RACEMASE-RXN
ASD49_14360	Unknown	RXN0-2621
ASD49_14380	Unknown	3.1.27.1-RXN
ASD49_10380	Unknown	GLUTAMATE-DEHYDROGENASE-RXN
ASD49_12025	Unknown	SPERMIDINESYN-RXN
ASD49_09775	Unknown	3.1.11.2-RXN
ASD49_28720	Unknown	RXN0-6575
ASD49_31085	Unknown	SUCCINATE-SEMIALDEHYDE-DEHYDROGENASE-RXN
ASD49_05945	Unknown	NAD-SYNTH-GLN-RXN;NAD-SYNTH-NH3-RXN
ASD49_19160	Unknown	UDPGLUCEPIM-RXN
ASD49_31740	Unknown	GLYOXIII-RXN
ASD49_08185	Unknown	R4-RXN
ASD49_01255	Unknown	ACETOLACTSYN-RXN;ACETOOHBUTSYN-RXN
ASD49_01910	Unknown	GUANYLCYC-RXN
ASD49_19995	Unknown	GLYCPDIESTER-RXN;RXN-14073;RXN-14136;RXN-14160
ASD49_16690	Unknown	GSHTRAN-RXN;GST-RXN;RXN-11663;RXN-13673;RXN-15680;RXN-18405;RXN-18407;RXNQT-4363
ASD49_18270	Unknown	RXN0-3221
ASD49_24505	Unknown	PHOSACETYLTRANS-RXN
ASD49_17290	Unknown	3.1.26.4-RXN
ASD49_19760	Unknown	1.8.1.4-RXN;2OXOGLUTARATEDEH-RXN;2OXOGLUTDECARB-RXN;RXN-7716;RXN-7719;RXN-8629;RXN0-1132;RXN0-1147
ASD49_22180	Unknown	NAD-SYNTH-GLN-RXN;NAD-SYNTH-NH3-RXN
ASD49_10570	gabD	RXN0-5293;SUCCINATE-SEMIALDEHYDE-DEHYDROGENASE-RXN
ASD49_00975	Unknown	3.4.11.1-RXN
ASD49_08950	Unknown	HOMOCYSMET-RXN;HOMOCYSMETB12-RXN
ASD49_23135	Unknown	5.3.3.10-RXN
ASD49_04695	Unknown	PROLINE-RACEMASE-RXN
ASD49_03785	Unknown	PROTEIN-TYROSINE-PHOSPHATASE-RXN
ASD49_02995	Unknown	FORMYLTHFDEFORMYL-RXN
ASD49_24345	Unknown	CYTDEAM-RXN;RXN-14129;RXN-14197
ASD49_30405	Unknown	PROTEIN-TYROSINE-PHOSPHATASE-RXN
ASD49_04255	Unknown	RXN0-6481;RXN0-6482;TRNA-NUCLEOTIDYLTRANSFERASE-RXN
ASD49_29180	Unknown	D-ALANINE-AMINOTRANSFERASE-RXN
ASD49_11875	Unknown	ADENYLATECYC-RXN
ASD49_21740	Unknown	1.2.4.4-RXN;2.3.1.168-RXN;KETOISOCAPROATE-RXN;METHYLVALERATE-RXN;RXN-7790
ASD49_10020	Unknown	THIAMIN-PYROPHOSPHOKINASE-RXN
ASD49_30180	Unknown	RXN0-304
ASD49_21705	Unknown	HOMOGENTISATE-12-DIOXYGENASE-RXN
ASD49_23900	Unknown	ACYLCOADEHYDROG-RXN;RXN-17775;RXN-17779;RXN-17783;RXN-17784;RXN-17788;RXN-17792;RXN-17796
ASD49_25520	Unknown	HISTAMINOTRANS-RXN
ASD49_29120	Unknown	GLUTAMINESYN-RXN
ASD49_21745	Unknown	1.2.1.25-RXN;1.2.4.4-RXN;2.3.1.168-RXN;2KETO-3METHYLVALERATE-RXN;2KETO-4METHYL-PENTANOATE-DEHYDROG-RXN;ISOVALERYLCOA-DHLIPOAMIDE-RXN;KETOISOCAPROATE-RXN;MBCOA-DHLIPOAMIDE-RXN;METHYLVALERATE-RXN;RXN-7719
ASD49_32280	Unknown	RIBULOKIN-RXN;RXN0-5116
ASD49_25740	Unknown	RXN0-2023
ASD49_33030	Unknown	3-HYDROXYISOBUTYRYL-COA-HYDROLASE-RXN;RXN-13721;RXN-6384
ASD49_34005	Unknown	5.5.1.2-RXN
ASD49_29890	Unknown	3-OXOACYL-ACP-REDUCT-RXN
ASD49_13910	Unknown	UGD-RXN
ASD49_28110	Unknown	HISTALDEHYD-RXN;HISTOLDEHYD-RXN;RXN-8001
ASD49_05870	fumC	FUMHYDR-RXN
ASD49_10660	Unknown	DIHYDROFOLATESYNTH-RXN;FOLYLPOLYGLUTAMATESYNTH-RXN;FORMYLTHFGLUSYNTH-RXN;RXN-6341;RXN0-2921
ASD49_17685	Unknown	2.7.1.148-RXN
ASD49_20285	Unknown	DNA-DIRECTED-DNA-POLYMERASE-RXN
ASD49_14070	Unknown	3.4.11.5-RXN
ASD49_14730	Unknown	AGMATIN-RXN
ASD49_11315	Unknown	ADOMET-DMK-METHYLTRANSFER-RXN
ASD49_15235	Unknown	NAD-KIN-RXN
ASD49_17950	hisZ	ATPPHOSPHORIBOSYLTRANS-RXN
ASD49_29610	Unknown	RXN0-4261
ASD49_01915	Unknown	GUANYLCYC-RXN
ASD49_13305	Unknown	ATPASE-RXN
ASD49_20055	Unknown	3-HYDROXYDECANOYL-ACP-DEHYDR-RXN
ASD49_02695	Unknown	THYM-PHOSPH-RXN
ASD49_30120	Unknown	3-OXOACYL-ACP-REDUCT-RXN;RXN-10060;RXN-10655;RXN-10659;RXN-11476;RXN-11480;RXN-13008;RXN-16616;RXN-16622;RXN-16626;RXN-16630;RXN-9514;RXN-9518;RXN-9524;RXN-9528;RXN-9532;RXN-9536;RXN-9540;RXN-9552;RXN-9556;RXN-9633;RXN0-2142;RXN1G-157;RXN1G-349;RXN1G-469;RXN1G-508
ASD49_26415	Unknown	PYRROLINECARBREDUCT-RXN;RXN66-546
ASD49_28935	Unknown	RXN-2043
ASD49_21050	Unknown	DNA-DIRECTED-DNA-POLYMERASE-RXN
ASD49_26005	Unknown	5-FORMYL-THF-CYCLO-LIGASE-RXN
ASD49_13125	Unknown	RXN0-4961
ASD49_03045	Unknown	N-ACETYLGLUCOSAMINE-KINASE-RXN
ASD49_04760	Unknown	OROPRIBTRANS-RXN
ASD49_06485	Unknown	TYROSINE--TRNA-LIGASE-RXN
ASD49_20155	Unknown	3.2.1.52-RXN;RXN-12625;RXN-12626;RXN-18082;RXN0-5226
ASD49_03555	Unknown	R4-RXN
ASD49_22165	Unknown	CYTOCHROME-C-OXIDASE-RXN;RXN-15830
ASD49_32545	Unknown	2-HALOACID-DEHALOGENASE-RXN
ASD49_05895	Unknown	GLUTATHIONE-REDUCT-NADPH-RXN
ASD49_12630	Unknown	RXN-12610;RXN-12611;THI-P-SYN-RXN
ASD49_02110	Unknown	RXN1A0-6303
ASD49_18760	Unknown	2.6.1.37-RXN
ASD49_32805	Unknown	1.1.1.178-RXN
ASD49_10170	Unknown	PYRUVATE-CARBOXYLASE-RXN
ASD49_19520	Unknown	HISTCYCLOHYD-RXN
ASD49_21440	Unknown	RXN0-5131
ASD49_12145	Unknown	AMIDASE-RXN;GUANIDINOBUTANAMIDE-NH3-RXN;PYRAZIN-RXN;R311-RXN;RXN-14727;RXN-14728;RXN-17608;RXNN-404
ASD49_06835	Unknown	GLYOXI-RXN
ASD49_09440	Unknown	OHMETHYLBILANESYN-RXN
ASD49_33235	Unknown	DNA-DIRECTED-DNA-POLYMERASE-RXN;RXN0-4961
ASD49_09960	Unknown	RXN-13908;RXN-7908
ASD49_03950	Unknown	OROTPDECARB-RXN
ASD49_14795	Unknown	GLYOXI-RXN
ASD49_33000	Unknown	METHYLMALONYL-COA-MUT-RXN
ASD49_05215	Unknown	2.7.1.156-RXN;COBINAMIDEKIN-RXN;RXN-14063
ASD49_24490	gabD	RXN0-5293;SUCCINATE-SEMIALDEHYDE-DEHYDROGENASE-RXN
ASD49_26130	Unknown	MYO-INOSITOL-1OR-4-MONOPHOSPHATASE-RXN;RXN-7253;RXN0-5408
ASD49_17775	Unknown	DEHYDDEOXGALACTKIN-RXN
ASD49_33765	araG	3.6.3.17-RXN;TRANS-RXN-320
ASD49_10340	Unknown	3-ISOPROPYLMALDEHYDROG-RXN;RXN-13158;RXN-14986;RXN-18200;RXN-18202;RXN-18204;RXN-18206;RXN-18208;RXN-18210;RXNQT-4165;RXNQT-4168;RXNQT-4171;RXNQT-4174;RXNQT-4178
ASD49_12285	benD	1.3.1.25-RXN
ASD49_27835	Unknown	4-CARBOXYMUCONOLACTONE-DECARBOXYLASE-RXN
ASD49_21535	Unknown	AMIDASE-RXN;GUANIDINOBUTANAMIDE-NH3-RXN;PYRAZIN-RXN;R311-RXN;RXN-14727;RXN-14728;RXN-17608;RXNN-404
ASD49_14780	Unknown	ACETYLHOMOSER-CYS-RXN;O-ACETYLHOMOSERINE-THIOL-LYASE-RXN
ASD49_17165	Unknown	PYRUVATEORTHOPHOSPHATE-DIKINASE-RXN
ASD49_04370	Unknown	URITRANS-RXN
ASD49_14405	Unknown	RXN0-1441
ASD49_21210	Unknown	ACETYLORNDEACET-RXN;RXN-7933
ASD49_18020	Unknown	NUCLEOTIDE-PYROPHOSPHATASE-RXN
ASD49_10655	Unknown	ACETYL-COA-CARBOXYLTRANSFER-RXN;RXN0-5055
ASD49_22340	Unknown	DIHYDROXYISOVALDEHYDRAT-RXN;DIHYDROXYMETVALDEHYDRAT-RXN
ASD49_13260	Unknown	PYRIMSYN1-RXN
ASD49_14445	Unknown	EXOPOLYPHOSPHATASE-RXN
ASD49_07845	Unknown	RXN-2364
ASD49_16730	Unknown	RXN0-6373
ASD49_10445	Unknown	LEUCINE--TRNA-LIGASE-RXN
ASD49_07545	Unknown	3-OCTAPRENYL-4-OHBENZOATE-DECARBOX-RXN
ASD49_18065	Unknown	CARBOXYMETHYLENEBUTENOLIDASE-RXN;DIENELACHYDRO-RXN;RXN-9857;RXN-9868;RXN-9887;RXN-9890
ASD49_19660	Unknown	TRIOSEPISOMERIZATION-RXN
ASD49_04755	Unknown	DIHYDROOROT-RXN
ASD49_08505	Unknown	ACYLCOADEHYDROG-RXN;RXN-17775;RXN-17779;RXN-17783;RXN-17784;RXN-17788;RXN-17792;RXN-17796
ASD49_10690	Unknown	ALKAPHOSPHA-RXN;RXN-5822;RXN-8748
ASD49_09955	Unknown	PROTEIN-TYROSINE-PHOSPHATASE-RXN
ASD49_19345	Unknown	HYDROXY-MANDELATE-RACEMASE-RXN;MANDELATE-RACEMASE-RXN
ASD49_20845	Unknown	5.99.1.3-RXN
ASD49_25500	Unknown	RXN-9591
ASD49_28315	Unknown	GSHTRAN-RXN;GST-RXN;RXN-11663;RXN-13673;RXN-15680;RXN-18405;RXN-18407;RXNQT-4363
ASD49_16090	Unknown	R4-RXN
ASD49_26460	Unknown	RXN1A0-6303
ASD49_13765	Unknown	AMP-NUCLEOSID-RXN
ASD49_00160	Unknown	ATPASE-RXN
ASD49_23015	Unknown	ADENYLATECYC-RXN
ASD49_20110	Unknown	VALINE--TRNA-LIGASE-RXN
ASD49_25460	Unknown	DIAMINOPIMDECARB-RXN
ASD49_30870	Unknown	RXN0-5131
ASD49_09680	Unknown	GLYOXIII-RXN
ASD49_04540	Unknown	TETHYDPICSUCC-RXN
ASD49_06120	Unknown	3.6.4.4-RXN
ASD49_21855	Unknown	2.7.13.3-RXN
ASD49_04670	Unknown	RXN1A0-6303
ASD49_09005	Unknown	GLYOXIII-RXN
ASD49_26930	Unknown	UREIDOGLYCOLATE-HYDROLASE-RXN
ASD49_19195	Unknown	GLYCERATE-DEHYDROGENASE-RXN;HYDROXYPYRUVATE-REDUCTASE-RXN;RXN0-300
ASD49_14440	Unknown	POLYPHOSPHATE-KINASE-RXN
ASD49_04160	Unknown	3-OXOACYL-ACP-REDUCT-RXN;RXN-10060;RXN-10655;RXN-10659;RXN-11476;RXN-11480;RXN-13008;RXN-16616;RXN-16622;RXN-16626;RXN-16630;RXN-9514;RXN-9518;RXN-9524;RXN-9528;RXN-9532;RXN-9536;RXN-9540;RXN-9552;RXN-9556;RXN-9633;RXN0-2142;RXN1G-157;RXN1G-349;RXN1G-469;RXN1G-508
ASD49_33560	Unknown	ARGINASE-RXN;RXN-34
ASD49_00630	Unknown	N-FORMYLGLUTAMATE-DEFORMYLASE-RXN
ASD49_01640	Unknown	ACETOLACTREDUCTOISOM-RXN;ACETOOHBUTREDUCTOISOM-RXN
ASD49_11090	Unknown	4-CARBOXYMUCONOLACTONE-DECARBOXYLASE-RXN
ASD49_15090	Unknown	DIHYDROOROT-RXN
ASD49_15575	Unknown	RXN-9983
ASD49_09220	Unknown	KANAMYCIN-KINASE-RXN
ASD49_27045	Unknown	DIHYDROXYISOVALDEHYDRAT-RXN;DIHYDROXYMETVALDEHYDRAT-RXN
ASD49_34440	Unknown	2.1.1.79-RXN;RXN-7421;RXN1G-2544;RXN1G-3641
ASD49_31365	Unknown	RXN1A0-6303
ASD49_00235	Unknown	DIMETHYLGLYCINE-DEHYDROGENASE-RXN
ASD49_10780	Unknown	IMIDPHOSDEHYD-RXN
ASD49_21235	Unknown	ARGINASE-RXN;RXN-34
ASD49_16830	Unknown	2-HALOACID-DEHALOGENASE-RXN
ASD49_11710	Unknown	IMP-DEHYDROG-RXN
ASD49_14835	Unknown	ALKAPHOSPHA-RXN;RXN-5822;RXN-8748
ASD49_33205	tauB	3.6.3.36-RXN;ABC-64-RXN
ASD49_28490	Unknown	ALKANE-1-MONOOXYGENASE-RXN
ASD49_26190	Unknown	PEPDEPHOS-RXN;RXN-14117;RXN-14192;RXN-14207
ASD49_23205	Unknown	FMNREDUCT-RXN;NADPH-DEHYDROGENASE-FLAVIN-RXN;RXN-12444
ASD49_32185	Unknown	PYRIDOXAL-4-DEHYDROGENASE-RXN
ASD49_21725	purU	FORMYLTHFDEFORMYL-RXN
ASD49_25440	Unknown	3-HYDROXYBUTYRYL-COA-DEHYDROGENASE-RXN
ASD49_05410	Unknown	RXN-9952
ASD49_12635	Unknown	THIAZOLSYN2-RXN
ASD49_19705	Unknown	RXN-9591
ASD49_15155	gatB	6.3.5.7-RXN
ASD49_12655	Unknown	7KAPSYN-RXN;RXN-11484
ASD49_26035	Unknown	1TRANSKETO-RXN;2TRANSKETO-RXN
ASD49_02835	Unknown	METHGLYSYN-RXN
ASD49_19845	Unknown	CYTIDEAM-RXN;CYTIDEAM2-RXN
ASD49_00940	Unknown	GLYOXIII-RXN
ASD49_19125	Unknown	GLUTAMINESYN-RXN
ASD49_06555	Unknown	GCVP-RXN
ASD49_32420	Unknown	1TRANSKETO-RXN;2TRANSKETO-RXN
ASD49_18100	Unknown	GLYOXIII-RXN
ASD49_06360	Unknown	SAICARSYN-RXN
ASD49_17630	Unknown	2.5.1.19-RXN
ASD49_22840	Unknown	GSHTRAN-RXN;GST-RXN;RXN-11663;RXN-13673;RXN-15680;RXN-18405;RXN-18407;RXNQT-4363
ASD49_04345	Unknown	RXN-17362
ASD49_05540	Unknown	5.3.3.10-RXN
ASD49_32875	Unknown	RXN-13179
ASD49_04445	Unknown	S-ADENMETSYN-RXN
ASD49_28965	Unknown	RXN-14364;RXN-14365
ASD49_23665	Unknown	SUCCINATE-SEMIALDEHYDE-DEHYDROGENASE-RXN
ASD49_01175	Unknown	RXN0-6274
ASD49_19930	Unknown	CYSTATHIONINE-BETA-LYASE-RXN;RXN-12729;RXN-15131;RXN-15137;RXN-15577;RXN-15582;RXN-18212;RXN-6763;RXN-8052;RXN-8054;RXNQT-4319;RXNQT-4320;RXNQT-4321;RXNQT-4322;RXNQT-4323;S-ALKYLCYSTEINE-LYASE-RXN
ASD49_01385	Unknown	NQOR-RXN
ASD49_06285	Unknown	GLUTAMIN-RXN
ASD49_28145	Unknown	HISTALDEHYD-RXN;HISTOLDEHYD-RXN;RXN-8001
ASD49_10845	Unknown	ATPASE-RXN
ASD49_12300	Unknown	ATPASE-RXN
ASD49_08515	Unknown	RXN-13418;RXN-15341;RXN0-280;RXN0-6973
ASD49_17845	Unknown	KDOTRANS-RXN
ASD49_22240	Unknown	PHOSPHOGLUCMUT-RXN;RXN-16997;RXN-16998
ASD49_10750	Unknown	PANTOTHENATE-KIN-RXN
ASD49_29795	Unknown	3-OXOACYL-ACP-REDUCT-RXN
ASD49_02245	Unknown	GSHTRAN-RXN;GST-RXN;RXN-11663;RXN-13673;RXN-15680;RXN-18405;RXN-18407;RXNQT-4363
ASD49_14220	Unknown	ADCLY-RXN
ASD49_02550	Unknown	CARBOXYMETHYLENEBUTENOLIDASE-RXN;DIENELACHYDRO-RXN;RXN-9857;RXN-9868;RXN-9887;RXN-9890
ASD49_24615	Unknown	3.2.1.52-RXN;RXN-12625;RXN-12626;RXN-18082;RXN0-5226
ASD49_17510	Unknown	ACYLCOADEHYDROG-RXN;RXN-17775;RXN-17779;RXN-17783;RXN-17784;RXN-17788;RXN-17792;RXN-17796
ASD49_15115	Unknown	3.1.22.4-RXN
ASD49_26160	purE	RXN0-743
ASD49_14520	Unknown	5.99.1.2-RXN
ASD49_09395	Unknown	R601-RXN;RXN-14963
ASD49_03325	Unknown	ENOYL-ACP-REDUCT-NADH-RXN;RXN-10062;RXN-10657;RXN-10661;RXN-11478;RXN-11482;RXN-16620;RXN-16624;RXN-16628;RXN-16632;RXN-9558;RXN-9635;RXN-9657;RXN-9658;RXN-9659;RXN-9660;RXN-9661;RXN-9662;RXN-9663;RXN0-2145;RXN1G-395;RXN1G-488;RXN1G-526
ASD49_28375	Unknown	DIMETHUROPORDEHYDROG-RXN;SIROHEME-FERROCHELAT-RXN;UROPORIIIMETHYLTRANSA-RXN
ASD49_00640	Unknown	GLUTAMINESYN-RXN
ASD49_20970	Unknown	PANTEPADENYLYLTRAN-RXN
ASD49_25040	Unknown	2-OCTAPRENYL-6-OHPHENOL-METHY-RXN;DHHB-METHYLTRANSFER-RXN
ASD49_14545	Unknown	PORPHOBILSYNTH-RXN
ASD49_30455	dnaE2	DNA-DIRECTED-DNA-POLYMERASE-RXN;RXN0-4961
ASD49_12915	Unknown	TAGAALDOL-RXN
ASD49_22350	Unknown	DIHYDRODIPICSYN-RXN
ASD49_18835	Unknown	SUCCINATE-SEMIALDEHYDE-DEHYDROGENASE-RXN
ASD49_03595	Unknown	3.7.1.9-RXN
ASD49_22740	Unknown	4.1.99.4-RXN;RXN-15149
ASD49_15205	Unknown	4.1.99.4-RXN;RXN-15149
ASD49_18980	Unknown	IMP-DEHYDROG-RXN
ASD49_08520	Unknown	AMINO-CARBOXYMUCONATE-SEMIALDEHYDE-RXN
ASD49_23670	Unknown	3-HYDROXY-KYNURENINASE-RXN;KYNURENINASE-RXN
ASD49_21025	Unknown	SAICARSYN-RXN
ASD49_17840	Unknown	2-HALOACID-DEHALOGENASE-RXN
ASD49_05120	Unknown	HOMOCYSMETB12-RXN
ASD49_19240	Unknown	RXN-2103
ASD49_18680	Unknown	RXN0-3942
ASD49_28905	Unknown	HYDROXYMETHYLGLUTARYL-COA-LYASE-RXN
ASD49_22100	Unknown	SERINE-O-ACETTRAN-RXN
ASD49_07255	Unknown	UDPGLUCEPIM-RXN
ASD49_21810	Unknown	RXN-8765
ASD49_24400	Unknown	2.7.13.3-RXN
ASD49_25450	Unknown	ARGSUCCINLYA-RXN;RXN-22
ASD49_03195	Unknown	CPM-KDOSYNTH-RXN
ASD49_10945	Unknown	OHBENZCOARED-RXN
ASD49_24980	Unknown	1.5.1.9-RXN
ASD49_26665	Unknown	3.4.21.92-RXN
ASD49_00180	Unknown	GLYOXIII-RXN
ASD49_28320	Unknown	CATECHOL-12-DIOXYGENASE-RXN
ASD49_33115	Unknown	RXN-12134;RXN-12140;RXN-12141;RXN-12142
ASD49_26320	Unknown	ASPAMINOTRANS-RXN;RXN-10814;RXN-11737;RXN-13697
ASD49_20625	Unknown	GUANPRIBOSYLTRAN-RXN;HYPOXANPRIBOSYLTRAN-RXN;XANPRIBOSYLTRAN-RXN
ASD49_25855	glmM	5.4.2.10-RXN;RXN-16424;RXN0-7139
ASD49_30935	Unknown	FERRIC-CHELATE-REDUCTASE-RXN
ASD49_29090	Unknown	3.2.1.52-RXN;RXN-12625;RXN-12626;RXN-18082;RXN0-5226
ASD49_11430	Unknown	GLYOCARBOLIG-RXN
ASD49_09705	Unknown	HOMSUCTRAN-RXN
ASD49_17335	Unknown	HEMEOSYN-RXN
ASD49_18395	Unknown	GLUTAMINESYN-RXN
ASD49_28115	Unknown	3-OXOACYL-ACP-REDUCT-RXN;RXN-10060;RXN-10655;RXN-10659;RXN-11476;RXN-11480;RXN-13008;RXN-16616;RXN-16622;RXN-16626;RXN-16630;RXN-9514;RXN-9518;RXN-9524;RXN-9528;RXN-9532;RXN-9536;RXN-9540;RXN-9552;RXN-9556;RXN-9633;RXN0-2142;RXN1G-157;RXN1G-349;RXN1G-469;RXN1G-508
ASD49_08955	Unknown	MANNPISOM-RXN
ASD49_16975	Unknown	ASPARAGHYD-RXN
ASD49_14565	Unknown	AMIDASE-RXN;GUANIDINOBUTANAMIDE-NH3-RXN;PYRAZIN-RXN;R311-RXN;RXN-14727;RXN-14728;RXN-17608;RXNN-404
ASD49_04085	Unknown	MYO-INOSOSE-2-DEHYDRATASE-RXN
ASD49_32180	Unknown	GLYCERATE-DEHYDROGENASE-RXN;HYDROXYPYRUVATE-REDUCTASE-RXN;RXN0-300
ASD49_14085	Unknown	LYSDECARBOX-RXN
ASD49_10115	Unknown	RXN-16650
ASD49_29900	Unknown	FUMARYLACETOACETASE-RXN
ASD49_23530	Unknown	HYDROXY-MANDELATE-RACEMASE-RXN;MANDELATE-RACEMASE-RXN
ASD49_13285	Unknown	GSHTRAN-RXN;GST-RXN;RXN-11663;RXN-13673;RXN-15680;RXN-18405;RXN-18407;RXNQT-4363
ASD49_02300	Unknown	3-OXOACYL-ACP-REDUCT-RXN;RXN-10060;RXN-10655;RXN-10659;RXN-11476;RXN-11480;RXN-13008;RXN-16616;RXN-16622;RXN-16626;RXN-16630;RXN-9514;RXN-9518;RXN-9524;RXN-9528;RXN-9532;RXN-9536;RXN-9540;RXN-9552;RXN-9556;RXN-9633;RXN0-2142;RXN1G-157;RXN1G-349;RXN1G-469;RXN1G-508
ASD49_05975	Unknown	1.14.11.18-RXN;RXN66-470
ASD49_02715	Unknown	D-PPENTOMUT-RXN;PPENTOMUT-RXN
ASD49_31765	Unknown	325-BISPHOSPHATE-NUCLEOTIDASE-RXN
ASD49_19700	Unknown	CDPDIGLYSYN-RXN;RXN0-5515
ASD49_06460	Unknown	RXN-11109
ASD49_10390	purH	AICARTRANSFORM-RXN;IMPCYCLOHYDROLASE-RXN
ASD49_23610	Unknown	5-METHYLTHIORIBOSE-KINASE-RXN
ASD49_14355	Unknown	PHOSPHAGLYPSYN-RXN
ASD49_32975	Unknown	GLYOXIII-RXN
ASD49_26760	Unknown	DURIDKI-RXN;THYKI-RXN
ASD49_14230	Unknown	GUANYL-KIN-RXN
ASD49_03805	Unknown	2.6.1.57-RXN;PHEAMINOTRANS-RXN;RXN-14147;RXN-15200;TRYPTOPHAN-AMINOTRANSFERASE-RXN;TYROSINE-AMINOTRANSFERASE-RXN
ASD49_13850	Unknown	GDPPYPHOSKIN-RXN;GTPPYPHOSKIN-RXN
ASD49_21505	Unknown	NADH-DEHYDROG-A-RXN
ASD49_10695	Unknown	ADENOSYLHOMOCYSTEINASE-RXN
ASD49_12315	Unknown	CARBOXYMETHYLENEBUTENOLIDASE-RXN;DIENELACHYDRO-RXN;RXN-9857;RXN-9868;RXN-9887;RXN-9890
ASD49_21240	Unknown	ORNITHINE-CYCLODEAMINASE-RXN
ASD49_18120	Unknown	ADENYLATECYC-RXN
ASD49_33930	Unknown	CREATININASE-RXN
ASD49_18405	Unknown	GLU6PDEHYDROG-RXN
ASD49_17945	hisG	ATPPHOSPHORIBOSYLTRANS-RXN
ASD49_24055	Unknown	RXN-13179
ASD49_21000	Unknown	ATPASE-RXN
ASD49_29805	Unknown	GSAAMINOTRANS-RXN
ASD49_12645	Unknown	1.4.3.19-RXN;RXN-12614;RXN-17951;RXN-8672;RXN-8673;RXN-8674
ASD49_13875	Unknown	RXN0-5462
ASD49_19130	Unknown	N-FORMYLGLUTAMATE-DEFORMYLASE-RXN
ASD49_23105	Unknown	RXN0-5433
ASD49_00600	Unknown	RIBOFLAVIN-SYN-RXN
ASD49_32950	Unknown	RXN-17954;RXN-17957;RXN0-6732
ASD49_03730	Unknown	3.1.11.6-RXN
ASD49_28910	Unknown	METHYLCROTONYL-COA-CARBOXYLASE-RXN
ASD49_05620	Unknown	ADENYLATECYC-RXN
ASD49_20370	Unknown	GLYOXIII-RXN
ASD49_33700	Unknown	RXN-12130
ASD49_10725	Unknown	PEPCARBOXYKIN-RXN
ASD49_33970	Unknown	PHOSGLYPHOS-RXN
ASD49_00440	Unknown	HISTIDINE-AMMONIA-LYASE-RXN
ASD49_13785	Unknown	HISTAMINOTRANS-RXN
ASD49_34320	Unknown	DNA-DIRECTED-RNA-POLYMERASE-RXN
ASD49_19735	Unknown	RXN-12508;RXN-12583;RXN0-1134
ASD49_07425	Unknown	2.7.13.3-RXN
ASD49_05820	Unknown	RXN-16427;RXN-16456;RXN0-262
ASD49_12265	Unknown	CATECHOL-12-DIOXYGENASE-RXN
ASD49_23705	Unknown	R125-RXN
ASD49_10120	Unknown	FPPSYN-RXN;GPPSYN-RXN
ASD49_02880	Unknown	GLYOXIII-RXN
ASD49_21475	Unknown	1.6.99.5-RXN;NADH-DEHYDROGENASE-QUINONE-RXN
ASD49_18080	Unknown	IMP-DEHYDROG-RXN
ASD49_27420	Unknown	D-SORBITOL-DEHYDROGENASE-RXN;L-IDITOL-2-DEHYDROGENASE-RXN;RXN-7644
ASD49_25935	Unknown	UDPGLUCEPIM-RXN
ASD49_23920	Unknown	KETOACYLCOATHIOL-RXN;RXN-10699;RXN-10700;RXN-10701;RXN-11246;RXN-12565;RXN-12710;RXN-13617;RXN-14268;RXN-14274;RXN-14277;RXN-14394;RXN-14774;RXN-14788;RXN-14793;RXN-14799;RXN-14803;RXN-16137;RXN-17116;RXN-17778;RXN-17782;RXN-17787;RXN-17791;RXN-17795;RXN-17799;RXN-3641
ASD49_09950	Unknown	RXN0-5062
ASD49_06420	Unknown	RXN-8505
ASD49_14200	Unknown	MALONYL-COA-ACP-TRANSACYL-RXN
ASD49_10375	Unknown	PYRAMKIN-RXN
ASD49_28235	Unknown	PYRROLINECARBREDUCT-RXN;RXN66-546
ASD49_04080	Unknown	RXN-14150
ASD49_10805	Unknown	UNSPECIFIC-MONOOXYGENASE-RXN
ASD49_12565	Unknown	ALPHAGALACTOSID-RXN;MALTODEXGLUCOSID-RXN;RXN-11501;RXN-11502;RXN-12088;RXN-14281;RXN-14282;RXN-14283;RXN-15910;RXN-17754;RXN-17830;RXN0-5183
ASD49_09600	Unknown	NICONUCADENYLYLTRAN-RXN
ASD49_12940	Unknown	ACYLPHOSPHATASE-RXN
ASD49_04645	Unknown	2.7.13.3-RXN
ASD49_24590	Unknown	N-FORMYLGLUTAMATE-DEFORMYLASE-RXN
ASD49_32465	Unknown	RXN1A0-6303
ASD49_20935	Unknown	CARBPSYN-RXN;GLUTAMIN-RXN;RXN-13202;RXN-14196;RXN-16909;RXN-16910
ASD49_23625	Unknown	1TRANSKETO-RXN;2TRANSKETO-RXN
ASD49_11425	Unknown	RXN0-305
ASD49_28245	Unknown	R502-RXN
ASD49_05885	Unknown	RIB5PISOM-RXN
ASD49_09510	Unknown	AMIDASE-RXN;GUANIDINOBUTANAMIDE-NH3-RXN;PYRAZIN-RXN;R311-RXN;RXN-14727;RXN-14728;RXN-17608;RXNN-404
ASD49_34635	Unknown	THIOREDOXIN-REDUCT-NADPH-RXN
ASD49_26390	Unknown	ATPASE-RXN
ASD49_26915	Unknown	GUANINE-DEAMINASE-RXN;RXN-15261
ASD49_09120	Unknown	1.2.1.2-RXN
ASD49_26430	Unknown	RXN0-20
ASD49_11645	Unknown	ADDALT-RXN;ADENODEAMIN-RXN
ASD49_04005	Unknown	GLUTATHIONE-SYN-RXN
ASD49_21735	Unknown	1.8.1.4-RXN;2OXOGLUTARATEDEH-RXN;2OXOGLUTDECARB-RXN;RXN-7716;RXN-7719;RXN-8629;RXN0-1132;RXN0-1147
ASD49_21370	Unknown	GPPSYN-RXN
ASD49_14735	Unknown	RXN-13907;RXN-14206;RXN66-569
ASD49_08095	Unknown	RXN0-4961
ASD49_33780	Unknown	GALACTONDEHYDRAT-RXN
ASD49_14625	hppA	INORGPYROPHOSPHAT-RXN
ASD49_26815	Unknown	AMINOGLYCOSIDE-N6-ACETYLTRANSFERASE-RXN
ASD49_27405	Unknown	RIBULOKIN-RXN;RXN0-5116
ASD49_19950	Unknown	SERINE-O-ACETTRAN-RXN
ASD49_03375	Unknown	2.5.1.19-RXN
ASD49_00865	murC	UDP-NACMUR-ALA-LIG-RXN
ASD49_28900	Unknown	ENOYL-COA-HYDRAT-RXN;METHYLACYLYLCOA-HYDROXY-RXN;RXN-10697;RXN-10704;RXN-10705;RXN-11244;RXN-12567;RXN-13616;RXN-14266;RXN-14272;RXN-14273;RXN-16135;RXN-16558;RXN-17114;RXN-17475;RXN-17776;RXN-17780;RXN-17785;RXN-17789;RXN-17793;RXN-17797;RXN-2425;RXN0-5393;TIGLYLCOA-HYDROXY-RXN
ASD49_26375	Unknown	BRANCHED-CHAINAMINOTRANSFERILEU-RXN;BRANCHED-CHAINAMINOTRANSFERLEU-RXN;BRANCHED-CHAINAMINOTRANSFERVAL-RXN
ASD49_22285	Unknown	RXN1A0-6303
ASD49_17030	Unknown	CHOLINE-SULFATASE-RXN
ASD49_22745	Unknown	1TRANSKETO-RXN;2TRANSKETO-RXN
ASD49_16235	Unknown	ACETYLORNTRANSAM-RXN;RXN-15007
ASD49_24215	Unknown	1.11.1.15-RXN;RXN0-5468
ASD49_00765	Unknown	RXN-12347
ASD49_33795	Unknown	DIHYDRODIPICSYN-RXN
ASD49_04315	Unknown	3.4.21.92-RXN
ASD49_29925	Unknown	ATPASE-RXN
ASD49_24525	Unknown	ACYLCOADEHYDROG-RXN;RXN-17775;RXN-17779;RXN-17783;RXN-17784;RXN-17788;RXN-17792;RXN-17796
ASD49_24595	Unknown	UROCANATE-HYDRATASE-RXN
ASD49_13270	Unknown	ATPASE-RXN
ASD49_08460	Unknown	R4-RXN
ASD49_28270	Unknown	4.1.1.32-RXN;RXN-12481
ASD49_10070	Unknown	RXN0-4261
ASD49_10815	Unknown	DIHYDROPYRIMIDINASE-RXN;RXN-11211;RXN-11217
ASD49_06390	Unknown	AICARSYN-RXN;AMPSYN-RXN
ASD49_21040	Unknown	METHIONINE--TRNA-LIGASE-RXN;RXN-16165
ASD49_22885	Unknown	FMNREDUCT-RXN;NADPH-DEHYDROGENASE-FLAVIN-RXN;RXN-12444
ASD49_17905	Unknown	FADSYN-RXN;RIBOFLAVINKIN-RXN;RXN-18510;RXN-18511
ASD49_18035	Unknown	GLUTCYSLIG-RXN
ASD49_20540	Unknown	PEPTIDYLPROLYL-ISOMERASE-RXN
ASD49_04350	Unknown	2.7.13.3-RXN
ASD49_04485	Unknown	3.5.1.27-RXN;3.5.1.88-RXN
ASD49_13400	Unknown	METHELENE-THMPT-OXI-RXN
ASD49_00170	Unknown	ENOYL-COA-HYDRAT-RXN;METHYLACYLYLCOA-HYDROXY-RXN;RXN-10697;RXN-10704;RXN-10705;RXN-11244;RXN-12567;RXN-13616;RXN-14266;RXN-14272;RXN-14273;RXN-16135;RXN-16558;RXN-17114;RXN-17475;RXN-17776;RXN-17780;RXN-17785;RXN-17789;RXN-17793;RXN-17797;RXN-2425;RXN0-5393;TIGLYLCOA-HYDROXY-RXN
ASD49_03385	Unknown	RXN-11832;RXN-12002;RXN-7913
ASD49_20485	Unknown	NQOR-RXN
ASD49_19060	Unknown	NANE-RXN
ASD49_12340	Unknown	CITSYN-RXN
ASD49_00835	Unknown	UDP-NACMURALGLDAPLIG-RXN
ASD49_17345	Unknown	CYTOCHROME-C-OXIDASE-RXN;RXN-15830
ASD49_23160	Unknown	2-HALOACID-DEHALOGENASE-RXN;3.8.1.11-RXN;RXN-6263;RXN-6264
ASD49_24575	Unknown	PRPPSYN-RXN
ASD49_10075	Unknown	RXN-12560;RXN-13279;RXN-5901
ASD49_05610	Unknown	RXN0-2621
ASD49_17285	Unknown	R4-RXN
ASD49_11415	Unknown	GLYCERATE-DEHYDROGENASE-RXN;HYDROXYPYRUVATE-REDUCTASE-RXN;RXN0-300
ASD49_04585	Unknown	ACETYLGLUTKIN-RXN;RXN-15005
ASD49_25020	Unknown	CHOLOYLGLYCINE-HYDROLASE-RXN;RXN-17388
ASD49_00790	Unknown	2.7.1.90-RXN
ASD49_33175	Unknown	GLUTAMIN-RXN;GMP-SYN-GLUT-RXN;GMP-SYN-NH3-RXN
ASD49_23040	Unknown	2.7.13.3-RXN
ASD49_06915	Unknown	GLUCISOM-RXN;XYLISOM-RXN
ASD49_06670	Unknown	3.1.1.69-RXN
ASD49_30185	Unknown	GLUCOKIN-RXN;HEXOKINASE-RXN
ASD49_18055	Unknown	CATAL-RXN;RXN-14189;RXN66-1
ASD49_04930	Unknown	2-OCTAPRENYL-6-OHPHENOL-METHY-RXN;DHHB-METHYLTRANSFER-RXN
ASD49_20880	Unknown	12-OXOPHYTODIENOATE-REDUCTASE-RXN
ASD49_08020	Unknown	RXN0-5131
ASD49_20235	Unknown	2.5.1.32-RXN;RXN-13323;RXNARA-8002
ASD49_09685	Unknown	3-ISOPROPYLMALISOM-RXN;RXN-13163;RXN-8991
ASD49_28015	Unknown	3.2.1.17-RXN
ASD49_06310	Unknown	PRODISULFREDUCT-RXN;RXN0-7271
ASD49_08990	Unknown	3-OXOACYL-ACP-REDUCT-RXN;RXN-10060;RXN-10655;RXN-10659;RXN-11476;RXN-11480;RXN-13008;RXN-16616;RXN-16622;RXN-16626;RXN-16630;RXN-9514;RXN-9518;RXN-9524;RXN-9528;RXN-9532;RXN-9536;RXN-9540;RXN-9552;RXN-9556;RXN-9633;RXN0-2142;RXN1G-157;RXN1G-349;RXN1G-469;RXN1G-508
ASD49_03220	Unknown	3.6.1.41-RXN
ASD49_04825	Unknown	ATPASE-RXN
ASD49_18755	Unknown	3.11.1.2-RXN
ASD49_20075	gltA	CITSYN-RXN
ASD49_19720	Unknown	KDO-8PSYNTH-RXN
ASD49_15025	Unknown	DNA-DIRECTED-DNA-POLYMERASE-RXN
ASD49_20620	Unknown	RXN-12752;RXN-13142
ASD49_07985	Unknown	ALARACECAT-RXN
ASD49_01340	Unknown	NITRILE-HYDRATASE-RXN;R310-RXN;R313-RXN;RXN-14725;RXN-14726;RXN-17609;RXN-7567
ASD49_33990	Unknown	4-CARBOXYMUCONOLACTONE-DECARBOXYLASE-RXN
ASD49_10395	Unknown	4.2.2.7-RXN
ASD49_03575	Unknown	2.1.1.79-RXN;RXN-7421;RXN1G-2544;RXN1G-3641
ASD49_09065	Unknown	KANAMYCIN-KINASE-RXN
ASD49_23895	Unknown	ACYLCOADEHYDROG-RXN;RXN-17775;RXN-17779;RXN-17783;RXN-17784;RXN-17788;RXN-17792;RXN-17796
ASD49_17400	Unknown	PMPOXI-RXN;PNPOXI-RXN
ASD49_18155	Unknown	FUMARYLACETOACETASE-RXN
ASD49_26230	Unknown	PABASYN-RXN
ASD49_24290	Unknown	3.1.11.2-RXN
ASD49_14910	Unknown	1.6.99.5-RXN;NADH-DEHYDROGENASE-QUINONE-RXN
ASD49_03775	Unknown	GSHTRAN-RXN;GST-RXN;RXN-11663;RXN-13673;RXN-15680;RXN-18405;RXN-18407;RXNQT-4363
ASD49_14970	Unknown	METHYLMALONYL-COA-EPIM-RXN;RXN-16391
ASD49_30135	Unknown	GLYCEROL-1-PHOSPHATASE-RXN;RXN-14964;RXN-14965
ASD49_14510	Unknown	UNSPECIFIC-MONOOXYGENASE-RXN
ASD49_11445	Unknown	RXN-12587;RXN-12588;RXN-14382;RXN-14385;RXN-15881;RXN-9787;RXN0-308
ASD49_32205	Unknown	GLUCISOM-RXN;XYLISOM-RXN
ASD49_12260	Unknown	MUCONOLACTONE-DELTA-ISOMERASE-RXN;RXN-10082
ASD49_07325	Unknown	NUCLEOSIDE-DEOXYRIBOSYLTRANSFERASE-RXN
ASD49_27470	Unknown	ADENYLATECYC-RXN
ASD49_11485	Unknown	3.5.2.17-RXN
ASD49_24390	Unknown	ARYLSULFAT-RXN
ASD49_07485	Unknown	ATPASE-RXN
ASD49_16130	Unknown	ACYLCOADEHYDROG-RXN;RXN-17775;RXN-17779;RXN-17783;RXN-17784;RXN-17788;RXN-17792;RXN-17796
ASD49_28925	Unknown	RXN-14264;RXN0-2301
ASD49_22280	Unknown	IMP-DEHYDROG-RXN
ASD49_05295	Unknown	RXN-17155
ASD49_31385	Unknown	2.7.13.3-RXN
ASD49_26800	Unknown	RXN-2043
ASD49_33045	Unknown	GLUTAMATE-DEHYDROGENASE-NADP+-RXN;GLUTAMATE-DEHYDROGENASE-RXN;GLUTDEHYD-RXN
ASD49_19875	Unknown	ACETYL-COA-HYDROLASE-RXN
ASD49_29650	Unknown	RXN0-5131
ASD49_17835	Unknown	TETRAACYLDISACC4KIN-RXN
ASD49_01025	Unknown	ISOCHORMAT-RXN
ASD49_06145	Unknown	CARBOXYMETHYLENEBUTENOLIDASE-RXN;DIENELACHYDRO-RXN;RXN-9857;RXN-9868;RXN-9887;RXN-9890
ASD49_06195	Unknown	2.7.13.3-RXN
ASD49_06755	Unknown	METHIONYL-TRNA-FORMYLTRANSFERASE-RXN
ASD49_24485	Unknown	GABATRANSAM-RXN;RXN-2901
ASD49_26290	Unknown	6.3.5.7-RXN
ASD49_19450	Unknown	2.1.1.100-RXN
ASD49_22775	Unknown	ACYLCOASYN-RXN;LINOLENOYL-RXN;R223-RXN;RXN-12184;RXN-12702;RXN-12746;RXN-12978;RXN-13290;RXN-13614;RXN-16380;RXN-16389;RXN-16393;RXN-16401;RXN-16402;RXN-16415;RXN-16418;RXN-7904;RXN-9623;RXN-9644;RXN-9673;RXN0-7238;RXN0-7239;RXN0-7248;RXN66-469;RXN66-477;RXN66-480;RXN66-483;RXN66-484;TRANS-RXN0-623
ASD49_29935	Unknown	RXN0-305
ASD49_26830	Unknown	RXN0-5462
ASD49_17340	Unknown	HEMEOSYN-RXN
ASD49_18415	Unknown	PGLUCONDEHYDRAT-RXN
ASD49_04450	Unknown	TRNA-GUANINE-N7--METHYLTRANSFERASE-RXN
ASD49_04900	Unknown	ADENYLATECYC-RXN
ASD49_07385	Unknown	URUR-RXN
ASD49_00870	Unknown	UDPNACETYLMURAMATEDEHYDROG-RXN
ASD49_15100	Unknown	ACYLCOADEHYDROG-RXN;RXN-17775;RXN-17779;RXN-17783;RXN-17784;RXN-17788;RXN-17792;RXN-17796
ASD49_29060	Unknown	MYO-INOSITOL-1OR-4-MONOPHOSPHATASE-RXN;RXN-7253;RXN0-5408
ASD49_24195	Unknown	3-OXOACYL-ACP-REDUCT-RXN;RXN-10060;RXN-10655;RXN-10659;RXN-11476;RXN-11480;RXN-13008;RXN-16616;RXN-16622;RXN-16626;RXN-16630;RXN-9514;RXN-9518;RXN-9524;RXN-9528;RXN-9532;RXN-9536;RXN-9540;RXN-9552;RXN-9556;RXN-9633;RXN0-2142;RXN1G-157;RXN1G-349;RXN1G-469;RXN1G-508
ASD49_04115	Unknown	P-PANTOCYSDECARB-RXN;P-PANTOCYSLIG-RXN;RXN-11781
ASD49_15125	Unknown	6.3.5.7-RXN
ASD49_12110	Unknown	ALARACECAT-RXN
ASD49_28600	Unknown	AGMATIN-RXN
ASD49_19280	Unknown	KDUD-RXN
ASD49_16330	ampC	BETA-LACTAMASE-RXN
ASD49_22765	Unknown	DHSHIKIMATE-DEHYDRO-RXN
ASD49_13915	Unknown	UDP-GLUCURONATE-5-EPIMERASE-RXN
ASD49_04835	Unknown	ASPARTATE-4-DECARBOXYLASE-RXN
ASD49_19610	Unknown	FPPSYN-RXN;GPPSYN-RXN
ASD49_28345	Unknown	PALMITOYL-COA-HYDROLASE-RXN
ASD49_06350	Unknown	FGAMSYN-RXN
ASD49_04545	Unknown	LYSDECARBOX-RXN
ASD49_03865	Unknown	ADENOSYLHOMOCYSTEINE-NUCLEOSIDASE-RXN;METHYLTHIOADENOSINE-NUCLEOSIDASE-RXN
ASD49_32115	Unknown	GLYOXIII-RXN
ASD49_32940	Unknown	RXN-17956;RXN0-6734
ASD49_13610	Unknown	AMIDASE-RXN;GUANIDINOBUTANAMIDE-NH3-RXN;PYRAZIN-RXN;R311-RXN;RXN-14727;RXN-14728;RXN-17608;RXNN-404
ASD49_15365	fliI	ATPSYN-RXN
ASD49_11775	nadE	NAD-SYNTH-NH3-RXN
ASD49_02210	Unknown	R4-RXN
ASD49_05995	Unknown	2.3.1.184-RXN;RXN-10020;RXN-10022;RXN-10023;RXN-10024;RXN-10025;RXN-10026
ASD49_24650	Unknown	GLYOXIII-RXN
ASD49_33305	Unknown	GALPMUT-RXN
ASD49_10900	Unknown	3-OXOACYL-ACP-REDUCT-RXN;RXN-10060;RXN-10655;RXN-10659;RXN-11476;RXN-11480;RXN-13008;RXN-16616;RXN-16622;RXN-16626;RXN-16630;RXN-9514;RXN-9518;RXN-9524;RXN-9528;RXN-9532;RXN-9536;RXN-9540;RXN-9552;RXN-9556;RXN-9633;RXN0-2142;RXN1G-157;RXN1G-349;RXN1G-469;RXN1G-508
ASD49_28695	ggt	GAMMA-GLUTAMYLTRANSFERASE-RXN;RXN-18092;RXN-18093;RXN-6601;RXN-9157;RXN66-336
ASD49_02165	Unknown	GSHTRAN-RXN;GST-RXN;RXN-11663;RXN-13673;RXN-15680;RXN-18405;RXN-18407;RXNQT-4363
ASD49_12045	Unknown	QUERCETIN-23-DIOXYGENASE-RXN
ASD49_05005	Unknown	RXN-17155
ASD49_08855	Unknown	RXN0-5131
ASD49_03835	Unknown	ATPASE-RXN
ASD49_09405	Unknown	RXN-14971;RXN-15378;SUCCINATE-DEHYDROGENASE-UBIQUINONE-RXN
ASD49_22495	Unknown	2.7.9.3-RXN
ASD49_07445	Unknown	RXN0-5268
ASD49_09080	Unknown	ARGINASE-RXN;RXN-34
ASD49_02910	Unknown	RXN0-5100
ASD49_09595	proA	GLUTSEMIALDEHYDROG-RXN
ASD49_16210	Unknown	DCTP-DEAM-RXN;RXN-14118
ASD49_19795	Unknown	RXN0-1281
ASD49_18480	Unknown	UDPMANACATRANS-RXN
ASD49_20555	glmU	2.3.1.157-RXN;NAG1P-URIDYLTRANS-RXN
ASD49_29330	Unknown	2.7.13.3-RXN
ASD49_03280	truB	TRNA-PSEUDOURIDINE-SYNTHASE-I-RXN
ASD49_03320	Unknown	ADENYLATECYC-RXN
ASD49_13965	Unknown	1.14.11.18-RXN;RXN66-470
ASD49_25840	Unknown	PSERTRANSAM-RXN;PSERTRANSAMPYR-RXN
ASD49_19935	Unknown	RXN-10078;RXN-10079;RXN-9912;RXN-9914;SALICYLATE-1-MONOOXYGENASE-RXN
ASD49_03225	Unknown	DNA-DIRECTED-DNA-POLYMERASE-RXN
ASD49_16835	Unknown	RXN0-2441
ASD49_14325	ndk	CDPKIN-RXN;DADPKIN-RXN;DCDPKIN-RXN;DGDPKIN-RXN;DTDPKIN-RXN;DUDPKIN-RXN;GDPKIN-RXN;NUCLEOSIDE-DIP-KIN-RXN;RXN-14120;RXN-14228;UDPKIN-RXN
ASD49_05320	Unknown	LAUROYLACYLTRAN-RXN
ASD49_04710	Unknown	ADENYLATECYC-RXN
ASD49_21055	Unknown	DTMPKI-RXN
ASD49_14215	Unknown	2.3.1.179-RXN;2.3.1.41-RXN;3-OXOACYL-ACP-SYNTH-BASE-RXN;3-OXOACYL-ACP-SYNTH-RXN;RXN-10654;RXN-10658;RXN-11474;RXN-11479;RXN-16615;RXN-16621;RXN-16625;RXN-16629;RXN-8391;RXN-9516;RXN-9523;RXN-9527;RXN-9531;RXN-9535;RXN-9539;RXN0-2141;RXN1G-460;RXN3O-1803
ASD49_02805	Unknown	GLYCERATE-DEHYDROGENASE-RXN;HYDROXYPYRUVATE-REDUCTASE-RXN;RXN0-300
ASD49_13045	Unknown	RXN1A0-6303
ASD49_04490	Unknown	METHIONYL-TRNA-FORMYLTRANSFERASE-RXN
ASD49_02555	Unknown	DALADALALIG-RXN
ASD49_32480	Unknown	RIBULOSE-BISPHOSPHATE-CARBOXYLASE-RXN
ASD49_22535	Unknown	GLUCONOKIN-RXN
ASD49_13990	Unknown	QUINOPRIBOTRANS-RXN
ASD49_23810	Unknown	AMINOBENZCOALIG-RXN
ASD49_02365	Unknown	DIHYDRODIPICSYN-RXN
ASD49_04475	Unknown	RIBOKIN-RXN;RXN-14223
ASD49_00370	Unknown	ADENYLATECYC-RXN
ASD49_09375	Unknown	MALATE-DEH-RXN
ASD49_28715	Unknown	4.2.3.12-RXN
ASD49_13110	Unknown	5-OXOPROLINASE-ATP-HYDROLYSING-RXN
ASD49_23750	Unknown	GLUTATHIONE-SYN-RXN
ASD49_12245	Unknown	GLUCISOM-RXN;XYLISOM-RXN
ASD49_23320	Unknown	MANNONDEHYDRAT-RXN
ASD49_11080	Unknown	3.1.1.64-RXN;CARBOXYLESTERASE-RXN;RETINYL-PALMITATE-ESTERASE-RXN;RXN-10711;RXN-10767;RXN-12252;RXN-12575;RXNQT-4366
ASD49_14005	Unknown	PROTEIN-TYROSINE-PHOSPHATASE-RXN
ASD49_15195	Unknown	3-DEHYDROQUINATE-DEHYDRATASE-RXN
ASD49_32630	Unknown	1.14.11.18-RXN;RXN66-470
ASD49_10220	Unknown	ASPAMINOTRANS-RXN;RXN-10814;RXN-11737;RXN-13697
ASD49_04360	Unknown	MALIC-NADP-RXN;OXALODECARB-RXN
ASD49_07855	Unknown	PHOSACETYLTRANS-RXN
ASD49_20990	Unknown	QUEUOSINE-TRNA-RIBOSYLTRANSFERASE-RXN;RXN0-1321
ASD49_26925	Unknown	3.5.2.17-RXN
ASD49_21020	Unknown	RXN0-5131
ASD49_06425	Unknown	ATPASE-RXN
ASD49_24850	Unknown	RIBOKIN-RXN;RXN-14223
ASD49_07915	Unknown	4-CARBOXYMUCONOLACTONE-DECARBOXYLASE-RXN
ASD49_06220	Unknown	ALANINE--TRNA-LIGASE-RXN
ASD49_00985	Unknown	RXN0-5419
ASD49_07415	Unknown	2.1.1.71-RXN;RXN4FS-2
ASD49_18880	Unknown	2.7.13.3-RXN
ASD49_22020	Unknown	4OH2OXOGLUTARALDOL-RXN;KDPGALDOL-RXN
ASD49_29800	Unknown	ACETOLACTSYN-RXN;ACETOOHBUTSYN-RXN
ASD49_20295	Unknown	3.4.11.18-RXN;RXN-17873;RXN-17874;RXN-17875;RXN-17876;RXN-17877;RXN-17878
ASD49_18865	Unknown	2.7.13.3-RXN
ASD49_28040	Unknown	AMINOGLYCOSIDE-N3-ACETYLTRANSFERASE-RXN
ASD49_28535	Unknown	2.7.13.3-RXN
ASD49_04410	Unknown	RXN-9591
ASD49_22650	Unknown	R4-RXN
ASD49_26200	Unknown	N-FORMYLGLUTAMATE-DEFORMYLASE-RXN
ASD49_21715	Unknown	2-OXOPENT-4-ENOATE-HYDRATASE-RXN;RXN-10381
ASD49_09585	obgE	RXN0-5462
ASD49_00310	Unknown	3.1.1.64-RXN;CARBOXYLESTERASE-RXN;RETINYL-PALMITATE-ESTERASE-RXN;RXN-10711;RXN-10767;RXN-12252;RXN-12575;RXNQT-4366
ASD49_03070	Unknown	N-ACETYLGLUCOSAMINE-KINASE-RXN
ASD49_29770	Unknown	1-PHOSPHATIDYLINOSITOL-KINASE-RXN
ASD49_23020	Unknown	2.7.13.3-RXN
ASD49_04680	putA	PYRROLINECARBDEHYDROG-RXN;RXN-14116;RXN-14903;RXN0-7008
ASD49_09285	Unknown	ATPASE-RXN
ASD49_21795	cobH	5.4.1.2-RXN
ASD49_17445	Unknown	ACYLCOASYN-RXN;LINOLENOYL-RXN;R223-RXN;RXN-12184;RXN-12978;RXN-13290;RXN-13614;RXN-16380;RXN-16389;RXN-16393;RXN-16401;RXN-16402;RXN-16415;RXN-16418;RXN-7904;RXN-9623;RXN-9644;RXN-9673;RXN0-7238;RXN0-7239;RXN0-7248;RXN66-469;RXN66-477;RXN66-480;RXN66-483;RXN66-484;TRANS-RXN0-623
ASD49_26825	Unknown	DEOXYGLUCONOKIN-RXN
ASD49_23285	Unknown	ADOMET-DMK-METHYLTRANSFER-RXN
ASD49_25475	Unknown	GUANPRIBOSYLTRAN-RXN;HYPOXANPRIBOSYLTRAN-RXN
ASD49_26960	Unknown	D-AMINO-ACID-OXIDASE-RXN;RXN-8163
ASD49_03215	Unknown	NADPYROPHOSPHAT-RXN;RXN0-4401
ASD49_32195	Unknown	3-OXOACYL-ACP-REDUCT-RXN
ASD49_04235	Unknown	GSHTRAN-RXN;GST-RXN;RXN-11663;RXN-13673;RXN-15680;RXN-18405;RXN-18407;RXNQT-4363
ASD49_02070	Unknown	RXN1A0-6303
ASD49_22920	Unknown	GSHTRAN-RXN;GST-RXN;RXN-11663;RXN-13673;RXN-15680;RXN-18405;RXN-18407;RXNQT-4363
ASD49_15170	Unknown	NADH-DEHYDROGENASE-RXN
ASD49_00845	mraY	PHOSNACMURPENTATRANS-RXN;RXN-11347;RXN-8975
ASD49_29840	Unknown	7KAPSYN-RXN
ASD49_02870	Unknown	4.2.99.18-RXN
ASD49_26075	Unknown	ADENYLATECYC-RXN
ASD49_14195	Unknown	RXN1A0-6303
ASD49_15920	Unknown	7KAPSYN-RXN;RXN-11484
ASD49_17940	Unknown	GSHTRAN-RXN;GST-RXN;RXN-11663;RXN-13673;RXN-15680;RXN-18405;RXN-18407;RXNQT-4363
ASD49_20320	Unknown	HOMOSERDEHYDROG-RXN
ASD49_22270	Unknown	2.3.2.13-RXN;RXN-19236
ASD49_27645	Unknown	2.6.1.18-RXN
ASD49_31510	Unknown	ACETYLORNDEACET-RXN;RXN-7933
ASD49_26295	Unknown	CARBPSYN-RXN;GLUTAMIN-RXN;RXN-13202;RXN-14196;RXN-16909;RXN-16910
ASD49_04090	Unknown	RXN-14149
ASD49_03665	Unknown	RXN1A0-6303
ASD49_18435	Unknown	MALTODEXGLUCOSID-RXN;RXN-14281;RXN-14282;RXN-14283;RXN-15910;RXN0-5183
ASD49_20070	Unknown	LIPIDADISACCHARIDESYNTH-RXN
ASD49_29395	Unknown	RXN-9235
ASD49_28760	Unknown	3.2.1.23-RXN;BETAGALACTOSID-RXN
ASD49_03425	Unknown	ADENYLATECYC-RXN
ASD49_13700	Unknown	1.5.1.19-RXN
ASD49_32500	Unknown	ADENYLATECYC-RXN
ASD49_23880	Unknown	RXN-11740
ASD49_19790	ispDF	2.7.7.60-RXN;RXN0-302
ASD49_24020	Unknown	DIHYDRODIPICSYN-RXN
ASD49_22930	Unknown	ADENYLATECYC-RXN
ASD49_14685	Unknown	RXN-11791
ASD49_17040	Unknown	CHD-RXN;RXN0-7230
ASD49_29155	Unknown	NQOR-RXN
ASD49_34305	Unknown	ADENYL-KIN-RXN
ASD49_30620	Unknown	CYTOCHROME-C-OXIDASE-RXN;RXN-15830
ASD49_23650	Unknown	1.13.11.6-RXN
ASD49_30190	Unknown	DNA-DIRECTED-DNA-POLYMERASE-RXN
ASD49_34650	Unknown	PGLYCDEHYDROG-RXN
ASD49_00585	Unknown	TRIOSEPISOMERIZATION-RXN
ASD49_18410	Unknown	6PGLUCONOLACT-RXN
ASD49_06250	Unknown	GLUTRACE-RXN
ASD49_02895	Unknown	GLYCERATE-DEHYDROGENASE-RXN;HYDROXYPYRUVATE-REDUCTASE-RXN
ASD49_32190	Unknown	ACYLCOADEHYDROG-RXN;RXN-17775;RXN-17779;RXN-17783;RXN-17784;RXN-17788;RXN-17792;RXN-17796
ASD49_15675	Unknown	RXN-982
ASD49_02360	Unknown	1.3.99.16-RXN
ASD49_05300	Unknown	3-HYDROXYDECANOYL-ACP-DEHYDR-RXN
ASD49_33740	Unknown	TRANS-RXN-283
ASD49_06380	Unknown	CYTOCHROME-C-OXIDASE-RXN;RXN-15830
ASD49_04605	Unknown	1.8.4.12-RXN
ASD49_26165	Unknown	AIRCARBOXY-RXN
ASD49_30475	Unknown	DNA-DIRECTED-DNA-POLYMERASE-RXN
ASD49_10455	Unknown	DNA-DIRECTED-DNA-POLYMERASE-RXN
ASD49_05495	Unknown	3.2.1.37-RXN
ASD49_21365	Unknown	ALARACECAT-RXN
ASD49_08410	Unknown	S-ADENOSYLHOMOCYSTEINE-DEAMINASE-RXN
ASD49_09330	Unknown	GLUCOSE-1-DEHYDROGENASE-RXN
ASD49_03040	Unknown	RXN0-4641
ASD49_25170	Unknown	3.2.1.14-RXN;RXN-12309
ASD49_12295	Unknown	3-OXOADIPATE-ENOL-LACTONASE-RXN;RXN-10083
ASD49_05475	Unknown	RXN0-5410
ASD49_08720	Unknown	3-ISOPROPYLMALDEHYDROG-RXN;RXN-13158;RXN-14986;RXN-18200;RXN-18202;RXN-18204;RXN-18206;RXN-18208;RXN-18210;RXNQT-4165;RXNQT-4168;RXNQT-4171;RXNQT-4174;RXNQT-4178
ASD49_19285	Unknown	5.3.1.17-RXN
ASD49_26995	Unknown	RXN-11109
ASD49_16030	Unknown	ASPAMINOTRANS-RXN;RXN-10814;RXN-11737;RXN-13697
ASD49_19275	Unknown	4.2.1.41-RXN
ASD49_14585	Unknown	RIBOFLAVIN-SYN-RXN
ASD49_10370	Unknown	CARBODEHYDRAT-RXN;RXN0-5224
ASD49_00840	Unknown	UDP-NACMURALGLDAPAALIG-RXN
ASD49_05750	Unknown	RXN0-2584
ASD49_33875	Unknown	R4-RXN
ASD49_26280	Unknown	RXN0-5021
ASD49_28350	Unknown	GUANYLCYC-RXN
ASD49_07175	Unknown	GLUC1PURIDYLTRANS-RXN
ASD49_10560	Unknown	5.99.1.3-RXN
ASD49_25615	Unknown	RXN0-5100
ASD49_17805	Unknown	RXN-8102
ASD49_19340	Unknown	ARYLESTERASE-RXN
ASD49_20145	Unknown	ARGININE--TRNA-LIGASE-RXN
ASD49_12500	Unknown	4-HYDROXYPROLINE-EPIMERASE-RXN
ASD49_33025	Unknown	ACYLCOADEHYDROG-RXN;RXN-17775;RXN-17779;RXN-17783;RXN-17784;RXN-17788;RXN-17792;RXN-17796
ASD49_16615	Unknown	1.8.4.12-RXN
ASD49_02850	Unknown	RXN-14014
ASD49_32920	Unknown	RXN-17954;RXN-17957;RXN0-6732
ASD49_14045	Unknown	CYSTEINE--TRNA-LIGASE-RXN
ASD49_21820	Unknown	2.1.1.133-RXN
ASD49_31685	Unknown	AGMATIN-RXN
ASD49_01840	Unknown	ARGINASE-RXN;RXN-34
ASD49_17360	Unknown	DIOHBUTANONEPSYN-RXN
ASD49_25690	Unknown	FORMIMINOGLUTAMATE-DEIMINASE-RXN
ASD49_31890	Unknown	PROTEIN-KINASE-RXN
ASD49_22385	Unknown	MYO-INOSITOL-1OR-4-MONOPHOSPHATASE-RXN;RXN-7253;RXN0-5408
ASD49_07070	Unknown	DTDPDEHYDRHAMEPIM-RXN
ASD49_26805	Unknown	2.6.1.18-RXN
ASD49_06325	Unknown	FGAMSYN-RXN
ASD49_07450	Unknown	RXN0-5268
ASD49_05305	Unknown	2.3.1.41-RXN;3-OXOACYL-ACP-SYNTH-BASE-RXN;3-OXOACYL-ACP-SYNTH-RXN;RXN-10059;RXN-10654;RXN-10658;RXN-11474;RXN-11479;RXN-16615;RXN-16621;RXN-16625;RXN-16629;RXN-9516;RXN-9523;RXN-9527;RXN-9531;RXN-9535;RXN-9539;RXN-9632;RXN-9648;RXN-9650;RXN-9651;RXN-9652;RXN-9653;RXN-9654;RXN0-2141;RXN1G-368;RXN1G-445;RXN1G-460;RXN1G-499;RXN3O-1803
ASD49_25955	Unknown	RXN0-4261
ASD49_33375	Unknown	RXN0-5131
ASD49_20035	Unknown	CDPDIGLYSYN-RXN;RXN0-5515
ASD49_12850	Unknown	ARGINASE-RXN;RXN-34
ASD49_32945	Unknown	RXN-17954;RXN-17957;RXN0-6732
ASD49_16850	Unknown	1.1.1.274-RXN
ASD49_17900	ileS	ISOLEUCINE--TRNA-LIGASE-RXN
ASD49_20610	glnA	GLUTAMINESYN-RXN
ASD49_31675	Unknown	2.6.1.57-RXN;ASPAMINOTRANS-RXN;PHEAMINOTRANS-RXN;RXN-10814;RXN-11737;RXN-13697;RXN-14147;RXN-15200;TYROSINE-AMINOTRANSFERASE-RXN
ASD49_17705	Unknown	3.1.26.4-RXN
ASD49_09295	Unknown	RXN0-5100
ASD49_07065	Unknown	DTDPGLUCDEHYDRAT-RXN
ASD49_17850	Unknown	MYO-INOSITOL-1OR-4-MONOPHOSPHATASE-RXN;RXN-7253;RXN0-5408
ASD49_00405	Unknown	ACYLCOASYN-RXN;LINOLENOYL-RXN;R223-RXN;RXN-12184;RXN-12702;RXN-12746;RXN-12978;RXN-13290;RXN-13614;RXN-16380;RXN-16389;RXN-16393;RXN-16401;RXN-16402;RXN-16415;RXN-16418;RXN-7904;RXN-9623;RXN-9644;RXN-9673;RXN0-7238;RXN0-7239;RXN0-7248;RXN66-469;RXN66-477;RXN66-480;RXN66-483;RXN66-484;TRANS-RXN0-623
ASD49_19400	Unknown	RXN-17884;RXN-2962
ASD49_09645	Unknown	DNA-DIRECTED-DNA-POLYMERASE-RXN;RXN0-4961
ASD49_00910	Unknown	UDPACYLGLCNACDEACETYL-RXN
ASD49_10575	Unknown	RXN0-5433
ASD49_06445	Unknown	2.7.1.148-RXN
ASD49_29590	Unknown	GLYRIBONUCSYN-RXN
ASD49_13845	Unknown	DNA-DIRECTED-RNA-POLYMERASE-RXN
ASD49_01040	Unknown	RXN0-4261
ASD49_26920	lldD	L-LACTATE-DEHYDROGENASE-CYTOCHROME-RXN
ASD49_30865	Unknown	RXN0-5131
ASD49_07060	Unknown	DTDPDEHYRHAMREDUCT-RXN
ASD49_01725	Unknown	4OHBENZOATE-OCTAPRENYLTRANSFER-RXN
ASD49_23615	Unknown	5.3.1.23-RXN
ASD49_26050	pgk	PHOSGLYPHOS-RXN
ASD49_23350	Unknown	3.1.4.14-RXN
ASD49_10640	Unknown	PRAISOM-RXN
ASD49_13060	Unknown	XYLULOKIN-RXN
ASD49_28710	Unknown	RXN-12093
ASD49_07290	Unknown	R4-RXN
ASD49_23815	Unknown	RXN-8665
ASD49_27740	Unknown	ADENYLATECYC-RXN
ASD49_19565	Unknown	RXN-13853
ASD49_02685	Unknown	CYTIDEAM-RXN;CYTIDEAM2-RXN
ASD49_08315	Unknown	RXN3DJ-170;RXN66-221
ASD49_10235	Unknown	GLYCERATE-DEHYDROGENASE-RXN;HYDROXYPYRUVATE-REDUCTASE-RXN;RXN0-300
ASD49_00850	murD	UDP-NACMURALA-GLU-LIG-RXN
ASD49_18750	Unknown	RXN-12513
ASD49_16960	Unknown	GSHTRAN-RXN;GST-RXN;RXN-11663;RXN-13673;RXN-15680;RXN-18405;RXN-18407;RXNQT-4363
ASD49_14345	Unknown	RXN-18694;RXN-8342
ASD49_26505	Unknown	AMINOCYL-TRNA-HYDROLASE-RXN;RXN-16637
ASD49_21455	Unknown	2.7.13.3-RXN
ASD49_03520	Unknown	ACETYLPUTRESCINE-DEACETYLASE-RXN
ASD49_32355	Unknown	2-HALOACID-DEHALOGENASE-RXN
ASD49_16215	Unknown	RXN-9384
ASD49_07440	Unknown	RXN0-5268
ASD49_20805	Unknown	ETHAMLY-RXN
ASD49_18785	Unknown	RXN-18397
ASD49_27185	Unknown	DTDPDEHYDRHAMEPIM-RXN
ASD49_17100	Unknown	PRPPSYN-RXN
ASD49_08305	Unknown	ADENYLATECYC-RXN
ASD49_33140	Unknown	2.7.13.3-RXN
ASD49_22525	Unknown	2.9.1.1-RXN
ASD49_17770	Unknown	3-OXOACYL-ACP-REDUCT-RXN;RXN-10060;RXN-10655;RXN-10659;RXN-11476;RXN-11480;RXN-13008;RXN-16616;RXN-16622;RXN-16626;RXN-16630;RXN-9514;RXN-9518;RXN-9524;RXN-9528;RXN-9532;RXN-9536;RXN-9540;RXN-9552;RXN-9556;RXN-9633;RXN0-2142;RXN1G-157;RXN1G-349;RXN1G-469;RXN1G-508
ASD49_12335	Unknown	CITSYN-RXN
ASD49_19090	Unknown	RXN-8529
ASD49_10765	Unknown	PRIBFAICARPISOM-RXN
ASD49_01205	Unknown	ATPASE-RXN
ASD49_00415	Unknown	OHACYL-COA-DEHYDROG-RXN;RXN-10698;RXN-10702;RXN-10703;RXN-11245;RXN-11662;RXN-12490;RXN-12570;RXN-12705;RXN-12750;RXN-16133;RXN-17777;RXN-17781;RXN-17786;RXN-17790;RXN-17794;RXN-17798;RXN0-2044
ASD49_09400	Unknown	RXN-14971;RXN-15378;SUCCINATE-DEHYDROGENASE-UBIQUINONE-RXN
ASD49_20575	Unknown	RXN0-4261
ASD49_21720	Unknown	MALEYLACETOACETATE-ISOMERASE-RXN
ASD49_23405	Unknown	3.1.3.16-RXN
ASD49_33485	Unknown	GLUCONOLACT-RXN;RXN-8783
ASD49_00570	Unknown	2-HALOACID-DEHALOGENASE-RXN;3.8.1.11-RXN;RXN-6263;RXN-6264
ASD49_23890	Unknown	ENOYL-COA-HYDRAT-RXN;METHYLACYLYLCOA-HYDROXY-RXN;RXN-10697;RXN-10704;RXN-10705;RXN-11244;RXN-12567;RXN-13616;RXN-14266;RXN-14272;RXN-14273;RXN-16135;RXN-16558;RXN-17114;RXN-17475;RXN-17776;RXN-17780;RXN-17785;RXN-17789;RXN-17793;RXN-17797;RXN-2425;RXN0-5393;TIGLYLCOA-HYDROXY-RXN
ASD49_20670	Unknown	RXN-15122;THREDEHYD-RXN
ASD49_08635	Unknown	ACONITATEDEHYDR-RXN;ACONITATEHYDR-RXN;RXN-14047
ASD49_27220	Unknown	CDP-GLUCOSE-46-DEHYDRATASE-RXN
ASD49_21805	Unknown	2.1.1.131-RXN
ASD49_33195	Unknown	FMNREDUCT-RXN;NADPH-DEHYDROGENASE-FLAVIN-RXN;RXN-12444
ASD49_17855	Unknown	325-BISPHOSPHATE-NUCLEOTIDASE-RXN
ASD49_01610	Unknown	ISOCHORMAT-RXN
ASD49_27200	Unknown	1.14.11.18-RXN;RXN66-470
ASD49_09235	Unknown	1.5.1.9-RXN
ASD49_13575	Unknown	3-OXOADIPATE-COA-TRANSFERASE-RXN;RXN-10085
ASD49_00185	Unknown	METHIONINE-GAMMA-LYASE-RXN;RXN-14301
ASD49_03415	Unknown	PHOSMANMUT-RXN
ASD49_19725	eno	2PGADEHYDRAT-RXN
ASD49_30085	Unknown	NQOR-RXN
ASD49_02710	Unknown	ADDALT-RXN;ADENODEAMIN-RXN
ASD49_32460	Unknown	RXN1A0-6303
ASD49_23975	Unknown	PYRNUTRANSHYDROGEN-RXN;TRANS-RXN0-277
ASD49_16480	Unknown	2.7.13.3-RXN
ASD49_02790	Unknown	CYTOCHROME-C-OXIDASE-RXN;RXN-15830
ASD49_29570	Unknown	2.7.13.3-RXN
ASD49_09670	Unknown	CITLY-RXN;CITRYLY-RXN;CITTRANS-RXN
ASD49_13345	Unknown	ADENYLATECYC-RXN
ASD49_22255	Unknown	GLYCOGEN-BRANCH-RXN;RXN-14371;RXN-14372;RXN-18777;RXN-7669;RXN-7710
ASD49_15260	Unknown	RXN0-5375
ASD49_05175	Unknown	HOMOCYSMET-RXN;HOMOCYSMETB12-RXN
ASD49_11590	Unknown	ATPASE-RXN
ASD49_03205	Unknown	GLYOXIII-RXN
ASD49_24445	Unknown	2.7.13.3-RXN
ASD49_14130	Unknown	ALARACECAT-RXN
ASD49_01295	Unknown	RXN1A0-6303
ASD49_16645	Unknown	GLYOXIII-RXN
ASD49_04180	Unknown	RXN-9235
ASD49_14570	glyA	GLYOHMETRANS-RXN;RXN0-5234
ASD49_26940	Unknown	ALLANTOINASE-RXN
ASD49_06565	gcvT	GCVT-RXN
ASD49_20535	Unknown	PRTRANS-RXN
ASD49_25055	Unknown	3.5.5.1-RXN;RXN-1404;RXN-17607;RXN-18229
ASD49_19770	Unknown	RXN-14950;RXN-14957;RXN-14959;RXN0-949
ASD49_15895	Unknown	RXN-11135
ASD49_10755	Unknown	HISTPRATPHYD-RXN
ASD49_03965	Unknown	DNA-DIRECTED-DNA-POLYMERASE-RXN
ASD49_14105	Unknown	PHOSPHASERSYN-RXN
ASD49_17470	Unknown	3.1.11.6-RXN
ASD49_33985	Unknown	3-OXOADIPATE-ENOL-LACTONASE-RXN;RXN-10083
ASD49_25090	Unknown	GLUTAMATE-N-ACETYLTRANSFERASE-RXN;N-ACETYLTRANSFER-RXN;RXN0-6948
ASD49_13925	Unknown	ATPASE-RXN
ASD49_14810	clpP	3.4.21.92-RXN
ASD49_10525	Unknown	RXN0-4961
ASD49_21815	Unknown	2.1.1.132-RXN;RXN-13824;RXN-13826
ASD49_21790	Unknown	R321-RXN
ASD49_14580	Unknown	RIBOFLAVINSYNDEAM-RXN;RIBOFLAVINSYNREDUC-RXN
ASD49_28865	Unknown	CHLORIDE-PEROXIDASE-RXN
ASD49_01170	Unknown	PSERPHOSPHA-RXN;RXN0-5114
ASD49_23050	Unknown	2.7.13.3-RXN
ASD49_21750	Unknown	1.2.1.25-RXN;1.2.4.4-RXN;2.3.1.168-RXN;2KETO-3METHYLVALERATE-RXN;2KETO-4METHYL-PENTANOATE-DEHYDROG-RXN;ISOVALERYLCOA-DHLIPOAMIDE-RXN;KETOISOCAPROATE-RXN;MBCOA-DHLIPOAMIDE-RXN;METHYLVALERATE-RXN;RXN-7719
ASD49_06895	Unknown	2.7.13.3-RXN
ASD49_20720	Unknown	ACSERLY-RXN;RXN-12726
ASD49_26055	Unknown	F16ALDOLASE-RXN;RXN-8631
ASD49_16020	Unknown	RXN0-5268
ASD49_17295	Unknown	HOMOSERKIN-RXN
ASD49_01120	Unknown	THYMIDYLATESYN-RXN
ASD49_10880	Unknown	ADENYL-KIN-RXN
ASD49_00955	Unknown	3-CH3-2-OXOBUTANOATE-OH-CH3-XFER-RXN;RXN-15635
ASD49_05465	Unknown	GLUCISOM-RXN;XYLISOM-RXN
ASD49_21800	Unknown	2.1.1.130-RXN
ASD49_16785	Unknown	SUPEROX-DISMUT-RXN
ASD49_12650	Unknown	2.8.1.6-RXN;RXN-17472;RXN-17473
ASD49_32710	Unknown	1.14.13.8-RXN
ASD49_05270	Unknown	4.1.1.81-RXN
ASD49_17600	Unknown	GLYRIBONUCSYN-RXN
ASD49_11785	Unknown	RXN-17155
ASD49_24010	Unknown	ACSERLY-RXN;RXN-12726
ASD49_10230	Unknown	2.6.1.18-RXN
ASD49_10425	Unknown	R103-RXN
ASD49_17570	ubiA	4OHBENZOATE-OCTAPRENYLTRANSFER-RXN
ASD49_09280	Unknown	RXN0-313;TRANSALDOL-RXN
ASD49_28195	Unknown	DIHYDRODIPICSYN-RXN
ASD49_17310	Unknown	CYTOCHROME-C-OXIDASE-RXN;RXN-15830
ASD49_17070	Unknown	1.8.4.8-RXN
ASD49_01710	Unknown	4.3.1.17-RXN;RXN-15122;RXN-15125;THREDEHYD-RXN
ASD49_00280	Unknown	AMINOBUTDEHYDROG-RXN
ASD49_16635	Unknown	ADOMET-DMK-METHYLTRANSFER-RXN
ASD49_30755	Unknown	ADENYLATECYC-RXN
ASD49_06005	Unknown	MALIC-NADP-RXN;OXALODECARB-RXN
ASD49_17520	Unknown	GLYOXIII-RXN
ASD49_07980	Unknown	RXN-15849;RXN-7563
ASD49_09630	Unknown	RXN0-5510
ASD49_04095	Unknown	5-DEHYDRO-2-DEOXYGLUCONOKINASE-RXN
ASD49_03930	Unknown	GSHTRAN-RXN;GST-RXN;RXN-11663;RXN-13673;RXN-15680;RXN-18405;RXN-18407;RXNQT-4363
ASD49_00560	Unknown	N-ACYLMANNOSAMINE-1-DEHYDROGENASE-RXN
ASD49_09845	Unknown	CHORISMATEMUT-RXN
ASD49_19435	Unknown	3.5.1.27-RXN;3.5.1.88-RXN
ASD49_01845	Unknown	THIOREDOXIN-REDUCT-NADPH-RXN
ASD49_15015	Unknown	DNA-DIRECTED-DNA-POLYMERASE-RXN
ASD49_18360	Unknown	ISOCIT-CLEAV-RXN
ASD49_10820	Unknown	MALSYN-RXN
ASD49_06070	Unknown	FMNREDUCT-RXN;NADPH-DEHYDROGENASE-FLAVIN-RXN;RXN-12444
ASD49_04630	rnpA	3.1.26.5-RXN;RXN0-6480
ASD49_01345	Unknown	NITRILE-HYDRATASE-RXN;R310-RXN;R313-RXN;RXN-14725;RXN-14726;RXN-17609;RXN-7567
ASD49_20655	Unknown	2-HALOACID-DEHALOGENASE-RXN;3.8.1.11-RXN;RXN-6263;RXN-6264
ASD49_00575	Unknown	ERYTH4PDEHYDROG-RXN
ASD49_06295	Unknown	MYO-INOSITOL-1OR-4-MONOPHOSPHATASE-RXN;RXN-7253;RXN0-5408
ASD49_05720	Unknown	COBALAMIN5PSYN-RXN;COBALAMINSYN-RXN;RXN-19296;RXN-19297;RXN-19302;RXN-19303;RXN-19304;RXN-19305;RXN-19307;RXN-19308
ASD49_31615	Unknown	GLUTAMINESYN-RXN
ASD49_06730	Unknown	2.7.7.33-RXN
ASD49_23410	Unknown	MYO-INOSITOL-1OR-4-MONOPHOSPHATASE-RXN;RXN-7253;RXN0-5408
ASD49_14980	Unknown	PROLINE--TRNA-LIGASE-RXN
ASD49_27455	Unknown	DIHYDROURACIL-DEHYDROGENASE-NAD+-RXN;RXN0-6565
ASD49_11395	Unknown	2.7.13.3-RXN
ASD49_19600	Unknown	5.99.1.2-RXN
ASD49_32345	Unknown	3-ISOPROPYLMALDEHYDROG-RXN;RXN-13158;RXN-14986;RXN-18200;RXN-18202;RXN-18204;RXN-18206;RXN-18208;RXN-18210;RXNQT-4165;RXNQT-4168;RXNQT-4171;RXNQT-4174;RXNQT-4178
ASD49_16915	Unknown	2.7.13.3-RXN
ASD49_14895	Unknown	1.6.99.5-RXN;NADH-DEHYDROGENASE-QUINONE-RXN
ASD49_05770	Unknown	2-OCTAPRENYL-6-OHPHENOL-METHY-RXN;DHHB-METHYLTRANSFER-RXN
ASD49_03625	Unknown	2.7.13.3-RXN
ASD49_10470	Unknown	RXN-11578
ASD49_11440	Unknown	GUANINE-DEAMINASE-RXN;RXN-15261
ASD49_33190	Unknown	RXN-13418;RXN-15341;RXN0-280;RXN0-6973
ASD49_18460	Unknown	METHENYLTHFCYCLOHYDRO-RXN;METHYLENETHFDEHYDROG-NADP-RXN
ASD49_12175	fabG	3-OXOACYL-ACP-REDUCT-RXN;RXN-10060;RXN-10655;RXN-10659;RXN-11476;RXN-11480;RXN-13008;RXN-16616;RXN-16622;RXN-16626;RXN-16630;RXN-9514;RXN-9518;RXN-9524;RXN-9528;RXN-9532;RXN-9536;RXN-9540;RXN-9552;RXN-9556;RXN-9633;RXN0-2142;RXN1G-157;RXN1G-349;RXN1G-469;RXN1G-508
ASD49_10710	Unknown	PROTEIN-KINASE-RXN
ASD49_14115	Unknown	PRPPAMIDOTRANS-RXN
ASD49_33185	Unknown	GLYOXII-RXN;RXN-7919
ASD49_14050	Unknown	GLYOXIII-RXN
ASD49_14465	Unknown	ADENYLATECYC-RXN
ASD49_31550	Unknown	CYTOCHROME-C-OXIDASE-RXN;RXN-15830
ASD49_23125	Unknown	1.13.11.15-RXN
ASD49_32410	Unknown	F16ALDOLASE-RXN;RXN-10053;RXN-8631
ASD49_02840	Unknown	GLUCOKIN-RXN;HEXOKINASE-RXN
ASD49_02705	Unknown	URACIL-PRIBOSYLTRANS-RXN
ASD49_12710	Unknown	N-FORMYLGLUTAMATE-DEFORMYLASE-RXN
ASD49_16360	Unknown	ATPASE-RXN
ASD49_10590	Unknown	GALACTONDEHYDRAT-RXN
ASD49_09865	Unknown	DIAMINOPIMEPIM-RXN
ASD49_17365	Unknown	CHORISMATE-SYNTHASE-RXN
ASD49_01475	Unknown	ASPARTATE-RACEMASE-RXN
ASD49_17955	Unknown	HISTIDINE--TRNA-LIGASE-RXN
ASD49_05725	Unknown	DMBPPRIBOSYLTRANS-RXN;RXN-19295;RXN-19298;RXN-19299;RXN-19300;RXN-19301;RXN-19306
ASD49_25600	Unknown	3-DEHYDROQUINATE-SYNTHASE-RXN
ASD49_01525	Unknown	RXN-19040;RXN0-6359;THIOSULFATE-SULFURTRANSFERASE-RXN
ASD49_04415	Unknown	RXN-14480;RXN-14481;RXN0-5063
ASD49_18900	Unknown	PMPOXI-RXN;PNPOXI-RXN
ASD49_28170	Unknown	DIHYDRODIPICSYN-RXN
ASD49_32415	Unknown	F16BDEPHOS-RXN
ASD49_25010	Unknown	ASPARTATEKIN-RXN
ASD49_17480	Unknown	DXS-RXN
ASD49_16060	Unknown	DIHYDROOROTATE-DEHYDROGENASE-RXN;RXN0-6491;RXN0-6554
ASD49_03200	Unknown	PREPHENATEDEHYDRAT-RXN
ASD49_03925	Unknown	RXN-12104
ASD49_27385	Unknown	2.7.13.3-RXN
ASD49_06490	Unknown	RXN0-4621
ASD49_25605	Unknown	SHIKIMATE-KINASE-RXN
ASD49_27090	Unknown	MYO-INOSITOL-2-DEHYDROGENASE-RXN
ASD49_25095	Unknown	PEPTIDYLPROLYL-ISOMERASE-RXN
ASD49_09420	Unknown	1.10.2.2-RXN;RXN-15829
