dbRef_id	Common name	Produced (p), Consumed (c), Both (cp)
CPD-13524	all-trans-retinol	p
Short-glucans	a short glucan	cp
CPD-17926	a nascent peptidoglycan with (L-alanyl-&gamma;-D-glutamyl-meso-2,6-diaminopimeloyl-D-alanine) tetrapeptide	p
CPD-17927	a nascent peptidoglycan with (L-alanyl-&gamma;-D-glutamyl-meso-2,6-diaminopimeloyl-D-alanyl-D-alanine) pentapeptide	cp
L-GLUTAMATE_GAMMA-SEMIALDEHYDE	L-glutamate-5-semialdehyde	p
CPD-17931	a peptidoglycan with (L-alanyl-&gamma;-D-glutamyl-meso-2,6-diaminopimeloyl-D-alanine) tetrapeptide	c
CPD-12179	methylmalonate semialdehyde	c
CPD-17932	a nascent peptidoglycan with D,D cross-links (meso-diaminopimelate containing)	p
ETF-Reduced	a reduced electron-transfer flavoprotein	cp
LYS	L-lysine	cp
CPD-12199	3S-(4-hydroxyphenyl)-3-hydroxy-propanoyl-CoA	p
Sialyloligosaccharides	a sialyloligosaccharide	c
LYS-tRNAs	a tRNALys	c
CPD-13533	(3R)-3-hydroxypentanoyl-CoA	c
C4	undecaprenyl-diphospho-N-acetylmuramoyl-L-alanyl-&gamma;-D-glutamyl-L-lysyl- D-alanyl-D-alanine	c
7-8-DIHYDROPTEROATE	7,8-dihydropteroate	c
OXYGEN-MOLECULE	oxygen	cp
ETHANOL-AMINE	ethanolamine	cp
CPD-122	(S)-mandelate	p
Single-Stranded-DNAs	a single stranded DNA	cp
CPD-13534	3-oxopentanoyl-CoA	cp
Cellodextrins	a cellodextrin	p
L-GULONATE	L-gulonate	p
C5	undecaprenyldiphospho-N-acetylmuramoyl-L-alanyl-&gamma;-D-glutamyl-meso-2,6-diaminopimeloyl-D-alanyl-D-alanine	cp
PHENYLACETOTHIOHYDROXIMATE	(Z)-N-hydroxy-2-phenylacetimidothioate	cp
CPD-12230	a peptidoglycan with D,D cross-link (S. aureus)	p
CPD-13575	2-[(2R,5Z)-2-carboxy-4-methylthiazol-5(2H)-ylidene]ethyl phosphate	p
Soluble-Heteroglycans	a plant soluble heteroglycan	cp
C6	ditrans,octacis-undecaprenyldiphospho-[(N-acetyl-&beta;-D-glucosaminyl)-(1,4)-]-N-acetyl-&alpha;-D-muramoyl-L-alanyl-&gamma;-D-glutamyl-meso-2,6-diaminopimeloyl-D-alanyl-D-alanine	cp
CPD-18	linoleoyl-CoA	p
CPD-12231	a peptidoglycan dimer (meso-diaminopimelate containing)	c
XYLULOSE-5-PHOSPHATE	D-xylulose 5-phosphate	cp
Charged-ALA-tRNAs	an L-alanyl-[tRNAAla]	p
PHENYLHYDANTOIN	phenylhydantoin	c
Charged-ARG-tRNAs	an L-arginyl-[tRNAArg]	cp
GUANOSINE	guanosine	cp
SHIKIMATE	shikimate	cp
CPD-12259	a peptidoglycan dimer (S. aureus)	c
L-GULONO-1-4-LACTONE	L-gulono-1,4-lactone	c
CADAVERINE	cadaverine	p
7-AMINOMETHYL-7-DEAZAGUANINE	preQ1	cp
CPD-18118	D-arabinofuranose 5-phosphate	c
GUANOSINE-5DP-3DP	ppGpp	cp
CPD-13644	N5-acetyl-L-ornithine	p
CPD-12261	a peptidoglycan with D,D cross-links (meso-diaminopimelate containing)	p
Starch	starch	p
Octanoyl-ACPs	an octanoyl-[acp]	c
CPD-12279	2-iminoacetate	c
Charged-CYS-tRNAs	an L-cysteinyl-[tRNACys]	cp
Octanoylated-Gcv-H	a [glycine-cleavage complex H protein] N6-octanoyl-L-lysine	cp
CPD-13699	3,22-dioxochol-4-en-24-oyl-CoA	c
L-Glutamyl-Peptides	an N-terminal L-glutamyl-[protein]	c
Octanoylated-domains	a [lipoyl-carrier protein] N6-octanoyl-L-lysine	cp
CPD-36	4-deoxy-&beta;-D-gluc-4-enuronosyl-(1,3)-N-acetyl-D-galactosamine	c
CPD-3617	decanoate	c
Stearoyl-ACPs	a stearoyl-[acp]	c
Charged-GLN-tRNAs	an L-glutaminyl-[tRNAGln]	p
CPD-3618	2-oxovalerate	p
Odd-Saturated-Fatty-Acyl-CoA	an odd numbered straight chain 2,3,4-saturated fatty acyl CoA	p
Charged-GLT-tRNAs	an L-glutamyl-[tRNAGlu]	c
TUM1-L-cysteine	a [3-mercaptopyruvate sulfurtransferase]-L-cysteine	cp
CPD0-881	N-acetyl-D-muramate 6-phosphate	cp
Odd-Straight-Chain-234-Sat-FA	an odd numbered straight chain 2,3,4-saturated fatty acid	c
TUM1-S-sulfanylcysteine	a [3-mercaptopyruvate sulfurtransferase]-S-sulfanyl-L-cysteine	cp
IMINOASPARTATE	2-iminosuccinate	cp
TYR	L-tyrosine	cp
Charged-HIS-tRNAs	an L-histidyl-[tRNAHis]	p
GLY	glycine	cp
TYR-tRNAs	a tRNATyr	c
CPD0-882	1,6-anhydro-N-acetyl-&beta;-muramate	cp
NADP	NADP+	cp
Charged-ILE-tRNAs	an L-isoleucyl-[tRNAIle]	p
2-AMINOACRYLATE	2-aminoprop-2-enoate	p
PYRIDOXAL	pyridoxal	c
ALLO-THR	DL-allothreonine	c
Oleoyl-ACPs	an oleoyl-[acp]	c
Charged-LEU-tRNAs	an L-leucyl-[tRNALeu]	cp
3-Oxo-octanoyl-ACPs	a 3-oxo-octanoyl-[acp]	cp
Oleoyl-lipid	a [glycerolipid]-oleate	c
Charged-LYS-tRNAs	an L-lysyl-[tRNALys]	p
GLYCERALD	D-glyceraldehyde	p
PYRIDOXAL_PHOSPHATE	pyridoxal 5'-phosphate	p
Charged-MET-tRNAs	an L-methionyl-[elongator tRNAMet]	p
CPD0-903	N-ethylsuccinimide	p
ALLYSINE	(S)-2-amino-6-oxohexanoate	p
DIHYDROPTERIN-CH2OH-PP	(7,8-dihydropterin-6-yl)methyl diphosphate	p
3-Oxosteroids	a 3-oxosteroid	cp
Charged-PHE-tRNAs	an L-phenylalanyl-[tRNAPhe]	c
CPD-37	5-dehydro-4-deoxy-D-glucuronate	cp
ALPHA-D-GALACTOSE	&alpha;-D-galactose	cp
HMP	4-amino-2-methyl-5-pyrimidinemethanol	c
GLYCERATE	D-glycerate	cp
CPD-3734	thiophosphate	p
3-P-HYDROXYPYRUVATE	3-phosphooxypyruvate	cp
IMP	IMP	cp
Charged-PRO-tRNAs	an L-prolyl-[tRNAPro]	p
CPD0-971	an &alpha;-limit dextrin	cp
Oligonucleotides	an oligonucleotide	c
3-P-SERINE	3-phospho-L-serine	cp
2-AMINOBENZOYL-COA	anthraniloyl-CoA	p
CPD1F-2	(-)-methyl jasmonate	c
Charged-SER-tRNAs	an L-seryl-[tRNAser]	p
CPD-3740	djenkolate	c
CPD-3744	1-butanesulfonate	c
NADPH	NADPH	cp
Oligosaccharides	an oligosaccharide	p
Charged-THR-tRNAs	an L-threonyl-[tRNAThr]	p
ALPHA-GLUCOSE	&alpha;-D-glucopyranose	cp
Charged-TRP-tRNAs	an L-tryptophanyl-[tRNATrp]	p
URACIL	uracil	cp
CPD-9245	palmitoleate	c
CPD-667	O-acetyl-L-homoserine	cp
Charged-TYR-tRNAs	an L-tyrosyl-[tRNATyr]	p
CPD-9247	cis-vaccenate	c
Protein-L-glutamine	a [protein]-L-glutamine	c
7-CYANO-7-DEAZAGUANINE	preQ0	cp
ADENINE	adenine	cp
Charged-VAL-tRNAs	an L-valyl-[tRNAVal]	p
Charged-fMET-tRNAs	an N-formyl-L-methionylaminoacyl-tRNA	c
PRISTANATE	pristanate	c
Protein-L-lysine	a [protein]-L-lysine	c
1-CHLORO-24-DINITROBENZENE	1-chloro-2,4-dinitrobenzene	cp
KDO-LIPID-IVA	&alpha;-Kdo-(2&rarr;6)-lipid IVA	p
Protein-L-methionine	a [protein]-L-methionine	cp
CPD-9451	2-isopropylmaleate	cp
Protein-L-methionine-R-S-oxides	a protein-L-methionine-(R)-S-oxide	cp
CPD-67	2-phosphoglycolate	c
Fatty-Acids	a fatty acid	p
CPD-6746	1D-myo-inositol 2-monophosphate	c
1-KETO-2-METHYLVALERATE	(R)-2,3-dihydroxy-3-methylpentanoate	cp
Protein-L-serine-or-L-threonine	a [protein]-(L-serine/L-threonine)	cp
PRO	L-proline	cp
CPD-678	hydrogen selenide	c
KDO2-LAUROYL-LIPID-IVA	&alpha;-Kdo-(2->4)-&alpha;-Kdo-(2->6)-(lauroyl)-lipid IVA	c
7Z-3-oxo-hexadec-7-enoyl-ACPs	a (7Z)-3-oxo-hexadec-7-enoyl-[acp]	cp
PRO-tRNAs	a tRNAPro	c
7Z-hexadec-7-enoyl-ACPs	a (7Z)-hexadec-7-enoyl-[acp]	c
HOMO-CYS	L-homocysteine	cp
1-L-MYO-INOSITOL-1-P	1D-myo-inositol 3-monophosphate	c
CPD-9612	caldariellaquinone	c
Chitosan	chitosan	c
8-AMINO-7-OXONONANOATE	8-amino-7-oxononanoate	p
Arachidoyl-ACPs	an arachidoyl-[acp]	c
Gcv-H	[glycine cleavage system lipoyl-carrier protein]-L-lysine	c
Protein-N-terminal-L-Arginine	an N-terminal arginyl-[protein]	cp
ADENOSINE	adenosine	cp
KDO2-LIPID-A	&alpha;-D-Kdo-(2&rarr;4)-&alpha;-D-Kdo-(2&rarr;6)-lipid A	p
1-PALMITOYLGLYCEROL-3-PHOSPHATE	1-palmitoylglycerol 3-phosphate	p
Chitosan-fragments	a chitosan fragment	p
Aromatic-Amino-Acids	an aromatic amino acid	cp
ADENOSINE_DIPHOSPHATE_RIBOSE	ADP-D-ribose	c
CPD-9646	di-trans,octa-cis-undecaprenyl phosphate	c
Protein-N-terminal-L-Lysine	an N-terminal L-lysyl-[protein]	c
Aromatic-Oxoacids	an aromatic 2-oxo-acid	cp
General-Protein-Substrates	a protein	cp
Protein-N-terminal-L-threonine	an N-terminal L-threonyl-[protein]	p
Chlorides	an organochlorine compound	p
Gentamycins	a gentamicin	cp
URATE	urate	cp
Protein-N6-5-glutamyl-lysine-crosslinks	a protein with an N6-(&gamma;-glutamyl)-L-lysine crosslink	p
HOMO-SER	L-homoserine	cp
CPD-9699	hypoglycin A	c
Protein-N6-5-glutamyl-serotonin	a [protein] N6-[(5-hydroxy-1H-indol-3-yl)ethyl]-L-glutamine	p
GlgE-Glycogen	a GlgE-glycogen	p
CPD-687	hydrogenobyrinate	c
Sulfur-Carrier-Proteins-ThiI	a [ThiI sulfur-carrier protein]-L-cysteine	cp
Ox-Glutaredoxins	an oxidized glutaredoxin	p
ETOH	ethanol	c
Xylans	xylan	c
CPD-13700	3-oxo-4-pregnene-20-carboxyl-CoA	p
Xyloglucan	a xyloglucan	c
CPD-15677	4-trans-undecenoyl-CoA	p
L-HISTIDINOL-P	L-histidinol phosphate	cp
Monocarboxylates	a monocarboxylate	p
METHACRYLYL-COA	methylacrylyl-CoA	cp
Monocarboxylic-Acid-Amides	a monocarboxylic acid amide	c
CPD-13713	adenosine 5'-phosphoselenate	p
Xyloglucan-oligosaccharides	a xyloglucan oligosaccharide	p
Monosaccharides	a monosaccharide	cp
Sulfurated-Sulfur-Acceptors	a sulfurated [sulfur carrier]	cp
Ox-NADPH-Hemoprotein-Reductases	an oxidized [NADPH-hemoprotein reductase]	p
CPD-15678	4-trans-3-oxo-undecenoyl-CoA	c
CPD-1078	CDP-4-dehydro-3,6-dideoxy-D-glucose	p
Ox-Thioredoxin	an oxidized thioredoxin	cp
Sulfurylated-ThiI	a [ThiI sulfur-carrier protein]-S-sulfanyl-L-cysteine	cp
ETR-Quinols	an electron-transfer quinol	cp
CPD-13717	L-selenocystathionine	c
ETR-Quinones	an electron-transfer quinone	cp
CPD-15687	5-cis, 7-trans-3-oxo-tetradecadienoyl-CoA	c
Feruloyl-polysaccharides	a feruloyl-polysaccharide	c
3-DEHYDRO-SHIKIMATE	3-dehydroshikimate	cp
CPD-10791	6-deoxy-5-ketofructose 1-phosphate	p
a-2-oxoglutarate-dehydrogenase-E2-protei	a [2-oxoglutarate-dehydrogenase E2 protein] N6-octanoyl-L-lysine	c
Oxidized-2Fe-2S-Ferredoxins	an oxidized [2Fe-2S] ferredoxin	p
CPD-15688	(3Z,5E)-dodeca-3,5-dienoyl-CoA	p
Oxidized-CycA1-cytochromes	an oxidized CycA1 cytochrome	p
Myristoyl-ACPs	a myristoyl-[acp]	c
a-pyruvate-dehydrogenase-E2-protein-Nsup	a [pyruvate dehydrogenase E2 protein] N6-octanoyl-L-lysine	c
DEOXYINOSINE	2'-deoxyinosine	cp
N-23-DIHYDROXYBENZOYL-L-SERINE	N-(2,3-dihydroxybenzoyl)-L-serine	p
Supercoiled-Duplex-DNAs	a supercoiled duplex DNA	c
ARSENATE	arsenate	c
apo-ACP	an apo-[acyl-carrier protein]	c
L-LACTATE	(S)-lactate	c
CPD-15691	(5E)-3-oxo-dodec-5-enoyl-CoA	c
T2-C4-DECADIENYL-COA	trans-&Delta;2, cis-&Delta;4-decadienoyl-CoA	c
CPD-10806	4-hydroxy-2-nonenal	c
b-Hydroxy-cis-D5-dodecenoyl-ACPs	a (3R,5Z)-3-hydroxy-dodec-5-enoyl-[acp]	p
5-10-METHENYL-THF-GLU-N	a 5,10-methenyltetrahydrofolate	cp
ASN	L-asparagine	c
CPD-13847	UDP-2-acetamido-2,6-dideoxy-&alpha;-D-xylo-hex-4-ulose	cp
b-Keto-cis-D5-dodecenoyl-ACPs	a (5Z)-3-oxo-dodec-5-enoyl-[acp]	cp
CPD-15692	(3E)-dec-3-enoyl-CoA	p
5-AMINO-LEVULINATE	5-aminolevulinate	cp
biotin-L-lysine-in-BCCP-dimers	a [biotin carboxyl-carrier-protein dimer]-N6-biotinyl-L-lysine	cp
N-5-PHOSPHORIBOSYL-ANTHRANILATE	N-(5-phosphoribosyl)-anthranilate	cp
T2-DECENOYL-COA	(2E)-dec-2-enoyl-CoA	cp
N-ACETYL-D-GALACTOSAMINE-6-PHOSPHATE	N-acetyl-D-galactosamine 6-phosphate	c
CPD-1083	(E)-2-methylcrotonoyl-CoA	cp
carboxybiotin-L-lysine-in-BCCP-dimers	a [carboxyl-carrier protein dimer]-N6-carboxybiotinyl-L-lysine	cp
5-BETA-CHOLESTANE-3-ALPHA7-ALPHA12-ALP	5&beta;-cholestane-3&alpha;,7&alpha;,12&alpha;-triol	p
cis-19-CP-37-Mex-38-Me-C59-ACPs	a cis-methoxy-C59-meroacyl-[acp]	p
CPD-15979	D-mannopyranose 6-phosphate	cp
Oxidized-ferredoxins	an oxidized ferredoxin [iron-sulfur] cluster	cp
Elongation-tRNAMet	elongator tRNAMet	c
TARTRATE	L-tartrate	cp
cis-21-CP-39-keto-40-Me-C60-ACPs	a cis-keto-C60-meroacyl-[acp]	p
Light	h&nu;	c
cis-D19-37-MOH-38-Me-C57-1-ACPs	a cis-delta19-37-methoxy-38-methyl-C57:1-[acp]	c
Cis-Delta5-dodecenoyl-ACPs	a (5Z)-dodec-5-enoyl-[acp]	c
CPD-16	phloroglucinol	p
cis-D21-39-oxo-40-Me-C59-1-ACPs	a cis-delta21-39-oxo-40-methyl-C59:1-[acp]	c
Lignoceroyl-ACPs	a lignoceroyl-[acp]	c
L-Methionylaminoacyl-tRNAs	a L-methionylaminoacyl-tRNA	p
Oxidized-flavodoxins	an oxidized flavodoxin	cp
CPD-1828	GDP-&alpha;-D-mannuronate	p
DIHYDROXY-ACETONE-PHOSPHATE	glycerone phosphate	cp
Cis-Delta7-tetradecenoyl-ACPs	a cis-&Delta;7-tetradecenoyl-[acp]	c
CIT	citrate	cp
CPD-12310	a peptidoglycan dimer (E. faeciums)	c
RH-Group	an organic molecule	c
Cis-delta-3-decenoyl-ACPs	a (3Z)-dec-3-enoyl-[acp]	c
DIHYDROXY-BUTANONE-P	1-deoxy-L-glycero-tetrulose 4-phosphate	cp
CPD-18320	5-methylbenzimidazole	c
ADENOSYL-HOMO-CYS	S-adenosyl-L-homocysteine	cp
Cis-vaccenoyl-ACPs	a cis-vaccenoyl-[acp]	c
Oxo-glutarate-dehydro-suc-DH-lipoyl	a [2-oxoglutarate dehydrogenase E2 protein] N6-S-succinyldihydrolipoyl-L-lysine	cp
UREA	urea	cp
ADENOSYL-P4	5',5'''-diadenosine tetraphosphate	c
Oxo-glutarate-dehydrogenase-DH-lipoyl	a [2-oxoglutarate dehydrogenase E2 protein] N6-dihydrolipoyl-L-lysine	cp
CPD-18321	5-methoxybenzimidazole	c
RHAMNOSE	&alpha;-L-rhamnopyranose	c
CAMP	cyclic-AMP	p
CPD-12311	a peptidoglycan with D,D cross-link (E. faecium)	p
CANAVANINE	L-canavanine	cp
CPD-19761	2,6-dichloro-3-(glutathione-S-yl)-hydroquinone	p
Oxo-glutarate-dehydrogenase-lipoyl	a [2-oxoglutarate dehydrogenase E2 protein] N6-lipoyl-L-lysine	cp
CPD-18346	cis-vaccenoyl-CoA	cp
CPD-12365	8-oxo-dGMP	p
CPD-19763	2,3,5-trichloro-6-(glutathione-S-yl)-hydroquinone	p
CPD-18348	1-cis-vaccenoylglycerol-3-phosphate	p
ADENOSYLCOBALAMIN	adenosylcobalamin	p
GLUCONATE	D-gluconate	cp
RIBOFLAVIN	riboflavin	cp
CPD-18379	1-myristoylglycerol 3-phosphate	p
CPD-19833	roseoflavin	c
P-AMINO-BENZOATE	4-aminobenzoate	cp
ADENOSYLCOBINAMIDE	adenosylcobinamide	p
CANAVANINOSUCCINATE	canavaninosuccinate	cp
CPD-19839	roseoflavin 5'-phosphate	cp
CARBAMATE	carbamate	p
CPD-184	2-pyrone-4,6-dicarboxylate	c
P-COUMAROYL-COA	4-coumaroyl-CoA	c
CL-	chloride	cp
CPD-12427	7,8-dihydro-8-oxoguanine	p
CPD-19840	roseoflavin adenine dinucleotide	p
CPD1F-437	quercetin-3-glucoside	p
PYRIDOXAMINE-5P	pyridoxamine 5'-phosphate	c
PROPIONAMIDE	propionamide	c
GLYCEROL	glycerol	cp
NALPHANALPHA-DIMETHYL-L-HISTIDINE	N&alpha;,N&alpha;-dimethyl-L-histidine	cp
CPD66-21	leukotriene-D4	p
3-alpha-Hydroxysteroids	a 3&alpha;-hydroxysteroid	cp
3-DEOXY-D-ARABINO-HEPTULOSONATE-7-P	3-deoxy-D-arabino-heptulosonate 7-phosphate	cp
CPD-688	hydrogenobyrinate a,c-diamide	p
GLYCEROL-3P	sn-glycerol 3-phosphate	cp
PROPIONATE	propanoate	cp
3-hydroxy-cis-D7-tetraecenoyl-ACPs	a (3R)-3-hydroxy cis &Delta;7-tetradecenoyl-[acp]	p
CPD66-39	a 2,3,4-saturated fatty acid	c
CPD-689	cob(II)yrinate a,c-diamide	p
3-hydroxy-cis-D9-hexaecenoyl-ACPs	a (3R)-3-hydroxy cis &Delta;9-hexadecenoyl-[acp]	p
3-hydroxypimeloyl-ACP-methyl-esters	a (3R)-3-hydroxypimeloyl-[acp] methyl ester	p
CPDQT-27	6-(methylthio)-2-oxohexanoate	p
P-HYDROXY-PHENYLPYRUVATE	4-hydroxyphenylpyruvate	cp
3-oxo-arachidoyl-ACPs	a 3-oxo-arachidoyl-[acp]	cp
NARINGENIN-7-O-BETA-D-GLUCOSIDE	prunin	p
CPDQT-28	7-(methylthio)-2-oxoheptanoate	p
3-oxo-behenoyl-ACPs	a 3-oxo-behenoyl-[acp]	cp
CPD-69	cyanate	c
PYRIDOXINE-5P	pyridoxine 5'-phosphate	cp
CPD-690	adenosyl-cobyrinate a,c-diamide	cp
3-oxo-cerotoyl-ACPs	a 3-oxo-cerotoyl-[acp]	cp
CPDQT-29	8-(methylthio)-2-oxooctanoate	p
3-oxo-cis-D7-tetradecenoyl-ACPs	a 3-oxo-cis-&Delta;7-tetradecenoyl-[acp]	cp
3-ENOLPYRUVYL-SHIKIMATE-5P	5-enolpyruvoyl-shikimate 3-phosphate	cp
3-oxo-cis-D9-hexadecenoyl-ACPs	a 3-oxo-cis-&Delta;9-hexadecenoyl-[acp]	cp
CPDQT-30	9-(methylthio)-2-oxononanoate	p
3-HYDROXY-3-METHYL-GLUTARYL-COA	(S)-3-hydroxy-3-methylglutaryl-CoA	c
P-NITROPHENOL	4-nitrophenol	p
3-oxo-cis-vaccenoyl-ACPs	a 3-oxo-cis-vacc-11-enoyl-[acp]	cp
CPD-691	adenosylcobyrate	p
3-oxo-decanoyl-ACPs	a 3-oxo-decanoyl-[acp]	cp
NARINGIN	naringin	c
CPDQT-36	3-[(3'-methylthio)propyl]malate	cp
3-oxo-dodecanoyl-ACPs	a 3-oxo-dodecanoyl-[acp]	cp
CPD-694	cob(I)yrinate a,c-diamide	c
3-oxo-hexanoyl-ACPs	a 3-oxo-hexanoyl-[acp]	cp
3-HYDROXY-ANTHRANILATE	3-hydroxyanthranilate	p
CPDQT-37	3-[(4'-methylthio)butyl]malate	cp
PROPIONYL-COA	propanoyl-CoA	cp
3-oxo-lignoceroyl-ACPs	a 3-oxo-lignoceroyl-[acp]	cp
CPD-3745	isethionate	c
CPD-9700	hypoglycin B	p
N-ACETYL-D-GLUCOSAMINE	N-acetyl-&beta;-D-glucosamine	cp
ALPHA-GLUCOSE-16-BISPHOSPHATE	&alpha;-glucose 1,6-bisphosphate	cp
2-C-METHYL-D-ERYTHRITOL-4-PHOSPHATE	2-C-methyl-D-erythritol 4-phosphate	cp
Linear-Malto-Oligosaccharides	a linear malto-oligosaccharide	cp
Red-Glutaredoxins	a reduced glutaredoxin	c
N-ACETYL-D-GLUCOSAMINE-1-P	N-acetyl-&alpha;-D-glucosamine 1-phosphate	p
Cyclic-3-5-Nucleoside-Monophosphates	a nucleoside cyclic 3',5'-monophosphate	c
URIDINE	uridine	p
DEOXYURIDINE	2'-deoxyuridine	cp
Red-NADPH-Hemoprotein-Reductases	a reduced [NADPH-hemoprotein reductase]	c
Lipid-dihydrosterculate	a [glycerolipid]-dihydrosterculate	p
Red-Thioredoxin	a reduced thioredoxin	cp
THYMIDINE	thymidine	cp
CPD-9869	all trans-decaprenyl-2-methoxy-6-1,4-benzoquinol	c
NAcMur-4Peptide-NAcGlc-Undecaprenols	a N-acetylglucosamine--N-acetylmuramyl-(tetrapeptide) pyrophosphoryl-undecaprenol	p
N-ACETYL-D-GLUCOSAMINE-6-P	N-acetyl-D-glucosamine 6-phosphate	cp
P-RIBOSYL-4-SUCCCARB-AMINOIMIDAZOLE	5'-phosphoribosyl-4-(N-succinocarboxamide)-5-aminoimidazole	cp
INDOLE	indole	c
2-CHLOROMALEYLACETATE	2-chloromaleylacetate	p
Reduced-2Fe-2S-Ferredoxins	a reduced [2Fe-2S] ferredoxin	c
INDOLE-3-GLYCEROL-P	(1S,2R)-1-C-(indol-3-yl)glycerol 3-phosphate	cp
Reduced-CycA1-cytochromes	a reduced CycA1 cytochrome	c
5-BETA-L-THREO-PENTAPYRANOSYL-4-ULOSE-	UDP-&beta;-L-threo-pentapyranos-4-ulose	cp
NAcMur-Peptide-NAcGlc-Undecaprenols	a lipid II	c
5-DEHYDROGLUCONATE	5-dehydro-D-gluconate	c
INDOLEYL-CPD	(indole-3-yl)acetonitrile	c
Lipoprotein-signal-peptide	a lipoprotein signal peptide	p
CPD-9871	6-methoxy-3-methyl-2-all-trans-decaprenyl-1,4-benzoquinol	p
ALPHA-RIBAZOLE-5-P	&alpha;-ribazole 5'-phosphate	p
Thi-S	a ThiS sulfur-carrier protein	p
2-D-THREO-HYDROXY-3-CARBOXY-ISOCAPROATE	(2R,3S)-3-isopropylmalate	cp
B-ALANINE	&beta;-alanine	cp
N-ACETYL-D-MANNOSAMINE	N-acetyl-&beta;-D-mannosamine	cp
CPD-375	4-pyridoxolactone	p
Lipoyl-Protein-L-Lysine	a [lipoyl-carrier protein]-L-lysine	c
2-DEHYDRO-3-DEOXY-D-GALACTONATE	2-dehydro-3-deoxy-D-galactonate	p
Lipoyl-Protein-N6-lipoyllysine	a [lipoyl-carrier protein]-N6-lipoyl-L-lysine	p
CPD-9956	ubiquinol-8	p
CMP	CMP	cp
INDOLE_ACETATE_AUXIN	(indol-3-yl)acetate	p
Reduced-ferredoxins	a reduced ferredoxin [iron-sulfur] cluster	cp
CPD-3766	menadione	c
DEOXYXYLULOSE-5P	1-deoxy-D-xylulose 5-phosphate	cp
URIDYLYL-PROTEIN-PII	a uridylylated PII protein	p
Cysteine-Desulfurase-L-cysteine	an [L-cysteine desulfurase]-L-cysteine	cp
Reduced-flavodoxins	a reduced flavodoxin	cp
CMP-KDO	CMP-3-deoxy-&beta;-D-manno-octulosonate	cp
B-KETOACYL-ACP	a 3-oxoacyl-[acp]	cp
DEPHOSPHO-COA	3'-dephospho-CoA	cp
N-ACETYL-GLUTAMYL-P	N-acetylglutamyl-phosphate	cp
CPD-9965	icosanoyl-CoA	cp
Thiocarboxyadenylated-ThiS-Proteins	a thiocarboxy-[ThiS-Protein]	c
INDOLE_PYRUVATE	(indol-3-yl)pyruvate	cp
Relaxed-DNAs	a relaxed DNA	cp
Resolution-of-Recombinational-Junction	resolution of recombinational junction formation of two intact strands	p
Cytochromes-C-Oxidized	an oxidized c-type cytochrome	cp
Long-Chain-Acyl-CoAs	a long-chain acyl-CoA	p
2-DEHYDROPANTOATE	2-dehydropantoate	cp
CPD-3801	melibionate	c
Thiols	a thiol	p
BCAA-dehydrogenase-DH-lipoyl	an [apo BCAA dehydrogenase E2 protein] N6-dihydrolipoyl-L-lysine	cp
Retinols	a retinol	p
HOMOGENTISATE	homogentisate	cp
Long-Chain-Fatty-Acids	a long-chain fatty acid	c
CPD0-1027	a debranched &alpha;-limit dextrin	c
BCAA-dehydrogenase-lipoyl	an [apo BCAA dehydrogenase E2 protein] N6-lipoyl-L-lysine	cp
Cytochromes-C-Reduced	a reduced c-type cytochrome	cp
5-HYDROXYISOURATE	(S)-5-hydroxyisourate	c
3OH-4P-OH-ALPHA-KETOBUTYRATE	(3R)-3-hydroxy-2-oxo-4 phosphooxybutanoate	cp
FAD	FAD	cp
Long-Chain-Polyphosphate	long chain polyphosphate	cp
UROCANATE	urocanate	cp
N-ACETYLNEURAMINATE	N-acetylneuraminate	p
CPD0-1081	N-acetyl-&beta;-D-glucosamine-1,6-anhydro-N-acetyl-&beta;-D-muramate	c
Protein-Ser-or-Thr-phosphate	a [protein] (L-serine/L-threonine) phosphate	cp
SHIKIMATE-5P	shikimate 3-phosphate	cp
Protein-Tyrosines	a [protein]-L-tyrosine	cp
9S-RRNA	a 9S rRNA	c
THYMINE	thymine	cp
9Z-3-oxo-octadec-9-enoyl-ACPs	a (9Z)-3-oxo-octadec-9-enoyl-[acp]	cp
Protein-With-N-Terminal-Met	a peptide with an N-terminal L-methionine	c
A-5-prime-PP-5-prime-DNA	an adenosine-5'-diphospho-5'-[DNA]	cp
CPD-1091	(S)-ureidoglycolate	c
Protein-With-N-Terminal-Pro	a peptide with an N-terminal L-proline	c
METHIONYL-PEPTIDE	an N-terminal L-methionyl-[protein]	p
CO-A	coenzyme A	cp
ACET	acetate	cp
NIACINE	nicotinate	cp
Protein-phospho-L-histidines	a [protein]-N-phospho-L-histidine	cp
CPD-14018	icosapentaenoyl-CoA	p
D-3-HYDROXYACYL-COA	a (3R)-3-hydroxyacyl-CoA	cp
ACETALD	acetaldehyde	cp
Protein-pi-phospho-L-histidines	a [protein]-N&pi;-phospho-L-histidine	c
CPD-1099	raffinose	cp
CPD-14268	(15Z)-tetracosenoate	c
Protein-tauphospho-L-histidines	a [protein]-N&tau;-phospho-L-histidine	c
D-5-Monosubstituted-Hydantoins	a D-5-monosubstituted hydantoin	cp
NICOTINAMIDE_NUCLEOTIDE	&beta;-nicotinamide D-ribonucleotide	cp
Protein-tyrosine-phosphates	a [protein]-L-tyrosine phosphate	cp
Proteins-With-N-Terminal-Asp	an N-terminal L-aspartyl-[protein]	c
CPD-14269	(Z)-15-tetracosenoyl-CoA	p
CPD-110	salicylate	p
CPD-1108	a 1-phosphatidyl-1D-myo-inositol 4-phosphate	p
ACETAMIDE	acetamide	c
METHYL-GLYOXAL	methylglyoxal	cp
Proteins-with-correct-disulfides	a protein with correct disulfide bonds	cp
NICOTINAMIDE_RIBOSE	1-(&beta;-D ribofuranosyl)nicotinamide	p
D-ALA-D-ALA	D-alanyl-D-alanine	cp
Proteins-with-incorrect-disulfides	a protein with incorrect disulfide bonds	cp
CPD-14443	(2S,4S)-4-hydroxy-2,3,4,5-tetrahydrodipicolinate	cp
CPD-1109	an N-acyl-D-mannosamine	cp
METHYL-MALONYL-COA	(R)-methylmalonyl-CoA	cp
Purine-Bases	a purine base	cp
L-ORNITHINE	L-ornithine	cp
G3P	3-phospho-D-glycerate	cp
CPD-698	campest-4-en-3-one	p
CARBAMOYL-P	carbamoyl phosphate	cp
CPD-16458	7,8-dihydrolumazine	p
FADH2	FADH2	cp
DIMETHYL-D-RIBITYL-LUMAZINE	6,7-dimethyl-8-(1-D-ribityl)lumazine	cp
CPD-16491	2,6-diamino-4-hydroxy-5-(N-methyl)formamidopyrimidine	p
L-PANTOATE	(R)-pantoate	cp
DUMP	dUMP	cp
CARBAMYUL-L-ASPARTATE	N-carbamoyl-L-aspartate	cp
D-ALANINE	D-alanine	cp
DIMETHYLBENZIMIDAZOLE	5,6-dimethylbenzimidazole	c
CPD-16549	3-(N-morpholino)propanal	p
CPD-7002	dihydrogeranylgeranyl diphosphate	cp
CPD-16606	UDP-2-acetamido-4-amino-2,4,6-trideoxy-&alpha;-D-galactose	cp
L-PHOSPHATIDATE	a 1,2-diacyl-sn-glycerol 3-phosphate	c
CPD-7003	tetrahydrogeranylgeranyl diphosphate	cp
L-SELENOCYSTEINE	L-selenocysteine	p
mRNA-Fragments	an mRNA fragment	p
CPD-7004	dihydrogeranylgeranyl chlorophyll a	cp
CARBON-DIOXIDE	CO2	cp
DUTP	dUTP	cp
D-ALPHABETA-D-HEPTOSE-7-PHOSPHATE	D-glycero-D-manno-heptose 7-phosphate	p
mRNAs	an mRNA	cp
CPD-16953	2-amino-6-[1-hydroxyethyl]-7-methyl-7,8-dihydropterin	c
mRNAs-with-5-monophosphate	a 5'-phospho-[mRNA]	p
CPD-7005	geranylgeranyl chlorophyll a	c
mRNAs-with-5-triphosphate	a 5' triphospho-[mRNA]	c
DIPEPTIDES	a dipeptide	p
GALACTOSE	&beta;-D-galactose	cp
L-arginyl-3-sulfino-L-alaninyl-Peptides	an N-terminal L-arginiyl-3-sulfino-L-alanyl-[protein]	p
CPD-16954	[1-(2-amino-7-methyl-4-oxo-7,8-dihydro-3H-pteridin-6-yl)]ethyl diphosphate	p
CPD-7006	tetrahydrogeranylgeranyl chlorophyll a	cp
L-arginyl-3-sulfo-L-alaninyl-Peptides	an N-terminal L-arginiyl-3-sulfo-L-alanyl-[protein]	p
RIBOSE-1-ARSENATE	ribose-1-arsenate	p
L-arginyl-L-Glutamyl-Peptides	an N-terminal L-arginiyl-L-glutamyl-[protein]	p
L-arginyl-L-aspartyl-Peptides	an N-terminal L-arginiyl-L-aspartyl-[protein]	p
L-glutamyl-tRNAGln	an L-glutamyl-[tRNAGln]	c
Trans-3-enoyl-CoAs	a (3E)-alkan-3-enoyl-CoA	p
CPD-201	4-hydroxybenzoyl-CoA	cp
GLYCEROPHOSPHOGLYCEROL	glycerophosphoglycerol	c
NICOTINATE_NUCLEOTIDE	&beta;-nicotinate D-ribonucleotide	cp
CPD-18492	(2E,6Z,9Z,12Z,15Z,18Z)-tetracosahexaenoyl-CoA	c
BENZALDEHYDE	benzaldehyde	cp
CPD-18493	(3S)-hydroxy-(6Z,9Z,12Z,15Z,18Z)-tetracosapentaenoyl-CoA	p
CPD-206	phytanoyl-CoA	c
Triacylglycerols	a triacyl-sn-glycerol	p
CPD-18494	3-oxo-(6Z,9Z,12Z,15Z,18Z)-tetracosapentaenoyl-CoA	c
PYROGALLOL	pyrogallol	c
D-Amino-Acids	a D-amino acid	c
AMINO-HYDROXYMETHYL-METHYL-PYR-P	4-amino-2-methyl-5-(phosphooxymethyl)pyrimidine	cp
BENZIMIDAZOLE	benzimidazole	c
Truncated-Limit-Dextrins	a &alpha;-limit dextrin with short branches	cp
CPD-18495	5-methoxy-6-methylbenzimidazole	c
TusE-L-cysteine	a [TusE sulfur carrier protein]-L-cysteine	p
TusE-S-sulfanylcysteine	a [TusE sulfur carrier protein]-S-sulfanylcysteine	c
CPD-18497	5-hydroxy-benzimidazole	c
PYRROLINE-HYDROXY-CARBOXYLATE	(3R,5S)-3-hydroxy-1-pyrroline-5-carboxylate	c
D-BETA-D-HEPTOSE-1-P	D-glycero-&beta;-D-manno-heptose 1-phosphate	p
BENZOATE	benzoate	cp
AMINO-HYDROXYMETHYL-METHYLPYRIMIDINE-PP	4-amino-2-methyl-5-(diphosphomethyl)pyrimidine	p
CPD-207	phenylacetyl-CoA	p
UDP	UDP	cp
CPD-20735	two adjacent 2'-deoxycytidines in DNA	p
UDP-4-AMINO-4-DEOXY-L-ARABINOSE	UDP-4-amino-4-deoxy-&beta;-L-arabinopyranose	cp
CPD-20736	adjacent 2'-deoxycytidine-thymidine in DNA	p
AMINO-OH-HYDROXYMETHYL-DIHYDROPTERIDINE	6-(hydroxymethyl)-7,8-dihydropterin	cp
CPD-20737	adjacent thymidine-2'-deoxycytidine in DNA	p
CPD-18532	(R)-&beta;-hydroxy-L-kynurenine	p
FARNESYL-PP	(2E,6E)-farnesyl diphosphate	c
CPD-20741	a dimer of adjacent 2'-deoxycytidines in DNA	c
CPD-20742	a dimer of adjacent thymidines in DNA	c
CPD-20743	a dimer of adjacent 2'-deoxycytidine and thymidine in DNA	c
CPD-20744	a dimer of adjacent thymidine and 2'-deoxycytidine in DNA	c
CPD-20746	N&alpha;,N&epsilon;-diacetyl-lysyl-D-alanine	cp
D-BETA-D-HEPTOSE-17-DIPHOSPHATE	D-glycero-&beta;-D-manno-heptose 1,7-bisphosphate	c
SN-GLYCEROL-1-PHOSPHATE	sn-glycerol 1-phosphate	p
CPDQT-38	3-[(5'-methylthio)pentyl]malate	cp
5-KETO-4-DEOXY-D-GLUCARATE	5-dehydro-4-deoxy-D-glucarate	cp
CPD-14553	UDP-&alpha;-D-galactose	cp
3-oxo-myristoyl-ACPs	a 3-oxo-myristoyl-[acp]	cp
3-oxo-palmitoyl-ACPs	a 3-oxo-palmitoyl-[acp]	cp
5-L-GLUTAMYL-AMINO-ACID	an &alpha;-(5-L-glutamyl)-amino acid	p
CPD-4211	dimethylallyl diphosphate	cp
CPDQT-39	3-[(6'-methylthio)hexyl]malate	cp
CPD-12435	&alpha;-D,&alpha;-D-digalacturonate	p
3-oxo-petroselinoyl-ACPs	a 3-oxo-petroselinoyl-[acp]	cp
CARBON-MONOXIDE	carbon monoxide	p
SO3	sulfite	cp
CPD-12452	3-dehydrocholate	cp
5-L-GLUTAMYL-L-AMINO-ACID	an &alpha;-(&gamma;-L-glutamyl)-L-amino acid	p
CPDQT-40	3-[(7'-methylthio)heptyl]malate	cp
3-oxo-stearoyl-ACPs	a 3-oxo-stearoyl-[acp]	cp
PROT-CYS	a [protein]-L-cysteine	c
NITRITE	nitrite	p
CPDQT-406	S-5-methylthiopentylhydroximoyl-L-cysteine	cp
D-ERYTHRO-IMIDAZOLE-GLYCEROL-P	D-erythro-imidazole-glycerol-phosphate	c
CPD-14675	pristanoyl-CoA	p
3-terminal-unsaturated-sugars	a 3'-terminal unsaturated sugar	p
CPDQT-407	S-6-methylthiohexylhydroximoyl-L-cysteine	cp
3-HYDROXY-DOCOSAPENTAENOYL-ACP	a (3R)-3-hydroxy-docosapentaenoyl-[acp]	p
3-HYDROXY-ISOBUTYRATE	3-hydroxy-isobutanoate	p
CPDQT-408	S-7-methylthioheptylhydroximoyl-L-cysteine	cp
D-GALACTARATE	D-galactarate	c
5-L-GLUTAMYL-PEPTIDE	a 5-L-glutamyl-[peptide]	c
CPD-14704	4-hydroxy-2-nonenal-glutathione conjugate	p
PROTEIN-L-BETA-ISOASPARTATES	a [protein]-L-&beta;-isoaspartate	c
3-HYDROXY-ISOBUTYRYL-COA	3-hydroxy-isobutanoyl-CoA	c
CPD-12521	&beta;-D-glucuronate	p
CPDQT-409	S-8-methylthiooctylhydroximoyl-L-cysteine	cp
PROTEIN-L-BETA-ISOSPARTATE-METHYL-ESTERS	a protein L-&beta;-isoaspartate &alpha;-methyl ester	p
CPD-14736	L-kynurenine	cp
UROPORPHYRINOGEN-III	uroporphyrinogen-III	c
5-METHYL-THF-GLU-N	a 5-methyltetrahydrofolate	cp
3-HYDROXY-ISOVALERYL-COA	3-hydroxyisovaleryl-CoA	cp
PHOSPHO-ENOL-PYRUVATE	phosphoenolpyruvate	cp
PROTEIN-LIPOYLLYSINE	a [glycine-cleavage complex H protein] N6-lipoyl-L-lysine	cp
INOSINE	inosine	cp
5-METHYLTHIOADENOSINE	S-methyl-5'-thioadenosine	cp
CPD-12575	UDP-&alpha;-D-glucose	cp
CPD-465	presqualene diphosphate	cp
N-ALPHA-ACETYLORNITHINE	N-acetyl-L-ornithine	cp
CPDQT-41	10-(methylthio)-2-oxodecanoate	p
SPERMIDINE	spermidine	cp
ACETOACETYL-COA	acetoacetyl-CoA	cp
CPDQT-410	S-9-methylthiononylhydroximoyl-L-cysteine	cp
CPD-14772	hexadecanedioyl-CoA	cp
CPDQT-411	(E)-N-hydroxy-5-(methylsulfanyl)pentimidothioate	cp
CPD-14828	1-C16:0-&alpha;,&omega;-dicarboxyl-2-lysophosphatidate	cp
CPD-12634	(glutathion-S-yl)(1H-indol-3-yl)acetonitrile	p
P3I	PPPi	p
CPDQT-412	(E)-N-hydroxy-6-(methylsulfanyl)heximidothioate	cp
3-HYDROXY-L-KYNURENINE	3-hydroxy-L-kynurenine	c
Kanamycin-3-phosphates	a kanamycin 3'-phosphate	p
CPDQT-413	(E)-N-hydroxy-7-(methylsulfanyl)heptimidothioate	cp
D-GALACTONATE	D-galactonate	c
NITROGEN-MOLECULE	N2	p
N-Acetyl-beta-D-Hexosaminides	an N-acetyl-&beta;-D-hexosaminide	c
CPD-14925	(3Z)-dec-3-enoyl-CoA	p
CPDQT-414	(E)-N-hydroxy-8-(methylsulfanyl)octimidothioate	cp
CPD-468	L-2-aminoadipate	cp
CPD-12676	5'-chloro-5'-deoxyadenosine	c
Kanamycins	a kanamycin	c
UTP	UTP	cp
Rhodoquinols	a rhodoquinol	c
Gln-B	a PII protein	c
Rhodoquinones	a rhodoquinone	p
Glucans	a glucan	cp
Ribonucleoside-Diphosphates	a ribonucleoside diphosphate	p
Long-linear-glucans	a long-linear &alpha;-D-glucan	cp
Ribonucleoside-Monophosphates	a ribonucleoside 5'-monophosphate	cp
Purine-Deoxyribonucleosides	a purine 2'-deoxyribonucleoside	cp
Glucopyranose	D-glucopyranose	cp
DETHIOBIOTIN	dethiobiotin	cp
CPD0-1082	L-alanyl-&gamma;-D-glutamyl-meso-2,6-diaminopimeloyl-D-alanine	c
CPD0-1096	glucosamine 1,6-diphosphate	cp
Ribonucleoside-Triphosphates	a ribonucleoside triphosphate	c
LysW-L-glutamate	a [2-aminoadipate carrier protein]-L-glutamate	c
LysW-L-glutamate-5-phosphate	a [2-aminoadipate carrier protein]-L-glutamate 5-phosphate	cp
Ribonucleosides	a ribonucleoside	p
COB-I-ALAMIN	cob(I)alamin	c
Purine-Ribonucleosides	a purine ribonucleoside	cp
LysW-L-glutamate-5-semialdehyde	a [2-aminoadipate carrier protein]-L-glutamate 5-semialdehyde	cp
CPD0-1112	&beta;-L-rhamnopyranose	p
NITROUS-OXIDE	nitrous oxide	c
rRNA-fragments	an rRNA fragment	p
CPD-11241	4-(4-deoxy-&alpha;-D-galact-4-enuronosyl)-D-galacturonate	cp
CARBOXYPHENYLAMINO-DEOXYRIBULOSE-P	1-(o-carboxyphenylamino)-1'-deoxyribulose 5'-phosphate	cp
LysW-L-ornithine	a [2-aminoadipate carrier protein]-L-ornithine	cp
Ribosomal-protein-L3-L-glutamine	a [ribosomal protein L3]-L-glutamine	c
Glutamine-synthetase-Tyr	a [glutamine-synthetase]-L-tyrosine	c
Ribosomal-protein-L3-N5M-L-glutamine	a [ribosomal protein L3]-N5-methyl-L-glutamine	p
Glutamine-synthetase-adenylyl-Tyr	a [glutamine synthetase]-O4-(5'-adenylyl)-L-tyrosine	p
CPD-11244	an unsaturated pectate oligosaccharide	cp
2-HYDROXYPHYTANOYL-COA	2-hydroxyphytanoyl-CoA	p
Ribosomal-protein-S12-3-methylthio-Asp89	a [ribosomal protein S12]-3-methylsulfanyl-L-aspartate89	p
CPD0-1133	maltoheptaose	cp
Ribosomal-protein-S12-Asp89	a [ribosomal protein S12] L-aspartate89	c
Glutaryl-ACP-methyl-esters	a glutaryl-[acp] methyl ester	c
S-2-Haloacids	an (S)-2-haloacid	c
S-2-Hydroxyacids1	an (S)-2-hydroxyacid	p
ssDNA-RNA-primer-hybrid	an ssDNA/RNA primer hybrid	p
S-2-INDOL-3-YLACETYL-COA	S-2-(indol-3 yl)acetyl-CoA	cp
D-GALACTOSAMINE-6-PHOSPHATE	D-galactosamine 6-phosphate	p
CPD0-1147	methyl red	c
ssRNAs	a single-stranded RNA	cp
TMP	dTMP	cp
S-24-DINITROPHENYLGLUTATHIONE	2,4-dinitrophenyl-S-glutathione	cp
CPD0-1148	N,N'-dimethyl-p-phenylenediamine	p
tRNA-2-thiouridine34	a 2-thiouridine34 in tRNA	p
2-Hydroxy-carboxylates	a 2-hydroxy carboxylate	p
CPD-1130	3-ethylmalate	cp
MAL	(S)-malate	cp
COBINAMIDE	cobinamide	c
Glycerophosphodiesters	a glycerophosphodiester	c
DGDP	dGDP	c
CPD-11444	uroporphyrinogen-I	c
tRNA-Adenosines-37	an adenosine37 in tRNA	c
D-GLT	D-glutamate	c
2-KETO-3-DEOXY-6-P-GLUCONATE	2-dehydro-3-deoxy-D-gluconate 6-phosphate	cp
Glycogens	a glycogen	cp
tRNA-Containing-5MeAminoMe-2-ThioU	a 5-methylaminomethyl-2-thiouridine34 in tRNA	c
RIBOSE-1P	&alpha;-D-ribose-1-phosphate	cp
GLUCOSAMINE-1P	D-glucosamine 1-phosphate	cp
GLYCOLALDEHYDE	glycolaldehyde	p
L-leucyl-L-arginyl-Protein	a [protein] N-terminal L-leucyl-L-arginine	p
DITP	dITP	cp
AMINO-OXOBUT	L-2-amino-3-oxobutanoate	c
3R-11Z-3-hydroxy-icos-11-enoyl-ACPs	a (3R,11Z)-3-hydroxy-icos-11-enoyl-[acp]	p
RIBOSE-5P	D-ribose 5-phosphate	cp
L-leucyl-L-lysyl-Protein	a [protein] N-terminal L-leucyl-L-lysine	p
3R-5Z-3-hydroxy-tetradec-5-enoyl-ACPs	a (3R,5Z)-3-hydroxy-tetradec-5-enoyl-[acp]	p
GLYCOLLATE	glycolate	p
AMINO-RIBOSYLAMINO-1H-3H-PYR-DIONE	5-amino-6-(D-ribitylamino)uracil	cp
IS30-Insertion-Sequences	an insertion sequence element IS30	cp
CPD-170	stachyose	c
3R-7Z-3-hydroxy-hexadec-7-enoyl-ACPs	a (3R,7Z)-3-hydroxy-hexadec-7-enoyl-[acp]	p
L-methionyl-L-alanyl-Protein	an N-terminal-L-methionyl-L-alanyl-[protein]	c
CPD-17045	3-benzyl-3,6-dihydroxy-6-(hydroxymethyl)-diketopiperazine	c
IS30-with-Integrated-Transposon	an insertion sequence IS30 with integrated transposon	cp
L-methionyl-L-cysteinyl-Protein	an N-terminal-L-methionyl-L-cysteinyl-[protein]	c
3R-9Z-3-hydroxy-octadec-9-enoyl-ACPs	a (3R,9Z)-3-hydroxy-octadec-9-enoyl-[acp]	p
L-methionyl-L-seryl-Protein	an N-terminal-L-methionyl-L-seryl-[protein]	c
ISOBUTYRATE	isobutanoate	c
PALMITATE	palmitate	cp
L-methionyl-L-threonyl-Protein	an N-terminal-L-methionyl-L-threonyl-[protein]	c
L-1-GLYCERO-PHOSPHORYLCHOLINE	sn-glycero-3-phosphocholine	p
L-methionyl-L-valyl-Protein	an N-terminal-L-methionyl-L-valyl-[protein]	c
CPD-17046	3-benzyl-3,6 -bis(glutathione)- 6-(hydroxymethyl)-diketopiperazine	p
3Z-dodec-3-enoyl-ACPs	a (3Z)-dodec-3-enoyl-[acp]	c
L-methionyl-glycyl-Protein	an N-terminal-L-methionyl-glycyl-[protein]	c
L-1-GLYCEROPHOSPHORYLETHANOL-AMINE	sn-glycero-3-phosphoethanolamine	cp
L-methionyl-tRNAfmet	an L-methionyl-[initiator tRNAMet]	cp
PYRUVATE	pyruvate	cp
ISOBUTYRYL-COA	isobutanoyl-CoA	p
RIBULOSE-5P	D-ribulose 5-phosphate	cp
CPD-17063	ferroheme o	p
4-AMINO-4-DEOXYCHORISMATE	4-amino-4-deoxychorismate	cp
DNA-Adjacent-Pyrimidines	two adjacent pyrimidine nucleosides in DNA	p
L-phenylalanyl-L-arginyl-Protein	L-phenylalanyl-L-arginyl-[protein]	p
D-GLUCARATE	D-glucarate	c
L-phenylalanyl-L-lysyl-Protein	L-phenylalanyl-L-lysyl-[protein]	p
PALMITYL-COA	palmitoyl-CoA	p
L-rhamnopyranose	L-rhamnopyranose	p
DNA-Combined-With-Exogenous-DNA	DNA combined with exogenous DNA to form a recombinational junction	c
D-GLUCOSAMINE-6-P	D-glucosamine 6-phosphate	cp
L-seryl-SEC-tRNAs	an L-seryl-[tRNAsec]	p
DNA-Cytidines	a 2'-deoxycytidine in DNA	p
4-CARBOXYMETHYLENEBUT-2-EN-4-OLIDE	cis-dienelactone	c
RNA-DNA-hybrids	a RNA-DNA hybrid	c
RNA-Holder	a ribonucleic acid	cp
L-1-LYSOPHOSPHATIDATE	1-oleyl-2-lyso-phosphatidate	p
LAUROYLCOA-CPD	lauroyl-CoA	p
Decanoyl-ACPs	a decanoyl-[acp]	c
L-1-PHOSPHATIDYL-ETHANOLAMINE	an L-1-phosphatidylethanolamine	p
RNASE-E-DEGRADATION-SUBSTRATE-MRNA	RNase E degradation substrate mRNA	c
4-CYTIDINE-5-DIPHOSPHO-2-C	4-(cytidine 5'-diphospho)-2-C-methyl-D-erythritol	cp
RNASE-E-MRNA-PROCESSING-SUBSTRATE	RNase E mRNA processing substrate	c
RNASE-E-PROCESSING-PRODUCT-MRNA	RNase E processing product mRNA	p
CPD-173	salicyl alcohol	p
Delta4-hexadecenoyl-ACPs	a (4Z)-hexadec-4-enoyl-[acp]	c
L-1-PHOSPHATIDYL-GLYCEROL	an L-1-phosphatidyl-sn-glycerol	cp
RNASE-G-DEGRADATION-SUBSTRATE-MRNA	RNase G degradation substrate mRNA	c
CPD-17312	docosahexaenoyl-CoA	p
4-FUMARYL-ACETOACETATE	4-fumaryl-acetoacetate	cp
AMINOMETHYLDIHYDROLIPOYL-GCVH	a [glycine-cleavage complex H protein] N6-aminomethyldihydrolipoyl-L-lysine	cp
L-1-PHOSPHATIDYL-GLYCEROL-P	1-(3-sn-phosphatidyl)-sn-glycerol 3-phosphate	cp
RNASE-III-MRNA-PROCESSING-SUBSTRATE	RNase III mRNA processing substrate	c
RNASE-III-PROCESSING-PRODUCT-MRNA	RNase III processing product mRNA	p
L-1-PHOSPHATIDYL-SERINE	a 3-O-sn-phosphatidyl-L-serine	cp
RNASE-R-DEGRADATION-SUBSTRATE-RNA	RNase R degradation substrate RNA	c
CPD-7043	amylopectin	p
N-Acylated-Aliphatic-Amino-Acids	an N-acylated aliphatic-L-amino acid	c
CPD-7066	(2R,3S)-3-methylmalate	p
ACETONE	acetone	p
CPD-7073	hesperitin-7-O-&beta;-D-glucoside	p
SPERMINE	spermine	c
ATP	ATP	cp
CPD-12677	5-chloro-5-deoxyribose 1-phosphate	p
SQUALENE	squalene	p
CPD-7075	hesperidin	c
CPD-12703	gentisyl-CoA	p
N-ETHYLMALEIMIDE	N-ethylmaleimide	c
N-FORMIMINO-L-GLUTAMATE	N-formimino-L-glutamate	p
CPD-12706	5-fluoro-5-deoxy-D-ribose 1-phosphate	p
CPD-7076	2-methylbutanoate	c
D-Glucopyranuronate	D-glucopyranuronate	p
CPD-12760	(R)-4-phosphopantoate	c
CPD-708	campest-4-en-3&beta;-ol	c
11Z-3-oxo-icos-11-enoyl-ACPs	an (11Z)-3-oxo-icos-11-enoyl-[acp]	cp
HS	hydrogen sulfide	cp
PANTETHEINE-P	4'-phosphopantetheine	c
SS-Oligodeoxyribonucleotides	a single-stranded oligodeoxyribonucleotide	p
STEARIC_ACID	stearate	c
CPD-12773	&alpha;-D-glucopyranosyl-diphosphoundecaprenol	p
ACETYL-ACP	an acetyl-[acp]	c
CPD-7100	(2S)-2-isopropyl-3-oxosuccinate	cp
ACETYL-COA	acetyl-CoA	cp
Negatively-super-coiled-DNAs	a negatively supercoiled DNA	cp
CPD-12849	(1E,3E)-4-hydroxybuta-1,3-diene-1,2,4-tricarboxylate	cp
PROTOHEME	ferroheme b	cp
D-HEXOSE-6-PHOSPHATE	D-hexose 6-phosphate	p
STEAROYL-COA	stearoyl-CoA	p
N-FORMYLKYNURENINE	N-formylkynurenine	cp
CPD-1301	tetrahydropteroyl tri-L-glutamate	cp
CPD-7221	(3Z)-dodec-3-enoyl-CoA	p
1235-TETRAHYDROXYBENZENE	1,2,3,5-tetrahydroxybenzene	cp
CPD-7238	5&beta;-cholestane-3&alpha;,7&alpha;-diol	p
CPD-18539	(R)-N-formyl-&beta;-hydroxy-L-kynurenine	c
METHYLENE-THF-GLU-N	a 5,10-methylene-tetrahydrofolate	cp
UDP-AA-GLUTAMATE	UDP-N-acetyl-&alpha;-D-muramoyl-L-alanyl-D-glutamate	cp
3-HYDROXY-PROPIONATE	3-hydroxypropanoate	p
CPD-469	N-acetyl-L-glutamate 5-semialdehyde	cp
CPD-11495	(2-hydroxyphenyl)acetate	p
CPD-18550	quinoxaline-2-carboxyl adenylate	c
2-KETO-3-METHYL-VALERATE	(S)-3-methyl-2-oxopentanoate	cp
3-HYDROXY-PROPIONYL-COA	3-hydroxypropanoyl-CoA	c
D-Hexoses	a D-hexose	c
TRANS-2-CHLORO-4-CARBOXYMETHYLENEBUT-2-E	2-chloro-trans-dienelactone	c
UDP-AAGM-DIAMINOHEPTANEDIOATE	UDP-N-acetyl-&alpha;-D-muramoyl-L-alanyl-&gamma;-D-glutamyl-meso-2,6-diaminopimelate	cp
CPD-187	4-hydroxy-4-methyl-2-oxoglutarate	p
METHYLENETETRAHYDROMETHANOPTERIN	5,10-methylene-tetrahydromethanopterin	c
UDP-ACETYL-CARBOXYVINYL-GLUCOSAMINE	UDP-N-acetyl-&alpha;-D-glucosamine-enolpyruvate	cp
2-KETO-6-AMINO-CAPROATE	6-amino-2-oxohexanoate	p
CPD0-1162	(2E,5Z)-tetradecenoyl-CoA	cp
FE+2	Fe2+	cp
Ubiquinols	an ubiquinol	cp
CPD-11518	3-oxo-2-(cis-2'-pentenyl)-cyclopentane-1-(E-octa-2-enoyl)-CoA	c
COPROPORPHYRINOGEN_I	coproporphyrinogen I	p
5-OXOPROLINE	5-oxo-L-proline	c
TRANS-23-DEHYDROADIPYL-COA	trans-2,3-dehydroadipyl-coA	cp
D-LACTATE	(R)-lactate	cp
COPROPORPHYRINOGEN_III	coproporphyrinogen III	cp
PHOSPHORIBOSYL-AMP	1-(5-phospho-&beta;-D-ribosyl)-AMP	cp
UDP-D-GALACTO-14-FURANOSE	UDP-&alpha;-D-galactofuranose	cp
Palmitoleoyl-ACPs	a palmitoleoyl-[acp]	c
5-P-BETA-D-RIBOSYL-AMINE	5-phospho-&beta;-D-ribosylamine	cp
Ubiquinones	a ubiquinone	cp
CPD-11519	3-oxo-2-(cis-2'-pentenyl)-cyclopentane-1-(3R-hydroxyoctanoyl)-CoA	p
16-HYDROXYPALMITATE	16-hydroxypalmitate	c
CPD0-1163	(S)-3-hydroxy-(5Z)-tetradecenoyl-CoA	p
3-HYDROXYADIPYL-COA	(3S)-hydroxyadipyl-CoA	cp
CPD-19014	2-hydroxy-2-methylpropanoate	p
Palmitoyl-ACPs	a palmitoyl-[acp]	c
CD-S-SP-Complex	a [cysteine desulfurase]-S-sulfanyl-[disordered-form scaffold protein] complex	c
ADENYLOSUCC	adenylo-succinate	cp
PHOSPHORIBOSYL-ATP	1-(5-phospho-&beta;-D-ribosyl)-ATP	cp
Unfolded-Proteins	an unfolded protein	cp
CPD-11520	3-oxo-2-(cis-2'-pentenyl)-cyclopentane-1-(3-oxooctanoyl)-CoA	c
TRANS-3-METHYL-GLUTACONYL-COA	3-methylglutaconyl-CoA	p
CPD-479	4-(methylsulfanyl)-2-oxobutanoate	cp
CPD0-1202	isoprimeverose	c
CPD-10019	(5S)-5-benzyl-hydantoin	cp
Unspecified-Degradation-Products	[unspecified degradation products]	p
CPD-11521	3-oxo-2-(cis-2'-pentenyl)-cyclopentane-1-hexanoyl-CoA	p
CPD-19042	2-hydroxyisobutyramide	c
Unsulfurated-Sulfur-Acceptors	an unsulfurated [sulfur carrier]	cp
CDP	CDP	cp
TRANS-D2-ENOYL-ACP	a trans-2-enoyl-[acyl-carrier protein]	p
Unwound-DNA	an unwound double-stranded DNA	p
CPD0-1456	UDP-N-acetyl-&alpha;-D-muramoyl-L-alanine	cp
UDP-GLUCURONATE	UDP-&alpha;-D-glucuronate	p
TRANS-D2-ENOYL-COA	a (2E)-alkan-2-enoyl-CoA	cp
CPD-19144	(7Z)-hexadecenoyl-CoA	cp
CDP-2-3-4-Saturated-Diacylglycerols	a CDP-2,3,4-saturated-diacylglycerol	p
PANTOTHENATE	(R)-pantothenate	cp
CPD-11522	3-oxo-2-(cis-2'-pentenyl)-cyclopentane-1-(E-hexa-2-enoyl)-CoA	c
Unwound-RNA	an unwound RNA	p
CPD-10020	(5R)-5-benzyl-hydantoin	cp
5-P-RIBOSYL-N-FORMYLGLYCINEAMIDE	N2-formyl-N1-(5-phospho-&beta;-D-ribosyl)glycinamide	c
CPD-19147	(7Z)-tetradecenoyl-CoA	cp
TDP	dTDP	cp
D-MANNONATE	D-mannonate	cp
UDP-MURNAC-TETRAPEPTIDE	UDP-N-acetylmuramoyl-L-alanyl-&gamma;-D-glutamyl-meso-2,6-diaminopimeloyl-D-alanine	cp
5-PHOSPHO-RIBOSYL-GLYCINEAMIDE	N1-(5-phospho-&beta;-D-ribosyl)glycinamide	p
2-KETO-ISOVALERATE	3-methyl-2-oxobutanoate	cp
CPD-11523	3-oxo-2-(cis-2'-pentenyl)-cyclopentane-1-(3R-hydroxyhexanoyl)-CoA	p
METOH	methanol	cp
CPD-19148	(5Z)-dodecenoyl-CoA	cp
2-KETOGLUTARATE	2-oxoglutarate	cp
PHOSPHORIBOSYL-CARBOXY-AMINOIMIDAZOLE	5-amino-1-(5-phospho-D-ribosyl)imidazole-4-carboxylate	cp
CPD-520	quercetin	cp
CPD0-1699	6-carboxy-5,6,7,8-tetrahydropterin	c
CPD-11524	3-oxo-2-(cis-2'-pentenyl)-cyclopentane-1-(3-oxohexanoyl)-CoA	c
Peptide-with-C-terminal-Glycine	a peptide with a C-terminal glycine	p
2-LYSOPHOSPHATIDYLETHANOLAMINES	a 1-acyl 2-lyso-phosphatidylethanolamine	c
FERULIC-ACID	ferulate	cp
Peptide-with-penultimate-Glycine	a peptide with a penultimate glycine	c
DNA-Holder	DNA	p
CPD-20750	L-alanyl-&gamma;-D-glutamyl-L-lysyl-D-alanine	cp
CPD-14927	phytenate	c
16S-rRNA-N2-methylguanine966	an N2-methylguanine966 in 16S rRNA	p
CPD-20756	N-acetyl-muramoyl-(L-alanyl-&gamma;-D-glutamyl-L-lysyl-D-alanyl-D-alanine)	cp
tRNA-Containing-N7-Methylguanine-46	an N7-methylguanine46 in tRNA	p
tRNA-Dihydrouridines	a 5,6-dihydrouridine in tRNA	p
16S-rRNA-N4-methylcytidine1402	an N4-methylcytidine1402  in 16S rRNA	p
CPD-20757	N-acetyl-muramoyl-(L-alanyl-&gamma;-D-glutamyl-L-lysyl-D-alanine)	cp
BETA-D-FRUCTOSE	&beta;-D-fructofuranose	p
16S-rRNA-N7-methylguanine527	an N7-methylguanine527 in 16S rRNA	p
CPD-14928	phytenoyl-CoA	p
DGTP	dGTP	cp
BETA-D-XYLOSE	&beta;-D-xylopyranose	p
Deoxy-Ribonucleoside-Monophosphates	a 2'-deoxyribonucleoside 5'-monophosphate	p
16S-rRNA-cytidine1402	a cytidine1402 in 16S rRNA	c
Guanine34-in-tRNAs	a guanine34 in tRNA	c
S-ADENOSYLMETHIONINAMINE	S-adenosyl 3-(methylthio)propylamine	cp
Guanine46-in-tRNA	a guanine46 in tRNA	c
Deoxy-Ribonucleoside-Triphosphates	a 2'-deoxyribonucleoside 5'-triphosphate	cp
D-METHYL-MALONYL-COA	(S)-methylmalonyl-CoA	cp
16S-rRNA-guanine-527	a guanine527 in 16S rRNA	c
CPD-15015	4-hydroxy-2-oxoglutarate	cp
16S-rRNA-guanine-966	a guanine966 in 16S rRNA	c
H2CO3	carbonic acid	cp
GLYCYLGLYCINE	glycyl-glycine	c
CPD-15056	(2Z)-2-aminobut-2-enoate	cp
16S-rRNA-pseudouridine516	a 16S rRNA pseudouridine516	p
D-MYO-INOSITOL-1-MONOPHOSPHATE	1D-myo-inositol 1-monophosphate	c
tRNA-Sec	a tRNAsec	c
S-ADENOSYLMETHIONINE	S-adenosyl-L-methionine	cp
CPD-20826	7-(5-phospho-&alpha;-D-ribosyl)adenine	p
16S-rRNA-uridine516	a uridine516 in 16S rRNA	c
ACETYL-GLU	N-acetyl-L-glutamate	cp
Non-Galactosylated-Galactose-Acceptors	a non galactosylated galactose acceptor	p
CPD-15182	cob(II)yrinate c-monoamide	cp
tRNA-pseudouridine-38-40	a pseudouridine38-40 in tRNA	p
CPD-20829	[(2R,3S,4R,5S)-5-(1,3-benzodiazol-1-yl)-3,4-dihydroxyoxolan-2-yl]methyl phosphate	p
CPD-20830	[(2R,3S,4R,5S)-3,4-dihydroxy-5-(5-hydroxy-1,3-benzodiazol-1-yl)oxolan-2-yl]methyl phosphate	p
tRNA-uridine-38-40	a uridine38-40 in tRNA	c
CPD-20831	[(2R,3S,4R,5S)-3,4-dihydroxy-5-(5-methoxy-1,3-benzodiazol-1-yl)oxolan-2-yl]methyl phosphate	p
MALONATE-S-ALD	3-oxopropanoate	cp
CPD-20832	[(2R,3S,4R,5S)-3,4-dihydroxy-5-(5-methoxy-6-methyl-1,3-benzodiazol-1-yl)oxolan-2-yl]methyl phosphate	p
CPD-15240	p-nitrophenyl-&alpha;-D-glucuronide	c
BIOTIN	biotin	p
tRNA-uridine34	a uridine34 in tRNA	c
tRNA-uridines	a uridine in tRNA	c
CPD-15244	3-oxo-(5Z)-tetradecenoyl-CoA	c
tRNA-with-7-aminomethyl-7-deazaguanine	a 7-aminomethyl-7-deazaguanosine34 in tRNA	cp
CPD-20838	[(2R,3S,4R,5S)-3,4-dihydroxy-5-(5-methyl-1,3-benzodiazol-1-yl)oxolan-2-yl]methyl phosphate	p
D-SEDOHEPTULOSE-7-P	D-sedoheptulose 7-phosphate	cp
DI-H-OROTATE	(S)-dihydroorotate	cp
GLYOX	glyoxylate	cp
Diacylglycerol-Prolipoproteins	an [apolipoprotein]-(S-diacylglyceryl)-L-cysteine	p
PAPS	3'-phosphoadenylyl-sulfate	cp
tRNAs	an uncharged tRNA	p
CPD-15280	hercynine	p
tRNAs-containing-epoxy-quenosine	an epoxyqueuosine34 in tRNA	cp
17-BETA-HYDROXY-5ALPHA-ANDROSTAN-3-O	17-&beta;-hydroxy-5-&alpha;-androstan-3-one	cp
HCO3	hydrogencarbonate	cp
Acceptor	an oxidized electron acceptor	cp
Non-Rhamonsylated-Rhamnosyl-Acceptors	a non rhamnosylated rhamnosyl acceptor	p
Dihydro-Lipoyl-Proteins	a [lipoyl-carrier protein] N6-dihydrolipoyl-L-lysine	c
CPD-2183	1-oleoyl-2-palmitoyl-phosphatidylglycerol	p
DI-H-URACIL	5,6-dihydrouracil	cp
SUC	succinate	cp
SUC-COA	succinyl-CoA	cp
GLUTAMATE-1-SEMIALDEHYDE	(S)-4-amino-5-oxopentanoate	cp
S-ALLANTOIN	(S)-(+)-allantoin	c
LEU	L-leucine	cp
HX	HX	p
LEU-tRNAs	a tRNALeu	cp
HYDROGEN-PEROXIDE	hydrogen peroxide	cp
D-XYLULOSE	D-xylulose	cp
SUCC-S-ALD	succinate semialdehyde	c
RUTIN	rutin	c
PROTON	H+	cp
Acetoacetyl-ACPs	an acetoacetyl-[acp]	cp
Nonadjacent-pyrimidine-dimer-in-DNA	a dimer of non-adjacent pyrimidine nucleosides in DNA	c
PHOSPHORIBOSYL-FORMAMIDO-CARBOXAMIDE	5-formamido-1-(5-phospho-D-ribosyl)-imidazole-4-carboxamide	cp
DNA-Ligase-L-lysine	a [DNA ligase]-L-lysine	cp
18-HYDROXYOLEATE	18-hydroxyoleate	c
MALONYL-ACP	a malonyl-[acp]	cp
S-Alkyl-L-Cysteines	an S-alkyl-L-cysteine	cp
AMMONIUM	ammonium	cp
PHOSPHORIBOSYL-FORMIMINO-AICAR-P	1-(5-phospho-&beta;-D-ribosyl)-5-[(5-phosphoribosylamino)methylideneamino]imidazole-4-carboxamide	cp
S-CD-S-SP-Complex	an S-sulfanyl-[cysteine desulfurase]-S-sulfanyl-[disordered-form scaffold protein] complex	p
CPD-17365	(4Z,7Z,10Z,13Z,16Z)-docosapentaenoyl-CoA	p
Nonmethylated-Ribosomal-Protein-L11s	a non-methylated ribosomal protein L11	c
DATP	dATP	p
RX	RX	c
MALONYL-COA	malonyl-CoA	cp
HYDROXY-METHYL-BUTENYL-DIP	(E)-4-hydroxy-3-methylbut-2-en-1-yl diphosphate	cp
S-HYDROXYMETHYLGLUTATHIONE	S-(hydroxymethyl)glutathione	c
AMP	AMP	cp
PECTATE	a pectate	cp
S-LACTOYL-GLUTATHIONE	(R)-S-lactoylglutathione	cp
1-4-D-xylooligosaccharides	a (1->4)-&beta;-D-xylan oligosaccharide	c
CPD-17370	18-hydroxyoleoyl-CoA	cp
1-4-alpha-D-Glucan	a 1,4-&alpha;-D-glucan	cp
PHOSPHORIBULOSYL-FORMIMINO-AICAR-P	phosphoribulosylformimino-AICAR-phosphate	p
DCDP	dCDP	cp
D-Xylopyranose	D-xylopyranose	cp
PENICILLIN	a penicillin	cp
LEUKOTRIENE-C4	leukotriene-C4	c
DNA-Ligase-L-lysine-adenylate	a [DNA ligase]-N6-(5'-adenylyl)-L-lysine	cp
MONOMER0-4342	a [prolipoprotein]-(S-diacylglyceryl)-L-cysteine	cp
Nucleoside-Diphosphates	a nucleoside diphosphate	cp
CPD-17372	1-[18-hydroxyoleyl]-2-lyso-phosphatidate	p
Acetylated-S18-N-terminal-L-alanine	an N-terminal N-acetyl-L-alanyl-[S18 protein of 30S ribosome]	p
1-5-L-Arabinooligosaccharides	a (1->5)-&alpha;-L-arabinan oligosaccharide	c
1-AMINO-PROPAN-2-ONE-3-PHOSPHATE	3-amino-1-hydroxyacetone 1-phosphate	cp
CPDQT-415	(E)-N-hydroxy-9-(methylsulfanyl)nonimidothioate	cp
ADP	ADP	cp
Nucleoside-Monophosphates	a nucleoside 5'-monophosphate	p
L-1-phosphatidyl-inositols	a 1-phosphatidyl-1D-myo-inositol	c
ADP-D-GLUCOSE	ADP-&alpha;-D-glucose	p
Nucleoside-Triphosphates	a nucleoside triphosphate	cp
CPD-548	S-formylglutathione	cp
PENICILLIN-G	penicillin G	cp
L-3-HYDROXYACYL-COA	a (3S)-3-hydroxyacyl-CoA	p
CPDQT-429	indolylmethylisothiocyanate	c
2-3-4-Saturated-L-Phosphatidates	a 1,2-diacyl-sn-glycerol 3-phosphate	c
GAP	D-glyceraldehyde 3-phosphate	cp
Actinorhodin-Intermediate-2	9-hydroxy-3,5,7,11,13,15-hexaoxohexadecanoyl-[PKS-acp]	p
4-GUANIDO-BUTYRAMIDE	4-guanidinobutyramide	c
L-5-Monosubstituted-Hydantoins	an L-5-monosubstituted hydantoin	cp
4-HYDROXY-BUTYRATE	4-hydroxybutanoate	p
CPDQT-434	indol-3-ylmethylisothiocyanate-glutathione	p
D-galactopyranose	D-galactopyranose	cp
CPD-558	pimeloyl-CoA	c
L-ALA-GAMMA-D-GLU-DAP	L-alanyl-&gamma;-D-glutamyl-meso-diaminopimelate	c
CPDQT-520	phosphatidylglycerophosphate (1-octadecenoyl(9Z), 2-palmitoyl)	c
2-ACETO-2-HYDROXY-BUTYRATE	(S)-2-aceto-2-hydroxybutanoate	c
L-ALPHA-ALANINE	L-alanine	cp
D-glucopyranose-6-phosphate	D-glucopyranose 6-phosphate	cp
4-HYDROXY-L-PROLINE	trans-4-hydroxy-L-proline	cp
Acyl-Phosphates	an acyl phosphate	c
DADP	dADP	c
CTP	CTP	cp
PROTOPORPHYRINOGEN	protoporphyrinogen IX	p
AICAR	5-amino-1-(5-phospho-D-ribosyl)imidazole-4-carboxamide	cp
CPD-5662	9-mercaptodethiobiotin	cp
2-ACETO-LACTATE	(S)-2-acetolactate	c
L-ARGININO-SUCCINATE	L-arginino-succinate	cp
CPD-568	N1-acetylspermidine	p
CDPDIACYLGLYCEROL	a CDP-diacylglycerol	cp
CPD-19150	(2E,5Z)-dodecenoyl-CoA	cp
O-PHOSPHO-L-HOMOSERINE	O-phospho-L-homoserine	cp
5-PHOSPHORIBOSYL-5-AMINOIMIDAZOLE	5-amino-1-(5-phospho-&beta;-D-ribosyl)imidazole	cp
CPD-1302	5-methyltetrahydropteroyl tri-L-glutamate	cp
N-SUCCINYL-2-AMINO-6-KETOPIMELATE	N-succinyl-2-amino-6-ketopimelate	cp
UDP-N-ACETYL-D-GLUCOSAMINE	UDP-N-acetyl-&alpha;-D-glucosamine	cp
Adjacent-pyrimidine-dimer-in-DNA	a dimer of adjacent pyrimidine nucleosides in DNA	c
UDP-N-ACETYLMURAMATE	UDP-N-acetyl-&alpha;-D-muramate	cp
CPD-19151	(S)-3-hydroxy-(5Z)-dodecenoyl-CoA	p
DNA-N	DNAn	cp
CPD-13043	7-carboxy-7-deazaguanine	cp
2-Lysophosphatidylcholines	a 1-acyl-sn-glycero-3-phosphocholine	c
5-PHOSPHORIBOSYL-N-FORMYLGLYCINEAMIDINE	2-(formamido)-N1-(5-phospho-&beta;-D-ribosyl)acetamidine	cp
Alcohols	an alcohol	p
CPD-19153	3-oxo-(5Z)-dodecenoyl-CoA	c
CPD-13086	(9Z)-12,13-dihydroxyoctadeca-9-enoate	p
N-SUCCINYLLL-2-6-DIAMINOPIMELATE	N-succinyl-L,L-2,6-diaminopimelate	cp
Aldehydes	an aldehyde	p
CPD-19154	(S)-3-hydroxy-(7Z)-tetradecenoyl-CoA	p
TETRACHLOROHYDROQUINONE	2,3,5,6-tetrachlorohydroquinone	c
PROTOPORPHYRIN_IX	protoporphyrin IX	cp
CPD-734	(-)-jasmonate	p
2-METHYL-3-HYDROXY-BUTYRYL-COA	(2S,3S)-3-hydroxy-2-methylbutanoyl-CoA	cp
CPD-13089	(12Z,15Z)-9,10-epoxyoctadeca-12,15-dienoate	c
5-Phospho-terminated-DNAs	a 5'-phospho-[DNA]	cp
BISOHMYR-GLC	lipid A disaccharide	p
CPD-7545	S-(phenylacetothiohydroximoyl)-L-cysteine	cp
CPD-19155	(S)-3-hydroxy-(9Z)-hexadecenoyl-CoA	p
N-Substituted-Amino-Acids	an N-modified amino acid	p
2-METHYL-ACETO-ACETYL-COA	2-methylacetoacetyl-CoA	cp
BISOHMYR-GLUCOSAMINYL-1P	lipid X	cp
CPD-13090	(9Z,15Z)-12,13-epoxy-octadeca-9,15-dienoate	c
O-SUCCINYL-L-HOMOSERINE	O-succinyl-L-homoserine	cp
N-Substituted-Aminoacyl-tRNA	an N-modified aminoacyl-[tRNA]	c
N-acetyl-D-galactosamine	N-acetyl-D-galactosamine	p
CPD-19157	3-oxo-(7Z)-tetradecenoyl-CoA	c
MALTOHEXAOSE	maltohexaose	cp
5-phosphooligonucleotides	a 5'-phosphooligonucleotide	p
CPD-7546	S-(4-methylthiobutylhydroximoyl)-L-cysteine	cp
N-acetyl-D-glucosamine	N-acetyl-D-glucosamine	cp
CPD-13091	(9Z,12Z)-15,16-epoxyoctadeca-9,12-dienoate	c
CPD-19158	3-oxo-(9Z)-hexadecenoyl-CoA	c
CPD-763	arsenite	p
N-acetyl-D-mannosamine	N-acetyl-D-mannosamine	cp
CPD-13092	(9Z,15Z)-12,13-dihydroxyoctadeca-9,15-dienoate	p
2-METHYL-BUTYRYL-COA	2-methylbutanoyl-CoA	p
CPD-19159	(S)-3-hydroxy-(11Z)-octadecenoyl-CoA	p
CPD-7671	methanethiol	c
N-acetyl-beta-D-hexosamines	an N-acetyl-&beta;-D-hexosamine	p
TETRADEHYDROACYL-COA	a (2E,4E)-alkane-2,4-dienoyl-CoA	c
2-METHYLMALEATE	citraconate	cp
CPD-19160	3-oxo-(11Z)-octadecenoyl-CoA	c
CPD-13093	(9Z,12Z)-15,16-dihydroxyoctadeca-9,12-dienoate	p
Aliphatic-Alpha-Omega-Diamines	an aliphatic &alpha;,&omega;-diamine	c
N-formyl-L-methionyl-tRNAfmet	an N-formyl-L-methionyl-[initiator tRNAmet]	p
O-UREIDOHOMOSERINE	O-ureido-L-homoserine	c
VAL	L-valine	cp
tRNAs-with-queuine	a queuosine34 in tRNA	p
Pyruvate-dehydrogenase-acetylDHlipoyl	a [pyruvate dehydrogenase E2 protein] N6-S-acetyldihydrolipoyl-L-lysine	c
DNA-Segment-Placeholder	a DNA segment	cp
VAL-tRNAs	a tRNAVal	c
FERULOYL-COA	feruloyl-CoA	p
Pyruvate-dehydrogenase-dihydrolipoate	a [pyruvate dehydrogenase E2 protein] N6-dihydrolipoyl-L-lysine	cp
Pyruvate-dehydrogenase-lipoate	a [pyruvate dehydrogenase E2 protein] N6-lipoyl-L-lysine	p
PRPP	5-phospho-&alpha;-D-ribose 1-diphosphate	cp
DNA-Segment-in-Reverse-Orientations	a DNA segment in reverse orientation	cp
CPD-10267	decanoyl-CoA	cp
ISOQUINOLIN-12H-ONE	isoquinolin-2(1H)-one	p
DNA-With-GO	a 7,8-dihydro-8-oxoguanine in DNA	c
QUERCITRIN	quercitrin	c
236-TRICHLOROHYDROQUINONE	2,3,6-trichlorohydroquinone	c
CELLULOSE	cellulose	c
LINOLEIC_ACID	linoleate	c
DNA-With-GO-A-Mismatch	DNA with adenine:7,8-dihydro-8-oxoguanine mismatch	c
OCTADEC-9-ENE-118-DIOIC-ACID	&alpha;,&omega;-9Z-octadecenedioate	c
CPD-10269	palmitoleoyl-CoA	cp
DIACYLGLYCEROL	a 1,2-diacyl-sn-glycerol	c
CPD-10284	3-oxo-myristoyl-CoA	c
OCTAPRENYL-DIPHOSPHATE	all-trans-octaprenyl diphosphate	cp
CH3-MALONATE-S-ALD	(S)-methylmalonate-semialdehyde	c
QUEUINE	queuine	c
LINOLENIC_ACID	&alpha;-linolenate	c
23S-rRNA-2-methyladenine2503	a 2-methyladenine2503 in 23S rRNA	p
VANILLATE	vanillate	c
CH33ADO	5'-deoxyadenosine	p
CPD-10418	4-sulfocatechol	c
OCTAPRENYL-METHOXY-BENZOQUINONE	2-methoxy-6-all trans-octaprenyl-1,4-benzoquinol	p
ACETYLSERINE	O-acetyl-L-serine	cp
23S-rRNA-adenine-2503	adenine2503 in 23S rRNA	c
FMN	FMN	cp
23S-rRNA-pseudouridine955-2504-2580	a pseudouridine955/2504/2580 in 23S rRNA	p
ISOQUINOLINE	isoquinoline	c
LINOLENOYL-COA	&alpha;-linolenoyl-CoA	p
CYS	L-cysteine	cp
23S-rRNA-uridine955-2504-2580	uridine955/2504/2580 in 23S rRNA	c
DNA-containing-a-Apyrimidinic-Sites	an apyrimidinic site in DNA	p
DIAMINO-OH-PHOSPHORIBOSYLAMINO-PYR	2,5-diamino-6-(5-phospho-D-ribosylamino)pyrimidin-4(3H)-one	c
QUINOLINATE	quinolinate	cp
FMNH2	FMNH2	cp
CYS-GLY	L-cysteinyl-glycine	p
CPD-10419	3-sulfomuconate	p
GDP	GDP	cp
Peptides-holder	a peptide	p
GDP-4-DEHYDRO-6-DEOXY-D-MANNOSE	GDP-4-dehydro-&alpha;-D-rhamnose	p
HYDROXYMETHYLBILANE	preuroporphyrinogen	p
CPD0-1718	7,8-dihydropterin	c
3-Hydroxy-Terminated-DNAs	a [DNA]-3'-hydroxyl	c
GDP-MANNOSE	GDP-&alpha;-D-mannose	cp
CPD-569	N-acetylputrescine	p
PHYTYL-PYROPHOSPHATE	phytyl diphosphate	cp
DNA-containing-aPurinic-Sites	an apurinic site within DNA	p
3-Hydroxy-octanoyl-ACPs	a (3R)-3-hydroxyoctanoyl-[acp]	p
CPD0-181	N5-carboxyaminoimidazole ribonucleotide	c
Persulfurated-L-cysteine-desulfurases	an S-sulfanyl-[L-cysteine desulfurase]	p
3-Hydroxyglutaryl-ACP-methyl-ester	a (3R)-3-hydroxyglutaryl-[acp] methyl ester	p
DNA-containing-abasic-Sites	a DNA containing an apurinic/apyrimidinic site	cp
CPD-578	urea-1-carboxylate	c
CPD0-1905	8-oxo-dGTP	c
Phenols	a phenol	p
Phenyl-Acetates	a phenyl acetate	c
CPD0-1958	3-(N-morpholino)propanesulfonate	c
CPD-5821	(S)-2-oxo-4-hydroxy-4-carboxy-5-ureidoimidazoline	p
DNA-containing-diamino-hydro-formamidops	a ring-opened 7-methylguanine in DNA	c
HYPOXANTHINE	hypoxanthine	cp
OCTAPRENYL-METHYL-METHOXY-BENZQ	6-methoxy-3-methyl-2-all-trans-octaprenyl-1,4-benzoquinol	c
CPD0-1965	N&alpha;,N&epsilon;-diacetyl-lysyl-D-alanyl-D-alanine	cp
CPD-592	4-guanidinobutanoate	p
CPD-5923	5'-deoxy-5'-fluoroadenosine	c
OCTAPRENYL-METHYL-OH-METHOXY-BENZQ	3-demethylubiquinol-8	cp
DNA-deoxycytidine-dimer	a dimer of non-adjacent 2'-deoxycytidines in DNA	c
HEXANOYL-COA	hexanoyl-CoA	cp
GDP-TP	pppGpp	p
Halide-Anions	a halide anion	p
CPD0-2015	N-acetyl-L-methionine	p
Phosphoglucomutase	a phosphoglucomutase	cp
SUCROSE	sucrose	cp
Phosphoglucosamine-Mutase	a phosphoglucosamine mutase	cp
CPD-7695	ditrans,octacis-undecaprenyldiphospho-N-acetyl-(N-acetyl-&beta;-D-glucosaminyl)muramoyl-L-alanyl-&gamma;-D-glutamyl-L-lysyl-D-alanyl-D-alanine	p
CPD-11525	3-oxo-2-(cis-2'-pentenyl)-cyclopentane-1-butanoyl-CoA	p
S-NITROSOGLUTATHIONE	S-nitrosoglutathione	c
L-ASPARTATE	L-aspartate	cp
DNA-deoxycytidine-thymidine-dimer	a dimer of non-adjacent 2'-deoxycytidine and thymidine in DNA	c
DCMP	dCMP	c
CPD-11526	3-oxo-2-(cis-2'-pentenyl)-cyclopentane-1-(E-buta-2-enoyl)-CoA	c
DCTP	dCTP	cp
CPD-11527	3-oxo-2-(cis-2'-pentenyl)-cyclopentane-1-(3R-hydroxybutanoyl)-CoA	p
Dipeptides-With-Proline-Carboxy	a dipeptide with proline at the C-terminal	c
DNA-pyrimidines	a pyrimidine nucleoside in DNA	p
S-Substituted-Glutathione	a glutathione-toxin conjugate	p
L-ASPARTATE-SEMIALDEHYDE	L-aspartate-semialdehyde	cp
Diribonucleotide	a diribonucleotide	p
S-Substituted-L-Cysteines	an L-cysteine-S-conjugate	cp
CPD-11528	3-oxo-2-(cis-2'-pentenyl)-cyclopentane-1-(3-oxobutanoyl)-CoA	c
DNA-thymidine-deoxycytidine-dimer	a dimer of non-adjacent thymidine and 2'-deoxycytidine in DNA	c
DNA-thymidine-dimer	a dimer of non-adjacent thymidines in DNA	c
S18-N-terminal-L-alanine	an N-terminal L-alanyl-[S18 protein of 30S ribosome]	c
CPD-11529	(+)-7-epi-jasmonoyl-CoA	p
SACCHAROPINE	L-saccharopine	c
VERY-LONG-CHAIN-FATTY-ACYL-COA	a very long chain fatty acyl-CoA	p
OH-ACYL-ACP	a (3R)-3-hydroxyacyl-[acyl-carrier protein]	cp
Dodecanoyl-ACPs	a dodecanoyl-[acp]	c
CPD-11592	2-methylsulfanyl-N6-dimethylallyladenosine37 in tRNA	p
DNA-thymidines	a thymidine in DNA	p
OH-HEXANOYL-COA	(S)-3-hydroxyhexanoyl-CoA	c
Donor-H2	a reduced electron acceptor	cp
CPD-784	5-carboxymethyl-2-hydroxymuconate	c
4-IMIDAZOLONE-5-PROPIONATE	4-imidazolone-5-propanoate	cp
Double-Stranded-DNAs	a double stranded DNA	cp
Vernolates	vernolate	c
CPD-11643	two adjacent thymidines in DNA	p
DNA-with-Uracils	a uracil in DNA	c
4-MALEYL-ACETOACETATE	4-maleyl-acetoacetate	cp
Double-helix-DNA	a double-helix DNA	c
FORMALDEHYDE	formaldehyde	p
SALICYLALDEHYDE	salicylaldehyde	c
ACP	a holo-[acyl-carrier protein]	cp
CPD-785	(3E,5R)-5-carboxy-2-oxohept-3-enedioate	p
ACRYLAMIDE	acrylamide	c
L-BETA-ASPARTYL-P	L-aspartyl-4-phosphate	cp
Very-long-chain-fatty-acids	a very-long-chain fatty acid	c
BUTANAL	butan-1-al	p
CPD-11770	7,8-dihydromonapterin	c
CPD-15285	N&alpha;-methyl-L-histidine	cp
OH-MYRISTOYL	UDP-2-N,3-O-bis[(3R)-3-hydroxytetradecanoyl]-&alpha;-D-glucosamine	cp
CPD-19161	(2E,7Z)-tetradecenoyl-CoA	cp
CPD-219	D-lysine	c
N-terminal-L-Serine	an N-terminal L-seryl-[protein]	p
CPD-17386	(2E,6Z,9Z,12Z,15Z,18Z,21Z)-tetracosaheptaenoyl-CoA	c
N-terminal-L-alanine	an N-terminal L-alanyl-[protein]	p
CPD-19162	(2E,9Z)-hexadecenoyl-CoA	cp
CPD-15301	caldariellaquinol	p
2-Me-Branched-234-Sat-FA	a 2-methyl branched 2,3,4-saturated fatty acid	c
CPD-17387	(3S)-hydroxy-(6Z,9Z,12Z,15Z,18Z,21Z)-tetracosahexaenoyl-CoA	p
OH-PYR	hydroxypyruvate	cp
2-Me-Branched-234-Sat-Fatty-Acyl-CoA	a 2-methyl branched 2,3,4-saturated fatty acyl-CoA	p
N-terminal-L-cysteine	an N-terminal L-cysteinyl-[protein]	p
N-terminal-L-cysteine-sulfinate	an N-terminal 3-sulfino-L-alanyl-[protein]	c
CPD-15317	D-ribofuranose 5-phosphate	cp
N-terminal-L-cysteine-sulfonate	an N-terminal 3-sulfo-L-alanyl-[protein]	c
CPD-19163	(2E,11Z)-octadecenoyl-CoA	cp
CPD-15358	(2,3-dihydroxybenzoylserine)2	cp
CPD-17388	3-oxo-(6Z,9Z,12Z,15Z,18Z,21Z)-tetracosahexaenoyl-CoA	c
N-terminal-L-valine	an N-terminal L-valyl-[protein]	p
CPD-15360	2-sulfanyl-N6-dimethylallyladenosine37 in tRNA	cp
2-NUCLEOTIDYLGENTAMICIN	a 2-nucleotidylgentamicin	cp
CPD-237	(indol-3-yl)acetamide	c
CPD-19167	3-oxo-(7Z)-hexadecenoyl-CoA	c
N-terminal-glycine	an N-terminal glycyl-[protein]	p
CPD-19168	(S)-3-hydroxy-(7Z)-hexadecenoyl-CoA	p
2-OCTAPRENYL-6-HYDROXYPHENOL	3-(all-trans-octaprenyl)benzene-1,2-diol	c
N1-ACETYLSPERMINE	N1-acetylspermine	p
UDP-OHMYR-ACETYLGLUCOSAMINE	UDP-3-O-[(3R)-3-hydroxymyristoyl]-N-acetyl-&alpha;-D-glucosamine	c
CPD-15382	keto-D-fructose	cp
CPD-245	3-carboxy-cis,cis-muconate	p
CPD-19169	3-oxo-(9Z)-octadecenoyl-CoA	c
CPD-17496	p-nitrophenyl-&alpha;-L-rhamnopyranoside	c
CPD-15384	L-alanyl-&gamma;-D-glutamyl-L-lysyl-D-alanyl-D-alanine	cp
2-OCTAPRENYL-6-METHOXYPHENOL	2-methoxy-6-(all-trans-octaprenyl)phenol	cp
UDP-OHMYR-GLUCOSAMINE	UDP-3-O-(3-hydroxymyristoyl)-&alpha;-D-glucosamine	cp
N2-SUCCINYLGLUTAMATE	N2-succinylglutamate	c
CPD-19170	(2E,7Z)-hexadecenoyl-CoA	cp
CPD-270	an N-acyl-D-glucosamine	cp
CPD-15436	(5Z)-tetradecenoyl-CoA	cp
CPD-293	5-&alpha;-pregnane-3,20-dione	cp
MYO-INOSITOL	myo-inositol	p
MALTOPENTAOSE	maltopentaose	cp
CPD-13094	(12Z,15Z)-9,10-dihydroxyoctadeca-12,15-dienoate	p
DE-O-K-GLUCONATE	3-dehydro-2-deoxy-D-gluconate	p
DODECANOATE	laurate	c
Phospholipid-Cyclopropane-Fatty-Acids	a [phospholipid] cyclopropane fatty acid	p
DIAMINONONANOATE	7,8-diaminopelargonate	c
Phospholipid-Olefinic-Fatty-Acids	a [phospholipid] olefinic fatty acid	c
CPD0-2030	glycerophosphoserine	c
DE-O-GLUCONATE	2-deoxygluconate	c
CPD-13122	4-deoxy-L-threo-hex-4-enopyranuronate	p
Phosphorylated-Phosphoglucosamine-Mutase	a phosphorylated phosphoglucosamine mutase	cp
LIPID-IV-A	lipid IVA	c
CPD-13172	6-hydroxy-2-cyclohexen-one-carboxylate	p
DPG	3-phospho-D-glyceroyl-phosphate	cp
CPD-105	(R)-4-hydroxymandelate	c
Phosphorylated-phosphoglucomutase	a phosphorylated phosphoglucomutase	cp
ANDROSTERONE	androsterone	c
CPD0-2105	3-oxododecanoyl-CoA	cp
CPD-10503	7&alpha;,12&alpha;-dihydroxy-5&beta;-cholestan-3-one	c
Phosphoserines	L(or D)-O-phosphoserine	c
DEAMIDO-NAD	nicotinate adenine dinucleotide	c
MALTOSE	maltose	cp
HIS	L-histidine	cp
CPD0-2106	3-oxooctanoyl-CoA	cp
2C-METH-D-ERYTHRITOL-CYCLODIPHOSPHATE	2-C-methyl-D-erythritol-2,4-cyclodiphosphate	c
MALTOTETRAOSE	maltotetraose	cp
CPD-13174	salicyl-6-hydroxy-2-cyclohexene-on-oyl	c
ANTHRANILATE	anthranilate	cp
HIS-tRNAs	a tRNAHis	c
CPD-10546	methyl (indol-3-yl)acetate	c
CPD-10548	7&alpha;-hydroxy-5&beta;-cholestan-3-one	c
CPD-13179	5-&alpha;-androstan-3&alpha;,17&beta;-diol	cp
Pi	phosphate	cp
Pimeloyl-ACPs	a pimeloyl-[acp]	c
3-KETO-ADIPYL-COA	3-oxoadipyl-CoA	c
QXC-ACP	a quinoxaline-2-carboxyl-[acyl-carrier protein]	p
MALTOTRIOSE	maltotriose	cp
CPD0-2113	1-stearoyl-sn-glycerol 3-phosphate	p
2K-4CH3-PENTANOATE	4-methyl-2-oxopentanoate	cp
LIPOIC-ACID	(R)-lipoate	c
Malonyl-acp-methyl-ester	a malonyl-[acp] methyl ester	c
GERANYLGERANYL-PP	geranylgeranyl diphosphate	cp
CPD-13187	unsaturated gellan tetrasaccharide	c
DEHYDRO-DEOXY-GALACTONATE-PHOSPHATE	2-dehydro-3-deoxy-D-galactonate 6-phosphate	cp
2K-ADIPATE	2-oxoadipate	cp
LIPOYL-AMP	lipoyl-adenylate	cp
APS	adenosine 5'-phosphosulfate	cp
CPD0-2117	trans-hexadec-2-enoyl-CoA	c
Maltodextrins	a maltodextrin	cp
CPD-13188	&beta;-D-Glcp-(1&rarr;4)-&alpha;-L-Rhap-(1&rarr;3)-D-Glcp	p
DTDP-D-GLUCOSE	dTDP-&alpha;-D-glucose	cp
THF-GLU-N	a tetrahydrofolate	cp
3-KETOACYL-COA	a 3-oxoacyl-CoA	cp
3-KETOBUTYRATE	acetoacetate	cp
TRP	L-tryptophan	cp
CPD-600	N-formyl-L-glutamate	c
3-Ketoglutaryl-ACP-methyl-ester	a 3-oxo-glutaryl-[acp] methyl ester	cp
ISOVALERATE	isovalerate	c
OLEATE-CPD	oleate	cp
CYS-tRNAs	a tRNACys	cp
3-Ketopimeloyl-ACP-methyl-esters	a 3-oxo-pimeloyl-[acp] methyl ester	cp
TRP-tRNAs	a tRNATrp	c
POLY-GLUCOSYLATED-GLYCOGENINS	a glucosylated glycogenin	c
THIAMINE-P	thiamine phosphate	c
FORMATE	formate	cp
N5-Formyl-THF-Glu-N	an (6S)-N5-formyl-tetrahydrofolate	cp
CPD-602	5-amino-6-(5-phospho-D-ribosylamino)uracil	p
THIAMINE-PYROPHOSPHATE	thiamine diphosphate	p
Hepta-oxo-hexadecanoyl-ACPs	a 3,5,7,9,11,13,15-hepta-oxo-hexadecanoyl-[PKS-acp]	c
ISOVALERYL-COA	isovaleryl-CoA	cp
GMP	GMP	cp
5734-TETRAHYDROXYFLAVONE	luteolin	p
ACRYLATE	acrylate	p
Hexanoyl-ACPs	a hexanoyl-[acyl-carrier-protein]	c
3-MERCAPTO-PYRUVATE	3-mercaptopyruvate	c
SULFATE	sulfate	cp
CPD-6442	methylsalicylate	c
3-METHYL-CROTONYL-COA	3-methylcrotonyl-CoA	cp
FORMYL-L-METHIONYL-PEPTIDE	a [protein] N-terminal-formyl-L-methionine	c
NAD	NAD+	cp
ALA-tRNAs	a tRNAAla	c
FORMYL-THF-GLU-N	an N10-formyl-tetrahydrofolate	cp
ITP	ITP	cp
DTDP-DEOH-DEOXY-GLUCOSE	dTDP-4-dehydro-6-deoxy-&alpha;-D-glucopyranose	cp
SE-2	selenide	c
Hpr-Histidine	an [HPr]-L-histidine	c
DTDP-DEOH-DEOXY-MANNOSE	dTDP-4-dehydro-&beta;-L-rhamnose	cp
Hpr-pi-phospho-L-histidines	an [HPr protein]-N&pi;-phospho-L-histidine	p
3-METHYLTHIOPROPYLHYDROXAMIC-ACID	(E)-N-hydroxy-4-(methylsulfanyl)butimidothioate	cp
OLEOYL-COA	oleoyl-CoA	cp
5S-rRNAs	a 5S rRNA	p
NAD-P-OR-NOP	NAD(P)+	cp
CPD-17621	16-hydroxypalmitoyl-CoA	p
L-CANALINE	L-canaline	p
CPD-805	deethylsimazine	c
CHITIN	chitin	cp
4-OH-4-ACETYL-2-OXOGLUTARATE	2-hydroxy-4-oxobutane-1,2,4-tricarboxylate	cp
CHITOBIOSE	N,N'-diacetylchitobiose	cp
4-OXALOMESACONATE	(1E)-4-oxobut-1-ene-1,2,4-tricarboxylate	p
CPD-17624	&omega;-carboxy-(9Z)-octadec-9-enoyl-CoA	p
DTDP-RHAMNOSE	dTDP-&beta;-L-rhamnose	p
CPD-806	N-ethylammeline	p
DIHYDRO-NEO-PTERIN	7,8-dihydroneopterin	c
CPD-17637	7-hydroxylaurate	c
WATER	H2O	cp
L-CITRULLINE	L-citrulline	c
DIHYDRO-THYMINE	5,6-dihydrothymine	cp
CHLOROPHYLL-A	chlorophyll a	p
L-CYSTATHIONINE	L-cystathionine	c
CPD-17638	7-hydroxylauroyl-CoA	p
GLUTARYL-COA	glutaryl-CoA	p
CPD-17640	18-hydroxystearate	c
4-P-PANTOTHENATE	(R)-4'-phosphopantothenate	p
Wound-RNA	wound RNA	c
XANTHINE	xanthine	cp
CPD-17641	18-hydroxystearoyl-CoA	p
CHOCOLA_A	all-trans-retinyl palmitate	c
CPD-8180	DNA with lesion	c
4-PHOSPHONOOXY-THREONINE	4-phosphooxy-L-threonine	cp
CPD-17813	(2E,11Z)-hexadec-2,11-dienoyl-CoA	c
L-Cysteine-Desulfurase-persulfide	an [L-cysteine desulfurase]-S-sulfanyl-L-cysteine	cp
4-hydroxybenzoate	4-hydroxybenzoate	cp
GLUTATHIONE	glutathione	cp
DIHYDROFOLATE	7,8-dihydrofolate monoglutamate	p
CPD-17814	(11Z)-(S)-3-hydroxyhexadec-11-enoyl-CoA	p
L-Cysteine-Desulfurases	an [L-cysteine desulfurase]	c
XANTHOSINE	xanthosine	cp
L-DELTA1-PYRROLINE_5-CARBOXYLATE	(S)-1-pyrroline-5-carboxylate	c
OLIGOPEPTIDES	an oligopeptide	c
DIHYDROFOLATE-GLU-N	a 7,8-dihydrofolate	p
XANTHOSINE-5-PHOSPHATE	XMP	cp
CHOLATE	cholate	cp
PHE	L-phenylalanine	cp
CPD-8259	&beta;-D-ribosylnicotinate	p
L-FUCULOSE	L-fuculose	c
CPD0-2121	trans-hex-2-enoyl-CoA	p
CPD-13227	N,N',N''-triacetylchitotriose	c
5Z-3-oxo-tetradec-5-enoyl-ACPs	a (5Z)-3-oxo-tetradec-5-enoyl-[acp]	cp
CPD-15438	dioscin	c
Poly-Hydroxybutyrate	poly-3-hydroxybutanoate	cp
CPD-11855	(R)-4-hydroxy-4-methyl-2-oxoglutarate	cp
CPD-294	2-maleylacetate	p
Aliphatic-L-Amino-Acids	an aliphatic L-amino acid	p
CPD-13339	(2Z,4E)-2-hydroxyhexa-2,4-dienedioate	cp
CPD-15440	3-O-&beta;-D-glucosyl-diosgenin	p
Aliphatic-N-Acetyl-Diamines	Unknown	p
CPD0-2123	3-oxodecanoyl-CoA	c
CPD-12045	&alpha;-L-arabinofuranose	p
CPD-13357	(2R)-2,3-dihydroxy-3-methylbutanoate	cp
5Z-tetradec-5-enoyl-ACPs	a (5Z)-tetradec-5-enoyl-[acp]	c
ENTEROBACTIN	enterobactin	c
CPD-155	D-galacto-hexodialdose	p
BUTYRYL-COA	butanoyl-CoA	c
5Z8Z11Z14Z17Z-EICOSAPENTAENOATE	icosapentaenoate	c
Alkanesulfonates	an alkylsulfonate	c
CPD-2961	D-gluconate 6-phosphate	cp
CPD0-2171	(S)-3-hydroxytetradecanoyl-CoA	p
Menaquinols	a menaquinol	cp
CPD-121	(R)-mandelate	c
6-AMINOPENICILLANATE	6-aminopenicillanate	cp
CPD-15566	(2E,4E)-tetradecadienoyl-CoA	c
CPD-12112	salicyloyl-CoA	c
Alkyl-Hydro-Peroxides	an organic hydroperoxide	c
CPD-13375	XXXG xyloglucan oligosaccharide	p
Alkyl-Thiols	an alkyl-thiol	cp
Menaquinones	a menaquinone	cp
CPD-12173	(S)-3-hydroxy-isobutanoyl-CoA	cp
CPD-31	(R)-citramalate	cp
Alkylated-Bases	an alkylated nucleobase	p
CPD-13376	XXLG xyloglucan oligosaccharide	p
CPD-15567	(3E)-tetradec-3-enoyl-CoA	p
Mercapturates	a mercapturate	c
CPD-316	reduced riboflavin	p
Alkylated-DNAs	an alkylated DNA	c
CPD-13377	XLXG xyloglucan oligosaccharide	p
CPD0-2231	dIDP	cp
CPD-12175	(S)-3-hydroxy-isobutanoate	p
HISTIDINAL	histidinal	cp
CPD-13378	XLLG xyloglucan oligosaccharide	p
CPD-15568	2E)-tetradec-2-enoyl-CoA	c
Behenoyl-ACPs	a behenoyl-[acp]	c
CPD-320	ethylnitronate	c
CPD0-2232	(S)-3-hydroxyhexadecanoyl-CoA	p
R-2-Haloacids	an (R)-2-haloacid	c
DEHYDROQUINATE	3-dehydroquinate	cp
ARABINOSE-5P	aldehydo-D-arabinose 5-phosphate	cp
OROTATE	orotate	cp
R-2-Hydroxyacids	an (R)-2-hydroxyacid	p
CPD-19171	(S)-3-hydroxy-(9Z)-octadecenoyl-CoA	p
CPD-106	(S)-4-hydroxymandelate	p
CPD-10600	4-hydroxybenzoyl-acetyl-CoA	c
DELTA1-PIPERIDEINE-2-6-DICARBOXYLATE	(S)-2,3,4,5-tetrahydrodipicolinate	cp
GLC-1-P	&alpha;-D-glucopyranose 1-phosphate	cp
FRU1P	&beta;-D-fructofuranose 1-phosphate	c
PORPHOBILINOGEN	porphobilinogen	cp
CPD-10608	trans-dienelactone	c
GLC-D-LACTONE	D-glucono-1,5-lactone	cp
LL-DIAMINOPIMELATE	L,L-diaminopimelate	cp
CPD-19172	(2E,9Z)-octadecenoyl-CoA	cp
Initiation-tRNAmet	initiator tRNAMet	c
6-CARBOXYHEX-2-ENOYL-COA	6-carboxyhex-2-enoyl-CoA	p
R-3-Hydroxypalmitoyl-ACPs	a (3R)-3-hydroxypalmitoyl-[acp]	p
SELENATE	selenate	c
R-3-hydroxy-cis-vaccenoyl-ACPs	(R)-3-hydroxy-cis-vacc-11-enoyl-[acp]	p
FRUCTOSE-16-DIPHOSPHATE	&beta;-D-fructose 1,6-bisphosphate	cp
R-3-hydroxyarachidoyl-ACPs	a (3R)-3-hydroxyarachidoyl-[acp]	p
CPD-19202	L-4-hydroxyphenylglycine-L-arginyl-D-4-hydroxyphenylglycine-L-seryl-L 4-hydroxyphenylglycine	c
FRUCTOSE-6P	&beta;-D-fructofuranose 6-phosphate	cp
R-3-hydroxybehenoyl-ACPs	a (3R)-3-hydroxybehenoyl-[acp]	p
R-3-hydroxycerotoyl-ACPs	a (3R)-3-hydroxycerotoyl-[acp]	p
R-3-hydroxydodecanoyl-ACPs	a (3R)-3-hydroxydodecanoyl-[acp]	p
CPD-19203	D-4-hydroxyphenylglycine-L-seryl-L 4-hydroxyphenylglycine	p
R-3-hydroxyhexanoyl-ACPs	a (3R)-3-hydroxyhexanoyl-[acp]	p
CPD-19205	L-4-hydroxyphenylglycine-L-arginine	p
6-Dimethylallyladenosine37-tRNAs	N6-dimethylallyladenosine37 in tRNA	cp
SELENOHOMOCYSTEINE	seleno-L-homocysteine	p
R-3-hydroxylignoceroyl-ACPs	a (3R)-3-hydroxylignoceroyl-[acp]	p
R-3-hydroxymyristoyl-ACPs	a (3R)-3-hydroxymyristoyl-[acp]	cp
FRUCTURONATE	D-fructuronate	cp
SUPER-OXIDE	superoxide	c
CPD-10633	5-chloro-trans-dienelactone	c
R-3-hydroxypetroselinoyl-ACPs	a (3R)-3-hydroxypetroselinoyl-[acp]	p
MANNOSE-1P	&alpha;-D-mannose 1-phosphate	cp
LUTEOLIN-7-O-BETA-D-DIGLUCURONIDE	luteolin 7-O-&beta;-D-diglucuronide	p
CPD-19217	S-(hydroxysulfenamide)-glutathione	p
6-PYRUVOYL-5678-TETRAHYDROPTERIN	(6R)-6-pyruvoyl-5,6,7,8-tetrahydropterin	p
CYTIDINE	cytidine	cp
R-3-hydroxystearoyl-ACPs	a (3R)-3-hydroxystearoyl-[acp]	p
ERYTHROSE-4P	D-erythrose 4-phosphate	cp
DELTA3-ISOPENTENYL-PP	isopentenyl diphosphate	cp
CPD-10634	5-chloromaleylacetate	p
SEPO3	selenophosphate	cp
ARG	L-arginine	cp
MELIBIOSE	melibiose	c
CPD-19395	&gamma;-L-glutamyl-glycylglycine	p
LUTEOLIN-7-O-BETA-D-GLUCURONIDE	luteolin 7-O-&beta;-D-glucuronide	c
CPD-10636	2,5-dichloro-trans-dienelactone	c
ETF-Oxidized	an oxidized electron-transfer flavoprotein	cp
K+	K+	cp
CPD-10637	2,5-dichloromaleylacetate	p
LUTEOLIN-7-O-BETA-D-GLUCURONOSYL-1-2	luteolin 7-O-[&beta;-D-glucosyluronate-(1,2)-&beta;-D-glucosiduronate]-4'-O-&beta;-D-glucosiduronate	c
PPI	diphosphate	cp
GLN	L-glutamine	cp
SER	L-serine	cp
MENADIOL	menadiol	p
OROTIDINE-5-PHOSPHATE	orotidine 5'-phosphate	cp
CHORISMATE	chorismate	cp
ARG-tRNAs	a tRNAArg	cp
2-OCTAPRENYLPHENOL	2-octaprenylphenol	p
2-OH-3-Methyl-Saturated-Fatty-Acyl-CoA	a 2-hydroxy-3-methyl-branched 2,3,4-saturated fatty acyl-CoA	p
IDP	IDP	cp
2-OXOBUTANOATE	2-oxobutanoate	p
DUDP	dUDP	c
PYRAZINAMIDE	pyrazinamide	c
XYLOSE	&alpha;-D-xylopyranose	p
ILE	L-isoleucine	cp
PYRAZINOIC-ACID	pyrazine-2-carboxylate	p
ILE-tRNAs	a tRNAIle	c
HISTIDINOL	histidinol	cp
CPD-8355	1-18:1-2-lysophosphatidylethanolamine	c
3-Methyl-Saturated-Fatty-Acids	a 3-methyl-branched 2,3,4-saturated fatty acid	c
3-Methyl-Saturated-Fatty-Acyl-CoA	a 3-methyl-branched 2,3,4-saturated fatty acyl-CoA	cp
3-OCTAPRENYL-4-HYDROXYBENZOATE	3-octaprenyl-4-hydroxybenzoate	cp
CPD-650	(3R)-3-hydroxybutanoyl-CoA	p
CPD0-2244	(S)-3-hydroxydecanoyl-CoA	p
PSEUDOURIDINE-5-P	pseudouridine 5'-phosphate	cp
Beta-3-hydroxybutyryl-ACPs	a (3R)-3-hydroxybutanoyl-[acp]	p
All-trans-Retinyl-Esters	an all-trans-retinyl ester	c
Alpha-6-alpha-14-glucans	a (1,6)-&alpha;-D-glucosyl-(1,4)-&alpha;-glucan	p
Alpha-Amyloses	&alpha;-amylose	c
PTS-I-Histidines	a [PTS enzyme I]-L-histidine	cp
CPD0-2298	(S)-ureidoglycine	p
PTS-I-pi-phospho-L-histidines	a [PTS enzyme I]-N&pi;-phospho-L-histidine	cp
CPD-8524	N-carbamoyl-D-phenylglycine	p
Beta-D-Glucuronides	a &beta;-D-glucuronoside	c
Alpha-D-Galactosides	an &alpha;-D-galactoside	c
CPD-335	(R)-3-hydroxybutanoate	cp
L-GAMMA-GLUTAMYLCYSTEINE	&gamma;-L-glutamyl-L-cysteine	cp
PUTRESCINE	putrescine	cp
OXALACETIC_ACID	oxaloacetate	cp
Alpha-D-Glucuronides	an &alpha;-D-glucuronoside	c
CPD-342	5&alpha;-androstane-3,17-dione	p
CPD-8534	DNA without lesion	p
3-OXO-EICOSAPENTAENOYL-ACP	a 3-oxo-docosapentaenoyl [acp]	c
ACYL-ACP	an acyl-[acyl-carrier protein]	cp
CPD0-2350	a polycistronic tRNA precursor	cp
Beta-hydroxydecanoyl-ACPs	a (3R)-3-hydroxydecanoyl-[acp]	p
CPD-8624	a [protein]-L-proline (&omega; = 180)	cp
CPD0-2351	a tRNA precursor with a 5' extension and a long 3' trailer	p
CPD-654	2,5-dioxopentanoate	cp
CPD0-2352	a tRNA precursor with a 5' extension and a short 3' extension	cp
CPD-8625	a [protein]-L-proline (&omega; = 0)	cp
ACYL-COA	an acyl-CoA	c
CPD0-2353	a tRNA precursor with a short 3' extension	c
CPD0-2354	a tRNA precursor with a 5' extension	p
Alpha-L-Rhamnosides	an &alpha; L-rhamnoside	c
GTP	GTP	cp
CPD-8742	(3E)-2-oxohex-3-enedioate	cp
CPD-658	CDP-4-dehydro-6-deoxy-D-glucose	c
THMPT	tetrahydromethanopterin	p
ACYL-SN-GLYCEROL-3P	a 1-acyl-sn-glycerol 3-phosphate	p
OXALO-SUCCINATE	oxalosuccinate	cp
L-GLUTAMATE-5-P	&gamma;-L-glutamyl 5-phosphate	cp
CPD-3462	N8-acetylspermidine	p
CPD-66	2-hydroxy-3-oxosuccinate	cp
Butanoyl-ACPs	a butanoyl-[acp]	c
CPD-663	UDP-4-dehydro-6-deoxy-&alpha;-D-glucose	cp
CPD-9049	cobyrinate	c
CPD0-2483	(2,3-dihydroxybenzoylserine)3	cp
Amino-Acids	an amino acid	cp
CPD0-2500	p-nitrophenyl-&alpha;-D-galactopyranoside	c
Amino-Acids-20	a proteinogenic amino acid	cp
C1	UDP-N-acetyl-&alpha;-D-muramoyl-L-alanyl-&gamma;-D-glutamyl-meso-2,6-diaminopimeloyl-D-alanyl-D-alanine	cp
GLN-tRNAs	a tRNAGln	c
THR	L-threonine	cp
SER-tRNAs	a tRNAser	c
CIS-2-CHLORO-4-CARBOXYMETHYLENEBUT-2-EN-	2-chloro-cis-dienelactone	c
THR-tRNAs	a tRNAThr	c
Saturated-Fatty-Acyl-ACPs	a 2,3,4-saturated fatty acyl-[acp]	c
3-4-DIHYDROXYBENZOATE	protocatechuate	cp
FUCULOSE-1P	L-fuculose 1-phosphate	p
Saturated-Fatty-Acyl-CoA	a 2,3,4-saturated fatty acyl CoA	cp
GLT	L-glutamate	cp
CPD-15654	2-trans, 4-cis-undecadienoyl-CoA	c
GLT-tRNAs	a tRNAglu	p
CIS-4-HYDROXY-D-PROLINE	cis-4-hydroxy-D-proline	cp
CPD-15655	(3E)-undec-3-enoyl-CoA	p
THREO-DS-ISO-CITRATE	D-threo-isocitrate	cp
FUM	fumarate	cp
CPD-15661	2-trans, 4-trans-undecadienoyl-CoA	c
3-5-ADP	adenosine 3',5'-bisphosphate	cp
PREPHENATE	prephenate	cp
CIS-ACONITATE	cis-aconitate	cp
CPD-15663	2-trans-nonenoyl-CoA	p
DIHYDROLIPOYL-GCVH	a [glycine-cleavage complex H protein] N6-dihydrolipoyl-L-lysine	cp
Serines	serine	p
DIHYDRONEOPTERIN-P3	7,8-dihydroneopterin 3'-triphosphate	c
TTP	dTTP	cp
Carboxylates	a carboxylate	cp
SEROTONIN	serotonin	c
ALLANTOATE	allantoate	cp
CPD-15667	6-cis, 3-oxo-tridecenoyl-CoA	c
CIS-D2-ENOYL-COA	a cis-2-enoyl-CoA	cp
Carboxylic-esters	a carboxylic ester	c
CPD-15668	4-cis-undecenoyl-CoA	p
CPD-15676	6-trans-3-oxo-tridecenoyl-CoA	c
CPD-19487	3-isopropyl-10-(methylthio)-2-oxodecanoate	cp
Polysaccharides	a polysaccharide	p
PHE-tRNAs	a tRNAPhe	p
CPD-19488	3-isopropyl-9-(methylthio)-2-oxononanoate	cp
DEOXY-D-RIBOSE-1-PHOSPHATE	2-deoxy-&alpha;-D-ribose 1-phosphate	cp
2-Oxo-carboxylates	a 2-oxo carboxylate	p
CPD-19489	3-isopropyl-8-(methylthio)-2-oxooctanoate	cp
K-HEXANOYL-COA	3-oxohexanoyl-CoA	p
CPD-19490	3-isopropyl-7-(methylthio)-2-oxoheptanoate	cp
UMP	UMP	cp
CPD-19491	3-isopropyl-6-(methylthio)-2-oxohexanoate	cp
Methylated-Ribosomal-Protein-L11s	a methylated ribosomal protein L11	p
2-PG	2-phospho-D-glycerate	cp
DEOXY-RIBOSE-5P	2-deoxy-D-ribose 5-phosphate	cp
Prolipoprotein-Cysteines	a [prolipoprotein]-L-cysteine	c
CPD-19492	3-ethyl-2-oxosuccinate	cp
DEOXYADENOSINE	2'-deoxyadenosine	cp
CPD-10750	UDP-2-acetamido-2,6-dideoxy-&beta;-L-arabino-hex-4-ulose	cp
2-PHOSPHO-4-CYTIDINE-5-DIPHOSPHO-2-C-MET	2-phospho-4-(cytidine 5'-diphospho)-2-C-methyl-D-erythritol	p
CPD-19493	S-(mercaptomethyl)-L-cysteine	p
MESO-DIAMINOPIMELATE	meso-diaminopimelate	cp
IMIDAZOLE-ACETOL-P	imidazole acetol-phosphate	cp
UNDECAPRENYL-DIPHOSPHATE	di-trans,octa-cis-undecaprenyl diphosphate	p
CPD-195	octanoate	c
CPD-10751	UDP-4-amino-4,6-dideoxy-N-acetyl-&beta;-L-altrosamine	cp
MESO-TARTRATE	meso-tartrate	cp
PHENYL-PYRUVATE	keto-phenylpyruvate	cp
KDO	3-deoxy-&alpha;-D-manno-2-octulosonate	c
Mnm5Se2U-containing-tRNAs	a 5-methylaminomethyl-2-selenouridine in tRNA	p
NADH	NADH	cp
CPD-196	octanoyl-CoA	p
2-PROTOCATECHUOYLPHLOROGLUCINOLCARBOXYLA	2-protocatechuoylphloroglucinolcarboxylate	p
CPD-19695	UDP-4-amino-D-fucose	cp
Protein-Disulfides	a protein disulfide	cp
KDO-8P	3-deoxy-D-manno-octulosonate 8-phosphate	p
Protein-Dithiols	a protein dithiol	p
3-BETA-HYDROXY-5-ALPHA-PREGNANE-20-ONE	allopregnanolone	cp
DEOXYCYTIDINE	2'-deoxycytidine	c
MET	L-methionine	cp
Protein-Histidines	a [protein]-L-histidine	cp
OXIDIZED-GLUTATHIONE	glutathione disulfide	p
PHENYLACETATE	phenylacetate	cp
GUANINE	guanine	cp
2-hydroxyacyl-glutathiones	S-(2-hydroxyacyl)glutathione	c
3-CARBOXY-3-HYDROXY-ISOCAPROATE	(2S)-2-isopropylmalate	cp
2-trans-4-cis-dienoyl-CoAs	a 2-trans-4-cis-dienoyl-CoA	c
NADH-P-OR-NOP	NAD(P)H	cp
DEOXYGUANOSINE	2'-deoxyguanosine	cp
