#
#  gca_001427105_1_root154cyc 1.0 Reactions link table generated on Mon Dec 3, 2018
#
RXN-9623	EC-6.2.1.3
RXN-9380	EC-4.1.1.96
MALONYL-COA-ACP-TRANSACYL-RXN	EC-2.3.1.86	EC-2.3.1.85	EC-2.3.1.39
RXN-9939	EC-2.3.1.57
THIAZOLSYN3-RXN	EC-2.7.1.50
TRIOSEPISOMERIZATION-RXN	EC-5.3.1.1
RXN-17846	EC-2.3.2.6
2.1.3.1-RXN	EC-2.1.3.1
RXN-17847	EC-2.3.2.6
RIB5PISOM-RXN	EC-5.3.1.6
LEUCYLTRANSFERASE-RXN	EC-2.3.2.6
RXN-17848	EC-2.3.2.6
2.7.1.148-RXN	EC-2.7.1.148
1.3.1.62-RXN	EC-1.3.1.62
1.5.5.1-RXN	EC-1.5.5.1
RXN66-550	EC-1.5.5.1
RXN66-548	
SHIKIMATE-KINASE-RXN	EC-2.7.1.71
1.5.5.1-RXN-YEAST	EC-1.5.5.1
RXN0-5100	EC-5.99.1
PROTEIN-KINASE-RXN	EC-2.7.11.21	EC-2.7.11.22	EC-2.7.11.13	EC-2.7.11.1	EC-2.7.11.17	EC-2.7.11.12
3.1.11.2-RXN	EC-3.1.11.2
4.2.1.41-RXN	EC-4.2.1.41
PEPCARBOXYKIN-RXN	EC-4.1.1.49
GTPPYPHOSKIN-RXN	EC-2.7.6.5
GDPPYPHOSKIN-RXN	EC-2.7.6.5
GSADENYLATION-RXN	EC-2.7.7.42
GLUTAMATE-DEHYDROGENASE-NADP+-RXN	EC-1.4.1.3
GLUTAMATE-DEHYDROGENASE-RXN	EC-1.4.1.2
RXN0-1321	EC-2.4.2.29
THIOREDOXIN-REDUCT-NADPH-RXN	EC-1.8.1.9
PGPPHOSPHA-RXN	EC-3.1.3.27
PYRROLINECARBDEHYDROG-RXN	
QUEUOSINE-TRNA-RIBOSYLTRANSFERASE-RXN	EC-2.4.2.29
SPONTPRO-RXN	
RXN-14116	EC-1.2.1.88
1.1.1.278-RXN	EC-1.1.1.278
RXN4FS-2	EC-2.1.1.71
2.3.2.13-RXN	EC-2.3.2.13
2.1.1.71-RXN	EC-2.1.1.71
RXN-19236	EC-2.3.2.13
RXN0-1342	EC-2.4.99.17
GSHTRAN-RXN	EC-2.5.1.18
GLYCERATE-DEHYDROGENASE-RXN	EC-1.1.1.29
RXN0-2023	EC-2.8.1.13
GST-RXN	EC-2.5.1.18
HYDROXYPYRUVATE-REDUCTASE-RXN	EC-1.1.1.81
PANTEPADENYLYLTRAN-RXN	EC-2.7.7.3
RXN-15680	EC-2.5.1.18
GPPSYN-RXN	EC-2.5.1.1
RXN-19626	EC-2.5.1.18
FPPSYN-RXN	EC-2.5.1.10
RXN-19600	EC-2.5.1.18
ARGININE-N-SUCCINYLTRANSFERASE-RXN	EC-2.3.1.109
RXN-7605	EC-2.1.1
RXNQT-4363	EC-2.5.1.18
RXN-7561	EC-2.3.1.109
RXN-11663	EC-2.5.1.18
SUCCGLUALDDEHYD-RXN	EC-1.2.1.71
RXN-19610	EC-2.5.1.18
SIROHEME-FERROCHELAT-RXN	EC-4.99.1.4
CTPSYN-RXN	EC-6.3.4.2
RXN-18405	EC-2.5.1.18
RXN-14325	
DIMETHUROPORDEHYDROG-RXN	EC-1.3.1.76
SPERMIDINESYN-RXN	EC-2.5.1.16
RXN-19573	EC-2.5.1.18
PRTRANS-RXN	EC-2.4.2.18
RXN-13673	EC-2.5.1.18
UROPORIIIMETHYLTRANSA-RXN	
IGPSYN-RXN	EC-4.1.1.48
RXN-19601	EC-2.5.1.18
1.8.4.8-RXN	EC-1.8.4.8
DIAMINOPIMDECARB-RXN	EC-4.1.1.20
RXN-18407	EC-2.5.1.18
CYTIDEAM2-RXN	EC-3.5.4.5
RXN-19609	
RXN-19611	EC-2.5.1.18
RXN-19612	
TRNA-URACIL-5--METHYLTRANSFERASE-RXN	EC-2.1.1.35
3-CH3-2-OXOBUTANOATE-OH-CH3-XFER-RXN	EC-2.1.2.11
CYTIDEAM-RXN	EC-3.5.4.5
RXN-18694	EC-2.8.1.12
RXN0-5062	EC-6.5.1
RXN-15635	EC-2.1.2.11
PROTEIN-TYROSINE-PHOSPHATASE-RXN	EC-3.1.3.48
RXN-8342	EC-2.8.1.12
SUPEROX-DISMUT-RXN	EC-1.15.1.1
GLYCEROL-KIN-RXN	EC-2.7.1.30
RXN0-4261	
3-HYDROXYDECANOYL-ACP-DEHYDR-RXN	EC-2.3.1.86	EC-2.3.1.85	EC-4.2.1.59
PORPHOBILSYNTH-RXN	EC-4.2.1.24
CARBODEHYDRAT-RXN	EC-4.2.1.1
1.5.1.9-RXN	EC-1.5.1.9
ORNCARBAMTRANSFER-RXN	EC-2.1.3.3
3.1.27.1-RXN	EC-3.1.27.1
RXN0-5224	EC-4.2.1.1
HOMOSERDEHYDROG-RXN	EC-1.1.1.3
QUINOPRIBOTRANS-RXN	EC-2.4.2.19
DIAMINOPIMEPIM-RXN	EC-5.1.1.7
GLYOXI-RXN	EC-4.4.1.5
DXPREDISOM-RXN	EC-1.1.1.267
ASPARTATE-SEMIALDEHYDE-DEHYDROGENASE-RXN	EC-1.2.1.11
CDPDIGLYSYN-RXN	EC-2.7.7.41
GLYCPDIESTER-RXN	EC-3.1.4.46
DIMETHYLARGININASE-RXN	EC-3.5.3.18
RXN0-5515	EC-2.7.7.41
RXN-14160	EC-3.1.4.46	EC-3.1.4.2
ARGININE--TRNA-LIGASE-RXN	EC-6.1.1.19
FUMARYLACETOACETASE-RXN	EC-3.7.1.2
HOMOSERKIN-RXN	EC-2.7.1.39
PHOSPHASERDECARB-RXN	EC-4.1.1.65
RXN-14073	EC-3.1.4.46
3-OXOACYL-ACP-REDUCT-RXN	EC-2.3.1.86	EC-2.3.1.85	EC-1.1.1.100
3.5.5.1-RXN	EC-3.5.5.1
RXN-9536	EC-2.3.1.86	EC-2.3.1.85	EC-1.1.1.100
RXN-16630	EC-1.1.1.100
RXN-18229	EC-3.5.5.1
RXN0-2142	EC-1.1.1.100
RXN-14136	EC-3.1.4.46
RXN-11476	EC-1.1.1.100
RXN-9552	EC-1.1.1.100
RXN1G-469	EC-1.1.1.100
RXN0-3942	EC-3.5.1.94
DAHPSYN-RXN	EC-2.5.1.54
RXN-1404	EC-3.5.5.1
RXN1G-349	EC-1.1.1.100
RXN-13008	EC-2.3.1.86	EC-2.3.1.85	EC-1.1.1.100
RXN-10655	EC-1.1.1.100
RXN-17607	EC-3.5.5.1
RXN-1381	EC-2.3.1.15
ERYTH4PDEHYDROG-RXN	EC-1.2.1.72
RXN-9540	EC-2.3.1.86	EC-2.3.1.85	EC-1.1.1.100
RXN-11480	EC-1.1.1.100
GLUCOKIN-RXN	EC-2.7.1.1	EC-2.7.1.2
2.5.1.19-RXN	EC-2.5.1.19
RXN-10462	EC-2.3.1.15
ERYTHRON4PDEHYDROG-RXN	EC-1.1.1.290
RXN-9556	EC-1.1.1.100
HEXOKINASE-RXN	EC-2.7.1.1
RXN-9633	EC-2.3.1.86	EC-1.1.1.100
RXN-15045	EC-2.3.1.15
RXN-11832	EC-2.7.4.14	EC-2.7.4.25
RXN-10659	EC-1.1.1.100
RXN-16622	EC-1.1.1.100
RXN-7913	EC-2.7.4.25	EC-2.7.4.14	EC-2.7.4.13
RXN1G-157	EC-1.1.1.100
RXN-13805	EC-2.3.1.15
RXN-9518	EC-2.3.1.86	EC-2.3.1.85	EC-1.1.1.100
RXN0-1382	EC-2.8.3.16
RXN-10060	EC-1.1.1.100
RXN-9514	EC-2.3.1.86	EC-2.3.1.85	EC-1.1.1.100
RXN1G-508	EC-1.1.1.100
RXN-17017	EC-2.3.1.15
RXN-9532	EC-2.3.1.86	EC-2.3.1.85	EC-1.1.1.100
RXN-19490	EC-2.8.3.16
RXN-16626	EC-1.1.1.100
RXN0-5268	EC-1.10.3.10
RXN-9528	EC-2.3.1.86	EC-2.3.1.85	EC-1.1.1.100
RXN-17018	EC-2.3.1.15
RXN-11667	EC-4.2.1.150
RXN-14452	
RXN-9524	EC-2.3.1.86	EC-2.3.1.85	EC-1.1.1.100
3.2.1.8-RXN	EC-3.2.1.8
TRANS-RXN0-237	
RXN-16616	EC-1.1.1.100
RXN-9384	EC-2.5.1.48
RXN-17016	EC-2.3.1.15
R4-RXN	EC-1.8.1
RXN-9386	EC-6.1.1.24
2.7.13.3-RXN	EC-2.7.13.3
RXN-13158	EC-1.1.1.85
KANAMYCIN-KINASE-RXN	EC-2.7.1.95
3-ISOPROPYLMALDEHYDROG-RXN	
RXN-16117	EC-2.3.1.15
RXN-11135	EC-3.6.4.12
RXN-7800	
RXN-17155	EC-2.3.1
4.2.2.12-RXN	EC-4.2.2.12
RXN1F-20	EC-6.6.1.1
RXN-16024	EC-2.3.1.15
RXNQT-4178	EC-1.1.1.85
RXN-18200	
CITRYLY-RXN	EC-4.1.3.34
RXN-18201	
RXN-15910	EC-3.2.1.20
RXN-7929	EC-4.1.3.34
RXN-14282	EC-3.2.1.20
RXN0-5183	EC-3.2.1.20
KDPGALDOL-RXN	EC-4.1.2.55	EC-4.1.2.14
RXN-14283	EC-3.2.1.20
RXNQT-4174	EC-1.1.1.85
PGLUCONDEHYDRAT-RXN	EC-4.2.1.12
MALTODEXGLUCOSID-RXN	EC-3.2.1.20
RXN-18202	
RXN-14281	EC-3.2.1.20
RXN-18203	
5.99.1.3-RXN	EC-5.99.1.3
3.1.6.14-RXN	EC-3.1.6.14
RXN0-6259	EC-1.3.5.3
GLYOXIII-RXN	EC-4.2.1.130
HEMN-RXN	EC-1.3.98.3
PROTOPORGENOXI-RXN	EC-1.3.3.4
RXN-11570	EC-3.1.6.14
RXN0-1461	EC-1.3.3.3
RXN1A0-6303	EC-1.3.1
RXNQT-4171	EC-1.1.1.85
RXN-16330	
GLUTKIN-RXN	EC-2.7.2.11
RXN-18204	
RXN-18205	
RXN0-262	EC-2.7.7.77
6PFRUCTPHOS-RXN	EC-2.7.1.11
LEUCINE--TRNA-LIGASE-RXN	EC-6.1.1.4
RXN-9952	EC-1.1.1.44
THI-P-SYN-RXN	EC-2.5.1.3
RXN-16456	EC-2.7.7.77
ALARACECAT-RXN	EC-5.1.1.1
RIBULP3EPIM-RXN	EC-5.1.3.1
6PGLUCONOLACT-RXN	EC-3.1.1.31
RXNQT-4168	EC-1.1.1.85
FUMHYDR-RXN	EC-4.2.1.2
1.1.1.51-RXN	EC-1.1.1.51
RXN-15513	EC-5.4.2.11
RXN-18206	
DIOHBUTANONEPSYN-RXN	EC-4.1.99.12
RXN-12124	EC-1.3.99.5
RXN-16427	EC-2.7.7.77
RXN-18207	
L-LACTATE-DEHYDROGENASE-RXN	EC-1.1.1.27
DICARBOXYLATE--COA-LIGASE-RXN	EC-6.2.1.23
DLACTDEHYDROGNAD-RXN	EC-1.1.1.28
LUMAZINESYN-RXN	EC-2.5.1.78
RXN-15509	
RXN-15510	
RXN-8668	EC-1.8.4.11
RXN-15511	
RIBOFLAVIN-SYN-RXN	EC-2.5.1.9
RXN-15512	
RXNQT-4165	EC-1.1.1.85
RXN-18208	
3.1.2.23-RXN	EC-3.1.2.23
RXN-18209	
FGAMSYN-RXN	EC-6.3.5.3
3.4.11.1-RXN	EC-3.4.11.9	EC-3.4.11.1
PHOSMANMUT-RXN	EC-5.4.2.8
ATPASE-RXN	EC-3.6.1.15	EC-3.6.1.3
PANTOATE-BETA-ALANINE-LIG-RXN	EC-6.3.2.1
RXN-14986	EC-1.1.1.85
GLUTAMINE--TRNA-LIGASE-RXN	EC-6.1.1.18
RXN-18210	
2OXOGLUTARATEDEH-RXN	EC-1.2.1
NAD-SYNTH-NH3-RXN	EC-6.3.1.5
RXN-18211	
RXN0-1147	EC-2.3.1.61
PRPPSYN-RXN	EC-2.7.6.1
HISTIDPHOS-RXN	EC-3.1.3.15
2-KETO-ADIPATE-DEHYDROG-RXN	EC-1.2.1
GABATRANSAM-RXN	EC-2.6.1.19
PHENYLALANINE--TRNA-LIGASE-RXN	EC-6.1.1.20
ORNITHINE-GLU-AMINOTRANSFERASE-RXN	EC-2.6.1.13
ARYLESTERASE-RXN	EC-3.1.1.2
ADENYL-KIN-RXN	EC-2.7.4.3
3.2.2.15-RXN	EC-3.2.2.15
ARACHIDONATE-15-LIPOXYGENASE-RXN	EC-1.13.11.33
3.8.1.11-RXN	EC-3.8.1.11
RXN-6263	EC-3.8.1.11
RXN-9544	EC-1.1.1
RXN-6264	EC-3.8.1.9	EC-3.8.1.10
2-HALOACID-DEHALOGENASE-RXN	EC-3.8.1.10	EC-3.8.1.2
TETHYDPICSUCC-RXN	EC-2.3.1.117
DEPHOSPHOCOAKIN-RXN	EC-2.7.1.24
SAICARSYN-RXN	EC-6.3.2.6
UROGENDECARBOX-RXN	EC-4.1.1.37
RXN-9884	EC-1.13.11
RXN-10642	EC-4.1.1.37
RXN-9886	EC-5.5.1.7
RXN-17092	
OXALYL-COA-DECARBOXYLASE-RXN	EC-4.1.1.8
PHOSPHAGLYPSYN-RXN	EC-2.7.8.5
OXALATE-COA-TRANSFERASE-RXN	EC-2.8.3.2
RXN0-5131	EC-2.7.7
RXN-11578	EC-2.1.1.170
PHOSPHASERSYN-RXN	EC-2.7.8.8
1.8.4.12-RXN	EC-1.8.4.12
AICARSYN-RXN	EC-4.3.2.2
ALKAPHOSPHA-RXN	EC-3.1.3.1
RXN-12104	EC-1.17.99.6
RXN66-474	EC-6.2.1
AMPSYN-RXN	EC-4.3.2.2
OHMETHYLBILANESYN-RXN	EC-2.5.1.61
RXN-8748	EC-3.1.3.1
UROGENIIISYN-RXN	EC-4.2.1.75
OHACYL-COA-DEHYDROG-RXN	EC-1.1.1.35
OROTPDECARB-RXN	EC-4.1.1.23
KETOACYLCOATHIOL-RXN	EC-2.3.1.16
NICONUCADENYLYLTRAN-RXN	EC-2.7.7.18
PRAISOM-RXN	EC-5.3.1.24
3PGAREARR-RXN	EC-5.4.2.12
PEPSYNTH-RXN	EC-2.7.9.2
RXN-17792	EC-1.3.8
1.1.1.39-RXN	EC-1.1.1.38	EC-1.1.1.39
RXN-9885	EC-1.3.1.32
RXN-18399	EC-1.14.18
RXN-17784	EC-1.3.8
RXN-18428	
FOLYLPOLYGLUTAMATESYNTH-RXN	EC-6.3.2.17
RXN-17796	EC-1.3.8
RXN-18430	
RXN-18431	
RXN-17788	EC-1.3.8
FORMYLTHFGLUSYNTH-RXN	EC-6.3.2.17
RXN-17779	EC-1.3.8
RXN-9634	EC-2.3.1.86	EC-4.2.1.59
RXN-6341	EC-6.3.2.17
ACYLCOADEHYDROG-RXN	EC-1.3.8
RXN-9632	EC-2.3.1.41
RXN-17783	EC-1.3.8
RXN-9635	EC-1.3.1.9
RXN0-2921	EC-6.3.2.17
RXN-9548	EC-3.1.2.14
RXN-17775	EC-1.3.8
DIHYDROFOLATESYNTH-RXN	EC-6.3.2.12
325-BISPHOSPHATE-NUCLEOTIDASE-RXN	EC-3.1.3.7
4.2.2.3-RXN	EC-4.2.2.3
3.4.21.26-RXN	EC-3.4.21.26
MANNONDEHYDRAT-RXN	EC-4.2.1.8
RXN0-6515	EC-2.1.1.171
RXN0-268	EC-2.8.3
RXN-12178	EC-3.2.1.179
RXN-12270	EC-3.2.1.179
RXN-2881	
4-CARBOXYMUCONOLACTONE-DECARBOXYLASE-RXN	EC-4.1.1.44
RXN-19323	EC-3.1.3.73
RXN0-4961	EC-3.1.11
RXN-17363	EC-2.3.1
RXN0-3201	EC-3.4.21
5.3.1.17-RXN	EC-5.3.1.17
RXN-9557	EC-4.2.1.59
2.1.1.130-RXN	EC-2.1.1.130
KDUD-RXN	EC-1.1.1.125
1.18.1.2-RXN	EC-1.18.1.2
SAMDECARB-RXN	EC-4.1.1.50
R321-RXN	EC-1.14.13.83
RXN-15468	
RXN-924	
2.1.1.131-RXN	EC-2.1.1.131
DEOXYGLUCONOKIN-RXN	EC-2.7.1.178	EC-2.7.1.45
RXN-12195	EC-3.6.1.15
2.1.1.133-RXN	EC-2.1.1.133
R322-RXN	EC-2.1.1.152
CARBOXYLESTERASE-RXN	EC-3.1.1.1
1.3.1.54-RXN	EC-1.3.1.54
RXN-12252	EC-3.1.1.1
5.4.1.2-RXN	EC-5.4.99.61
R341-RXN	EC-6.3.5.9
RXN-12575	EC-3.1.1.1
RXN-8675	
RXN0-2301	EC-1.3.8.4
RXN1F-93	EC-1.14.20.k
3.1.1.64-RXN	EC-3.1.1.1
RXN-13824	
RXN-13826	
RXN-14264	EC-1.3.8.4
RXN-10767	EC-3.1.1.1
RETINYL-PALMITATE-ESTERASE-RXN	EC-3.1.1.1
RXN-527	EC-1.14.20.k
BIPHENYL-23-DIOL-12-DIOXYGENASE-RXN	EC-1.13.11.39
RXNQT-4366	EC-3.1.1.1
RXN-10711	EC-3.1.1.1
1.10.2.2-RXN	EC-1.10.2.2
RXN-6384	EC-3.1.2.4
TRANS-RXN-218	
3-HYDROXYPROPIONATE-DEHYDROGENASE-RXN	EC-1.1.1.59
RXN-17344	EC-1.13.11.39
CARBOXYMETHYLENEBUTENOLIDASE-RXN	EC-3.1.1.45
RXN-15829	EC-1.10.2.2
TYROSINE-AMINOTRANSFERASE-RXN	EC-2.6.1.57	EC-2.6.1.5
DIENELACHYDRO-RXN	EC-3.1.1.45
RXN-15831	
SUCCARGDIHYDRO-RXN	EC-3.5.3.23
RXN-9857	EC-3.1.1.45
RXN-10661	EC-1.3.1.9
SUCCORNTRANSAM-RXN	EC-2.6.1.81
RXN-11542	EC-1.13.11.39
RXN0-5375	EC-1.7.1.f
RXN-10660	EC-4.2.1.59
SUCCGLUDESUCC-RXN	EC-3.5.1.96
RXN-9868	EC-3.1.1.45
RXN-10657	EC-1.3.1.9
RXN-10656	EC-4.2.1.59
RXN-9550	EC-3.1.2.14
RXN-9890	EC-3.1.1.45
RXN-17343	EC-1.13.11.39
RXN0-1133	EC-2.3.1.12
RXN-9887	EC-3.1.1.45
RXN-19320	EC-3.1.3.73
5.99.1.2-RXN	EC-5.99.1.2
4.2.2.2-RXN	EC-4.2.2.2
POLYNUCLEOTIDE-ADENYLYLTRANSFERASE-RXN	EC-2.7.7.19
3.2.1.37-RXN	EC-3.2.1.37
IPPISOM-RXN	EC-5.3.3.2
METHYLCROTONYL-COA-CARBOXYLASE-RXN	EC-6.4.1.4
2-OXOPENT-4-ENOATE-HYDRATASE-RXN	EC-4.2.1.80
H2NEOPTERINALDOL-RXN	EC-4.1.2.25
RXN-10381	EC-4.2.1.80
RXN-10857	EC-4.1.2.25
CITLY-RXN	EC-4.1.3.6
3-HYDROXYBUTYRYL-COA-DEHYDROGENASE-RXN	EC-1.1.1.157
CITTRANS-RXN	EC-2.8.3.10
ACETYLGLUTKIN-RXN	EC-2.7.2.8
RXN-15005	EC-2.7.2.8
SUCCINATE-SEMIALDEHYDE-DEHYDROGENASE-RXN	EC-1.2.1.24
PYROGLUTAMYL-PEPTIDASE-I-RXN	EC-3.4.19.3
DXS-RXN	EC-2.2.1.7
RXN-19024	EC-4.3.2.7
RXN-19146	
3.4.11.5-RXN	EC-3.4.11.5
ISOLEUCINE--TRNA-LIGASE-RXN	EC-6.1.1.5
RXN1G-320	EC-4.2.1.59
RXN-19145	EC-2.3.2.5
AIRCARBOXY-RXN	EC-4.1.1.21
RXN-19022	
RXN0-743	EC-5.4.99.18
RXN1G-517	EC-4.2.1.59
L-ASPARTATE-OXID-RXN	EC-1.4.3.16
HISTCYCLOHYD-RXN	EC-3.5.4.19
RXN1G-72	EC-1.1.1
RXN0-5468	EC-1.11.1.15
NADH-DEHYDROGENASE-RXN	EC-1.6.99.3
2.1.1.17-RXN	EC-2.1.1.17
RXN1G-364	EC-1.1.1
1.11.1.15-RXN	EC-1.11.1.15
3.4.21.92-RXN	EC-3.4.21.92
RXN-19319	EC-3.1.3.73
AMP-NUCLEOSID-RXN	EC-3.2.2.4
RXN1G-240	EC-1.1.1
PPPGPPHYDRO-RXN	EC-3.6.1.40
ACID-PHOSPHATASE-RXN	EC-3.1.3.2
2-OXOBUTYRATE-SYNTHASE-RXN	EC-1.2.7.7
ADENOSYLHOMOCYSTEINASE-RXN	EC-3.3.1.1
PPGPPSYN-RXN	EC-3.1.7.2
RXN1G-163	EC-1.1.1
THIOREDOXIN-RXN	
RXN0-6427	EC-3.1.7.2
RXN-5822	EC-3.1.3.2	EC-3.1.3.1
RXN-14474	EC-1.2.7.11
GLUTAMINESYN-RXN	EC-6.3.1.2
RXN1G-260	EC-1.1.1
RXN-11737	EC-2.6.1.1
1.14.11.2-RXN	EC-1.14.11.2
2-OXOGLUTARATE-SYNTHASE-RXN	EC-1.2.7.3
RXN1G-358	EC-1.1.1
RXN-19310	EC-3.1.3.73
RXN-10814	EC-2.6.1.1
RXNI-2	EC-2.8.3.5
RXN0-5510	EC-3.6.1
ASPAMINOTRANS-RXN	EC-2.6.1.1
RXN1G-881	EC-1.1.1
RXN-13697	EC-2.6.1.1
H2PTERIDINEPYROPHOSPHOKIN-RXN	EC-2.7.6.3
SUCCCOASYN-RXN	EC-6.2.1.5
RXN1G-1053	EC-1.1.1
RXN1G-287	EC-1.1.1
RXN-15733	EC-2.7.6.3
ACETYL-COA-CARBOXYLTRANSFER-RXN	EC-6.4.1.2
RXN-19326	EC-3.1.3.73
DIHYDROOROT-RXN	EC-3.5.2.3
2.3.1.180-RXN	EC-2.3.1.180
LYSINE--TRNA-LIGASE-RXN	EC-6.1.1.6
THRESYN-RXN	EC-4.2.3.1
RXN-19324	EC-3.1.3.73
GLYOHMETRANS-RXN	EC-2.1.2.1
2PGADEHYDRAT-RXN	EC-4.2.1.11
HYPOXANPRIBOSYLTRAN-RXN	EC-2.4.2.8
RXN0-1134	EC-1.2.4.1
RXN-12583	
RXN-12508	
GUANPRIBOSYLTRAN-RXN	EC-2.4.2.8
RXN0-5330	EC-1.6.5.9
DLACTDEHYDROGFAD-RXN	EC-1.1.5.12
ADDALT-RXN	EC-3.5.4.4
RXN0-5261	
RXN0-5248	
RXN-12721	EC-1.8.4.9
RXN-8770	EC-3.1.3.73
RXN-12864	
ADENODEAMIN-RXN	EC-3.5.4.4
RXN-12867	EC-1.8.1
RXN-12865	EC-1.8.1
R-2-METHYLMALATE-DEHYDRATASE-RXN	EC-4.2.1.35
ADENOSYLHOMOCYSTEINE-NUCLEOSIDASE-RXN	EC-3.2.2.9
RIBOSYLHOMOCYSTEINASE-RXN	EC-4.4.1.21
RXN-7744	
ISOCIT-CLEAV-RXN	EC-4.1.3.1
3.1.26.4-RXN	EC-3.1.26.4
2.3.1.157-RXN	EC-2.3.1.157
RXN-19322	EC-3.1.3.73
L-GLN-FRUCT-6-P-AMINOTRANS-RXN	EC-2.6.1.16
ACETYLORNTRANSAM-RXN	EC-2.6.1.11
RXN-15007	EC-2.6.1.11
RXN-14963	EC-1.3.5.4
1TRANSKETO-RXN	EC-2.2.1.1
SULFITE-REDUCT-RXN	EC-1.8.1.2
RXN66-567	EC-1.1.1.213
RXN-14962	
2TRANSKETO-RXN	EC-2.2.1.1
RXN-12264	EC-1.1.1.213
R601-RXN	EC-1.3.5.4
GAPOXNPHOSPHN-RXN	EC-1.2.1.12
PHOSGLYPHOS-RXN	EC-2.7.2.3
RXN-11471	EC-1.1.1.52
RXN-8631	EC-4.1.2.13
F16ALDOLASE-RXN	EC-4.1.2.13
RXN-14971	EC-1.3.5.1
RXN66-570	EC-1.1
SUCCINATE-DEHYDROGENASE-UBIQUINONE-RXN	EC-1.3.5.1
RXN-15378	EC-1.3.5.1
RXN-9796	EC-1.1.1.213
RXN-14451	
2.7.7.60-RXN	EC-2.7.7.60
RXN0-302	EC-4.6.1.12
SHIKIMATE-5-DEHYDROGENASE-RXN	EC-1.1.1.25
RXN-7968	EC-1.1.1.282
1.1.1.209-RXN	EC-1.1.1.50	EC-1.1.1.213	EC-1.1.1.209
SUCCINATE-DEHYDROGENASE-UBIQUINONE6-RXN	EC-1.3.5.1
RXN-14140	EC-3.6.1.9
RXN0-5245	
DUTP-PYROP-RXN	EC-3.6.1.23	EC-3.6.1.9
RXN0-385	EC-3.6.1.9
RXN-10061	EC-4.2.1.59
RXN0-5107	EC-3.6.1.9
RXN-9841	EC-1.1.1.213
NUCLEOTIDE-PYROPHOSPHATASE-RXN	EC-3.6.1.9
RXN1G-363	EC-4.2.1.59
RXN0-6382	EC-3.6.1.66	EC-3.6.1.9
RXN0-383	EC-3.6.1.9	EC-3.6.1.65
DCTP-PYROPHOSPHATASE-RXN	EC-3.6.1.9	EC-3.6.1.12	EC-3.6.1.65
RXN-13688	EC-1.1.1.357	EC-1.1.1.50	EC-1.1.1.213
RXN-14139	EC-3.6.1.9
RXN-710	EC-1.1.1.357
RXN0-384	EC-3.6.1.9
METHIONINE--TRNA-LIGASE-RXN	EC-6.1.1.10
RXN-12348	EC-2.1.1
RXN-16165	EC-6.1.1.10
ALANINE-DEHYDROGENASE-RXN	EC-1.4.1.1
5-OXOPROLINASE-ATP-HYDROLYSING-RXN	EC-3.5.2.9
KYNURENINE-3-MONOOXYGENASE-RXN	EC-1.14.13.9
1.13.11.6-RXN	EC-1.13.11.6
METHYLMALONYL-COA-MUT-RXN	EC-5.4.99.2
OCTAPRENYL-METHYL-METHOXY-BENZOQ-OH-RXN	EC-1.14.99
ANTHRANSYN-RXN	EC-4.1.3.27
2-OCTAPRENYL-METHOXY-BENZOQ-METH-RXN	EC-2.1.1.201
2-OCTAPRENYL-6-METHOXYPHENOL-HYDROX-RXN	EC-1.14.13
PABASYN-RXN	EC-2.6.1.85
CITSYN-RXN	EC-2.3.3.16	EC-2.3.3.1
3-OCTAPRENYL-4-OHBENZOATE-DECARBOX-RXN	EC-4.1.1.98
RXN-9520	EC-2.3.1.86	EC-2.3.1.85	EC-4.2.1.59
4.2.1.58-RXN	EC-2.3.1.86	EC-2.3.1.85	EC-4.2.1.59
RXN0-884	EC-1.17.7.4
4.2.1.59-RXN	EC-2.3.1.86	EC-2.3.1.85	EC-4.2.1.59
RXN-9533	EC-2.3.1.86	EC-2.3.1.85	EC-4.2.1.59
ISPH2-RXN	EC-1.17.7.4
RXN-9537	EC-2.3.1.86	EC-2.3.1.85	EC-4.2.1.59
4.2.1.61-RXN	EC-2.3.1.86	EC-2.3.1.85	EC-4.2.1.59
1.1.1.145-RXN	EC-1.1.1.145
3.1.2.21-RXN	EC-3.1.2.21
3.4.11.18-RXN	EC-3.4.11.18
STEROID-DELTA-ISOMERASE-RXN	EC-5.3.3.1
RXN-17875	EC-3.4.11.18
RXN-19503	EC-1.2.7.7
RXN-17874	EC-3.4.11.18
RXN66-362	EC-5.3.3.1
RXN-9655	EC-2.3.1.86	EC-2.3.1.85	EC-4.2.1.59
RXN-17877	EC-3.4.11.18
RXN-17878	EC-3.4.11.18
RXN-9549	EC-3.1.2.14
RXN-17873	EC-3.4.11.18
RXN-17876	EC-3.4.11.18
ADENYLYLSULFKIN-RXN	EC-2.7.1.25
1.1.1.210-RXN	EC-1.1.1.210
SULFATE-ADENYLYLTRANS-RXN	EC-2.7.7.4
RXN-9553	EC-4.2.1
RXN-12720	EC-2.7.7.4
RXN-709	EC-5.3.3.1
PRPPAMIDOTRANS-RXN	EC-2.4.2.14
RXN-9539	EC-2.3.1.179	EC-2.3.1.41
RXN-10654	EC-2.3.1.179	EC-2.3.1.41
RXN-12694	EC-5.3.3.1
RXN66-569	EC-1.14.16.1
RXN-11474	EC-2.3.1.179	EC-2.3.1.41
VALINE-PYRUVATE-AMINOTRANSFER-RXN	EC-2.6.1.66
RXN0-2141	EC-2.3.1.179	EC-2.3.1.41
MEPROPCOA-FAD-RXN	EC-1.3.8
RXN-14381	
RXN-16629	EC-2.3.1.179	EC-2.3.1.41
RXN-14384	EC-2.8.1
3-HYDROXYISOBUTYRYL-COA-HYDROLASE-RXN	EC-3.1.2.4
RXN-14206	EC-1.14.16.1
RXN-9535	EC-2.3.1.179	EC-2.3.1.41	EC-2.3.1.85	EC-2.3.1.86
2.6.1.22-RXN	EC-2.6.1.22
RXN66-351	EC-5.3.3.1
RXN-14386	EC-2.8.1
RXN-16615	EC-2.3.1.179	EC-2.3.1.41
RXN-14387	
3-OXOACYL-ACP-SYNTH-RXN	EC-2.3.1.179	EC-2.3.1.41	EC-2.3.1.85	EC-2.3.1.86
RXN-14388	
RXN-9523	EC-2.3.1.179	EC-2.3.1.41
RXN-14389	
RXN-13907	EC-1.14.16.1
2.3.1.179-RXN	EC-2.3.1.179
RXN-12790	EC-5.3.3.1
RXN-14390	
RXN3O-1803	EC-2.3.1.179	EC-2.3.1.41	EC-2.3.1.86
RXN-14391	EC-3.6.4
RXN-9527	EC-2.3.1.179	EC-2.3.1.41
1.11.1.12-RXN	EC-1.11.1.12
2.3.1.128-RXN	EC-2.3.1.266
2.3.1.41-RXN	EC-2.3.1.179	EC-2.3.1.41
RXN-16625	EC-2.3.1.179	EC-2.3.1.41
PEPTIDYLPROLYL-ISOMERASE-RXN	EC-5.2.1.8
RXN66-354	EC-5.3.3.1
RXN-5721	
RXN-9531	EC-2.3.1.179	EC-2.3.1.41
RXN-9516	EC-2.3.1.179	EC-2.3.1.41
3-OXOACYL-ACP-SYNTH-BASE-RXN	EC-2.3.1.179	EC-2.3.1.41	EC-2.3.1.85	EC-2.3.1.86
RXN1G-460	EC-2.3.1.179	EC-2.3.1.41
RXN-17880	
DCMP-DEAMINASE-RXN	EC-3.5.4.12
RXN-17887	
RXN-8391	EC-2.3.1.179
RXN-17886	
RXN-16621	EC-2.3.1.179	EC-2.3.1.41
2.7.7.8-RXN	EC-2.7.7.8
HYDROXYLAMINE-REDUCTASE-NADH-RXN	EC-1.7.1.10
RXN-10658	EC-2.3.1.179	EC-2.3.1.41
RXN-11479	EC-2.3.1.179	EC-2.3.1.41
RXNN-386	EC-5.99.1.4
INORGPYROPHOSPHAT-RXN	EC-3.6.1.1
ATPPHOSPHORIBOSYLTRANS-RXN	EC-2.4.2.17
RXN-16631	EC-4.2.1.59
RXN0-5391	EC-5.3.3.8
RXN0-2161	EC-6.1.1.11
RXN-16632	EC-1.3.1.9
RXN0-5390	EC-3.1.2
SERINE--TRNA-LIGASE-RXN	EC-6.1.1.11
RXN-15006	EC-1.2.1.38
N-ACETYLGLUTPREDUCT-RXN	EC-1.2.1.38
DIHYDRONEOPTERIN-MONO-P-DEPHOS-RXN	EC-3.6.1
ENOYL-ACP-REDUCT-NADPH-RXN	EC-1.3.1.39	EC-1.3.1.104	EC-2.3.1.86	EC-2.3.1.85	EC-1.3.1.10
RXN3O-5293	EC-2.3.1.86	EC-1.3.1.10
RXN-9538	EC-1.3.1.10	EC-1.3.1.39	EC-2.3.1.85	EC-2.3.1.86
H2NEOPTERINP3PYROPHOSPHOHYDRO-RXN	EC-3.6.1.67
RXN-9542	EC-1.3.1.10	EC-2.3.1.86	EC-1.3.1.39	EC-2.3.1.85
GTP-CYCLOHYDRO-I-RXN	EC-3.5.4.16
RXN-9534	EC-1.3.1.10	EC-1.3.1.39	EC-2.3.1.85	EC-2.3.1.86
RXN-9521	EC-1.3.1.10	EC-1.3.1.39	EC-2.3.1.85	EC-2.3.1.86
RXN-9526	EC-1.3.1.10	EC-1.3.1.39	EC-2.3.1.85	EC-2.3.1.86
RXN-9530	EC-1.3.1.10	EC-1.3.1.39	EC-2.3.1.85	EC-2.3.1.86
RXN-9515	EC-1.3.1.10	EC-1.3.1.39	EC-2.3.1.85	EC-2.3.1.86
GMP-SYN-GLUT-RXN	EC-6.3.5.2
GMP-SYN-NH3-RXN	
ASPCARBTRANS-RXN	EC-2.1.3.2
ACETOLACTREDUCTOISOM-RXN	EC-1.1.1.86
ACETOOHBUTREDUCTOISOM-RXN	EC-1.1.1.86
ACETALD-DEHYDROG-RXN	EC-1.2.1.10
DAPASYN-RXN	EC-2.6.1.62
RXN-13671	EC-1.2.1.10
RXN-12269	EC-4.2.2.25
GDPKIN-RXN	EC-2.7.4.6
CDPKIN-RXN	EC-2.7.4.6
MHPELY-RXN	EC-4.1.3.39
DUDPKIN-RXN	EC-2.7.4.6
RXN-9657	EC-1.3.1.9
RXN-14120	EC-2.7.4.6
RXN-9658	EC-1.3.1.9
4-COUMARATE--COA-LIGASE-RXN	EC-6.2.1.12
RXN-9659	EC-1.3.1.9
UDPKIN-RXN	EC-2.7.4.6
RXN-9660	EC-1.3.1.9
DGDPKIN-RXN	EC-2.7.4.6
RXN-9661	EC-1.3.1.9
RXN-9662	EC-1.3.1.9
HAONITRO-RXN	EC-1.7.2.6
RXN-10919	EC-6.2.1.12
DTDPKIN-RXN	EC-2.7.4.6
RXN-13583	
RXN-9663	EC-1.3.1.9
NUCLEOSIDE-DIP-KIN-RXN	EC-2.7.4.6
ENOYL-ACP-REDUCT-NADH-RXN	EC-1.3.1.9
RXN-14228	EC-2.7.4.6
2.7.10.1-RXN	EC-2.7.10.2	EC-2.7.12.1	EC-2.7.10.1
RXN-1126	EC-6.2.1.12
DADPKIN-RXN	EC-2.7.4.6
RXN-1122	EC-6.2.1.12
GARTRANSFORMYL2-RXN	EC-2.1.2
DCDPKIN-RXN	EC-2.7.4.6
MANNONOXIDOREDUCT-RXN	EC-1.1.1.57
RXN-13179	EC-1.1.1.262
HOMSUCTRAN-RXN	EC-2.3.1.46
IMP-DEHYDROG-RXN	EC-1.1.1.205
RXN-13323	EC-2.5.1.32
ADCLY-RXN	EC-4.1.3.38
RXNARA-8002	
1.6.99.5-RXN	EC-1.6.5.11
2.5.1.32-RXN	
NADH-DEHYDROGENASE-QUINONE-RXN	EC-1.6.5.11
NMNAMIDOHYDRO-RXN	EC-3.5.1.42
RXN0-2621	EC-3.1.25
RXN-13034	EC-4.2.2.26
RXN-13040	EC-1.1.1.126
ISOCHORSYN-RXN	EC-5.4.4.2
GCVP-RXN	EC-1.4.4.2
DHBDEHYD-RXN	EC-1.3.1.28
RXN-12877	
RXN-16062	EC-1.1.1.383
4.2.2.11-RXN	EC-4.2.2.11
PROPIONATE--COA-LIGASE-RXN	EC-6.2.1.17
GLUTATHIONE-SYN-RXN	EC-6.3.2.3
RXN-11355	EC-1.3.5.5
UDP-NACMUR-ALA-LIG-RXN	EC-6.3.2.8
RXN-12243	
RXN-12244	
RXN-16129	EC-1.1.1.330
GART-RXN	EC-2.1.2.2
RXN-8975	EC-2.7.8.13
HYDROXYMETHYLGLUTARYL-COA-LYASE-RXN	EC-4.1.3.4
RXN0-6482	EC-2.7.7.56
S-ADENMETSYN-RXN	EC-2.5.1.6
PHOSNACMURPENTATRANS-RXN	EC-2.7.8.13
RXN0-6481	EC-2.7.7.56
RXN-19190	
TRNA-GUANINE-N7--METHYLTRANSFERASE-RXN	EC-2.1.1.33
RXN-19189	
RXN-11347	EC-2.7.8.13
TRNA-NUCLEOTIDYLTRANSFERASE-RXN	EC-2.7.7.56
RXN-19188	
RXN-19187	EC-2.7.1
3.5.1.88-RXN	EC-3.5.1.88
MALSYN-RXN	EC-2.3.3.9
RXN-19186	EC-1.1.1
RXN-19185	EC-6.2.1.2
RXN-12002	EC-2.7.4.22	EC-2.7.4.14
3.5.1.27-RXN	EC-3.5.1.88
RXN-19192	EC-6.2.1.2
METHIONYL-TRNA-FORMYLTRANSFERASE-RXN	EC-2.1.2.9
ISOCITDEH-RXN	EC-1.1.1.42
GLUTAMIDOTRANS-RXN	EC-4.3.2
AMINOACYLASE-RXN	EC-3.5.1.14
RXN-9951	
RXN-8642	
RXN-17900	
THI-P-KIN-RXN	EC-2.7.4.16
RXN-13684	EC-3.5.1.14	EC-3.5.1.114
IMIDPHOSDEHYD-RXN	EC-4.2.1.19
TRYPSYN-RXN	EC-4.2.1.20
RXN0-2381	EC-4.1.2.8
RXN0-2382	EC-4.2.1.122
RXN-8001	EC-1.1.1.23
XYLISOM-RXN	EC-5.3.1.5
HISTOLDEHYD-RXN	
HISTALDEHYD-RXN	
ADENYLOSUCCINATE-SYNTHASE-RXN	EC-6.3.4.4
GLUCISOM-RXN	EC-5.3.1.5
RXN-14727	EC-3.5.1.4
GUANIDINOBUTANAMIDE-NH3-RXN	EC-3.5.1.4
RXN0-6366	EC-2.8.4.4
GUANYL-KIN-RXN	EC-2.7.4.8
PYRAZIN-RXN	EC-3.5.1.4
UDPGLUCEPIM-RXN	EC-5.1.3.2
1.1.1.178-RXN	EC-1.1.1.178
RXN-13908	EC-4.2.1.96
RXN-17608	EC-3.5.1.4
RXN-7908	EC-4.2.1.96
RXN-16112	EC-1.1.1.330
R311-RXN	EC-3.5.1.4
RXN-17109	EC-1.1.1.330
RXN-14728	EC-3.5.1.4
RXN-11989	EC-1.13.11.59
AMIDASE-RXN	EC-3.5.1.4
RXNN-404	EC-3.5.1.4
DTDPGLUCOSEPP-RXN	EC-2.7.7.24
GLUCONOLACT-RXN	EC-3.1.1.17
UDPNACETYLGLUCOSAMENOLPYRTRANS-RXN	EC-2.5.1.7
RXN-11999	
ARGSUCCINSYN-RXN	EC-6.3.4.5
RXN-8783	EC-3.1.1.17
RXN-10	EC-6.3.4.5
RXN-11586	EC-2.1.1.192
3.5.1.81-RXN	EC-3.5.1.81
METHIONINE-GAMMA-LYASE-RXN	EC-4.4.1.11
RXN-14301	
THREONINE--TRNA-LIGASE-RXN	EC-6.1.1.3
RXN-15121	
RXN-15123	EC-3.5.99
HYDROXY-MANDELATE-RACEMASE-RXN	EC-5.1.2.2
RXN-8529	EC-5.3.2.6
BIOTIN-CARBOXYL-RXN	EC-6.3.4.14
RXN-17889	EC-2.3.2.8
RXN-17888	EC-2.3.2.8
3-DEHYDROQUINATE-DEHYDRATASE-RXN	EC-4.2.1.10
RXN-17891	EC-2.3.2.8
MANDELATE-RACEMASE-RXN	EC-5.1.2.2
ARGINYLTRANSFERASE-RXN	EC-2.3.2.8
GLYOXII-RXN	EC-3.1.2.6
RXN-17890	EC-2.3.2.8
RXN-14904	
THIAZOLSYN2-RXN	EC-2.8.1.10
BRANCHED-CHAINAMINOTRANSFERLEU-RXN	EC-2.6.1.6	EC-2.6.1.42
RXN-17883	
RXN-7919	EC-3.1.2.6
4.2.2.7-RXN	EC-4.2.2.7
BRANCHED-CHAINAMINOTRANSFERVAL-RXN	EC-2.6.1.42
RXN-7594	
GCVT-RXN	EC-2.1.2.10
RXN-17882	
BRANCHED-CHAINAMINOTRANSFERILEU-RXN	EC-2.6.1.42
RXN0-5305	
RXN-17133	EC-3.9.1.3
1.8.1.4-RXN	EC-1.8.1.4
RXN0-1001	EC-3.1.3.8
RXN-10018	
RXN-18093	
RXN-8629	EC-1.8.1.4
RXN-14883	
RXN-17131	EC-3.9.1.3
RXN0-1132	EC-1.8.1.4
RXN-10017	
RXN-7719	EC-1.8.1.4
RXN-7592	
RXN-17132	EC-3.9.1.3
RXN-7716	EC-1.8.1.4
ORNITHINE-CYCLODEAMINASE-RXN	EC-4.3.1.12
RXN-10851	
DIHYDROOROTATE-DEHYDROGENASE-RXN	EC-1.3.5.2
2OXOGLUTDECARB-RXN	EC-1.2.4.2
MALATE-DEH-RXN	EC-1.1.1.37
RXN0-6491	EC-1.3.5.2
4-HYDROXYPHENYLPYRUVATE-DIOXYGENASE-RXN	EC-1.13.11.27
ASPARAGHYD-RXN	EC-3.5.1.38	EC-3.5.1.1
RXN0-6554	EC-1.3.5.2
RXN-14047	EC-4.2.1.3
RXN-10815	EC-1.13.11.27
ACONITATEDEHYDR-RXN	
ACONITATEHYDR-RXN	
RXN0-6490	
TRANS-RXN-311	EC-3.6.3.44
RXN-14396	
3.6.3.44-RXN	EC-3.6.3.44
RXN-16765	
1.3.99.16-RXN	EC-1.3.99.16
RXN0-901	EC-1.17.1.4
RXN0-7080	
RXN-15881	EC-2.8.1.7
RXN-14290	
RXN-7682	EC-1.17.1.4
RXN-12588	EC-2.8.1.7
RXN-15139	
3.2.1.14-RXN	EC-3.2.1.14
HISTIDINE--TRNA-LIGASE-RXN	EC-6.1.1.21
RXN-10015	
GCVMULTI-RXN	
RXN-12623	EC-3.2.1.202
TRANS-RXN-323	
HOLO-ACP-SYNTH-RXN	EC-2.7.8.7
RXN-14503	
RXN-12587	
RXN0-6945	EC-4.4.1
RXN-12753	
RXN-5901	EC-1.1.1.36
RXN-11410	
PDXJ-RXN	EC-2.6.99.2
RXN-17753	
RXN-13279	EC-1.1.1.36
RXN-9787	EC-2.8.1.7
RXN-12560	EC-1.1.1.36
RXN-16475	
OHBUTYRYL-COA-EPIM-RXN	EC-5.1.2.3
RXN-14188	EC-3.6.1
OROPRIBTRANS-RXN	EC-2.4.2.10
RXN0-308	
ENOYL-COA-DELTA-ISOM-RXN	EC-5.3.3.8
ARYLSULFATE-SULFOTRANSFERASE-RXN	EC-2.8.2.22
RXN-14382	
RXN-14056	
ACETYL-COA-HYDROLASE-RXN	EC-3.1.2.1
RXN-12541	
2.1.1.77-RXN	EC-2.1.1.77
PRIBFAICARPISOM-RXN	EC-5.3.1.16
RXN-14385	EC-2.8.1.7
RXN-11811	
RXN-9789	EC-2.7.7.73
NADPYROPHOSPHAT-RXN	EC-3.6.1.22
RXN-14812	
HEMEOSYN-RXN	EC-2.5.1.141
RXN-9788	EC-2.8.1
RXN0-5222	
GLYCINE--TRNA-LIGASE-RXN	EC-6.1.1.14
RXN0-4401	EC-3.6.1.22
RXN-13460	
RXN-11319	EC-4.1.99.19
AICARTRANSFORM-RXN	EC-2.1.2.3
3.2.1.39-RXN	EC-3.2.1.39
RXN0-2661	EC-3.2.2.31
RXN-6081	
UNSPECIFIC-MONOOXYGENASE-RXN	EC-1.14.14.1
IMPCYCLOHYDROLASE-RXN	EC-3.5.4.10
RXN-9922	
3.2.1.74-RXN	EC-3.2.1.74
5.3.4.1-RXN	EC-5.3.4.1
RXN-8899	
AMINOCYL-TRNA-HYDROLASE-RXN	EC-3.1.1.29
DISULISOM-RXN	EC-5.3.4.1
4OHBENZOATE-OCTAPRENYLTRANSFER-RXN	EC-2.5.1.39
RXN-3482	
RXN-19560	EC-4.4.1.13
ACETYLPUTRESCINE-DEACETYLASE-RXN	EC-3.5.1.62
RXN-19559	
RXN-13319	
RXN-16637	EC-3.1.1.29
RXN-18031	
GLUTCYSLIG-RXN	EC-6.3.2.2
RXN-17345	
DTDPGLUCDEHYDRAT-RXN	EC-4.2.1.46
RXN-19547	EC-4.4.1.13
RXN-18364	
RXN-19546	
RXN-2902	EC-1.2.1.18
RXN-11354	EC-5.2.1.12
RXN-11213	EC-1.2.1.27
RXN-8665	EC-1.13.11.11	EC-1.13.11.52
RXN-13329	
RXNQT-4321	EC-4.4.1.13
1.2.1.27-RXN	EC-1.2.1.27
RXN-13459	EC-5.3.2.6
CHORISMATE-SYNTHASE-RXN	EC-4.2.3.5
ARYLFORMAMIDASE-RXN	EC-3.5.1.9
GLUCOSE-6-PHOSPHATE-1-EPIMERASE-RXN	EC-5.1.3.15
RXN-19583	EC-4.4.1.13
RXN-14515	
RXN-19584	
RXN-11741	
RXN-17150	EC-3.5.1.9
RXN-8315	
PROTOCATECHUATE-34-DIOXYGENASE-RXN	EC-1.13.11.3
RXN-19558	EC-4.4.1.13
RXN-19557	
RXN-18032	
5.5.1.2-RXN	EC-5.5.1.2
3-HYDROXYISOBUTYRATE-DEHYDROGENASE-RXN	EC-1.1.1.31
PHENYLPYRUVATE-TAUTOMERASE-RXN	EC-5.3.2.1
3-OXOADIPATE-ENOL-LACTONASE-RXN	EC-3.1.1.24
RXN-19586	EC-4.4.1.13
RXN-4821	EC-3.5.99
MANNPISOM-RXN	EC-5.3.1.8
KYNURENINASE-RXN	EC-3.7.1.3
RXN-14882	
CYSTEINE-AMINOTRANSFERASE-RXN	EC-2.6.1.3
RXN-10016	
RXN-8054	EC-4.4.1.13
RXN-8173	
R342-RXN	EC-6.6.1.2
3-HYDROXY-KYNURENINASE-RXN	EC-3.7.1.3
RXN-7593	
RXN-11409	
CYSTATHIONINE-BETA-LYASE-RXN	EC-4.4.1.13
RXN-15131	
RXN-12754	
RXN-7587	
RXN-19550	EC-4.4.1.13
RXN-15348	
RXN-19548	
RXN-17881	
SUCCINYLDIAMINOPIMTRANS-RXN	EC-2.6.1.17
LIPIDXSYNTHESIS-RXN	EC-3.6.1.54
RXN-745	
RXN-19544	EC-4.4.1.13
PREPHENATEDEHYDRAT-RXN	EC-4.2.1.51
RXN-19545	
RXN-19596	EC-4.4.1.13
N-CARBAMOYLPUTRESCINE-AMIDASE-RXN	EC-3.5.1.53
ASPARTATEKIN-RXN	EC-2.7.2.4
RXNQT-4319	EC-4.4.1.13
AGMATINE-DEIMINASE-RXN	EC-3.5.3.12
LYSDECARBOX-RXN	EC-4.1.1.18
SERINE-O-ACETTRAN-RXN	EC-2.3.1.30
RXN-19556	EC-4.4.1.13
RXN-19555	
ACETYLORNDEACET-RXN	EC-3.5.1.16
RXN0-2601	EC-4.2.99.18
RXN0-5234	EC-4.1.2
PSERTRANSAM-RXN	EC-2.6.1.52
RXNQT-4322	EC-4.4.1.13
LINC-RXN	EC-1.1.1
N-ACETYLTRANSFER-RXN	EC-2.3.1.1
RXN-7101	
PSERTRANSAMPYR-RXN	EC-2.6.1.52
RXN-12729	EC-4.4.1.13
RXN-15137	
6.3.5.7-RXN	EC-6.3.5.7
RXN-8052	EC-4.4.1.13
PGLYCDEHYDROG-RXN	EC-1.1.1.95
DHHB-METHYLTRANSFER-RXN	EC-2.1.1.64
S-ALKYLCYSTEINE-LYASE-RXN	EC-4.4.1.13
ASPARAGINE--TRNA-LIGASE-RXN	EC-6.1.1.22
RXN-15577	
2-OCTAPRENYL-6-OHPHENOL-METHY-RXN	EC-2.1.1.222
ASPARTATE--TRNA-LIGASE-RXN	EC-6.1.1.12
RXN-19562	EC-4.4.1.13
RXN-8667	EC-1.11.1.21
RXN-19561	
MYO-INOSITOL-1-PHOSPHATE-SYNTHASE-RXN	EC-5.5.1.4
RXN-19554	EC-4.4.1.13
RXN-19553	
RXNQT-4320	EC-4.4.1.13
RXN-18212	EC-4.4.1.13
RXN-19582	
CHORISMATEMUT-RXN	EC-5.4.99.5
RXN0-5063	EC-2.8.4.3
RXN-6763	EC-4.4.1.13
RXN-14480	
RXN-15582	
FARNESYLTRANSTRANSFERASE-RXN	EC-2.5.1.29
RXN-14481	
RXNQT-4323	EC-4.4.1.13
1.5.1.20-RXN	EC-1.5.1.20
RXN-19552	EC-4.4.1.13
RXN-19551	
2.1.1.79-RXN	EC-2.1.1.79
RXN-15124	
RXN-15127	EC-3.5.99.10
RXN-7909	EC-1.5.1
RXN-7421	EC-2.1.1.79
ARGDECARBOX-RXN	EC-4.1.1.19
RXN1G-3641	EC-2.1.1.79
MERCAPYSTRANS-RXN	EC-2.8.1.2
RXN-18702	
RXN-18703	
RXN-6383	EC-4.2.1.116
RXN1G-2544	EC-2.1.1.79
PSERPHOSPHA-RXN	EC-3.1.3.3
RXN0-4022	EC-1.7.1.13
GALACTONOLACTONASE-RXN	EC-3.1.1.25
3.1.26.5-RXN	EC-3.1.26.5
RXN0-5114	EC-3.1.3.3
PROTOHEMEFERROCHELAT-RXN	EC-4.99.1.1
RXN0-5422	EC-2.4.1
RXN0-20	EC-2.5.1
RXN0-6274	EC-2.5.1.75
RXN-19339	EC-2.5.1.17
RXN-19344	
P-PANTOCYSDECARB-RXN	EC-4.1.1.36
R343-RXN	
R344-RXN	
RXN-8974	EC-1.1.1.298
P-PANTOCYSLIG-RXN	EC-6.3.2.5
ACETOLACTSYN-RXN	EC-2.2.1.6
RXN-19369	EC-2.5.1.17
ACETOOHBUTSYN-RXN	EC-2.2.1.6
RXN-19364	
3.4.13.21-RXN	EC-3.4.13.21
BTUR2-RXN	EC-2.5.1.17
RXN-19342	
QUINOLINATE-SYNTHA-RXN	EC-2.5.1.72
RXN-19338	
RXN-19343	
ADENYLATECYC-RXN	EC-4.6.1.1
GALACTONDEHYDRAT-RXN	EC-4.2.1.140	EC-4.2.1.6
GSAAMINOTRANS-RXN	EC-5.4.3.8
RXN-19335	EC-2.5.1.17
RXN-19340	
GLUTRNAREDUCT-RXN	EC-1.2.1.70
RXN-19366	
QUERCETIN-23-DIOXYGENASE-RXN	EC-1.13.11.24
RXN-19368	EC-2.5.1.17
RXN-19349	
VALINE--TRNA-LIGASE-RXN	EC-6.1.1.9
RXN-19334	
COBALADENOSYLTRANS-RXN	
RXN-19365	
DNA-DIRECTED-DNA-POLYMERASE-RXN	EC-2.7.7.7
DETHIOBIOTIN-SYN-RXN	EC-6.3.3.3
GLUTDEHYD-RXN	EC-1.4.1.4
3-HYDROXYBUTYRATE-DEHYDROGENASE-RXN	EC-1.1.1.30
F16BDEPHOS-RXN	EC-3.1.3.11
CARBPSYN-RXN	EC-6.3.5.5
GLUTAMIN-RXN	EC-3.5.1.38	EC-3.5.1.2
GLURS-RXN	EC-6.1.1.17
NAD-SYNTH-GLN-RXN	EC-6.3.5.1
RXN-13202	EC-6.3.4.16
RXN0-366	EC-3.2.2.1
RXN-16909	
5.4.2.10-RXN	EC-5.4.2.10
URITRANS-RXN	EC-2.7.7.59
RXN0-5199	EC-2.4.2.15	EC-2.4.2.1
RXN-16910	
RXN-16424	
OXALODECARB-RXN	EC-1.1.1.40	EC-4.1.1.3	EC-1.1.1.38
RXN0-7139	
RXN-14196	EC-2.7.2
RXN-14431	EC-2.1.1.44
INOPHOSPHOR-RXN	EC-2.4.2.1
RXN-14438	EC-2.1.1.44
MALIC-NADP-RXN	EC-1.1.1.40
2.1.1.44-RXN	EC-2.1.1.44
AMP-DEPHOSPHORYLATION-RXN	EC-3.1.3.5
RXN0-5462	EC-3.6.5.1	EC-3.6.5.2	EC-3.6.5.3	EC-3.6.5.4	EC-3.6.5.5	EC-3.6.5.6	EC-3.6.1.15
RXN-14437	EC-2.1.1.44
PYRIMSYN3-RXN	EC-2.7.4.7
2-ISOPROPYLMALATESYN-RXN	EC-2.3.3.13
GUANYLCYC-RXN	EC-4.6.1.2
HOMOSERINE-O-ACETYLTRANSFERASE-RXN	EC-2.3.1.31
SUCCDIAMINOPIMDESUCC-RXN	EC-3.5.1.18
HISTAMINOTRANS-RXN	EC-2.6.1.9
RXN-12141	EC-3.3.2.10
RXN0-5021	EC-2.7.7
RXN-12140	EC-3.3.2.10
PREPHENATEDEHYDROG-RXN	EC-1.3.1.12
CYSTEINE--TRNA-LIGASE-RXN	EC-6.1.1.16
TRANS-RXN0-277	EC-1.6.1.5
RXN-12142	EC-3.3.2.10
PEPDEPHOS-RXN	EC-2.7.1.40
PYRNUTRANSHYDROGEN-RXN	EC-1.6.1.2	EC-1.6.1.3	EC-1.6.1.1
RXN-12134	EC-3.3.2.10
ATPSYN-RXN	EC-3.6.3.14
RXN-14117	EC-2.7.1.40
PYRUVATEORTHOPHOSPHATE-DIKINASE-RXN	EC-2.7.9.1
TRYPTOPHAN--TRNA-LIGASE-RXN	EC-6.1.1.2
METHYLENETHFDEHYDROG-NADP-RXN	EC-1.5.1.5
RXN-14207	EC-2.7.1.40
ASPARTATE-RACEMASE-RXN	EC-5.1.1.13
METHENYLTHFCYCLOHYDRO-RXN	EC-3.5.4.9
RXN-14192	EC-2.7.1.40
3.2.2.23-RXN	EC-3.2.2.23
MALEYLACETOACETATE-ISOMERASE-RXN	EC-5.2.1.2
TYROSINE--TRNA-LIGASE-RXN	EC-6.1.1.1
RXN-18435	EC-3.2.2.23
3.1.22.4-RXN	EC-3.1.22.4
GPH-RXN	EC-3.1.3.18
2-OCTAPRENYLPHENOL-HYDROX-RXN	EC-1.14.13
RXN-2961	EC-4.4.1.22
NAG1P-URIDYLTRANS-RXN	EC-2.7.7.23
RXN-16952	EC-1.14.13
RXN-16954	EC-1.1.1.90
1.2.7.8-RXN	EC-1.2.7.8
GLYRIBONUCSYN-RXN	EC-6.3.4.13
RXN-16956	EC-1.2.1.7
RXN-16950	EC-1.14.13.24
TRYPTOPHAN-2-MONOOXYGENASE-RXN	EC-1.13.12.3
BETA-PHOSPHOGLUCOMUTASE-RXN	EC-5.4.2.6
RXN-16946	EC-3.7.1.23
RXN0-5293	EC-1.2.1.16
RXN-11781	EC-6.3.2.36
RXN-16995	
RXN-16951	EC-1.14.13
RXN-16996	
RXN-16953	EC-1.1.1.90
RXN-17339	EC-1.14.12.18
3.1.11.6-RXN	EC-3.1.11.6
RXN-16955	EC-1.2.1.7
RXN-17340	EC-1.3.1.56
RXN-16949	EC-1.14.13.24
RXN-9235	EC-2.1.1.201
RXN-17338	
ALKANE-1-MONOOXYGENASE-RXN	EC-1.14.15.3
RXN-16948	EC-3.7.1.23
PENICILLIN-AMIDASE-RXN	EC-3.5.1.11
RXN-19341	
RXN-17099	EC-3.5.1.11
RXN-12093	EC-6.3.4.20
HISTPRATPHYD-RXN	EC-3.6.1.31
RXN0-6575	EC-4.3.99.3
RXN0-2584	EC-3.2.2.27
4.2.99.18-RXN	EC-4.2.99.18
GLUC1PURIDYLTRANS-RXN	EC-2.7.7.64	EC-2.7.7.9
ACETYLHOMOSER-CYS-RXN	EC-2.5.1.49
RXN-14014	EC-1.17.1.8
RXN-13037	EC-2.3.1.181
RXN-12540	
EXOPOLYPHOSPHATASE-RXN	EC-3.6.1.11
RXN0-947	EC-2.3.1.181
CATAL-RXN	EC-1.11.1.6	EC-1.11.1.21
O-ACETYLHOMOSERINE-THIOL-LYASE-RXN	EC-2.5.1.49
2.3.1.118-RXN	EC-2.3.1.118
GLUTATHIONE-PEROXIDASE-RXN	EC-1.11.1.9
RXN-19301	EC-2.4.2.21
RXN-14189	EC-1.11.1.6
ACETYL-COA-ACETYLTRANSFER-RXN	EC-2.3.1.9
DMBPPRIBOSYLTRANS-RXN	EC-2.4.2.21
RXN66-1	EC-1.11.1.6
RXN-12561	EC-2.3.1.9
ADENPRIBOSYLTRAN-RXN	EC-2.4.2.7
RXN-19306	EC-2.4.2.21
METHYLACETOACETYLCOATHIOL-RXN	EC-2.3.1.9
RXN-14270	EC-2.4.2.7
UGD-RXN	EC-1.1.1.22
RXN-19298	EC-2.4.2.21
RXN-11543	EC-3.7.1.13
RXN-14118	EC-3.5.4.13
RXN-19295	EC-2.4.2.21
RXN-11511	EC-1.14.12.22
RXN-19316	EC-2.4.2.21
RXN-7282	EC-5.3.2
DCTP-DEAM-RXN	EC-3.5.4.13
RXN-19299	EC-2.4.2.21
RXN-19492	
LYSOPHOSPHOLIPASE-RXN	EC-3.1.1.5
RXN-19300	EC-2.4.2.21
RXN-19312	EC-3.1.1.5
COBALAMINSYN-RXN	EC-2.7.8.26
PROLINE-RACEMASE-RXN	EC-5.1.1.4
RXN-15035	EC-3.1.1.5
RXN-19304	EC-2.7.8.26
RXN-19308	EC-2.7.8.26
ALANINE--TRNA-LIGASE-RXN	EC-6.1.1.7
2.4.1.83-RXN	EC-2.4.1.83
RXN-19305	EC-2.7.8.26
RXN-16602	EC-2.4.1.83
RXN-19297	EC-2.7.8.26
3.6.3.16-RXN	EC-3.6.3.16
2.6.1.18-RXN	EC-2.6.1.18
RXN-19302	EC-2.7.8.26
HOMOGENTISATE-12-DIOXYGENASE-RXN	EC-1.13.11.5
RXN-19303	EC-2.7.8.26
RXN-7563	EC-1.4.99.6
NADPH-DEHYDROGENASE-FLAVIN-RXN	EC-1.5.1.30
RXN-15849	
RXN-15850	
RXN-19318	EC-2.7.8.26
RXN-16457	
RXN-12444	EC-1.5.1.38
RXN-19307	EC-2.7.8.26
5-AMINOLEVULINIC-ACID-SYNTHASE-RXN	EC-2.3.1.37
FMNREDUCT-RXN	EC-1.5.1.39
RXN-19296	EC-2.7.8.26
L-LACTATE-DEHYDROGENASE-CYTOCHROME-RXN	EC-1.1.2.3
COBALAMIN5PSYN-RXN	EC-2.7.8.26
NAD-KIN-RXN	EC-2.7.1.23
THYMIDYLATESYN-RXN	EC-2.1.1.45
3.6.3.12-RXN	EC-3.6.3.12
4.1.1.81-RXN	EC-4.1.1.81
AGMATIN-RXN	EC-3.5.3.11
TRANS-RXN-2	EC-3.6.3.12
RXN-6261	EC-6.3.1.10
HISTIDINE-AMMONIA-LYASE-RXN	EC-4.3.1.3
GENTISATE-12-DIOXYGENASE-RXN	EC-1.13.11.4
6.3.1.10-RXN	EC-6.3.1.10
RXN0-280	EC-1.14.14.5
UROCANATE-HYDRATASE-RXN	EC-4.2.1.49
2.7.1.156-RXN	EC-2.7.1.156
RXN-15341	EC-1.14.14.5
DEHYDDEOXPHOSGALACT-ALDOL-RXN	EC-4.1.2.55	EC-4.1.2.21
COBINAMIDEKIN-RXN	EC-2.7.1.156
RXN-14063	EC-2.7.1.156
RXN-16945	EC-1.13.11.4
DIHYDROXYMETVALDEHYDRAT-RXN	EC-4.2.1.9
PYRIMSYN1-RXN	EC-4.1.99.17
RXN-13418	EC-1.14.14.5
DIHYDROXYISOVALDEHYDRAT-RXN	EC-4.2.1.9
RXN-16947	EC-1.13.11.4
TRANSALDOL-RXN	EC-2.2.1.2
RXN0-6973	EC-1.14.14.5
1.2.1.25-RXN	EC-1.2.1.25
RXN-18446	EC-6.2.1.1
RXN-18447	EC-6.2.1.1
R309-RXN	EC-3.5.5.7
2KETO-3METHYLVALERATE-RXN	EC-1.2.1.25
RXN-18448	EC-6.2.1.1
3.5.5.7-RXN	EC-3.5.5.7
MBCOA-DHLIPOAMIDE-RXN	EC-2.3.1.168
ACETATE--COA-LIGASE-RXN	EC-6.2.1.1
RIBONUCLEOSIDE-DIP-REDUCTII-RXN	EC-1.17.4.1
METHYLGLUTACONYL-COA-HYDRATASE-RXN	EC-4.2.1.18
CHER-RXN	EC-2.1.1.80
UDPREDUCT-RXN	EC-1.17.4.1
ARYLSULFAT-RXN	EC-3.1.6.1
2KETO-4METHYL-PENTANOATE-DEHYDROG-RXN	EC-1.2.1.25
CDPREDUCT-RXN	EC-1.17.4.1
ISOVALERYLCOA-DHLIPOAMIDE-RXN	EC-2.3.1.168
FORMIMINOGLUTAMATE-DEIMINASE-RXN	EC-3.5.3.13
GDPREDUCT-RXN	EC-1.17.4.1
RXN-16650	EC-2.4.1.129
RIBONUCLEOSIDE-DIP-REDUCTI-RXN	EC-1.17.4.1
IMIDAZOLONEPROPIONASE-RXN	EC-3.5.2.7
GAMMA-GLUTAMYLTRANSFERASE-RXN	EC-2.3.2.2
ADPREDUCT-RXN	EC-1.17.4.1
RXN66-336	EC-2.3.2.2
RXN0-748	EC-1.17.4.1
R345-RXN	EC-6.3.5.10
RXN-6601	EC-2.3.2.2
N-FORMYLGLUTAMATE-DEFORMYLASE-RXN	EC-3.5.1.68
COBINPGUANYLYLTRANS-RXN	EC-2.7.7.62
N-SULFOGLUCOSAMINE-SULFOHYDROLASE-RXN	EC-3.10.1.1
RXN-18092	EC-2.3.2.2
RXN0-722	EC-1.17.4.1
DISULFOGLUCOSAMINE-6-SULFATASE-RXN	EC-3.1.6.11
5-FORMYL-THF-CYCLO-LIGASE-RXN	EC-6.3.3.2
RXN0-747	EC-1.17.4.1
RXN-16484	EC-3.2.1.56
RXN-9157	EC-2.3.2.2
3.1.13.5-RXN	EC-3.1.13.5
RXN-16483	EC-3.1.6.13
RXN-10053	EC-2.2.1.11
RXN-22	EC-4.3.2.1
4-HYDROXYPROLINE-EPIMERASE-RXN	EC-5.1.1.8
RXN0-6484	EC-3.1.13.5
ARGSUCCINLYA-RXN	EC-4.3.2.1
DEOXYCYTIDINE-KINASE-RXN	EC-2.7.1.74
DIHYDRODIPICSYN-RXN	EC-4.3.3.7
RXN0-6483	EC-3.1.13.5
RXN-12610	EC-2.5.1.3
GLU6PDEHYDROG-RXN	EC-1.1.1.49
3.4.13.9-RXN	EC-3.4.13.9
GLYC3PDEHYDROG-RXN	EC-1.1.5.3
POLYPHOSPHATE-KINASE-RXN	EC-2.7.4.1
RXN-12611	EC-2.5.1.3
RXN0-5260	EC-1.1.5.3
RXN0-5244	
AIRS-RXN	EC-6.3.3.1
RXN0-6478	EC-3.1.26.12
RXN-15740	EC-1.1.5.3
MYO-INOSITOL-1OR-4-MONOPHOSPHATASE-RXN	EC-3.1.3.25
RXN0-5254	
RXN0-6479	EC-3.1.13.1
RXN0-5258-Yeast	EC-1.1.5.3
RXN0-4222	EC-3.1.13.1
RXN0-5244-yeast	
25-DIOXOVALERATE-DEHYDROGENASE-RXN	EC-1.2.1.26
RXN0-6480	EC-3.1.26.5
RXN-8775	EC-1.2.1
RXN-7253	EC-3.1.3.25
RXN0-6485	EC-3.1.26.12
RXN-15745	EC-1.1.5.3
RXN0-5259	
RXN0-5257	
FRUCTOKINASE-RXN	EC-2.7.1.4
RXN0-5408	EC-3.1.3.25
2-DEHYDROPANTOATE-REDUCT-RXN	EC-1.1.1.169
RXN-17776	EC-4.2.1.17
PANTOTHENATE-KIN-RXN	EC-2.7.1.33
RXN0-4301	EC-5.3.1.28
RXN-11244	EC-4.2.1.17
6.3.4.9-RXN	EC-6.3.4.9
DEHYDDEOXGALACTKIN-RXN	EC-2.7.1.178	EC-2.7.1.58
RXN-13616	EC-4.2.1.17
6.3.4.11-RXN	EC-6.3.4.11
RXN-982	EC-1.20.4.1
RXN-14273	EC-4.2.1.17
MALEYLACETATE-REDUCTASE-RXN	EC-1.3.1.32
2.7.7.13-RXN	EC-2.7.7.13
6.3.4.10-RXN	EC-6.3.4.10
RXN-17362	EC-3.4.23.36
ALDOSE1EPIM-RXN	EC-5.1.3.3
RXN-17780	EC-4.2.1.17
RXN-18362	
BIOTINLIG-RXN	EC-6.3.4.15
RXN-17475	EC-4.2.1.17
HYDROXYMETHYLGLUTARYL-COA-SYNTHASE-RXN	EC-2.3.3.10
RXN-17114	EC-4.2.1.17
RXN-11740	EC-1.14.13.209
GALACTODEHYDROG-RXN	EC-1.1.1.48
RXN-16135	EC-4.2.1.17
RXN3O-218	EC-1.14.19.20
RXN-14957	EC-2.8.1.8
RXN-12567	EC-4.2.1.17
PMPOXI-RXN	EC-1.4.3.5
3.2.1.55-RXN	EC-3.2.1.55
RXN0-949	EC-2.8.1.8
PNPOXI-RXN	EC-1.4.3.5
RXN-10704	EC-4.2.1.17
ARGINASE-RXN	EC-3.5.3.1
RXN-9847	EC-4.2.1.107
METHYLACYLYLCOA-HYDROXY-RXN	EC-4.2.1.17
RXN-14959	EC-2.8.1.8
RXN-34	EC-3.5.3.1
4.2.1.107-RXN	EC-4.2.1.107
RXN-17793	EC-4.2.1.17
RXN-14950	EC-2.8.1.8
TIGLYLCOA-HYDROXY-RXN	EC-4.2.1.17
RXN0-1281	EC-1.1.1
PRODISULFREDUCT-RXN	EC-1.8.4.2
RXN-17785	EC-4.2.1.17
PRODISULFREDUCT-A-RXN	
RXN0-7271	
ENOYL-COA-HYDRAT-RXN	EC-4.2.1.17
DTMPKI-RXN	EC-2.7.4.12	EC-2.7.4.13	EC-2.7.4.9
RXN-14272	EC-4.2.1.17
RXN0-5393	EC-4.2.1.17
RXN-9510	EC-1.5.1.42
RXN-10705	EC-4.2.1.17
RXN0-5055	EC-2.1.3.15
RXN-16322	EC-1.13.12.16
RXN-2425	EC-4.2.1.17
RXN-9772	EC-1.5.99
3.4.15.6-RXN	EC-3.4.15.6
RXN-14266	EC-4.2.1.17
H2PTEROATESYNTH-RXN	EC-2.5.1.15
3.2.1.52-RXN	EC-3.2.1.52
DIHYDROFOLATEREDUCT-RXN	EC-1.5.1.3
RXN-17797	EC-4.2.1.17
RXN-12625	EC-3.2.1.52
RXN-11194	EC-1.4.1.25
3-DEHYDROQUINATE-SYNTHASE-RXN	EC-4.2.3.4
RXN-10697	EC-4.2.1.17
RXN-12626	EC-3.2.1.52
1-ACYLGLYCEROL-3-P-ACYLTRANSFER-RXN	EC-2.3.1.51
3.4.13.19-RXN	EC-3.4.13.19
RXN-17789	EC-4.2.1.17
RXN-15682	EC-3.4.13.19
RXN0-313	EC-4.1.2
RXN0-5226	EC-3.2.1.52
RXN-16558	EC-4.2.1.17
RXN66-337	EC-3.4.13.19
RXN-1623	EC-2.3.1.51
GLYC3PDEHYDROGBIOSYN-RXN	EC-1.1.1.94
GLUTSEMIALDEHYDROG-RXN	EC-1.2.1.41
RXN-2841	EC-1.4.9.1
RXN-18082	EC-3.2.1.52
RXN0-5223	EC-2.7.1
DNA-DIRECTED-RNA-POLYMERASE-RXN	EC-2.7.7.6
NAG6PDEACET-RXN	EC-3.5.1.25
RXN0-299	EC-1.14.11.17
RXN-13163	EC-4.2.1.33
3.5.1.80-RXN	EC-3.5.1.25
RXN-8991	
3-ISOPROPYLMALISOM-RXN	
CYTOCHROME-C-OXIDASE-RXN	EC-1.9.3.1
FORMATETHFLIG-RXN	EC-6.3.4.3
RXN-15830	EC-1.9.3.1
RXN-15815	
RXN-13519	
RXN0-5265	
THYKI-RXN	EC-2.7.1.145	EC-2.7.1.21
ISOCHORMAT-RXN	EC-3.3.2.1
DURIDKI-RXN	EC-2.7.1.145	EC-2.7.1.21
2-NITROPROPANE-DIOXYGENASE-RXN	EC-1.13.12.16
2-METHYLACYL-COA-DEHYDROGENASE-RXN	EC-1.3.8.5
NQOR-RXN	EC-1.6.5.2
RXN-16333	
S-FORMYLGLUTATHIONE-HYDROLASE-RXN	EC-3.1.2.12
RXN-7567	EC-4.2.1.84
R313-RXN	EC-4.2.1.84
FORMYLTHFDEFORMYL-RXN	EC-3.5.1.10
RXN-14726	EC-4.2.1.84
RXN-17609	EC-4.2.1.84
PROPCOASYN-RXN	EC-1.3.8.1
RXN-2962	EC-1.1.1.284
RXN-14725	EC-4.2.1.84
NITRILE-HYDRATASE-RXN	EC-4.2.1.84
1.2.4.4-RXN	EC-1.2.4.4
R310-RXN	EC-4.2.1.84
SUCCSEMIALDDEHYDROG-RXN	EC-1.2.1.79
RXN-19394	EC-1.14.13.8
RXN-12912	EC-2.6.1
2.3.1.168-RXN	EC-2.3.1.168
RXN-17884	EC-1.1.1.284
RXN-19391	EC-1.14.13.8
KETOISOCAPROATE-RXN	EC-1.2.4.4
1.14.13.8-RXN	EC-1.14.13.8
METHYLVALERATE-RXN	EC-1.2.4.4
RXN-19393	EC-1.14.13.8
RXN-13036	EC-2.3.1.204
RXN-19392	EC-1.14.13.8
RXN-7790	EC-1.2.1
RXN0-5507	EC-4.1.2.50
4.3.1.17-RXN	EC-4.3.1.17
RXN66-81	EC-1.14.13.8
RXN0-7023	EC-3.1.13
RXN-15125	
METHELENE-THMPT-OXI-RXN	EC-1.5.98.2
PROLINE--TRNA-LIGASE-RXN	EC-6.1.1.15
R221-RXN	EC-1.1.99
PYRROLINECARBREDUCT-RXN	EC-1.5.1.2
R222-RXN	EC-1.2.1.3
RXN-9673	EC-6.2.1.3
3.1.1.75-RXN	EC-3.1.1.75
RUBREDOXIN--NAD+-REDUCTASE-RXN	EC-1.18.1.1
RXN66-546	EC-1.5.1.2
RXN0-7238	EC-6.2.1.3
UREASE-RXN	EC-3.5.1.5
GLUCOSAMINE-6-P-DEAMIN-RXN	EC-3.5.99.6
RXN-12978	EC-6.2.1.3
ACYLCOASYN-RXN	EC-6.2.1.3
RXN-9644	EC-6.2.1.3
2.8.1.6-RXN	EC-2.8.1.6
TRANS-RXN0-623	EC-6.2.1.3
RXN-17472	
LINOLENOYL-RXN	EC-6.2.1.3
RXN-17473	
HOMOCYSMET-RXN	EC-2.1.1.14
R223-RXN	EC-6.2.1.3
RXN0-7239	EC-6.2.1.3
DGTPTRIPHYDRO-RXN	EC-3.1.5.1
RXN-12746	EC-6.2.1.41
HOMOCYSMETB12-RXN	EC-2.1.1.13
DALADALALIG-RXN	EC-6.3.2.4
RXN-13290	EC-6.2.1.3
METHYLMALONYL-COA-EPIM-RXN	EC-5.1.99.1
UDPNACETYLMURAMATEDEHYDROG-RXN	EC-1.3.1.98
RXN0-7248	EC-6.2.1.3
THREDEHYD-RXN	EC-4.3.1.19
RXN-15122	
RXN-7904	EC-6.2.1.3
RXN-16391	EC-5.1.99.1
RXN-8976	EC-2.4.1.227
RXN66-480	EC-6.2.1.3
7KAPSYN-RXN	EC-2.3.1.47
RXN-12702	EC-6.2.1.42
NACGLCTRANS-RXN	EC-2.4.1.227
RXN-11484	EC-2.3.1.47
RXN-16415	EC-6.2.1.3
GLUTATHIONE-REDUCT-NADPH-RXN	EC-1.8.1.7
RXN66-483	EC-6.2.1.3
UDP-NACMURALA-GLU-LIG-RXN	EC-6.3.2.9
RXN0-882	EC-1.17.7.1
RXN-16402	EC-6.2.1.3
PGLUCISOM-RXN	EC-5.3.1.9
RXN0-7165	EC-2.3.1.57
RXN66-469	EC-6.2.1.3
3.1.26.3-RXN	EC-3.1.26.3
UDP-NACMURALGLDAPAALIG-RXN	EC-6.3.2.10
RXN-16401	EC-6.2.1.3
DIAMACTRANS-RXN	EC-2.3.1.57
RXN-13614	EC-6.2.1.3
RXN-0	EC-2.3.1.57
RXN66-484	EC-6.2.1.3
UDP-NACMURALGLDAPLIG-RXN	EC-6.3.2.13
RXN-16389	EC-6.2.1.3
XYLULOKIN-RXN	EC-2.7.1.17
RXN-19536	EC-2.3.1.57
RXN-12184	EC-6.2.1.3
RXN-11638	EC-2.1.1.199
RXN-16380	EC-6.2.1.3
ACSERLY-RXN	EC-2.5.1.47
SPERMACTRAN-RXN	EC-2.3.1.57
RXN-16393	EC-6.2.1.3
GLUTRACE-RXN	EC-5.1.1.3
RXN-12726	EC-2.5.1.47
RXN66-477	EC-6.2.1.3
RXN-12347	
RXN-16418	EC-6.2.1.3
RXN-12667	EC-2.3.1.57
