id	Common name	linked reactions
ASD39_01320	Unknown	2.1.1.44-RXN;RXN-14431;RXN-14437;RXN-14438
ASD39_02580	Unknown	ATPASE-RXN
ASD39_11290	Unknown	GLYCPDIESTER-RXN;RXN-14073;RXN-14136;RXN-14160
ASD39_03550	Unknown	DIAMINOPIMDECARB-RXN
ASD39_17840	Unknown	L-GLN-FRUCT-6-P-AMINOTRANS-RXN
ASD39_04315	Unknown	DNA-DIRECTED-DNA-POLYMERASE-RXN
ASD39_07270	Unknown	ACYLCOADEHYDROG-RXN;RXN-17775;RXN-17779;RXN-17783;RXN-17784;RXN-17788;RXN-17792;RXN-17796
ASD39_00745	Unknown	1TRANSKETO-RXN;2TRANSKETO-RXN
ASD39_21420	Unknown	PROTEIN-KINASE-RXN
ASD39_15940	Unknown	DMBPPRIBOSYLTRANS-RXN;RXN-19295;RXN-19298;RXN-19299;RXN-19300;RXN-19301;RXN-19306
ASD39_22930	Unknown	3.5.1.98-RXN
ASD39_24420	Unknown	1.2.1.25-RXN;1.2.4.4-RXN;2.3.1.168-RXN;2KETO-3METHYLVALERATE-RXN;2KETO-4METHYL-PENTANOATE-DEHYDROG-RXN;ISOVALERYLCOA-DHLIPOAMIDE-RXN;KETOISOCAPROATE-RXN;MBCOA-DHLIPOAMIDE-RXN;METHYLVALERATE-RXN;RXN-7719
ASD39_00935	Unknown	HISTPRATPHYD-RXN
ASD39_03820	Unknown	ACETATE--COA-LIGASE-RXN;RXN-18446;RXN-18447;RXN-18448
ASD39_04105	Unknown	3-HYDROXYBUTYRATE-DEHYDROGENASE-RXN
ASD39_23330	Unknown	ACETYL-COA-ACETYLTRANSFER-RXN;METHYLACETOACETYLCOATHIOL-RXN;RXN-12561
ASD39_23260	Unknown	1.3.99.16-RXN
ASD39_21755	Unknown	GLYOXI-RXN
ASD39_06700	Unknown	RXN-13418;RXN-15341;RXN0-280;RXN0-6973
ASD39_10940	Unknown	GSHTRAN-RXN;GST-RXN;RXN-11663;RXN-13673;RXN-15680;RXN-18405;RXN-18407;RXNQT-4363
ASD39_05855	Unknown	4-CARBOXYMUCONOLACTONE-DECARBOXYLASE-RXN
ASD39_01745	Unknown	3-ISOPROPYLMALISOM-RXN;RXN-13163;RXN-8991
ASD39_04045	Unknown	2.7.13.3-RXN
ASD39_15375	Unknown	5.3.4.1-RXN;DISULISOM-RXN
ASD39_00585	Unknown	RXN0-5462
ASD39_19960	Unknown	2.1.1.79-RXN;RXN-7421;RXN1G-2544;RXN1G-3641
ASD39_20110	Unknown	GLUCISOM-RXN;XYLISOM-RXN
ASD39_08800	Unknown	DNA-DIRECTED-DNA-POLYMERASE-RXN
ASD39_18695	Unknown	ENOYL-COA-HYDRAT-RXN;METHYLACYLYLCOA-HYDROXY-RXN;RXN-10697;RXN-10704;RXN-10705;RXN-11244;RXN-12567;RXN-13616;RXN-14266;RXN-14272;RXN-14273;RXN-16135;RXN-16558;RXN-17114;RXN-17475;RXN-17776;RXN-17780;RXN-17785;RXN-17789;RXN-17793;RXN-17797;RXN-2425;RXN0-5393;TIGLYLCOA-HYDROXY-RXN
ASD39_20600	Unknown	ARGININE-N-SUCCINYLTRANSFERASE-RXN;RXN-7561
ASD39_16360	Unknown	1.11.1.15-RXN;RXN0-5468
ASD39_17425	Unknown	GLYCERATE-DEHYDROGENASE-RXN;HYDROXYPYRUVATE-REDUCTASE-RXN
ASD39_11465	Unknown	THI-P-SYN-RXN
ASD39_23105	mraY	PHOSNACMURPENTATRANS-RXN;RXN-11347;RXN-8975
ASD39_00570	Unknown	3-CH3-2-OXOBUTANOATE-OH-CH3-XFER-RXN;RXN-15635
ASD39_23180	Unknown	CPM-KDOSYNTH-RXN
ASD39_11500	Unknown	ARGSUCCINLYA-RXN;RXN-22
ASD39_25550	Unknown	CYCLOHEXANONE-MONOOXYGENASE-RXN
ASD39_11435	Unknown	2.1.3.1-RXN
ASD39_14145	Unknown	RXN-12560;RXN-13279;RXN-5901
ASD39_24245	Unknown	RXN0-5131
ASD39_17315	Unknown	ACYLCOADEHYDROG-RXN;RXN-17775;RXN-17779;RXN-17783;RXN-17784;RXN-17788;RXN-17792;RXN-17796
ASD39_25540	Unknown	ACYLCOASYN-RXN;LINOLENOYL-RXN;R223-RXN;RXN-12184;RXN-12702;RXN-12746;RXN-12978;RXN-13290;RXN-13614;RXN-16380;RXN-16389;RXN-16393;RXN-16401;RXN-16402;RXN-16415;RXN-16418;RXN-7904;RXN-9623;RXN-9644;RXN-9673;RXN0-7238;RXN0-7239;RXN0-7248;RXN66-469;RXN66-477;RXN66-480;RXN66-483;RXN66-484;TRANS-RXN0-623
ASD39_11085	Unknown	FUMHYDR-RXN
ASD39_21360	Unknown	RXN-17131;RXN-17132;RXN-17133
ASD39_20000	Unknown	GLUTATHIONE-SYN-RXN
ASD39_20575	Unknown	3.4.13.9-RXN
ASD39_04600	Unknown	HOMOCYSMETB12-RXN
ASD39_11235	Unknown	GLUTAMIN-RXN
ASD39_14290	Unknown	5-OXOPROLINASE-ATP-HYDROLYSING-RXN
ASD39_06955	Unknown	GSHTRAN-RXN;GST-RXN;RXN-11663;RXN-13673;RXN-15680;RXN-18405;RXN-18407;RXNQT-4363
ASD39_24480	Unknown	1.11.1.15-RXN;RXN0-5468
ASD39_03560	Unknown	CARBOXYMETHYLENEBUTENOLIDASE-RXN;DIENELACHYDRO-RXN;RXN-9857;RXN-9868;RXN-9887;RXN-9890
ASD39_02140	Unknown	H2PTERIDINEPYROPHOSPHOKIN-RXN;RXN-15733
ASD39_02210	Unknown	RXN0-20
ASD39_02075	Unknown	AGMATINE-DEIMINASE-RXN
ASD39_21815	Unknown	ENOYL-COA-HYDRAT-RXN;METHYLACYLYLCOA-HYDROXY-RXN;RXN-10697;RXN-10704;RXN-10705;RXN-11244;RXN-12567;RXN-13616;RXN-14266;RXN-14272;RXN-14273;RXN-16135;RXN-16558;RXN-17114;RXN-17475;RXN-17776;RXN-17780;RXN-17785;RXN-17789;RXN-17793;RXN-17797;RXN-2425;RXN0-5393;TIGLYLCOA-HYDROXY-RXN
ASD39_15440	Unknown	THIAZOLSYN2-RXN
ASD39_03405	Unknown	DXS-RXN
ASD39_02850	Unknown	DNA-DIRECTED-RNA-POLYMERASE-RXN
ASD39_05635	Unknown	DIHYDROXYISOVALDEHYDRAT-RXN;DIHYDROXYMETVALDEHYDRAT-RXN
ASD39_04720	Unknown	HISTIDPHOS-RXN
ASD39_19235	Unknown	ENOYL-COA-HYDRAT-RXN;METHYLACYLYLCOA-HYDROXY-RXN;RXN-10697;RXN-10704;RXN-10705;RXN-11244;RXN-12567;RXN-13616;RXN-14266;RXN-14272;RXN-14273;RXN-16135;RXN-16558;RXN-17114;RXN-17475;RXN-17776;RXN-17780;RXN-17785;RXN-17789;RXN-17793;RXN-17797;RXN-2425;RXN0-5393;TIGLYLCOA-HYDROXY-RXN
ASD39_20685	Unknown	GSHTRAN-RXN;GST-RXN;RXN-11663;RXN-13673;RXN-15680;RXN-18405;RXN-18407;RXNQT-4363
ASD39_06730	Unknown	DLACTDEHYDROGNAD-RXN
ASD39_21435	Unknown	ATPASE-RXN
ASD39_11985	Unknown	UDPGLUCEPIM-RXN
ASD39_00355	Unknown	ADENOSYLHOMOCYSTEINASE-RXN
ASD39_14455	Unknown	1.2.4.4-RXN;2.3.1.168-RXN;KETOISOCAPROATE-RXN;METHYLVALERATE-RXN
ASD39_02255	Unknown	2-NITROPROPANE-DIOXYGENASE-RXN
ASD39_21575	Unknown	2-HALOACID-DEHALOGENASE-RXN
ASD39_08490	Unknown	GLUCISOM-RXN;XYLISOM-RXN
ASD39_14775	Unknown	RXN0-5131
ASD39_22685	Unknown	4-HYDROXYPHENYLPYRUVATE-DIOXYGENASE-RXN;RXN-10815
ASD39_09910	Unknown	ADCLY-RXN
ASD39_22940	Unknown	RXN0-5510
ASD39_04355	Unknown	CTPSYN-RXN;GLUTAMIN-RXN;RXN-14325
ASD39_11660	Unknown	DIHYDROFOLATESYNTH-RXN;FOLYLPOLYGLUTAMATESYNTH-RXN;FORMYLTHFGLUSYNTH-RXN;RXN-6341;RXN0-2921
ASD39_23925	Unknown	RXN1A0-6303
ASD39_24165	Unknown	GAMMA-GLUTAMYLTRANSFERASE-RXN;RXN-18092;RXN-6601;RXN-9157;RXN66-336
ASD39_11670	Unknown	ACONITATEDEHYDR-RXN;ACONITATEHYDR-RXN;RXN-14047
ASD39_04025	Unknown	CHORISMATEMUT-RXN
ASD39_18570	Unknown	FORMAMIDASE-RXN
ASD39_22390	Unknown	2.7.7.8-RXN
ASD39_22030	fbiC	RXN-8077
ASD39_10560	glyA	GLYOHMETRANS-RXN;RXN0-5234
ASD39_11225	Unknown	GLYOXII-RXN;RXN-7919
ASD39_13455	Unknown	5-OXOPROLINASE-ATP-HYDROLYSING-RXN
ASD39_06655	Unknown	DIHYDROPYRIMIDINASE-RXN;RXN-11211;RXN-11217
ASD39_09600	Unknown	RXN-14014
ASD39_23110	Unknown	UDP-NACMURALGLDAPAALIG-RXN
ASD39_17820	Unknown	PROTEIN-KINASE-RXN
ASD39_14485	Unknown	1.14.11.18-RXN;RXN66-470
ASD39_16980	Unknown	DNA-DIRECTED-DNA-POLYMERASE-RXN;RXN0-4961
ASD39_20670	Unknown	2.7.13.3-RXN
ASD39_16290	Unknown	ASPARTATEKIN-RXN
ASD39_14430	Unknown	4.1.2.20-RXN;KDGALDOL-RXN
ASD39_09515	Unknown	RXN0-313;TRANSALDOL-RXN
ASD39_17325	Unknown	GSHTRAN-RXN;GST-RXN;RXN-11663;RXN-13673;RXN-15680;RXN-18405;RXN-18407;RXNQT-4363
ASD39_09145	Unknown	ORNITHINE--OXO-ACID-AMINOTRANSFERASE-RXN;ORNITHINE-GLU-AMINOTRANSFERASE-RXN
ASD39_15340	Unknown	PSERTRANSAM-RXN;PSERTRANSAMPYR-RXN
ASD39_04850	Unknown	2.7.13.3-RXN
ASD39_07790	dcd	DCTP-DEAM-RXN;RXN-14118
ASD39_15520	Unknown	QUINOPRIBOTRANS-RXN
ASD39_17195	Unknown	ACETYLORNTRANSAM-RXN;RXN-15007
ASD39_03420	Unknown	ACYLCOADEHYDROG-RXN;RXN-17775;RXN-17779;RXN-17783;RXN-17784;RXN-17788;RXN-17792;RXN-17796
ASD39_23980	Unknown	2.3.2.13-RXN;RXN-19236
ASD39_18215	Unknown	3-ISOPROPYLMALISOM-RXN;R-2-METHYLMALATE-DEHYDRATASE-RXN;RXN-13163;RXN-7744;RXN-8991
ASD39_24855	Unknown	RXN0-5131
ASD39_21015	Unknown	ENOYL-COA-HYDRAT-RXN;METHYLACYLYLCOA-HYDROXY-RXN;RXN-10697;RXN-10704;RXN-10705;RXN-11244;RXN-12567;RXN-13616;RXN-14266;RXN-14272;RXN-14273;RXN-16135;RXN-16558;RXN-17114;RXN-17475;RXN-17776;RXN-17780;RXN-17785;RXN-17789;RXN-17793;RXN-17797;RXN-2425;RXN0-5393;TIGLYLCOA-HYDROXY-RXN
ASD39_12135	metX	HOMOSERINE-O-ACETYLTRANSFERASE-RXN
ASD39_18960	Unknown	CATAL-RXN;RXN-14189;RXN66-1
ASD39_22680	Unknown	HOMOGENTISATE-12-DIOXYGENASE-RXN
ASD39_11485	Unknown	RXN1A0-6303
ASD39_19220	Unknown	HYDROXYMETHYLGLUTARYL-COA-SYNTHASE-RXN
ASD39_02080	Unknown	N-CARBAMOYLPUTRESCINE-AMIDASE-RXN
ASD39_06735	Unknown	RXN-10891
ASD39_10590	Unknown	2.5.1.39-RXN;4OHBENZOATE-OCTAPRENYLTRANSFER-RXN;RXN-11368;RXN-9003;RXN-9222;RXN-9230
ASD39_12770	Unknown	HYDROXY-MANDELATE-RACEMASE-RXN;MANDELATE-RACEMASE-RXN
ASD39_15355	Unknown	NADPYROPHOSPHAT-RXN;RXN0-4401
ASD39_01585	Unknown	ORNITHINE-CYCLODEAMINASE-RXN
ASD39_25520	Unknown	RXN0-5131
ASD39_22855	Unknown	2.7.13.3-RXN
ASD39_03175	Unknown	5-METHYLTHIOADENOSINE-PHOSPHORYLASE-RXN;RXN-14304
ASD39_08890	Unknown	RXN0-5021
ASD39_15320	Unknown	ADENYLOSUCCINATE-SYNTHASE-RXN
ASD39_01310	Unknown	1.2.1.25-RXN;1.2.4.4-RXN;2.3.1.168-RXN;2KETO-3METHYLVALERATE-RXN;2KETO-4METHYL-PENTANOATE-DEHYDROG-RXN;ISOVALERYLCOA-DHLIPOAMIDE-RXN;KETOISOCAPROATE-RXN;MBCOA-DHLIPOAMIDE-RXN;METHYLVALERATE-RXN;RXN-7719
ASD39_18635	Unknown	RXN0-1147
ASD39_24430	Unknown	2.7.13.3-RXN
ASD39_03685	Unknown	RXN0-4261
ASD39_14835	Unknown	DIHYDROPYRIMIDINASE-RXN;RXN-11211;RXN-11217
ASD39_23505	Unknown	GLYOXIII-RXN
ASD39_21960	Unknown	ISOCHORMAT-RXN
ASD39_10305	Unknown	3-DEHYDROQUINATE-SYNTHASE-RXN
ASD39_12675	Unknown	RXN-2841
ASD39_19655	Unknown	RXN0-2161;SERINE--TRNA-LIGASE-RXN
ASD39_05285	Unknown	METHELENE-THMPT-OXI-RXN
ASD39_23085	murC	UDP-NACMUR-ALA-LIG-RXN
ASD39_21060	Unknown	GLYOXIII-RXN
ASD39_22540	Unknown	MALSYN-RXN
ASD39_22460	Unknown	5-AMINOLEVULINIC-ACID-SYNTHASE-RXN
ASD39_08305	purU	FORMYLTHFDEFORMYL-RXN
ASD39_01165	Unknown	HISTIDINE--TRNA-LIGASE-RXN
ASD39_14555	Unknown	2-HALOACID-DEHALOGENASE-RXN;3.8.1.11-RXN;RXN-6263;RXN-6264
ASD39_05215	Unknown	RXN-13418;RXN-15341;RXN0-280;RXN0-6973
ASD39_19175	Unknown	3-OXOACYL-ACP-REDUCT-RXN;RXN-10060;RXN-10655;RXN-10659;RXN-11476;RXN-11480;RXN-13008;RXN-16616;RXN-16622;RXN-16626;RXN-16630;RXN-9514;RXN-9518;RXN-9524;RXN-9528;RXN-9532;RXN-9536;RXN-9540;RXN-9552;RXN-9556;RXN-9633;RXN0-2142;RXN1G-157;RXN1G-349;RXN1G-469;RXN1G-508
ASD39_07245	Unknown	RXN-11740
ASD39_22825	obgE	RXN0-5462
ASD39_10865	Unknown	GSHTRAN-RXN;GST-RXN;RXN-11663;RXN-13673;RXN-15680;RXN-18405;RXN-18407;RXNQT-4363
ASD39_05065	Unknown	ACETYL-COA-ACETYLTRANSFER-RXN;METHYLACETOACETYLCOATHIOL-RXN;RXN-12561
ASD39_22465	Unknown	GLUTRACE-RXN
ASD39_11960	Unknown	2.7.13.3-RXN
ASD39_23940	Unknown	ADENYLYLSULFKIN-RXN;GSADENYLATION-RXN;RXN-12720;SULFATE-ADENYLYLTRANS-RXN
ASD39_22015	Unknown	DIOHBUTANONEPSYN-RXN
ASD39_24905	Unknown	RXN0-5131
ASD39_16050	Unknown	RXN0-2023
ASD39_23280	Unknown	2.7.13.3-RXN
ASD39_18320	Unknown	DIOHBUTANONEPSYN-RXN
ASD39_06900	Unknown	12-OXOPHYTODIENOATE-REDUCTASE-RXN
ASD39_06335	Unknown	RXN-15740;RXN-15745;RXN0-5260
ASD39_17120	Unknown	PORPHOBILSYNTH-RXN
ASD39_16090	Unknown	2.3.2.13-RXN;RXN-19236
ASD39_18520	Unknown	MUCONATE-CYCLOISOMERASE-RXN
ASD39_15420	Unknown	RXN-982
ASD39_24815	Unknown	KANAMYCIN-KINASE-RXN
ASD39_02195	Unknown	2.7.13.3-RXN
ASD39_18515	Unknown	MUCONOLACTONE-DELTA-ISOMERASE-RXN;RXN-10082
ASD39_21985	Unknown	ACETYL-COA-ACETYLTRANSFER-RXN;METHYLACETOACETYLCOATHIOL-RXN;RXN-12561
ASD39_08035	Unknown	RXN0-2584
ASD39_20985	Unknown	METHELENE-THMPT-OXI-RXN
ASD39_23325	Unknown	ACYLCOADEHYDROG-RXN;RXN-17775;RXN-17779;RXN-17783;RXN-17784;RXN-17788;RXN-17792;RXN-17796
ASD39_19075	Unknown	ACYLCOADEHYDROG-RXN;RXN-17775;RXN-17779;RXN-17783;RXN-17784;RXN-17788;RXN-17792;RXN-17796
ASD39_08980	Unknown	RXN-8077
ASD39_10900	Unknown	TETHYDPICSUCC-RXN
ASD39_15335	Unknown	PGLYCDEHYDROG-RXN
ASD39_01795	Unknown	3.4.14.11-RXN
ASD39_08370	Unknown	GLYCERATE-DEHYDROGENASE-RXN;HYDROXYPYRUVATE-REDUCTASE-RXN
ASD39_01920	Unknown	RXNI-2
ASD39_14825	Unknown	PMPOXI-RXN;PNPOXI-RXN
ASD39_08170	Unknown	RXNI-2
ASD39_22205	sseA	MERCAPYSTRANS-RXN;RXN-18702;RXN-18703;RXN0-6945
ASD39_20060	Unknown	2-ISOPROPYLMALATESYN-RXN
ASD39_13335	Unknown	5-OXOPROLINASE-ATP-HYDROLYSING-RXN
ASD39_14945	Unknown	N-FORMYLGLUTAMATE-DEFORMYLASE-RXN
ASD39_19255	Unknown	ACYLCOADEHYDROG-RXN;RXN-17775;RXN-17779;RXN-17783;RXN-17784;RXN-17788;RXN-17792;RXN-17796
ASD39_11735	Unknown	ISOCIT-CLEAV-RXN
ASD39_17520	Unknown	ATPSYN-RXN
ASD39_18330	Unknown	HYDROXYMETHYLGLUTARYL-COA-LYASE-RXN
ASD39_02345	Unknown	DAPASYN-RXN
ASD39_06100	Unknown	2-OXOPENT-4-ENOATE-HYDRATASE-RXN;RXN-10381
ASD39_04830	Unknown	2.5.1.19-RXN
ASD39_18285	Unknown	ENOYL-COA-HYDRAT-RXN;METHYLACYLYLCOA-HYDROXY-RXN;RXN-10697;RXN-10704;RXN-10705;RXN-11244;RXN-12567;RXN-13616;RXN-14266;RXN-14272;RXN-14273;RXN-16135;RXN-16558;RXN-17114;RXN-17475;RXN-17776;RXN-17780;RXN-17785;RXN-17789;RXN-17793;RXN-17797;RXN-2425;RXN0-5393;TIGLYLCOA-HYDROXY-RXN
ASD39_03350	Unknown	RXN-10819
ASD39_07830	Unknown	NADPH-DEHYDROGENASE-FLAVIN-RXN
ASD39_23100	Unknown	UDP-NACMURALA-GLU-LIG-RXN
ASD39_13795	Unknown	PHTHALATE-45-DIOXYGENASE-RXN
ASD39_05195	Unknown	HISTALDEHYD-RXN;HISTOLDEHYD-RXN;RXN-8001
ASD39_18925	Unknown	3.1.11.2-RXN
ASD39_01290	Unknown	BRANCHED-CHAINAMINOTRANSFERILEU-RXN;BRANCHED-CHAINAMINOTRANSFERLEU-RXN;BRANCHED-CHAINAMINOTRANSFERVAL-RXN
ASD39_19865	gatB	6.3.5.7-RXN
ASD39_16465	Unknown	4.2.2.2-RXN
ASD39_13815	Unknown	GSHTRAN-RXN;GST-RXN;RXN-11663;RXN-13673;RXN-15680;RXN-18405;RXN-18407;RXNQT-4363
ASD39_20540	Unknown	GLYCOGEN-BRANCH-RXN;RXN-14371;RXN-14372;RXN-18777;RXN-7669;RXN-7710
ASD39_23445	Unknown	3-OXOACYL-ACP-REDUCT-RXN
ASD39_04465	Unknown	RXN-11791
ASD39_23935	Unknown	RXN-12720;SULFATE-ADENYLYLTRANS-RXN
ASD39_17500	Unknown	ATPSYN-RXN
ASD39_08045	Unknown	R4-RXN
ASD39_00405	Unknown	ASPARTATE-SEMIALDEHYDE-DEHYDROGENASE-RXN
ASD39_13705	Unknown	1.3.99.16-RXN
ASD39_24195	Unknown	2.7.13.3-RXN
ASD39_01675	Unknown	CYSTEINE-DIOXYGENASE-RXN
ASD39_19810	Unknown	RXN0-6274
ASD39_14040	Unknown	5.99.1.2-RXN
ASD39_21385	Unknown	RXN0-4261
ASD39_21345	Unknown	2.3.1.180-RXN
ASD39_09820	Unknown	POLYNUCLEOTIDE-ADENYLYLTRANSFERASE-RXN
ASD39_07930	Unknown	OROTPDECARB-RXN
ASD39_06745	lldD	L-LACTATE-DEHYDROGENASE-CYTOCHROME-RXN
ASD39_01440	Unknown	UDPNACETYLGLUCOSAMENOLPYRTRANS-RXN
ASD39_12610	mhpB	1.13.11.16-RXN;RXN-12073
ASD39_21520	Unknown	DNA-DIRECTED-DNA-POLYMERASE-RXN
ASD39_16405	Unknown	4-CARBOXYMUCONOLACTONE-DECARBOXYLASE-RXN
ASD39_02635	Unknown	RXN-14971;RXN-15378;SUCCINATE-DEHYDROGENASE-UBIQUINONE-RXN
ASD39_01255	Unknown	HOMOGENTISATE-12-DIOXYGENASE-RXN
ASD39_00260	Unknown	5.99.1.3-RXN
ASD39_19140	Unknown	PMPOXI-RXN;PNPOXI-RXN
ASD39_19260	Unknown	ACYLCOADEHYDROG-RXN;RXN-17775;RXN-17779;RXN-17783;RXN-17784;RXN-17788;RXN-17792;RXN-17796
ASD39_02465	Unknown	ACETYLHOMOSER-CYS-RXN;O-ACETYLHOMOSERINE-THIOL-LYASE-RXN
ASD39_14460	Unknown	1.2.4.4-RXN;2.3.1.168-RXN;KETOISOCAPROATE-RXN;METHYLVALERATE-RXN
ASD39_05235	Unknown	DIHYDROXYISOVALDEHYDRAT-RXN;DIHYDROXYMETVALDEHYDRAT-RXN
ASD39_10640	emrB	3.6.3.44-RXN;TRANS-RXN-311
ASD39_11990	Unknown	GSHTRAN-RXN;GST-RXN;RXN-11663;RXN-13673;RXN-15680;RXN-18405;RXN-18407;RXNQT-4363
ASD39_09040	Unknown	2.7.13.3-RXN
ASD39_15895	Unknown	HOMOSERDEHYDROG-RXN
ASD39_09830	Unknown	5.99.1.2-RXN
ASD39_08260	Unknown	GLUCISOM-RXN;XYLISOM-RXN
ASD39_22190	Unknown	RXN-527;RXN1F-93
ASD39_04055	Unknown	ATPASE-RXN
ASD39_10095	Unknown	DNA-DIRECTED-DNA-POLYMERASE-RXN
ASD39_09000	pdxA	RXN-13179
ASD39_21765	Unknown	2.7.13.3-RXN
ASD39_12340	sucC	SUCCCOASYN-RXN
ASD39_06710	Unknown	ORNITHINE-CYCLODEAMINASE-RXN
ASD39_06625	Unknown	GLYOXIII-RXN
ASD39_17100	Unknown	VALINE--TRNA-LIGASE-RXN
ASD39_00350	Unknown	2.7.13.3-RXN
ASD39_25365	Unknown	SULFITE-REDUCT-RXN
ASD39_18510	Unknown	CATECHOL-12-DIOXYGENASE-RXN
ASD39_24415	Unknown	1.2.4.4-RXN;2.3.1.168-RXN;KETOISOCAPROATE-RXN;METHYLVALERATE-RXN;RXN-7790
ASD39_05390	Unknown	CYTOCHROME-C-OXIDASE-RXN;RXN-15830
ASD39_08200	Unknown	LINC-RXN
ASD39_15955	Unknown	4.1.1.81-RXN
ASD39_15350	Unknown	PREPHENATEDEHYDRAT-RXN
ASD39_15435	Unknown	3-DEHYDROQUINATE-DEHYDRATASE-RXN
ASD39_22985	Unknown	2.7.13.3-RXN
ASD39_07635	Unknown	DTDPDEHYDRHAMEPIM-RXN
ASD39_14015	Unknown	3.1.26.4-RXN
ASD39_04570	Unknown	RXN-15122;THREDEHYD-RXN
ASD39_11950	Unknown	ARGSUCCINSYN-RXN;RXN-10
ASD39_03060	Unknown	1.2.4.4-RXN;2.3.1.168-RXN;KETOISOCAPROATE-RXN;METHYLVALERATE-RXN;RXN-7790
ASD39_23555	Unknown	OHMETHYLBILANESYN-RXN
ASD39_14955	Unknown	IMIDAZOLONEPROPIONASE-RXN
ASD39_03475	Unknown	ACYLCOADEHYDROG-RXN;RXN-17775;RXN-17779;RXN-17783;RXN-17784;RXN-17788;RXN-17792;RXN-17796
ASD39_12100	Unknown	6.3.4.10-RXN;6.3.4.11-RXN;6.3.4.9-RXN;BIOTINLIG-RXN
ASD39_11105	Unknown	PRIBFAICARPISOM-RXN
ASD39_09675	Unknown	QUEUOSINE-TRNA-RIBOSYLTRANSFERASE-RXN;RXN0-1321
ASD39_12720	benD	1.3.1.25-RXN
ASD39_17295	Unknown	AMIDASE-RXN;GUANIDINOBUTANAMIDE-NH3-RXN;PYRAZIN-RXN;R311-RXN;RXN-14727;RXN-14728;RXN-17608;RXNN-404
ASD39_14295	Unknown	3-ISOPROPYLMALISOM-RXN;RXN-13163;RXN-8991
ASD39_22470	Unknown	RXN-10462;RXN-13805;RXN-1381;RXN-15045;RXN-16024;RXN-16117;RXN-17016;RXN-17017;RXN-17018
ASD39_20505	Unknown	ALKAPHOSPHA-RXN;RXN-5822;RXN-8748
ASD39_02565	sucA	2-KETO-ADIPATE-DEHYDROG-RXN;2OXOGLUTARATEDEH-RXN;2OXOGLUTDECARB-RXN;RXN-7716;RXN0-1147
ASD39_05350	Unknown	2.7.13.3-RXN
ASD39_19845	Unknown	3.1.22.4-RXN
ASD39_11910	Unknown	RXN-11586
ASD39_21685	Unknown	1.14.12.18-RXN;RXN-17339;RXN-17341
ASD39_11240	Unknown	DNA-DIRECTED-DNA-POLYMERASE-RXN
ASD39_10225	Unknown	PANTEPADENYLYLTRAN-RXN
ASD39_10800	Unknown	PEPTIDYLPROLYL-ISOMERASE-RXN
ASD39_21410	Unknown	PABASYN-RXN
ASD39_24395	Unknown	RXN0-4261
ASD39_14940	Unknown	UROCANATE-HYDRATASE-RXN
ASD39_05585	Unknown	FUMARYLACETOACETASE-RXN
ASD39_07685	Unknown	RXN-17155
ASD39_13805	Unknown	4-CARBOXYMUCONOLACTONE-DECARBOXYLASE-RXN
ASD39_23020	Unknown	3.2.1.52-RXN;RXN-12625;RXN-12626;RXN-18082;RXN0-5226
ASD39_04730	Unknown	PRPPSYN-RXN
ASD39_00515	Unknown	RXN0-5422
ASD39_09350	Unknown	RXN0-5462
ASD39_22720	Unknown	HOLO-ACP-SYNTH-RXN
ASD39_21640	Unknown	SUCCDIAMINOPIMDESUCC-RXN
ASD39_21725	Unknown	DIOHBUTANONEPSYN-RXN
ASD39_16925	Unknown	3.3.2.8-RXN;RXN-9412;RXN-9413;RXN-9464
ASD39_16915	Unknown	4-CARBOXYMUCONOLACTONE-DECARBOXYLASE-RXN
ASD39_11630	Unknown	PGLUCISOM-RXN
ASD39_14085	Unknown	GLYOXIII-RXN
ASD39_08175	Unknown	RXNI-2
ASD39_10965	Unknown	3.1.26.4-RXN
ASD39_03190	Unknown	1.10.2.2-RXN;RXN-15829
ASD39_05165	Unknown	RXN-2463
ASD39_12325	Unknown	DNA-DIRECTED-DNA-POLYMERASE-RXN;RXN0-4961
ASD39_07770	Unknown	3.5.1.27-RXN;3.5.1.88-RXN
ASD39_07910	Unknown	BRANCHED-CHAINAMINOTRANSFERILEU-RXN;BRANCHED-CHAINAMINOTRANSFERLEU-RXN;BRANCHED-CHAINAMINOTRANSFERVAL-RXN
ASD39_23835	Unknown	RXN-2841
ASD39_02525	fliI	ATPSYN-RXN
ASD39_09470	Unknown	ACETOLACTSYN-RXN;ACETOOHBUTSYN-RXN
ASD39_03050	Unknown	1.8.1.4-RXN;2OXOGLUTARATEDEH-RXN;2OXOGLUTDECARB-RXN;RXN-7716;RXN-7719;RXN-8629;RXN0-1132;RXN0-1147
ASD39_09345	mazG	DCTP-PYROPHOSPHATASE-RXN;DUTP-PYROP-RXN;NUCLEOTIDE-PYROPHOSPHATASE-RXN;RXN-14139;RXN-14140;RXN0-383;RXN0-384;RXN0-385;RXN0-5107;RXN0-6382
ASD39_19680	Unknown	ACETYL-COA-ACETYLTRANSFER-RXN;METHYLACETOACETYLCOATHIOL-RXN;RXN-12561
ASD39_16305	Unknown	R101-RXN
ASD39_19885	clpP	3.4.21.92-RXN
ASD39_13340	Unknown	5-OXOPROLINASE-ATP-HYDROLYSING-RXN
ASD39_23175	Unknown	1.14.11.18-RXN;RXN66-470
ASD39_18210	Unknown	3-ISOPROPYLMALISOM-RXN;RXN-13163;RXN-8991
ASD39_19970	Unknown	PRPPAMIDOTRANS-RXN
ASD39_10215	Unknown	RXN0-1342
ASD39_16125	Unknown	ENOYL-ACP-REDUCT-NADPH-RXN;RXN-9515;RXN-9521;RXN-9526;RXN-9530;RXN-9534;RXN-9538;RXN-9542;RXN3O-5293
ASD39_00375	Unknown	R4-RXN
ASD39_02115	Unknown	ACSERLY-RXN;RXN-12726
ASD39_16550	Unknown	UGD-RXN
ASD39_21530	Unknown	2-NITROPROPANE-DIOXYGENASE-RXN;RXN-16322
ASD39_13715	Unknown	4.1.3.17-RXN;RXN-12074;RXN-2464
ASD39_06480	Unknown	3-ISOPROPYLMALISOM-RXN;RXN-13163;RXN-8991
ASD39_23830	Unknown	RXN-2841
ASD39_08040	Unknown	1.5.5.1-RXN;RXN66-550
ASD39_09405	Unknown	CARBODEHYDRAT-RXN;RXN0-5224
ASD39_13325	Unknown	RXN-9387;RXN-9781
ASD39_12145	Unknown	PREPHENATEDEHYDROG-RXN
ASD39_05140	Unknown	RXN-2462
ASD39_18505	Unknown	RXNI-2
ASD39_06365	Unknown	4.1.1.68-RXN;CARBOXY-OXOHEPT-ENEDIOATE-DECARBOXY-RXN;RXN1K-87
ASD39_18750	Unknown	3-OXOACYL-ACP-REDUCT-RXN;RXN-10060;RXN-10655;RXN-10659;RXN-11476;RXN-11480;RXN-13008;RXN-16616;RXN-16622;RXN-16626;RXN-16630;RXN-9514;RXN-9518;RXN-9524;RXN-9528;RXN-9532;RXN-9536;RXN-9540;RXN-9552;RXN-9556;RXN-9633;RXN0-2142;RXN1G-157;RXN1G-349;RXN1G-469;RXN1G-508
ASD39_08250	Unknown	RXN-12134;RXN-12140;RXN-12141;RXN-12142
ASD39_12795	Unknown	S-ADENMETSYN-RXN
ASD39_18255	Unknown	ACYLCOADEHYDROG-RXN;RXN-17775;RXN-17779;RXN-17783;RXN-17784;RXN-17788;RXN-17792;RXN-17796
ASD39_02575	Unknown	MALATE-DEH-RXN
ASD39_05190	Unknown	3-OXOACYL-ACP-REDUCT-RXN;RXN-10060;RXN-10655;RXN-10659;RXN-11476;RXN-11480;RXN-13008;RXN-16616;RXN-16622;RXN-16626;RXN-16630;RXN-9514;RXN-9518;RXN-9524;RXN-9528;RXN-9532;RXN-9536;RXN-9540;RXN-9552;RXN-9556;RXN-9633;RXN0-2142;RXN1G-157;RXN1G-349;RXN1G-469;RXN1G-508
ASD39_00975	Unknown	ACYLCOASYN-RXN;LINOLENOYL-RXN;R223-RXN;RXN-12184;RXN-12702;RXN-12746;RXN-12978;RXN-13290;RXN-13614;RXN-16380;RXN-16389;RXN-16393;RXN-16401;RXN-16402;RXN-16415;RXN-16418;RXN-7904;RXN-9623;RXN-9644;RXN-9673;RXN0-7238;RXN0-7239;RXN0-7248;RXN66-469;RXN66-477;RXN66-480;RXN66-483;RXN66-484;TRANS-RXN0-623
ASD39_07885	Unknown	2.7.13.3-RXN
ASD39_20630	Unknown	2.3.2.13-RXN;RXN-19236
ASD39_08630	Unknown	DTMPKI-RXN
ASD39_09455	Unknown	GUANYLCYC-RXN
ASD39_05670	Unknown	RXN0-5375
ASD39_17330	Unknown	GLYOXII-RXN;RXN-7919
ASD39_25370	Unknown	NADPH-DEHYDROGENASE-FLAVIN-RXN
ASD39_01530	Unknown	TRNA-URACIL-5--METHYLTRANSFERASE-RXN
ASD39_04825	Unknown	RXN-11832;RXN-12002;RXN-7913
ASD39_16295	Unknown	RXN-18394
ASD39_23605	Unknown	L-ASPARTATE-OXID-RXN;RXN-9772
ASD39_11270	Unknown	ATPASE-RXN
ASD39_19920	Unknown	HOMSUCTRAN-RXN
ASD39_10960	Unknown	2.7.13.3-RXN
ASD39_01300	Unknown	1.2.4.4-RXN;2.3.1.168-RXN;KETOISOCAPROATE-RXN;METHYLVALERATE-RXN
ASD39_21550	Unknown	ACYLCOADEHYDROG-RXN;RXN-17775;RXN-17779;RXN-17783;RXN-17784;RXN-17788;RXN-17792;RXN-17796
ASD39_08930	Unknown	FGAMSYN-RXN
ASD39_05370	Unknown	CYTOCHROME-C-OXIDASE-RXN;RXN-15830
ASD39_19590	Unknown	3-HYDROXYISOBUTYRATE-DEHYDROGENASE-RXN
ASD39_03260	Unknown	ACETYLORNTRANSAM-RXN;RXN-15007
ASD39_00905	Unknown	GSHTRAN-RXN;GST-RXN;RXN-11663;RXN-13673;RXN-15680;RXN-18405;RXN-18407;RXNQT-4363
ASD39_19190	Unknown	ENOYL-COA-HYDRAT-RXN;METHYLACYLYLCOA-HYDROXY-RXN;RXN-10697;RXN-10704;RXN-10705;RXN-11244;RXN-12567;RXN-13616;RXN-14266;RXN-14272;RXN-14273;RXN-16135;RXN-16558;RXN-17114;RXN-17475;RXN-17776;RXN-17780;RXN-17785;RXN-17789;RXN-17793;RXN-17797;RXN-2425;RXN0-5393;TIGLYLCOA-HYDROXY-RXN
ASD39_09500	Unknown	RXN0-5100
ASD39_09290	gltD	GLUTAMATESYN-RXN;GLUTAMIN-RXN;GLUTDEHYD-RXN
ASD39_01750	Unknown	3-ISOPROPYLMALDEHYDROG-RXN;RXN-13158;RXN-14986;RXN-18200;RXN-18202;RXN-18204;RXN-18206;RXN-18208;RXN-18210;RXNQT-4165;RXNQT-4168;RXNQT-4171;RXNQT-4174;RXNQT-4178
ASD39_10300	Unknown	SHIKIMATE-KINASE-RXN
ASD39_13735	Unknown	ENOYL-COA-HYDRAT-RXN;METHYLACYLYLCOA-HYDROXY-RXN;RXN-10697;RXN-10704;RXN-10705;RXN-11244;RXN-12567;RXN-13616;RXN-14266;RXN-14272;RXN-14273;RXN-16135;RXN-16558;RXN-17114;RXN-17475;RXN-17776;RXN-17780;RXN-17785;RXN-17789;RXN-17793;RXN-17797;RXN-2425;RXN0-5393;TIGLYLCOA-HYDROXY-RXN
ASD39_19355	Unknown	DIOHBUTANONEPSYN-RXN
ASD39_01605	Unknown	5-OXOPROLINASE-ATP-HYDROLYSING-RXN
ASD39_11260	Unknown	PHOSMANMUT-RXN
ASD39_23365	Unknown	ACYLCOADEHYDROG-RXN;RXN-17775;RXN-17779;RXN-17783;RXN-17784;RXN-17788;RXN-17792;RXN-17796
ASD39_06115	Unknown	R125-RXN
ASD39_23030	Unknown	ARGININE--TRNA-LIGASE-RXN
ASD39_06990	Unknown	GSHTRAN-RXN;GST-RXN;RXN-11663;RXN-13673;RXN-15680;RXN-18405;RXN-18407;RXNQT-4363
ASD39_16760	Unknown	GLUTAMIDOTRANS-RXN;GLUTAMIN-RXN;RXN-17900
ASD39_11390	Unknown	RXN-12104
ASD39_14950	Unknown	HISTIDINE-AMMONIA-LYASE-RXN
ASD39_02605	Unknown	PHOSPHAGLYPSYN-RXN
ASD39_22480	Unknown	5.99.1.2-RXN
ASD39_09895	Unknown	N-ACETYLGLUTPREDUCT-RXN;RXN-15006
ASD39_15100	Unknown	N-FORMYLGLUTAMATE-DEFORMYLASE-RXN
ASD39_10155	Unknown	EXOPOLYPHOSPHATASE-RXN
ASD39_24830	Unknown	ACYLCOASYN-RXN;LINOLENOYL-RXN;R223-RXN;RXN-12184;RXN-12978;RXN-13290;RXN-13614;RXN-16380;RXN-16389;RXN-16393;RXN-16401;RXN-16402;RXN-16415;RXN-16418;RXN-7904;RXN-9623;RXN-9644;RXN-9673;RXN0-7238;RXN0-7239;RXN0-7248;RXN66-469;RXN66-477;RXN66-480;RXN66-483;RXN66-484;TRANS-RXN0-623
ASD39_08655	Unknown	ADOMET-DMK-METHYLTRANSFER-RXN
ASD39_12030	Unknown	1.6.99.5-RXN;NADH-DEHYDROGENASE-QUINONE-RXN
ASD39_24610	Unknown	DNA-DIRECTED-RNA-POLYMERASE-RXN
ASD39_05170	Unknown	PROTOCATECHUATE-34-DIOXYGENASE-RXN;RXN-9731
ASD39_03290	Unknown	RXN-13908;RXN-7908
ASD39_12965	Unknown	ACYLCOADEHYDROG-RXN;RXN-17775;RXN-17779;RXN-17783;RXN-17784;RXN-17788;RXN-17792;RXN-17796
ASD39_00325	hppA	INORGPYROPHOSPHAT-RXN
ASD39_14080	Unknown	2-OCTAPRENYL-6-OHPHENOL-METHY-RXN;DHHB-METHYLTRANSFER-RXN
ASD39_23685	Unknown	MALIC-NADP-RXN;OXALODECARB-RXN
ASD39_09860	Unknown	SAICARSYN-RXN
ASD39_06215	Unknown	CHITIN-DEACETYLASE-RXN
ASD39_22615	Unknown	RXN-7241
ASD39_17850	Unknown	GPH-RXN
ASD39_04950	Unknown	ADDALT-RXN;ADENODEAMIN-RXN
ASD39_10290	Unknown	RXN0-5100
ASD39_08475	Unknown	GLUCISOM-RXN;XYLISOM-RXN
ASD39_10365	Unknown	DUTP-PYROP-RXN
ASD39_14210	Unknown	RXN0-5131
ASD39_01720	purU	FORMYLTHFDEFORMYL-RXN
ASD39_17580	Unknown	RXN0-4301
ASD39_16135	Unknown	ACYLPHOSPHATASE-RXN
ASD39_19340	Unknown	CREATININASE-RXN
ASD39_19780	Unknown	NUCLEOTIDE-PYROPHOSPHATASE-RXN
ASD39_00145	Unknown	RXN0-4961
ASD39_07465	Unknown	RXN0-4261
ASD39_23795	Unknown	QOR-RXN
ASD39_00510	Unknown	RXN0-2621
ASD39_00700	Unknown	3.1.11.6-RXN
ASD39_15490	Unknown	PRODISULFREDUCT-RXN;RXN0-7271
ASD39_23070	Unknown	DALADALALIG-RXN
ASD39_18260	Unknown	CARBOXYMETHYLENEBUTENOLIDASE-RXN;DIENELACHYDRO-RXN;RXN-9857;RXN-9868;RXN-9887;RXN-9890
ASD39_08240	Unknown	LINC-RXN
ASD39_12435	Unknown	2.7.13.3-RXN
ASD39_18800	Unknown	AMIDASE-RXN;GUANIDINOBUTANAMIDE-NH3-RXN;PYRAZIN-RXN;R311-RXN;RXN-14727;RXN-14728;RXN-17608;RXNN-404
ASD39_02555	Unknown	1.8.1.4-RXN;2OXOGLUTARATEDEH-RXN;2OXOGLUTDECARB-RXN;RXN-7716;RXN-7719;RXN-8629;RXN0-1132;RXN0-1147
ASD39_10355	Unknown	2-OCTAPRENYLPHENOL-HYDROX-RXN
ASD39_20695	Unknown	ALANINE--TRNA-LIGASE-RXN
ASD39_08675	Unknown	5-OXOPROLINASE-ATP-HYDROLYSING-RXN
ASD39_18145	Unknown	2-OXOPENT-4-ENOATE-HYDRATASE-RXN;RXN-10381
ASD39_07820	Unknown	1.8.4.8-RXN
ASD39_03095	Unknown	AMINOCYL-TRNA-HYDROLASE-RXN;RXN-16637
ASD39_16590	Unknown	2.7.13.3-RXN
ASD39_08515	Unknown	DEOXYGLUCONOKIN-RXN
ASD39_04760	Unknown	RIBOFLAVIN-SYN-RXN
ASD39_14960	Unknown	FORMIMINOGLUTAMATE-DEIMINASE-RXN
ASD39_08385	Unknown	THIOREDOXIN-REDUCT-NADPH-RXN
ASD39_24425	Unknown	1.2.1.25-RXN;1.2.4.4-RXN;2.3.1.168-RXN;2KETO-3METHYLVALERATE-RXN;2KETO-4METHYL-PENTANOATE-DEHYDROG-RXN;ISOVALERYLCOA-DHLIPOAMIDE-RXN;KETOISOCAPROATE-RXN;MBCOA-DHLIPOAMIDE-RXN;METHYLVALERATE-RXN;RXN-7719
ASD39_19930	Unknown	HISTONE-ACETYLTRANSFERASE-RXN
ASD39_15055	Unknown	FUMARYLACETOACETASE-RXN
ASD39_22210	Unknown	CYSTATHIONINE-BETA-LYASE-RXN;RXN-12729;RXN-15131;RXN-15137;RXN-15577;RXN-15582;RXN-18212;RXN-6763;RXN-8052;RXN-8054;RXNQT-4319;RXNQT-4320;RXNQT-4321;RXNQT-4322;RXNQT-4323;S-ALKYLCYSTEINE-LYASE-RXN
ASD39_16300	Unknown	R103-RXN
ASD39_08065	Unknown	2.7.1.148-RXN
ASD39_17540	Unknown	RXN0-2621
ASD39_16790	Unknown	DNA-DIRECTED-DNA-POLYMERASE-RXN
ASD39_18705	Unknown	ORNITHINE-CYCLODEAMINASE-RXN
ASD39_02665	Unknown	1.10.2.2-RXN;RXN-15829
ASD39_22265	Unknown	THYMIDYLATESYN-RXN
ASD39_06660	Unknown	DIHYDROPYRIMIDINASE-RXN;RXN-11211;RXN-11217
ASD39_01115	Unknown	DNA-CYTOSINE-5--METHYLTRANSFERASE-RXN
ASD39_22910	Unknown	3.1.11.2-RXN
ASD39_19630	Unknown	RXN0-6366
ASD39_21070	Unknown	GLUCISOM-RXN;XYLISOM-RXN
ASD39_05145	Unknown	RXN-9983
ASD39_08625	Unknown	DNA-DIRECTED-DNA-POLYMERASE-RXN;RXN0-4961
ASD39_01590	Unknown	ARGINASE-RXN;RXN-34
ASD39_17865	Unknown	UNSPECIFIC-MONOOXYGENASE-RXN
ASD39_11455	Unknown	2.8.1.6-RXN;RXN-17472;RXN-17473
ASD39_03480	Unknown	KDUD-RXN
ASD39_10260	Unknown	1.11.1.15-RXN;RXN0-5468
ASD39_06680	Unknown	METHELENE-THMPT-OXI-RXN
ASD39_22245	Unknown	RXN-17362
ASD39_12900	Unknown	ACYLCOASYN-RXN;LINOLENOYL-RXN;R223-RXN;RXN-12184;RXN-12978;RXN-13290;RXN-13614;RXN-16380;RXN-16389;RXN-16393;RXN-16401;RXN-16402;RXN-16415;RXN-16418;RXN-7904;RXN-9623;RXN-9644;RXN-9673;RXN0-7238;RXN0-7239;RXN0-7248;RXN66-469;RXN66-477;RXN66-480;RXN66-483;RXN66-484;TRANS-RXN0-623
ASD39_12400	Unknown	PMPOXI-RXN;PNPOXI-RXN
ASD39_15325	Unknown	ATPPHOSPHORIBOSYLTRANS-RXN
ASD39_19805	Unknown	ACETOLACTSYN-RXN;ACETOOHBUTSYN-RXN
ASD39_19860	gatA	6.3.5.7-RXN
ASD39_17385	Unknown	5.3.3.10-RXN
ASD39_13775	Unknown	GSHTRAN-RXN;GST-RXN;RXN-11663;RXN-13673;RXN-15680;RXN-18405;RXN-18407;RXNQT-4363
ASD39_21285	Unknown	ATPASE-RXN
ASD39_04525	Unknown	RXN-9591
ASD39_04430	Unknown	GLUTCYSLIG-RXN
ASD39_18295	Unknown	1.1.1.178-RXN
ASD39_15050	Unknown	CARBOXYMETHYLENEBUTENOLIDASE-RXN;DIENELACHYDRO-RXN;RXN-9857;RXN-9868;RXN-9887;RXN-9890
ASD39_15185	Unknown	2.5.1.46-RXN;RXN-13414;RXN-13415;RXN-13416;RXN-13417
ASD39_03670	Unknown	TYROSINE--TRNA-LIGASE-RXN
ASD39_05650	Unknown	RXN-10891
ASD39_06705	Unknown	4.1.1.68-RXN;CARBOXY-OXOHEPT-ENEDIOATE-DECARBOXY-RXN;RXN1K-87
ASD39_21580	Unknown	3.2.1.3-RXN;RXN-9024
ASD39_09920	Unknown	RXN-17155
ASD39_21465	Unknown	R4-RXN
ASD39_22710	Unknown	PEPTIDYLPROLYL-ISOMERASE-RXN
ASD39_10470	Unknown	CDPKIN-RXN;DADPKIN-RXN;DCDPKIN-RXN;DGDPKIN-RXN;DTDPKIN-RXN;DUDPKIN-RXN;GDPKIN-RXN;NUCLEOSIDE-DIP-KIN-RXN;RXN-14120;RXN-14228;UDPKIN-RXN
ASD39_11000	Unknown	GCVP-RXN
ASD39_11065	Unknown	ATPASE-RXN
ASD39_03275	Unknown	THRESYN-RXN
ASD39_11685	Unknown	GSHTRAN-RXN;GST-RXN;RXN-11663;RXN-13673;RXN-15680;RXN-18405;RXN-18407;RXNQT-4363
ASD39_20785	Unknown	GSHTRAN-RXN;GST-RXN;RXN-11663;RXN-13673;RXN-15680;RXN-18405;RXN-18407;RXNQT-4363
ASD39_19330	Unknown	ACYLCOASYN-RXN;LINOLENOYL-RXN;R223-RXN;RXN-12184;RXN-12978;RXN-13290;RXN-13614;RXN-16380;RXN-16389;RXN-16393;RXN-16401;RXN-16402;RXN-16415;RXN-16418;RXN-7904;RXN-9623;RXN-9644;RXN-9673;RXN0-7238;RXN0-7239;RXN0-7248;RXN66-469;RXN66-477;RXN66-480;RXN66-483;RXN66-484;TRANS-RXN0-623
ASD39_23945	Unknown	325-BISPHOSPHATE-NUCLEOTIDASE-RXN
ASD39_21545	Unknown	ACETYL-COA-ACETYLTRANSFER-RXN;METHYLACETOACETYLCOATHIOL-RXN;RXN-12561
ASD39_17510	Unknown	ATPSYN-RXN
ASD39_12065	Unknown	1.6.99.5-RXN;NADH-DEHYDROGENASE-QUINONE-RXN
ASD39_17260	Unknown	RXN0-1382
ASD39_00075	Unknown	CARBOXYMETHYLENEBUTENOLIDASE-RXN;DIENELACHYDRO-RXN;RXN-9857;RXN-9868;RXN-9887;RXN-9890
ASD39_10830	Unknown	6PGLUCONOLACT-RXN
ASD39_00275	Unknown	MALIC-NADP-RXN;OXALODECARB-RXN
ASD39_01405	Unknown	SUPEROX-DISMUT-RXN
ASD39_02810	Unknown	CARBODEHYDRAT-RXN;RXN0-5224
ASD39_18680	Unknown	KETOACYLCOATHIOL-RXN;RXN-10699;RXN-10700;RXN-10701;RXN-11246;RXN-12565;RXN-12710;RXN-13617;RXN-14268;RXN-14274;RXN-14277;RXN-14394;RXN-14774;RXN-14788;RXN-14793;RXN-14799;RXN-14803;RXN-16137;RXN-17116;RXN-17778;RXN-17782;RXN-17787;RXN-17791;RXN-17795;RXN-17799;RXN-3641
ASD39_01110	Unknown	MALEYLACETOACETATE-ISOMERASE-RXN
ASD39_11495	Unknown	DIAMINOPIMDECARB-RXN
ASD39_08210	Unknown	LINC-RXN
ASD39_09660	Unknown	N-FORMYLGLUTAMATE-DEFORMYLASE-RXN
ASD39_15290	Unknown	RXN0-2621
ASD39_10655	Unknown	FRUCTOKINASE-RXN
ASD39_04350	Unknown	PROLINE--TRNA-LIGASE-RXN
ASD39_20745	Unknown	2-OXOPENT-4-ENOATE-HYDRATASE-RXN;RXN-10381
ASD39_11480	Unknown	DIMETHUROPORDEHYDROG-RXN;SIROHEME-FERROCHELAT-RXN;UROPORIIIMETHYLTRANSA-RXN
ASD39_18625	Unknown	2.6.1.57-RXN;PHEAMINOTRANS-RXN;RXN-14147;RXN-15200;TRYPTOPHAN-AMINOTRANSFERASE-RXN;TYROSINE-AMINOTRANSFERASE-RXN
ASD39_15475	Unknown	3-ISOPROPYLMALISOM-RXN;RXN-13163;RXN-8991
ASD39_03665	Unknown	RXN0-4621
ASD39_19685	Unknown	RXN1-42
ASD39_21160	Unknown	CARBODEHYDRAT-RXN;RXN0-5224
ASD39_03710	ppnK	NAD-KIN-RXN
ASD39_07755	Unknown	METHIONYL-TRNA-FORMYLTRANSFERASE-RXN
ASD39_24795	fbiC	RXN-8077
ASD39_07795	Unknown	CYTIDEAM-RXN;CYTIDEAM2-RXN
ASD39_01285	Unknown	RXN-9384
ASD39_21270	Unknown	RXN0-4261
ASD39_12580	Unknown	2-OXOGLUTARATE-SYNTHASE-RXN
ASD39_09575	Unknown	RXN0-5462
ASD39_05895	Unknown	ALANINE-DEHYDROGENASE-RXN
ASD39_07785	Unknown	RXN0-7023
ASD39_22330	Unknown	ACYLCOADEHYDROG-RXN;RXN-17775;RXN-17779;RXN-17783;RXN-17784;RXN-17788;RXN-17792;RXN-17796
ASD39_11060	Unknown	2-HALOACID-DEHALOGENASE-RXN
ASD39_02300	Unknown	RXN0-5131
ASD39_04725	Unknown	GLYOXIII-RXN
ASD39_06675	Unknown	PRPPAMIDOTRANS-RXN
ASD39_25255	Unknown	GLUTAMATE-DEHYDROGENASE-NADP+-RXN;GLUTAMATE-DEHYDROGENASE-RXN;GLUTDEHYD-RXN
ASD39_03215	Unknown	RXN-13037;RXN0-947
ASD39_21790	Unknown	1.3.1.62-RXN
ASD39_21225	Unknown	PEPTIDYLPROLYL-ISOMERASE-RXN
ASD39_07365	Unknown	R4-RXN
ASD39_10085	Unknown	RXN-16650
ASD39_25250	Unknown	CYTOCHROME-C-OXIDASE-RXN;RXN-15830
ASD39_09205	Unknown	PEPSYNTH-RXN
ASD39_12360	Unknown	PYRIMSYN1-RXN
ASD39_04365	Unknown	TRIOSEPISOMERIZATION-RXN
ASD39_22730	Unknown	OROPRIBTRANS-RXN
ASD39_04770	Unknown	LUMAZINESYN-RXN
ASD39_09450	Unknown	RXN0-5100
ASD39_16515	Unknown	METHIONYL-TRNA-FORMYLTRANSFERASE-RXN
ASD39_02880	Unknown	ADENYL-KIN-RXN
ASD39_18715	Unknown	6.3.5.7-RXN
ASD39_08300	Unknown	METHENYLTHFCYCLOHYDRO-RXN;METHYLENETHFDEHYDROG-NADP-RXN
ASD39_09275	Unknown	CATAL-RXN;RXN-14189;RXN66-1
ASD39_20070	Unknown	PRPPAMIDOTRANS-RXN
ASD39_19625	Unknown	RXN-7682;RXN0-901
ASD39_19975	Unknown	HISTCYCLOHYD-RXN
ASD39_15425	Unknown	BIOTIN-CARBOXYL-RXN
ASD39_01295	Unknown	1.8.1.4-RXN;2OXOGLUTARATEDEH-RXN;2OXOGLUTDECARB-RXN;RXN-7716;RXN-7719;RXN-8629;RXN0-1132;RXN0-1147
ASD39_21315	Unknown	ASPAMINOTRANS-RXN;RXN-10814;RXN-11737;RXN-13697
ASD39_21470	Unknown	1.11.1.15-RXN;RXN0-5468
ASD39_20935	Unknown	5-OXOPROLINASE-ATP-HYDROLYSING-RXN
ASD39_04595	Unknown	HOMOCYSMET-RXN;HOMOCYSMETB12-RXN
ASD39_23090	Unknown	NACGLCTRANS-RXN;RXN-8976
ASD39_10705	Unknown	2.7.13.3-RXN
ASD39_19455	Unknown	ACETYL-COA-ACETYLTRANSFER-RXN;METHYLACETOACETYLCOATHIOL-RXN;RXN-12561
ASD39_19795	Unknown	ACETOLACTREDUCTOISOM-RXN;ACETOOHBUTREDUCTOISOM-RXN
ASD39_23145	Unknown	ACSERLY-RXN;RXN-12726
ASD39_06355	Unknown	5-OXOPROLINASE-ATP-HYDROLYSING-RXN
ASD39_05015	Unknown	GLYRIBONUCSYN-RXN
ASD39_04285	Unknown	ALKANE-1-MONOOXYGENASE-RXN
ASD39_10200	ndk	CDPKIN-RXN;DADPKIN-RXN;DCDPKIN-RXN;DGDPKIN-RXN;DTDPKIN-RXN;DUDPKIN-RXN;GDPKIN-RXN;NUCLEOSIDE-DIP-KIN-RXN;RXN-14120;RXN-14228;UDPKIN-RXN
ASD39_09105	Unknown	DAHPSYN-RXN
ASD39_09975	Unknown	5.4.2.10-RXN;RXN-16424;RXN0-7139
ASD39_12815	Unknown	PEPTIDYLPROLYL-ISOMERASE-RXN
ASD39_10970	Unknown	HOMOSERKIN-RXN
ASD39_00340	Unknown	KANAMYCIN-KINASE-RXN
ASD39_10690	purU	FORMYLTHFDEFORMYL-RXN
ASD39_15990	Unknown	2.7.13.3-RXN
ASD39_08825	eno	2PGADEHYDRAT-RXN
ASD39_16675	Unknown	2-OXOPENT-4-ENOATE-HYDRATASE-RXN;RXN-10381
ASD39_01850	Unknown	SULFITE-DEHYDROGENASE-RXN
ASD39_00330	Unknown	THI-P-KIN-RXN
ASD39_10810	Unknown	RXN-17884;RXN-2962
ASD39_12460	Unknown	3.5.1.93-RXN
ASD39_05715	Unknown	ACETYL-COA-ACETYLTRANSFER-RXN;METHYLACETOACETYLCOATHIOL-RXN;RXN-12561
ASD39_17460	Unknown	AICARSYN-RXN;AMPSYN-RXN
ASD39_02640	Unknown	RXN-14971;RXN-15378;SUCCINATE-DEHYDROGENASE-UBIQUINONE-RXN
ASD39_14345	Unknown	RXN-9863
ASD39_18830	Unknown	GSHTRAN-RXN;GST-RXN;RXN-11663;RXN-13673;RXN-15680;RXN-18405;RXN-18407;RXNQT-4363
ASD39_00120	Unknown	RXN-10642;UROGENDECARBOX-RXN
ASD39_24890	Unknown	RXN0-5131
ASD39_04870	Unknown	ATPASE-RXN
ASD39_21505	Unknown	PHOSPHAGLYPSYN-RXN
ASD39_23525	Unknown	4.2.2.7-RXN
ASD39_01725	Unknown	METHENYLTHFCYCLOHYDRO-RXN;METHYLENETHFDEHYDROG-NADP-RXN
ASD39_12440	gltA	CITSYN-RXN
ASD39_05730	Unknown	3-OXOACYL-ACP-REDUCT-RXN
ASD39_14480	Unknown	2.3.1.184-RXN;RXN-10020;RXN-10022;RXN-10023;RXN-10024;RXN-10025;RXN-10026
ASD39_00705	Unknown	GLYRIBONUCSYN-RXN
ASD39_20075	Unknown	PRODISULFREDUCT-RXN;RXN0-7271
ASD39_12045	Unknown	1.6.99.5-RXN;NADH-DEHYDROGENASE-QUINONE-RXN
ASD39_11335	Unknown	HISTALDEHYD-RXN;HISTOLDEHYD-RXN;RXN-8001
ASD39_15900	glpX	F16BDEPHOS-RXN
ASD39_09210	Unknown	2.7.13.3-RXN
ASD39_08140	Unknown	5-OXOPROLINASE-ATP-HYDROLYSING-RXN
ASD39_08670	Unknown	5-OXOPROLINASE-ATP-HYDROLYSING-RXN
ASD39_09385	ispDF	2.7.7.60-RXN;RXN0-302
ASD39_21210	Unknown	DNA-DIRECTED-RNA-POLYMERASE-RXN
ASD39_25240	Unknown	CYTOCHROME-C-OXIDASE-RXN;RXN-15830
ASD39_09465	Unknown	CYSTEINE--TRNA-LIGASE-RXN
ASD39_20955	Unknown	CARBOXYMETHYLENEBUTENOLIDASE-RXN;DIENELACHYDRO-RXN;RXN-9857;RXN-9868;RXN-9887;RXN-9890
ASD39_15855	Unknown	2.7.13.3-RXN
ASD39_00625	purE	RXN0-743
ASD39_17200	Unknown	ACYLCOADEHYDROG-RXN;RXN-17775;RXN-17779;RXN-17783;RXN-17784;RXN-17788;RXN-17792;RXN-17796
ASD39_16130	Unknown	CHORISMATE-SYNTHASE-RXN
ASD39_02825	guaA	GLUTAMIN-RXN;GMP-SYN-GLUT-RXN;GMP-SYN-NH3-RXN
ASD39_09790	Unknown	H2NEOPTERINALDOL-RXN;RXN-10857
ASD39_02745	Unknown	GDPMANDEHYDRA-RXN
ASD39_00020	Unknown	LEUCINE--TRNA-LIGASE-RXN
ASD39_15495	Unknown	GLYCPDIESTER-RXN;RXN-14073;RXN-14136;RXN-14160
ASD39_11600	Unknown	RXN-12587;RXN-12588;RXN-14382;RXN-14385;RXN-15881;RXN-9787;RXN0-308
ASD39_05085	Unknown	GSAAMINOTRANS-RXN
ASD39_07075	Unknown	3.2.1.74-RXN
ASD39_17555	Unknown	3-ISOPROPYLMALDEHYDROG-RXN;RXN-13158;RXN-14986;RXN-18200;RXN-18202;RXN-18204;RXN-18206;RXN-18208;RXN-18210;RXNQT-4165;RXNQT-4168;RXNQT-4171;RXNQT-4174;RXNQT-4178
ASD39_15515	Unknown	QUINOLINATE-SYNTHA-RXN
ASD39_07680	Unknown	THIOREDOXIN-REDUCT-NADPH-RXN
ASD39_21585	Unknown	2.4.1.36-RXN;RXN-761;TREHALOSE6PSYN-RXN
ASD39_02840	Unknown	3.4.21.26-RXN
ASD39_02720	Unknown	GDPMANDEHYDRA-RXN
ASD39_11725	Unknown	DIHYDROOROT-RXN
ASD39_11095	Unknown	IMIDPHOSDEHYD-RXN
ASD39_02560	Unknown	RXN0-1147
ASD39_01305	Unknown	1.2.4.4-RXN;2.3.1.168-RXN;KETOISOCAPROATE-RXN;METHYLVALERATE-RXN
ASD39_22775	Unknown	RXN-17155
ASD39_10360	Unknown	P-PANTOCYSDECARB-RXN;P-PANTOCYSLIG-RXN;RXN-11781
ASD39_23550	Unknown	UROGENIIISYN-RXN
ASD39_12060	Unknown	1.6.99.5-RXN;NADH-DEHYDROGENASE-QUINONE-RXN
ASD39_14535	Unknown	GLYOXIII-RXN
ASD39_24150	Unknown	SERINE-O-ACETTRAN-RXN
ASD39_13545	Unknown	DIHYDRODIPICSYN-RXN
ASD39_12140	Unknown	HISTAMINOTRANS-RXN
ASD39_19215	Unknown	ACETYL-COA-ACETYLTRANSFER-RXN;METHYLACETOACETYLCOATHIOL-RXN;RXN-12561
ASD39_14065	Unknown	GLYCERATE-DEHYDROGENASE-RXN;HYDROXYPYRUVATE-REDUCTASE-RXN
ASD39_10165	Unknown	POLYPHOSPHATE-KINASE-RXN
ASD39_17420	lldD	L-LACTATE-DEHYDROGENASE-CYTOCHROME-RXN
ASD39_07200	Unknown	1.2.7.8-RXN
ASD39_10975	ispH	ISPH2-RXN;RXN0-884
ASD39_06765	Unknown	GLYCERATE-DEHYDROGENASE-RXN;HYDROXYPYRUVATE-REDUCTASE-RXN
ASD39_00560	Unknown	PEPDEPHOS-RXN;RXN-14117;RXN-14192;RXN-14207
ASD39_07195	Unknown	1.2.7.8-RXN
ASD39_10250	Unknown	LIPIDXSYNTHESIS-RXN
ASD39_07695	Unknown	DIAMINOPIMDECARB-RXN
ASD39_06475	Unknown	3-ISOPROPYLMALISOM-RXN;R-2-METHYLMALATE-DEHYDRATASE-RXN;RXN-13163;RXN-7744;RXN-8991
ASD39_11545	Unknown	METHENYLTHFCYCLOHYDRO-RXN;METHYLENETHFDEHYDROG-NADP-RXN
ASD39_13745	Unknown	GSHTRAN-RXN;GST-RXN;RXN-11663;RXN-13673;RXN-15680;RXN-18405;RXN-18407;RXNQT-4363
ASD39_24805	Unknown	RXN0-5131
ASD39_03750	Unknown	KDO-8PSYNTH-RXN
ASD39_18200	Unknown	R601-RXN;RXN-14963
ASD39_01005	Unknown	LEUCYLTRANSFERASE-RXN;RXN-17846;RXN-17847;RXN-17848
ASD39_04240	Unknown	PROTEIN-TYROSINE-PHOSPHATASE-RXN
ASD39_01375	Unknown	CARBOXYMETHYLENEBUTENOLIDASE-RXN;DIENELACHYDRO-RXN;RXN-9857;RXN-9868;RXN-9887;RXN-9890
ASD39_02125	Unknown	RXN-11135
ASD39_11470	Unknown	ALARACECAT-RXN
ASD39_15535	Unknown	EXOPOLYPHOSPHATASE-RXN
ASD39_07285	fadE	ACYLCOADEHYDROG-RXN;RXN-17775;RXN-17779;RXN-17783;RXN-17784;RXN-17788;RXN-17792;RXN-17796
ASD39_02175	Unknown	RXN-12508;RXN-12583;RXN0-1134
ASD39_24290	Unknown	3.4.13.9-RXN
ASD39_23425	Unknown	GLUCISOM-RXN;XYLISOM-RXN
ASD39_16065	Unknown	PMPOXI-RXN;PNPOXI-RXN
ASD39_18405	Unknown	4.99.1.7-RXN
ASD39_23450	Unknown	GLYOXIII-RXN
ASD39_11020	Unknown	RXN0-6515
ASD39_23350	Unknown	SPERMIDINESYN-RXN
ASD39_00210	Unknown	ALDOSE1EPIM-RXN
ASD39_02340	Unknown	DETHIOBIOTIN-SYN-RXN
ASD39_22270	Unknown	3.1.11.2-RXN
ASD39_05150	Unknown	4.1.3.17-RXN;OXALODECARB-RXN;RXN-12074;RXN-2464
ASD39_11625	Unknown	GLUTATHIONE-REDUCT-NADPH-RXN
ASD39_00620	Unknown	AIRCARBOXY-RXN
ASD39_14150	Unknown	ARYLSULFATE-SULFOTRANSFERASE-RXN
ASD39_25435	Unknown	2-HALOACID-DEHALOGENASE-RXN
ASD39_12785	Unknown	TRNA-GUANINE-N7--METHYLTRANSFERASE-RXN
ASD39_20835	Unknown	ACETYL-COA-ACETYLTRANSFER-RXN;METHYLACETOACETYLCOATHIOL-RXN;RXN-12561
ASD39_07640	Unknown	DTDPGLUCDEHYDRAT-RXN
ASD39_09570	Unknown	3.1.26.3-RXN
ASD39_12680	Unknown	5.3.4.1-RXN
ASD39_19995	Unknown	ALKAPHOSPHA-RXN;RXN-5822;RXN-8748
ASD39_01985	Unknown	ACYLCOASYN-RXN;LINOLENOYL-RXN;R223-RXN;RXN-12184;RXN-12978;RXN-13290;RXN-13614;RXN-16380;RXN-16389;RXN-16393;RXN-16401;RXN-16402;RXN-16415;RXN-16418;RXN-7904;RXN-9623;RXN-9644;RXN-9673;RXN0-7238;RXN0-7239;RXN0-7248;RXN66-469;RXN66-477;RXN66-480;RXN66-483;RXN66-484;TRANS-RXN0-623
ASD39_15960	Unknown	6.3.1.10-RXN;RXN-6261
ASD39_11920	Unknown	2.1.1.79-RXN;RXN-7421;RXN1G-2544;RXN1G-3641
ASD39_15065	Unknown	ACYLCOASYN-RXN;LINOLENOYL-RXN;R223-RXN;RXN-12184;RXN-12978;RXN-13290;RXN-13614;RXN-16380;RXN-16389;RXN-16393;RXN-16401;RXN-16402;RXN-16415;RXN-16418;RXN-7904;RXN-9623;RXN-9644;RXN-9673;RXN0-7238;RXN0-7239;RXN0-7248;RXN66-469;RXN66-477;RXN66-480;RXN66-483;RXN66-484;TRANS-RXN0-623
ASD39_23875	Unknown	GLYCERATE-DEHYDROGENASE-RXN;HYDROXYPYRUVATE-REDUCTASE-RXN
ASD39_23065	Unknown	RXN0-5131
ASD39_21310	Unknown	RXN-8668
ASD39_22250	ileS	ISOLEUCINE--TRNA-LIGASE-RXN
ASD39_18310	Unknown	ACETYL-COA-ACETYLTRANSFER-RXN;METHYLACETOACETYLCOATHIOL-RXN;RXN-12561
ASD39_13925	Unknown	SUPEROX-DISMUT-RXN
ASD39_10120	Unknown	KANAMYCIN-KINASE-RXN
ASD39_23990	Unknown	AMIDASE-RXN;GUANIDINOBUTANAMIDE-NH3-RXN;PYRAZIN-RXN;R311-RXN;RXN-14727;RXN-14728;RXN-17608;RXNN-404
ASD39_19575	Unknown	ACYLCOADEHYDROG-RXN;RXN-17775;RXN-17779;RXN-17783;RXN-17784;RXN-17788;RXN-17792;RXN-17796
ASD39_13195	Unknown	QOR-RXN
ASD39_02630	Unknown	R601-RXN;RXN-14963
ASD39_05185	Unknown	4-HYDROXYBENZOATE-3-MONOOXYGENASE-RXN
ASD39_16875	Unknown	HOMOCYSMET-RXN
ASD39_11770	Unknown	SUPEROX-DISMUT-RXN
ASD39_01425	Unknown	METHIONINE-GAMMA-LYASE-RXN;RXN-14301
ASD39_25265	Unknown	SUPEROX-DISMUT-RXN
ASD39_13145	Unknown	RXN0-5131
ASD39_14420	Unknown	5.3.3.10-RXN
ASD39_07215	Unknown	ISOCHORMAT-RXN
ASD39_24515	Unknown	METHYLCROTONYL-COA-CARBOXYLASE-RXN
ASD39_02995	tuf	RXN0-5462
ASD39_21390	lysK	LYSINE--TRNA-LIGASE-RXN
ASD39_06875	Unknown	RXN1A0-6303
ASD39_11515	Unknown	GLYOXIII-RXN
ASD39_23040	Unknown	DGTPTRIPHYDRO-RXN
ASD39_22830	Unknown	GLUTKIN-RXN
ASD39_10555	Unknown	RIB5PISOM-RXN
ASD39_04530	Unknown	RXN-14480;RXN-14481;RXN0-5063
ASD39_07260	Unknown	ACYLCOADEHYDROG-RXN;RXN-17775;RXN-17779;RXN-17783;RXN-17784;RXN-17788;RXN-17792;RXN-17796
ASD39_11115	Unknown	AMIDASE-RXN;GUANIDINOBUTANAMIDE-NH3-RXN;PYRAZIN-RXN;R311-RXN;RXN-14727;RXN-14728;RXN-17608;RXNN-404
ASD39_18780	Unknown	3-HYDROXYBUTYRYL-COA-DEHYDROGENASE-RXN
ASD39_14205	Unknown	RXN0-5131
ASD39_15000	lldD	L-LACTATE-DEHYDROGENASE-CYTOCHROME-RXN
ASD39_25405	Unknown	ACETYLHOMOSER-CYS-RXN;O-ACETYLHOMOSERINE-THIOL-LYASE-RXN
ASD39_08520	Unknown	MANNONDEHYDRAT-RXN
ASD39_21460	Unknown	SERINE-O-ACETTRAN-RXN
ASD39_14140	hemH	PROTOHEMEFERROCHELAT-RXN
ASD39_00775	nadE	NAD-SYNTH-GLN-RXN;NAD-SYNTH-NH3-RXN
ASD39_24230	Unknown	PYRNUTRANSHYDROGEN-RXN;TRANS-RXN0-277
ASD39_23760	Unknown	ACETYLORNDEACET-RXN;RXN-7933
ASD39_10895	Unknown	2-HALOACID-DEHALOGENASE-RXN;3.8.1.11-RXN;RXN-6263;RXN-6264
ASD39_11720	Unknown	GCVT-RXN
ASD39_11220	Unknown	GLYOXIII-RXN
ASD39_05205	Unknown	METHELENE-THMPT-OXI-RXN
ASD39_01820	Unknown	3.4.13.21-RXN
ASD39_20650	Unknown	DIHYDRODIPICSYN-RXN
ASD39_19080	Unknown	ACYLCOADEHYDROG-RXN;RXN-17775;RXN-17779;RXN-17783;RXN-17784;RXN-17788;RXN-17792;RXN-17796
ASD39_06350	Unknown	GLUCONOLACT-RXN;RXN-8783
ASD39_08975	Unknown	RXN-8078
ASD39_11745	Unknown	DIAMINOPIMEPIM-RXN
ASD39_05045	Unknown	ACYLCOADEHYDROG-RXN;RXN-17775;RXN-17779;RXN-17783;RXN-17784;RXN-17788;RXN-17792;RXN-17796
ASD39_00720	Unknown	RXN-12610;RXN-12611;THI-P-SYN-RXN
ASD39_11730	Unknown	DIHYDROOROTATE-DEHYDROGENASE-RXN;RXN0-6491;RXN0-6554
ASD39_16865	Unknown	3.4.11.18-RXN;RXN-17873;RXN-17874;RXN-17875;RXN-17876;RXN-17877;RXN-17878
ASD39_04420	Unknown	4OHBENZOATE-OCTAPRENYLTRANSFER-RXN
ASD39_22745	Unknown	HEMEOSYN-RXN
ASD39_03230	Unknown	RXN0-6575
ASD39_22400	Unknown	2.7.13.3-RXN
ASD39_06740	Unknown	RXN-9387;RXN-9781
ASD39_00440	Unknown	GAMMA-GLUTAMYLTRANSFERASE-RXN;RXN-18092;RXN-18093;RXN-6601
ASD39_24770	Unknown	RXN0-5131
ASD39_19955	Unknown	DEOXYRIBODIPYRIMIDINE-PHOTOLYASE-RXN;RXN-19025;RXN-19026;RXN-19242;RXN-19243;RXN-19244;RXN-19245;RXN-19246;RXN-19247;RXN-19248
ASD39_12410	Unknown	RXN0-2584
ASD39_19760	Unknown	ACETYL-COA-CARBOXYLTRANSFER-RXN;RXN0-5055
ASD39_08925	Unknown	FGAMSYN-RXN
ASD39_21155	Unknown	2.7.13.3-RXN
ASD39_11410	Unknown	2.3.2.13-RXN;RXN-19236
ASD39_17405	Unknown	GSHTRAN-RXN;GST-RXN;RXN-11663;RXN-13673;RXN-15680;RXN-18405;RXN-18407;RXNQT-4363
ASD39_13830	Unknown	ADOMET-DMK-METHYLTRANSFER-RXN
ASD39_11995	Unknown	3.1.1.75-RXN
ASD39_19815	Unknown	PSERPHOSPHA-RXN;RXN0-5114
ASD39_06685	Unknown	RXN-10891
ASD39_06330	glpK	GLYCEROL-KIN-RXN
ASD39_17345	Unknown	DIHYDROXYISOVALDEHYDRAT-RXN;DIHYDROXYMETVALDEHYDRAT-RXN
ASD39_21970	Unknown	5-OXOPROLINASE-ATP-HYDROLYSING-RXN
ASD39_00030	Unknown	DNA-DIRECTED-DNA-POLYMERASE-RXN
ASD39_11075	Unknown	GUANYL-KIN-RXN
ASD39_20525	Unknown	PHOSPHOGLUCMUT-RXN;RXN-16997;RXN-16998
ASD39_11165	Unknown	GLYOXIII-RXN
ASD39_08765	Unknown	ISOCITDEH-RXN;RXN-8642;RXN-9951
ASD39_12015	Unknown	1.6.99.5-RXN;NADH-DEHYDROGENASE-QUINONE-RXN
ASD39_09150	Unknown	CARBOXYLESTERASE-RXN
ASD39_22965	Unknown	GSADENYLATION-RXN
ASD39_02875	Unknown	GLUTAMATE-DEHYDROGENASE-NADP+-RXN;GLUTAMATE-DEHYDROGENASE-RXN;GLUTDEHYD-RXN
ASD39_16080	Unknown	IMP-DEHYDROG-RXN
ASD39_00080	Unknown	NQOR-RXN
ASD39_04020	Unknown	FARNESYLTRANSTRANSFERASE-RXN
ASD39_10905	Unknown	ACETYLGLUTKIN-RXN;RXN-15005
ASD39_09380	Unknown	RXN0-1281
ASD39_23750	Unknown	4.3.1.17-RXN;RXN-15125
ASD39_06860	Unknown	GLYOXIII-RXN
ASD39_08290	Unknown	RXN0-5131
ASD39_04065	Unknown	2.7.13.3-RXN
ASD39_08340	Unknown	R4-RXN
ASD39_09400	Unknown	RXN-14950;RXN-14957;RXN-14959;RXN0-949
ASD39_09020	Unknown	IMP-DEHYDROG-RXN
ASD39_23075	Unknown	UDPNACETYLMURAMATEDEHYDROG-RXN
ASD39_10735	Unknown	1TRANSKETO-RXN;2TRANSKETO-RXN
ASD39_05115	Unknown	R125-RXN
ASD39_17180	Unknown	2-OXOPENT-4-ENOATE-HYDRATASE-RXN;RXN-10381
ASD39_18500	Unknown	RXNI-2
ASD39_11490	Unknown	GLUC1PURIDYLTRANS-RXN
ASD39_01400	Unknown	PROTEIN-TYROSINE-PHOSPHATASE-RXN
ASD39_10925	Unknown	RXN-11135
ASD39_14465	Unknown	1.2.1.25-RXN;1.2.4.4-RXN;2.3.1.168-RXN;2KETO-3METHYLVALERATE-RXN;2KETO-4METHYL-PENTANOATE-DEHYDROG-RXN;ISOVALERYLCOA-DHLIPOAMIDE-RXN;KETOISOCAPROATE-RXN;MBCOA-DHLIPOAMIDE-RXN;METHYLVALERATE-RXN;RXN-7719
ASD39_22305	Unknown	DICARBOXYLATE--COA-LIGASE-RXN
ASD39_23205	Unknown	FGAMSYN-RXN
ASD39_15950	Unknown	COBALAMIN5PSYN-RXN;COBALAMINSYN-RXN;RXN-19296;RXN-19297;RXN-19302;RXN-19303;RXN-19304;RXN-19305;RXN-19307;RXN-19308
ASD39_10180	Unknown	AIRS-RXN
ASD39_09030	Unknown	PEPCARBOXYKIN-RXN
ASD39_08720	Unknown	DXPREDISOM-RXN
ASD39_12320	Unknown	2.8.1.6-RXN;RXN-17472;RXN-17473
ASD39_21850	Unknown	2-NITROPROPANE-DIOXYGENASE-RXN
ASD39_12515	Unknown	IGPSYN-RXN
ASD39_10350	ubiE	RXN-9235
ASD39_10785	Unknown	1.2.7.8-RXN
ASD39_20925	Unknown	RXN0-299
ASD39_16520	Unknown	3.1.1.69-RXN
ASD39_15970	Unknown	2.7.1.156-RXN;COBINAMIDEKIN-RXN;RXN-14063
ASD39_04965	Unknown	PEPTIDYLPROLYL-ISOMERASE-RXN
ASD39_16985	Unknown	CARBOXYMETHYLENEBUTENOLIDASE-RXN;DIENELACHYDRO-RXN;RXN-9857;RXN-9868;RXN-9887;RXN-9890
ASD39_02590	Unknown	RXN-14971;RXN-15378;SUCCINATE-DEHYDROGENASE-UBIQUINONE-RXN
ASD39_15360	Unknown	RXN0-2661
ASD39_00740	gapA	GAPOXNPHOSPHN-RXN
ASD39_02655	Unknown	ADPREDUCT-RXN;CDPREDUCT-RXN;GDPREDUCT-RXN;RIBONUCLEOSIDE-DIP-REDUCTI-RXN;RIBONUCLEOSIDE-DIP-REDUCTII-RXN;RXN0-722;RXN0-747;RXN0-748;UDPREDUCT-RXN
ASD39_05055	Unknown	RXN-9387;RXN-9781
ASD39_20585	Unknown	RXN0-1001
ASD39_10220	Unknown	PEPTIDYLPROLYL-ISOMERASE-RXN
ASD39_00045	Unknown	RXN-11578
ASD39_24400	Unknown	RXN0-4261
ASD39_00265	Unknown	RXN0-5100
ASD39_12465	Unknown	PABASYN-RXN
ASD39_06345	Unknown	3.1.1.64-RXN;CARBOXYLESTERASE-RXN;RETINYL-PALMITATE-ESTERASE-RXN;RXN-10711;RXN-10767;RXN-12252;RXN-12575;RXNQT-4366
ASD39_08725	Unknown	CDPDIGLYSYN-RXN;RXN0-5515
ASD39_18425	Unknown	CHLORIDE-PEROXIDASE-RXN
ASD39_24105	Unknown	1.14.11.2-RXN
ASD39_17845	glmU	2.3.1.157-RXN;NAG1P-URIDYLTRANS-RXN
ASD39_01380	Unknown	GSHTRAN-RXN;GST-RXN;RXN-11663;RXN-13673;RXN-15680;RXN-18405;RXN-18407;RXNQT-4363
ASD39_19855	Unknown	6.3.5.7-RXN
ASD39_19840	pyrB	ASPCARBTRANS-RXN
ASD39_08180	Unknown	RXN1A0-6303
ASD39_23860	Unknown	ACYLCOASYN-RXN;LINOLENOYL-RXN;R223-RXN;RXN-12184;RXN-12702;RXN-12746;RXN-12978;RXN-13290;RXN-13614;RXN-16380;RXN-16389;RXN-16393;RXN-16401;RXN-16402;RXN-16415;RXN-16418;RXN-7904;RXN-9623;RXN-9644;RXN-9673;RXN0-7238;RXN0-7239;RXN0-7248;RXN66-469;RXN66-477;RXN66-480;RXN66-483;RXN66-484;TRANS-RXN0-623
ASD39_11275	Unknown	PANTOATE-BETA-ALANINE-LIG-RXN
ASD39_10805	Unknown	S-FORMYLGLUTATHIONE-HYDROLASE-RXN
ASD39_00725	Unknown	F16ALDOLASE-RXN;RXN-10053;RXN-8631
ASD39_25375	Unknown	O-SUCCHOMOSERLYASE-RXN;RXN-18602;RXN-9384
ASD39_06925	Unknown	ACONITATEDEHYDR-RXN;ACONITATEHYDR-RXN;RXN-14047
ASD39_24405	Unknown	3.1.22.4-RXN
ASD39_01510	Unknown	LYSDECARBOX-RXN
ASD39_08700	Unknown	3-HYDROXYDECANOYL-ACP-DEHYDR-RXN
ASD39_24505	Unknown	RXN-14264;RXN0-2301
ASD39_05450	Unknown	ORNITHINE--OXO-ACID-AMINOTRANSFERASE-RXN;ORNITHINE-GLU-AMINOTRANSFERASE-RXN
ASD39_19070	Unknown	ENOYL-COA-HYDRAT-RXN;METHYLACYLYLCOA-HYDROXY-RXN;RXN-10697;RXN-10704;RXN-10705;RXN-11244;RXN-12567;RXN-13616;RXN-14266;RXN-14272;RXN-14273;RXN-16135;RXN-16558;RXN-17114;RXN-17475;RXN-17776;RXN-17780;RXN-17785;RXN-17789;RXN-17793;RXN-17797;RXN-2425;RXN0-5393;TIGLYLCOA-HYDROXY-RXN
ASD39_21040	Unknown	METHENYLTHFCYCLOHYDRO-RXN;METHYLENETHFDEHYDROG-NADP-RXN
ASD39_09970	Unknown	OHMETPYRKIN-RXN;PYRIMSYN3-RXN
ASD39_06690	Unknown	4.1.2.20-RXN;KDGALDOL-RXN
ASD39_11680	Unknown	ACONITATEDEHYDR-RXN;ACONITATEHYDR-RXN;RXN-14047
ASD39_23250	Unknown	1.3.99.16-RXN
ASD39_10935	Unknown	MYO-INOSITOL-1OR-4-MONOPHOSPHATASE-RXN;RXN-7253;RXN0-5408
ASD39_14300	Unknown	3-ISOPROPYLMALISOM-RXN;RXN-13163;RXN-8991
ASD39_14390	Unknown	1.2.1.32-RXN;BADH-RXN;RXN-8831;RXN-8837
ASD39_16635	Unknown	3.3.2.8-RXN;RXN-9412;RXN-9413;RXN-9464
ASD39_21870	Unknown	ACETYL-COA-ACETYLTRANSFER-RXN;METHYLACETOACETYLCOATHIOL-RXN;RXN-12561
ASD39_21965	Unknown	5-OXOPROLINASE-ATP-HYDROLYSING-RXN
ASD39_04500	Unknown	RXN-8974
ASD39_08075	Unknown	PEPTIDYLPROLYL-ISOMERASE-RXN
ASD39_03450	Unknown	ATPSYN-RXN
ASD39_17135	Unknown	3.4.11.1-RXN
ASD39_09800	Unknown	GSHTRAN-RXN;GST-RXN;RXN-11663;RXN-13673;RXN-15680;RXN-18405;RXN-18407;RXNQT-4363
ASD39_08815	purH	AICARTRANSFORM-RXN;IMPCYCLOHYDROLASE-RXN
ASD39_20080	Unknown	3.5.5.1-RXN;RXN-1404;RXN-17607;RXN-18229
ASD39_10230	Unknown	FPPSYN-RXN;GPPSYN-RXN
ASD39_02335	Unknown	7KAPSYN-RXN;RXN-11484
ASD39_17605	Unknown	2-NITROPROPANE-DIOXYGENASE-RXN
ASD39_06360	Unknown	5-OXOPROLINASE-ATP-HYDROLYSING-RXN
ASD39_02650	Unknown	3-OXOACYL-ACP-REDUCT-RXN;RXN-10060;RXN-10655;RXN-10659;RXN-11476;RXN-11480;RXN-13008;RXN-16616;RXN-16622;RXN-16626;RXN-16630;RXN-9514;RXN-9518;RXN-9524;RXN-9528;RXN-9532;RXN-9536;RXN-9540;RXN-9552;RXN-9556;RXN-9633;RXN0-2142;RXN1G-157;RXN1G-349;RXN1G-469;RXN1G-508
ASD39_23130	Unknown	RXN-11638
ASD39_11575	Unknown	2.4.1.78-RXN
ASD39_17415	Unknown	3.4.11.18-RXN;RXN-17873;RXN-17874;RXN-17875;RXN-17876;RXN-17877;RXN-17878
ASD39_04765	Unknown	DIOHBUTANONEPSYN-RXN
ASD39_04565	Unknown	ARGINYLTRANSFERASE-RXN;RXN-17888;RXN-17889;RXN-17890;RXN-17891
ASD39_11440	Unknown	ACETYL-COA-ACETYLTRANSFER-RXN;METHYLACETOACETYLCOATHIOL-RXN;RXN-12561
ASD39_21890	Unknown	ACYLCOADEHYDROG-RXN;RXN-17775;RXN-17779;RXN-17783;RXN-17784;RXN-17788;RXN-17792;RXN-17796
ASD39_11395	Unknown	3-HYDROXYBUTYRYL-COA-DEHYDROGENASE-RXN
ASD39_08960	Unknown	RXN0-5268
ASD39_17515	Unknown	ATPASE-RXN
ASD39_13525	Unknown	GLYOXIII-RXN
ASD39_10145	Unknown	3.1.13.5-RXN;RXN0-6483;RXN0-6484
ASD39_17600	Unknown	ASPARTATEKIN-RXN
ASD39_13055	Unknown	GLUCISOM-RXN;XYLISOM-RXN
ASD39_15145	Unknown	DIHYDROXYISOVALDEHYDRAT-RXN;DIHYDROXYMETVALDEHYDRAT-RXN
ASD39_05505	Unknown	RXN-982
ASD39_12470	Unknown	PRTRANS-RXN
ASD39_21630	Unknown	GSHTRAN-RXN;GST-RXN;RXN-11663;RXN-13673;RXN-15680;RXN-18405;RXN-18407;RXNQT-4363
ASD39_01395	Unknown	RXN0-5062
ASD39_25180	Unknown	RXN0-5131
ASD39_03235	Unknown	RXN-12093
ASD39_23115	Unknown	UDP-NACMURALGLDAPLIG-RXN
ASD39_01050	Unknown	NICONUCADENYLYLTRAN-RXN
ASD39_15125	Unknown	GSHTRAN-RXN;GST-RXN;RXN-11663;RXN-13673;RXN-15680;RXN-18405;RXN-18407;RXNQT-4363
ASD39_22095	Unknown	CYTOCHROME-C-OXIDASE-RXN;RXN-15830
ASD39_20030	Unknown	RXN0-6481;RXN0-6482;TRNA-NUCLEOTIDYLTRANSFERASE-RXN
ASD39_19610	Unknown	HYDROXY-MANDELATE-RACEMASE-RXN;MANDELATE-RACEMASE-RXN
ASD39_11450	Unknown	METHYLMALONYL-COA-MUT-RXN
ASD39_18495	Unknown	3-OXOADIPATE-ENOL-LACTONASE-RXN;RXN-10083
ASD39_08740	pyrH	RXN-12002
ASD39_23150	Unknown	3.2.2.15-RXN
ASD39_16160	Unknown	ACETYL-COA-ACETYLTRANSFER-RXN;METHYLACETOACETYLCOATHIOL-RXN;RXN-12561
ASD39_24350	Unknown	RXN0-882
ASD39_02475	Unknown	R341-RXN;RXN-14256;RXN-14257;RXN-8769
ASD39_11145	Unknown	THREONINE--TRNA-LIGASE-RXN
ASD39_08760	Unknown	PHOSPHASERDECARB-RXN
ASD39_11385	Unknown	1.8.4.12-RXN
ASD39_16655	Unknown	1.2.1.32-RXN;BADH-RXN;RXN-8831;RXN-8837
ASD39_11655	Unknown	RXN0-5055
ASD39_22200	Unknown	RXN0-4022
ASD39_14175	Unknown	GLUTAMATE-DEHYDROGENASE-NADP+-RXN;GLUTAMATE-DEHYDROGENASE-RXN;GLUTDEHYD-RXN
ASD39_21885	Unknown	ACYLCOADEHYDROG-RXN;RXN-17775;RXN-17779;RXN-17783;RXN-17784;RXN-17788;RXN-17792;RXN-17796
ASD39_22180	Unknown	GSHTRAN-RXN;GST-RXN;RXN-11663;RXN-13673;RXN-15680;RXN-18405;RXN-18407;RXNQT-4363
ASD39_17895	Unknown	5.99.1.3-RXN
ASD39_10345	Unknown	3.2.2.23-RXN;RXN-18435
ASD39_03270	Unknown	RXN-2961
ASD39_11505	Unknown	ARGSUCCINLYA-RXN;RXN-22
ASD39_21840	Unknown	RXN-904
ASD39_11445	Unknown	METHYLMALONYL-COA-EPIM-RXN;RXN-16391
ASD39_09915	Unknown	2.3.1.179-RXN;2.3.1.41-RXN;3-OXOACYL-ACP-SYNTH-BASE-RXN;3-OXOACYL-ACP-SYNTH-RXN;RXN-10654;RXN-10658;RXN-11474;RXN-11479;RXN-16615;RXN-16621;RXN-16625;RXN-16629;RXN-8391;RXN-9516;RXN-9523;RXN-9527;RXN-9531;RXN-9535;RXN-9539;RXN0-2141;RXN1G-460;RXN3O-1803
ASD39_22955	Unknown	R4-RXN
ASD39_03145	Unknown	2.7.13.3-RXN
ASD39_14130	Unknown	RXN-18399;RXN-18428;RXN-18430
ASD39_17595	Unknown	2-OCTAPRENYL-6-OHPHENOL-METHY-RXN;DHHB-METHYLTRANSFER-RXN
ASD39_22850	Unknown	7KAPSYN-RXN;RXN-11484
ASD39_00140	Unknown	DEPHOSPHOCOAKIN-RXN
ASD39_17130	Unknown	CARBODEHYDRAT-RXN;RXN0-5224
ASD39_12585	Unknown	CITLY-RXN;CITRYLY-RXN;CITTRANS-RXN
ASD39_21610	Unknown	3.1.26.5-RXN
ASD39_07255	Unknown	ENOYL-COA-HYDRAT-RXN;METHYLACYLYLCOA-HYDROXY-RXN;RXN-10697;RXN-10704;RXN-10705;RXN-11244;RXN-12567;RXN-13616;RXN-14266;RXN-14272;RXN-14273;RXN-16135;RXN-16558;RXN-17114;RXN-17475;RXN-17776;RXN-17780;RXN-17785;RXN-17789;RXN-17793;RXN-17797;RXN-2425;RXN0-5393;TIGLYLCOA-HYDROXY-RXN
ASD39_22700	Unknown	1.3.99.16-RXN
ASD39_24235	Unknown	NAD-SYNTH-GLN-RXN;NAD-SYNTH-NH3-RXN
ASD39_06470	Unknown	3-ISOPROPYLMALDEHYDROG-RXN;RXN-13158;RXN-14986;RXN-18200;RXN-18202;RXN-18204;RXN-18206;RXN-18208;RXN-18210;RXNQT-4165;RXNQT-4168;RXNQT-4171;RXNQT-4174;RXNQT-4178
ASD39_04685	Unknown	RXN0-2601
ASD39_22650	Unknown	2.7.13.3-RXN
ASD39_18760	Unknown	ACYLCOADEHYDROG-RXN;RXN-17775;RXN-17779;RXN-17783;RXN-17784;RXN-17788;RXN-17792;RXN-17796
ASD39_05680	Unknown	PMPOXI-RXN;PNPOXI-RXN
ASD39_16855	glnA	GLUTAMINESYN-RXN
ASD39_22410	Unknown	DURIDKI-RXN;THYKI-RXN
ASD39_00730	pgk	PHOSGLYPHOS-RXN
ASD39_24780	Unknown	RXN-8078
ASD39_10490	Unknown	2.1.1.79-RXN;RXN-7421;RXN1G-2544;RXN1G-3641
ASD39_10440	Unknown	PYRUVATEORTHOPHOSPHATE-DIKINASE-RXN
ASD39_18650	Unknown	RXN-2425
ASD39_07650	Unknown	DTDPGLUCOSEPP-RXN
ASD39_09440	Unknown	GSHTRAN-RXN;GST-RXN;RXN-11663;RXN-13673;RXN-15680;RXN-18405;RXN-18407;RXNQT-4363
ASD39_10770	Unknown	3-OXOACYL-ACP-REDUCT-RXN;RXN-10060;RXN-10655;RXN-10659;RXN-11476;RXN-11480;RXN-13008;RXN-16616;RXN-16622;RXN-16626;RXN-16630;RXN-9514;RXN-9518;RXN-9524;RXN-9528;RXN-9532;RXN-9536;RXN-9540;RXN-9552;RXN-9556;RXN-9633;RXN0-2142;RXN1G-157;RXN1G-349;RXN1G-469;RXN1G-508
ASD39_04185	Unknown	RXN-10891
ASD39_08080	Unknown	FMNREDUCT-RXN;NADPH-DEHYDROGENASE-FLAVIN-RXN;RXN-12444
ASD39_15465	Unknown	3-ISOPROPYLMALISOM-RXN;R-2-METHYLMALATE-DEHYDRATASE-RXN;RXN-13163;RXN-7744;RXN-8991
ASD39_19570	Unknown	1.2.1.27-RXN;RXN-11213;RXN-2902
ASD39_17185	Unknown	4.1.1.77-RXN
ASD39_15835	Unknown	GSHTRAN-RXN;GST-RXN;RXN-11663;RXN-13673;RXN-15680;RXN-18405;RXN-18407;RXNQT-4363
ASD39_02205	Unknown	ATPSYN-RXN
ASD39_11120	Unknown	2-HALOACID-DEHALOGENASE-RXN
ASD39_10615	Unknown	CHORISMATEMUT-RXN
ASD39_12590	Unknown	3-OXOACYL-ACP-REDUCT-RXN;RXN-10060;RXN-10655;RXN-10659;RXN-11476;RXN-11480;RXN-13008;RXN-16616;RXN-16622;RXN-16626;RXN-16630;RXN-9514;RXN-9518;RXN-9524;RXN-9528;RXN-9532;RXN-9536;RXN-9540;RXN-9552;RXN-9556;RXN-9633;RXN0-2142;RXN1G-157;RXN1G-349;RXN1G-469;RXN1G-508
ASD39_04235	Unknown	R342-RXN
ASD39_08995	Unknown	PEPTIDYLPROLYL-ISOMERASE-RXN
ASD39_04375	Unknown	ANTHRANSYN-RXN
ASD39_09135	Unknown	CELLOBIOSE-PHOSPHORYLASE-RXN
ASD39_08620	Unknown	METHIONINE--TRNA-LIGASE-RXN;RXN-16165
ASD39_16730	Unknown	2.7.10.1-RXN
ASD39_04275	proA	GLUTSEMIALDEHYDROG-RXN
ASD39_13510	Unknown	KANAMYCIN-KINASE-RXN
ASD39_00315	Unknown	URITRANS-RXN
ASD39_13040	Unknown	3-OXOACYL-ACP-REDUCT-RXN;RXN-10060;RXN-10655;RXN-10659;RXN-11476;RXN-11480;RXN-13008;RXN-16616;RXN-16622;RXN-16626;RXN-16630;RXN-9514;RXN-9518;RXN-9524;RXN-9528;RXN-9532;RXN-9536;RXN-9540;RXN-9552;RXN-9556;RXN-9633;RXN0-2142;RXN1G-157;RXN1G-349;RXN1G-469;RXN1G-508
ASD39_17335	Unknown	GLYOXIII-RXN
ASD39_05175	Unknown	PROTOCATECHUATE-34-DIOXYGENASE-RXN;RXN-9731
ASD39_07815	Unknown	RXN0-4261
ASD39_04410	Unknown	325-BISPHOSPHATE-NUCLEOTIDASE-RXN
ASD39_10135	Unknown	POLYPHOSPHATE-KINASE-RXN
ASD39_11640	Unknown	PRAISOM-RXN
ASD39_19245	Unknown	ACYLCOADEHYDROG-RXN;RXN-17775;RXN-17779;RXN-17783;RXN-17784;RXN-17788;RXN-17792;RXN-17796
ASD39_21905	Unknown	ACETYL-COA-ACETYLTRANSFER-RXN;METHYLACETOACETYLCOATHIOL-RXN;RXN-12561
ASD39_02180	Unknown	RXN-12508;RXN-12583;RXN0-1134
ASD39_14285	Unknown	5-OXOPROLINASE-ATP-HYDROLYSING-RXN
ASD39_22320	Unknown	ACETYL-COA-ACETYLTRANSFER-RXN;METHYLACETOACETYLCOATHIOL-RXN;RXN-12561
ASD39_17065	Unknown	2.7.13.3-RXN
ASD39_24510	Unknown	METHYLCROTONYL-COA-CARBOXYLASE-RXN
ASD39_20940	Unknown	5-OXOPROLINASE-ATP-HYDROLYSING-RXN
ASD39_09930	Unknown	MALONYL-COA-ACP-TRANSACYL-RXN
ASD39_04855	Unknown	ATPASE-RXN
ASD39_09605	Unknown	4.2.99.18-RXN
ASD39_21495	Unknown	RXN-18694;RXN-8342
ASD39_22960	Unknown	GSADENYLATION-RXN
ASD39_10255	Unknown	GSHTRAN-RXN;GST-RXN;RXN-11663;RXN-13673;RXN-15680;RXN-18405;RXN-18407;RXNQT-4363
ASD39_06650	Unknown	3-OXOACYL-ACP-REDUCT-RXN;RXN-10060;RXN-10655;RXN-10659;RXN-11476;RXN-11480;RXN-13008;RXN-16616;RXN-16622;RXN-16626;RXN-16630;RXN-9514;RXN-9518;RXN-9524;RXN-9528;RXN-9532;RXN-9536;RXN-9540;RXN-9552;RXN-9556;RXN-9633;RXN0-2142;RXN1G-157;RXN1G-349;RXN1G-469;RXN1G-508
ASD39_19180	Unknown	2-NITROPROPANE-DIOXYGENASE-RXN;RXN-16322
ASD39_14675	Unknown	RXN-11109
ASD39_17450	Unknown	PYRROLINECARBREDUCT-RXN;RXN66-546
ASD39_09850	Unknown	1.18.1.2-RXN
ASD39_03470	Unknown	KANAMYCIN-KINASE-RXN
ASD39_04735	Unknown	GLURS-RXN;GLUTAMINE--TRNA-LIGASE-RXN
ASD39_06315	Unknown	R4-RXN
ASD39_07745	Unknown	PEPTIDYLPROLYL-ISOMERASE-RXN
ASD39_24095	Unknown	3.4.11.5-RXN
ASD39_00995	Unknown	NADH-DEHYDROGENASE-RXN
ASD39_15225	Unknown	FUMHYDR-RXN
ASD39_00500	Unknown	BTUR2-RXN;COBALADENOSYLTRANS-RXN;R344-RXN
ASD39_20975	Unknown	RXN-14014
ASD39_13710	Unknown	GSHTRAN-RXN;GST-RXN;RXN-11663;RXN-13673;RXN-15680;RXN-18405;RXN-18407;RXNQT-4363
ASD39_10235	Unknown	3.1.11.6-RXN
ASD39_17225	Unknown	3-OXOACYL-ACP-REDUCT-RXN;RXN-10060;RXN-10655;RXN-10659;RXN-11476;RXN-11480;RXN-13008;RXN-16616;RXN-16622;RXN-16626;RXN-16630;RXN-9514;RXN-9518;RXN-9524;RXN-9528;RXN-9532;RXN-9536;RXN-9540;RXN-9552;RXN-9556;RXN-9633;RXN0-2142;RXN1G-157;RXN1G-349;RXN1G-469;RXN1G-508
ASD39_17080	Unknown	2.1.1.77-RXN
ASD39_08530	Unknown	GALACTUROISOM-RXN;GLUCUROISOM-RXN
ASD39_22725	Unknown	PDXJ-RXN
ASD39_03975	Unknown	GSHTRAN-RXN;GST-RXN;RXN-11663;RXN-13673;RXN-15680;RXN-18405;RXN-18407;RXNQT-4363
ASD39_11330	hisG	ATPPHOSPHORIBOSYLTRANS-RXN
ASD39_00200	Unknown	1.8.4.12-RXN
ASD39_18880	Unknown	RXN1A0-6303
ASD39_12010	Unknown	MYO-INOSITOL-1OR-4-MONOPHOSPHATASE-RXN;RXN-7253;RXN0-5408
ASD39_24355	Unknown	ASPARAGHYD-RXN
ASD39_21540	Unknown	1.1.1.178-RXN
ASD39_00380	Unknown	AMP-NUCLEOSID-RXN
ASD39_15920	Unknown	BTUR2-RXN;COBALADENOSYLTRANS-RXN;R344-RXN
ASD39_21860	Unknown	ACYLCOADEHYDROG-RXN;RXN-17775;RXN-17779;RXN-17783;RXN-17784;RXN-17788;RXN-17792;RXN-17796
ASD39_08265	Unknown	CHLOROMALERED-RXN;MALEYLACETATE-REDUCTASE-RXN;RXN-9885;RXN-9891
ASD39_20610	Unknown	ARGININE-N-SUCCINYLTRANSFERASE-RXN;RXN-7561
ASD39_20535	Unknown	GLUC1PADENYLTRANS-RXN
ASD39_20545	Unknown	GLYCOPHOSPHORYL-RXN;GLYMALTOPHOSPHORYL-RXN;RXN-12171;RXN-12392;RXN-14284;RXN-14285;RXN-14286;RXN-14353;RXN-1826;RXN-9025;RXN0-5182;RXN0-5184
ASD39_22675	Unknown	FUMARYLACETOACETASE-RXN
ASD39_01160	Unknown	INORGPYROPHOSPHAT-RXN
ASD39_10275	Unknown	ALARACECAT-RXN
ASD39_21140	Unknown	ACYLCOASYN-RXN;LINOLENOYL-RXN;R223-RXN;RXN-12184;RXN-12978;RXN-13290;RXN-13614;RXN-16380;RXN-16389;RXN-16393;RXN-16401;RXN-16402;RXN-16415;RXN-16418;RXN-7904;RXN-9623;RXN-9644;RXN-9673;RXN0-7238;RXN0-7239;RXN0-7248;RXN66-469;RXN66-477;RXN66-480;RXN66-483;RXN66-484;TRANS-RXN0-623
ASD39_23245	Unknown	1.11.1.15-RXN;RXN0-5468
ASD39_01915	Unknown	RXNI-2
ASD39_21865	Unknown	ACYLCOADEHYDROG-RXN;RXN-17775;RXN-17779;RXN-17783;RXN-17784;RXN-17788;RXN-17792;RXN-17796
ASD39_23670	Unknown	RXN0-4261
ASD39_24885	Unknown	3.2.1.48-RXN;RXN-9985
ASD39_24710	Unknown	RXN0-5131
ASD39_19730	Unknown	GSHTRAN-RXN;GST-RXN;RXN-11663;RXN-13673;RXN-15680;RXN-18405;RXN-18407;RXNQT-4363
ASD39_19715	Unknown	RXN-2
ASD39_01690	Unknown	METHIONINE-GAMMA-LYASE-RXN;RXN-14301
ASD39_06915	fbiC	RXN-8077
ASD39_20595	astD	SUCCGLUALDDEHYD-RXN
ASD39_19800	Unknown	ACETOLACTSYN-RXN;ACETOOHBUTSYN-RXN
ASD39_06800	Unknown	1.14.12.18-RXN;RXN-17339;RXN-17341
ASD39_17780	Unknown	UGD-RXN
ASD39_17355	Unknown	3-OXOACYL-ACP-REDUCT-RXN
ASD39_12535	emrB	3.6.3.44-RXN;TRANS-RXN-311
ASD39_11865	Unknown	2.7.13.3-RXN
ASD39_08145	Unknown	5-OXOPROLINASE-ATP-HYDROLYSING-RXN
ASD39_17745	Unknown	2.7.10.1-RXN
ASD39_19400	Unknown	TRYPTOPHAN--TRNA-LIGASE-RXN
ASD39_16680	Unknown	4.1.1.77-RXN
ASD39_05050	Unknown	ACYLCOADEHYDROG-RXN;RXN-17775;RXN-17779;RXN-17783;RXN-17784;RXN-17788;RXN-17792;RXN-17796
ASD39_21205	Unknown	GDPPYPHOSKIN-RXN;GTPPYPHOSKIN-RXN
ASD39_19835	Unknown	DIHYDROOROT-RXN
ASD39_14600	Unknown	ATPASE-RXN
