id	Common name	linked reactions
ASE16_07695	Unknown	GLYCOGEN-BRANCH-RXN;RXN-14371;RXN-14372;RXN-18777;RXN-7669;RXN-7710
ASE16_14305	Unknown	CYSTATHIONINE-BETA-LYASE-RXN;RXN-15131
ASE16_16460	Unknown	RXN1A0-6303
ASE16_15720	Unknown	DNA-DIRECTED-DNA-POLYMERASE-RXN
ASE16_03415	Unknown	5.99.1.2-RXN
ASE16_17910	Unknown	3-HYDROXY-KYNURENINASE-RXN;KYNURENINASE-RXN
ASE16_13180	Unknown	MYO-INOSOSE-2-DEHYDRATASE-RXN
ASE16_14955	Unknown	2.7.3.9-RXN;RXN-17354;RXN-17355
ASE16_16305	Unknown	2-HALOACID-DEHALOGENASE-RXN;3.8.1.11-RXN;RXN-6263;RXN-6264
ASE16_13595	Unknown	RXNI-2
ASE16_03245	Unknown	DNA-DIRECTED-DNA-POLYMERASE-RXN
ASE16_04610	Unknown	N-ACETYLGLUTPREDUCT-RXN;RXN-15006
ASE16_14450	Unknown	RXN-14950;RXN-14957;RXN-14959;RXN0-949
ASE16_13170	Unknown	RXN-14150
ASE16_07070	Unknown	3-ISOPROPYLMALDEHYDROG-RXN;RXN-13158;RXN-14986;RXN-18200;RXN-18202;RXN-18204;RXN-18206;RXN-18208;RXN-18210;RXNQT-4165;RXNQT-4168;RXNQT-4171;RXNQT-4174;RXNQT-4178
ASE16_14105	Unknown	PROTEIN-KINASE-RXN
ASE16_07365	Unknown	DALADALALIG-RXN
ASE16_00165	Unknown	RXN1A0-6303
ASE16_09385	Unknown	PGLUCISOM-RXN
ASE16_06475	Unknown	RXN0-4261
ASE16_09685	Unknown	HISTCYCLOHYD-RXN
ASE16_13195	Unknown	RXN0-4961
ASE16_04790	Unknown	3.2.1.25-RXN
ASE16_10490	Unknown	RXN0-2601
ASE16_15930	Unknown	RXN-12508;RXN-12583;RXN0-1134
ASE16_13435	Unknown	RXN-12587;RXN-12588;RXN-14382;RXN-14385;RXN-15881;RXN-9787;RXN0-308
ASE16_16615	Unknown	CYCPHOSDIESTER-RXN;RXN-14064;RXN-14091;RXN-14112;RXN-14113
ASE16_11410	Unknown	F16ALDOLASE-RXN;RXN-8631
ASE16_13875	Unknown	CITSYN-RXN
ASE16_10485	Unknown	FMNREDUCT-RXN;NADPH-DEHYDROGENASE-FLAVIN-RXN;RXN-12444
ASE16_09810	Unknown	SHIKIMATE-KINASE-RXN
ASE16_07320	Unknown	ATPASE-RXN
ASE16_12080	Unknown	DIHYDROFOLATEREDUCT-RXN;RXN-18357
ASE16_01660	Unknown	NANE-RXN
ASE16_07560	Unknown	3.1.26.4-RXN
ASE16_05870	Unknown	RXN0-882
ASE16_07780	Unknown	ACYLCOASYN-RXN;LINOLENOYL-RXN;R223-RXN;RXN-12184;RXN-12978;RXN-13290;RXN-13614;RXN-16380;RXN-16389;RXN-16393;RXN-16401;RXN-16402;RXN-16415;RXN-16418;RXN-7904;RXN-9623;RXN-9644;RXN-9673;RXN0-7238;RXN0-7239;RXN0-7248;RXN66-469;RXN66-477;RXN66-480;RXN66-483;RXN66-484;TRANS-RXN0-623
ASE16_13975	ubiA	FPPSYN-RXN;GPPSYN-RXN
ASE16_07970	Unknown	3.1.2.23-RXN
ASE16_08040	Unknown	RIB5PISOM-RXN
ASE16_00545	Unknown	GALACTUROISOM-RXN;GLUCUROISOM-RXN
ASE16_03715	Unknown	4.1.1.32-RXN;RXN-12481
ASE16_08335	Unknown	MALTODEXGLUCOSID-RXN;RXN-14281;RXN-14282;RXN-14283;RXN-15910;RXN0-5183
ASE16_11265	Unknown	DIMETHYLARGININASE-RXN
ASE16_01505	Unknown	CYTIDEAM-RXN;CYTIDEAM2-RXN
ASE16_14420	Unknown	3-CH3-2-OXOBUTANOATE-OH-CH3-XFER-RXN;RXN-15635
ASE16_00805	Unknown	MYO-INOSITOL-1OR-4-MONOPHOSPHATASE-RXN;RXN-7253;RXN0-5408
ASE16_01840	Unknown	GABATRANSAM-RXN;RXN-2901
ASE16_08820	Unknown	2OXOGLUTARATEDEH-RXN;2OXOGLUTDECARB-RXN;RXN-7716;RXN0-1147
ASE16_14495	Unknown	UDP-NACMURALGLDAPLIG-RXN
ASE16_01185	Unknown	UREIDOGLYCOLATE-LYASE-RXN
ASE16_00370	Unknown	RXN0-2161;SERINE--TRNA-LIGASE-RXN
ASE16_00390	Unknown	FMNREDUCT-RXN;NADPH-DEHYDROGENASE-FLAVIN-RXN;RXN-12444
ASE16_06255	Unknown	3.1.1.64-RXN;CARBOXYLESTERASE-RXN;RETINYL-PALMITATE-ESTERASE-RXN;RXN-10711;RXN-10767;RXN-12252;RXN-12575;RXNQT-4366
ASE16_14660	Unknown	METHYLISOCITRATE-LYASE-RXN
ASE16_06225	aspA	ASPARTASE-RXN
ASE16_04045	Unknown	DTDPDEHYDRHAMEPIM-RXN
ASE16_11200	Unknown	GLYCPDIESTER-RXN;RXN-14073;RXN-14136;RXN-14160
ASE16_00785	Unknown	RIBOKIN-RXN;RXN-14223
ASE16_11825	Unknown	ATPASE-RXN
ASE16_10625	Unknown	ALLOPHANATE-HYDROLASE-RXN
ASE16_11005	Unknown	5.4.2.10-RXN;RXN-16424;RXN0-7139
ASE16_06825	Unknown	HISTIDPHOS-RXN
ASE16_19000	Unknown	PANTOATE-BETA-ALANINE-LIG-RXN
ASE16_08255	Unknown	GLUTKIN-RXN
ASE16_09765	Unknown	DIHYDROOROT-RXN
ASE16_07540	Unknown	3.4.11.18-RXN;RXN-17873;RXN-17874;RXN-17875;RXN-17876;RXN-17877;RXN-17878
ASE16_07950	Unknown	RXN1A0-6303
ASE16_09925	Unknown	GLUTAMIN-RXN;RXN-11322;RXN-12590
ASE16_14195	Unknown	ALARACECAT-RXN
ASE16_01425	Unknown	3.4.21.83-RXN
ASE16_07720	Unknown	RXN-12587;RXN-12588;RXN-14382;RXN-14385;RXN-15881;RXN-9787;RXN0-308
ASE16_05735	Unknown	3.1.3.16-RXN
ASE16_16540	Unknown	DIAMINOPIMDECARB-RXN
ASE16_06490	Unknown	NADPYROPHOSPHAT-RXN;RXN0-4401
ASE16_02780	Unknown	ASPAMINOTRANS-RXN;RXN-10814;RXN-11737;RXN-13697
ASE16_14090	Unknown	GLUCOKIN-RXN;HEXOKINASE-RXN
ASE16_13740	Unknown	RXN0-6274
ASE16_18590	Unknown	ACYLCOADEHYDROG-RXN;RXN-17775;RXN-17779;RXN-17783;RXN-17784;RXN-17788;RXN-17792;RXN-17796
ASE16_15765	Unknown	DALADALALIG-RXN
ASE16_06365	Unknown	SUCCDIAMINOPIMDESUCC-RXN
ASE16_03380	Unknown	ACETATE--COA-LIGASE-RXN;RXN-18446;RXN-18447;RXN-18448
ASE16_12480	Unknown	CYSTATHIONINE-BETA-SYNTHASE-RXN;RXN-19038;RXN66-534;RXN66-562
ASE16_01815	Unknown	AGMATINE-DEIMINASE-RXN
ASE16_15735	Unknown	3.1.26.5-RXN
ASE16_13785	Unknown	ASPAMINOTRANS-RXN;RXN-10814;RXN-11737;RXN-13697
ASE16_07340	Unknown	3-ISOPROPYLMALISOM-RXN;RXN-13163;RXN-8991
ASE16_11865	Unknown	METHELENE-THMPT-OXI-RXN
ASE16_09715	Unknown	METHIONYL-TRNA-FORMYLTRANSFERASE-RXN
ASE16_05460	Unknown	2.1.1.77-RXN
ASE16_18950	Unknown	GUANPRIBOSYLTRAN-RXN;HYPOXANPRIBOSYLTRAN-RXN
ASE16_18350	Unknown	RXN-11109
ASE16_11415	Unknown	RIBOKIN-RXN;RXN-14223
ASE16_14165	murD	UDP-NACMURALA-GLU-LIG-RXN
ASE16_14505	Unknown	ALARACECAT-RXN
ASE16_00400	Unknown	QOR-RXN
ASE16_15695	Unknown	5.99.1.3-RXN
ASE16_05330	Unknown	3-OXOACYL-ACP-REDUCT-RXN;RXN-10060;RXN-10655;RXN-10659;RXN-11476;RXN-11480;RXN-13008;RXN-16616;RXN-16622;RXN-16626;RXN-16630;RXN-9514;RXN-9518;RXN-9524;RXN-9528;RXN-9532;RXN-9536;RXN-9540;RXN-9552;RXN-9556;RXN-9633;RXN0-2142;RXN1G-157;RXN1G-349;RXN1G-469;RXN1G-508
ASE16_16015	Unknown	RXN0-4261
ASE16_08250	obgE	RXN0-5462
ASE16_01440	Unknown	ATPASE-RXN
ASE16_04070	Unknown	RXN-11070
ASE16_04210	manB	5.4.2.10-RXN;RXN-16424;RXN0-7139
ASE16_18595	Unknown	MALATE-DEH-RXN
ASE16_13160	Unknown	DEOXYRIBOSE-P-ALD-RXN
ASE16_13095	aspA	ASPARTASE-RXN
ASE16_13155	Unknown	5-DEHYDRO-2-DEOXYGLUCONOKINASE-RXN
ASE16_07400	Unknown	ATPASE-RXN
ASE16_05885	Unknown	PROLINE--TRNA-LIGASE-RXN
ASE16_11705	Unknown	CYSTEINE--TRNA-LIGASE-RXN
ASE16_14785	Unknown	1.13.11.49-RXN
ASE16_13650	Unknown	1.11.1.15-RXN;RXN0-5468
ASE16_10060	Unknown	3.1.13.5-RXN;RXN0-6483;RXN0-6484
ASE16_14435	Unknown	GLUTAMINESYN-RXN
ASE16_07630	pyrH	RXN-12002
ASE16_06325	Unknown	FMNREDUCT-RXN;NADPH-DEHYDROGENASE-FLAVIN-RXN;RXN-12444
ASE16_09635	Unknown	PEPDEPHOS-RXN;RXN-14117;RXN-14192;RXN-14207
ASE16_07905	Unknown	3.1.13.3-RXN
ASE16_13800	Unknown	PRAISOM-RXN;PRIBFAICARPISOM-RXN
ASE16_14555	Unknown	DUTP-PYROP-RXN
ASE16_04750	Unknown	RXN0-5462
ASE16_00205	Unknown	ATPASE-RXN
ASE16_12810	Unknown	AMINOCYL-TRNA-HYDROLASE-RXN;RXN-16637
ASE16_10425	Unknown	O-SUCCINYLBENZOATE-COA-LIG-RXN;RXN-7614
ASE16_05740	Unknown	PROTEIN-KINASE-RXN
ASE16_00915	Unknown	RXN-16226
ASE16_13565	Unknown	PENICILLIN-AMIDASE-RXN;RXN-17099
ASE16_14455	Unknown	RXN-13037;RXN0-947
ASE16_09285	Unknown	PSERPHOSPHA-RXN;RXN0-5114
ASE16_18055	Unknown	AIRS-RXN
ASE16_13955	Unknown	2.5.1.32-RXN;RXN-13323;RXNARA-8002
ASE16_18710	Unknown	RXN1A0-6303
ASE16_14430	Unknown	GLUTAMINESYN-RXN
ASE16_13920	Unknown	5.99.1.2-RXN
ASE16_16710	Unknown	2-NITROPROPANE-DIOXYGENASE-RXN
ASE16_08230	Unknown	RXN0-6523
ASE16_08610	Unknown	RXN-8999
ASE16_00115	Unknown	ATPASE-RXN
ASE16_13690	Unknown	HISTONE-ACETYLTRANSFERASE-RXN
ASE16_00460	Unknown	XYLULOKIN-RXN
ASE16_13100	Unknown	CARBODEHYDRAT-RXN;RXN0-5224
ASE16_11450	Unknown	3.2.1.52-RXN;RXN-12625;RXN-12626;RXN-18082;RXN0-5226
ASE16_00485	Unknown	RXN1A0-6303
ASE16_00035	Unknown	DMK-RXN
ASE16_09860	Unknown	PEPTIDYLPROLYL-ISOMERASE-RXN
ASE16_12020	Unknown	2.7.13.3-RXN
ASE16_13950	Unknown	FARNESYLTRANSTRANSFERASE-RXN
ASE16_04615	Unknown	GLUTAMATE-N-ACETYLTRANSFERASE-RXN;N-ACETYLTRANSFER-RXN;RXN0-6948
ASE16_02745	Unknown	RXN0-5100
ASE16_05930	Unknown	2-DEHYDROPANTOATE-REDUCT-RXN
ASE16_10960	Unknown	DNA-DIRECTED-RNA-POLYMERASE-RXN
ASE16_14410	Unknown	3.4.11.18-RXN;RXN-17873;RXN-17874;RXN-17875;RXN-17876;RXN-17877;RXN-17878
ASE16_07005	Unknown	DIHYDROXYISOVALDEHYDRAT-RXN;DIHYDROXYMETVALDEHYDRAT-RXN
ASE16_14065	Unknown	PYRUVATE-CARBOXYLASE-RXN
ASE16_09190	Unknown	AMP-NUCLEOSID-RXN
ASE16_02725	Unknown	ADPREDUCT-RXN;CDPREDUCT-RXN;GDPREDUCT-RXN;RIBONUCLEOSIDE-DIP-REDUCTI-RXN;RIBONUCLEOSIDE-DIP-REDUCTII-RXN;RXN0-722;RXN0-747;RXN0-748;UDPREDUCT-RXN
ASE16_07895	Unknown	3.2.1.61-RXN
ASE16_14040	Unknown	PHOSPHAGLYPSYN-RXN
ASE16_17900	Unknown	FGAMSYN-RXN
ASE16_13625	Unknown	RXN-17131;RXN-17132;RXN-17133
ASE16_04375	kgd	RXN-7774
ASE16_18035	Unknown	GLYRIBONUCSYN-RXN
ASE16_18200	Unknown	IMIDAZOLONEPROPIONASE-RXN
ASE16_03825	Unknown	RXN-14971;RXN-15378;SUCCINATE-DEHYDROGENASE-UBIQUINONE-RXN
ASE16_18610	Unknown	CYTDEAM-RXN;RXN-14129;RXN-14197
ASE16_18205	Unknown	UROCANATE-HYDRATASE-RXN
ASE16_09740	Unknown	GUANYL-KIN-RXN
ASE16_09795	Unknown	3-DEHYDROQUINATE-DEHYDRATASE-RXN
ASE16_03835	Unknown	RXN-14971;RXN-15378;SUCCINATE-DEHYDROGENASE-UBIQUINONE-RXN
ASE16_03345	Unknown	FMNREDUCT-RXN;NADPH-DEHYDROGENASE-FLAVIN-RXN;RXN-12444
ASE16_00570	Unknown	GLUCISOM-RXN;XYLISOM-RXN
ASE16_07380	Unknown	RXN0-6515
ASE16_12855	Unknown	RXN-12134;RXN-12140;RXN-12141;RXN-12142
ASE16_05860	Unknown	DXPREDISOM-RXN
ASE16_06945	Unknown	3.2.1.3-RXN;RXN-9024
ASE16_04465	Unknown	HOMOSERINE-O-ACETYLTRANSFERASE-RXN
ASE16_06335	Unknown	2.7.7.8-RXN
ASE16_09380	Unknown	TRANSALDOL-RXN
ASE16_18265	Unknown	RIBOKIN-RXN;RXN-14223
ASE16_05545	Unknown	DIAMINOPIMDECARB-RXN
ASE16_04035	Unknown	DTDPGLUCDEHYDRAT-RXN
ASE16_04365	Unknown	RXN-7774
ASE16_09905	Unknown	RXN0-4261
ASE16_11035	Unknown	ALARACECAT-RXN
ASE16_03355	Unknown	PHENOL-2-MONOOXYGENASE-RXN;RXN-10125;RXN-10127;RXN-10128;RXN-10129
ASE16_13175	Unknown	RXN-14149
ASE16_00030	Unknown	O-SUCCINYLBENZOATE-COA-LIG-RXN;RXN-7614
ASE16_13355	Unknown	1.2.1.27-RXN;RXN-11213;RXN-2902
ASE16_17300	Unknown	CATAL-RXN;RXN-14189;RXN66-1
ASE16_11700	Unknown	RXN0-302
ASE16_06425	Unknown	2-HALOACID-DEHALOGENASE-RXN
ASE16_10420	Unknown	ACETYL-COA-ACETYLTRANSFER-RXN;METHYLACETOACETYLCOATHIOL-RXN;RXN-12561
ASE16_06440	Unknown	3.4.11.1-RXN
ASE16_13665	Unknown	DIHYDRODIPICSYN-RXN
ASE16_17940	Unknown	2-HALOACID-DEHALOGENASE-RXN
ASE16_13790	Unknown	IMIDPHOSDEHYD-RXN
ASE16_18050	Unknown	PRPPAMIDOTRANS-RXN
ASE16_08825	Unknown	1.11.1.15-RXN;RXN0-5468
ASE16_07395	Unknown	PANTEPADENYLYLTRAN-RXN
ASE16_14415	Unknown	3.4.11.18-RXN;RXN-17873;RXN-17874;RXN-17875;RXN-17876;RXN-17877;RXN-17878
ASE16_10040	Unknown	RXN-19040;RXN0-6359;RXN0-6385;THIOSULFATE-SULFURTRANSFERASE-RXN
ASE16_06345	Unknown	RXN-12508;RXN-12583;RXN0-1134
ASE16_15615	Unknown	PROTEIN-KINASE-RXN
ASE16_09815	Unknown	CHORISMATE-SYNTHASE-RXN
ASE16_04745	Unknown	RXN-11832;RXN-12002;RXN-7913
ASE16_01845	Unknown	SUCCINATE-SEMIALDEHYDE-DEHYDROGENASE-RXN
ASE16_15350	Unknown	RXN1A0-6303
ASE16_14180	Unknown	UDP-NACMUR-ALA-LIG-RXN
ASE16_09865	Unknown	ATPASE-RXN
ASE16_11150	Unknown	GDPMANDEHYDRA-RXN
ASE16_17825	Unknown	CHORISMATEMUT-RXN
ASE16_16600	Unknown	O-SUCCINYLBENZOATE-COA-SYN-RXN
ASE16_05855	Unknown	PEPTIDYLPROLYL-ISOMERASE-RXN
ASE16_04505	Unknown	RXN-10837;RXN-9382
ASE16_03295	Unknown	DURIDKI-RXN;THYKI-RXN
ASE16_18340	Unknown	GLYOXIII-RXN
ASE16_09770	Unknown	ASPCARBTRANS-RXN
ASE16_18530	Unknown	GLYOXIII-RXN
ASE16_15355	Unknown	HYDROXY-MANDELATE-RACEMASE-RXN;MANDELATE-RACEMASE-RXN
ASE16_09640	gltD	GLUTAMATESYN-RXN;GLUTAMIN-RXN;GLUTDEHYD-RXN
ASE16_07020	Unknown	ACETOLACTREDUCTOISOM-RXN;ACETOOHBUTREDUCTOISOM-RXN
ASE16_13310	Unknown	CYTIDEAM-RXN;CYTIDEAM2-RXN
ASE16_04635	Unknown	ARGSUCCINSYN-RXN;RXN-10
ASE16_04935	Unknown	RXN0-2601
ASE16_09200	Unknown	GLUTAMATE-DEHYDROGENASE-NADP+-RXN;GLUTAMATE-DEHYDROGENASE-RXN;GLUTDEHYD-RXN
ASE16_17585	Unknown	3.4.11.5-RXN
ASE16_16935	Unknown	3-OXOACYL-ACP-REDUCT-RXN;RXN-10060;RXN-10655;RXN-10659;RXN-11476;RXN-11480;RXN-13008;RXN-16616;RXN-16622;RXN-16626;RXN-16630;RXN-9514;RXN-9518;RXN-9524;RXN-9528;RXN-9532;RXN-9536;RXN-9540;RXN-9552;RXN-9556;RXN-9633;RXN0-2142;RXN1G-157;RXN1G-349;RXN1G-469;RXN1G-508
ASE16_03425	Unknown	DNA-DIRECTED-DNA-POLYMERASE-RXN
ASE16_13960	Unknown	RXN-11355;RXN-12243;RXN-12244
ASE16_06355	Unknown	1.2.4.4-RXN;2.3.1.168-RXN;KETOISOCAPROATE-RXN;METHYLVALERATE-RXN;RXN-7790
ASE16_06570	Unknown	BIOTIN-CARBOXYL-RXN;RXN0-5055
ASE16_04180	Unknown	UDPGLUCEPIM-RXN
ASE16_19040	Unknown	GLUTAMATE-N-ACETYLTRANSFERASE-RXN;N-ACETYLTRANSFER-RXN;RXN0-6948
ASE16_14385	Unknown	2.7.13.3-RXN
ASE16_03215	Unknown	ATPSYN-RXN
ASE16_07755	Unknown	6.3.5.7-RXN
ASE16_11090	Unknown	ASPAMINOTRANS-RXN;RXN-10814;RXN-11737;RXN-13697
ASE16_01670	Unknown	RXN-9235
ASE16_13575	Unknown	METHYLCROTONYL-COA-CARBOXYLASE-RXN
ASE16_09430	Unknown	SUPEROX-DISMUT-RXN
ASE16_00715	Unknown	R4-RXN
ASE16_01675	Unknown	FARNESYLTRANSTRANSFERASE-RXN
ASE16_06055	Unknown	6PFRUCTPHOS-RXN
ASE16_02255	Unknown	3.2.1.25-RXN
ASE16_17710	Unknown	OROPRIBTRANS-RXN
ASE16_08380	Unknown	HOLO-ACP-SYNTH-RXN
ASE16_00020	Unknown	O-SUCCINYLBENZOATE-COA-SYN-RXN
ASE16_17720	Unknown	2-HALOACID-DEHALOGENASE-RXN;3.8.1.11-RXN;RXN-6263;RXN-6264
ASE16_11750	Unknown	ASPAMINOTRANS-RXN;RXN-10814;RXN-11737;RXN-13697
ASE16_17895	Unknown	FGAMSYN-RXN
ASE16_14580	Unknown	DXS-RXN
ASE16_00350	Unknown	PHOSPHOGLUCMUT-RXN;RXN-16997;RXN-16998
ASE16_08865	Unknown	NQOR-RXN
ASE16_12925	Unknown	ISOCHORMAT-RXN
ASE16_04625	Unknown	ACETYLORNTRANSAM-RXN;RXN-15007
ASE16_12075	Unknown	PSERTRANSAM-RXN;PSERTRANSAMPYR-RXN
ASE16_08630	Unknown	DGTPTRIPHYDRO-RXN
ASE16_03265	Unknown	MALATE-DEHYDROGENASE-ACCEPTOR-RXN;RXNI-3
ASE16_04380	Unknown	IMP-DEHYDROG-RXN
ASE16_00765	Unknown	ALPHAGALACTOSID-RXN;RXN-11501;RXN-11502;RXN-12088;RXN-17754;RXN-17830
ASE16_04555	Unknown	ATPASE-RXN
ASE16_09075	Unknown	RXN-11109
ASE16_14120	Unknown	FARNESYLTRANSTRANSFERASE-RXN
ASE16_18945	Unknown	RXN-1961
ASE16_14405	Unknown	2.7.1.63-RXN
ASE16_03770	Unknown	RIBOFLAVINSYNDEAM-RXN;RIBOFLAVINSYNREDUC-RXN
ASE16_00415	Unknown	KANAMYCIN-KINASE-RXN
ASE16_15915	Unknown	AICARSYN-RXN;AMPSYN-RXN
ASE16_05435	Unknown	ENOYL-COA-HYDRAT-RXN;METHYLACYLYLCOA-HYDROXY-RXN;RXN-10697;RXN-10704;RXN-10705;RXN-11244;RXN-12567;RXN-13616;RXN-14266;RXN-14272;RXN-14273;RXN-16135;RXN-16558;RXN-17114;RXN-17475;RXN-17776;RXN-17780;RXN-17785;RXN-17789;RXN-17793;RXN-17797;RXN-2425;RXN0-5393;TIGLYLCOA-HYDROXY-RXN
ASE16_09290	Unknown	3-OXOACYL-ACP-REDUCT-RXN;RXN-10060;RXN-10655;RXN-10659;RXN-11476;RXN-11480;RXN-13008;RXN-16616;RXN-16622;RXN-16626;RXN-16630;RXN-9514;RXN-9518;RXN-9524;RXN-9528;RXN-9532;RXN-9536;RXN-9540;RXN-9552;RXN-9556;RXN-9633;RXN0-2142;RXN1G-157;RXN1G-349;RXN1G-469;RXN1G-508
ASE16_00580	Unknown	GLUCISOM-RXN;XYLISOM-RXN
ASE16_09910	Unknown	3.1.22.4-RXN
ASE16_04705	Unknown	CTPSYN-RXN;GLUTAMIN-RXN;RXN-14325
ASE16_04545	Unknown	AMIDASE-RXN;GUANIDINOBUTANAMIDE-NH3-RXN;PYRAZIN-RXN;R311-RXN;RXN-14727;RXN-14728;RXN-17608;RXNN-404
ASE16_03705	Unknown	1.1.1.178-RXN
ASE16_12530	Unknown	ACYLCOASYN-RXN;LINOLENOYL-RXN;R223-RXN;RXN-12184;RXN-12978;RXN-13290;RXN-13614;RXN-16380;RXN-16389;RXN-16393;RXN-16401;RXN-16402;RXN-16415;RXN-16418;RXN-7904;RXN-9623;RXN-9644;RXN-9673;RXN0-7238;RXN0-7239;RXN0-7248;RXN66-469;RXN66-477;RXN66-480;RXN66-483;RXN66-484;TRANS-RXN0-623
ASE16_04460	Unknown	2.7.13.3-RXN
ASE16_06780	Unknown	3.2.1.3-RXN;RXN-9024
ASE16_19090	Unknown	ATPASE-RXN
ASE16_14225	Unknown	DNA-DIRECTED-DNA-POLYMERASE-RXN
ASE16_09255	Unknown	RXN0-4961
ASE16_02830	Unknown	RXN0-5100
ASE16_05840	Unknown	RXN-9591
ASE16_14570	Unknown	ATPASE-RXN
ASE16_07750	Unknown	6.3.5.7-RXN
ASE16_14245	Unknown	DIHYDROOROTATE-DEHYDROGENASE-RXN;RXN0-6491;RXN0-6554
ASE16_19125	Unknown	DEHYDDEOXPHOSGALACT-ALDOL-RXN
ASE16_03765	Unknown	RIBOFLAVIN-SYN-RXN
ASE16_19095	Unknown	GLYOXIII-RXN
ASE16_02425	Unknown	RXN-13179
ASE16_10935	Unknown	3.4.11.18-RXN;RXN-17873;RXN-17874;RXN-17875;RXN-17876;RXN-17877;RXN-17878
ASE16_07355	Unknown	RXN-9591
ASE16_10140	Unknown	GLYOXIII-RXN
ASE16_03170	Unknown	4-CARBOXYMUCONOLACTONE-DECARBOXYLASE-RXN
ASE16_18210	Unknown	HISTIDINE-AMMONIA-LYASE-RXN
ASE16_14995	Unknown	DEOXYGLUCONOKIN-RXN
ASE16_01130	Unknown	5.4.99.15-RXN
ASE16_04500	Unknown	RXN0-2584
ASE16_16705	Unknown	3-OXOACYL-ACP-REDUCT-RXN;RXN-10060;RXN-10655;RXN-10659;RXN-11476;RXN-11480;RXN-13008;RXN-16616;RXN-16622;RXN-16626;RXN-16630;RXN-9514;RXN-9518;RXN-9524;RXN-9528;RXN-9532;RXN-9536;RXN-9540;RXN-9552;RXN-9556;RXN-9633;RXN0-2142;RXN1G-157;RXN1G-349;RXN1G-469;RXN1G-508
ASE16_13485	Unknown	GCVP-RXN
ASE16_00250	Unknown	RXN-13039;RXN-17127;RXN-8654;RXN-8655;RXN0-1141;RXN0-5098
ASE16_14970	Unknown	MANNPDEHYDROG-RXN
ASE16_14250	Unknown	3.1.26.4-RXN
ASE16_05750	Unknown	ATPASE-RXN
ASE16_15940	Unknown	1.2.4.4-RXN;2.3.1.168-RXN;KETOISOCAPROATE-RXN;METHYLVALERATE-RXN;RXN-7790
ASE16_14825	Unknown	GLYCINE--TRNA-LIGASE-RXN
ASE16_14425	Unknown	GLUTAMINESYN-RXN
ASE16_04370	Unknown	GLYOXIII-RXN
ASE16_09280	Unknown	GLUC1PADENYLTRANS-RXN
ASE16_03895	Unknown	ADDALT-RXN;ADENODEAMIN-RXN
ASE16_05315	Unknown	RXN-1;RXN-10778;RXN-10817;RXN-10907;RXN-10908;RXN-10910;RXN-10913;RXN-11067;RXN-1401;RXN-5821;RXN-9598;RXN6666-4
ASE16_09875	Unknown	GDPPYPHOSKIN-RXN;GTPPYPHOSKIN-RXN
ASE16_05020	Unknown	GLYOXIII-RXN
ASE16_09730	Unknown	P-PANTOCYSDECARB-RXN
ASE16_05725	Unknown	PHENDEHYD-RXN
ASE16_11405	Unknown	ALKAPHOSPHA-RXN;RXN-5822;RXN-8748
ASE16_07390	Unknown	RXN0-4261
ASE16_06275	Unknown	R4-RXN
ASE16_12575	Unknown	BRANCHED-CHAINAMINOTRANSFERILEU-RXN;BRANCHED-CHAINAMINOTRANSFERLEU-RXN;BRANCHED-CHAINAMINOTRANSFERVAL-RXN
ASE16_03815	Unknown	3.1.11.2-RXN
ASE16_12875	eno	2PGADEHYDRAT-RXN
ASE16_06665	Unknown	NICOTINATEPRIBOSYLTRANS-RXN
ASE16_13590	Unknown	RXNI-2
ASE16_05820	Unknown	GABATRANSAM-RXN;RXN-2901
ASE16_07640	Unknown	CDPDIGLYSYN-RXN;RXN0-5515
ASE16_07705	Unknown	GLYCOPHOSPHORYL-RXN;GLYMALTOPHOSPHORYL-RXN;RXN-12171;RXN-12392;RXN-14284;RXN-14285;RXN-14286;RXN-14353;RXN-1826;RXN-9025;RXN0-5182;RXN0-5184
ASE16_14300	Unknown	1.10.2.2-RXN;RXN-15829
ASE16_18400	Unknown	GLYOXIII-RXN
ASE16_01740	Unknown	MYO-INOSITOL-1OR-4-MONOPHOSPHATASE-RXN;RXN-7253;RXN0-5408
ASE16_14815	Unknown	GLUTRNAREDUCT-RXN
ASE16_14470	Unknown	1.8.1.4-RXN;2OXOGLUTARATEDEH-RXN;2OXOGLUTDECARB-RXN;RXN-7716;RXN-7719;RXN-8629;RXN0-1132;RXN0-1147
ASE16_14100	Unknown	DAHPSYN-RXN
ASE16_14175	Unknown	NACGLCTRANS-RXN;RXN-8976
ASE16_09805	Unknown	3-DEHYDROQUINATE-SYNTHASE-RXN
ASE16_11365	Unknown	3.5.1.80-RXN;NAG6PDEACET-RXN
ASE16_07425	Unknown	3.1.26.3-RXN
ASE16_14765	Unknown	PORPHOBILSYNTH-RXN
ASE16_11315	Unknown	ISOCITDEH-RXN;RXN-8642;RXN-9951
ASE16_00620	Unknown	5.3.3.10-RXN
ASE16_11640	Unknown	POLYPHOSPHATE-KINASE-RXN
ASE16_02905	Unknown	2.7.13.3-RXN
ASE16_11080	Unknown	IMP-DEHYDROG-RXN
ASE16_17575	Unknown	IMP-DEHYDROG-RXN
ASE16_00510	Unknown	ATPASE-RXN
ASE16_03980	Unknown	2.1.3.1-RXN
ASE16_12545	Unknown	1.1.1.274-RXN
ASE16_05770	Unknown	ALANINE-DEHYDROGENASE-RXN
ASE16_12425	Unknown	ACYLCOADEHYDROG-RXN;RXN-17775;RXN-17779;RXN-17783;RXN-17784;RXN-17788;RXN-17792;RXN-17796
ASE16_07830	Unknown	DNA-DIRECTED-DNA-POLYMERASE-RXN
ASE16_11460	Unknown	METHENYLTHFCYCLOHYDRO-RXN;METHYLENETHFDEHYDROG-NADP-RXN
ASE16_12050	Unknown	RXN0-4261
ASE16_03300	Unknown	UGD-RXN
ASE16_14780	Unknown	PROTOHEMEFERROCHELAT-RXN
ASE16_18605	Unknown	3.4.11.5-RXN
ASE16_09830	Unknown	3.1.22.4-RXN
ASE16_07605	Unknown	RXN0-5100
ASE16_07825	Unknown	RXN1A0-6303
ASE16_08855	Unknown	ISOCHORMAT-RXN
ASE16_13440	Unknown	QUINOPRIBOTRANS-RXN
ASE16_08220	Unknown	CDPKIN-RXN;DADPKIN-RXN;DCDPKIN-RXN;DGDPKIN-RXN;DTDPKIN-RXN;DUDPKIN-RXN;GDPKIN-RXN;NUCLEOSIDE-DIP-KIN-RXN;RXN-14120;RXN-14228;UDPKIN-RXN
ASE16_19005	Unknown	LYSINE--TRNA-LIGASE-RXN
ASE16_08475	Unknown	DNA-DIRECTED-DNA-POLYMERASE-RXN
ASE16_03810	Unknown	TRYPTOPHAN--TRNA-LIGASE-RXN
ASE16_00375	Unknown	2-HALOACID-DEHALOGENASE-RXN
ASE16_04640	Unknown	ARGSUCCINLYA-RXN;RXN-22
ASE16_05535	Unknown	ARGININE--TRNA-LIGASE-RXN
ASE16_05815	Unknown	ASPARAGHYD-RXN
ASE16_02530	Unknown	L-IDITOL-2-DEHYDROGENASE-RXN;RXN-7644
ASE16_13450	Unknown	QUINOLINATE-SYNTHA-RXN
ASE16_09835	Unknown	ALANINE--TRNA-LIGASE-RXN
ASE16_09660	Unknown	RXN0-2382;TRYPSYN-RXN
ASE16_02740	Unknown	UDPNACETYLMURAMATEDEHYDROG-RXN
ASE16_12740	Unknown	2.7.1.148-RXN
ASE16_09370	Unknown	HEMEOSYN-RXN
ASE16_08800	Unknown	RXN-17155
ASE16_08210	Unknown	DIHYDROFOLATESYNTH-RXN
ASE16_05850	Unknown	GABATRANSAM-RXN;RXN-2901
ASE16_08845	Unknown	2-OCTAPRENYL-6-OHPHENOL-METHY-RXN;DHHB-METHYLTRANSFER-RXN
ASE16_15165	Unknown	GLUTDECARBOX-RXN
ASE16_04350	Unknown	RXN0-5462
ASE16_02265	Unknown	RIB5PISOM-RXN
ASE16_16520	Unknown	ADENYLYLSULFKIN-RXN
ASE16_12605	Unknown	3.1.4.14-RXN
ASE16_00015	Unknown	2-HALOACID-DEHALOGENASE-RXN
ASE16_05180	Unknown	1.13.11.15-RXN
ASE16_17385	Unknown	GDPPYPHOSKIN-RXN;GTPPYPHOSKIN-RXN
ASE16_02620	Unknown	ACETOLACTSYN-RXN;ACETOOHBUTSYN-RXN
ASE16_04300	Unknown	ATPASE-RXN
ASE16_18805	Unknown	ISOCIT-CLEAV-RXN
ASE16_07350	Unknown	UDPNACETYLGLUCOSAMENOLPYRTRANS-RXN
ASE16_13775	Unknown	3.4.21.88-RXN
ASE16_14080	Unknown	UDPGLUCEPIM-RXN
ASE16_14235	Unknown	HISTALDEHYD-RXN;HISTOLDEHYD-RXN;RXN-8001
ASE16_11125	guaA	GLUTAMIN-RXN;GMP-SYN-GLUT-RXN;GMP-SYN-NH3-RXN
ASE16_06020	Unknown	CARBODEHYDRAT-RXN;RXN0-5224
ASE16_04355	Unknown	2.5.1.19-RXN
ASE16_14810	Unknown	RXN-10642;UROGENDECARBOX-RXN
ASE16_11660	Unknown	GCVT-RXN
ASE16_13585	Unknown	ACYLCOADEHYDROG-RXN;RXN-17775;RXN-17779;RXN-17783;RXN-17784;RXN-17788;RXN-17792;RXN-17796
ASE16_09700	hisE	HISTPRATPHYD-RXN
ASE16_00130	rocD	ORNITHINE--OXO-ACID-AMINOTRANSFERASE-RXN;ORNITHINE-GLU-AMINOTRANSFERASE-RXN
ASE16_04620	Unknown	ACETYLGLUTKIN-RXN;RXN-15005
ASE16_15780	Unknown	THIOREDOXIN-REDUCT-NADPH-RXN
ASE16_01225	Unknown	ALPHAGALACTOSID-RXN;RXN-11501;RXN-11502;RXN-12088;RXN-17754;RXN-17830
ASE16_07270	Unknown	ATPASE-RXN
ASE16_01125	Unknown	3.2.1.141-RXN
ASE16_14465	Unknown	RXN0-1147
ASE16_14520	Unknown	5.99.1.2-RXN
ASE16_06670	Unknown	GLUTRACE-RXN
ASE16_11260	Unknown	GLUTAMATE-DEHYDROGENASE-NADP+-RXN;GLUTAMATE-DEHYDROGENASE-RXN;GLUTDEHYD-RXN
ASE16_15795	Unknown	TRNA-CYTIDYLYLTRANSFERASE-RXN
ASE16_10505	Unknown	RXN0-1441
ASE16_03260	Unknown	ASPARTATE-SEMIALDEHYDE-DEHYDROGENASE-RXN
ASE16_05720	Unknown	PHENDEHYD-RXN
ASE16_05945	Unknown	TRNA-PSEUDOURIDINE-SYNTHASE-I-RXN
ASE16_14355	Unknown	THYMIDYLATESYN-RXN
ASE16_05980	Unknown	DEOXYRIBOSE-P-ALD-RXN
ASE16_17660	Unknown	3-OXOACYL-ACP-REDUCT-RXN;RXN-10060;RXN-10655;RXN-10659;RXN-11476;RXN-11480;RXN-13008;RXN-16616;RXN-16622;RXN-16626;RXN-16630;RXN-9514;RXN-9518;RXN-9524;RXN-9528;RXN-9532;RXN-9536;RXN-9540;RXN-9552;RXN-9556;RXN-9633;RXN0-2142;RXN1G-157;RXN1G-349;RXN1G-469;RXN1G-508
ASE16_14930	Unknown	2-HALOACID-DEHALOGENASE-RXN
ASE16_07075	Unknown	BRANCHED-CHAINAMINOTRANSFERILEU-RXN;BRANCHED-CHAINAMINOTRANSFERLEU-RXN;BRANCHED-CHAINAMINOTRANSFERVAL-RXN
ASE16_03675	Unknown	1.2.1.25-RXN;1.2.4.4-RXN;2.3.1.168-RXN;2KETO-3METHYLVALERATE-RXN;2KETO-4METHYL-PENTANOATE-DEHYDROG-RXN;ISOVALERYLCOA-DHLIPOAMIDE-RXN;KETOISOCAPROATE-RXN;MBCOA-DHLIPOAMIDE-RXN;METHYLVALERATE-RXN;RXN-7719
ASE16_03135	Unknown	ATPASE-RXN
ASE16_04050	Unknown	DTDPGLUCOSEPP-RXN
ASE16_11030	Unknown	HOLO-ACP-SYNTH-RXN
ASE16_11975	Unknown	1.2.4.4-RXN;2.3.1.168-RXN;KETOISOCAPROATE-RXN;METHYLVALERATE-RXN;RXN-7790
ASE16_17335	Unknown	IPPISOM-RXN
ASE16_03225	Unknown	ACETATEKIN-RXN
ASE16_05825	Unknown	1.11.1.15-RXN;RXN0-5468
ASE16_06455	Unknown	RXN-11109
ASE16_12970	Unknown	ALARACECAT-RXN
ASE16_11400	Unknown	3.5.1.80-RXN;NAG6PDEACET-RXN
ASE16_11205	Unknown	RXN0-4261
ASE16_00140	Unknown	RXN-8351
ASE16_06320	Unknown	METHELENE-THMPT-OXI-RXN
ASE16_18550	Unknown	DIHYDROURACIL-DEHYDROGENASE-NAD+-RXN;RXN0-6565
ASE16_02270	Unknown	PRPPSYN-RXN
ASE16_14595	Unknown	RXN1A0-6303
ASE16_08260	Unknown	GLUTSEMIALDEHYDROG-RXN
ASE16_08270	Unknown	NICONUCADENYLYLTRAN-RXN
ASE16_12745	Unknown	UNDECAPRENYL-DIPHOSPHATASE-RXN
ASE16_15600	Unknown	3.1.3.16-RXN
ASE16_11095	Unknown	IMP-DEHYDROG-RXN
ASE16_17520	Unknown	GLUTAMIN-RXN
ASE16_09415	Unknown	TRIOSEPISOMERIZATION-RXN
ASE16_11950	Unknown	KETOACYLCOATHIOL-RXN;RXN-10699;RXN-10700;RXN-10701;RXN-11246;RXN-12565;RXN-12710;RXN-13617;RXN-14268;RXN-14274;RXN-14277;RXN-14394;RXN-14774;RXN-14788;RXN-14793;RXN-14799;RXN-14803;RXN-16137;RXN-17116;RXN-17778;RXN-17782;RXN-17787;RXN-17791;RXN-17795;RXN-17799;RXN-3641
ASE16_06480	Unknown	RXN0-4261
ASE16_09180	Unknown	DNA-DIRECTED-DNA-POLYMERASE-RXN;RXN0-4961
ASE16_13745	Unknown	DIAMINOPIMEPIM-RXN
ASE16_13560	Unknown	CITSYN-RXN
ASE16_09950	Unknown	PYRAMKIN-RXN
ASE16_17995	Unknown	GLYOXIII-RXN
ASE16_17320	Unknown	DCTP-DEAM-RXN;RXN-14118
ASE16_01900	Unknown	CATAL-RXN;RXN-14189;RXN66-1
ASE16_09735	Unknown	DNA-DIRECTED-RNA-POLYMERASE-RXN
ASE16_15710	Unknown	RXN0-5100
ASE16_13905	Unknown	DNA-LIGASE-ATP-RXN;RXN-17917;RXN-17918;RXN-17919
ASE16_18195	Unknown	FORMIMINOGLUTAMASE-RXN
ASE16_00025	Unknown	NAPHTHOATE-SYN-RXN
ASE16_01730	Unknown	3.4.21.92-RXN
ASE16_07360	Unknown	GLYC3PDEHYDROGBIOSYN-RXN
ASE16_06360	Unknown	TETHYDPICSUCC-RXN
ASE16_18415	Unknown	GLUTDECARBOX-RXN
ASE16_06270	Unknown	PEPTIDYLPROLYL-ISOMERASE-RXN
ASE16_09375	Unknown	1TRANSKETO-RXN;2TRANSKETO-RXN
ASE16_15075	Unknown	ASPARAGHYD-RXN
ASE16_01520	Unknown	PYRROLINECARBREDUCT-RXN;RXN66-546
ASE16_04715	Unknown	RXN0-5100
ASE16_08035	Unknown	3.4.11.2-RXN
ASE16_18395	Unknown	3.2.1.21-RXN
ASE16_06645	Unknown	NAG1P-URIDYLTRANS-RXN
ASE16_07430	Unknown	3.2.2.23-RXN;RXN-18435
ASE16_14705	Unknown	NQOR-RXN;RXN-12303
ASE16_00220	Unknown	RHAMNISOM-RXN
ASE16_15240	Unknown	QOR-RXN
ASE16_15700	Unknown	5.99.1.2-RXN
ASE16_07345	Unknown	3-ISOPROPYLMALISOM-RXN;R-2-METHYLMALATE-DEHYDRATASE-RXN;RXN-13163;RXN-7744;RXN-8991
ASE16_05685	Unknown	RXN1A0-6303
ASE16_11970	Unknown	1.2.1.25-RXN;1.2.4.4-RXN;2.3.1.168-RXN;2KETO-3METHYLVALERATE-RXN;2KETO-4METHYL-PENTANOATE-DEHYDROG-RXN;ISOVALERYLCOA-DHLIPOAMIDE-RXN;KETOISOCAPROATE-RXN;MBCOA-DHLIPOAMIDE-RXN;METHYLVALERATE-RXN;RXN-7719
ASE16_07745	Unknown	6.3.5.7-RXN
ASE16_00060	Unknown	3.1.2.23-RXN
ASE16_00355	Unknown	PREPHENATEDEHYDRAT-RXN
ASE16_07195	Unknown	RXN-12587;RXN-12588;RXN-14382;RXN-14385;RXN-15881;RXN-9787;RXN0-308
ASE16_05185	Unknown	1.2.1.32-RXN;BADH-RXN;RXN-8831;RXN-8837
ASE16_14285	Unknown	DIHYDROFOLATEREDUCT-RXN;RXN-18357
ASE16_00245	Unknown	LYSOPHOSPHOLIPASE-RXN;RXN-15035;RXN-19312
ASE16_13965	Unknown	RXN18HP-6
ASE16_04710	Unknown	RXN0-1441
ASE16_04270	Unknown	2.7.13.3-RXN
ASE16_12690	Unknown	ACETYLHOMOSER-CYS-RXN;O-ACETYLHOMOSERINE-THIOL-LYASE-RXN
ASE16_03090	Unknown	3.1.1.72-RXN
ASE16_03890	Unknown	THYM-PHOSPH-RXN;URA-PHOSPH-RXN;URPHOS-RXN
ASE16_03660	Unknown	NICOTINAMID-RXN
ASE16_06035	Unknown	RXN0-4261
ASE16_09420	pgk	PHOSGLYPHOS-RXN
ASE16_14575	acnA	ACONITATEDEHYDR-RXN;ACONITATEHYDR-RXN;RXN-14047
ASE16_01500	Unknown	URACIL-PRIBOSYLTRANS-RXN
ASE16_03755	Unknown	LUMAZINESYN-RXN
ASE16_10620	Unknown	ALLOPHANATE-HYDROLASE-RXN
ASE16_03315	Unknown	ALKANAL-MONOOXYGENASE-FMN-LINKED-RXN
ASE16_10630	Unknown	SPERMINE-SYNTHASE-RXN
ASE16_12190	Unknown	DNA-DIRECTED-DNA-POLYMERASE-RXN
ASE16_01830	Unknown	ALDOSE-1-EPIMERASE-RXN;ALDOSE1EPIM-RXN
ASE16_11595	Unknown	DNA-DIRECTED-RNA-POLYMERASE-RXN
ASE16_17980	Unknown	GLYOXIII-RXN
ASE16_15945	Unknown	GLYOXIII-RXN
ASE16_09900	ruvB	RXN0-4261
ASE16_11775	Unknown	2.7.13.3-RXN
ASE16_04695	Unknown	NAD-KIN-RXN
ASE16_02555	Unknown	3-OXOACYL-ACP-REDUCT-RXN
ASE16_02980	Unknown	CYSTATHIONINE-BETA-SYNTHASE-RXN;RXN-19038;RXN66-534;RXN66-562
ASE16_06495	Unknown	RXN0-4261
ASE16_01205	Unknown	GALACTONDEHYDRAT-RXN
ASE16_06565	Unknown	2.7.13.3-RXN
ASE16_09960	thrS	THREONINE--TRNA-LIGASE-RXN
ASE16_07000	Unknown	RXN1G-1435;RXN1G-1436;RXN1G-1437;RXN1G-1438;RXN1G-1439;TREHALOSEPHOSPHA-RXN
ASE16_09555	Unknown	ALKANE-1-MONOOXYGENASE-RXN
ASE16_17965	Unknown	3.2.1.55-RXN
ASE16_04345	Unknown	1.11.1.15-RXN;RXN0-5468
ASE16_00975	Unknown	4.2.3.12-RXN
ASE16_11815	Unknown	ARABISOM-RXN
ASE16_05560	Unknown	HOMOSERKIN-RXN
ASE16_09650	Unknown	RXN0-20
ASE16_01110	Unknown	ACETATE--COA-LIGASE-RXN;RXN-18446;RXN-18447;RXN-18448
ASE16_08190	valS	VALINE--TRNA-LIGASE-RXN
ASE16_15620	Unknown	PROTEIN-KINASE-RXN
ASE16_14770	Unknown	UROGENIIISYN-RXN
ASE16_14985	Unknown	KDPGALDOL-RXN
ASE16_00090	Unknown	PYRROLINECARBDEHYDROG-RXN;RXN-14116
ASE16_11380	purU	FORMYLTHFDEFORMYL-RXN
ASE16_08465	Unknown	LEUCINE--TRNA-LIGASE-RXN
ASE16_03830	Unknown	R601-RXN;RXN-14963
ASE16_08595	Unknown	2-ISOPROPYLMALATESYN-RXN
ASE16_05130	Unknown	DIHYDROPYRIMIDINASE-RXN;RXN-11211;RXN-11217
ASE16_15820	Unknown	RXN0-4261
ASE16_01785	Unknown	PUTRESCINE-OXIDASE-RXN
ASE16_14500	Unknown	R345-RXN
ASE16_05465	Unknown	N-ACETYLGLUCOSAMINE-KINASE-RXN
ASE16_13995	Unknown	GLYOXIII-RXN
ASE16_14155	Unknown	UDP-NACMURALGLDAPLIG-RXN
ASE16_11370	Unknown	RXN0-2001
ASE16_03945	Unknown	PROPIONYL-COA-CARBOXY-RXN;RXN0-5055;RXN1G-4355
ASE16_03920	Unknown	PHOSMANMUT-RXN
ASE16_06675	rph	RXN0-6481;RXN0-6482;TRNA-NUCLEOTIDYLTRANSFERASE-RXN
ASE16_04215	Unknown	ADENOSYLHOMOCYSTEINASE-RXN
ASE16_02185	Unknown	L-IDITOL-2-DEHYDROGENASE-RXN;RXN-7644
ASE16_09020	Unknown	HISTIDINE-AMMONIA-LYASE-RXN
ASE16_00590	Unknown	MANNONDEHYDRAT-RXN
ASE16_05550	Unknown	HOMOSERDEHYDROG-RXN
ASE16_09400	Unknown	6PGLUCONOLACT-RXN
ASE16_09590	Unknown	2-OCTAPRENYL-6-OHPHENOL-METHY-RXN;DHHB-METHYLTRANSFER-RXN
ASE16_11455	Unknown	GLYOHMETRANS-RXN;RXN0-5234
ASE16_17795	Unknown	GLYRIBONUCSYN-RXN
ASE16_05580	Unknown	ACSERLY-RXN;RXN-12726
ASE16_13185	Unknown	MYO-INOSITOL-2-DEHYDROGENASE-RXN
ASE16_05520	Unknown	RXN-8668
ASE16_14525	Unknown	5.99.1.2-RXN
ASE16_03055	Unknown	GLUCISOM-RXN;XYLISOM-RXN
ASE16_17415	tdh	RXN-14249;THREODEHYD-RXN
ASE16_18555	Unknown	RXN0-4261
ASE16_14315	Unknown	PRTRANS-RXN
ASE16_09600	Unknown	PHOSPHOKETOLASE-RXN
ASE16_18960	Unknown	GTP-CYCLOHYDRO-I-RXN
ASE16_15625	Unknown	PABASYN-RXN
ASE16_05200	Unknown	4.1.2.20-RXN;KDGALDOL-RXN
ASE16_08725	Unknown	GLYOXIII-RXN
ASE16_14510	Unknown	ALARACECAT-RXN
ASE16_04005	Unknown	RXN0-743
ASE16_01350	Unknown	CARBOXYMETHYLENEBUTENOLIDASE-RXN;DIENELACHYDRO-RXN;RXN-9857;RXN-9868;RXN-9887;RXN-9890
ASE16_13735	Unknown	RXN-14480;RXN-14481;RXN0-5063
ASE16_12860	Unknown	HISTIDINE--TRNA-LIGASE-RXN
ASE16_13605	Unknown	CITLY-RXN;CITRYLY-RXN;CITTRANS-RXN
ASE16_16605	Unknown	BRANCHED-CHAINAMINOTRANSFERILEU-RXN;BRANCHED-CHAINAMINOTRANSFERLEU-RXN;BRANCHED-CHAINAMINOTRANSFERVAL-RXN
ASE16_05515	Unknown	1.8.4.12-RXN
ASE16_07260	Unknown	DEOXYRIBODIPYRIMIDINE-PHOTOLYASE-RXN;RXN-19025;RXN-19026;RXN-19242;RXN-19243;RXN-19244;RXN-19245;RXN-19246;RXN-19247;RXN-19248
ASE16_13045	Unknown	RXN-15122;THREDEHYD-RXN
ASE16_09690	Unknown	GLUTAMIDOTRANS-RXN;GLUTAMIN-RXN;RXN-17900
ASE16_12580	Unknown	ACYLPHOSPHATASE-RXN
ASE16_08835	Unknown	1.3.99.5-RXN;CHOLESTENONE-5-ALPHA-REDUCTASE-RXN;CORTISONE-ALPHA-REDUCTASE-RXN;PROGESTERONE-5-ALPHA-REDUCTASE-RXN;RXN66-343
ASE16_17515	Unknown	ADENOSYLHOMOCYSTEINASE-RXN
ASE16_05960	Unknown	FADSYN-RXN;RIBOFLAVINKIN-RXN;RXN-18510;RXN-18511
ASE16_07375	Unknown	THI-P-KIN-RXN
ASE16_14085	Unknown	ACYLCOASYN-RXN;LINOLENOYL-RXN;R223-RXN;RXN-12184;RXN-12978;RXN-13290;RXN-13614;RXN-16380;RXN-16389;RXN-16393;RXN-16401;RXN-16402;RXN-16415;RXN-16418;RXN-7904;RXN-9623;RXN-9644;RXN-9673;RXN0-7238;RXN0-7239;RXN0-7248;RXN66-469;RXN66-477;RXN66-480;RXN66-483;RXN66-484;TRANS-RXN0-623
ASE16_16925	Unknown	DNA-LIGASE-NAD+-RXN;RXN-17918;RXN-17919;RXN-17920
ASE16_12370	Unknown	GLUC1PURIDYLTRANS-RXN
ASE16_12365	Unknown	5-FORMYL-THF-CYCLO-LIGASE-RXN
ASE16_14655	Unknown	CITSYN-RXN
ASE16_04660	Unknown	TYROSINE--TRNA-LIGASE-RXN
ASE16_02865	Unknown	GLUCISOM-RXN;XYLISOM-RXN
ASE16_03420	Unknown	DTMPKI-RXN
ASE16_00050	Unknown	2.5.1.64-RXN
ASE16_18185	Unknown	RXN-12134;RXN-12140;RXN-12141;RXN-12142
ASE16_13795	Unknown	GLUTAMIDOTRANS-RXN;GLUTAMIN-RXN;RXN-17900
ASE16_03840	Unknown	RXN-14971;RXN-15378;SUCCINATE-DEHYDROGENASE-UBIQUINONE-RXN
ASE16_07045	Unknown	PGLYCDEHYDROG-RXN
ASE16_05100	Unknown	CYANAMIDE-HYDRATASE-RXN
ASE16_00810	Unknown	GLYCPDIESTER-RXN;RXN-14073;RXN-14136;RXN-14160
ASE16_13145	glpX	F16BDEPHOS-RXN
ASE16_12455	Unknown	RXN1A0-6303
ASE16_11965	Unknown	RXN-12508;RXN-12583;RXN0-1134
ASE16_09510	Unknown	DNA-DIRECTED-DNA-POLYMERASE-RXN
ASE16_12765	Unknown	TEICHOICSYN4-RXN
ASE16_09060	Unknown	GLYCPDIESTER-RXN;RXN-14073;RXN-14136;RXN-14160
ASE16_09105	Unknown	PEPTIDYLPROLYL-ISOMERASE-RXN
ASE16_04000	Unknown	AIRCARBOXY-RXN
ASE16_17755	Unknown	ADENYLOSUCCINATE-SYNTHASE-RXN
ASE16_03220	Unknown	PHOSACETYLTRANS-RXN
ASE16_13415	Unknown	4-CARBOXYMUCONOLACTONE-DECARBOXYLASE-RXN
ASE16_04175	Unknown	ACYLCOADEHYDROG-RXN;RXN-17775;RXN-17779;RXN-17783;RXN-17784;RXN-17788;RXN-17792;RXN-17796
ASE16_12475	Unknown	RXN-19040;RXN0-6359;RXN0-6385;THIOSULFATE-SULFURTRANSFERASE-RXN
ASE16_14075	Unknown	3.5.1.27-RXN;3.5.1.88-RXN
ASE16_08795	Unknown	2.3.1.179-RXN;2.3.1.41-RXN;3-OXOACYL-ACP-SYNTH-BASE-RXN;3-OXOACYL-ACP-SYNTH-RXN;RXN-10654;RXN-10658;RXN-11474;RXN-11479;RXN-16615;RXN-16621;RXN-16625;RXN-16629;RXN-8391;RXN-9516;RXN-9523;RXN-9527;RXN-9531;RXN-9535;RXN-9539;RXN0-2141;RXN1G-460;RXN3O-1803
ASE16_14135	Unknown	RXN-11638
ASE16_09185	Unknown	DNA-DIRECTED-DNA-POLYMERASE-RXN
ASE16_07940	Unknown	NAD-SYNTH-NH3-RXN
ASE16_13840	Unknown	RXN-11135
ASE16_14980	Unknown	3.5.1.81-RXN
ASE16_09695	Unknown	ATPPHOSPHORIBOSYLTRANS-RXN
ASE16_05920	Unknown	RXN0-2661
ASE16_17920	Unknown	RXN-8665
ASE16_11255	purH	AICARTRANSFORM-RXN;IMPCYCLOHYDROLASE-RXN
ASE16_06995	Unknown	TREHALOSE6PSYN-RXN
ASE16_17610	Unknown	UGD-RXN
ASE16_02820	Unknown	QOR-RXN
ASE16_09665	Unknown	IGPSYN-RXN
ASE16_08810	Unknown	MALONYL-COA-ACP-TRANSACYL-RXN
ASE16_04170	Unknown	MANNPISOM-RXN
ASE16_04525	Unknown	GLYOXIII-RXN
ASE16_06790	Unknown	ADDALT-RXN;ADENODEAMIN-RXN
ASE16_13140	Unknown	F16ALDOLASE-RXN;RXN-8631
ASE16_03050	Unknown	XYLULOKIN-RXN
ASE16_17485	Unknown	RXN-8529
ASE16_14005	Unknown	GLYOXIII-RXN
ASE16_03255	Unknown	ASPARTATEKIN-RXN
ASE16_03885	Unknown	CYTIDEAM-RXN;CYTIDEAM2-RXN
ASE16_13635	Unknown	RXN-14014
ASE16_18000	Unknown	SAICARSYN-RXN
ASE16_14295	Unknown	1.10.2.2-RXN;RXN-15829
ASE16_14775	Unknown	OHMETHYLBILANESYN-RXN
ASE16_03795	glpK	GLYCEROL-KIN-RXN
ASE16_08045	Unknown	RXN0-2601
ASE16_11680	Unknown	2.7.13.3-RXN
ASE16_18940	Unknown	INORGPYROPHOSPHAT-RXN
ASE16_03695	Unknown	SUCCINATE-SEMIALDEHYDE-DEHYDROGENASE-RXN
ASE16_16665	Unknown	2.7.13.3-RXN
ASE16_15440	Unknown	3.4.11.1-RXN
ASE16_07725	Unknown	RXN0-2023
ASE16_10930	Unknown	ADENYL-KIN-RXN
ASE16_13765	Unknown	HOMOCYSMET-RXN
ASE16_01595	Unknown	ISOCHORSYN-RXN
ASE16_07175	Unknown	EXOPOLYPHOSPHATASE-RXN
ASE16_10350	Unknown	ATPASE-RXN
ASE16_14630	Unknown	R4-RXN
ASE16_09485	Unknown	DEPHOSPHOCOAKIN-RXN
ASE16_15645	Unknown	PEPTIDYLPROLYL-ISOMERASE-RXN
ASE16_12270	Unknown	RXN-15133;RXN-15135;STEROL-ESTERASE-RXN
ASE16_08410	Unknown	TRANS-RXN-283
ASE16_17420	Unknown	AKBLIG-RXN
ASE16_17255	Unknown	GLUCONATE-5-DEHYDROGENASE-RXN
ASE16_05615	Unknown	PHOSNACMURPENTATRANS-RXN
ASE16_14760	Unknown	GSAAMINOTRANS-RXN
ASE16_16770	Unknown	3.2.1.14-RXN;RXN-12309
ASE16_14805	Unknown	PROTOPORGENOXI-RXN
ASE16_08205	ileS	ISOLEUCINE--TRNA-LIGASE-RXN
ASE16_12785	Unknown	PRPPSYN-RXN
ASE16_08435	Unknown	RXN-6883;RXN0-5266
ASE16_11485	Unknown	GALACTOKIN-RXN
ASE16_13165	Unknown	1.2.1.27-RXN;RXN-11213;RXN-2902
ASE16_06215	Unknown	TRNA-GUANINE-N7--METHYLTRANSFERASE-RXN
ASE16_02570	Unknown	RIB5PISOM-RXN
ASE16_05470	Unknown	6-PHOSPHO-BETA-GLUCOSIDASE-RXN;RXN0-5295;RXN0-5297;RXN0-6994;RXN0-7002
ASE16_08560	Unknown	RXN0-5462
ASE16_08645	Unknown	RXN0-5021
ASE16_14650	Unknown	ACETYL-COA-ACETYLTRANSFER-RXN;METHYLACETOACETYLCOATHIOL-RXN;RXN-12561
ASE16_01040	Unknown	ATPASE-RXN
ASE16_11820	Unknown	RIBULPEPIM-RXN
ASE16_08625	Unknown	RXN0-1281
ASE16_06000	Unknown	ACETYLORNDEACET-RXN;RXN-7933
ASE16_08705	Unknown	3.5.1.27-RXN;3.5.1.88-RXN
ASE16_06350	Unknown	1.2.1.25-RXN;1.2.4.4-RXN;2.3.1.168-RXN;2KETO-3METHYLVALERATE-RXN;2KETO-4METHYL-PENTANOATE-DEHYDROG-RXN;ISOVALERYLCOA-DHLIPOAMIDE-RXN;KETOISOCAPROATE-RXN;MBCOA-DHLIPOAMIDE-RXN;METHYLVALERATE-RXN;RXN-7719
ASE16_11905	Unknown	RXN-10819
ASE16_10035	Unknown	ATPASE-RXN
ASE16_12780	glmU	2.3.1.157-RXN;NAG1P-URIDYLTRANS-RXN
ASE16_12725	Unknown	METHIONINE--TRNA-LIGASE-RXN;RXN-16165
ASE16_13555	Unknown	SUCCINYLDIAMINOPIMTRANS-RXN
ASE16_05575	Unknown	SERINE-O-ACETTRAN-RXN
ASE16_13700	Unknown	PHOSPHAGLYPSYN-RXN
ASE16_00200	Unknown	ATPASE-RXN
ASE16_14350	Unknown	DIHYDROFOLATEREDUCT-RXN;RXN-18357
ASE16_15395	Unknown	SHIKIMATE-5-DEHYDROGENASE-RXN
ASE16_09725	Unknown	S-ADENMETSYN-RXN
ASE16_00670	Unknown	1.13.11.15-RXN
ASE16_09745	Unknown	OROTPDECARB-RXN
ASE16_16905	Unknown	GLUCISOM-RXN;XYLISOM-RXN
ASE16_10175	Unknown	ACYLCOADEHYDROG-RXN;RXN-17775;RXN-17779;RXN-17783;RXN-17784;RXN-17788;RXN-17792;RXN-17796
ASE16_18975	Unknown	H2PTERIDINEPYROPHOSPHOKIN-RXN;RXN-15733
ASE16_14545	Unknown	DUTP-PYROP-RXN
ASE16_07125	Unknown	4.2.1.41-RXN
ASE16_03700	Unknown	ACETYL-COA-ACETYLTRANSFER-RXN;METHYLACETOACETYLCOATHIOL-RXN;RXN-12561
ASE16_10065	Unknown	ACETYL-COA-ACETYLTRANSFER-RXN;METHYLACETOACETYLCOATHIOL-RXN;RXN-12561
ASE16_03925	Unknown	ADENPHOSPHOR-RXN;DEOXYADENPHOSPHOR-RXN;DEOXYGUANPHOSPHOR-RXN;DEOXYINOPHOSPHOR-RXN;INOPHOSPHOR-RXN;PNP-RXN;RXN-11715;RXN-11743;RXN-14029;RXN-7001;RXN0-5199;XANTHOSINEPHOSPHORY-RXN
ASE16_05555	Unknown	THRESYN-RXN
ASE16_18745	Unknown	RXN0-4641
ASE16_10365	Unknown	AMINOPARATHION-PHOSPHATASE-RXN;ARYLDIALKYL-PHOSPHATASE-RXN;ARYLDIALKYLPHOSPHATASE-RXN;RXN-8743;RXN-8746
ASE16_17275	Unknown	ALARACECAT-RXN
