{
    "com_prodtargets": [],
    "com_scope": [
        "M_ADENOSYLCOBINAMIDE__45__GDP_c",
        "M_CPD__45__650_c",
        "M_DIHYDROXY__45__BUTANONE__45__P_c",
        "M_ACETYL__45__COA_c",
        "M_ADENINE_c",
        "M_UMP_c",
        "M_3__45__KETOBUTYRATE_c",
        "M_CAMP_c",
        "M_RIBOSE__45__5P_c",
        "M_PHOSPHORIBULOSYL__45__FORMIMINO__45__AICAR__45__P_c",
        "M_NICOTINAMIDE_NUCLEOTIDE_c",
        "M_GDP__45__TP_c",
        "M_ALPHA__45__RIBAZOLE_c",
        "M_PHOSPHORIBOSYL__45__FORMIMINO__45__AICAR__45__P_c",
        "M_S__45__3__45__HYDROXYBUTANOYL__45__COA_c",
        "M_GUANOSINE__45__5DP__45__3DP_c",
        "M_CPD__45__316_c",
        "M_CPD__45__15317_c",
        "M_NMNH_c",
        "M_PHOSPHORIBOSYL__45__AMP_c",
        "M_CGMP_c",
        "M_GUANINE_c",
        "M_CPD__45__335_c",
        "M_MALONYL__45__COA_c",
        "M_APS_c",
        "M_FORMATE_c",
        "M_ACETALD_c",
        "M_UTP_c",
        "M_PHOSPHORIBOSYL__45__ATP_c",
        "M_PRPP_c",
        "M_GMP_c",
        "M_PROTON_e",
        "M_HCO3_c",
        "M_RIBULOSE__45__5P_c",
        "M_PAPS_c",
        "M_ACETOACETYL__45__COA_c",
        "M_3__45__HYDROXY__45__3__45__METHYL__45__GLUTARYL__45__COA_c"
    ],
    "com_unprodtargets": [
        "M_PHE_c",
        "M_INDOLE_ACETATE_AUXIN_c",
        "M_ILE_c",
        "M_PRO_c",
        "M_HIS_c",
        "M_ASN_c",
        "M_L__45__ASPARTATE_c",
        "M_CPD__45__693_c",
        "M_GLN_c",
        "M_MET_c",
        "M_VAL_c",
        "M_ARG_c",
        "M_LYS_c",
        "M_TRP_c",
        "M_CPD__45__110_c",
        "M_GLY_c",
        "M_ETHYLENE__45__CMPD_c",
        "M_LEU_c",
        "M_CYS_c",
        "M_THR_c",
        "M_CPD__45__734_c",
        "M_TYR_c"
    ],
    "targets_producers": {}
}