{
    "com_prodtargets": [],
    "com_scope": [
        "M_CPD__45__15317_c",
        "M_FMNH2_c",
        "M_CPD__45__650_c",
        "M_ACETYL__45__COA_c",
        "M_ADENINE_c",
        "M_NMNH_c",
        "M_NICOTINAMIDE_RIBOSE_c",
        "M_APS_c",
        "M_NICOTINAMIDE_NUCLEOTIDE_c",
        "M_FMN_c",
        "M_ADENOSINE_c",
        "M_UTP_c",
        "M_GDP__45__TP_c",
        "M_BIO__45__5__45__AMP_c",
        "M_HCO3_c",
        "M_GUANOSINE__45__5DP__45__3DP_c",
        "M_PAPS_c",
        "M_ACETOACETYL__45__COA_c",
        "M_CPD__45__316_c",
        "M_LIPOYL__45__AMP_c"
    ],
    "com_unprodtargets": [
        "M_PHE_c",
        "M_INDOLE_ACETATE_AUXIN_c",
        "M_ILE_c",
        "M_PRO_c",
        "M_HIS_c",
        "M_ASN_c",
        "M_L__45__ASPARTATE_c",
        "M_CPD__45__693_c",
        "M_GLN_c",
        "M_MET_c",
        "M_VAL_c",
        "M_ARG_c",
        "M_LYS_c",
        "M_TRP_c",
        "M_CPD__45__110_c",
        "M_GLY_c",
        "M_ETHYLENE__45__CMPD_c",
        "M_LEU_c",
        "M_CYS_c",
        "M_THR_c",
        "M_CPD__45__734_c",
        "M_TYR_c"
    ],
    "targets_producers": {}
}