dbRef_id	Common name	Produced (p), Consumed (c), Both (cp)
5-L-GLUTAMYL-L-AMINO-ACID	an &alpha;-(&gamma;-L-glutamyl)-L-amino acid	p
HYDROXYMETHYLBILANE	preuroporphyrinogen	cp
CPD-15668	4-cis-undecenoyl-CoA	p
S-2-Haloacids	an (S)-2-haloacid	c
S-2-Hydroxyacids1	an (S)-2-hydroxyacid	p
CPD-3708	guanosine 3'-monophosphate	cp
OXIDIZED-GLUTATHIONE	glutathione disulfide	p
CPD0-1327	5-fluorouracil	p
S-2-INDOL-3-YLACETYL-COA	S-2-(indol-3 yl)acetyl-CoA	cp
LINOLENOYL-COA	&alpha;-linolenoyl-CoA	p
CPD-15676	6-trans-3-oxo-tridecenoyl-CoA	c
DUDP	dUDP	cp
MANNOSE-1P	&alpha;-D-mannose 1-phosphate	cp
RNA-3-prime-P-cyclase-L-His-adenylate	an [RNA 3'-phosphate cyclase]-N&tau;-(5'-adenylyl)-L-histidine	cp
5-L-GLUTAMYL-PEPTIDE	a 5-L-glutamyl-[peptide]	c
CPD-15677	4-trans-undecenoyl-CoA	p
OXOPENTENOATE	2-oxopent-4-enoate	cp
S-24-DINITROPHENYLGLUTATHIONE	2,4-dinitrophenyl-S-glutathione	cp
CPD0-1456	UDP-N-acetyl-&alpha;-D-muramoyl-L-alanine	cp
5-METHYL-THF-GLU-N	a 5-methyltetrahydrofolate	cp
RNA-3-prime-P-cyclase-L-histidine	an [RNA 3'-phosphate cyclase]-L-histidine	cp
Cyclic-2-3-Ribonucleoside-Monophosphates	a ribonucleoside 2',3'-cyclic phosphate	c
MENADIOL	menadiol	p
CPD-15678	4-trans-3-oxo-undecenoyl-CoA	c
GAP	D-glyceraldehyde 3-phosphate	cp
5-METHYLTHIOADENOSINE	S-methyl-5'-thioadenosine	cp
HEXANOYL-COA	hexanoyl-CoA	cp
ACETOACETYL-COA	acetoacetyl-CoA	cp
NADH-P-OR-NOP	NAD(P)H	cp
RNA-DNA-hybrids	a RNA-DNA hybrid	c
RNA-Holder	a ribonucleic acid	cp
S-3-HYDROXYBUTANOYL-COA	(S)-3-hydroxybutanoyl-CoA	p
CPD-15687	5-cis, 7-trans-3-oxo-tetradecadienoyl-CoA	c
Palmitoleoyl-ACPs	a palmitoleoyl-[acp]	c
CPD-3709	guanosine 2',3'-cyclic monophosphate	c
Cyclic-3-5-Nucleoside-Monophosphates	a nucleoside cyclic 3',5'-monophosphate	c
LIPID-IV-A	lipid IVA	cp
Palmitoyl-ACPs	a palmitoyl-[acp]	c
RNA-with-3-prime-pp-5-prime-A-cap	an [RNA]-3'-ribonucleoside-3'-(5'-diphosphoadenosine)	cp
CPD0-1699	6-carboxy-5,6,7,8-tetrahydropterin	c
RNASE-E-DEGRADATION-SUBSTRATE-MRNA	RNase E degradation substrate mRNA	c
CPD-15688	(3Z,5E)-dodeca-3,5-dienoyl-CoA	p
RNASE-E-MRNA-PROCESSING-SUBSTRATE	RNase E mRNA processing substrate	c
RNASE-E-PROCESSING-PRODUCT-MRNA	RNase E processing product mRNA	p
RNASE-G-DEGRADATION-SUBSTRATE-MRNA	RNase G degradation substrate mRNA	c
HYPOXANTHINE	hypoxanthine	cp
RNASE-III-MRNA-PROCESSING-SUBSTRATE	RNase III mRNA processing substrate	c
CPD-15691	(5E)-3-oxo-dodec-5-enoyl-CoA	c
CPD-3711	cytidine-3'-monophosphate	cp
RNASE-III-PROCESSING-PRODUCT-MRNA	RNase III processing product mRNA	p
DITP	dITP	cp
CPD0-1718	7,8-dihydropterin	c
OXYGEN-MOLECULE	oxygen	cp
RNASE-R-DEGRADATION-SUBSTRATE-RNA	RNase R degradation substrate RNA	c
S-ADENOSYLMETHIONINAMINE	S-adenosyl 3-(methylthio)propylamine	cp
ACETONE	acetone	p
CPD-15692	(3E)-dec-3-enoyl-CoA	p
NADP	NADP+	cp
Cyclic-Phosphate-Terminated-RNAs	an [RNA]-3'-ribunucleoside-2',3'-cyclophosphate	p
DUMP	dUMP	cp
236-TRICHLOROHYDROQUINONE	2,3,6-trichlorohydroquinone	c
1-AMINO-PROPAN-2-ONE-3-PHOSPHATE	3-amino-1-hydroxyacetone 1-phosphate	cp
CPD0-181	N5-carboxyaminoimidazole ribonucleotide	c
Halide-Anions	a halide anion	p
HIS	L-histidine	cp
Peptides-holder	a peptide	p
S-ADENOSYLMETHIONINE	S-adenosyl-L-methionine	cp
DUTP	dUTP	cp
HIS-tRNAs	a tRNAHis	c
CPD-3713	cytidine 2',3'-cyclic monophosphate	c
MESO-DIAMINOPIMELATE	meso-diaminopimelate	cp
CPD-11522	3-oxo-2-(cis-2'-pentenyl)-cyclopentane-1-(E-hexa-2-enoyl)-CoA	c
CHORISMATE	chorismate	cp
DEOXYXYLULOSE-5P	1-deoxy-D-xylulose 5-phosphate	cp
ADENOSYLCOBINAMIDE-P	adenosyl-cobinamide phosphate	c
PRO	L-proline	cp
CADAVERINE	cadaverine	p
PRO-tRNAs	a tRNAPro	c
CPD-11523	3-oxo-2-(cis-2'-pentenyl)-cyclopentane-1-(3R-hydroxyhexanoyl)-CoA	p
DEPHOSPHO-COA	3'-dephospho-CoA	cp
Thiocarboxyadenylated-ThiS-Proteins	a thiocarboxy-[ThiS-Protein]	c
PROCOLLAGEN-L-PROLINE	a [procollagen]-L-proline	c
CPD-11524	3-oxo-2-(cis-2'-pentenyl)-cyclopentane-1-(3-oxohexanoyl)-CoA	c
3-Hydroxy-Terminated-DNAs	a [DNA]-3'-hydroxyl	c
Thiols	a thiol	p
SPERMIDINE	spermidine	cp
Cyclo-Hexa-Peptides	a cyclo-hexapeptide	cp
TRANS-23-DEHYDROADIPYL-COA	trans-2,3-dehydroadipyl-coA	cp
NADPH	NADPH	cp
3-Hydroxy-octanoyl-ACPs	a (3R)-3-hydroxyoctanoyl-[acp]	p
CPD-11525	3-oxo-2-(cis-2'-pentenyl)-cyclopentane-1-butanoyl-CoA	p
L-ARGININO-SUCCINATE	L-arginino-succinate	cp
ISOVALERATE	isovalerate	c
Cysteine-Desulfurase-L-cysteine	an [L-cysteine desulfurase]-L-cysteine	cp
Trans-3-enoyl-CoAs	a (3E)-alkan-3-enoyl-CoA	p
3-Hydroxyglutaryl-ACP-methyl-ester	a (3R)-3-hydroxyglutaryl-[acp] methyl ester	p
CPD-11526	3-oxo-2-(cis-2'-pentenyl)-cyclopentane-1-(E-buta-2-enoyl)-CoA	c
Cytidine-34-tRNAIle2	a cytidine34 in tRNAIle2	c
TRANS-3-METHYL-GLUTACONYL-COA	3-methylglutaconyl-CoA	p
UROPORPHYRINOGEN-III	uroporphyrinogen-III	cp
ISOVALERYL-COA	isovaleryl-CoA	cp
Trans-D2-decenoyl-ACPs	a (2E)-dec-2-enoyl-[acp]	p
L-ASPARTATE	L-aspartate	cp
CAFFEOYL-COA	trans-caffeoyl-CoA	p
CPD-11527	3-oxo-2-(cis-2'-pentenyl)-cyclopentane-1-(3R-hydroxybutanoyl)-CoA	p
Octanoyl-ACPs	an octanoyl-[acp]	c
DETHIOBIOTIN	dethiobiotin	c
TRANS-D2-ENOYL-ACP	a trans-2-enoyl-[acyl-carrier protein]	p
TRANS-D2-ENOYL-COA	a (2E)-alkan-2-enoyl-CoA	cp
CPD-11528	3-oxo-2-(cis-2'-pentenyl)-cyclopentane-1-(3-oxobutanoyl)-CoA	c
Cytochromes-C-Oxidized	an oxidized c-type cytochrome	cp
Octanoylated-Gcv-H	a [glycine-cleavage complex H protein] N6-octanoyl-L-lysine	cp
PROPIONAMIDE	propionamide	c
L-ASPARTATE-SEMIALDEHYDE	L-aspartate-semialdehyde	cp
Octanoylated-domains	a [lipoyl-carrier protein] N6-octanoyl-L-lysine	cp
SQUALENE	squalene	p
GMP	GMP	cp
CPD-11529	(+)-7-epi-jasmonoyl-CoA	p
Triacylglycerols	a triacyl-sn-glycerol	p
Cytochromes-C-Reduced	a reduced c-type cytochrome	cp
Odd-Saturated-Fatty-Acyl-CoA	an odd numbered straight chain 2,3,4-saturated fatty acyl CoA	p
PROPIONATE	propanoate	cp
ITP	ITP	cp
UTP	UTP	cp
CPD-11592	2-methylsulfanyl-N6-dimethylallyladenosine37 in tRNA	p
CAMP	cyclic-AMP	p
Odd-Straight-Chain-234-Sat-FA	an odd numbered straight chain 2,3,4-saturated fatty acid	c
SS-Oligodeoxyribonucleotides	a single-stranded oligodeoxyribonucleotide	p
STEARIC_ACID	stearate	c
TusE-L-cysteine	a [TusE sulfur carrier protein]-L-cysteine	p
CANAVANINE	L-canavanine	cp
AMINO-HYDROXYMETHYL-METHYL-PYR-P	4-amino-2-methyl-5-(phosphooxymethyl)pyrimidine	cp
4-GUANIDO-BUTYRAMIDE	4-guanidinobutyramide	c
CPD-196	octanoyl-CoA	p
CPD-19695	UDP-4-amino-D-fucose	cp
4-HYDROXY-2-KETOVALERATE	(S)-4-hydroxy-2-oxopentanoate	cp
All-trans-Retinyl-Esters	an all-trans-retinyl ester	c
CPD-786	(4Z)-2-oxohept-4-enedioate	p
Oleoyl-ACPs	an oleoyl-[acp]	c
GLUTATHIONE	glutathione	cp
2-METHYL-3-HYDROXY-BUTYRYL-COA	(2S,3S)-3-hydroxy-2-methylbutanoyl-CoA	cp
AMINO-HYDROXYMETHYL-METHYLPYRIMIDINE-PP	4-amino-2-methyl-5-(diphosphomethyl)pyrimidine	cp
23S-rRNA-2-methyladenine2503	a 2-methyladenine2503 in 23S rRNA	p
Oleoyl-lipid	a [glycerolipid]-oleate	c
4-HYDROXY-BUTYRATE	4-hydroxybutanoate	p
2-METHYL-ACETO-ACETYL-COA	2-methylacetoacetyl-CoA	cp
D-3-HYDROXYACYL-COA	a (3R)-3-hydroxyacyl-CoA	cp
CPD-787	(2Z,4Z)-2-hydroxyhepta-2,4-dienedioate	cp
4-HYDROXY-L-PROLINE	trans-4-hydroxy-L-proline	cp
23S-rRNA-adenine-2503	adenine2503 in 23S rRNA	c
D-5-Monosubstituted-Hydantoins	a D-5-monosubstituted hydantoin	cp
23S-rRNA-pseudouridine955-2504-2580	a pseudouridine955/2504/2580 in 23S rRNA	p
AMINO-OH-HYDROXYMETHYL-DIHYDROPTERIDINE	6-(hydroxymethyl)-7,8-dihydropterin	cp
FE+2	Fe2+	cp
D-6-P-GLUCONO-DELTA-LACTONE	6-phospho D-glucono-1,5-lactone	c
23S-rRNA-uridine955-2504-2580	uridine955/2504/2580 in 23S rRNA	c
Oligonucleotides	an oligonucleotide	c
CPD-8123	MoO2-molybdopterin cofactor	c
Amino-Acids	an amino acid	c
Amino-Acids-20	a proteinogenic amino acid	cp
2-METHYL-BUTYRYL-COA	2-methylbutanoyl-CoA	p
CPD-8180	DNA with lesion	c
D-ALA-D-ALA	D-alanyl-D-alanine	cp
AMINO-RIBOSYLAMINO-1H-3H-PYR-DIONE	5-amino-6-(D-ribitylamino)uracil	cp
2C-METH-D-ERYTHRITOL-CYCLODIPHOSPHATE	2-C-methyl-D-erythritol-2,4-cyclodiphosphate	c
CPD-8259	&beta;-D-ribosylnicotinate	p
2-METHYLMALEATE	citraconate	cp
CPD-19761	2,6-dichloro-3-(glutathione-S-yl)-hydroquinone	p
CPD-8355	1-18:1-2-lysophosphatidylethanolamine	c
CPD-19763	2,3,5-trichloro-6-(glutathione-S-yl)-hydroquinone	p
CPDQT-409	S-8-methylthiooctylhydroximoyl-L-cysteine	cp
tRNA-2-thiouridine34	a 2-thiouridine34 in tRNA	p
CPD-13754	3-[(3aS,4S,7aS)-7a-methyl-1,5-dioxo-octahydro-1H-inden-4-yl]propanoyl-CoA	p
CPD-18321	5-methoxybenzimidazole	c
CPD-15873	bis(guanylyl molybdopterin cofactor)	p
CPD-6321	a [procollagen] trans 4-hyroxy-L-proline	p
GDP	GDP	cp
CPDQT-41	10-(methylthio)-2-oxodecanoate	p
CIS-12-DIHYDRONAPHTHALENE-12-DIOL	(1R,2S)-1,2-dihydronaphthalene-1,2-diol	p
CPDQT-410	S-9-methylthiononylhydroximoyl-L-cysteine	cp
CPD-15874	bis(molybdenum cofactor)	c
tRNA-Adenosines-37	an adenosine37 in tRNA	c
CPD-18346	cis-vaccenoyl-CoA	cp
CPD-13847	UDP-2-acetamido-2,6-dideoxy-&alpha;-D-xylo-hex-4-ulose	cp
CPDQT-411	(E)-N-hydroxy-5-(methylsulfanyl)pentimidothioate	cp
CIS-2-CHLORO-4-CARBOXYMETHYLENEBUT-2-EN-	2-chloro-cis-dienelactone	c
D-ALANINE	D-alanine	cp
CPD-18348	1-cis-vaccenoylglycerol-3-phosphate	p
tRNA-Containing-5MeAminoMe-2-ThioU	a 5-methylaminomethyl-2-thiouridine34 in tRNA	c
CPDQT-412	(E)-N-hydroxy-6-(methylsulfanyl)heximidothioate	cp
GDP-TP	pppGpp	p
tRNA-Containing-N7-Methylguanine-46	an N7-methylguanine46 in tRNA	p
tRNA-Dihydrouridines	a 5,6-dihydrouridine in tRNA	p
CPDQT-413	(E)-N-hydroxy-7-(methylsulfanyl)heptimidothioate	cp
CPD-18379	1-myristoylglycerol 3-phosphate	p
CPDQT-414	(E)-N-hydroxy-8-(methylsulfanyl)octimidothioate	cp
CPD-15979	D-mannopyranose 6-phosphate	cp
CPDQT-415	(E)-N-hydroxy-9-(methylsulfanyl)nonimidothioate	cp
CIS-4-HYDROXY-D-PROLINE	cis-4-hydroxy-D-proline	cp
Pyruvate-dehydrogenase-acetylDHlipoyl	a [pyruvate dehydrogenase E2 protein] N6-S-acetyldihydrolipoyl-L-lysine	c
D-ALPHABETA-D-HEPTOSE-7-PHOSPHATE	D-glycero-D-manno-heptose 7-phosphate	p
Pyruvate-dehydrogenase-dihydrolipoate	a [pyruvate dehydrogenase E2 protein] N6-dihydrolipoyl-L-lysine	cp
Pyruvate-dehydrogenase-lipoate	a [pyruvate dehydrogenase E2 protein] N6-lipoyl-L-lysine	p
CPD-6442	methylsalicylate	c
CPD-184	2-pyrone-4,6-dicarboxylate	c
tRNA-Sec	a tRNAsec	c
Orthophosphoric-Monoesters	a phosphate monoester	c
CPDQT-429	indolylmethylisothiocyanate	c
tRNA-fragment	a tRNA fragment	p
NALPHANALPHA-DIMETHYL-L-HISTIDINE	N&alpha;,N&alpha;-dimethyl-L-histidine	cp
tRNA-pseudouridine-38-40	a pseudouridine38-40 in tRNA	p
CIS-ACONITATE	cis-aconitate	cp
CPDQT-434	indol-3-ylmethylisothiocyanate-glutathione	p
CPD-650	(3R)-3-hydroxybutanoyl-CoA	p
CPD-13940	Co&alpha;-[a-(5-methoxybenzimidazolyl)]-Co&beta;-adenosylcobamide 5'-phosphate	p
tRNA-uridine-38-40	a uridine38-40 in tRNA	c
CPD-16458	7,8-dihydrolumazine	p
CPDQT-520	phosphatidylglycerophosphate (1-octadecenoyl(9Z), 2-palmitoyl)	c
tRNA-uridine34	a uridine34 in tRNA	c
CPD-14018	icosapentaenoyl-CoA	p
CPD-16491	2,6-diamino-4-hydroxy-5-(N-methyl)formamidopyrimidine	p
Ox-Glutaredoxins	an oxidized glutaredoxin	p
Persulfurated-L-cysteine-desulfurases	an S-sulfanyl-[L-cysteine desulfurase]	p
MESO-TARTRATE	meso-tartrate	cp
DGDP	dGDP	cp
5-OXOPROLINE	5-oxo-L-proline	cp
PHENYLACETOTHIOHYDROXIMATE	(Z)-N-hydroxy-2-phenylacetimidothioate	cp
Ox-NADPH-Hemoprotein-Reductases	an oxidized [NADPH-hemoprotein reductase]	p
5-P-BETA-D-RIBOSYL-AMINE	5-phospho-&beta;-D-ribosylamine	cp
Ox-Thioredoxin	an oxidized thioredoxin	cp
Ubiquinols	an ubiquinol	cp
Hepta-oxo-hexadecanoyl-ACPs	a 3,5,7,9,11,13,15-hepta-oxo-hexadecanoyl-[PKS-acp]	c
Phenols	a phenol	p
MET	L-methionine	cp
CPD-106	(S)-4-hydroxymandelate	p
Phenyl-Acetates	a phenyl acetate	c
CPD-10600	4-hydroxybenzoyl-acetyl-CoA	c
Ubiquinones	a ubiquinone	cp
L-BETA-ASPARTYL-P	L-aspartyl-4-phosphate	cp
PHENYLHYDANTOIN	phenylhydantoin	c
Hexanoyl-ACPs	a hexanoyl-[acyl-carrier-protein]	c
Oxidized-2Fe-2S-Ferredoxins	an oxidized [2Fe-2S] ferredoxin	p
Monocarboxylates	a monocarboxylate	p
ACETYL-ACP	an acetyl-[acp]	c
CPD-10608	trans-dienelactone	c
L-CANALINE	L-canaline	p
Monocarboxylic-Acid-Amides	a monocarboxylic acid amide	c
Oxidized-CycA1-cytochromes	an oxidized CycA1 cytochrome	p
Unfolded-Proteins	an unfolded protein	cp
ACETYL-COA	acetyl-CoA	cp
NAPHTHALENE	naphthalene	c
DGTP	dGTP	cp
Unspecified-Degradation-Products	[unspecified degradation products]	p
Unsulfurated-Sulfur-Acceptors	an unsulfurated [sulfur carrier]	cp
5-P-RIBOSYL-N-FORMYLGLYCINEAMIDE	N2-formyl-N1-(5-phospho-&beta;-D-ribosyl)glycinamide	c
Unwound-DNA	an unwound double-stranded DNA	p
Oxidized-NrdH-Proteins	an oxidized NrdH glutaredoxin-like protein	p
METHACRYLYL-COA	methylacrylyl-CoA	cp
Histone-L-lysine	a [histone]-L-lysine	c
PROPIONYL-COA	propanoyl-CoA	cp
Oxidized-Rubredoxins	an oxidized rubredoxin	p
Unwound-RNA	an unwound RNA	p
5-PHOSPHO-RIBOSYL-GLYCINEAMIDE	N1-(5-phospho-&beta;-D-ribosyl)glycinamide	p
D-Amino-Acids	a D-amino acid	c
S-ALLANTOIN	(S)-(+)-allantoin	c
L-CITRULLINE	L-citrulline	cp
Hpr-Histidine	an [HPr]-L-histidine	c
Hpr-pi-phospho-L-histidines	an [HPr protein]-N&pi;-phospho-L-histidine	p
L-CYSTATHIONINE	L-cystathionine	c
Phosphoglucomutase	a phosphoglucomutase	cp
Myristoyl-ACPs	a myristoyl-[acp]	c
Phosphoglucosamine-Mutase	a phosphoglucosamine mutase	cp
N-5-PHOSPHORIBOSYL-ANTHRANILATE	N-(5-phosphoribosyl)-anthranilate	cp
5-PHOSPHORIBOSYL-5-AMINOIMIDAZOLE	5-amino-1-(5-phospho-&beta;-D-ribosyl)imidazole	cp
D-ERYTHRO-IMIDAZOLE-GLYCEROL-P	D-erythro-imidazole-glycerol-phosphate	c
CPD-10633	5-chloro-trans-dienelactone	c
Oxidized-ferredoxins	an oxidized ferredoxin [iron-sulfur] cluster	cp
VAL	L-valine	cp
VAL-tRNAs	a tRNAVal	c
PROT-CYS	a [protein]-L-cysteine	c
S-Alkyl-L-Cysteines	an S-alkyl-L-cysteine	cp
N-ACETYL-D-GLUCOSAMINE	N-acetyl-&beta;-D-glucosamine	cp
Phospholipid-Cyclopropane-Fatty-Acids	a [phospholipid] cyclopropane fatty acid	p
CPD-10634	5-chloromaleylacetate	p
N-ACETYL-D-GLUCOSAMINE-1-P	N-acetyl-&alpha;-D-glucosamine 1-phosphate	p
Phospholipid-Olefinic-Fatty-Acids	a [phospholipid] olefinic fatty acid	c
D-GALACTARATE	D-galactarate	c
TusE-S-sulfanylcysteine	a [TusE sulfur carrier protein]-S-sulfanylcysteine	c
LIPOIC-ACID	(R)-lipoate	c
CPD-11643	two adjacent thymidines in DNA	p
DNA-Adjacent-Pyrimidines	two adjacent pyrimidine nucleosides in DNA	p
3-KETO-ADIPATE	3-oxoadipate	c
LIPOYL-AMP	lipoyl-adenylate	cp
FERULIC-ACID	ferulate	cp
CPD-11740	carboxyphosphinopyruvate	cp
Damaged-DNA-Pyrimidine	a damaged DNA pyrimidine	c
DNA-Combined-With-Exogenous-DNA	DNA combined with exogenous DNA to form a recombinational junction	c
Oxo-glutarate-dehydro-suc-DH-lipoyl	a [2-oxoglutarate dehydrogenase E2 protein] N6-S-succinyldihydrolipoyl-L-lysine	cp
UDP	UDP	cp
FERULOYL-COA	feruloyl-CoA	p
Decanoyl-ACPs	a decanoyl-[acp]	c
Oxo-glutarate-dehydrogenase-DH-lipoyl	a [2-oxoglutarate dehydrogenase E2 protein] N6-dihydrolipoyl-L-lysine	cp
STEAROYL-COA	stearoyl-CoA	p
CPD-8524	N-carbamoyl-D-phenylglycine	p
HISTIDINAL	histidinal	cp
UDP-4-AMINO-4-DEOXY-L-ARABINOSE	UDP-4-amino-4-deoxy-&beta;-L-arabinopyranose	cp
DNA-Cytidines	a 2'-deoxycytidine in DNA	p
Delta4-hexadecenoyl-ACPs	a (4Z)-hexadec-4-enoyl-[acp]	c
CPD-11770	7,8-dihydromonapterin	c
CPD-8534	DNA without lesion	p
Oxo-glutarate-dehydrogenase-lipoyl	a [2-oxoglutarate dehydrogenase E2 protein] N6-lipoyl-L-lysine	cp
CANAVANINOSUCCINATE	canavaninosuccinate	cp
CPD-8579	a [histone] N6-methyl-L-lysine	p
CPD-8624	a [protein]-L-proline (&omega; = 180)	cp
LL-DIAMINOPIMELATE	L,L-diaminopimelate	cp
UDP-AA-GLUTAMATE	UDP-N-acetyl-&alpha;-D-muramoyl-L-alanyl-D-glutamate	cp
SUC	succinate	cp
CARBAMATE	carbamate	cp
CPD-8625	a [protein]-L-proline (&omega; = 0)	cp
D-GALACTONATE	D-galactonate	c
SUC-COA	succinyl-CoA	cp
P-AMINO-BENZOATE	4-aminobenzoate	cp
CPD-11855	(R)-4-hydroxy-4-methyl-2-oxoglutarate	cp
CPD-8742	(3E)-2-oxohex-3-enedioate	cp
Deoxy-Ribonucleoside-Diphosphates	a 2'-deoxyribonucleoside 5'-diphosphate	p
UDP-AAGM-DIAMINOHEPTANEDIOATE	UDP-N-acetyl-&alpha;-D-muramoyl-L-alanyl-&gamma;-D-glutamyl-meso-2,6-diaminopimelate	cp
SUCC-S-ALD	succinate semialdehyde	cp
Deoxy-Ribonucleoside-Monophosphates	a 2'-deoxyribonucleoside 5'-monophosphate	p
P-COUMAROYL-COA	4-coumaroyl-CoA	cp
CPD-121	(R)-mandelate	c
CARBAMOYL-P	carbamoyl phosphate	cp
UDP-ACETYL-CARBOXYVINYL-GLUCOSAMINE	UDP-N-acetyl-&alpha;-D-glucosamine-enolpyruvate	cp
Deoxy-Ribonucleoside-Triphosphates	a 2'-deoxyribonucleoside 5'-triphosphate	c
DNA-Holder	DNA	p
CPD-12112	salicyloyl-CoA	c
CPD-8815	2,4-dihydroxybenzoate	c
CPD-12173	(S)-3-hydroxy-isobutanoyl-CoA	cp
3-KETO-ADIPYL-COA	3-oxoadipyl-CoA	cp
FMN	FMN	cp
CARBAMYUL-L-ASPARTATE	N-carbamoyl-L-aspartate	cp
CPD-12175	(S)-3-hydroxy-isobutanoate	cp
CPD-8978	ethylphosphate	c
LYS	L-lysine	cp
LYS-tRNAs	a tRNALys	c
4-IMIDAZOLONE-5-PROPIONATE	4-imidazolone-5-propanoate	cp
FMNH2	FMNH2	cp
4-MALEYL-ACETOACETATE	4-maleyl-acetoacetate	c
CPD0-1905	8-oxo-dGTP	c
CPD-18492	(2E,6Z,9Z,12Z,15Z,18Z)-tetracosahexaenoyl-CoA	c
RX	RX	c
P-HYDROXY-PHENYLPYRUVATE	4-hydroxyphenylpyruvate	cp
2K-4CH3-PENTANOATE	4-methyl-2-oxopentanoate	cp
CPD-18493	(3S)-hydroxy-(6Z,9Z,12Z,15Z,18Z)-tetracosapentaenoyl-CoA	p
CPD0-1958	3-(N-morpholino)propanesulfonate	c
D-GLT	D-glutamate	cp
2K-ADIPATE	2-oxoadipate	cp
AMINOMETHYLDIHYDROLIPOYL-GCVH	a [glycine-cleavage complex H protein] N6-aminomethyldihydrolipoyl-L-lysine	cp
CPD-18494	3-oxo-(6Z,9Z,12Z,15Z,18Z)-tetracosapentaenoyl-CoA	c
Initiation-tRNAmet	initiator tRNAMet	c
CPD0-2015	N-acetyl-L-methionine	p
CPD-18495	5-methoxy-6-methylbenzimidazole	c
P-RIBOSYL-4-SUCCCARB-AMINOIMIDAZOLE	5'-phosphoribosyl-4-(N-succinocarboxamide)-5-aminoimidazole	cp
ACETYL-GLU	N-acetyl-L-glutamate	cp
CPD-18497	5-hydroxy-benzimidazole	c
CPD0-2018	5-methylcytosine	c
D-GLUCARATE	D-glucarate	c
CPD-18532	(R)-&beta;-hydroxy-L-kynurenine	p
CPD0-2030	glycerophosphoserine	c
AMMONIUM	ammonium	cp
D-GLUCOSAMINE-6-P	D-glucosamine 6-phosphate	cp
CPD-18539	(R)-N-formyl-&beta;-hydroxy-L-kynurenine	c
CPD0-2105	3-oxododecanoyl-CoA	cp
tRNA-uridines	a uridine in tRNA	c
S-CD-S-SP-Complex	an S-sulfanyl-[cysteine desulfurase]-S-sulfanyl-[disordered-form scaffold protein] complex	p
ADENYLOSUCC	adenylo-succinate	cp
CIS-D2-ENOYL-COA	a cis-2-enoyl-CoA	cp
CPD-10636	2,5-dichloro-trans-dienelactone	c
tRNA-with-7-aminomethyl-7-deazaguanine	a 7-aminomethyl-7-deazaguanosine34 in tRNA	cp
QUEUINE	queuine	c
tRNAs	an uncharged tRNA	p
CPD-19782	(3E)-5-chloro-2-oxopent-3-enoate	c
CPD-10637	2,5-dichloromaleylacetate	p
3-KETOACYL-COA	a 3-oxoacyl-CoA	cp
CPD-3724	uridine 3'-monophosphate	cp
tRNAs-containing-epoxy-quenosine	an epoxyqueuosine34 in tRNA	cp
S-HYDROXYMETHYLGLUTATHIONE	S-(hydroxymethyl)glutathione	c
3-KETOBUTYRATE	acetoacetate	cp
CPD-19833	roseoflavin	c
3-Ketoglutaryl-ACP-methyl-ester	a 3-oxo-glutaryl-[acp] methyl ester	cp
S-LACTOYL-GLUTATHIONE	(R)-S-lactoylglutathione	cp
GERANYL-PP	geranyl diphosphate	cp
3-Ketopimeloyl-ACP-methyl-esters	a 3-oxo-pimeloyl-[acp] methyl ester	cp
tRNAs-with-queuine	a queuosine34 in tRNA	p
NIACINAMIDE	nicotinamide	c
CPD-19839	roseoflavin 5'-phosphate	cp
CIT	citrate	cp
CPD-654	2,5-dioxopentanoate	p
QUINOLINATE	quinolinate	cp
CPD-10663	5-chlorosalicylate	c
CPD-19840	roseoflavin adenine dinucleotide	p
CPD-658	CDP-4-dehydro-6-deoxy-D-glucose	cp
CPD-3725	uridine 2'3'-cyclic monophosphate	c
GLC-1-P	&alpha;-D-glucopyranose 1-phosphate	cp
CPD-201	4-hydroxybenzoyl-CoA	cp
TREHALOSE	&alpha;,&alpha;-trehalose	p
CPD-10664	5-methylsalicylate	c
3-MERCAPTO-PYRUVATE	3-mercaptopyruvate	c
TREHALOSE-6P	&alpha;,&alpha;-trehalose 6-phosphate	cp
GLC-D-LACTONE	D-glucono-1,5-lactone	cp
S-NITROSOGLUTATHIONE	S-nitrosoglutathione	c
CPD-66	2-hydroxy-3-oxosuccinate	cp
3-METHYL-CROTONYL-COA	3-methylcrotonyl-CoA	cp
D-HEXOSE-6-PHOSPHATE	D-hexose 6-phosphate	p
CPD-3734	thiophosphate	p
CPD-206	phytanoyl-CoA	c
CPD-10750	UDP-2-acetamido-2,6-dideoxy-&beta;-L-arabino-hex-4-ulose	cp
CPD-663	UDP-4-dehydro-6-deoxy-&alpha;-D-glucose	cp
S-Substituted-Glutathione	a glutathione-toxin conjugate	p
CPD-3740	djenkolate	c
S-Substituted-L-Cysteines	an L-cysteine-S-conjugate	cp
GLN	L-glutamine	cp
NIACINE	nicotinate	cp
GLN-tRNAs	a tRNAGln	c
CPD-3744	1-butanesulfonate	c
CPD-10751	UDP-4-amino-4,6-dideoxy-N-acetyl-&beta;-L-altrosamine	cp
CPD-14053	(6R)-L-erythro-5,6,7,8-tetrahydrobiopterin	c
TDP	dTDP	cp
D-Hexoses	a D-hexose	c
5-PHOSPHORIBOSYL-N-FORMYLGLYCINEAMIDINE	2-(formamido)-N1-(5-phospho-&beta;-D-ribosyl)acetamidine	cp
Arachidoyl-ACPs	an arachidoyl-[acp]	c
2-Me-Branched-234-Sat-FA	a 2-methyl branched 2,3,4-saturated fatty acid	c
2-Me-Branched-234-Sat-Fatty-Acyl-CoA	a 2-methyl branched 2,3,4-saturated fatty acyl-CoA	p
Aromatic-Amino-Acids	an aromatic amino acid	cp
DNA-Ligase-L-lysine	a [DNA ligase]-L-lysine	cp
DI-H-OROTATE	(S)-dihydroorotate	cp
Aromatic-Oxoacids	an aromatic 2-oxo-acid	cp
CPD-14202	L-erythro-7,8-dihydrobiopterin	p
D-LACTATE	(R)-lactate	p
5-Phospho-terminated-DNAs	a 5'-phospho-[DNA]	cp
N-ACETYL-D-MANNOSAMINE	N-acetyl-&beta;-D-mannosamine	cp
IDP	IDP	cp
Aryl-sulfates	an aryl sulfate	c
2-OCTAPRENYL-6-HYDROXYPHENOL	3-(all-trans-octaprenyl)benzene-1,2-diol	c
DNA-Ligase-L-lysine-adenylate	a [DNA ligase]-N6-(5'-adenylyl)-L-lysine	cp
CPD-14268	(15Z)-tetracosenoate	c
5-phosphooligonucleotides	a 5'-phosphooligonucleotide	p
HISTIDINOL	histidinol	cp
DI-H-URACIL	5,6-dihydrouracil	cp
CPD-14269	(Z)-15-tetracosenoyl-CoA	p
2-OCTAPRENYL-6-METHOXYPHENOL	2-methoxy-6-(all-trans-octaprenyl)phenol	p
B-ALANINE	&beta;-alanine	cp
N-ACETYL-GLUTAMYL-P	N-acetylglutamyl-phosphate	cp
D-METHYL-MALONYL-COA	(S)-methylmalonyl-CoA	cp
TETRACHLOROHYDROQUINONE	2,3,5,6-tetrachlorohydroquinone	c
METHIONYL-PEPTIDE	an N-terminal L-methionyl-[protein]	p
ILE	L-isoleucine	cp
DIACYLGLYCEROL	a 1,2-diacyl-sn-glycerol	c
CPD-14443	(2S,4S)-4-hydroxy-2,3,4,5-tetrahydrodipicolinate	cp
ILE-tRNAs	a tRNAIle	c
D-MYO-INOSITOL-1-MONOPHOSPHATE	1D-myo-inositol 1-monophosphate	c
B-KETOACYL-ACP	a 3-oxoacyl-[acp]	cp
FORMALDEHYDE	formaldehyde	p
NICOTINAMIDE_NUCLEOTIDE	&beta;-nicotinamide D-ribonucleotide	cp
2-OCTAPRENYLPHENOL	2-octaprenylphenol	p
NICOTINAMIDE_RIBOSE	1-(&beta;-D ribofuranosyl)nicotinamide	p
K+	K+	cp
PROTEIN-L-BETA-ISOASPARTATES	a [protein]-L-&beta;-isoaspartate	c
CREATINE	creatine	cp
L-CYSTEATE	L-cysteate	cp
PROTEIN-L-BETA-ISOSPARTATE-METHYL-ESTERS	a protein L-&beta;-isoaspartate &alpha;-methyl ester	p
CPD-16549	3-(N-morpholino)propanal	p
DNA-N	DNAn	cp
PROTEIN-LIPOYLLYSINE	a [glycine-cleavage complex H protein] N6-lipoyl-L-lysine	cp
L-Cysteine-Desulfurase-persulfide	an [L-cysteine desulfurase]-S-sulfanyl-L-cysteine	cp
K-HEXANOYL-COA	3-oxohexanoyl-CoA	p
L-Cysteine-Desulfurases	an [L-cysteine desulfurase]	c
CPD-16606	UDP-2-acetamido-4-amino-2,4,6-trideoxy-&alpha;-D-galactose	cp
L-DELTA1-PYRROLINE_5-CARBOXYLATE	(S)-1-pyrroline-5-carboxylate	cp
L-GAMMA-GLUTAMYLCYSTEINE	&gamma;-L-glutamyl-L-cysteine	cp
ADP	ADP	cp
GTP	GTP	cp
VANILLATE	vanillate	c
CPD-16953	2-amino-6-[1-hydroxyethyl]-7-methyl-7,8-dihydropterin	c
CREATININE	creatinine	cp
D-SEDOHEPTULOSE-7-P	D-sedoheptulose 7-phosphate	cp
CPD-16954	[1-(2-amino-7-methyl-4-oxo-7,8-dihydro-3H-pteridin-6-yl)]ethyl diphosphate	p
D-SERINE	D-serine	c
CPD-17045	3-benzyl-3,6-dihydroxy-6-(hydroxymethyl)-diketopiperazine	c
CPD-17046	3-benzyl-3,6 -bis(glutathione)- 6-(hydroxymethyl)-diketopiperazine	p
CPD-18550	quinoxaline-2-carboxyl adenylate	c
DNA-Segment-Placeholder	a DNA segment	cp
NICOTINATE_NUCLEOTIDE	&beta;-nicotinate D-ribonucleotide	cp
CPD0-2106	3-oxooctanoyl-CoA	cp
CPD-187	4-hydroxy-4-methyl-2-oxoglutarate	p
CPD-3745	isethionate	c
AMP	AMP	cp
CPD-9049	cobyrinate	c
Phosphorylated-Phosphoglucosamine-Mutase	a phosphorylated phosphoglucosamine mutase	cp
Diacylglycerol-Prolipoproteins	an [apolipoprotein]-(S-diacylglyceryl)-L-cysteine	p
UDP-MURNAC-TETRAPEPTIDE	UDP-N-acetylmuramoyl-L-alanyl-&gamma;-D-glutamyl-meso-2,6-diaminopimeloyl-D-alanine	p
Phosphorylated-phosphoglucomutase	a phosphorylated phosphoglucomutase	cp
CL-	chloride	cp
DNA-Segment-in-Reverse-Orientations	a DNA segment in reverse orientation	cp
QXC-ACP	a quinoxaline-2-carboxyl-[acyl-carrier protein]	p
Phosphoserines	L(or D)-O-phosphoserine	c
METHYL-GLYOXAL	methylglyoxal	cp
Dihydro-Lipoyl-Proteins	a [lipoyl-carrier protein] N6-dihydrolipoyl-L-lysine	c
CPD-12179	methylmalonate semialdehyde	c
CARBON-DIOXIDE	CO2	cp
DNA-With-GO	a 7,8-dihydro-8-oxoguanine in DNA	c
CPD-9152	4-chlorocatechol	p
CPD-3762	5-amino-4-imidazolecarboxyamide	c
4-METHYLCATECHOL	4-methylcatechol	p
CPD-12199	3S-(4-hydroxyphenyl)-3-hydroxy-propanoyl-CoA	p
D-XYLULOSE	D-xylulose	cp
PHOSPHO-ENOL-PYRUVATE	phosphoenolpyruvate	cp
CPD-19014	2-hydroxy-2-methylpropanoate	p
IMIDAZOLE-ACETOL-P	imidazole acetol-phosphate	cp
CPD0-2113	1-stearoyl-sn-glycerol 3-phosphate	p
UDP-N-ACETYL-D-GLUCOSAMINE	UDP-N-acetyl-&alpha;-D-glucosamine	cp
TETRADEHYDROACYL-COA	a (2E,4E)-alkane-2,4-dienoyl-CoA	c
DNA-With-GO-A-Mismatch	DNA with adenine:7,8-dihydro-8-oxoguanine mismatch	c
Quinones	a quinone	c
UDP-N-ACETYLMURAMATE	UDP-N-acetyl-&alpha;-D-muramate	cp
Pi	phosphate	cp
METHYL-MALONYL-COA	(R)-methylmalonyl-CoA	cp
CPD-9169	2-hydroxylaminobenzoate	c
R-2-Haloacids	an (R)-2-haloacid	c
THF-GLU-N	a tetrahydrofolate	cp
CPD-19042	2-hydroxyisobutyramide	c
CPD0-2117	trans-hexadec-2-enoyl-CoA	c
R-2-Hydroxyacids	an (R)-2-hydroxyacid	p
4-NITROANILINE	4-nitroaniline	p
CPD-122	(S)-mandelate	p
Pimeloyl-ACPs	a pimeloyl-[acp]	c
CPD-3766	menadione	c
CPD-19144	(7Z)-hexadecenoyl-CoA	cp
CPD-9245	palmitoleate	c
Diribonucleotide	a diribonucleotide	p
DNA-With-Hypoxanthines	a DNA with hypoxanthine	c
CPD-19147	(7Z)-tetradecenoyl-CoA	cp
CPD-12279	2-iminoacetate	cp
CPD-9247	cis-vaccenate	c
R-3-Hydroxypalmitoyl-ACPs	a (3R)-3-hydroxypalmitoyl-[acp]	p
CPD0-2121	trans-hex-2-enoyl-CoA	p
4-OH-4-ACETYL-2-OXOGLUTARATE	2-hydroxy-4-oxobutane-1,2,4-tricarboxylate	cp
R-3-hydroxy-cis-vaccenoyl-ACPs	(R)-3-hydroxy-cis-vacc-11-enoyl-[acp]	p
CARBON-MONOXIDE	carbon monoxide	p
CMP	CMP	cp
4-OXALOMESACONATE	(1E)-4-oxobut-1-ene-1,2,4-tricarboxylate	cp
R-3-hydroxyarachidoyl-ACPs	a (3R)-3-hydroxyarachidoyl-[acp]	p
CPD-19148	(5Z)-dodecenoyl-CoA	cp
D-Xylopyranose	D-xylopyranose	cp
R-3-hydroxybehenoyl-ACPs	a (3R)-3-hydroxybehenoyl-[acp]	p
CPD-12365	8-oxo-dGMP	p
CMP-KDO	CMP-3-deoxy-&beta;-D-manno-octulosonate	cp
CPD-380	3-sulfopyruvate	cp
R-3-hydroxycerotoyl-ACPs	a (3R)-3-hydroxycerotoyl-[acp]	p
CPD-9385	&gamma;-glutamyl-p-nitroanilide	c
Dodecanoyl-ACPs	a dodecanoyl-[acp]	c
CPD-19150	(2E,5Z)-dodecenoyl-CoA	cp
CPD0-2123	3-oxodecanoyl-CoA	c
R-3-hydroxydodecanoyl-ACPs	a (3R)-3-hydroxydodecanoyl-[acp]	p
Donor-H2	a reduced electron acceptor	cp
THIAMINE-P	thiamine phosphate	cp
ACETYLSERINE	O-acetyl-L-serine	cp
R-3-hydroxyhexanoyl-ACPs	a (3R)-3-hydroxyhexanoyl-[acp]	p
CPD-667	O-acetyl-L-homoserine	cp
P3I	PPPi	p
DNA-containing-a-Apyrimidinic-Sites	an apyrimidinic site in DNA	p
S2O3	thiosulfate	cp
BCAA-dehydrogenase-DH-lipoyl	an [apo BCAA dehydrogenase E2 protein] N6-dihydrolipoyl-L-lysine	cp
DIAMINO-OH-PHOSPHORIBOSYLAMINO-PYR	2,5-diamino-6-(5-phospho-D-ribosylamino)pyrimidin-4(3H)-one	c
BCAA-dehydrogenase-lipoyl	an [apo BCAA dehydrogenase E2 protein] N6-lipoyl-L-lysine	cp
CTP	CTP	cp
NITRITE	nitrite	p
BCCP-L-lysine	a [biotin carboxyl-carrier protein]-L-lysine	c
AICAR	5-amino-1-(5-phospho-D-ribosyl)imidazole-4-carboxamide	cp
CPD-14675	pristanoyl-CoA	p
DNA-containing-aPurinic-Sites	an apurinic site within DNA	p
SACCHAROPINE	L-saccharopine	c
CPD-67	2-phosphoglycolate	c
BCCP-biotin-L-lysine	a [biotin carboxyl-carrier protein]-biotin-N6-L-lysine	p
GLT	L-glutamate	cp
CPD-6746	1D-myo-inositol 2-monophosphate	c
FORMATE	formate	p
D-glucopyranose-6-phosphate	D-glucopyranose 6-phosphate	cp
GLT-tRNAs	a tRNAglu	p
BENZIMIDAZOLE	benzimidazole	c
CPD-14704	4-hydroxy-2-nonenal-glutathione conjugate	p
DNA-containing-abasic-Sites	a DNA containing an apurinic/apyrimidinic site	cp
PROTOHEME	ferroheme b	cp
CPD-14736	L-kynurenine	cp
CO+2	Co2+	c
3-4-DIHYDROXYBENZOATE	protocatechuate	cp
SALICYLALDEHYDE	salicylaldehyde	c
SULFATE	sulfate	cp
CPD-676	trans-caffeate	c
DATP	dATP	p
CPD-14772	hexadecanedioyl-CoA	cp
Light	h&nu;	c
DADP	dADP	cp
DNA-containing-diamino-hydro-formamidops	a ring-opened 7-methylguanine in DNA	c
Lignoceroyl-ACPs	a lignoceroyl-[acp]	c
CPD-148	n-octane	c
FORMYL-L-METHIONYL-PEPTIDE	a [protein] N-terminal-formyl-L-methionine	c
BIO-5-AMP	biotinyl-5'-adenylate	p
CPD-678	hydrogen selenide	c
FORMYL-THF-GLU-N	an N10-formyl-tetrahydrofolate	cp
CPD-14828	1-C16:0-&alpha;,&omega;-dicarboxyl-2-lysophosphatidate	cp
Lipid-dihydrosterculate	a [glycerolipid]-dihydrosterculate	p
DCDP	dCDP	cp
GUANINE	guanine	cp
3-5-ADP	adenosine 3',5'-bisphosphate	p
DNA-deoxycytidine-dimer	a dimer of non-adjacent 2'-deoxycytidines in DNA	c
L-GLUTAMATE-5-P	&gamma;-L-glutamyl 5-phosphate	cp
3-METHYLTHIOPROPYLHYDROXAMIC-ACID	(E)-N-hydroxy-4-(methylsulfanyl)butimidothioate	cp
3-Methyl-Saturated-Fatty-Acids	a 3-methyl-branched 2,3,4-saturated fatty acid	c
2-OH-3-Methyl-Saturated-Fatty-Acyl-CoA	a 2-hydroxy-3-methyl-branched 2,3,4-saturated fatty acyl-CoA	p
3-Methyl-Saturated-Fatty-Acyl-CoA	a 3-methyl-branched 2,3,4-saturated fatty acyl-CoA	cp
2-OXOBUTANOATE	2-oxobutanoate	p
GLY	glycine	cp
CPD-20735	two adjacent 2'-deoxycytidines in DNA	p
GLYCERALD	D-glyceraldehyde	p
CPD-20736	adjacent 2'-deoxycytidine-thymidine in DNA	p
DNA-deoxycytidine-thymidine-dimer	a dimer of non-adjacent 2'-deoxycytidine and thymidine in DNA	c
CPD-20737	adjacent thymidine-2'-deoxycytidine in DNA	p
CPD-20741	a dimer of adjacent 2'-deoxycytidines in DNA	c
CPD-20742	a dimer of adjacent thymidines in DNA	c
PALMITATE	palmitate	cp
CPD-20743	a dimer of adjacent 2'-deoxycytidine and thymidine in DNA	c
3-OCTAPRENYL-4-HYDROXYBENZOATE	3-octaprenyl-4-hydroxybenzoate	cp
DNA-pyrimidines	a pyrimidine nucleoside in DNA	p
CPD-20744	a dimer of adjacent thymidine and 2'-deoxycytidine in DNA	c
L-GLUTAMATE_GAMMA-SEMIALDEHYDE	L-glutamate-5-semialdehyde	cp
ANTHRANILATE	anthranilate	cp
CPD-20826	7-(5-phospho-&alpha;-D-ribosyl)adenine	p
VERY-LONG-CHAIN-FATTY-ACYL-COA	a very long chain fatty acyl-CoA	p
GLYCERATE	D-glycerate	cp
CPD-20827	phenolyl-Co&beta;-adenosylcobamide 5'-phosphate	p
PALMITYL-COA	palmitoyl-CoA	p
CPD-20828	4-methylphenolyl-Co&beta;-adenosylcobamide 5'-phosphate	p
DNA-thymidine-deoxycytidine-dimer	a dimer of non-adjacent thymidine and 2'-deoxycytidine in DNA	c
CPD-20829	[(2R,3S,4R,5S)-5-(1,3-benzodiazol-1-yl)-3,4-dihydroxyoxolan-2-yl]methyl phosphate	cp
CPD-1078	CDP-4-dehydro-3,6-dideoxy-D-glucose	p
2-Oxo-carboxylates	a 2-oxo carboxylate	p
3-OXO-EICOSAPENTAENOYL-ACP	a 3-oxo-docosapentaenoyl [acp]	c
CPD-20830	[(2R,3S,4R,5S)-3,4-dihydroxy-5-(5-hydroxy-1,3-benzodiazol-1-yl)oxolan-2-yl]methyl phosphate	p
CPD-20831	[(2R,3S,4R,5S)-3,4-dihydroxy-5-(5-methoxy-1,3-benzodiazol-1-yl)oxolan-2-yl]methyl phosphate	cp
DNA-thymidine-dimer	a dimer of non-adjacent thymidines in DNA	c
Very-long-chain-fatty-acids	a very-long-chain fatty acid	c
CPD-20832	[(2R,3S,4R,5S)-3,4-dihydroxy-5-(5-methoxy-6-methyl-1,3-benzodiazol-1-yl)oxolan-2-yl]methyl phosphate	cp
APS	adenosine 5'-phosphosulfate	cp
GUANOSINE	guanosine	p
CPD-20833	Co&alpha;-[a-(benzimidazolyl)]-Co&beta;-adenosylcobamide 5'-phosphate	p
L-GULONATE	L-gulonate	p
CPD-10791	6-deoxy-5-ketofructose 1-phosphate	p
GLYCEROL	glycerol	cp
CPD-20836	Co&alpha;-[a-(5-methoxy-6-methyl-benzimidazolyl)]-Co&beta;-adenosylcobamide 5'-phosphate	p
2-PG	2-phospho-D-glycerate	cp
GUANOSINE-5DP-3DP	ppGpp	cp
2-PHOSPHO-4-CYTIDINE-5-DIPHOSPHO-2-C-MET	2-phospho-4-(cytidine 5'-diphospho)-2-C-methyl-D-erythritol	p
CPD-20838	[(2R,3S,4R,5S)-3,4-dihydroxy-5-(5-methyl-1,3-benzodiazol-1-yl)oxolan-2-yl]methyl phosphate	cp
GLYCEROL-3P	sn-glycerol 3-phosphate	cp
ARABINOSE-5P	aldehydo-D-arabinose 5-phosphate	cp
CPD-20839	Co&alpha;-[a-(5-methylbenzimidazolyl)]-Co&beta;-adenosylcobamide 5'-phosphate	p
THIAMINE-PYROPHOSPHATE	thiamine diphosphate	p
DNA-thymidines	a thymidine in DNA	p
CPD-9437	(S)-2-formylglutarate	p
KDO	3-deoxy-&alpha;-D-manno-2-octulosonate	cp
CPD-17063	ferroheme o	p
PHOSPHORIBOSYL-AMP	1-(5-phospho-&beta;-D-ribosyl)-AMP	cp
L-GULONO-1-4-LACTONE	L-gulono-1,4-lactone	c
KDO-8P	3-deoxy-D-manno-octulosonate 8-phosphate	cp
IMINOASPARTATE	2-iminosuccinate	cp
CPD-17189	pseudo-adenosyl cobamide	p
5S-rRNAs	a 5S rRNA	p
CPD-9451	2-isopropylmaleate	cp
PHOSPHORIBOSYL-ATP	1-(5-phospho-&beta;-D-ribosyl)-ATP	cp
DNA-with-Uracils	a uracil in DNA	c
CPD-173	salicyl alcohol	p
L-Glutamyl-Peptides	an N-terminal L-glutamyl-[protein]	c
CPD-17312	docosahexaenoyl-CoA	p
HMP	4-amino-2-methyl-5-pyrimidinemethanol	c
CPD-9612	caldariellaquinone	c
L-HISTIDINOL-P	L-histidinol phosphate	cp
5Z-3-oxo-tetradec-5-enoyl-ACPs	a (5Z)-3-oxo-tetradec-5-enoyl-[acp]	cp
N-ALPHA-ACETYLORNITHINE	N-acetyl-L-ornithine	cp
IMP	IMP	cp
Polysaccharides	a polysaccharide	p
PANTETHEINE-P	4'-phosphopantetheine	c
PHOSPHORIBOSYL-CARBOXY-AMINOIMIDAZOLE	5-amino-1-(5-phospho-D-ribosyl)imidazole-4-carboxylate	cp
Negatively-super-coiled-DNAs	a negatively supercoiled DNA	cp
KDO-LIPID-IVA	&alpha;-Kdo-(2&rarr;6)-lipid IVA	p
5Z-tetradec-5-enoyl-ACPs	a (5Z)-tetradec-5-enoyl-[acp]	c
CPD-9699	hypoglycin A	c
5Z8Z11Z14Z17Z-EICOSAPENTAENOATE	icosapentaenoate	c
N-Acetyl-beta-D-Hexosaminides	an N-acetyl-&beta;-D-hexosaminide	c
CPD-9700	hypoglycin B	p
L-LACTATE	(S)-lactate	c
N-Acylated-Aliphatic-Amino-Acids	an N-acylated aliphatic-L-amino acid	c
CPD-17365	(4Z,7Z,10Z,13Z,16Z)-docosapentaenoyl-CoA	p
6-AMINOPENICILLANATE	6-aminopenicillanate	cp
UDP-OHMYR-ACETYLGLUCOSAMINE	UDP-3-O-[(3R)-3-hydroxymyristoyl]-N-acetyl-&alpha;-D-glucosamine	c
DODECANOATE	laurate	c
Prolipoprotein-Cysteines	a [prolipoprotein]-L-cysteine	c
CPD-9869	all trans-decaprenyl-2-methoxy-6-1,4-benzoquinol	c
Double-Stranded-DNAs	a double stranded DNA	cp
R-3-hydroxylignoceroyl-ACPs	a (3R)-3-hydroxylignoceroyl-[acp]	p
CPD-19151	(S)-3-hydroxy-(5Z)-dodecenoyl-CoA	p
R-3-hydroxymyristoyl-ACPs	a (3R)-3-hydroxymyristoyl-[acp]	cp
CPD0-2171	(S)-3-hydroxytetradecanoyl-CoA	p
Double-helix-DNA	a double-helix DNA	c
PROTON	H+	cp
R-3-hydroxypetroselinoyl-ACPs	a (3R)-3-hydroxypetroselinoyl-[acp]	p
CPD-4211	dimethylallyl diphosphate	cp
Drugs	a drug	cp
3-CARBOXY-3-HYDROXY-ISOCAPROATE	(2S)-2-isopropylmalate	cp
DPG	3-phospho-D-glyceroyl-phosphate	cp
PHOSPHORIBOSYL-FORMAMIDO-CARBOXAMIDE	5-formamido-1-(5-phospho-D-ribosyl)-imidazole-4-carboxamide	cp
Lipoprotein-signal-peptide	a lipoprotein signal peptide	p
CPD-19153	3-oxo-(5Z)-dodecenoyl-CoA	c
R-3-hydroxystearoyl-ACPs	a (3R)-3-hydroxystearoyl-[acp]	p
4-P-PANTOTHENATE	(R)-4'-phosphopantothenate	p
Lipoyl-Protein-L-Lysine	a [lipoyl-carrier protein]-L-lysine	c
PHOSPHORIBOSYL-FORMIMINO-AICAR-P	1-(5-phospho-&beta;-D-ribosyl)-5-[(5-phosphoribosylamino)methylideneamino]imidazole-4-carboxamide	cp
Lipoyl-Protein-N6-lipoyllysine	a [lipoyl-carrier protein]-N6-lipoyl-L-lysine	p
CPD-19154	(S)-3-hydroxy-(7Z)-tetradecenoyl-CoA	p
CPD0-2231	dIDP	cp
DCMP	dCMP	c
4-PHOSPHONOOXY-THREONINE	4-phosphooxy-L-threonine	cp
CPD-19155	(S)-3-hydroxy-(9Z)-hexadecenoyl-CoA	p
TRP	L-tryptophan	cp
4-hydroxybenzoate	4-hydroxybenzoate	cp
DCTP	dCTP	cp
TRP-tRNAs	a tRNATrp	c
CPD-19157	3-oxo-(7Z)-tetradecenoyl-CoA	c
CPD-68	1-aminocyclopropane-1-carboxylate	c
CPD0-2232	(S)-3-hydroxyhexadecanoyl-CoA	p
PHOSPHORIBULOSYL-FORMIMINO-AICAR-P	phosphoribulosylformimino-AICAR-phosphate	p
3-DEHYDRO-SHIKIMATE	3-dehydroshikimate	cp
Long-Chain-Acyl-CoAs	a long-chain acyl-CoA	p
CPD-465	presqualene diphosphate	cp
CPD-19158	3-oxo-(9Z)-hexadecenoyl-CoA	c
Long-Chain-Fatty-Acids	a long-chain fatty acid	c
CPD-687	hydrogenobyrinate	c
SARCOSINE	sarcosine	c
CPD-19159	(S)-3-hydroxy-(11Z)-octadecenoyl-CoA	p
Long-Chain-Polyphosphate	long chain polyphosphate	cp
CPD0-2244	(S)-3-hydroxydecanoyl-CoA	p
CPD-19160	3-oxo-(11Z)-octadecenoyl-CoA	c
PANTOTHENATE	(R)-pantothenate	cp
CPD-688	hydrogenobyrinate a,c-diamide	cp
ACP	a holo-[acyl-carrier protein]	cp
Gcv-H	[glycine cleavage system lipoyl-carrier protein]-L-lysine	c
CPD0-2298	(S)-ureidoglycine	p
LysW-L-glutamate	a [2-aminoadipate carrier protein]-L-glutamate	c
CPD-468	L-2-aminoadipate	cp
General-Protein-Substrates	a protein	cp
ACRYLAMIDE	acrylamide	c
CPD-19161	(2E,7Z)-tetradecenoyl-CoA	cp
2-ACETO-LACTATE	(S)-2-acetolactate	c
1-CARBOXYVINYL-CARBOXYPHOSPHONATE	1-carboxyvinyl carboxyphosphonate	cp
CO-A	coenzyme A	cp
CARBOXYPHENYLAMINO-DEOXYRIBULOSE-P	1-(o-carboxyphenylamino)-1'-deoxyribulose 5'-phosphate	cp
BIOTIN	biotin	cp
METHYLAMINE	methylamine	p
1-CHLORO-24-DINITROBENZENE	1-chloro-2,4-dinitrobenzene	cp
2-AMINO-3-3-OXOPROP-2-ENYL-BUT-2-ENEDI	aminocarboxymuconate semialdehyde	c
DIHYDRO-DIOH-BENZOATE	(2S,3S)-2,3-dihydroxy-2,3-dihydrobenzoate	p
2-AMINOACRYLATE	2-aminoprop-2-enoate	p
CPD-14925	(3Z)-dec-3-enoyl-CoA	p
DIHYDRO-NEO-PTERIN	7,8-dihydroneopterin	c
1-KETO-2-METHYLVALERATE	(R)-2,3-dihydroxy-3-methylpentanoate	cp
DTDP-D-GLUCOSE	dTDP-&alpha;-D-glucose	cp
CPD-14927	phytenate	c
DIHYDRO-THYMINE	5,6-dihydrothymine	cp
CPD-12427	7,8-dihydro-8-oxoguanine	p
CYS	L-cysteine	cp
CPD-14928	phytenoyl-CoA	p
CYS-GLY	L-cysteinyl-glycine	p
1-L-MYO-INOSITOL-1-P	1D-myo-inositol 3-monophosphate	c
6-CARBOXYHEX-2-ENOYL-COA	6-carboxyhex-2-enoyl-CoA	p
CPD-12575	UDP-&alpha;-D-glucose	cp
1-PALMITOYLGLYCEROL-3-PHOSPHATE	1-palmitoylglycerol 3-phosphate	p
CPD-14931	a 10-formyltetrahydrofolate-4a-carbinolamine	cp
2-AMINOBENZOYL-COA	anthraniloyl-CoA	p
CPD-15015	4-hydroxy-2-oxoglutarate	cp
CPD-15056	(2Z)-2-aminobut-2-enoate	cp
COB-I-ALAMIN	cob(I)alamin	c
DTDP-DEOH-DEOXY-GLUCOSE	dTDP-4-dehydro-6-deoxy-&alpha;-D-glucopyranose	cp
CPD-12634	(glutathion-S-yl)(1H-indol-3-yl)acetonitrile	p
2-AMINOMUCONATE_SEMIALDEHYDE	(2Z,4E)-2-amino-6-oxohexa-2,4-dienoate	p
CPD-15121	5-fluorocytosine	c
CYS-tRNAs	a tRNACys	cp
6-Dimethylallyladenosine37-tRNAs	N6-dimethylallyladenosine37 in tRNA	cp
METHYLENE-THF-GLU-N	a 5,10-methylene-tetrahydrofolate	cp
DTDP-DEOH-DEOXY-MANNOSE	dTDP-4-dehydro-&beta;-L-rhamnose	cp
CPD-10806	4-hydroxy-2-nonenal	c
WATER	H2O	cp
INDOLE	indole	c
DEAMIDO-NAD	nicotinate adenine dinucleotide	c
INDOLE-3-GLYCEROL-P	(1S,2R)-1-C-(indol-3-yl)glycerol 3-phosphate	cp
UDP-OHMYR-GLUCOSAMINE	UDP-3-O-(3-hydroxymyristoyl)-&alpha;-D-glucosamine	cp
2-PROTOCATECHUOYLPHLOROGLUCINOLCARBOXYLA	2-protocatechuoylphloroglucinolcarboxylate	p
6-HYDROXY-NICOTINATE	6-hydroxynicotinate	c
Nonadjacent-pyrimidine-dimer-in-DNA	a dimer of non-adjacent pyrimidine nucleosides in DNA	c
3-OXOADIPATE-ENOL-LACTONE	(4,5-dihydro-5-oxofuran-2-yl)-acetate	p
CPD-10826	4-methyl-3-oxoadipate	c
N-FORMIMINO-L-GLUTAMATE	N-formimino-L-glutamate	cp
INDOLEYL-CPD	(indole-3-yl)acetonitrile	c
Protein-Disulfides	a protein disulfide	cp
Protein-Dithiols	a protein dithiol	cp
HOMO-CYS	L-homocysteine	cp
CPD-1083	(E)-2-methylcrotonoyl-CoA	cp
CPD-10832	4-methyl-3-oxoadipyl-CoA	p
Wound-RNA	wound RNA	c
FRU1P	&beta;-D-fructofuranose 1-phosphate	c
DTDP-RHAMNOSE	dTDP-&beta;-L-rhamnose	p
Nonmethylated-Ribosomal-Protein-L11s	a non-methylated ribosomal protein L11	c
XANTHINE	xanthine	cp
PENICILLIN	a penicillin	cp
Protein-Histidines	a [protein]-L-histidine	cp
INDOLE_ACETATE_AUXIN	(indol-3-yl)acetate	p
2-hydroxyacyl-glutathiones	S-(2-hydroxyacyl)glutathione	c
ACRYLATE	acrylate	p
2-trans-4-cis-dienoyl-CoAs	a 2-trans-4-cis-dienoyl-CoA	c
FRUCTOSE-16-DIPHOSPHATE	&beta;-D-fructose 1,6-bisphosphate	cp
N-FORMYLKYNURENINE	N-formylkynurenine	cp
FRUCTOSE-6P	&beta;-D-fructofuranose 6-phosphate	cp
6-PYRUVOYL-5678-TETRAHYDROPTERIN	(6R)-6-pyruvoyl-5,6,7,8-tetrahydropterin	p
HOMO-SER	L-homoserine	cp
ALA-tRNAs	a tRNAAla	c
INDOLE_PYRUVATE	(indol-3-yl)pyruvate	cp
Protein-L-glutamine	a [protein]-L-glutamine	c
XANTHOSINE	xanthosine	p
ARG	L-arginine	cp
XANTHOSINE-5-PHOSPHATE	XMP	cp
PENICILLIN-G	penicillin G	cp
SUPER-OXIDE	superoxide	c
Nucleoside-Diphosphates	a nucleoside diphosphate	cp
Protein-L-lysine	a [protein]-L-lysine	c
N-SUCCINYL-2-AMINO-6-KETOPIMELATE	N-succinyl-2-amino-6-ketopimelate	cp
DEHYDRO-DEOXY-GALACTONATE-PHOSPHATE	2-dehydro-3-deoxy-D-galactonate 6-phosphate	cp
ATP	ATP	cp
FUM	fumarate	cp
Protein-L-serine-or-L-threonine	a [protein]-(L-serine/L-threonine)	cp
Nucleoside-Monophosphates	a nucleoside 5'-monophosphate	p
GLUCONATE	D-gluconate	cp
Nucleoside-Triphosphates	a nucleoside triphosphate	cp
CPD-469	N-acetyl-L-glutamate 5-semialdehyde	cp
CPD0-2350	a polycistronic tRNA precursor	cp
CPD0-2351	a tRNA precursor with a 5' extension and a long 3' trailer	p
ARG-tRNAs	a tRNAArg	cp
CPD0-2352	a tRNA precursor with a 5' extension and a short 3' extension	cp
CPD0-2353	a tRNA precursor with a short 3' extension	cp
CPD0-2354	a tRNA precursor with a 5' extension	p
PROTOPORPHYRIN_IX	protoporphyrin IX	cp
SE-2	selenide	c
CPD0-2463	5-phospho-&alpha;-D-ribose 1,2-cyclic phosphate	p
CATECHOL	catechol	p
ACYL-ACP	an acyl-[acyl-carrier protein]	cp
CPD-479	4-(methylsulfanyl)-2-oxobutanoate	cp
SELENATE	selenate	c
ACYL-COA	an acyl-CoA	c
CPD-520	quercetin	c
CPD0-2479	&alpha;-D-ribose-1-methylphosphonate-5-triphosphate	p
ACYL-SN-GLYCEROL-3P	a 1-acyl-sn-glycerol 3-phosphate	p
CPD0-2480	&alpha;-D-ribose-1-methylphosphonate 5-phosphate	c
SELENOHOMOCYSTEINE	seleno-L-homocysteine	p
ERYTHROSE-4P	D-erythrose 4-phosphate	cp
CPD0-2518	2-N-acetamidomethylphosphonate	c
GLYCEROPHOSPHOGLYCEROL	glycerophosphoglycerol	c
PRPP	5-phospho-&alpha;-D-ribose 1-diphosphate	cp
CPD0-881	N-acetyl-D-muramate 6-phosphate	p
O-PHOSPHO-L-HOMOSERINE	O-phospho-L-homoserine	cp
CPD-689	cob(II)yrinate a,c-diamide	p
KDO2-LAUROYL-LIPID-IVA	&alpha;-Kdo-(2->4)-&alpha;-Kdo-(2->6)-(lauroyl)-lipid IVA	c
CPD-20840	7-&alpha;-D-ribosyladenine	c
CPD-20841	(2S,3R,4S,5R)-2-(5-hydroxy-1,3-benzodiazol-1-yl)-5-(hydroxymethyl)oxolane-3,4-diol	c
METHYLENETETRAHYDROMETHANOPTERIN	5,10-methylene-tetrahydromethanopterin	c
CPD-20849	Co&alpha;-[a-(5-hydroxybenzimidazolyl)]-Co&beta;-adenosylcobamide	p
CPD-2183	1-oleoyl-2-palmitoyl-phosphatidylglycerol	p
KDO2-LIPID-A	&alpha;-D-Kdo-(2&rarr;4)-&alpha;-D-Kdo-(2&rarr;6)-lipid A	p
CPD-17370	18-hydroxyoleoyl-CoA	cp
CPD-219	D-lysine	c
BISOHMYR-GLC	lipid A disaccharide	cp
CPD-17372	1-[18-hydroxyoleyl]-2-lyso-phosphatidate	p
BISOHMYR-GLUCOSAMINYL-1P	lipid X	cp
CPD-69	cyanate	c
Saturated-Fatty-Acyl-ACPs	a 2,3,4-saturated fatty acyl-[acp]	c
3-DEOXY-D-ARABINO-HEPTULOSONATE-7-P	3-deoxy-D-arabino-heptulosonate 7-phosphate	cp
CPD-690	adenosyl-cobyrinate a,c-diamide	p
CD-S-SP-Complex	a [cysteine desulfurase]-S-sulfanyl-[disordered-form scaffold protein] complex	c
Saturated-Fatty-Acyl-CoA	a 2,3,4-saturated fatty acyl CoA	cp
CPD-237	(indol-3-yl)acetamide	c
CPD-17386	(2E,6Z,9Z,12Z,15Z,18Z,21Z)-tetracosaheptaenoyl-CoA	c
CDP	CDP	cp
CPD-694	cob(I)yrinate a,c-diamide	c
CDP-2-3-4-Saturated-Diacylglycerols	a CDP-2,3,4-saturated-diacylglycerol	p
CPD-17387	(3S)-hydroxy-(6Z,9Z,12Z,15Z,18Z,21Z)-tetracosahexaenoyl-CoA	p
CDP-D-GLUCOSE	CDP-&alpha;-D-glucose	cp
METOH	methanol	cp
CPD-245	3-carboxy-cis,cis-muconate	p
CPD-6972	4-(2'-carboxyphenyl)-4-oxobutyryl-CoA	c
Semiquinones	a semiquinone	p
CPD-17388	3-oxo-(6Z,9Z,12Z,15Z,18Z,21Z)-tetracosahexaenoyl-CoA	c
3-ENOLPYRUVYL-SHIKIMATE-5P	5-enolpyruvoyl-shikimate 3-phosphate	cp
CPD-270	an N-acyl-D-glucosamine	cp
O-UREIDOHOMOSERINE	O-ureido-L-homoserine	c
3-HYDROHYDROXYPHOSPHORYLPYRUVATE	3-(hydroxyphosphinoyl)pyruvate	cp
CPD-15159	(6R)-6,7-dihydrobiopterin	p
LysW-L-glutamate-5-phosphate	a [2-aminoadipate carrier protein]-L-glutamate 5-phosphate	cp
LysW-L-glutamate-5-semialdehyde	a [2-aminoadipate carrier protein]-L-glutamate 5-semialdehyde	cp
CPD-19162	(2E,9Z)-hexadecenoyl-CoA	cp
2-C-METHYL-D-ERYTHRITOL-4-PHOSPHATE	2-C-methyl-D-erythritol 4-phosphate	cp
LysW-L-ornithine	a [2-aminoadipate carrier protein]-L-ornithine	cp
CPD-9871	6-methoxy-3-methyl-2-all-trans-decaprenyl-1,4-benzoquinol	p
CPD-19163	(2E,11Z)-octadecenoyl-CoA	cp
3-Oxo-octanoyl-ACPs	a 3-oxo-octanoyl-[acp]	cp
Lysidine-tRNA-Ile2	a lysidine34 in tRNAIle2	p
3-P-HYDROXYPYRUVATE	3-phosphooxypyruvate	cp
CPD-9925	1,4-dihydroxy-2-naphthoyl-CoA	p
L-Methionylaminoacyl-tRNAs	a L-methionylaminoacyl-tRNA	p
CPD-15182	cob(II)yrinate c-monoamide	cp
OCTADEC-9-ENE-118-DIOIC-ACID	&alpha;,&omega;-9Z-octadecenedioate	c
2-CHLOROMALEYLACETATE	2-chloromaleylacetate	p
L-ORNITHINE	L-ornithine	cp
CPD-19167	3-oxo-(7Z)-hexadecenoyl-CoA	c
3-P-SERINE	3-phospho-L-serine	cp
CPD-15244	3-oxo-(5Z)-tetradecenoyl-CoA	c
CPD-9956	ubiquinol-8	p
CPD-19168	(S)-3-hydroxy-(7Z)-hexadecenoyl-CoA	p
GLYCOLALDEHYDE	glycolaldehyde	p
HOMOGENTISATE	homogentisate	p
OCTANOL	1-octanol	p
CPD-15280	hercynine	p
L-PANTOATE	(R)-pantoate	cp
CPD-19169	3-oxo-(9Z)-octadecenoyl-CoA	c
COBINAMIDE	cobinamide	c
MAL	(S)-malate	cp
2-D-THREO-HYDROXY-3-CARBOXY-ISOCAPROATE	(2R,3S)-3-isopropylmalate	cp
CDPDIACYLGLYCEROL	a CDP-diacylglycerol	cp
CPD-9965	icosanoyl-CoA	cp
2-DEHYDRO-3-DEOXY-D-GALACTONATE	2-dehydro-3-deoxy-D-galactonate	cp
OCTAPRENYL-DIPHOSPHATE	all-trans-octaprenyl diphosphate	cp
CPD-19170	(2E,7Z)-hexadecenoyl-CoA	cp
3-Phosphomonucleotides	a ribonucleoside 3'-phosphate	cp
CPD-15285	N&alpha;-methyl-L-histidine	cp
CPD0-1027	a debranched &alpha;-limit dextrin	c
PYRAZINAMIDE	pyrazinamide	c
L-PHOSPHATIDATE	a 1,2-diacyl-sn-glycerol 3-phosphate	c
CPD0-1068	methylphosphonate	c
XYLULOSE-5-PHOSPHATE	D-xylulose 5-phosphate	cp
L-SELENOCYSTEINE	L-selenocysteine	p
3-Prime-Phosphate-Terminated-RNAs	an [RNA]-3'-ribonucleoside-3'-phosphate	c
CPD-19171	(S)-3-hydroxy-(9Z)-octadecenoyl-CoA	p
3-SULFINOALANINE	3-sulfinoalanine	p
CPD-15301	caldariellaquinol	p
GLYCOLLATE	glycolate	p
Fatty-Acids	a fatty acid	p
DIHYDROFOLATE	7,8-dihydrofolate monoglutamate	p
N-SUCCINYLLL-2-6-DIAMINOPIMELATE	N-succinyl-L,L-2,6-diaminopimelate	cp
DEHYDROQUINATE	3-dehydroquinate	cp
Serines	serine	p
THMPT	tetrahydromethanopterin	p
DIHYDROFOLATE-GLU-N	a 7,8-dihydrofolate	cp
CPD-12703	gentisyl-CoA	p
DELTA1-PIPERIDEINE-2-6-DICARBOXYLATE	(S)-2,3,4,5-tetrahydrodipicolinate	cp
Gln-B	a PII protein	c
Protein-N-terminal-5-oxo-prolines	an N-terminal 5-oxo-L-prolyl-[protein]	c
Protein-N-terminal-L-Arginine	an N-terminal arginyl-[protein]	cp
CPD-12760	(R)-4-phosphopantoate	c
N-Substituted-Amino-Acids	an N-modified amino acid	p
THR	L-threonine	cp
Protein-N-terminal-L-Lysine	an N-terminal L-lysyl-[protein]	c
THR-tRNAs	a tRNAThr	c
N-Substituted-Aminoacyl-tRNA	an N-modified aminoacyl-[tRNA]	c
N-acetyl-D-glucosamine	N-acetyl-D-glucosamine	cp
Protein-N-terminal-L-threonine	an N-terminal L-threonyl-[protein]	p
Glucopyranose	D-glucopyranose	cp
CPD-12826	folate	c
Protein-N6-5-glutamyl-lysine-crosslinks	a protein with an N6-(&gamma;-glutamyl)-L-lysine crosslink	p
Protein-N6-5-glutamyl-serotonin	a [protein] N6-[(5-hydroxy-1H-indol-3-yl)ethyl]-L-glutamine	p
N-acetyl-D-mannosamine	N-acetyl-D-mannosamine	cp
THREO-DS-ISO-CITRATE	D-threo-isocitrate	cp
Protein-Ser-or-Thr-phosphate	a [protein] (L-serine/L-threonine) phosphate	cp
N-acetyl-beta-D-hexosamines	an N-acetyl-&beta;-D-hexosamine	p
Glutamates	glutamate	p
CPD-12849	(1E,3E)-4-hydroxybuta-1,3-diene-1,2,4-tricarboxylate	cp
Glutamine-synthetase-Tyr	a [glutamine-synthetase]-L-tyrosine	c
Protein-Tyrosines	a [protein]-L-tyrosine	p
Glutamine-synthetase-adenylyl-Tyr	a [glutamine synthetase]-O4-(5'-adenylyl)-L-tyrosine	p
N-formyl-L-methionyl-tRNAfmet	an N-formyl-L-methionyl-[initiator tRNAmet]	p
Glutaryl-ACP-methyl-esters	a glutaryl-[acp] methyl ester	c
Acceptor	an oxidized electron acceptor	cp
Protein-With-N-Terminal-Met	a peptide with an N-terminal L-methionine	c
Protein-With-N-Terminal-Pro	a peptide with an N-terminal L-proline	p
CPD-1301	tetrahydropteroyl tri-L-glutamate	cp
MG+2	Mg2+	cp
Protein-With-N-Terminal-X-Pro	a peptide with an N-terminal X-L-proline	c
N-terminal-L-Serine	an N-terminal L-seryl-[protein]	p
DELTA3-ISOPENTENYL-PP	isopentenyl diphosphate	cp
N-terminal-L-alanine	an N-terminal L-alanyl-[protein]	p
3OH-4P-OH-ALPHA-KETOBUTYRATE	(3R)-3-hydroxy-2-oxo-4 phosphooxybutanoate	cp
CPD-1302	5-methyltetrahydropteroyl tri-L-glutamate	cp
N-terminal-L-cysteine	an N-terminal L-cysteinyl-[protein]	p
N-terminal-L-cysteine-sulfinate	an N-terminal 3-sulfino-L-alanyl-[protein]	c
Glycerophosphodiesters	a glycerophosphodiester	c
Protein-phospho-L-histidines	a [protein]-N-phospho-L-histidine	cp
DIHYDROLIPOYL-GCVH	a [glycine-cleavage complex H protein] N6-dihydrolipoyl-L-lysine	cp
N-terminal-L-cysteine-sulfonate	an N-terminal 3-sulfo-L-alanyl-[protein]	c
Protein-pi-phospho-L-histidines	a [protein]-N&pi;-phospho-L-histidine	c
Acetoacetyl-ACPs	an acetoacetyl-[acp]	cp
SEPO3	selenophosphate	cp
ETF-Oxidized	an oxidized electron-transfer flavoprotein	cp
CPD-7066	(2R,3S)-3-methylmalate	p
CPD0-882	1,6-anhydro-N-acetyl-&beta;-muramate	cp
OCTAPRENYL-METHYL-METHOXY-BENZQ	6-methoxy-3-methyl-2-all-trans-octaprenyl-1,4-benzoquinol	c
CPD-7076	2-methylbutanoate	c
SER	L-serine	cp
CPD-110	salicylate	cp
CPD-11020	5-chloro-4-hydroxy-2-oxopentanoate	p
ETF-Reduced	a reduced electron-transfer flavoprotein	cp
OCTAPRENYL-METHYL-OH-METHOXY-BENZQ	3-demethylubiquinol-8	cp
CPD-7100	(2S)-2-isopropyl-3-oxosuccinate	cp
CPD1F-2	(-)-methyl jasmonate	c
SER-tRNAs	a tRNAser	c
ETHANAMINE	ethylamine	p
INOSINE	inosine	p
CPD-1108	a 1-phosphatidyl-1D-myo-inositol 4-phosphate	p
Single-Stranded-DNAs	a single stranded DNA	cp
CPD-1109	an N-acyl-D-mannosamine	cp
CPD-1118	digallate	c
CPD1G-1344	&alpha;, &alpha;'-trehalose 6-&alpha;-mycolate	p
CPD-7221	(3Z)-dodec-3-enoyl-CoA	p
ETHANOL-AMINE	ethanolamine	p
CPD-7224	N-acetyl-L-citrulline	c
CPD1G-1345	trehalose-cis-methoxy-mono-mycolate	p
CPD1G-1346	trehalose-trans-methoxy-mono-mycolate	p
CPD1G-1353	trehalose-cis-keto-mono-mycolate	p
Stearoyl-ACPs	a stearoyl-[acp]	c
Actinorhodin-Intermediate-2	9-hydroxy-3,5,7,11,13,15-hexaoxohexadecanoyl-[PKS-acp]	p
CPD-11281	S-sulfanylglutathione	c
CPD1G-1354	trehalose-trans-keto-mono-mycolate	p
CPD-729	12-oxo-cis-10,15-phytodienoate	c
UMP	UMP	cp
CPD1G-768	6-O-&alpha;-mycolyl-trehalose 6-phosphate	c
IS30-Insertion-Sequences	an insertion sequence element IS30	cp
OH-ACYL-ACP	a (3R)-3-hydroxyacyl-[acyl-carrier protein]	cp
Acyl-Phosphates	an acyl phosphate	c
OH-HEXANOYL-COA	(S)-3-hydroxyhexanoyl-CoA	c
CPD-533	cyclohex-1-ene-1-carbonyl-CoA	cp
3-HYDROXY-3-METHYL-GLUTARYL-COA	(S)-3-hydroxy-3-methylglutaryl-CoA	c
CPD-283	6-oxo-1,4,5,6-tetrahydronicotinate	cp
Xenobiotic	a xenobiotic	cp
COPROPORPHYRINOGEN_I	coproporphyrinogen I	p
CPD-17621	16-hydroxypalmitoyl-CoA	p
7-8-DIHYDROPTEROATE	7,8-dihydropteroate	c
CPD-537	2-hydroxy-cyclohexane-1-carbonyl-CoA	c
GLUCOSAMINE-1P	D-glucosamine 1-phosphate	cp
COPROPORPHYRINOGEN_III	coproporphyrinogen III	p
3-HYDROXY-ANTHRANILATE	3-hydroxyanthranilate	p
CPD-294	2-maleylacetate	p
CPD-17624	&omega;-carboxy-(9Z)-octadec-9-enoyl-CoA	p
CPD-548	S-formylglutathione	cp
CPD-2961	D-gluconate 6-phosphate	cp
CPD-17637	7-hydroxylaurate	c
7-AMINOMETHYL-7-DEAZAGUANINE	preQ1	cp
OH-MYRISTOYL	UDP-2-N,3-O-bis[(3R)-3-hydroxytetradecanoyl]-&alpha;-D-glucosamine	cp
COUMARATE	4-coumarate	c
CPD-554	2-ketocyclohexane-1-carbonyl-CoA	cp
CPD-10019	(5S)-5-benzyl-hydantoin	cp
CPD-17638	7-hydroxylauroyl-CoA	p
a-2-oxoglutarate-dehydrogenase-E2-protei	a [2-oxoglutarate-dehydrogenase E2 protein] N6-octanoyl-L-lysine	c
7-CYANO-7-DEAZAGUANINE	preQ0	cp
OH-PYR	hydroxypyruvate	cp
CPD-302	D-aspartate	p
Adjacent-pyrimidine-dimer-in-DNA	a dimer of adjacent pyrimidine nucleosides in DNA	c
CPD-558	pimeloyl-CoA	cp
CPD-17640	18-hydroxystearate	c
BUTANAL	butan-1-al	p
a-pyruvate-dehydrogenase-E2-protein-Nsup	a [pyruvate dehydrogenase E2 protein] N6-octanoyl-L-lysine	c
apo-ACP	an apo-[acyl-carrier protein]	c
3-HYDROXY-DOCOSAPENTAENOYL-ACP	a (3R)-3-hydroxy-docosapentaenoyl-[acp]	p
3-HYDROXY-ISOBUTYRATE	3-hydroxy-isobutanoate	p
BUTYRYL-COA	butanoyl-CoA	c
Alcohols	an alcohol	p
b-Hydroxy-cis-D5-dodecenoyl-ACPs	a (3R,5Z)-3-hydroxy-dodec-5-enoyl-[acp]	p
3-HYDROXY-ISOBUTYRYL-COA	3-hydroxy-isobutanoyl-CoA	c
CYTIDINE	cytidine	cp
CPD-17641	18-hydroxystearoyl-CoA	p
CPD-10020	(5R)-5-benzyl-hydantoin	cp
b-Keto-cis-D5-dodecenoyl-ACPs	a (5Z)-3-oxo-dodec-5-enoyl-[acp]	cp
CPD-31	(R)-citramalate	cp
3-HYDROXY-ISOVALERYL-COA	3-hydroxyisovaleryl-CoA	cp
DIHYDRONEOPTERIN-P3	7,8-dihydroneopterin 3'-triphosphate	c
MONOMER0-4342	a [prolipoprotein]-(S-diacylglyceryl)-L-cysteine	cp
SEROTONIN	serotonin	c
2-DEHYDRO-3-DEOXY-D-GLUCONATE	2-dehydro-3-deoxy-D-gluconate	c
IS30-with-Integrated-Transposon	an insertion sequence IS30 with integrated transposon	cp
CPD0-1074	aminomethylphosphonate	p
ISOBUTYRATE	isobutanoate	c
PYRAZINOIC-ACID	pyrazine-2-carboxylate	p
2-DEHYDROPANTOATE	2-dehydropantoate	cp
L-arginyl-3-sulfino-L-alaninyl-Peptides	an N-terminal L-arginiyl-3-sulfino-L-alanyl-[protein]	p
L-arginyl-3-sulfo-L-alaninyl-Peptides	an N-terminal L-arginiyl-3-sulfo-L-alanyl-[protein]	p
L-arginyl-L-Glutamyl-Peptides	an N-terminal L-arginiyl-L-glutamyl-[protein]	p
L-arginyl-L-aspartyl-Peptides	an N-terminal L-arginiyl-L-aspartyl-[protein]	p
MYO-INOSITOL	myo-inositol	p
L-glutamyl-tRNAGln	an L-glutamyl-[tRNAGln]	c
ISOBUTYRYL-COA	isobutanoyl-CoA	p
CPD0-1080	GlcNAc-1,6-anhMurNAc-L-Ala-&gamma;-D-Glu-DAP-D-Ala	c
CPD0-1081	N-acetyl-&beta;-D-glucosamine-1,6-anhydro-N-acetyl-&beta;-D-muramate	cp
L-leucyl-L-arginyl-Protein	a [protein] N-terminal L-leucyl-L-arginine	p
TTP	dTTP	cp
L-leucyl-L-lysyl-Protein	a [protein] N-terminal L-leucyl-L-lysine	p
CPD0-1082	L-alanyl-&gamma;-D-glutamyl-meso-2,6-diaminopimeloyl-D-alanine	cp
ALLANTOATE	allantoate	cp
L-methionyl-L-alanyl-Protein	an N-terminal-L-methionyl-L-alanyl-[protein]	c
L-methionyl-L-cysteinyl-Protein	an N-terminal-L-methionyl-L-cysteinyl-[protein]	c
CPD0-1096	glucosamine 1,6-diphosphate	cp
L-methionyl-L-seryl-Protein	an N-terminal-L-methionyl-L-seryl-[protein]	c
Sulfur-Carrier-Proteins-ThiI	a [ThiI sulfur-carrier protein]-L-cysteine	cp
L-methionyl-L-threonyl-Protein	an N-terminal-L-methionyl-L-threonyl-[protein]	c
PYRIDOXAL_PHOSPHATE	pyridoxal 5'-phosphate	p
L-methionyl-L-valyl-Protein	an N-terminal-L-methionyl-L-valyl-[protein]	c
TUM1-L-cysteine	a [3-mercaptopyruvate sulfurtransferase]-L-cysteine	cp
L-methionyl-glycyl-Protein	an N-terminal-L-methionyl-glycyl-[protein]	c
Red-Glutaredoxins	a reduced glutaredoxin	c
L-methionyl-tRNAfmet	an L-methionyl-[initiator tRNAMet]	cp
2-DEOXYRIBOSE	2'-deoxyribose	c
PYRIDOXAMINE-5P	pyridoxamine 5'-phosphate	c
CPD0-1108	&beta;-D-ribofuranose	cp
TUM1-S-sulfanylcysteine	a [3-mercaptopyruvate sulfurtransferase]-S-sulfanyl-L-cysteine	cp
GLYCYLGLYCINE	glycyl-glycine	c
Sulfurated-Sulfur-Acceptors	a sulfurated [sulfur carrier]	cp
Red-NADPH-Hemoprotein-Reductases	a reduced [NADPH-hemoprotein reductase]	c
Red-Thioredoxin	a reduced thioredoxin	cp
TYR	L-tyrosine	cp
L-phenylalanyl-L-arginyl-Protein	L-phenylalanyl-L-arginyl-[protein]	p
L-phenylalanyl-L-lysyl-Protein	L-phenylalanyl-L-lysyl-[protein]	p
ISOCHORISMATE	isochorismate	c
Sulfurylated-ThiI	a [ThiI sulfur-carrier protein]-S-sulfanyl-L-cysteine	cp
CGMP	cyclic-GMP	p
TYR-tRNAs	a tRNATyr	c
L-seryl-SEC-tRNAs	an L-seryl-[tRNAsec]	p
Reduced-2Fe-2S-Ferredoxins	a reduced [2Fe-2S] ferredoxin	c
CPD0-1110	&beta;-D-ribopyranose	cp
Reduced-CycA1-cytochromes	a reduced CycA1 cytochrome	c
LAUROYLCOA-CPD	lauroyl-CoA	p
CH3-MALONATE-S-ALD	(S)-methylmalonate-semialdehyde	cp
Reduced-NrdH-Proteins	a reduced NrdH glutaredoxin-like protein	c
DIHYDROPTERIN-CH2OH-PP	(7,8-dihydropterin-6-yl)methyl diphosphate	p
CPD0-1147	methyl red	c
2-HYDROXYPHYTANOYL-COA	2-hydroxyphytanoyl-CoA	p
N-terminal-L-valine	an N-terminal L-valyl-[protein]	p
CPD-13035	adenylyl molybdenum cofactor	p
Supercoiled-Duplex-DNAs	a supercoiled duplex DNA	c
3-hydroxy-cis-D7-tetraecenoyl-ACPs	a (3R)-3-hydroxy cis &Delta;7-tetradecenoyl-[acp]	p
CPD-15317	D-ribofuranose 5-phosphate	p
CPD-19172	(2E,9Z)-octadecenoyl-CoA	cp
3-hydroxy-cis-D9-hexaecenoyl-ACPs	a (3R)-3-hydroxy cis &Delta;9-hexadecenoyl-[acp]	p
RH-Group	an organic molecule	c
T2-C4-DECADIENYL-COA	trans-&Delta;2, cis-&Delta;4-decadienoyl-CoA	c
N-terminal-glycine	an N-terminal glycyl-[protein]	p
CPD-15318	&alpha;-D-ribose 5-phosphate	p
CPD-13043	7-carboxy-7-deazaguanine	cp
HS	hydrogen sulfide	cp
N2-SUCCINYLGLUTAMATE	N2-succinylglutamate	c
CPD-19202	L-4-hydroxyphenylglycine-L-arginyl-D-4-hydroxyphenylglycine-L-seryl-L 4-hydroxyphenylglycine	c
CPD-15360	2-sulfanyl-N6-dimethylallyladenosine37 in tRNA	cp
CPD-13172	6-hydroxy-2-cyclohexen-one-carboxylate	p
5-10-METHENYL-THF-GLU-N	a 5,10-methenyltetrahydrofolate	cp
Kanamycin-3-phosphates	a kanamycin 3'-phosphate	p
3-hydroxypimeloyl-ACP-methyl-esters	a (3R)-3-hydroxypimeloyl-[acp] methyl ester	p
ETOH	ethanol	cp
T2-DECENOYL-COA	(2E)-dec-2-enoyl-CoA	cp
HSCN	thiocyanate	p
RIBOFLAVIN	riboflavin	cp
CPD-19203	D-4-hydroxyphenylglycine-L-seryl-L 4-hydroxyphenylglycine	p
5-AMINO-LEVULINATE	5-aminolevulinate	cp
3-oxo-arachidoyl-ACPs	a 3-oxo-arachidoyl-[acp]	cp
CPD-13174	salicyl-6-hydroxy-2-cyclohexene-on-oyl	c
Kanamycins	a kanamycin	c
CPD-19205	L-4-hydroxyphenylglycine-L-arginine	p
3-oxo-behenoyl-ACPs	a 3-oxo-behenoyl-[acp]	cp
MALONATE-S-ALD	3-oxopropanoate	cp
5-BETA-L-THREO-PENTAPYRANOSYL-4-ULOSE-	UDP-&beta;-L-threo-pentapyranos-4-ulose	cp
3-oxo-cerotoyl-ACPs	a 3-oxo-cerotoyl-[acp]	cp
CPD-13227	N,N',N''-triacetylchitotriose	c
ETR-Quinols	an electron-transfer quinol	cp
CPD-19217	S-(hydroxysulfenamide)-glutathione	p
CPD-15382	keto-D-fructose	cp
ETR-Quinones	an electron-transfer quinone	cp
3-oxo-cis-D7-tetradecenoyl-ACPs	a 3-oxo-cis-&Delta;7-tetradecenoyl-[acp]	cp
CYTOSINE	cytosine	c
3-oxo-cis-D9-hexadecenoyl-ACPs	a 3-oxo-cis-&Delta;9-hexadecenoyl-[acp]	cp
N5-Formyl-THF-Glu-N	an (6S)-N5-formyl-tetrahydrofolate	cp
CPD-13339	(2Z,4E)-2-hydroxyhexa-2,4-dienedioate	cp
CPD-19235	&alpha;-D-ribose-1-(2-N-acetamidomethylphosphonate)-5-triphosphate	p
3-oxo-cis-vaccenoyl-ACPs	a 3-oxo-cis-vacc-11-enoyl-[acp]	cp
CPD-15436	(5Z)-tetradecenoyl-CoA	cp
3-oxo-decanoyl-ACPs	a 3-oxo-decanoyl-[acp]	cp
L-1-GLYCERO-PHOSPHORYLCHOLINE	sn-glycero-3-phosphocholine	p
CPD-13357	(2R)-2,3-dihydroxy-3-methylbutanoate	cp
CPD-15539	phenyl 5-phospho-&alpha;-D-ribofuranoside	c
OLEATE-CPD	oleate	cp
3-oxo-dodecanoyl-ACPs	a 3-oxo-dodecanoyl-[acp]	cp
CPD-19236	&alpha;-D-ribose-1-(2-N-acetamidomethylphosphonate) 5-phosphate	c
L-1-GLYCEROPHOSPHORYLETHANOL-AMINE	sn-glycero-3-phosphoethanolamine	cp
5-DEHYDROGLUCONATE	5-dehydro-D-gluconate	c
3-oxo-hexanoyl-ACPs	a 3-oxo-hexanoyl-[acp]	cp
CPD-19237	N-methylacetamide	p
3-oxo-lignoceroyl-ACPs	a 3-oxo-lignoceroyl-[acp]	cp
CPD-15566	(2E,4E)-tetradecadienoyl-CoA	c
NAD	NAD+	cp
CPD-19238	&alpha;-D-ribose-1-[N-(phosphonomethyl)glycine]-5-triphosphate	p
CPD-13365	aculeacin A	cp
Feruloyl-polysaccharides	a feruloyl-polysaccharide	c
DEOXY-D-RIBOSE-1-PHOSPHATE	2-deoxy-&alpha;-D-ribose 1-phosphate	cp
Protein-tauphospho-L-histidines	a [protein]-N&tau;-phospho-L-histidine	c
CPD-730	3-oxo-2-(cis-2'-pentenyl)-cyclopentane-1-octanoate	p
CPD1G-771	6-O-cis-methoxy-mycolyl-trehalose 6-phosphate	c
TARTRATE	L-tartrate	cp
Protein-tyrosine-phosphates	a [protein]-L-tyrosine phosphate	c
UNDECAPRENYL-DIPHOSPHATE	di-trans,octa-cis-undecaprenyl diphosphate	p
Glycogens	a glycogen	cp
CPD1G-772	6-O-trans-methoxy-mycolyl-trehalose 6-phosphate	c
CPD1G-773	6-O-cis-keto-mycolyl-trehalose 6-phosphate	c
Proteins-With-N-Terminal-Asp	an N-terminal L-aspartyl-[protein]	c
Folates	a folate	c
DEOXY-RIBOSE-5P	2-deoxy-D-ribose 5-phosphate	p
CPD1G-774	6-O-trans-keto-mycolyl-trehalose 6-phosphate	c
DEOXYADENOSINE	2'-deoxyadenosine	c
Proteins-with-correct-disulfides	a protein with correct disulfide bonds	cp
MALONYL-ACP	a malonyl-[acp]	cp
Guanine34-in-tRNAs	a guanine34 in tRNA	c
Proteins-with-incorrect-disulfides	a protein with incorrect disulfide bonds	cp
CPD66-21	leukotriene-D4	p
Guanine46-in-tRNA	a guanine46 in tRNA	c
TARTRONATE-S-ALD	tartronate semialdehyde	cp
G3P	3-phospho-D-glycerate	cp
H2CO3	carbonic acid	cp
CPD66-39	a 2,3,4-saturated fatty acid	c
OLEOYL-COA	oleoyl-CoA	cp
MALONYL-COA	malonyl-CoA	cp
Behenoyl-ACPs	a behenoyl-[acp]	c
DEOXYCYTIDINE	2'-deoxycytidine	c
ALLO-THR	DL-allothreonine	c
CPD-734	(-)-jasmonate	p
THYMIDINE	thymidine	cp
PHE	L-phenylalanine	cp
ALLYSINE	(S)-2-amino-6-oxohexanoate	p
DIHYDROXY-ACETONE-PHOSPHATE	glycerone phosphate	cp
CPD-7545	S-(phenylacetothiohydroximoyl)-L-cysteine	cp
URACIL	uracil	cp
PORPHOBILINOGEN	porphobilinogen	cp
OLIGOPEPTIDES	an oligopeptide	c
ALPHA-D-GALACTOSE	&alpha;-D-galactose	cp
PHE-tRNAs	a tRNAPhe	p
DIHYDROXY-BUTANONE-P	1-deoxy-L-glycero-tetrulose 4-phosphate	cp
Beta-3-hydroxybutyryl-ACPs	a (3R)-3-hydroxybutanoyl-[acp]	p
CPD-7546	S-(4-methylthiobutylhydroximoyl)-L-cysteine	cp
CPDQT-27	6-(methylthio)-2-oxohexanoate	p
CPD-763	arsenite	cp
Beta-hydroxydecanoyl-ACPs	a (3R)-3-hydroxydecanoyl-[acp]	cp
DEOXYGUANOSINE	2'-deoxyguanosine	p
CPD-7671	methanethiol	c
CPDQT-28	7-(methylthio)-2-oxoheptanoate	p
ALPHA-GLUCOSE-16-BISPHOSPHATE	&alpha;-glucose 1,6-bisphosphate	cp
CPD-564	S-ribosyl-L-homocysteine	p
CPD-316	reduced riboflavin	p
biotin-L-lysine-in-BCCP-dimers	a [biotin carboxyl-carrier-protein dimer]-N6-biotinyl-L-lysine	cp
Aldehydes	an aldehyde	p
CPD-5662	9-mercaptodethiobiotin	cp
7Z-3-oxo-hexadec-7-enoyl-ACPs	a (7Z)-3-oxo-hexadec-7-enoyl-[acp]	cp
carboxybiotin-L-lysine-in-BCCP-dimers	a [carboxyl-carrier protein dimer]-N6-carboxybiotinyl-L-lysine	cp
Elongation-tRNAMet	elongator tRNAMet	c
cis-19-CP-37-Mex-38-Me-C59-ACPs	a cis-methoxy-C59-meroacyl-[acp]	p
7Z-hexadec-7-enoyl-ACPs	a (7Z)-hexadec-7-enoyl-[acp]	c
cis-21-CP-39-keto-40-Me-C60-ACPs	a cis-keto-C60-meroacyl-[acp]	p
8-AMINO-7-OXONONANOATE	8-amino-7-oxononanoate	p
SHIKIMATE	shikimate	cp
cis-D19-37-MOH-38-Me-C57-1-ACPs	a cis-delta19-37-methoxy-38-methyl-C57:1-[acp]	c
cis-D21-39-oxo-40-Me-C59-1-ACPs	a cis-delta21-39-oxo-40-methyl-C59:1-[acp]	c
3-HYDROXY-L-KYNURENINE	3-hydroxy-L-kynurenine	c
CPD-320	ethylnitronate	c
2-Hydroxy-carboxylates	a 2-hydroxy carboxylate	p
CPD-569	N-acetylputrescine	cp
GLUTAMATE-1-SEMIALDEHYDE	(S)-4-amino-5-oxopentanoate	cp
SHIKIMATE-5P	shikimate 3-phosphate	cp
10-FORMYL-DIHYDROFOLATE-GLU-N	an N10-formyldihydrofolate	p
3-HYDROXY-PROPIONATE	3-hydroxypropanoate	p
2-KETO-3-DEOXY-6-P-GLUCONATE	2-dehydro-3-deoxy-D-gluconate 6-phosphate	cp
ARSENATE	arsenate	c
3-HYDROXY-PROPIONYL-COA	3-hydroxypropanoyl-CoA	c
Carboxylates	a carboxylate	cp
CPD-575	cyclohexane-1-carboxylate	c
CPD-321	3-aci-nitropropanoate	c
11Z-3-oxo-icos-11-enoyl-ACPs	an (11Z)-3-oxo-icos-11-enoyl-[acp]	cp
2-KETO-3-DEOXY-D-GLUCARATE	(2S,3S)-2,3-dihydroxy-5-oxohexanedioate	cp
Carboxylic-esters	a carboxylic ester	c
9S-RRNA	a 9S rRNA	c
CPD-577	cyclohexane-1-carbonyl-CoA	cp
9Z-3-oxo-octadec-9-enoyl-ACPs	a (9Z)-3-oxo-octadec-9-enoyl-[acp]	cp
A-5-prime-PP-5-prime-DNA	an adenosine-5'-diphospho-5'-[DNA]	cp
ACET	acetate	cp
CPD-335	(R)-3-hydroxybutanoate	cp
CPD-582	guanylyl molybdenum cofactor	p
Aliphatic-L-Amino-Acids	an aliphatic L-amino acid	p
3-HYDROXYADIPYL-COA	(3S)-hydroxyadipyl-CoA	cp
PTEROATE	pteroate	p
CPD-5821	(S)-2-oxo-4-hydroxy-4-carboxy-5-ureidoimidazoline	p
ACETALD	acetaldehyde	p
CPD-355	D-arabinitol	c
mRNA-Fragments	an mRNA fragment	p
3R-11Z-3-hydroxy-icos-11-enoyl-ACPs	a (3R,11Z)-3-hydroxy-icos-11-enoyl-[acp]	p
ADENINE	adenine	cp
Malonyl-acp-methyl-ester	a malonyl-[acp] methyl ester	c
3R-5Z-3-hydroxy-tetradec-5-enoyl-ACPs	a (3R,5Z)-3-hydroxy-tetradec-5-enoyl-[acp]	p
PYRIDOXINE-5P	pyridoxine 5'-phosphate	cp
CPD-1130	3-ethylmalate	cp
3R-7Z-3-hydroxy-hexadec-7-enoyl-ACPs	a (3R,7Z)-3-hydroxy-hexadec-7-enoyl-[acp]	p
HX	HX	p
GLYOX	glyoxylate	cp
CPD-19395	&gamma;-L-glutamyl-glycylglycine	p
HYDROGEN-PEROXIDE	hydrogen peroxide	cp
3R-9Z-3-hydroxy-octadec-9-enoyl-ACPs	a (3R,9Z)-3-hydroxy-octadec-9-enoyl-[acp]	p
CPD-13524	all-trans-retinol	p
CPD-11444	uroporphyrinogen-I	c
3Z-dodec-3-enoyl-ACPs	a (3Z)-dodec-3-enoyl-[acp]	c
OROTATE	orotate	cp
LEU	L-leucine	cp
NAD-P-OR-NOP	NAD(P)+	cp
LEU-tRNAs	a tRNALeu	cp
Charged-ALA-tRNAs	an L-alanyl-[tRNAAla]	p
CPD-11495	(2-hydroxyphenyl)acetate	p
4-AMINO-4-DEOXYCHORISMATE	4-amino-4-deoxychorismate	cp
THYMINE	thymine	cp
CPD-19487	3-isopropyl-10-(methylthio)-2-oxodecanoate	cp
Charged-ARG-tRNAs	an L-arginyl-[tRNAArg]	cp
CPD-19488	3-isopropyl-9-(methylthio)-2-oxononanoate	cp
CPD-10267	decanoyl-CoA	cp
CPD-13533	(3R)-3-hydroxypentanoyl-CoA	c
ADENOSINE	adenosine	cp
CPD-19489	3-isopropyl-8-(methylthio)-2-oxooctanoate	cp
4-AMINO-BUTYRATE	4-aminobutanoate	cp
URATE	urate	cp
ADENOSINE_DIPHOSPHATE_RIBOSE	ADP-D-ribose	c
CPD-19490	3-isopropyl-7-(methylthio)-2-oxoheptanoate	cp
HYDROXY-METHYL-BUTENYL-DIP	(E)-4-hydroxy-3-methylbut-2-en-1-yl diphosphate	cp
CPD-13534	3-oxopentanoyl-CoA	cp
CPD-11518	3-oxo-2-(cis-2'-pentenyl)-cyclopentane-1-(E-octa-2-enoyl)-CoA	c
CPD-10269	palmitoleoyl-CoA	cp
CPD-19491	3-isopropyl-6-(methylthio)-2-oxohexanoate	cp
4-CARBOXYMETHYLENEBUT-2-EN-4-OLIDE	cis-dienelactone	c
Charged-CYS-tRNAs	an L-cysteinyl-[tRNACys]	cp
CPD-10284	3-oxo-myristoyl-CoA	c
CPD-13575	2-[(2R,5Z)-2-carboxy-4-methylthiazol-5(2H)-ylidene]ethyl phosphate	cp
CPD-11519	3-oxo-2-(cis-2'-pentenyl)-cyclopentane-1-(3R-hydroxyoctanoyl)-CoA	p
CPD-19492	3-ethyl-2-oxosuccinate	cp
Menaquinols	a menaquinol	cp
CPD-19493	S-(mercaptomethyl)-L-cysteine	p
CPD-11520	3-oxo-2-(cis-2'-pentenyl)-cyclopentane-1-(3-oxooctanoyl)-CoA	c
Charged-GLN-tRNAs	an L-glutaminyl-[tRNAGln]	p
Menaquinones	a menaquinone	cp
CPD-13576	2-(2-carboxy-4-methylthiazol-5-yl)ethyl phosphate	c
CPD-195	octanoate	c
Charged-GLT-tRNAs	an L-glutamyl-[tRNAGlu]	c
UREA	urea	cp
Mercapturates	a mercapturate	c
CPD-11521	3-oxo-2-(cis-2'-pentenyl)-cyclopentane-1-hexanoyl-CoA	p
NADH	NADH	cp
CPD-10330	&alpha;-D-ribofuranose	c
CPD-13689	(25S)-3-oxocholest-4-en-26-oate	c
Reduced-Rubredoxins	a reduced rubredoxin	c
3-oxo-myristoyl-ACPs	a 3-oxo-myristoyl-[acp]	cp
16-HYDROXYPALMITATE	16-hydroxypalmitate	c
CPD-17813	(2E,11Z)-hexadec-2,11-dienoyl-CoA	c
Charged-HIS-tRNAs	an L-histidyl-[tRNAHis]	p
3-oxo-palmitoyl-ACPs	a 3-oxo-palmitoyl-[acp]	cp
CPD-15567	(3E)-tetradec-3-enoyl-CoA	p
PTS-I-Histidines	a [PTS enzyme I]-L-histidine	cp
Charged-ILE-tRNAs	an L-isoleucyl-[tRNAIle]	p
CPD0-1148	N,N'-dimethyl-p-phenylenediamine	p
3-oxo-petroselinoyl-ACPs	a 3-oxo-petroselinoyl-[acp]	cp
CPD-17814	(11Z)-(S)-3-hydroxyhexadec-11-enoyl-CoA	p
PTS-I-pi-phospho-L-histidines	a [PTS enzyme I]-N&pi;-phospho-L-histidine	cp
L-1-LYSOPHOSPHATIDATE	1-oleyl-2-lyso-phosphatidate	p
Charged-LEU-tRNAs	an L-leucyl-[tRNALeu]	cp
Reduced-ferredoxins	a reduced ferredoxin [iron-sulfur] cluster	cp
CH33ADO	5'-deoxyadenosine	p
L-1-PHOSPHATIDYL-ETHANOLAMINE	an L-1-phosphatidylethanolamine	p
PUTRESCINE	putrescine	cp
OROTIDINE-5-PHOSPHATE	orotidine 5'-phosphate	cp
3-oxo-stearoyl-ACPs	a 3-oxo-stearoyl-[acp]	cp
Charged-LYS-tRNAs	an L-lysyl-[tRNALys]	p
CPD-15568	2E)-tetradec-2-enoyl-CoA	c
3-terminal-unsaturated-sugars	a 3'-terminal unsaturated sugar	p
Charged-MET-tRNAs	an L-methionyl-[elongator tRNAMet]	p
CPD-17927	a nascent peptidoglycan with (L-alanyl-&gamma;-D-glutamyl-meso-2,6-diaminopimeloyl-D-alanyl-D-alanine) pentapeptide	cp
Relaxed-DNAs	a relaxed DNA	cp
Resolution-of-Recombinational-Junction	resolution of recombinational junction formation of two intact strands	p
L-1-PHOSPHATIDYL-GLYCEROL	an L-1-phosphatidyl-sn-glycerol	cp
CPD-18	linoleoyl-CoA	p
L-1-PHOSPHATIDYL-GLYCEROL-P	1-(3-sn-phosphatidyl)-sn-glycerol 3-phosphate	cp
Charged-PHE-tRNAs	an L-phenylalanyl-[tRNAPhe]	c
L-1-PHOSPHATIDYL-SERINE	a 3-O-sn-phosphatidyl-L-serine	cp
Retinols	a retinol	p
CPD-15654	2-trans, 4-cis-undecadienoyl-CoA	c
5-HYDROXY-FERULIC-ACID	5-hydroxyferulate	c
PPI	diphosphate	cp
Charged-PRO-tRNAs	an L-prolyl-[tRNAPro]	p
CH4	methane	p
Rhodoquinols	a rhodoquinol	c
L-1-phosphatidyl-inositols	a 1-phosphatidyl-1D-myo-inositol	c
CPD-18105	4-methylphenyl 5-phospho-&alpha;-D-ribofuranoside	c
CPD-15655	(3E)-undec-3-enoyl-CoA	p
Charged-SER-tRNAs	an L-seryl-[tRNAser]	p
Rhodoquinones	a rhodoquinone	p
Ribonucleoside-Diphosphates	a ribonucleoside diphosphate	cp
5-HYDROXY-FERULOYL-COA	5-hydroxy-feruloyl-CoA	p
Ribonucleoside-Monophosphates	a ribonucleoside 5'-monophosphate	cp
L-3-HYDROXYACYL-COA	a (3S)-3-hydroxyacyl-CoA	p
CPD-18118	D-arabinofuranose 5-phosphate	c
CPD0-1162	(2E,5Z)-tetradecenoyl-CoA	cp
CPD-15661	2-trans, 4-trans-undecadienoyl-CoA	c
Charged-THR-tRNAs	an L-threonyl-[tRNAThr]	p
5-HYDROXYISOURATE	(S)-5-hydroxyisourate	c
L-5-Monosubstituted-Hydantoins	an L-5-monosubstituted hydantoin	cp
Ribonucleoside-Triphosphates	a ribonucleoside triphosphate	c
CHITIN	chitin	cp
Charged-TRP-tRNAs	an L-tryptophanyl-[tRNATrp]	p
Ribonucleosides	a ribonucleoside	p
CHITOBIOSE	N,N'-diacetylchitobiose	cp
CPD-18238	carboxyphosphate	cp
CPD-15663	2-trans-nonenoyl-CoA	p
L-ALA-GAMMA-D-GLU-DAP	L-alanyl-&gamma;-D-glutamyl-meso-diaminopimelate	c
Charged-TYR-tRNAs	an L-tyrosyl-[tRNATyr]	p
CPD0-1163	(S)-3-hydroxy-(5Z)-tetradecenoyl-CoA	p
5-KETO-4-DEOXY-D-GLUCARATE	5-dehydro-4-deoxy-D-glucarate	cp
L-ALPHA-ALANINE	L-alanine	cp
Charged-VAL-tRNAs	an L-valyl-[tRNAVal]	p
Charged-fMET-tRNAs	an N-formyl-L-methionylaminoacyl-tRNA	c
Ribosomal-protein-L3-L-glutamine	a [ribosomal protein L3]-L-glutamine	c
CPD-183	gallate	p
CPD-15667	6-cis, 3-oxo-tridecenoyl-CoA	c
5-L-GLUTAMYL-AMINO-ACID	an &alpha;-(5-L-glutamyl)-amino acid	p
Ribosomal-protein-L3-N5M-L-glutamine	a [ribosomal protein L3]-N5-methyl-L-glutamine	p
CPD-18320	5-methylbenzimidazole	c
CPD0-1308	glyphosate	c
Ribosomal-protein-S12-3-methylthio-Asp89	a [ribosomal protein S12]-3-methylsulfanyl-L-aspartate89	p
CHOCOLA_A	all-trans-retinyl palmitate	c
Ribosomal-protein-S12-Asp89	a [ribosomal protein S12] L-aspartate89	c
LEUKOTRIENE-C4	leukotriene-C4	c
HCN	hydrogen cyanide	c
ADENOSYL-HOMO-CYS	S-adenosyl-L-homocysteine	cp
THZ-P	4-methyl-5-(2-phosphooxyethyl)thiazole	c
CPDQT-29	8-(methylthio)-2-oxooctanoate	p
CPD-7695	ditrans,octacis-undecaprenyldiphospho-N-acetyl-(N-acetyl-&beta;-D-glucosaminyl)muramoyl-L-alanyl-&gamma;-D-glutamyl-L-lysyl-D-alanyl-D-alanine	p
16S-rRNA-N2-methylguanine966	an N2-methylguanine966 in 16S rRNA	p
ADENOSYL-P4	5',5'''-diadenosine tetraphosphate	c
CPD-3617	decanoate	c
16S-rRNA-N4-methylcytidine1402	an N4-methylcytidine1402  in 16S rRNA	p
CPDQT-30	9-(methylthio)-2-oxononanoate	p
16S-rRNA-N7-methylguanine527	an N7-methylguanine527 in 16S rRNA	p
ACETAMIDE	acetamide	c
16S-rRNA-cytidine1402	a cytidine1402 in 16S rRNA	c
CPDQT-36	3-[(3'-methylthio)propyl]malate	cp
16S-rRNA-guanine-527	a guanine527 in 16S rRNA	c
SINAPATE	sinapate	c
16S-rRNA-guanine-966	a guanine966 in 16S rRNA	c
CPD-3618	2-oxovalerate	p
ADENOSYLCOBALAMIN	adenosylcobalamin	cp
SINAPOYL-COA	sinapoyl-CoA	p
CPDQT-37	3-[(4'-methylthio)butyl]malate	cp
16S-rRNA-pseudouridine516	a 16S rRNA pseudouridine516	p
PHENYL-PYRUVATE	keto-phenylpyruvate	cp
16S-rRNA-uridine516	a uridine516 in 16S rRNA	c
GALACTOSE	&beta;-D-galactose	cp
CPDQT-38	3-[(5'-methylthio)pentyl]malate	cp
LINOLEIC_ACID	linoleate	c
ADENOSYLCOBALAMIN-5-P	adenosylcobalamin 5'-phosphate	p
HCO3	hydrogencarbonate	cp
CPD-7737	(2-carboxy-2,5-dihydro-5-oxofuran-2-yl)-acetate	c
CPD-3706	adenosine 3'-monophosphate	cp
OXALACETIC_ACID	oxaloacetate	cp
CPDQT-39	3-[(6'-methylthio)hexyl]malate	cp
PHENYLACETATE	phenylacetate	cp
ADENOSYLCOBINAMIDE	adenosylcobinamide	p
ADENOSYLCOBINAMIDE-GDP	adenosylcobinamide-GDP	cp
SN-GLYCEROL-1-PHOSPHATE	sn-glycerol 1-phosphate	p
CPD-784	5-carboxymethyl-2-hydroxymuconate	c
CPDQT-40	3-[(7'-methylthio)heptyl]malate	cp
Thi-S	a ThiS sulfur-carrier protein	p
TMP	dTMP	cp
CPDQT-406	S-5-methylthiopentylhydroximoyl-L-cysteine	cp
CPD-3707	adenosine 2',3'-cyclic monophosphate	c
LINOLENIC_ACID	&alpha;-linolenate	c
CPDQT-407	S-6-methylthiohexylhydroximoyl-L-cysteine	cp
OXALO-SUCCINATE	oxalosuccinate	cp
18-HYDROXYOLEATE	18-hydroxyoleate	c
CPDQT-408	S-7-methylthioheptylhydroximoyl-L-cysteine	cp
SO3	sulfite	cp
CPD-785	(3E,5R)-5-carboxy-2-oxohept-3-enedioate	cp
TRANS-2-CHLORO-4-CARBOXYMETHYLENEBUT-2-E	2-chloro-trans-dienelactone	c
2-KETO-3-METHYL-VALERATE	(S)-3-methyl-2-oxopentanoate	cp
FAD	FAD	cp
PYRROLINE-HYDROXY-CARBOXYLATE	(3R,5S)-3-hydroxy-1-pyrroline-5-carboxylate	c
2-KETO-6-AMINO-CAPROATE	6-amino-2-oxohexanoate	p
Alkanesulfonates	an alkylsulfonate	c
CPD-5881	(6R)-4a-hydroxy-tetrahydrobiopterin	cp
Cis-Delta5-dodecenoyl-ACPs	a (5Z)-dodec-5-enoyl-[acp]	c
PREPHENATE	prephenate	cp
URIDINE	uridine	p
DEOXYINOSINE	2'-deoxyinosine	p
Alkyl-Hydro-Peroxides	an organic hydroperoxide	c
FADH2	FADH2	cp
Cis-Delta7-tetradecenoyl-ACPs	a cis-&Delta;7-tetradecenoyl-[acp]	c
Cis-delta-3-decenoyl-ACPs	a (3Z)-dec-3-enoyl-[acp]	c
Alkyl-Thiols	an alkyl-thiol	cp
CPD-592	4-guanidinobutanoate	p
Cis-vaccenoyl-ACPs	a cis-vaccenoyl-[acp]	c
Alkylated-Bases	an alkylated nucleobase	p
URIDYLYL-PROTEIN-PII	a uridylylated PII protein	p
Alkylated-DNAs	an alkylated DNA	c
Methylated-Ribosomal-Protein-L11s	a methylated ribosomal protein L11	p
2-KETO-ISOVALERATE	3-methyl-2-oxobutanoate	cp
DEOXYURIDINE	2'-deoxyuridine	p
CPD-600	N-formyl-L-glutamate	cp
UROCANATE	urocanate	cp
2-KETOGLUTARATE	2-oxoglutarate	cp
2-LYSOPHOSPHATIDYLETHANOLAMINES	a 1-acyl 2-lyso-phosphatidylethanolamine	c
PRISTANATE	pristanate	c
2-3-4-Saturated-L-Phosphatidates	a 1,2-diacyl-sn-glycerol 3-phosphate	c
PYRUVATE	pyruvate	cp
DIMETHYL-D-RIBITYL-LUMAZINE	6,7-dimethyl-8-(1-D-ribityl)lumazine	cp
CPD-602	5-amino-6-(5-phospho-D-ribosylamino)uracil	p
RIBOSE-5P	D-ribose 5-phosphate	cp
Mnm5Se2U-containing-tRNAs	a 5-methylaminomethyl-2-selenouridine in tRNA	p
DIMETHYLBENZIMIDAZOLE	5,6-dimethylbenzimidazole	c
2-Lysophosphatidylcholines	a 1-acyl-sn-glycero-3-phosphocholine	c
CPD-622	(2S,3S)-2-methylcitrate	cp
mRNAs	an mRNA	cp
mRNAs-with-5-monophosphate	a 5'-phospho-[mRNA]	p
ISOQUINOLIN-12H-ONE	isoquinolin-2(1H)-one	p
CPD-13691	(25S)-3-oxocholest-4-en-26-oyl-CoA	p
mRNAs-with-5-triphosphate	a 5' triphospho-[mRNA]	c
CPD-10418	4-sulfocatechol	c
ALPHA-RIBAZOLE	&alpha;-ribazole	cp
Butanoyl-ACPs	a butanoyl-[acp]	c
ALPHA-RIBAZOLE-5-P	&alpha;-ribazole 5'-phosphate	cp
2-ACETO-2-HYDROXY-BUTYRATE	(S)-2-aceto-2-hydroxybutanoate	c
CPD-13699	3,22-dioxochol-4-en-24-oyl-CoA	c
C1	UDP-N-acetyl-&alpha;-D-muramoyl-L-alanyl-&gamma;-D-glutamyl-meso-2,6-diaminopimeloyl-D-alanyl-D-alanine	p
4-CYTIDINE-5-DIPHOSPHO-2-C	4-(cytidine 5'-diphospho)-2-C-methyl-D-erythritol	cp
CPD-10419	3-sulfomuconate	p
CPD-13700	3-oxo-4-pregnene-20-carboxyl-CoA	p
CPD-13711	3-[(3aS,4S,7aS)-7a-methyl-1,5-dioxo-octahydro-1H-inden-4-yl]propanoate	c
4-FUMARYL-ACETOACETATE	4-fumaryl-acetoacetate	cp
C4	undecaprenyl-diphospho-N-acetylmuramoyl-L-alanyl-&gamma;-D-glutamyl-L-lysyl- D-alanyl-D-alanine	c
CPD-10490	N-ethylglycine	c
RIBULOSE-5P	D-ribulose 5-phosphate	cp
CPD-13713	adenosine 5'-phosphoselenate	p
rRNA-fragments	an rRNA fragment	p
CPD-13717	L-selenocystathionine	c
CPD-105	(R)-4-hydroxymandelate	c
GLUTARYL-COA	glutaryl-CoA	p
CPD-10546	methyl (indol-3-yl)acetate	c
C5	undecaprenyldiphospho-N-acetylmuramoyl-L-alanyl-&gamma;-D-glutamyl-meso-2,6-diaminopimeloyl-D-alanyl-D-alanine	cp
ssDNA-RNA-primer-hybrid	an ssDNA/RNA primer hybrid	p
C6	ditrans,octacis-undecaprenyldiphospho-[(N-acetyl-&beta;-D-glucosaminyl)-(1,4)-]-N-acetyl-&alpha;-D-muramoyl-L-alanyl-&gamma;-D-glutamyl-meso-2,6-diaminopimeloyl-D-alanyl-D-alanine	cp
CPD-10576	4-chlorosalicylate	c
ssRNAs	a single-stranded RNA	cp
ISOQUINOLINE	isoquinoline	c
FARNESYL-PP	(2E,6E)-farnesyl diphosphate	c
