dbRef_id	Common name	Number of reaction found	Total number of reaction	Ratio (Reaction found / Total)
PWY-5022	4-aminobutanoate degradation V	3	7	0.43
PWY-7767	leucine degradation IV	1	5	0.20
PWY-6596	adenosine nucleotides degradation I	4	8	0.50
NPGLUCAT-PWY	Entner-Doudoroff pathway II (non-phosphorylative)	2	9	0.22
PWY66-387	fatty acid &alpha;-oxidation II	2	6	0.33
PWY-7550	ergothioneine biosynthesis II (fungi)	1	5	0.20
PWY-6518	glycocholate metabolism (bacteria)	1	7	0.14
PWY66-388	fatty acid &alpha;-oxidation III	1	7	0.14
PWY-5025	indole-3-acetate biosynthesis IV (bacteria)	1	2	0.50
PWY-7560	methylerythritol phosphate pathway II	6	9	0.67
PWY0-1544	proline to cytochrome bo oxidase electron transfer	2	2	1.00
PWY66-389	phytol degradation	1	4	0.25
PWY-6519	8-amino-7-oxononanoate biosynthesis I	5	11	0.45
PWY-7772	&gamma;-resorcylate degradation II	1	4	0.25
PWY-6599	guanine and guanosine salvage II	2	2	1.00
PWY66-391	fatty acid &beta;-oxidation VI (peroxisome)	4	7	0.57
PWY-5028	L-histidine degradation II	4	5	0.80
PWY66-398	TCA cycle III (animals)	8	11	0.73
PWY-7773	&gamma;-resorcylate degradation I	1	4	0.25
PWY0-1545	cardiolipin biosynthesis III	1	3	0.33
PWY-66	GDP-L-fucose biosynthesis I (from GDP-D-mannose)	1	2	0.50
PWY-7573	GDP-mycosamine biosynthesis	1	3	0.33
PWY-5030	L-histidine degradation III	4	6	0.67
PWY66-399	gluconeogenesis III	8	12	0.67
ASPARTATESYN-PWY	L-aspartate biosynthesis	1	1	1.00
HOMOSERSYN-PWY	L-homoserine biosynthesis	3	3	1.00
PWY-7574	propanoyl-CoA degradation II	1	5	0.20
MALATE-ASPARTATE-SHUTTLE-PWY	L-aspartate degradation II	2	2	1.00
PWY-5041	S-adenosyl-L-methionine cycle II	3	4	0.75
PWY0-1561	glycerol-3-phosphate to cytochrome bo oxidase electron transfer	1	2	0.50
PWY-6605	adenine and adenosine salvage II	1	2	0.50
PWY-6527	stachyose degradation	2	7	0.29
CALVIN-PWY	Calvin-Benson-Bassham cycle	7	13	0.54
PHESYN	L-phenylalanine biosynthesis I	2	3	0.67
PWY66-422	D-galactose degradation V (Leloir pathway)	2	5	0.40
PWY-7778	2-methylpropene degradation	1	8	0.12
CODH-PWY	reductive acetyl coenzyme A pathway I (homoacetogenic bacteria)	2	9	0.22
PWY-6535	4-aminobutanoate degradation I	1	2	0.50
PWY-7779	methyl tert-butyl ether degradation	1	10	0.10
COLANSYN-PWY	colanic acid building blocks biosynthesis	1	1	1.00
IDNCAT-PWY	L-idonate degradation	1	3	0.33
PWY0-1565	D-lactate to cytochrome bo oxidase electron transfer	1	2	0.50
CAMALEXIN-SYN	camalexin biosynthesis	1	9	0.11
PWY66-426	hydrogen sulfide biosynthesis II (mammalian)	3	6	0.50
PWY-6606	guanosine nucleotides degradation II	3	4	0.75
PWY-7581	N-acetylneuraminate and N-acetylmannosamine degradation II	1	2	0.50
PWY66-428	L-threonine degradation V	2	2	1.00
PWY-6607	guanosine nucleotides degradation I	2	4	0.50
ANAGLYCOLYSIS-PWY	glycolysis III (from glucose)	8	10	0.80
PWY-7782	plasmalogen biosynthesis	1	16	0.06
PWY-7586	&beta;-1,4-D-mannosyl-N-acetyl-D-glucosamine degradation	2	3	0.67
PWY0-1567	NADH to cytochrome bo oxidase electron transfer II	1	2	0.50
BETA-ALA-DEGRADATION-I-PWY	&beta;-alanine degradation I	1	2	0.50
PWY-7784	reductive acetyl coenzyme A pathway II (autotrophic methanogens)	1	8	0.12
PWY-6608	guanosine nucleotides degradation III	3	4	0.75
PWY-6536	4-aminobutanoate degradation III	1	2	0.50
PWYG-321	mycolate biosynthesis	7	182	0.04
PWY-7790	UMP biosynthesis II	5	6	0.83
PWYQT-4429	CO2 fixation into oxaloacetate (anaplerotic)	1	2	0.50
PWY-6537	4-aminobutanoate degradation II	1	2	0.50
UDPNAGSYN-PWY	UDP-N-acetyl-D-glucosamine biosynthesis I	4	5	0.80
PWY-5046	2-oxoisovalerate decarboxylation to isobutanoyl-CoA	3	3	1.00
THIOREDOX-PWY	thioredoxin pathway	1	2	0.50
PWY-7606	docosahexaenoate biosynthesis III (6-desaturase, mammals)	3	14	0.21
PWY0-1568	NADH to cytochrome bd oxidase electron transfer II	1	2	0.50
PWY-5054	sorbitol biosynthesis I	1	3	0.33
PWY-6609	adenine and adenosine salvage III	4	4	1.00
PWY-7791	UMP biosynthesis III	5	6	0.83
PWYQT-4450	aliphatic glucosinolate biosynthesis, side chain elongation cycle	5	30	0.17
PWY-5057	L-valine degradation II	1	3	0.33
PWY-7622	UDP-&alpha;-D-galactofuranose biosynthesis	1	1	1.00
PWY-7799	Arg/N-end rule pathway (eukaryotic)	1	14	0.07
PWY-6538	caffeine degradation III (bacteria, via demethylation)	1	7	0.14
PWY-6610	adenine salvage	2	3	0.67
PWYQT-4477	indole glucosinolate activation (intact plant cell)	1	10	0.10
RUMP-PWY	formaldehyde oxidation I	3	6	0.50
PWY-5067	glycogen biosynthesis II (from UDP-D-Glucose)	1	4	0.25
PWY-7800	Ac/N-end rule pathway	6	21	0.29
ASPASN-PWY	superpathway of L-aspartate and L-asparagine biosynthesis	1	1	1.00
PWY-6611	adenine and adenosine salvage V	2	3	0.67
PWY-7626	bacilysin biosynthesis	1	10	0.10
PWY0-1576	hydrogen to fumarate electron transfer	1	2	0.50
PWY-5074	mevalonate degradation	1	2	0.50
PWY-7654	(8E,10E)-dodeca-8,10-dienol biosynthesis	3	11	0.27
PWY-5076	L-leucine degradation III	1	3	0.33
PWY-7656	Spodoptera littoralis pheromone biosynthesis	2	22	0.09
PWY-7801	N-end rule pathway I (prokaryotic)	2	2	1.00
PWY0-1582	glycerol-3-phosphate to fumarate electron transfer	1	2	0.50
PWY-5078	L-isoleucine degradation II	1	3	0.33
PWY-6543	4-aminobenzoate biosynthesis	1	2	0.50
CENTBENZCOA-PWY	benzoyl-CoA degradation II (anaerobic)	1	7	0.14
PWY-7657	dTDP-&beta;-L-digitoxose biosynthesis	2	7	0.29
PWY-7805	aminomethylphosphonate degradation	2	8	0.25
GLYCOLATEMET-PWY	glycolate and glyoxylate degradation I	2	4	0.50
CENTFERM-PWY	pyruvate fermentation to butanoate	1	7	0.14
PWY-5083	NAD/NADH phosphorylation and dephosphorylation	3	6	0.50
PWY-7659	viridicatumtoxin biosynthesis	1	9	0.11
PWY-7663	gondoate biosynthesis (anaerobic)	2	4	0.50
PWY-7807	glyphosate degradation III	2	7	0.29
ASPARAGINE-DEG1-PWY	L-asparagine degradation I	1	1	1.00
PWY-6613	tetrahydrofolate salvage from 5,10-methenyltetrahydrofolate	1	2	0.50
PWY-5084	2-oxoglutarate decarboxylation to succinyl-CoA	3	3	1.00
PWY-6545	pyrimidine deoxyribonucleotides de novo biosynthesis III	7	9	0.78
PWY-7664	oleate biosynthesis IV (anaerobic)	6	14	0.43
BETSYN-PWY	glycine betaine biosynthesis I (Gram-negative bacteria)	2	2	1.00
PWY-6614	tetrahydrofolate biosynthesis	2	3	0.67
PWY-7688	dTDP-D-ravidosamine and dTDP-4-acetyl-D-ravidosamine biosynthesis	2	6	0.33
PWY-7814	dTDP-L-daunosamine biosynthesis	2	6	0.33
PWY0-166	superpathway of pyrimidine deoxyribonucleotides de novo biosynthesis (E. coli)	11	13	0.85
PWY-7318	dTDP-3-acetamido-3,6-dideoxy-&alpha;-D-glucose biosynthesis	2	5	0.40
PWY-7888	tRNA-uridine 2-thiolation (cytoplasmic)	1	7	0.14
PWY0-1264	biotin-carboxyl carrier protein assembly	2	4	0.50
PWY-6664	di-myo-inositol phosphate biosynthesis	1	4	0.25
PWY-5129	sphingolipid biosynthesis (plants)	1	13	0.08
PWY-7889	tRNA-uridine 2-thiolation (mammalian mitochondria)	1	4	0.25
PWY-7891	tRNA-uridine 2-thiolation (yeast mitochondria)	1	4	0.25
PWY-6672	cis-genanyl-CoA degradation	1	9	0.11
PWY-7328	superpathway of UDP-glucose-derived O-antigen building blocks biosynthesis	2	2	1.00
PWY0-1275	lipoate biosynthesis and incorporation II	2	2	1.00
PWY-7892	tRNA-uridine 2-thiolation (bacteria)	2	8	0.25
PWY-5130	2-oxobutanoate degradation I	1	1	1.00
PWY-7337	10-cis-heptadecenoyl-CoA degradation (yeast)	3	12	0.25
HEME-BIOSYNTHESIS-II	heme b biosynthesis I (aerobic)	3	4	0.75
PWY-5737	(5R)-carbapenem carboxylate biosynthesis	1	6	0.17
PWY-7893	protein Pupylation and dePupylation	2	3	0.67
PWY-7338	10-trans-heptadecenoyl-CoA degradation (reductase-dependent, yeast)	3	12	0.25
PWY-5132	lupulone and humulone biosynthesis	1	6	0.17
PWY-5738	GDP-6-deoxy-D-talose biosynthesis	1	2	0.50
PWY-6679	jadomycin biosynthesis	1	9	0.11
PWY-7339	10-trans-heptadecenoyl-CoA degradation (MFE-dependent, yeast)	1	6	0.17
GLUTAMINEFUM-PWY	L-glutamine degradation II	1	1	1.00
PWY-7900	glycogen biosynthesis III (from &alpha;-maltose 1-phosphate)	1	8	0.12
PWY-7340	9-cis, 11-trans-octadecadienoyl-CoA degradation (isomerase-dependent, yeast)	3	10	0.30
PWY-5133	colupulone and cohumulone biosynthesis	1	6	0.17
PWY-6683	sulfate reduction III (assimilatory)	1	3	0.33
PWY-7342	superpathway of nicotine biosynthesis	3	9	0.33
TEICHOICACID-PWY	poly(glycerol phosphate) wall teichoic acid biosynthesis	1	12	0.08
PWY-7902	glucosylglycerol biosynthesis	1	5	0.20
PWY-5739	GDP-D-perosamine biosynthesis	1	2	0.50
PWY-6686	mannosylglucosylglycerate biosynthesis I	1	3	0.33
PWY-7343	UDP-&alpha;-D-glucose biosynthesis I	1	2	0.50
PWY0-1295	pyrimidine ribonucleosides degradation	2	2	1.00
PPGPPMET-PWY	ppGpp biosynthesis	3	6	0.50
PWY-7904	tRNA-uridine 2-thiolation (thermophilic bacteria)	1	5	0.20
PWY-5136	fatty acid &beta;-oxidation II (peroxisome)	4	5	0.80
PWY-5740	GDP-L-colitose biosynthesis	1	5	0.20
PWY-6690	cinnamate and 3-hydroxycinnamate degradation to 2-oxopent-4-enoate	1	6	0.17
PWY-7908	formaldehyde oxidation V (bacillithiol-dependent)	1	3	0.33
PWY0-1296	purine ribonucleosides degradation	5	6	0.83
TRESYN-PWY	trehalose biosynthesis I	1	2	0.50
PWY-5741	ethylmalonyl-CoA pathway	2	11	0.18
SULFMETII-PWY	sulfate reduction II (assimilatory)	1	3	0.33
PANTO-PWY	phosphopantothenate biosynthesis I	3	4	0.75
PWY-7344	UDP-&alpha;-D-galactose biosynthesis	1	1	1.00
GLYOXYLATE-BYPASS	glyoxylate cycle	4	6	0.67
DAPLYSINESYN-PWY	L-lysine biosynthesis I	9	9	1.00
PWY-6691	plaunotol biosynthesis	1	3	0.33
PWY-7909	formaldehyde oxidation VII (THF pathway)	3	4	0.75
PWY-6692	Fe(II) oxidation	1	6	0.17
PWY-7927	sulfide oxidation IV (metazoa)	1	5	0.20
ARGSYN-PWY	L-arginine biosynthesis I (via L-ornithine)	4	4	1.00
PWY-5743	3-hydroxypropanoate cycle	5	13	0.38
PWY-5138	unsaturated, even numbered fatty acid &beta;-oxidation	1	5	0.20
HEMESYN2-PWY	heme b biosynthesis II (anaerobic)	2	4	0.50
HOMOCYSDEGR-PWY	L-cysteine biosynthesis III (from L-homocysteine)	1	4	0.25
PWY-7942	5-oxo-L-proline metabolism	1	6	0.17
PWY-5744	glyoxylate assimilation	2	13	0.15
PWY-6695	oxalate degradation II	1	3	0.33
PWY-7948	levulinate degradation	1	9	0.11
TRIGLSYN-PWY	diacylglycerol and triacylglycerol biosynthesis	1	7	0.14
PWY-5747	2-methylcitrate cycle II	1	6	0.17
PWY-7346	UDP-&alpha;-D-glucuronate biosynthesis (from UDP-glucose)	1	1	1.00
PWY-5143	long-chain fatty acid activation	1	1	1.00
PWY-5750	itaconate biosynthesis	3	4	0.75
PWY-5754	4-hydroxybenzoate biosynthesis I (eukaryotes)	1	6	0.17
PWY-7953	UDP-N-acetylmuramoyl-pentapeptide biosynthesis III (meso-diaminopimelate containing)	5	8	0.62
PWY0-1313	acetate conversion to acetyl-CoA	1	1	1.00
PWY-5147	oleate biosynthesis I (plants)	1	3	0.33
PEPTIDOGLYCANSYN-PWY	peptidoglycan biosynthesis I (meso-diaminopimelate containing)	2	2	1.00
PWY-7962	adenosylcobinamide-GDP biosynthesis from cobyrinate a,c-diamide	1	5	0.20
PWY-5766	L-glutamate degradation X	1	1	1.00
PWY-7347	sucrose biosynthesis III	1	3	0.33
PWY-801	homocysteine and cysteine interconversion	2	4	0.50
OXIDATIVEPENT-PWY	pentose phosphate pathway (oxidative branch) I	2	3	0.67
PWY-6703	preQ0 biosynthesis	1	4	0.25
ARGSYNBSUB-PWY	L-arginine biosynthesis II (acetyl cycle)	9	9	1.00
PWY-5785	di-trans,poly-cis-undecaprenyl phosphate biosynthesis	2	2	1.00
PWY-735	jasmonic acid biosynthesis	9	19	0.47
PWY0-1319	CDP-diacylglycerol biosynthesis II	2	4	0.50
PWY-7356	thiamine salvage IV (yeast)	1	7	0.14
CITRULBIO-PWY	L-citrulline biosynthesis	6	8	0.75
PWY-5154	L-arginine biosynthesis III (via N-acetyl-L-citrulline)	8	9	0.89
PWY-5789	3-hydroxypropanoate/4-hydroxybutanate cycle	6	18	0.33
PWY-81	toluene degradation to benzoyl-CoA (anaerobic)	1	6	0.17
GLYSYN-ALA-PWY	glycine biosynthesis III	1	1	1.00
CITRULLINE-DEG-PWY	L-citrulline degradation	2	2	1.00
FAO-PWY	fatty acid &beta;-oxidation I	4	7	0.57
PWY-6707	gallate biosynthesis	1	3	0.33
PWY-7357	thiamine formation from pyrithiamine and oxythiamine (yeast)	1	6	0.17
PWY0-1329	succinate to cytochrome bo oxidase electron transfer	2	2	1.00
PWY-581	indole-3-acetate biosynthesis II	1	13	0.08
PWY-5269	cardiolipin biosynthesis II	1	3	0.33
PWY-5973	cis-vaccenate biosynthesis	2	5	0.40
ETHYL-PWY	ethylene biosynthesis I (plants)	1	3	0.33
P23-PWY	reductive TCA cycle I	8	12	0.67
PWY-7193	pyrimidine ribonucleosides salvage I	2	3	0.67
PWY1G-126	mycothiol oxidation	1	2	0.50
PWY-6871	3-methylbutanol biosynthesis (engineered)	4	7	0.57
PWY-6268	adenosylcobalamin salvage from cobalamin	1	1	1.00
PWY-5488	4-nitrophenol degradation II	1	5	0.20
PWY-6873	long chain fatty acid ester synthesis (engineered)	1	4	0.25
PWY1G-170	formaldehyde oxidation III (mycothiol-dependent)	1	3	0.33
PWY-5278	sulfite oxidation III	1	2	0.50
PWY-5981	CDP-diacylglycerol biosynthesis III	3	5	0.60
PWY-6876	isopropanol biosynthesis (engineered)	1	5	0.20
PWY-5987	sorgoleone biosynthesis	1	8	0.12
PWY-6138	CMP-N-acetylneuraminate biosynthesis I (eukaryotes)	1	5	0.20
PWY-6883	pyruvate fermentation to butanol II (engineered)	1	6	0.17
PWY-5290	secologanin and strictosidine biosynthesis	1	13	0.08
PWY-6269	adenosylcobalamin salvage from cobinamide II	2	7	0.29
P321-PWY	benzoyl-CoA degradation III (anaerobic)	3	9	0.33
PWY-5989	stearate biosynthesis II (bacteria and plants)	2	6	0.33
PWY-5491	diethylphosphate degradation	1	2	0.50
PWY3DJ-11470	sphingosine and sphingosine-1-phosphate metabolism	1	5	0.20
PWY-6886	1-butanol autotrophic biosynthesis (engineered)	3	5	0.60
PWY-5497	purine nucleobases degradation II (anaerobic)	6	24	0.25
PWY-6139	CMP-N-acetylneuraminate biosynthesis II (bacteria)	2	3	0.67
PWY-5994	palmitate biosynthesis I (animals and fungi)	7	31	0.23
GAMMAHEXCHLORDEG-PWY	&gamma;-hexachlorocyclohexane degradation	1	11	0.09
PWY-6890	4-amino-2-methyl-5-diphosphomethylpyrimidine biosynthesis	2	2	1.00
PWY-6277	superpathway of 5-aminoimidazole ribonucleotide biosynthesis	4	5	0.80
P341-PWY	glycolysis V (Pyrococcus)	5	9	0.56
PWY3O-355	stearate biosynthesis III (fungi)	2	6	0.33
PWY-5996	oleate biosynthesis II (animals and fungi)	1	2	0.50
PWY-6142	gluconeogenesis II (Methanobacterium thermoautotrophicum)	8	13	0.62
PWY-7197	pyrimidine deoxyribonucleotide phosphorylation	4	4	1.00
PWY490-3	nitrate reduction VI (assimilatory)	2	4	0.50
PWY-5870	ubiquinol-8 biosynthesis (eukaryotic)	1	9	0.11
PWY-5316	nicotine biosynthesis	3	9	0.33
P343-PWY	resorcinol degradation	1	3	0.33
PWY-5506	methanol oxidation to formaldehyde IV	1	2	0.50
PWY-6281	L-selenocysteine biosynthesis II (archaea and eukaryotes)	1	4	0.25
VALDEG-PWY	L-valine degradation I	3	8	0.38
PWY-6000	&gamma;-linolenate biosynthesis II (animals)	1	2	0.50
ETOH-ACETYLCOA-ANA-PWY	ethanol degradation I	1	2	0.50
PWY-6001	linoleate biosynthesis II (animals)	1	2	0.50
PWY-7198	pyrimidine deoxyribonucleotides de novo biosynthesis IV	5	7	0.71
PWY-6891	thiazole biosynthesis II (aerobic bacteria)	3	7	0.43
PWY-5872	ubiquinol-10 biosynthesis (eukaryotic)	1	9	0.11
PWY-5509	adenosylcobalamin biosynthesis from adenosylcobinamide-GDP	1	3	0.33
REDCITCYC	TCA cycle VIII (helicobacter)	8	9	0.89
PWY-7199	pyrimidine deoxyribonucleosides salvage	4	5	0.80
PWY-6282	palmitoleate biosynthesis I (from (5Z)-dodec-5-enoate)	4	9	0.44
PWY-6012	acyl carrier protein metabolism	2	2	1.00
PWY4FS-7	phosphatidylglycerol biosynthesis I (plastidic)	1	2	0.50
PWY-5885	wax esters biosynthesis II	1	4	0.25
PWY-6146	Methanobacterium thermoautotrophicum biosynthetic metabolism	1	2	0.50
PWY-5329	L-cysteine degradation III	1	2	0.50
PWY-6012-1	acyl carrier protein activation	1	1	1.00
PWY-6147	6-hydroxymethyl-dihydropterin diphosphate biosynthesis I	2	5	0.40
PWY-5514	UDP-N-acetyl-D-galactosamine biosynthesis II	3	7	0.43
PWY-6892	thiazole biosynthesis I (facultative anaerobic bacteria)	4	7	0.57
PWY4FS-8	phosphatidylglycerol biosynthesis II (non-plastidic)	1	2	0.50
P345-PWY	aldoxime degradation	1	3	0.33
P101-PWY	ectoine biosynthesis	2	5	0.40
PWY-7204	pyridoxal 5'-phosphate salvage II (plants)	3	9	0.33
OANTIGEN-PWY	O-antigen building blocks biosynthesis (E. coli)	1	1	1.00
PWY4LZ-257	superpathway of fermentation (Chlamydomonas reinhardtii)	1	7	0.14
PWY-5523	5,6-dimethylbenzimidazole biosynthesis I (aerobic)	3	3	1.00
CHOLINE-BETAINE-ANA-PWY	choline degradation I	2	2	1.00
PWY-6148	tetrahydromethanopterin biosynthesis	1	14	0.07
PWY-5340	sulfate activation for sulfonation	2	2	1.00
PWY5F9-12	biphenyl degradation	1	5	0.20
PLPSAL-PWY	pyridoxal 5'-phosphate salvage I	3	5	0.60
PHOSPHONOTASE-PWY	2-aminoethylphosphonate degradation I	1	3	0.33
PWY-7205	CMP phosphorylation	2	2	1.00
RHAMCAT-PWY	L-rhamnose degradation I	1	5	0.20
PWY-6893	thiamine diphosphate biosynthesis II (Bacillus)	1	2	0.50
PWY-5530	sorbitol biosynthesis II	1	3	0.33
PWY-6028	acetoin degradation	1	1	1.00
PWY-6151	S-adenosyl-L-methionine cycle I	1	4	0.25
PWY-6894	thiamine diphosphate biosynthesis I (E. coli)	1	2	0.50
P105-PWY	TCA cycle IV (2-oxoglutarate decarboxylase)	8	11	0.73
PWY66-161	ethanol degradation III	1	3	0.33
PWY-7206	pyrimidine deoxyribonucleotides dephosphorylation	1	3	0.33
VALSYN-PWY	L-valine biosynthesis	4	4	1.00
PWY-5531	3,8-divinyl-chlorophyllide a biosynthesis II (anaerobic)	2	9	0.22
PWY-6041	4-sulfocatechol degradation	1	4	0.25
PWY-5532	nucleoside and nucleotide degradation (archaea)	3	10	0.30
PWY66-162	ethanol degradation IV	2	3	0.67
P108-PWY	pyruvate fermentation to propanoate I	6	7	0.86
PWY-6059	dimethyl sulfide degradation II (oxidation)	1	5	0.20
PWY66-201	nicotine degradation IV	1	17	0.06
PYRUVDEHYD-PWY	pyruvate decarboxylation to acetyl CoA	3	3	1.00
14DICHLORBENZDEG-PWY	1,4-dichlorobenzene degradation	3	9	0.33
PWY-6061	bile acid biosynthesis, neutral pathway	4	29	0.14
PWY66-21	ethanol degradation II	1	3	0.33
PWY-5350	thiosulfate disproportionation IV (rhodanese)	1	1	1.00
PWY-6308	L-cysteine biosynthesis II (tRNA-dependent)	1	3	0.33
PWY66-366	flavin biosynthesis IV (mammalian)	2	2	1.00
P121-PWY	adenine and adenosine salvage I	2	2	1.00
PWY-561	superpathway of glyoxylate cycle and fatty acid degradation	3	4	0.75
NADPHOS-DEPHOS-PWY	NAD phosphorylation and dephosphorylation	3	3	1.00
NADPHOS-DEPHOS-PWY-1	NAD phosphorylation and transhydrogenation	2	2	1.00
PWY66-367	ketogenesis	2	5	0.40
PWY-7210	pyrimidine deoxyribonucleotides biosynthesis from CTP	6	8	0.75
PWY-6896	thiamine salvage I	1	2	0.50
PWY-6163	chorismate biosynthesis from 3-dehydroquinate	4	6	0.67
P122-PWY	heterolactic fermentation	8	18	0.44
PWY-6309	L-tryptophan degradation XI (mammalian, via kynurenine)	5	11	0.45
4-HYDROXYMANDELATE-DEGRADATION-PWY	4-hydroxymandelate degradation	1	6	0.17
PWY-5901	2,3-dihydroxybenzoate biosynthesis	2	3	0.67
PWY66-368	ketolysis	2	3	0.67
PWY-5367	petroselinate biosynthesis	2	6	0.33
PWY-6317	D-galactose degradation I (Leloir pathway)	2	5	0.40
PWY-5644	4-nitrotoluene degradation II	2	9	0.22
P124-PWY	Bifidobacterium shunt	8	15	0.53
PWY-5645	4-chloronitrobenzene degradation	2	9	0.22
PWY-6164	3-dehydroquinate biosynthesis I	2	2	1.00
PWY66-373	sucrose degradation V (sucrose &alpha;-glucosidase)	2	5	0.40
PWY-6080	4-ethylphenol degradation (anaerobic)	1	6	0.17
PWY-6897	thiamine salvage II	1	3	0.33
PWY-1042	glycolysis IV (plant cytosol)	6	10	0.60
PWY-4321	L-glutamate degradation IV	1	5	0.20
PWY-7049	icosapentaenoate biosynthesis II (6-desaturase, mammals)	1	7	0.14
PWY-321	cutin biosynthesis	1	16	0.06
GLUCOSE1PMETAB-PWY	glucose and glucose-1-phosphate degradation	1	5	0.20
PWY-6945	cholesterol degradation to androstenedione I (cholesterol oxidase)	4	17	0.24
PWY-7413	dTDP-6-deoxy-&alpha;-D-allose biosynthesis	2	4	0.50
ASPARAGINE-DEG1-PWY-1	L-asparagine degradation III (mammalian)	2	3	0.67
PWY-6397	mycolyl-arabinogalactan-peptidoglycan complex biosynthesis	2	17	0.12
PWY-7081	4-aminophenol degradation	1	4	0.25
PWY-7414	dTDP-&alpha;-D-mycaminose biosynthesis	2	5	0.40
PWY-6946	cholesterol degradation to androstenedione II (cholesterol dehydrogenase)	3	22	0.14
PWY0-321	phenylacetate degradation I (aerobic)	3	9	0.33
HSERMETANA-PWY	L-methionine biosynthesis III	2	2	1.00
ILEUDEG-PWY	L-isoleucine degradation I	5	6	0.83
ALANINE-SYN2-PWY	L-alanine biosynthesis II	1	1	1.00
PWY-1121	suberin monomers biosynthesis	2	19	0.11
PWY-4381	fatty acid biosynthesis initiation I	1	3	0.33
PWY-7432	L-phenylalanine biosynthesis III (cytosolic, plants)	2	4	0.50
GLUTATHIONESYN-PWY	glutathione biosynthesis	1	2	0.50
PWY-6948	sitosterol degradation to androstenedione	1	18	0.06
PWY-5097	L-lysine biosynthesis VI	6	7	0.86
PWY-3221	dTDP-L-rhamnose biosynthesis II	2	3	0.67
ILEUSYN-PWY	L-isoleucine biosynthesis I (from threonine)	5	7	0.71
PWY-6949	DIBOA-glucoside biosynthesis	1	6	0.17
PWY-7440	dTDP-&beta;-L-4-epi-vancosamine biosynthesis	2	8	0.25
GLUDEG-I-PWY	GABA shunt	2	4	0.50
PWY-1341	phenylacetate degradation II (anaerobic)	1	4	0.25
PWY-7082	ammonia oxidation IV (autotrophic ammonia oxidizers)	1	2	0.50
PWY-7442	drosopterin and aurodrosopterin biosynthesis	2	7	0.29
PWY-6406	salicylate biosynthesis I	1	2	0.50
PWY-7085	triethylamine degradation	1	6	0.17
PWY-6952	glycerophosphodiester degradation	1	2	0.50
PWY-5101	L-isoleucine biosynthesis II	5	8	0.62
PWY-1361	benzoyl-CoA degradation I (aerobic)	2	7	0.29
PWY-7455	allopregnanolone biosynthesis	1	2	0.50
PWY0-41	allantoin degradation IV (anaerobic)	1	4	0.25
GLUT-REDOX-PWY	glutathione-glutaredoxin redox reactions	1	3	0.33
PWY-7094	fatty acid salvage	3	6	0.50
ALANINE-VALINESYN-PWY	L-alanine biosynthesis I	2	3	0.67
PWY-7456	&beta;-(1,4)-mannan degradation	2	7	0.29
GLYCOLYSIS	glycolysis I (from glucose 6-phosphate)	9	12	0.75
PWY-7102	bisabolene biosynthesis (engineered)	2	6	0.33
PWY-4621	arsenate detoxification II (glutaredoxin)	1	2	0.50
PWY-1422	vitamin E biosynthesis (tocopherols)	1	7	0.14
BSUBPOLYAMSYN-PWY	spermidine biosynthesis I	1	2	0.50
PWY-5103	L-isoleucine biosynthesis III	4	7	0.57
PWY-6416	quinate degradation II	1	3	0.33
GLYCOLYSIS-E-D	superpathway of glycolysis and the Entner-Doudoroff pathway	2	2	1.00
PWY-7104	dTDP-L-megosamine biosynthesis	2	8	0.25
PWY-3341	L-proline biosynthesis III	4	5	0.80
PWY-6953	dTDP-3-acetamido-&alpha;-D-fucose biosynthesis	2	5	0.40
PWY-7480	2,3-dihydroxybenzoate degradation	1	5	0.20
PWY-5104	L-isoleucine biosynthesis IV	4	6	0.67
GDPRHAMSYN-PWY	GDP-D-rhamnose biosynthesis	1	2	0.50
PWY0-42	2-methylcitrate cycle I	1	5	0.20
TYRSYN	L-tyrosine biosynthesis I	1	3	0.33
PWY-7492	paspaline biosynthesis	1	6	0.17
PWY-4661	1D-myo-inositol hexakisphosphate biosynthesis III (Spirodela polyrrhiza)	1	7	0.14
PWY-6421	arsenate detoxification III (mycothiol)	1	4	0.25
PWY-5108	L-isoleucine biosynthesis V	2	3	0.67
PWY-7111	pyruvate fermentation to isobutanol (engineered)	3	5	0.60
PWY-4702	phytate degradation I	2	14	0.14
PWY-1501	mandelate degradation I	1	5	0.20
PWY-3461	L-tyrosine biosynthesis II	1	3	0.33
PWY-7494	choline degradation IV	1	2	0.50
PWY-5109	fermentation to 2-methylbutanoate	3	6	0.50
LEU-DEG2-PWY	L-leucine degradation I	4	6	0.67
PWY-7112	4-hydroxy-2-nonenal detoxification	1	4	0.25
PWY0-43	conversion of succinate to propanoate	2	3	0.67
PWY-6426	uracil degradation II (oxidative)	1	3	0.33
PWY-7517	brassicicene C biosynthesis	1	7	0.14
PWY-7115	C4 photosynthetic carbon assimilation cycle, NAD-ME type	7	9	0.78
PWY-6430	thymine degradation	1	3	0.33
PWY-6963	ammonia assimilation cycle I	1	2	0.50
PWY-1581	plastoquinol-9 biosynthesis I	1	3	0.33
PWY-3462	L-phenylalanine biosynthesis II	1	3	0.33
PWY-7524	mevalonate pathway III (archaea)	2	8	0.25
PWY-7117	C4 photosynthetic carbon assimilation cycle, PEPCK type	6	10	0.60
PWY-5120	geranylgeranyl diphosphate biosynthesis	1	1	1.00
PWY-6435	4-hydroxybenzoate biosynthesis V	3	5	0.60
PWY-4942	sterculate biosynthesis	1	2	0.50
PWY0-501	lipoate biosynthesis and incorporation I	2	2	1.00
GLUTAMATE-DEG1-PWY	L-glutamate degradation I	1	1	1.00
PWY-6964	ammonia assimilation cycle II	1	2	0.50
GLUTSYN-PWY	L-glutamate biosynthesis I	1	1	1.00
PWY-6466	pyridoxal 5'-phosphate biosynthesis II	1	1	1.00
ARG-GLU-PWY	L-arginine degradation VII (arginase 3 pathway)	1	2	0.50
PWY-4981	L-proline biosynthesis II (from arginine)	4	6	0.67
PWY-7118	chitin degradation to ethanol	1	6	0.17
PWY-1622	formaldehyde assimilation I (serine pathway)	3	13	0.23
PWY-6969	TCA cycle V (2-oxoglutarate:ferredoxin oxidoreductase)	8	12	0.67
ARG-PRO-PWY	L-arginine degradation VI (arginase 2 pathway)	2	4	0.50
PWY-4983	nitric oxide biosynthesis II (mammals)	2	3	0.67
PWY0-522	lipoate salvage I	2	2	1.00
PWY-7119	sphingolipid recycling and degradation (yeast)	2	11	0.18
PWY-1722	formate assimilation into 5,10-methylenetetrahydrofolate	2	3	0.67
PWY-6973	dTDP-D-olivose, dTDP-D-oliose and dTDP-D-mycarose biosynthesis	2	9	0.22
ADENOSYLHOMOCYSCAT-PWY	L-methionine salvage from L-homocysteine	1	3	0.33
PWY-7533	gliotoxin biosynthesis	1	9	0.11
PWY-7124	ethylene biosynthesis V (engineered)	5	8	0.62
PWY-4984	urea cycle	4	5	0.80
PWY-6471	peptidoglycan biosynthesis IV (Enterococcus faecium)	1	6	0.17
PWY-3661	glycine betaine degradation I	1	7	0.14
PWY-7126	ethylene biosynthesis IV (engineered)	1	3	0.33
PWY0-541	cyclopropane fatty acid (CFA) biosynthesis	1	1	1.00
PWY-3661-1	glycine betaine degradation II (mammalian)	1	4	0.25
SO4ASSIM-PWY	sulfate reduction I (assimilatory)	1	2	0.50
PWY-7141	(3S)-linalool biosynthesis	1	2	0.50
PWY-7539	6-hydroxymethyl-dihydropterin diphosphate biosynthesis III (Chlamydia)	1	5	0.20
GLUTSYNIII-PWY	L-glutamate biosynthesis III	1	1	1.00
PWY-3722	glycine betaine biosynthesis II (Gram-positive bacteria)	1	2	0.50
PWY-6483	ceramide degradation	1	3	0.33
PWY-6974	dTDP-L-olivose biosynthesis	2	7	0.29
PWY-5	canavanine biosynthesis	2	4	0.50
PROPIONMET-PWY	propanoyl CoA degradation I	3	3	1.00
ARGASEDEG-PWY	L-arginine degradation I (arginase pathway)	2	3	0.67
PWY-7147	8-amino-7-oxononanoate biosynthesis II	1	2	0.50
PWY-7544	pyruvate to cytochrome bo oxidase electron transfer	1	2	0.50
PWY-6976	dTDP-L-mycarose biosynthesis	2	7	0.29
PWY-3781	aerobic respiration I (cytochrome c)	2	4	0.50
PWY-5122	geranyl diphosphate biosynthesis	1	1	1.00
RIBOKIN-PWY	ribose phosphorylation	1	3	0.33
PWY-181	photorespiration	1	9	0.11
PWY-3801	sucrose degradation II (sucrose synthase)	2	5	0.40
PWY-1861	formaldehyde assimilation II (assimilatory RuMP Cycle)	6	9	0.67
PWY-6981	chitin biosynthesis	1	2	0.50
PWY-7153	grixazone biosynthesis	2	8	0.25
PWY-6983	threo-tetrahydrobiopterin biosynthesis	1	3	0.33
PWY-6505	L-tryptophan degradation XII (Geobacillus)	1	1	1.00
PWY-7545	pyruvate to cytochrome bd oxidase electron transfer	1	2	0.50
PWY-5123	trans, trans-farnesyl diphosphate biosynthesis	2	3	0.67
PWY-6984	lipoate salvage II	2	4	0.50
PWY0-662	PRPP biosynthesis I	1	1	1.00
PWY-381	nitrate reduction II (assimilatory)	1	3	0.33
PWY-6509	methanol oxidation to formaldehyde III	1	1	1.00
PWY-6549	L-glutamine biosynthesis III	6	9	0.67
PWY-5676	acetyl-CoA fermentation to butanoate II	1	5	0.20
PWY-6708	ubiquinol-8 biosynthesis (prokaryotic)	2	8	0.25
PWY-7815	poly(ribitol phosphate) wall teichoic acid biosynthesis I (B. subtilis)	1	15	0.07
GLYSYN-PWY	glycine biosynthesis I	1	1	1.00
COA-PWY	coenzyme A biosynthesis I (prokaryotic)	3	4	0.75
PWY-5677	succinate fermentation to butanoate	1	7	0.14
PWY0-1334	NADH to cytochrome bd oxidase electron transfer I	1	2	0.50
GLUCARDEG-PWY	D-glucarate degradation I	1	4	0.25
PWY-7693	guadinomine B biosynthesis	3	12	0.25
COA-PWY-1	superpathway of coenzyme A biosynthesis III (mammals)	1	1	1.00
PROUT-PWY	L-proline degradation	2	3	0.67
PWY-7816	poly(ribitol phosphate) wall teichoic acid biosynthesis II (S. aureus)	1	17	0.06
PWY-7250	[2Fe-2S] iron-sulfur cluster biosynthesis	2	10	0.20
PWY-5686	UMP biosynthesis I	6	6	1.00
PWY-6722	candicidin biosynthesis	1	6	0.17
PWY0-1335	NADH to cytochrome bo oxidase electron transfer I	1	2	0.50
PWY-6620	guanine and guanosine salvage	2	2	1.00
PWY-7254	TCA cycle VII (acetate-producers)	7	9	0.78
PWY-6728	methylaspartate cycle	11	19	0.58
ASPARTATE-DEG1-PWY	L-aspartate degradation I	1	1	1.00
PWY-7817	type I lipoteichoic acid biosynthesis (S. aureus)	3	16	0.19
PWY-7698	2,5-xylenol and 3,5-xylenol degradation	1	13	0.08
PWY-6731	starch degradation III	1	4	0.25
PWY-6556	pyrimidine ribonucleosides salvage II	1	2	0.50
PWY-7709	(3R)-linalool biosynthesis	1	2	0.50
PWY-7819	poly(3-O-&beta;-D-glucopyranosyl-N-acetylgalactosamine 1-phosphate) wall teichoic acid biosynthesis	1	11	0.09
PWY-6733	sporopollenin precursors biosynthesis	4	18	0.22
PWY-6627	salinosporamide A biosynthesis	2	15	0.13
PWY-7255	ergothioneine biosynthesis I (bacteria)	2	7	0.29
PWY-7820	teichuronic acid biosynthesis (B. subtilis 168)	1	9	0.11
PWY0-1336	NADH to fumarate electron transfer	1	2	0.50
PWY-7716	penicillin G and penicillin V biosynthesis	1	4	0.25
PWY-7268	NAD/NADP-NADH/NADPH cytosolic interconversion (yeast)	3	5	0.60
PWY-6559	spermidine biosynthesis II	2	4	0.50
PWY-5690	TCA cycle II (plants and fungi)	7	9	0.78
PWY-7717	3-hydroxy-4-methyl-anthranilate biosynthesis I	2	6	0.33
PWY-6737	starch degradation V	1	4	0.25
PWY-6562	norspermidine biosynthesis	2	6	0.33
PWY-7849	urate conversion to allantoin III	2	3	0.67
MANNCAT-PWY	D-mannose degradation	1	1	1.00
PWY-5691	urate conversion to allantoin I	2	3	0.67
PWY-6749	CMP-legionaminate biosynthesis I	1	10	0.10
KETOGLUCONMET-PWY	ketogluconate metabolism	1	5	0.20
PWY0-1337	oleate &beta;-oxidation	1	3	0.33
PWY-7851	coenzyme A biosynthesis II (eukaryotic)	3	4	0.75
PWY-7269	NAD/NADP-NADH/NADPH mitochondrial interconversion (yeast)	1	5	0.20
PWY-7720	ophiobolin F biosynthesis	1	3	0.33
PWY-5692	allantoin degradation to glyoxylate II	1	2	0.50
PWY-6797	6-hydroxymethyl-dihydropterin diphosphate biosynthesis II (Methanocaldococcus)	1	7	0.14
PWY-7721	methyl phomopsenoate biosynthesis	2	4	0.50
PWY-7852	6-hydroxymethyl-dihydropterin diphosphate biosynthesis IV (Plasmodium)	2	3	0.67
PWY0-1353	succinate to cytochrome bd oxidase electron transfer	2	2	1.00
FASYN-ELONG-PWY	fatty acid elongation -- saturated	2	5	0.40
ALACAT2-PWY	L-alanine degradation II (to D-lactate)	2	3	0.67
PWY-6803	phosphatidylcholine acyl editing	1	4	0.25
PWY-7853	6-hydroxymethyl-dihydropterin diphosphate biosynthesis V (Pyrococcus)	1	4	0.25
PWY-7723	bacterial bioluminescence	2	8	0.25
PWY-6578	8-amino-7-oxononanoate biosynthesis III	1	2	0.50
PWY-7279	aerobic respiration II (cytochrome c) (yeast)	2	4	0.50
PWY-6808	dTDP-D-forosamine biosynthesis	2	9	0.22
PWY-7724	icosapentaenoate biosynthesis III (8-desaturase, mammals)	1	7	0.14
PWY-5695	inosine 5'-phosphate degradation	3	4	0.75
PWY-7854	crotonyl-CoA/ethylmalonyl-CoA/hydroxybutyryl-CoA cycle (engineered)	3	14	0.21
PWY-6638	sulfolactate degradation III	1	3	0.33
PWY-7282	4-amino-2-methyl-5-diphosphomethylpyrimidine biosynthesis (yeast)	3	9	0.33
PWY0-1415	superpathway of heme b biosynthesis from uroporphyrinogen-III	3	4	0.75
PWY-7726	(4Z,7Z,10Z,13Z,16Z)-docosa-4,7,10,13,16-pentaenoate biosynthesis (6-desaturase)	3	13	0.23
PWY-7856	heme a biosynthesis	1	4	0.25
PWY-5697	allantoin degradation to ureidoglycolate I (urea producing)	1	2	0.50
PWY-7288	fatty acid &beta;-oxidation (peroxisome, yeast)	3	5	0.60
PWY-7857	adlupulone and adhumulone biosynthesis	1	6	0.17
PWY-6823	molybdenum cofactor biosynthesis	2	8	0.25
FASYN-INITIAL-PWY	superpathway of fatty acid biosynthesis initiation (E. coli)	1	2	0.50
PWY-7291	oleate &beta;-oxidation (isomerase-dependent, yeast)	1	4	0.25
PWY0-1433	tetrahydromonapterin biosynthesis	1	4	0.25
PWY-6580	phosphatidylinositol biosynthesis I (bacteria)	1	3	0.33
PWY-5698	allantoin degradation to ureidoglycolate II (ammonia producing)	2	3	0.67
PWY-6642	(R)-cysteate degradation	1	3	0.33
GLUTDEG-PWY	L-glutamate degradation II	2	2	1.00
COBALSYN-PWY	adenosylcobalamin salvage from cobinamide I	2	6	0.33
PWY-6643	coenzyme M biosynthesis II	1	6	0.17
PWY-7735	echinomycin and triostin A biosynthesis	1	6	0.17
PWY-7736	stellatic acid biosynthesis	3	8	0.38
ALADEG-PWY	L-alanine degradation I	1	2	0.50
PWY-6583	pyruvate fermentation to butanol I	1	8	0.12
PWY-7858	(5Z)-dodec-5-enoate biosynthesis II	3	6	0.50
PWY-5703	urea degradation I	1	2	0.50
PWY-7301	dTDP-4-O-demethyl-&beta;-L-noviose biosynthesis	2	5	0.40
PWY-6644	fluoroacetate and fluorothreonine biosynthesis	1	6	0.17
PWY-7308	acrylonitrile degradation I	1	2	0.50
PWY-7863	roseoflavin biosynthesis	1	7	0.14
PWY-7754	bile acids degradation	2	20	0.10
PWY-5704	urea degradation II	1	1	1.00
PWY-6587	pyruvate fermentation to ethanol III	1	3	0.33
PWY-6837	fatty acid beta-oxidation V (unsaturated, odd number, di-isomerase-dependent)	1	5	0.20
PWY0-1479	tRNA processing	3	10	0.30
PWY-7312	dTDP-D-&beta;-fucofuranose biosynthesis	2	4	0.50
PWY-6840	homoglutathione biosynthesis	1	2	0.50
PWY-7315	dTDP-N-acetylthomosamine biosynthesis	2	4	0.50
PWY-6654	phosphopantothenate biosynthesis III (archaebacteria)	1	4	0.25
PWY-6842	glutathione-mediated detoxification II	1	8	0.12
PWY-7761	NAD salvage pathway II	3	4	0.75
PWY-6588	pyruvate fermentation to acetone	1	5	0.20
PWY0-1507	biotin biosynthesis from 8-amino-7-oxononanoate I	1	3	0.33
PWY-6853	ethylene biosynthesis II (microbes)	1	5	0.20
2OXOBUTYRATECAT-PWY	2-oxobutanoate degradation II	1	2	0.50
NONMEVIPP-PWY	methylerythritol phosphate pathway I	5	9	0.56
PWY-6659	fusicoccin A biosynthesis	1	8	0.12
PWY-7884	lipoprotein posttranslational modification	1	4	0.25
PWY-6854	ethylene biosynthesis III (microbes)	1	7	0.14
PWY-6859	all-trans-farnesol biosynthesis	2	4	0.50
PWY-7316	dTDP-N-acetylviosamine biosynthesis	2	4	0.50
PWY-7765	3-hydroxy-4-methyl-anthranilate biosynthesis II	2	5	0.40
NONOXIPENT-PWY	pentose phosphate pathway (non-oxidative branch)	4	5	0.80
PWY0-1534	hydrogen sulfide biosynthesis I	1	2	0.50
PWY-7887	protein SAMPylation and SAMP-mediated thiolation	1	6	0.17
PWY-6863	pyruvate fermentation to hexanol (engineered)	3	11	0.27
PWY-5723	Rubisco shunt	6	10	0.60
PWY-7766	heme b biosynthesis IV (Gram-positive bacteria)	1	4	0.25
PWY-5162	2-oxopentenoate degradation	3	3	1.00
PWY-6084	3,5-dichlorocatechol degradation	3	8	0.38
PWY-6318	L-phenylalanine degradation IV (mammalian, via side chain)	3	9	0.33
CATECHOL-ORTHO-CLEAVAGE-PWY	catechol degradation to &beta;-ketoadipate	3	4	0.75
ACETOACETATE-DEG-PWY	acetoacetate degradation (to acetyl CoA)	1	2	0.50
PWY-6085	2,4-dichlorophenoxyacetate degradation	1	2	0.50
PWY-6326	camptothecin biosynthesis	1	7	0.14
PYRIDOXSYN-PWY	pyridoxal 5'-phosphate biosynthesis I	3	8	0.38
LEUSYN-PWY	L-leucine biosynthesis	5	6	0.83
PWY-5163	p-cumate degradation to 2-oxopent-4-enoate	1	5	0.20
PWY-6336	protocatechuate degradation III (para-cleavage pathway)	1	5	0.20
TRNA-CHARGING-PWY	tRNA charging	16	21	0.76
PWY-5169	cyanurate degradation	1	3	0.33
PWY-6344	L-ornithine degradation II (Stickland reaction)	2	9	0.22
PWY-6086	4-chloro-2-methylphenoxyacetate degradation	1	2	0.50
PWY-6087	4-chlorocatechol degradation	2	5	0.40
PWY-6351	D-myo-inositol (1,4,5)-trisphosphate biosynthesis	1	5	0.20
1CMET2-PWY	N10-formyl-tetrahydrofolate biosynthesis	7	9	0.78
SERSYN-PWY	L-serine biosynthesis	3	3	1.00
PWY-6352	3-phosphoinositide biosynthesis	1	8	0.12
PWY-6089	3-chlorocatechol degradation I (ortho)	2	5	0.40
PWY-5177	glutaryl-CoA degradation	1	5	0.20
PWY-6093	4,5-dichlorocatechol degradation	3	8	0.38
PWY-6094	3,4,6-trichlorocatechol degradation	4	10	0.40
PWY-6107	chlorosalicylate degradation	3	7	0.43
PYRIDNUCSAL-PWY	NAD salvage pathway I	5	6	0.83
PWY-6113	superpathway of mycolate biosynthesis	1	4	0.25
PWY-6372	1D-myo-inositol hexakisphosphate biosynthesis IV (Dictyostelium)	1	7	0.14
SALVADEHYPOX-PWY	adenosine nucleotides degradation II	4	5	0.80
PWY-5188	tetrapyrrole biosynthesis I (from glutamate)	5	6	0.83
PWY-6120	L-tyrosine biosynthesis III	1	3	0.33
PWY-6383	mono-trans, poly-cis decaprenyl phosphate biosynthesis	1	5	0.20
PYRIDNUCSYN-PWY	NAD biosynthesis I (from aspartate)	6	6	1.00
UDPNACETYLGALSYN-PWY	UDP-N-acetyl-D-glucosamine biosynthesis II	1	4	0.25
HOMOSER-METSYN-PWY	L-methionine biosynthesis I	3	7	0.43
PWY-5189	tetrapyrrole biosynthesis II (from glycine)	3	4	0.75
GLUTORN-PWY	L-ornithine biosynthesis I	5	5	1.00
PWY-6121	5-aminoimidazole ribonucleotide biosynthesis I	4	5	0.80
PWY-6386	UDP-N-acetylmuramoyl-pentapeptide biosynthesis II (lysine-containing)	6	8	0.75
PWY-5194	siroheme biosynthesis	4	4	1.00
PWY-6387	UDP-N-acetylmuramoyl-pentapeptide biosynthesis I (meso-diaminopimelate containing)	7	8	0.88
HISTSYN-PWY	L-histidine biosynthesis	8	10	0.80
PWY-6122	5-aminoimidazole ribonucleotide biosynthesis II	4	5	0.80
PWY-5196	factor 430 biosynthesis	3	7	0.43
HOMOSER-THRESYN-PWY	L-threonine biosynthesis	2	2	1.00
TCA	TCA cycle I (prokaryotic)	8	10	0.80
PWY-6389	pyruvate fermentation to (S)-acetoin	1	3	0.33
PWY-5198	factor 420 biosynthesis	2	6	0.33
PWY-6123	inosine-5'-phosphate biosynthesis I	5	6	0.83
SALVPURINE2-PWY	xanthine and xanthosine salvage	1	2	0.50
PWY-5250	methanogenesis from trimethylamine	1	2	0.50
PWY-6124	inosine-5'-phosphate biosynthesis II	5	5	1.00
SAM-PWY	S-adenosyl-L-methionine biosynthesis	1	1	1.00
PWY-5265	peptidoglycan biosynthesis II (staphylococci)	1	6	0.17
ALKANEMONOX-PWY	two-component alkanesulfonate monooxygenase	2	2	1.00
PWY-7216	(R)- and (S)-3-hydroxybutanoate biosynthesis (engineered)	1	5	0.20
METHIONINE-DEG1-PWY	L-methionine degradation I (to L-homocysteine)	2	3	0.67
PWY-5381	pyridine nucleotide cycling (plants)	5	11	0.45
PWY-5384	sucrose degradation IV (sucrose phosphorylase)	1	4	0.25
P42-PWY	incomplete reductive TCA cycle	5	7	0.71
PWY-6167	flavin biosynthesis II (archaea)	4	10	0.40
PWY-5386	methylglyoxal degradation I	1	3	0.33
PWY-7218	photosynthetic 3-hydroxybutanoate biosynthesis (engineered)	2	4	0.50
PWY-6168	flavin biosynthesis III (fungi)	5	9	0.56
PWY-7376	cob(II)yrinate a,c-diamide biosynthesis II (late cobalt incorporation)	7	13	0.54
PWY-5912	2'-deoxymugineic acid phytosiderophore biosynthesis	1	4	0.25
PWY-6174	mevalonate pathway II (archaea)	2	7	0.29
PWY-5392	reductive TCA cycle II	6	12	0.50
PWY-7377	cob(II)yrinate a,c-diamide biosynthesis I (early cobalt insertion)	5	15	0.33
HCAMHPDEG-PWY	3-phenylpropanoate and 3-(3-hydroxyphenyl)propanoate degradation to 2-oxopent-4-enoate	1	6	0.17
PWY-5913	partial TCA cycle (obligate autotrophs)	8	11	0.73
PWY-7219	adenosine ribonucleotides de novo biosynthesis	4	4	1.00
PWY-7380	biotin biosynthesis from 8-amino-7-oxononanoate II	1	3	0.33
PWY-6178	2,4,6-trichlorophenol degradation	3	6	0.50
PWY-7382	lipoate biosynthesis and incorporation (yeast)	4	7	0.57
PWY-7220	adenosine deoxyribonucleotides de novo biosynthesis II	3	4	0.75
P483-PWY	phosphonoacetate degradation	1	1	1.00
PWY-7383	anaerobic energy metabolism (invertebrates, cytosol)	5	7	0.71
PWY-882	L-ascorbate biosynthesis I (L-galactose pathway)	2	8	0.25
GLUCONEO-PWY	gluconeogenesis I	8	13	0.62
PHENOLDEG-PWY	phenol degradation II (anaerobic)	1	4	0.25
PWY-7384	anaerobic energy metabolism (invertebrates, mitochondrial)	5	10	0.50
PWY-5419	catechol degradation to 2-oxopent-4-enoate II	1	4	0.25
PWY-5921	glutaminyl-tRNAgln biosynthesis via transamidation	1	2	0.50
PWY-6183	salicylate degradation I	1	1	1.00
PWY-7221	guanosine ribonucleotides de novo biosynthesis	4	4	1.00
PWY-7385	1,3-propanediol biosynthesis (engineered)	4	9	0.44
TREDEGLOW-PWY	trehalose degradation I (low osmolarity)	1	2	0.50
PWY-5938	pyruvate fermentation to (R)-acetoin I	1	3	0.33
PWY-6184	methylsalicylate degradation	2	2	1.00
PROSYN-PWY	L-proline biosynthesis I	3	4	0.75
PWY-5939	pyruvate fermentation to  (R)-acetoin II	1	2	0.50
PWY-7388	octanoyl-[acyl-carrier protein] biosynthesis (mitochondria, yeast)	4	9	0.44
PWY-7222	guanosine deoxyribonucleotides de novo biosynthesis II	3	4	0.75
PWY-922	mevalonate pathway I	2	7	0.29
PWY-6185	4-methylcatechol degradation (ortho cleavage)	3	7	0.43
CYANCAT-PWY	cyanate degradation	1	3	0.33
PWY-6193	3-chlorocatechol degradation II (ortho)	2	5	0.40
CYSTSYN-PWY	L-cysteine biosynthesis I	1	2	0.50
HISDEG-PWY	L-histidine degradation I	3	4	0.75
LYSINE-DEG1-PWY	L-lysine degradation XI (mammalian)	1	5	0.20
PWY-5941	glycogen degradation II	3	6	0.50
PWY-7224	purine deoxyribonucleosides salvage	2	6	0.33
ORN-AMINOPENTANOATE-CAT-PWY	L-ornithine degradation I (L-proline biosynthesis)	1	1	1.00
HISHP-PWY	L-histidine degradation VI	3	8	0.38
PCPDEG-PWY	pentachlorophenol degradation	4	12	0.33
PWY-7226	guanosine deoxyribonucleotides de novo biosynthesis I	2	2	1.00
GLUTAMATE-SYN2-PWY	L-glutamate biosynthesis II	1	1	1.00
PWY-7391	isoprene biosynthesis II (engineered)	2	8	0.25
PWY-6200	2,4,5-trichlorophenoxyacetate degradation	1	9	0.11
PWY-5436	L-threonine degradation IV	1	2	0.50
PWY-I9	L-cysteine biosynthesis VI (from L-methionine)	1	5	0.20
GLUCONSUPER-PWY	D-gluconate degradation	1	1	1.00
PWY-7227	adenosine deoxyribonucleotides de novo biosynthesis	2	2	1.00
PWY0-1021	L-alanine biosynthesis III	1	1	1.00
PWY-5965	fatty acid biosynthesis initiation III	1	2	0.50
PWY-5437	L-threonine degradation I	1	6	0.17
PWY-7394	urate conversion to allantoin II	2	3	0.67
PWY-621	sucrose degradation III (sucrose invertase)	2	4	0.50
PWY-723	alkylnitronates degradation	1	2	0.50
PROTOCATECHUATE-ORTHO-CLEAVAGE-PWY	protocatechuate degradation II (ortho-cleavage pathway)	2	4	0.50
PWY-5966	fatty acid biosynthesis initiation II	1	2	0.50
PWY-7396	butanol and isobutanol biosynthesis (engineered)	1	8	0.12
PWY-7234	inosine-5'-phosphate biosynthesis III	4	6	0.67
CHLOROPHYLL-SYN	3,8-divinyl-chlorophyllide a biosynthesis I (aerobic, light-dependent)	3	9	0.33
PWY-6210	2-aminophenol degradation	3	4	0.75
PWY-7400	L-arginine biosynthesis IV (archaebacteria)	7	9	0.78
PWY-6214	3-chlorocatechol degradation III (meta pathway)	1	4	0.25
PWY-7238	sucrose biosynthesis II	4	8	0.50
SUCSYN-PWY	sucrose biosynthesis I (from photosynthesis)	4	7	0.57
PWY-5971	palmitate biosynthesis II (bacteria and plants)	15	31	0.48
PWY-5480	pyruvate fermentation to ethanol I	1	3	0.33
PWY0-1182	trehalose degradation II (trehalase)	1	2	0.50
PWY-7401	crotonate fermentation (to acetate and cyclohexane carboxylate)	1	15	0.07
PWY-6215	4-chlorobenzoate degradation	1	4	0.25
2ASDEG-PWY	orthanilate degradation	1	5	0.20
PWY-5484	glycolysis II (from fructose 6-phosphate)	8	11	0.73
CYCLOHEXANOL-OXIDATION-PWY	cyclohexanol degradation	1	5	0.20
PWY0-1261	anhydromuropeptides recycling I	5	12	0.42
PWY-101	photosynthesis light reactions	1	4	0.25
PWY-5972	stearate biosynthesis I (animals and fungi)	1	6	0.17
PWY-7409	phospholipid remodeling (phosphatidylethanolamine, yeast)	1	4	0.25
PWY-622	starch biosynthesis	3	10	0.30
PWY-5487	4-nitrophenol degradation I	1	5	0.20
GLUTAMINDEG-PWY	L-glutamine degradation I	1	1	1.00
GLNSYN-PWY	L-glutamine biosynthesis I	1	1	1.00
TYRFUMCAT-PWY	L-tyrosine degradation I	3	5	0.60
PWY-7410	ipsdienol biosynthesis	1	4	0.25
PWY-6987	lipoate biosynthesis and incorporation III (Bacillus)	2	3	0.67
PWY-7159	3,8-divinyl-chlorophyllide a biosynthesis III (aerobic, light independent)	3	9	0.33
NAD-BIOSYNTHESIS-II	NAD salvage pathway III	2	3	0.67
ARGDEG-V-PWY	L-arginine degradation X (arginine monooxygenase pathway)	1	3	0.33
PWY-5647	2-nitrobenzoate degradation I	4	6	0.67
PWY-3821	D-galactose detoxification	1	3	0.33
PWY-699	brassinosteroid biosynthesis I	1	25	0.04
P141-PWY	atrazine degradation I (aerobic)	1	3	0.33
PWY-2161	folate polyglutamylation	1	5	0.20
ARGDEGRAD-PWY	L-arginine degradation V (arginine deiminase pathway)	1	1	1.00
PWY-6992	1,5-anhydrofructose degradation	2	5	0.40
PWY-6901	superpathway of glucose and xylose degradation	4	8	0.50
PWY-3841	folate transformations II	7	11	0.64
DISSULFRED-PWY	sulfate reduction IV (dissimilatory, to hydrogen sufide))	1	4	0.25
PWY-6999	theophylline degradation	1	9	0.11
GLYCINE-SYN2-PWY	glycine biosynthesis II	1	1	1.00
PWY-2201	folate transformations I	6	12	0.50
PWY-7165	L-ascorbate biosynthesis VI (engineered pathway)	1	7	0.14
PWY-2221	Entner-Doudoroff pathway III (semi-phosphorylative)	2	9	0.22
PWY-7176	UTP and CTP de novo biosynthesis	3	3	1.00
PWY-3861	mannitol degradation II	1	4	0.25
PWY-6910	hydroxymethylpyrimidine salvage	1	2	0.50
PWY-5826	hypoglycin biosynthesis	1	14	0.07
GLYCLEAV-PWY	glycine cleavage	2	3	0.67
PWY-5651	L-tryptophan degradation to 2-amino-3-carboxymuconate semialdehyde	4	5	0.80
PWY-3881	mannitol biosynthesis	1	3	0.33
PWY-2301	myo-inositol biosynthesis	2	2	1.00
PWY-7002	4-hydroxyacetophenone degradation	2	5	0.40
PWY-5833	CDP-4-dehydro-3,6-dideoxy-D-glucose biosynthesis	1	3	0.33
FERMENTATION-PWY	mixed acid fermentation	9	16	0.56
PWY-5652	2-amino-3-carboxymuconate semialdehyde degradation to glutaryl-CoA	3	5	0.60
PWY-2361	3-oxoadipate degradation	2	2	1.00
P161-PWY	acetylene degradation	1	5	0.20
PWY-7177	UTP and CTP dephosphorylation II	1	3	0.33
PWY-5653	NAD biosynthesis from 2-amino-3-carboxymuconate semialdehyde	3	4	0.75
PWY-7003	glycerol degradation to butanol	4	6	0.67
PWY0-862	(5Z)-dodec-5-enoate biosynthesis I	2	6	0.33
PWY-5837	1,4-dihydroxy-2-naphthoate biosynthesis	4	7	0.57
PWY-241	C4 photosynthetic carbon assimilation cycle, NADP-ME type	2	5	0.40
PWY-5654	2-amino-3-carboxymuconate semialdehyde degradation to 2-oxopentenoate	4	4	1.00
PWY-3961	phosphopantothenate biosynthesis II	1	3	0.33
PWY-6920	6-gingerol analog biosynthesis (engineered)	2	6	0.33
PWY-7006	4-amino-3-hydroxybenzoate degradation	1	6	0.17
RIBOSYN2-PWY	flavin biosynthesis I (bacteria and plants)	7	9	0.78
PWY-7179	purine deoxyribonucleosides degradation I	4	4	1.00
DETOX1-PWY	superoxide radicals degradation	2	2	1.00
P162-PWY	L-glutamate degradation V (via hydroxyglutarate)	2	11	0.18
PWY-6922	L-N&delta;-acetylornithine biosynthesis	4	7	0.57
PWY-3982	uracil degradation I (reductive)	1	3	0.33
PWY-7007	methyl ketone biosynthesis (engineered)	2	6	0.33
PWY-7179-1	purine deoxyribonucleosides degradation II	3	3	1.00
DETOX1-PWY-1	reactive oxygen species degradation	2	4	0.50
PWY-5659	GDP-mannose biosynthesis	3	4	0.75
PWY-7008	2-hydroxybiphenyl degradation	1	4	0.25
P163-PWY	L-lysine fermentation to acetate and butanoate	1	10	0.10
GLYCOCAT-PWY	glycogen degradation I	4	8	0.50
PWY-7180	2'-deoxy-&alpha;-D-ribose 1-phosphate degradation	2	3	0.67
PWY-4041	&gamma;-glutamyl cycle	1	4	0.25
P164-PWY	purine nucleobases degradation I (anaerobic)	5	17	0.29
PWY-5661	GDP-glucose biosynthesis	1	3	0.33
PWY0-901	L-selenocysteine biosynthesis I (bacteria)	1	3	0.33
PWY-2582	brassinosteroid biosynthesis II	1	21	0.05
GALACTARDEG-PWY	D-galactarate degradation I	1	4	0.25
PWY-6932	selenate reduction	1	5	0.20
ALANINE-DEG3-PWY	L-alanine degradation III	1	1	1.00
PWY-5662	glucosylglycerate biosynthesis I	1	2	0.50
PWY-7181	pyrimidine deoxyribonucleosides degradation	3	3	1.00
PWY-4061	glutathione-mediated detoxification I	1	5	0.20
PWY-5663	erythro-tetrahydrobiopterin biosynthesis I	1	3	0.33
PWY-2722	trehalose degradation IV	1	3	0.33
PWY0-981	taurine degradation IV	1	1	1.00
PWY-4081	glutathione-peroxide redox reactions	1	3	0.33
PWY-5664	erythro-tetrahydrobiopterin biosynthesis II	1	4	0.25
PWY-2723	trehalose degradation V	1	3	0.33
P181-PWY	nicotine degradation I (pyridine pathway)	1	17	0.06
PWY-7182	linalool biosynthesis I	1	2	0.50
PWY-5667	CDP-diacylglycerol biosynthesis I	2	4	0.50
PWY-6936	seleno-amino acid biosynthesis	1	5	0.20
PWY-2781	cis-zeatin biosynthesis	1	5	0.20
PWY-4202	arsenate detoxification I (glutaredoxin)	2	7	0.29
PWY-7183	pyrimidine nucleobases salvage I	1	1	1.00
PWY-702	L-methionine biosynthesis II	3	8	0.38
ARGININE-SYN4-PWY	L-ornithine biosynthesis II	4	4	1.00
P185-PWY	formaldehyde assimilation III (dihydroxyacetone cycle)	8	12	0.67
PWY1-2	L-alanine degradation IV	1	1	1.00
P21-PWY	pentose phosphate pathway (partial)	2	3	0.67
PWY1-3	polyhydroxybutanoate biosynthesis	1	3	0.33
PWY-2941	L-lysine biosynthesis II	6	9	0.67
PWY-5668	cardiolipin biosynthesis I	1	3	0.33
PWY-5852	demethylmenaquinol-8 biosynthesis I	1	1	1.00
PWY1A0-6325	actinorhodin biosynthesis	1	12	0.08
PWY-7184	pyrimidine deoxyribonucleotides de novo biosynthesis I	8	9	0.89
PWY-2942	L-lysine biosynthesis III	5	7	0.71
PWY-4261	glycerol degradation I	1	2	0.50
PWY1F-353	glycine betaine biosynthesis III (plants)	1	3	0.33
PWY-5669	phosphatidylethanolamine biosynthesis I	1	2	0.50
P221-PWY	octane oxidation	2	5	0.40
PWY-6942	dTDP-D-desosamine biosynthesis	2	6	0.33
QUINATEDEG-PWY	quinate degradation I	1	3	0.33
TRPCAT-PWY	L-tryptophan degradation I (via anthranilate)	2	3	0.67
PWY-7185	UTP and CTP dephosphorylation I	1	5	0.20
PWY-5857	ubiquinol-10 biosynthesis (prokaryotic)	1	8	0.12
PWY-4302	aerobic respiration III (alternative oxidase pathway)	2	3	0.67
PWY-7033	alkane biosynthesis II	1	3	0.33
PWY-301	cyclohexane-1-carboxylate degradation (anaerobic)	1	2	0.50
PWY-6943	testosterone and androsterone degradation to androstendione	1	3	0.33
PWY-5675	nitrate reduction V (assimilatory)	2	4	0.50
PWY-7046	4-coumarate degradation (anaerobic)	2	6	0.33
PWY-3161	indole-3-acetate biosynthesis III (bacteria)	1	2	0.50
GLYCOGENSYNTH-PWY	glycogen biosynthesis I (from ADP-D-Glucose)	1	4	0.25
DTDPRHAMSYN-PWY	dTDP-L-rhamnose biosynthesis I	3	4	0.75
METHANOGENESIS-PWY	methanogenesis from H2 and CO2	1	6	0.17
P224-PWY	sulfate reduction V (dissimilatory, to thiosulfate)	1	5	0.20
TRPSYN-PWY	L-tryptophan biosynthesis	5	6	0.83
PWY-7187	pyrimidine deoxyribonucleotides de novo biosynthesis II	5	7	0.71
PWY1G-0	mycothiol biosynthesis	3	6	0.50
PWY-6944	androstenedione degradation	4	15	0.27
