id	Common name	linked reactions
ASD38_10565	Unknown	1.11.1.15-RXN;RXN0-5468
ASD38_21105	Unknown	ATPASE-RXN
ASD38_18115	Unknown	DXS-RXN
ASD38_15690	Unknown	3.2.1.74-RXN
ASD38_08365	Unknown	1.10.2.2-RXN;RXN-15829
ASD38_10090	Unknown	2.7.13.3-RXN
ASD38_07540	Unknown	CYTOCHROME-C-OXIDASE-RXN;RXN-15830
ASD38_08155	Unknown	2-NITROPROPANE-DIOXYGENASE-RXN;RXN-16322
ASD38_02945	Unknown	ATPPHOSPHORIBOSYLTRANS-RXN
ASD38_13325	Unknown	5.3.1.17-RXN
ASD38_10030	Unknown	ACYLCOADEHYDROG-RXN;RXN-17775;RXN-17779;RXN-17783;RXN-17784;RXN-17788;RXN-17792;RXN-17796
ASD38_21345	Unknown	GALACTODEHYDROG-RXN
ASD38_21895	Unknown	ALLANTOINASE-RXN
ASD38_15570	Unknown	RXN-14950;RXN-14957;RXN-14959;RXN0-949
ASD38_00715	Unknown	TRYPTOPHAN--TRNA-LIGASE-RXN
ASD38_20200	Unknown	2-OCTAPRENYL-6-OHPHENOL-METHY-RXN;DHHB-METHYLTRANSFER-RXN
ASD38_01030	Unknown	CARBOXYMETHYLENEBUTENOLIDASE-RXN;DIENELACHYDRO-RXN;RXN-9857;RXN-9868;RXN-9887;RXN-9890
ASD38_02590	Unknown	RXN1A0-6303
ASD38_06515	Unknown	3.2.1.52-RXN;RXN-12625;RXN-12626;RXN-18082;RXN0-5226
ASD38_02675	Unknown	GLYOXIII-RXN
ASD38_14255	Unknown	3-OCTAPRENYL-4-OHBENZOATE-DECARBOX-RXN
ASD38_11200	Unknown	RXN-10000
ASD38_06430	Unknown	ALANINE--TRNA-LIGASE-RXN
ASD38_12905	Unknown	2.7.13.3-RXN
ASD38_00165	Unknown	AMIDASE-RXN;GUANIDINOBUTANAMIDE-NH3-RXN;PYRAZIN-RXN;R311-RXN;RXN-14727;RXN-14728;RXN-17608;RXNN-404
ASD38_15345	Unknown	PMPOXI-RXN;PNPOXI-RXN
ASD38_00830	Unknown	ENOYL-ACP-REDUCT-NADPH-RXN;RXN-9515;RXN-9521;RXN-9526;RXN-9530;RXN-9534;RXN-9538;RXN-9542;RXN3O-5293
ASD38_02515	Unknown	RXN-8643;TARTRATE-DEHYDROGENASE-RXN
ASD38_01805	Unknown	3.4.21.26-RXN
ASD38_03350	Unknown	ATPASE-RXN
ASD38_03975	Unknown	3.1.26.4-RXN
ASD38_00515	Unknown	1.3.99.16-RXN
ASD38_00970	Unknown	THI-P-SYN-RXN
ASD38_06145	Unknown	GLU6PDEHYDROG-RXN
ASD38_09485	Unknown	ACID-PHOSPHATASE-RXN;RXN-5822
ASD38_12585	Unknown	3.1.11.2-RXN
ASD38_03415	Unknown	KDOTRANS-RXN
ASD38_14620	Unknown	ACETYL-COA-ACETYLTRANSFER-RXN;METHYLACETOACETYLCOATHIOL-RXN;RXN-12561
ASD38_10285	Unknown	GDPMANDEHYDRA-RXN
ASD38_01465	Unknown	RXN-15122;THREDEHYD-RXN
ASD38_18215	Unknown	GSHTRAN-RXN;GST-RXN;RXN-11663;RXN-13673;RXN-15680;RXN-18405;RXN-18407;RXNQT-4363
ASD38_05580	Unknown	CDP-GLUCOSE-46-DEHYDRATASE-RXN
ASD38_08805	metX	HOMOSERINE-O-ACETYLTRANSFERASE-RXN
ASD38_09745	Unknown	1.1.1.178-RXN
ASD38_00640	Unknown	S-ADENMETSYN-RXN
ASD38_05270	Unknown	2.3.1.128-RXN
ASD38_00300	Unknown	2.7.13.3-RXN
ASD38_20125	Unknown	KDUD-RXN
ASD38_02690	Unknown	PROTEIN-TYROSINE-PHOSPHATASE-RXN
ASD38_11825	Unknown	ACYLCOASYN-RXN;LINOLENOYL-RXN;R223-RXN;RXN-12184;RXN-12702;RXN-12746;RXN-12978;RXN-13290;RXN-13614;RXN-16380;RXN-16389;RXN-16393;RXN-16401;RXN-16402;RXN-16415;RXN-16418;RXN-7904;RXN-9623;RXN-9644;RXN-9673;RXN0-7238;RXN0-7239;RXN0-7248;RXN66-469;RXN66-477;RXN66-480;RXN66-483;RXN66-484;TRANS-RXN0-623
ASD38_13155	Unknown	ACETYLORNTRANSAM-RXN;RXN-15007
ASD38_20055	Unknown	2-OXOPENT-4-ENOATE-HYDRATASE-RXN;RXN-10381
ASD38_05730	gatB	6.3.5.7-RXN
ASD38_00805	Unknown	P-PANTOCYSDECARB-RXN;P-PANTOCYSLIG-RXN;RXN-11781
ASD38_14635	Unknown	RXN0-2023
ASD38_18760	Unknown	3.2.2.15-RXN
ASD38_03920	Unknown	ATPSYN-RXN
ASD38_20460	Unknown	DTMPKI-RXN
ASD38_15875	Unknown	METHYLMALONYL-COA-EPIM-RXN;RXN-16391
ASD38_09855	Unknown	GLUTKIN-RXN
ASD38_10545	Unknown	RXN-17155
ASD38_10505	Unknown	PEPTIDYLPROLYL-ISOMERASE-RXN
ASD38_21315	Unknown	5.99.1.2-RXN
ASD38_03550	Unknown	ACETYL-COA-ACETYLTRANSFER-RXN;METHYLACETOACETYLCOATHIOL-RXN;RXN-12561
ASD38_00010	lysK	LYSINE--TRNA-LIGASE-RXN
ASD38_02190	Unknown	ADENOSYLHOMOCYSTEINASE-RXN
ASD38_17180	Unknown	GLUTAMINESYN-RXN
ASD38_17890	Unknown	CARBODEHYDRAT-RXN;RXN0-5224
ASD38_00460	Unknown	RXN-7682;RXN0-901
ASD38_14375	Unknown	PEPTIDYLPROLYL-ISOMERASE-RXN
ASD38_07520	Unknown	CYTOCHROME-C-OXIDASE-RXN;RXN-15830
ASD38_14430	Unknown	PRODISULFREDUCT-RXN;RXN0-7271
ASD38_00195	Unknown	1.5.1.9-RXN
ASD38_19570	Unknown	RXN-14149
ASD38_03900	Unknown	ATPSYN-RXN
ASD38_20095	Unknown	RXN0-2621
ASD38_06310	Unknown	1.2.1.27-RXN;RXN-11213;RXN-2902
ASD38_04975	Unknown	4.3.1.17-RXN;RXN-15125
ASD38_05360	Unknown	3.4.11.5-RXN
ASD38_21305	Unknown	2.3.1.118-RXN
ASD38_08840	Unknown	GLYOXII-RXN;RXN-7919
ASD38_15780	Unknown	DXPREDISOM-RXN
ASD38_21745	Unknown	ENOYL-COA-HYDRAT-RXN;METHYLACYLYLCOA-HYDROXY-RXN;RXN-10697;RXN-10704;RXN-10705;RXN-11244;RXN-12567;RXN-13616;RXN-14266;RXN-14272;RXN-14273;RXN-16135;RXN-16558;RXN-17114;RXN-17475;RXN-17776;RXN-17780;RXN-17785;RXN-17789;RXN-17793;RXN-17797;RXN-2425;RXN0-5393;TIGLYLCOA-HYDROXY-RXN
ASD38_17995	Unknown	IMP-DEHYDROG-RXN
ASD38_18795	Unknown	FGAMSYN-RXN
ASD38_02705	Unknown	RXN0-6481;RXN0-6482;TRNA-NUCLEOTIDYLTRANSFERASE-RXN
ASD38_11530	Unknown	UREA-CARBOXYLASE-RXN
ASD38_21165	Unknown	RXN-11355;RXN-12243;RXN-12244
ASD38_21410	Unknown	2.7.13.3-RXN
ASD38_21255	Unknown	GDPPYPHOSKIN-RXN;GTPPYPHOSKIN-RXN
ASD38_02940	Unknown	HISTIDINE--TRNA-LIGASE-RXN
ASD38_09780	Unknown	RXN-16650
ASD38_10080	Unknown	ACSERLY-RXN;RXN-12726
ASD38_12050	Unknown	ALKAPHOSPHA-RXN;RXN-5822;RXN-8748
ASD38_04090	Unknown	H2NEOPTERINALDOL-RXN;RXN-10857
ASD38_18780	Unknown	FGAMSYN-RXN
ASD38_05755	Unknown	3.1.22.4-RXN
ASD38_19600	Unknown	RXN0-1001
ASD38_11700	Unknown	KETOACYLCOATHIOL-RXN;RXN-10699;RXN-10700;RXN-10701;RXN-11246;RXN-12565;RXN-12710;RXN-13617;RXN-14268;RXN-14274;RXN-14277;RXN-14394;RXN-14774;RXN-14788;RXN-14793;RXN-14799;RXN-14803;RXN-16137;RXN-17116;RXN-17778;RXN-17782;RXN-17787;RXN-17791;RXN-17795;RXN-17799;RXN-3641
ASD38_16335	Unknown	VALINE--TRNA-LIGASE-RXN
ASD38_18455	Unknown	ACETOLACTREDUCTOISOM-RXN;ACETOOHBUTREDUCTOISOM-RXN
ASD38_01750	Unknown	R4-RXN
ASD38_22895	Unknown	3.1.26.12-RXN;RXN0-6478;RXN0-6485;RXN0-6521;RXN0-6522;RXN0-6523
ASD38_15990	Unknown	1.6.99.5-RXN;NADH-DEHYDROGENASE-QUINONE-RXN
ASD38_05120	Unknown	2.7.13.3-RXN
ASD38_12980	Unknown	ACYLCOASYN-RXN;LINOLENOYL-RXN;R223-RXN;RXN-12184;RXN-12702;RXN-12746;RXN-12978;RXN-13290;RXN-13614;RXN-16380;RXN-16389;RXN-16393;RXN-16401;RXN-16402;RXN-16415;RXN-16418;RXN-7904;RXN-9623;RXN-9644;RXN-9673;RXN0-7238;RXN0-7239;RXN0-7248;RXN66-469;RXN66-477;RXN66-480;RXN66-483;RXN66-484;TRANS-RXN0-623
ASD38_02155	Unknown	2.7.13.3-RXN
ASD38_12850	Unknown	PYRIMSYN1-RXN
ASD38_20830	Unknown	THIOREDOXIN-REDUCT-NADPH-RXN
ASD38_12465	Unknown	2.5.1.32-RXN;RXN-13323;RXNARA-8002
ASD38_05380	Unknown	RXN0-5419
ASD38_16235	Unknown	DNA-DIRECTED-DNA-POLYMERASE-RXN;RXN0-4961
ASD38_19110	Unknown	DNA-DIRECTED-DNA-POLYMERASE-RXN
ASD38_03555	Unknown	RXN-12560;RXN-13279;RXN-5901
ASD38_20290	Unknown	ARGINASE-RXN;RXN-34
ASD38_08510	Unknown	PRPPSYN-RXN
ASD38_01050	Unknown	PROTOHEMEFERROCHELAT-RXN
ASD38_18805	Unknown	3.5.1.93-RXN
ASD38_03735	Unknown	KDUD-RXN
ASD38_15975	Unknown	1.6.99.5-RXN;NADH-DEHYDROGENASE-QUINONE-RXN
ASD38_02680	Unknown	DNA-DIRECTED-DNA-POLYMERASE-RXN
ASD38_19815	Unknown	3.2.1.139-RXN;RXN-14370
ASD38_14205	Unknown	ASPARTATE-RACEMASE-RXN
ASD38_22115	Unknown	MANNONDEHYDRAT-RXN
ASD38_14920	Unknown	RXN0-262
ASD38_00525	Unknown	DIMETHUROPORDEHYDROG-RXN;SIROHEME-FERROCHELAT-RXN;UROPORIIIMETHYLTRANSA-RXN
ASD38_07785	Unknown	PGLYCDEHYDROG-RXN
ASD38_02460	Unknown	UGD-RXN
ASD38_05925	Unknown	ASPAMINOTRANS-RXN;RXN-10814;RXN-11737;RXN-13697
ASD38_05375	Unknown	DNA-DIRECTED-DNA-POLYMERASE-RXN
ASD38_21225	Unknown	H2PTERIDINEPYROPHOSPHOKIN-RXN;RXN-15733
ASD38_14410	Unknown	NUCLEOTIDE-PYROPHOSPHATASE-RXN
ASD38_06610	Unknown	2.7.13.3-RXN
ASD38_01895	Unknown	KANAMYCIN-KINASE-RXN
ASD38_08590	Unknown	4.3.1.17-RXN;RXN-15125
ASD38_11095	Unknown	3.1.1.64-RXN;CARBOXYLESTERASE-RXN;RETINYL-PALMITATE-ESTERASE-RXN;RXN-10711;RXN-10767;RXN-12252;RXN-12575;RXNQT-4366
ASD38_04625	Unknown	R342-RXN
ASD38_12880	Unknown	ASPARTATE-RACEMASE-RXN
ASD38_10555	Unknown	MALONYL-COA-ACP-TRANSACYL-RXN
ASD38_06270	Unknown	1.3.99.16-RXN
ASD38_11345	Unknown	HYDROXYMETHYLGLUTARYL-COA-SYNTHASE-RXN
ASD38_14405	Unknown	3.2.1.37-RXN
ASD38_13785	Unknown	ATPASE-RXN
ASD38_20315	Unknown	ATPASE-RXN
ASD38_13940	Unknown	2.7.13.3-RXN
ASD38_05810	Unknown	RXN0-7023
ASD38_19940	Unknown	RXN-982
ASD38_19000	Unknown	GLYOXIII-RXN
ASD38_01290	Unknown	RXN-14014
ASD38_14215	Unknown	GLYOXIII-RXN
ASD38_22795	Unknown	RXN-12178;RXN-12270
ASD38_16180	Unknown	CYCLOHEXANONE-MONOOXYGENASE-RXN
ASD38_19690	Unknown	CARBODEHYDRAT-RXN;RXN0-5224
ASD38_01435	Unknown	DTDPDEHYDRHAMEPIM-RXN
ASD38_00895	Unknown	4.2.99.18-RXN
ASD38_03625	Unknown	THRESYN-RXN
ASD38_21265	Unknown	KDO-8PSYNTH-RXN
ASD38_04295	Unknown	THIOREDOXIN-REDUCT-NADPH-RXN
ASD38_04010	Unknown	3.4.11.5-RXN
ASD38_07755	Unknown	2.7.13.3-RXN
ASD38_03105	Unknown	ADCLY-RXN
ASD38_06465	Unknown	ATPASE-RXN
ASD38_09615	Unknown	RXN0-1147
ASD38_22505	Unknown	2.7.13.3-RXN
ASD38_18400	fumC	FUMHYDR-RXN
ASD38_07045	Unknown	2.7.13.3-RXN
ASD38_17330	Unknown	DAHPSYN-RXN
ASD38_14370	Unknown	GLUTAMATE-N-ACETYLTRANSFERASE-RXN;N-ACETYLTRANSFER-RXN;RXN0-6948
ASD38_10875	Unknown	ARGININE-N-SUCCINYLTRANSFERASE-RXN;RXN-7561
ASD38_05045	Unknown	GLUTAMIN-RXN
ASD38_17745	Unknown	RXN0-5131
ASD38_19560	Unknown	RXN-14150
ASD38_22785	Unknown	RXN0-5306
ASD38_22875	Unknown	THIAZOLSYN2-RXN
ASD38_16220	Unknown	2.7.1.148-RXN
ASD38_17205	Unknown	RXN0-3942
ASD38_02055	Unknown	2.7.13.3-RXN
ASD38_08970	Unknown	RXN0-5131
ASD38_03315	Unknown	ACETYLGLUTKIN-RXN;RXN-15005
ASD38_21705	Unknown	RXN-11638
ASD38_18740	Unknown	GSHTRAN-RXN;GST-RXN;RXN-11663;RXN-13673;RXN-15680;RXN-18405;RXN-18407;RXNQT-4363
ASD38_15575	Unknown	LYSOPHOSPHOLIPASE-RXN;RXN-15035;RXN-19312
ASD38_14895	Unknown	DIHYDROXYISOVALDEHYDRAT-RXN;DIHYDROXYMETVALDEHYDRAT-RXN
ASD38_18120	Unknown	FPPSYN-RXN;GPPSYN-RXN
ASD38_09790	Unknown	2.7.13.3-RXN
ASD38_20440	Unknown	RXN-11833
ASD38_22935	Unknown	RXN0-4621
ASD38_04120	Unknown	ACYLCOASYN-RXN;LINOLENOYL-RXN;R223-RXN;RXN-12184;RXN-12702;RXN-12746;RXN-12978;RXN-13290;RXN-13614;RXN-16380;RXN-16389;RXN-16393;RXN-16401;RXN-16402;RXN-16415;RXN-16418;RXN-7904;RXN-9623;RXN-9644;RXN-9673;RXN0-7238;RXN0-7239;RXN0-7248;RXN66-469;RXN66-477;RXN66-480;RXN66-483;RXN66-484;TRANS-RXN0-623
ASD38_07915	Unknown	3.1.22.4-RXN
ASD38_21730	Unknown	1.14.13.8-RXN;RXN66-81
ASD38_03305	Unknown	TETHYDPICSUCC-RXN
ASD38_20980	Unknown	DNA-DIRECTED-RNA-POLYMERASE-RXN
ASD38_13950	Unknown	2.7.13.3-RXN
ASD38_19520	Unknown	2.7.13.3-RXN
ASD38_11915	Unknown	4.2.1.41-RXN
ASD38_21275	Unknown	OROPRIBTRANS-RXN
ASD38_10870	astD	SUCCGLUALDDEHYD-RXN
ASD38_09360	Unknown	LIPIDXSYNTHESIS-RXN
ASD38_10145	Unknown	RXN-14014
ASD38_06890	Unknown	UROCANATE-HYDRATASE-RXN
ASD38_10510	Unknown	RXN-13179
ASD38_15980	Unknown	1.6.99.5-RXN;NADH-DEHYDROGENASE-QUINONE-RXN
ASD38_19235	Unknown	3.2.1.82-RXN
ASD38_06955	Unknown	RXN1A0-6303
ASD38_21440	Unknown	25-DIOXOVALERATE-DEHYDROGENASE-RXN;RXN-8775
ASD38_12605	Unknown	3.2.1.37-RXN
ASD38_08165	Unknown	ACETYL-COA-CARBOXYLTRANSFER-RXN;RXN0-5055
ASD38_02535	Unknown	2.7.13.3-RXN
ASD38_03050	Unknown	GSHTRAN-RXN;GST-RXN;RXN-11663;RXN-13673;RXN-15680;RXN-18405;RXN-18407;RXNQT-4363
ASD38_06790	Unknown	GLUCONOKIN-RXN
ASD38_01075	Unknown	DEPHOSPHOCOAKIN-RXN
ASD38_05570	Unknown	N-ACETYLNEURAMINATE-SYNTHASE-RXN
ASD38_08775	Unknown	GAMMA-GLUTAMYLTRANSFERASE-RXN;RXN-18092;RXN-6601;RXN-9157;RXN66-336
ASD38_14995	Unknown	2.7.13.3-RXN
ASD38_15195	Unknown	DIHYDROXYISOVALDEHYDRAT-RXN;DIHYDROXYMETVALDEHYDRAT-RXN
ASD38_15940	Unknown	1.6.99.5-RXN;NADH-DEHYDROGENASE-QUINONE-RXN
ASD38_15200	Unknown	ALPHAGALACTOSID-RXN;RXN-11501;RXN-11502;RXN-12088;RXN-17754;RXN-17830
ASD38_05390	Unknown	3.4.11.1-RXN
ASD38_03410	Unknown	TETRAACYLDISACC4KIN-RXN
ASD38_03210	Unknown	PREPHENATEDEHYDRAT-RXN
ASD38_21690	Unknown	UDP-NACMURALGLDAPLIG-RXN
ASD38_08255	Unknown	2.7.13.3-RXN
ASD38_08360	Unknown	1.10.2.2-RXN
ASD38_04015	Unknown	DIHYDROOROT-RXN
ASD38_10745	Unknown	MANNONDEHYDRAT-RXN
ASD38_08580	Unknown	3.1.11.2-RXN
ASD38_15785	Unknown	CDPDIGLYSYN-RXN;RXN0-5515
ASD38_10425	Unknown	3.1.13.5-RXN;RXN0-6483;RXN0-6484
ASD38_06215	Unknown	MANNONDEHYDRAT-RXN
ASD38_02200	Unknown	PNKIN-RXN;PYRAMKIN-RXN;PYRIDOXKIN-RXN
ASD38_15600	Unknown	1.2.4.4-RXN;2.3.1.168-RXN;KETOISOCAPROATE-RXN;METHYLVALERATE-RXN;RXN-7790
ASD38_12340	Unknown	1TRANSKETO-RXN;2TRANSKETO-RXN
ASD38_12565	Unknown	DGTPTRIPHYDRO-RXN
ASD38_05565	Unknown	2.7.7.33-RXN
ASD38_01285	Unknown	MALIC-NADP-RXN;OXALODECARB-RXN
ASD38_01950	Unknown	RXN-14971;RXN-15378;SUCCINATE-DEHYDROGENASE-UBIQUINONE-RXN
ASD38_21965	Unknown	3.5.2.17-RXN
ASD38_04985	Unknown	PYRUVFORMLY-RXN
ASD38_21300	Unknown	RXN0-5462
ASD38_10615	Unknown	ALARACECAT-RXN
ASD38_05705	Unknown	GSHTRAN-RXN;GST-RXN;RXN-11663;RXN-13673;RXN-15680;RXN-18405;RXN-18407;RXNQT-4363
ASD38_00125	Unknown	UROGENIIISYN-RXN
ASD38_18810	Unknown	PEPTIDYLPROLYL-ISOMERASE-RXN
ASD38_20170	Unknown	RXN-12720;SULFATE-ADENYLYLTRANS-RXN
ASD38_18640	Unknown	AMIDASE-RXN;GUANIDINOBUTANAMIDE-NH3-RXN;PYRAZIN-RXN;R311-RXN;RXN-14727;RXN-14728;RXN-17608;RXNN-404
ASD38_22070	Unknown	GLYCERATE-DEHYDROGENASE-RXN;HYDROXYPYRUVATE-REDUCTASE-RXN;RXN0-300
ASD38_19510	Unknown	TRIOSEPISOMERIZATION-RXN
ASD38_03080	Unknown	AMP-NUCLEOSID-RXN
ASD38_10165	Unknown	FMNREDUCT-RXN;NADPH-DEHYDROGENASE-FLAVIN-RXN;RXN-12444
ASD38_21645	murC	UDP-NACMUR-ALA-LIG-RXN
ASD38_21525	Unknown	5.99.1.2-RXN
ASD38_10845	Unknown	RXN-13907;RXN-14206;RXN66-569
ASD38_12730	Unknown	RXN0-2441
ASD38_04280	Unknown	2.7.13.3-RXN
ASD38_11835	Unknown	1.2.1.65-RXN
ASD38_02260	Unknown	5.4.2.10-RXN;RXN-16424;RXN0-7139
ASD38_06685	Unknown	ACYLCOASYN-RXN;LINOLENOYL-RXN;R223-RXN;RXN-12184;RXN-12702;RXN-12746;RXN-12978;RXN-13290;RXN-13614;RXN-16380;RXN-16389;RXN-16393;RXN-16401;RXN-16402;RXN-16415;RXN-16418;RXN-7904;RXN-9623;RXN-9644;RXN-9673;RXN0-7238;RXN0-7239;RXN0-7248;RXN66-469;RXN66-477;RXN66-480;RXN66-483;RXN66-484;TRANS-RXN0-623
ASD38_03330	Unknown	2.7.13.3-RXN
ASD38_12600	Unknown	DIHYDROXYISOVALDEHYDRAT-RXN;DIHYDROXYMETVALDEHYDRAT-RXN
ASD38_02685	Unknown	RXN-8668
ASD38_09970	Unknown	2.7.13.3-RXN
ASD38_16105	glnA	GLUTAMINESYN-RXN
ASD38_18475	Unknown	THYMIDYLATESYN-RXN
ASD38_21470	Unknown	METHYLMALONYL-COA-MUT-RXN
ASD38_12975	Unknown	RXN-18029;TRANS-RXN-314
ASD38_15760	Unknown	UDPHYDROXYMYRGLUCOSAMNACETYLTRANS-RXN
ASD38_13575	Unknown	HISTAMINOTRANS-RXN
ASD38_01995	Unknown	RXN0-4261
ASD38_03720	Unknown	3-HYDROXYBUTYRATE-DEHYDROGENASE-RXN
ASD38_03465	Unknown	GLY-X-CARBOXYPEPTIDASE-RXN
ASD38_15640	Unknown	CTPSYN-RXN;GLUTAMIN-RXN;RXN-14325
ASD38_07575	Unknown	FORMYLTHFDEFORMYL-RXN
ASD38_06640	Unknown	ATPASE-RXN
ASD38_00130	Unknown	OHMETHYLBILANESYN-RXN
ASD38_21575	Unknown	2-OXOPENT-4-ENOATE-HYDRATASE-RXN;RXN-10381
ASD38_23040	Unknown	RXN0-5131
ASD38_08460	Unknown	ATPASE-RXN
ASD38_09240	Unknown	3.5.1.80-RXN;NAG6PDEACET-RXN
ASD38_22525	Unknown	ACYLCOADEHYDROG-RXN;RXN-17775;RXN-17779;RXN-17783;RXN-17784;RXN-17788;RXN-17792;RXN-17796
ASD38_04475	Unknown	RXN0-5021
ASD38_18585	Unknown	4-CARBOXYMUCONOLACTONE-DECARBOXYLASE-RXN
ASD38_10150	Unknown	OROTPDECARB-RXN
ASD38_03495	Unknown	THREONINE--TRNA-LIGASE-RXN
ASD38_11030	Unknown	PANTEPADENYLYLTRAN-RXN
ASD38_06130	Unknown	GLUCOKIN-RXN;HEXOKINASE-RXN
ASD38_16185	Unknown	2.7.13.3-RXN
ASD38_17550	Unknown	2.7.13.3-RXN
ASD38_05085	Unknown	3.1.1.64-RXN;CARBOXYLESTERASE-RXN;RETINYL-PALMITATE-ESTERASE-RXN;RXN-10711;RXN-10767;RXN-12252;RXN-12575;RXNQT-4366
ASD38_07985	pgk	PHOSGLYPHOS-RXN
ASD38_11830	Unknown	ENOYL-COA-HYDRAT-RXN;METHYLACYLYLCOA-HYDROXY-RXN;RXN-10697;RXN-10704;RXN-10705;RXN-11244;RXN-12567;RXN-13616;RXN-14266;RXN-14272;RXN-14273;RXN-16135;RXN-16558;RXN-17114;RXN-17475;RXN-17776;RXN-17780;RXN-17785;RXN-17789;RXN-17793;RXN-17797;RXN-2425;RXN0-5393;TIGLYLCOA-HYDROXY-RXN
ASD38_16260	Unknown	RXN0-5462
ASD38_19575	Unknown	5-DEHYDRO-2-DEOXYGLUCONOKINASE-RXN
ASD38_03600	Unknown	HEMEOSYN-RXN
ASD38_18310	Unknown	RXN0-6274
ASD38_08390	Unknown	POLYNUCLEOTIDE-ADENYLYLTRANSFERASE-RXN
ASD38_21195	Unknown	NAD-KIN-RXN
ASD38_08340	Unknown	CARBOXYMETHYLENEBUTENOLIDASE-RXN;DIENELACHYDRO-RXN;RXN-9857;RXN-9868;RXN-9887;RXN-9890
ASD38_11120	Unknown	GLUCONATE-5-DEHYDROGENASE-RXN
ASD38_07975	gapA	GAPOXNPHOSPHN-RXN
ASD38_01405	Unknown	GSHTRAN-RXN;GST-RXN;RXN-11663;RXN-13673;RXN-15680;RXN-18405;RXN-18407;RXNQT-4363
ASD38_08565	Unknown	ADENYLOSUCCINATE-SYNTHASE-RXN
ASD38_21375	Unknown	3.2.1.55-RXN
ASD38_08160	Unknown	R4-RXN
ASD38_21210	Unknown	GLUCONOLACT-RXN;RXN-8783
ASD38_07775	Unknown	ENOYL-COA-HYDRAT-RXN;METHYLACYLYLCOA-HYDROXY-RXN;RXN-10697;RXN-10704;RXN-10705;RXN-11244;RXN-12567;RXN-13616;RXN-14266;RXN-14272;RXN-14273;RXN-16135;RXN-16558;RXN-17114;RXN-17475;RXN-17776;RXN-17780;RXN-17785;RXN-17789;RXN-17793;RXN-17797;RXN-2425;RXN0-5393;TIGLYLCOA-HYDROXY-RXN
ASD38_13570	Unknown	CHORISMATEMUT-RXN
ASD38_19590	Unknown	MYO-INOSITOL-2-DEHYDROGENASE-RXN
ASD38_18430	Unknown	FARNESYLTRANSTRANSFERASE-RXN
ASD38_11995	Unknown	HOMOSERDEHYDROG-RXN
ASD38_05770	Unknown	GSHTRAN-RXN;GST-RXN;RXN-11663;RXN-13673;RXN-15680;RXN-18405;RXN-18407;RXNQT-4363
ASD38_14140	Unknown	CYTOCHROME-C-OXIDASE-RXN;RXN-15830
ASD38_05220	Unknown	3.2.1.89-RXN
ASD38_15035	Unknown	GLYOXIII-RXN
ASD38_06905	Unknown	RXN-12402;RXN0-5001
ASD38_04490	Unknown	GLYCPDIESTER-RXN;RXN-14073;RXN-14136;RXN-14160
ASD38_17090	Unknown	2.7.13.3-RXN
ASD38_10355	Unknown	LINC-RXN
ASD38_18325	Unknown	ACETOLACTSYN-RXN;ACETOOHBUTSYN-RXN
ASD38_12915	Unknown	4.2.2.2-RXN
ASD38_10990	Unknown	QUEUOSINE-TRNA-RIBOSYLTRANSFERASE-RXN;RXN0-1321
ASD38_15895	Unknown	6.3.4.10-RXN;6.3.4.11-RXN;6.3.4.9-RXN;BIOTINLIG-RXN
ASD38_18815	Unknown	FGAMSYN-RXN
ASD38_14555	Unknown	RXN-8351
ASD38_14225	Unknown	AIRCARBOXY-RXN
ASD38_00590	Unknown	CARBOXYMETHYLENEBUTENOLIDASE-RXN;DIENELACHYDRO-RXN;RXN-9857;RXN-9868;RXN-9887;RXN-9890
ASD38_17140	Unknown	GSHTRAN-RXN;GST-RXN;RXN-11663;RXN-13673;RXN-15680;RXN-18405;RXN-18407;RXNQT-4363
ASD38_19120	Unknown	RIB5PISOM-RXN
ASD38_15615	Unknown	RXN-12508;RXN-12583;RXN0-1134
ASD38_15815	Unknown	PSERPHOSPHA-RXN;RXN0-5114
ASD38_11010	Unknown	PEPTIDYLPROLYL-ISOMERASE-RXN
ASD38_15495	Unknown	3.2.1.3-RXN;RXN-9024
ASD38_09185	Unknown	3.2.1.10-RXN
ASD38_11685	Unknown	4-HYDROXYBENZOATE-3-MONOOXYGENASE-RXN
ASD38_10205	Unknown	CARBOXYMETHYLENEBUTENOLIDASE-RXN;DIENELACHYDRO-RXN;RXN-9857;RXN-9868;RXN-9887;RXN-9890
ASD38_22750	lldD	L-LACTATE-DEHYDROGENASE-CYTOCHROME-RXN
ASD38_04265	Unknown	L-ASPARTATE-OXID-RXN;RXN-9772
ASD38_18555	Unknown	HOMOCYSMETB12-RXN
ASD38_05765	Unknown	DIHYDROOROT-RXN
ASD38_07395	Unknown	PENICILLIN-AMIDASE-RXN;RXN-17099
ASD38_11040	Unknown	SUPEROX-DISMUT-RXN
ASD38_06160	Unknown	RXN-2043
ASD38_01945	Unknown	RXN-14971;RXN-15378;SUCCINATE-DEHYDROGENASE-UBIQUINONE-RXN
ASD38_12170	Unknown	3-HYDROXYISOBUTYRATE-DEHYDROGENASE-RXN
ASD38_17135	Unknown	ACYLCOADEHYDROG-RXN;RXN-17775;RXN-17779;RXN-17783;RXN-17784;RXN-17788;RXN-17792;RXN-17796
ASD38_00410	Unknown	CARBODEHYDRAT-RXN;RXN0-5224
ASD38_08225	Unknown	SHIKIMATE-KINASE-RXN
ASD38_15740	Unknown	LIPIDADISACCHARIDESYNTH-RXN
ASD38_08875	Unknown	POLYPHOSPHATE-KINASE-RXN
ASD38_19010	Unknown	ETHAMLY-RXN
ASD38_21970	Unknown	MALIC-NADP-RXN;OXALODECARB-RXN
ASD38_01315	Unknown	PEPTIDYLPROLYL-ISOMERASE-RXN
ASD38_11575	Unknown	ATPASE-RXN
ASD38_03910	Unknown	ATPSYN-RXN
ASD38_07515	Unknown	CYTOCHROME-C-OXIDASE-RXN;RXN-15830
ASD38_04800	Unknown	2-HALOACID-DEHALOGENASE-RXN
ASD38_12245	Unknown	ARGINYLTRANSFERASE-RXN;RXN-17888;RXN-17889;RXN-17890;RXN-17891
ASD38_12365	Unknown	SPERMIDINESYN-RXN
ASD38_19335	Unknown	GLYOXIII-RXN
ASD38_21585	Unknown	4-HYDROXYPHENYLPYRUVATE-DIOXYGENASE-RXN;RXN-10815
ASD38_17675	Unknown	GLUCONOKIN-RXN
ASD38_10375	Unknown	ASPARAGHYD-RXN
ASD38_09050	Unknown	ALKAPHOSPHA-RXN;RXN-5822;RXN-8748
ASD38_18320	Unknown	ACETOLACTSYN-RXN;ACETOOHBUTSYN-RXN
ASD38_10605	Unknown	RXN0-4261
ASD38_14740	Unknown	CARBOXYMETHYLENEBUTENOLIDASE-RXN;DIENELACHYDRO-RXN;RXN-9857;RXN-9868;RXN-9887;RXN-9890
ASD38_16175	Unknown	PYRUVATEORTHOPHOSPHATE-DIKINASE-RXN
ASD38_12715	Unknown	ENOYL-COA-HYDRAT-RXN;METHYLACYLYLCOA-HYDROXY-RXN;RXN-10697;RXN-10704;RXN-10705;RXN-11244;RXN-12567;RXN-13616;RXN-14266;RXN-14272;RXN-14273;RXN-16135;RXN-16558;RXN-17114;RXN-17475;RXN-17776;RXN-17780;RXN-17785;RXN-17789;RXN-17793;RXN-17797;RXN-2425;RXN0-5393;TIGLYLCOA-HYDROXY-RXN
ASD38_09975	Unknown	2.7.13.3-RXN
ASD38_03835	rnhA	3.1.26.4-RXN
ASD38_19245	Unknown	3.2.1.37-RXN
ASD38_10125	Unknown	4.2.2.7-RXN
ASD38_01690	Unknown	3.5.1.98-RXN
ASD38_01170	Unknown	RXN1A0-6303
ASD38_15625	eno	2PGADEHYDRAT-RXN
ASD38_18550	Unknown	DALADALALIG-RXN
ASD38_20130	Unknown	5.3.1.17-RXN
ASD38_10960	Unknown	RXN1F-20
ASD38_16970	Unknown	BTUR2-RXN;COBALADENOSYLTRANS-RXN;R344-RXN
ASD38_21850	Unknown	GSHTRAN-RXN;GST-RXN;RXN-11663;RXN-13673;RXN-15680;RXN-18405;RXN-18407;RXNQT-4363
ASD38_15865	Unknown	PROLINE--TRNA-LIGASE-RXN
ASD38_05285	Unknown	ADDALT-RXN;ADENODEAMIN-RXN
ASD38_18265	Unknown	3-OXOACYL-ACP-REDUCT-RXN;RXN-10060;RXN-10655;RXN-10659;RXN-11476;RXN-11480;RXN-13008;RXN-16616;RXN-16622;RXN-16626;RXN-16630;RXN-9514;RXN-9518;RXN-9524;RXN-9528;RXN-9532;RXN-9536;RXN-9540;RXN-9552;RXN-9556;RXN-9633;RXN0-2142;RXN1G-157;RXN1G-349;RXN1G-469;RXN1G-508
ASD38_11535	Unknown	UREA-CARBOXYLASE-RXN
ASD38_09850	obgE	RXN0-5462
ASD38_06875	Unknown	IMIDAZOLONEPROPIONASE-RXN
ASD38_10820	Unknown	IMP-DEHYDROG-RXN
ASD38_06880	Unknown	HISTIDINE-AMMONIA-LYASE-RXN
ASD38_15010	Unknown	ACYLCOASYN-RXN;LINOLENOYL-RXN;R223-RXN;RXN-12184;RXN-12702;RXN-12746;RXN-12978;RXN-13290;RXN-13614;RXN-16380;RXN-16389;RXN-16393;RXN-16401;RXN-16402;RXN-16415;RXN-16418;RXN-7904;RXN-9623;RXN-9644;RXN-9673;RXN0-7238;RXN0-7239;RXN0-7248;RXN66-469;RXN66-477;RXN66-480;RXN66-483;RXN66-484;TRANS-RXN0-623
ASD38_02550	Unknown	CARBOXYMETHYLENEBUTENOLIDASE-RXN;DIENELACHYDRO-RXN;RXN-9857;RXN-9868;RXN-9887;RXN-9890
ASD38_00735	Unknown	URITRANS-RXN
ASD38_11440	Unknown	DIMETHUROPORDEHYDROG-RXN;SIROHEME-FERROCHELAT-RXN;UROPORIIIMETHYLTRANSA-RXN
ASD38_10025	Unknown	D-AMINO-ACID-OXIDASE-RXN;RXN-8163
ASD38_12920	Unknown	2.7.13.3-RXN
ASD38_02385	Unknown	PEPSYNTH-RXN
ASD38_01125	Unknown	MALATE-DEH-RXN
ASD38_11015	Unknown	PEPTIDYLPROLYL-ISOMERASE-RXN
ASD38_14905	Unknown	3-OXOACYL-ACP-REDUCT-RXN;RXN-10060;RXN-10655;RXN-10659;RXN-11476;RXN-11480;RXN-13008;RXN-16616;RXN-16622;RXN-16626;RXN-16630;RXN-9514;RXN-9518;RXN-9524;RXN-9528;RXN-9532;RXN-9536;RXN-9540;RXN-9552;RXN-9556;RXN-9633;RXN0-2142;RXN1G-157;RXN1G-349;RXN1G-469;RXN1G-508
ASD38_02665	Unknown	RXN0-5100
ASD38_03855	Unknown	ARGININE--TRNA-LIGASE-RXN
ASD38_06045	Unknown	RXN0-4261
ASD38_14385	Unknown	RXN-11109
ASD38_07315	Unknown	2.3.2.13-RXN;RXN-19236
ASD38_21205	Unknown	GLYCEROL-KIN-RXN
ASD38_05225	fadE	ACYLCOADEHYDROG-RXN;RXN-17775;RXN-17779;RXN-17783;RXN-17784;RXN-17788;RXN-17792;RXN-17796
ASD38_19115	Unknown	GLUTATHIONE-REDUCT-NADPH-RXN
ASD38_17600	Unknown	3.4.11.18-RXN;RXN-17873;RXN-17874;RXN-17875;RXN-17876;RXN-17877;RXN-17878
ASD38_00840	Unknown	RXN-9655
ASD38_09720	Unknown	ACYLCOASYN-RXN;LINOLENOYL-RXN;R223-RXN;RXN-12184;RXN-12978;RXN-13290;RXN-13614;RXN-16380;RXN-16389;RXN-16393;RXN-16401;RXN-16402;RXN-16415;RXN-16418;RXN-7904;RXN-9623;RXN-9644;RXN-9673;RXN0-7238;RXN0-7239;RXN0-7248;RXN66-469;RXN66-477;RXN66-480;RXN66-483;RXN66-484;TRANS-RXN0-623
ASD38_07440	Unknown	RXN-8668
ASD38_12375	Unknown	DIHYDRODIPICSYN-RXN
ASD38_11355	Unknown	DEOXYRIBODIPYRIMIDINE-PHOTOLYASE-RXN;RXN-19025;RXN-19026;RXN-19242;RXN-19243;RXN-19244;RXN-19245;RXN-19246;RXN-19247;RXN-19248
ASD38_02255	Unknown	L-GLN-FRUCT-6-P-AMINOTRANS-RXN
ASD38_18300	Unknown	2-HALOACID-DEHALOGENASE-RXN;3.8.1.11-RXN;RXN-6263;RXN-6264
ASD38_17025	Unknown	CHORISMATE-SYNTHASE-RXN
ASD38_02865	Unknown	N-CARBAMOYLPUTRESCINE-AMIDASE-RXN
ASD38_12185	Unknown	PHOSGLYPHOS-RXN
ASD38_01260	Unknown	ACETYL-COA-CARBOXYLTRANSFER-RXN;RXN0-5055
ASD38_10855	Unknown	2.7.13.3-RXN
ASD38_12135	Unknown	THI-P-KIN-RXN
ASD38_20525	Unknown	2-HALOACID-DEHALOGENASE-RXN
ASD38_08215	Unknown	RXN0-5100
ASD38_04585	Unknown	GLYOXIII-RXN
ASD38_00835	Unknown	2.3.1.41-RXN;3-OXOACYL-ACP-SYNTH-BASE-RXN;3-OXOACYL-ACP-SYNTH-RXN;RXN-10059;RXN-10654;RXN-10658;RXN-11474;RXN-11479;RXN-16615;RXN-16621;RXN-16625;RXN-16629;RXN-9516;RXN-9523;RXN-9527;RXN-9531;RXN-9535;RXN-9539;RXN-9632;RXN-9648;RXN-9650;RXN-9651;RXN-9652;RXN-9653;RXN-9654;RXN0-2141;RXN1G-368;RXN1G-445;RXN1G-460;RXN1G-499;RXN3O-1803
ASD38_13490	Unknown	ARGSUCCINLYA-RXN;RXN-22
ASD38_11350	Unknown	5.1.3.20-RXN
ASD38_18230	Unknown	GSHTRAN-RXN;GST-RXN;RXN-11663;RXN-13673;RXN-15680;RXN-18405;RXN-18407;RXNQT-4363
ASD38_19005	Unknown	ETHAMLY-RXN
ASD38_00240	Unknown	2.5.1.19-RXN
ASD38_08085	Unknown	RXN-12610;RXN-12611;THI-P-SYN-RXN
ASD38_21635	Unknown	UDPNACETYLMURAMATEDEHYDROG-RXN
ASD38_16070	clpP	3.4.21.92-RXN
ASD38_08205	Unknown	2-OCTAPRENYL-6-OHPHENOL-METHY-RXN;DHHB-METHYLTRANSFER-RXN
ASD38_13340	Unknown	RXN-12178;RXN-12270
ASD38_20465	Unknown	DNA-DIRECTED-DNA-POLYMERASE-RXN
ASD38_09375	Unknown	3.2.1.3-RXN;RXN-9024
ASD38_15210	Unknown	3.2.1.55-RXN
ASD38_13195	Unknown	MYRISTOYLACYLTRAN-RXN
ASD38_10525	Unknown	GUANYL-KIN-RXN
ASD38_12210	Unknown	PORPHOBILSYNTH-RXN
ASD38_02715	Unknown	GSHTRAN-RXN;GST-RXN;RXN-11663;RXN-13673;RXN-15680;RXN-18405;RXN-18407;RXNQT-4363
ASD38_07105	Unknown	METHGLYSYN-RXN
ASD38_08790	Unknown	DIHYDROOROTATE-DEHYDROGENASE-RXN;RXN0-6491;RXN0-6554
ASD38_12510	Unknown	2.1.1.77-RXN
ASD38_12165	Unknown	5-AMINOLEVULINIC-ACID-SYNTHASE-RXN
ASD38_04970	Unknown	ACETATEKIN-RXN
ASD38_00985	Unknown	LEUCINE--TRNA-LIGASE-RXN
ASD38_20965	Unknown	ADENYL-KIN-RXN
ASD38_12155	glyA	GLYOHMETRANS-RXN;RXN0-5234
ASD38_10480	Unknown	DNA-DIRECTED-DNA-POLYMERASE-RXN
ASD38_07385	Unknown	2.7.13.3-RXN
ASD38_20805	Unknown	3.2.1.37-RXN
ASD38_11720	Unknown	3-OXOADIPATE-ENOL-LACTONASE-RXN
ASD38_06520	Unknown	ALKAPHOSPHA-RXN;RXN-5822;RXN-8748
ASD38_04035	Unknown	6.2.1.34-RXN
ASD38_07350	Unknown	GSHTRAN-RXN;GST-RXN;RXN-11663;RXN-13673;RXN-15680;RXN-18405;RXN-18407;RXNQT-4363
ASD38_20090	Unknown	POLYPHOSPHATE-KINASE-RXN
ASD38_14970	Unknown	PEPTIDYLPROLYL-ISOMERASE-RXN
ASD38_10540	Unknown	2.3.1.179-RXN;2.3.1.41-RXN;3-OXOACYL-ACP-SYNTH-BASE-RXN;3-OXOACYL-ACP-SYNTH-RXN;RXN-10654;RXN-10658;RXN-11474;RXN-11479;RXN-16615;RXN-16621;RXN-16625;RXN-16629;RXN-8391;RXN-9516;RXN-9523;RXN-9527;RXN-9531;RXN-9535;RXN-9539;RXN0-2141;RXN1G-460;RXN3O-1803
ASD38_08735	Unknown	GLUCONOLACT-RXN;RXN-8783
ASD38_03670	Unknown	ACYLCOADEHYDROG-RXN;RXN-17775;RXN-17779;RXN-17783;RXN-17784;RXN-17788;RXN-17792;RXN-17796
ASD38_13210	Unknown	LYSOPHOSPHOLIPASE-RXN;RXN-15035;RXN-19312
ASD38_18055	Unknown	NADPH-DEHYDROGENASE-FLAVIN-RXN
ASD38_21675	murD	UDP-NACMURALA-GLU-LIG-RXN
ASD38_17080	Unknown	RXN-12093
ASD38_17370	Unknown	CARBOXYMETHYLENEBUTENOLIDASE-RXN;DIENELACHYDRO-RXN;RXN-9857;RXN-9868;RXN-9887;RXN-9890
ASD38_01775	Unknown	GLUTRACE-RXN
ASD38_12250	Unknown	3-OXOACYL-ACP-REDUCT-RXN;RXN-10060;RXN-10655;RXN-10659;RXN-11476;RXN-11480;RXN-13008;RXN-16616;RXN-16622;RXN-16626;RXN-16630;RXN-9514;RXN-9518;RXN-9524;RXN-9528;RXN-9532;RXN-9536;RXN-9540;RXN-9552;RXN-9556;RXN-9633;RXN0-2142;RXN1G-157;RXN1G-349;RXN1G-469;RXN1G-508
ASD38_06835	Unknown	3.2.1.74-RXN
ASD38_11035	Unknown	5.99.1.3-RXN
ASD38_04260	Unknown	QUINOPRIBOTRANS-RXN
ASD38_06780	Unknown	2.7.13.3-RXN
ASD38_04270	Unknown	QUINOLINATE-SYNTHA-RXN
ASD38_15950	Unknown	1.6.99.5-RXN;NADH-DEHYDROGENASE-QUINONE-RXN
ASD38_06885	Unknown	N-FORMYLGLUTAMATE-DEFORMYLASE-RXN
ASD38_16835	Unknown	2-HALOACID-DEHALOGENASE-RXN;3.8.1.11-RXN;RXN-6263;RXN-6264
ASD38_12055	Unknown	RXN-18399;RXN-18428;RXN-18430
ASD38_04395	Unknown	1.5.1.9-RXN
ASD38_01600	Unknown	RXN0-4361
ASD38_15755	Unknown	3-HYDROXYDECANOYL-ACP-DEHYDR-RXN
ASD38_12145	Unknown	LUMAZINESYN-RXN
ASD38_05745	gatA	6.3.5.7-RXN
ASD38_03740	Unknown	2-NITROPROPANE-DIOXYGENASE-RXN
ASD38_00635	Unknown	TRNA-GUANINE-N7--METHYLTRANSFERASE-RXN
ASD38_07365	Unknown	ACYLCOADEHYDROG-RXN;RXN-17775;RXN-17779;RXN-17783;RXN-17784;RXN-17788;RXN-17792;RXN-17796
ASD38_09705	Unknown	3-ISOPROPYLMALISOM-RXN;RXN-13163;RXN-8991
ASD38_01385	Unknown	CITSYN-RXN
ASD38_20310	Unknown	RXN0-1281
ASD38_17250	Unknown	3.4.13.9-RXN
ASD38_14870	Unknown	3.2.1.37-RXN
ASD38_04965	Unknown	PHOSACETYLTRANS-RXN
ASD38_01955	Unknown	R601-RXN;RXN-14963
ASD38_21580	Unknown	HOMOGENTISATE-12-DIOXYGENASE-RXN
ASD38_09920	Unknown	RXN-8665
ASD38_00450	Unknown	RXN-9990
ASD38_03100	Unknown	PABASYN-RXN
ASD38_18705	Unknown	ATPASE-RXN
ASD38_06870	Unknown	FORMIMINOGLUTAMATE-DEIMINASE-RXN
ASD38_20305	Unknown	RXN0-302
ASD38_00670	Unknown	RXN-14480;RXN-14481;RXN0-5063
ASD38_22855	Unknown	BIOTIN-CARBOXYL-RXN
ASD38_03260	Unknown	3.5.1.27-RXN;3.5.1.88-RXN
ASD38_18180	Unknown	RXN0-2621
ASD38_00235	Unknown	RXN-11832;RXN-12002;RXN-7913
ASD38_19125	glmU	2.3.1.157-RXN;NAG1P-URIDYLTRANS-RXN
ASD38_19915	Unknown	ISOCHORMAT-RXN
ASD38_00040	Unknown	ACYLCOADEHYDROG-RXN;RXN-17775;RXN-17779;RXN-17783;RXN-17784;RXN-17788;RXN-17792;RXN-17796
ASD38_04565	Unknown	PEPTIDYLPROLYL-ISOMERASE-RXN
ASD38_08900	Unknown	GLYOXIII-RXN
ASD38_21400	Unknown	ACETYL-COA-ACETYLTRANSFER-RXN;METHYLACETOACETYLCOATHIOL-RXN;RXN-12561
ASD38_21925	Unknown	AMIDASE-RXN;GUANIDINOBUTANAMIDE-NH3-RXN;PYRAZIN-RXN;R311-RXN;RXN-14727;RXN-14728;RXN-17608;RXNN-404
ASD38_11055	Unknown	7KAPSYN-RXN;RXN-11484
ASD38_16865	Unknown	1.14.11.2-RXN
ASD38_09885	proA	GLUTSEMIALDEHYDROG-RXN
ASD38_09595	Unknown	1.8.1.4-RXN;2OXOGLUTARATEDEH-RXN;2OXOGLUTDECARB-RXN;RXN-7716;RXN-7719;RXN-8629;RXN0-1132;RXN0-1147
ASD38_11475	Unknown	4.2.2.3-RXN
ASD38_13865	Unknown	GLUCOKIN-RXN;HEXOKINASE-RXN
ASD38_12995	Unknown	7KAPSYN-RXN;RXN-11484
ASD38_06590	Unknown	RIBOKIN-RXN;RXN-14223
ASD38_09700	Unknown	3-ISOPROPYLMALISOM-RXN;R-2-METHYLMALATE-DEHYDRATASE-RXN;RXN-13163;RXN-7744;RXN-8991
ASD38_18505	Unknown	1.3.1.62-RXN
ASD38_00180	Unknown	ACETATE--COA-LIGASE-RXN;RXN-18446;RXN-18447;RXN-18448
ASD38_06100	Unknown	RXNN-386
ASD38_22325	Unknown	GSHTRAN-RXN;GST-RXN;RXN-11663;RXN-13673;RXN-15680;RXN-18405;RXN-18407;RXNQT-4363
ASD38_01165	Unknown	RXN0-5062
ASD38_03985	Unknown	3.2.2.21-RXN
ASD38_16315	Unknown	ACYLCOASYN-RXN;LINOLENOYL-RXN;R223-RXN;RXN-12184;RXN-12978;RXN-13290;RXN-13614;RXN-16380;RXN-16389;RXN-16393;RXN-16401;RXN-16402;RXN-16415;RXN-16418;RXN-7904;RXN-9623;RXN-9644;RXN-9673;RXN0-7238;RXN0-7239;RXN0-7248;RXN66-469;RXN66-477;RXN66-480;RXN66-483;RXN66-484;TRANS-RXN0-623
ASD38_16805	ileS	ISOLEUCINE--TRNA-LIGASE-RXN
ASD38_10230	Unknown	GLUTAMATE-DEHYDROGENASE-NADP+-RXN;GLUTAMATE-DEHYDROGENASE-RXN;GLUTDEHYD-RXN
ASD38_08925	Unknown	4OHBENZOATE-OCTAPRENYLTRANSFER-RXN
ASD38_01420	Unknown	DTDPDEHYRHAMREDUCT-RXN
ASD38_02560	Unknown	ACYLCOADEHYDROG-RXN;RXN-17775;RXN-17779;RXN-17783;RXN-17784;RXN-17788;RXN-17792;RXN-17796
ASD38_21215	Unknown	DNA-DIRECTED-DNA-POLYMERASE-RXN;RXN0-4961
ASD38_22725	Unknown	2.7.13.3-RXN
ASD38_01410	Unknown	RXN-12104
ASD38_19680	Unknown	PEPTIDYLPROLYL-ISOMERASE-RXN
ASD38_19975	Unknown	3.2.1.3-RXN;RXN-9024
ASD38_12205	Unknown	3.4.11.5-RXN
ASD38_08650	Unknown	3.1.26.5-RXN
ASD38_10535	Unknown	ADCLY-RXN
ASD38_02860	Unknown	AGMATINE-DEIMINASE-RXN
ASD38_12085	Unknown	2.3.1.180-RXN
ASD38_15590	Unknown	1.8.1.4-RXN;2OXOGLUTARATEDEH-RXN;2OXOGLUTDECARB-RXN;RXN-7716;RXN-7719;RXN-8629;RXN0-1132;RXN0-1147
ASD38_17155	Unknown	2.6.1.18-RXN
ASD38_22930	Unknown	TYROSINE--TRNA-LIGASE-RXN
ASD38_07950	Unknown	5-FORMYL-THF-CYCLO-LIGASE-RXN
ASD38_12720	Unknown	METHYLCROTONYL-COA-CARBOXYLASE-RXN
ASD38_17835	Unknown	RXN0-4022
ASD38_01415	Unknown	DTDPGLUCOSEPP-RXN
ASD38_13175	Unknown	3.1.11.6-RXN
ASD38_11470	Unknown	2.7.13.3-RXN
ASD38_17880	Unknown	GSHTRAN-RXN;GST-RXN;RXN-11663;RXN-13673;RXN-15680;RXN-18405;RXN-18407;RXNQT-4363
ASD38_06105	Unknown	ACYLCOADEHYDROG-RXN;RXN-17775;RXN-17779;RXN-17783;RXN-17784;RXN-17788;RXN-17792;RXN-17796
ASD38_15020	Unknown	3.4.11.5-RXN
ASD38_14240	Unknown	1.11.1.15-RXN;RXN0-5468
ASD38_13510	Unknown	GUANPRIBOSYLTRAN-RXN;HYPOXANPRIBOSYLTRAN-RXN
ASD38_13855	Unknown	GLYOXIII-RXN
ASD38_06440	Unknown	2.7.13.3-RXN
ASD38_02845	Unknown	RXNI-2
ASD38_22450	Unknown	CATAL-RXN;RXN-8667
ASD38_22865	Unknown	3-DEHYDROQUINATE-DEHYDRATASE-RXN
ASD38_05895	Unknown	2-ISOPROPYLMALATESYN-RXN
ASD38_00350	Unknown	SUPEROX-DISMUT-RXN
ASD38_12030	Unknown	N-ACETYLGLUTPREDUCT-RXN;RXN-15006
ASD38_19750	Unknown	4.1.1.32-RXN;RXN-12481
ASD38_00065	Unknown	ACETYL-COA-ACETYLTRANSFER-RXN;METHYLACETOACETYLCOATHIOL-RXN;RXN-12561
ASD38_10760	Unknown	RXN0-5062
ASD38_03445	Unknown	325-BISPHOSPHATE-NUCLEOTIDASE-RXN
ASD38_17735	Unknown	NQOR-RXN
ASD38_07805	Unknown	2.7.13.3-RXN
ASD38_10060	Unknown	ACETYL-COA-ACETYLTRANSFER-RXN;METHYLACETOACETYLCOATHIOL-RXN;RXN-12561
ASD38_21590	Unknown	HISTAMINOTRANS-RXN
ASD38_01820	Unknown	DIAMINOPIMEPIM-RXN
ASD38_15485	Unknown	RXN0-299
ASD38_17170	gabD	RXN0-5293;SUCCINATE-SEMIALDEHYDE-DEHYDROGENASE-RXN
ASD38_17845	Unknown	RXN-13853
ASD38_01770	Unknown	ATPASE-RXN
ASD38_20175	Unknown	ADENYLYLSULFKIN-RXN;GSADENYLATION-RXN;RXN-12720;SULFATE-ADENYLYLTRANS-RXN
ASD38_21465	Unknown	2-NITROPROPANE-DIOXYGENASE-RXN
ASD38_22815	Unknown	3.2.1.55-RXN
ASD38_01325	Unknown	PRPPSYN-RXN
ASD38_14790	Unknown	CARBPSYN-RXN;GLUTAMIN-RXN;RXN-13202;RXN-14196;RXN-16909;RXN-16910
ASD38_09480	Unknown	2.5.1.46-RXN;RXN-13414;RXN-13415;RXN-13416;RXN-13417
ASD38_01095	Unknown	3.1.11.2-RXN
ASD38_01035	Unknown	NQOR-RXN
ASD38_04225	Unknown	GSHTRAN-RXN;GST-RXN;RXN-11663;RXN-13673;RXN-15680;RXN-18405;RXN-18407;RXNQT-4363
ASD38_02660	Unknown	5.99.1.3-RXN
ASD38_15685	Unknown	IGPSYN-RXN
ASD38_19095	Unknown	ACYLCOASYN-RXN;LINOLENOYL-RXN;R223-RXN;RXN-12184;RXN-12978;RXN-13290;RXN-13614;RXN-16380;RXN-16389;RXN-16393;RXN-16401;RXN-16402;RXN-16415;RXN-16418;RXN-7904;RXN-9623;RXN-9644;RXN-9673;RXN0-7238;RXN0-7239;RXN0-7248;RXN66-469;RXN66-477;RXN66-480;RXN66-483;RXN66-484;TRANS-RXN0-623
ASD38_03195	Unknown	5.3.4.1-RXN
ASD38_05450	Unknown	2.7.13.3-RXN
ASD38_20225	Unknown	GLYOXIII-RXN
ASD38_04910	Unknown	PYRIDOXAL-4-DEHYDROGENASE-RXN
ASD38_11155	Unknown	RXN-10000
ASD38_01155	Unknown	MERCURY-II-REDUCTASE-RXN
ASD38_09945	Unknown	ARYLESTERASE-RXN
ASD38_05345	Unknown	RXN-12134;RXN-12140;RXN-12141;RXN-12142
ASD38_03270	Unknown	METHIONYL-TRNA-FORMYLTRANSFERASE-RXN
ASD38_08495	Unknown	RXN0-20
ASD38_21350	Unknown	25-DIOXOVALERATE-DEHYDROGENASE-RXN;RXN-8775
ASD38_13305	emrB	3.6.3.44-RXN;TRANS-RXN-311
ASD38_11560	Unknown	RXN0-5223
ASD38_18440	Unknown	NUCLEOSIDE-DEOXYRIBOSYLTRANSFERASE-RXN
ASD38_05950	Unknown	GSHTRAN-RXN;GST-RXN;RXN-11663;RXN-13673;RXN-15680;RXN-18405;RXN-18407;RXNQT-4363
ASD38_03060	Unknown	2-DEHYDROPANTOATE-REDUCT-RXN
ASD38_08380	Unknown	1.3.99.16-RXN
ASD38_06930	Unknown	DEHYDDEOXGALACTKIN-RXN
ASD38_15680	Unknown	PRTRANS-RXN
ASD38_18485	Unknown	DIHYDROFOLATEREDUCT-RXN;RXN-18357
ASD38_16350	Unknown	2.1.1.77-RXN
ASD38_19380	Unknown	DMBPPRIBOSYLTRANS-RXN;RXN-19295;RXN-19298;RXN-19299;RXN-19300;RXN-19301;RXN-19306
ASD38_13205	Unknown	MYO-INOSITOL-1OR-4-MONOPHOSPHATASE-RXN;RXN-7253;RXN0-5408
ASD38_04545	Unknown	RXN0-2621
ASD38_03840	Unknown	HOMOSERKIN-RXN
ASD38_15235	Unknown	4.2.2.2-RXN
ASD38_02520	Unknown	ATPASE-RXN
ASD38_13500	Unknown	DIAMINOPIMDECARB-RXN
ASD38_15665	Unknown	ANTHRANSYN-RXN
ASD38_13755	Unknown	4-COUMARATE--COA-LIGASE-RXN;RXN-10919;RXN-1122;RXN-1126
ASD38_13680	Unknown	3.1.30.1-RXN
ASD38_09940	Unknown	RXN0-5510
ASD38_15945	Unknown	1.6.99.5-RXN;NADH-DEHYDROGENASE-QUINONE-RXN
ASD38_19820	Unknown	MANNONDEHYDRAT-RXN
ASD38_15375	Unknown	5.3.1.17-RXN
ASD38_17740	Unknown	RXN0-299
ASD38_19165	Unknown	1.5.1.9-RXN
ASD38_01745	Unknown	R4-RXN
ASD38_15660	Unknown	PEPTIDYLPROLYL-ISOMERASE-RXN
ASD38_17070	Unknown	4.2.3.12-RXN
ASD38_16095	Unknown	PHOSGLYPHOS-RXN
ASD38_06295	Unknown	4.2.99.18-RXN
ASD38_07910	Unknown	RXN0-4261
ASD38_20655	Unknown	RXN-11135
ASD38_06550	Unknown	ATPASE-RXN
ASD38_18165	Unknown	UDP-NACMUR-ALA-LIG-RXN
ASD38_16760	Unknown	RXN0-5131
ASD38_18755	Unknown	AICARSYN-RXN;AMPSYN-RXN
ASD38_10195	purH	AICARTRANSFORM-RXN;IMPCYCLOHYDROLASE-RXN
ASD38_21175	Unknown	METHENYLTHFCYCLOHYDRO-RXN;METHYLENETHFDEHYDROG-NADP-RXN
ASD38_13110	Unknown	DCTP-DEAM-RXN;RXN-14118
ASD38_02075	Unknown	2-HALOACID-DEHALOGENASE-RXN;3.8.1.11-RXN;RXN-6263;RXN-6264
ASD38_19105	Unknown	DAHPSYN-RXN
ASD38_03475	Unknown	CYSTEINE--TRNA-LIGASE-RXN
ASD38_11695	Unknown	RXNI-2
ASD38_14590	Unknown	GSHTRAN-RXN;GST-RXN;RXN-11663;RXN-13673;RXN-15680;RXN-18405;RXN-18407;RXNQT-4363
ASD38_02850	Unknown	RXN0-2001
ASD38_03295	Unknown	SUCCDIAMINOPIMDESUCC-RXN
ASD38_19555	Unknown	1.2.1.27-RXN;RXN-11213;RXN-2902
ASD38_03845	ispH	ISPH2-RXN;RXN0-884
ASD38_05500	Unknown	PROTEIN-KINASE-RXN
ASD38_12735	Unknown	RXN-14264;RXN0-2301
ASD38_03230	Unknown	DNA-DIRECTED-DNA-POLYMERASE-RXN
ASD38_21390	Unknown	ALDOSE1EPIM-RXN
ASD38_20025	Unknown	2-HALOACID-DEHALOGENASE-RXN
ASD38_10450	ndk	CDPKIN-RXN;DADPKIN-RXN;DCDPKIN-RXN;DGDPKIN-RXN;DTDPKIN-RXN;DUDPKIN-RXN;GDPKIN-RXN;NUCLEOSIDE-DIP-KIN-RXN;RXN-14120;RXN-14228;UDPKIN-RXN
ASD38_11400	Unknown	CYSTATHIONINE-BETA-LYASE-RXN;RXN-15131
ASD38_14775	Unknown	2-HALOACID-DEHALOGENASE-RXN;3.8.1.11-RXN;RXN-6263;RXN-6264
ASD38_12190	Unknown	2.7.13.3-RXN
ASD38_11340	Unknown	ACETYL-COA-ACETYLTRANSFER-RXN;METHYLACETOACETYLCOATHIOL-RXN;RXN-12561
ASD38_14230	Unknown	RXN0-743
ASD38_09545	Unknown	AMIDASE-RXN;GUANIDINOBUTANAMIDE-NH3-RXN;PYRAZIN-RXN;R311-RXN;RXN-14727;RXN-14728;RXN-17608;RXNN-404
ASD38_00445	Unknown	ALANINE-DEHYDROGENASE-RXN
ASD38_10835	Unknown	EXOPOLYPHOSPHATASE-RXN
ASD38_22335	Unknown	CARBOXYMETHYLENEBUTENOLIDASE-RXN;DIENELACHYDRO-RXN;RXN-9857;RXN-9868;RXN-9887;RXN-9890
ASD38_01445	Unknown	ACETYLORNDEACET-RXN;RXN-7933
ASD38_11360	Unknown	2.1.1.79-RXN;RXN-7421;RXN1G-2544;RXN1G-3641
ASD38_03790	Unknown	KANAMYCIN-KINASE-RXN
ASD38_15510	Unknown	1.14.11.18-RXN;RXN66-470
ASD38_01275	Unknown	PRAISOM-RXN
ASD38_19195	Unknown	PECTINESTERASE-RXN;RXN-2102
ASD38_18195	Unknown	LYSOPHOSPHOLIPASE-RXN;RXN-15035;RXN-19312
ASD38_12760	Unknown	RXN-13039;RXN-17127;RXN-8654;RXN-8655;RXN0-1141;RXN0-5098
ASD38_03090	Unknown	PROTEIN-TYROSINE-PHOSPHATASE-RXN
ASD38_08335	Unknown	CARBOXYMETHYLENEBUTENOLIDASE-RXN;DIENELACHYDRO-RXN;RXN-9857;RXN-9868;RXN-9887;RXN-9890
ASD38_17855	Unknown	SERINE-O-ACETTRAN-RXN
ASD38_20565	Unknown	RXN-9387;RXN-9781
ASD38_05615	Unknown	2.1.1.71-RXN;RXN4FS-2
ASD38_03955	Unknown	RXN0-2661
ASD38_13285	Unknown	URACIL-PRIBOSYLTRANS-RXN
ASD38_16410	Unknown	RXN0-5131
ASD38_07020	Unknown	HYDROXY-MANDELATE-RACEMASE-RXN;MANDELATE-RACEMASE-RXN
ASD38_03865	gcvT	GCVT-RXN
ASD38_20810	Unknown	3.2.1.55-RXN
ASD38_08480	Unknown	PYRROLINECARBREDUCT-RXN;RXN66-546
ASD38_22925	Unknown	R4-RXN
ASD38_02240	Unknown	RXN1A0-6303
ASD38_04420	Unknown	RXN0-2621
ASD38_17075	Unknown	RXN0-6575
ASD38_03310	Unknown	2-HALOACID-DEHALOGENASE-RXN;3.8.1.11-RXN;RXN-6263;RXN-6264
ASD38_01620	Unknown	CYSTATHIONINE-BETA-LYASE-RXN;RXN-15131
ASD38_07155	Unknown	2.7.13.3-RXN
ASD38_01975	Unknown	2.7.13.3-RXN
ASD38_05405	Unknown	GLYOXIII-RXN
ASD38_11640	Unknown	2-HALOACID-DEHALOGENASE-RXN
ASD38_21625	Unknown	DALADALALIG-RXN
ASD38_00435	Unknown	CARBODEHYDRAT-RXN;RXN0-5224
ASD38_12555	Unknown	3.2.1.52-RXN;RXN-12625;RXN-12626;RXN-18082;RXN0-5226
ASD38_04615	Unknown	LYSOPHOSPHOLIPASE-RXN;RXN-15035;RXN-19312
ASD38_22660	Unknown	UDPNACETYLGLUCOSAMENOLPYRTRANS-RXN
ASD38_03515	Unknown	RXN0-2001
ASD38_11320	Unknown	RXN0-4261
ASD38_03830	Unknown	RXN-19040;RXN0-6359;THIOSULFATE-SULFURTRANSFERASE-RXN
ASD38_12930	Unknown	KETOACYLCOATHIOL-RXN;RXN-10699;RXN-10700;RXN-10701;RXN-11246;RXN-12565;RXN-12710;RXN-13617;RXN-14268;RXN-14274;RXN-14277;RXN-14394;RXN-14774;RXN-14788;RXN-14793;RXN-14799;RXN-14803;RXN-16137;RXN-17116;RXN-17778;RXN-17782;RXN-17787;RXN-17791;RXN-17795;RXN-17799;RXN-3641
ASD38_01470	Unknown	1TRANSKETO-RXN;2TRANSKETO-RXN
ASD38_15015	Unknown	2.7.13.3-RXN
ASD38_14645	Unknown	3.1.1.64-RXN;CARBOXYLESTERASE-RXN;RETINYL-PALMITATE-ESTERASE-RXN;RXN-10711;RXN-10767;RXN-12252;RXN-12575;RXNQT-4366
ASD38_17225	Unknown	GLUTAMINESYN-RXN
ASD38_03665	Unknown	R4-RXN
ASD38_01135	Unknown	3.6.1.41-RXN
ASD38_11540	Unknown	UREA-CARBOXYLASE-RXN
ASD38_13035	Unknown	RXN0-384
ASD38_21110	Unknown	2.1.3.1-RXN
ASD38_06705	Unknown	ARYLESTERASE-RXN
ASD38_15310	Unknown	TREHALA-RXN
ASD38_04805	Unknown	2.4.1.36-RXN;RXN-761;TREHALOSE6PSYN-RXN
ASD38_18500	Unknown	12-OXOPHYTODIENOATE-REDUCTASE-RXN
ASD38_00535	Unknown	2.7.13.3-RXN
ASD38_19585	Unknown	MYO-INOSITOL-2-DEHYDROGENASE-RXN
ASD38_00910	Unknown	IMIDPHOSDEHYD-RXN
ASD38_06095	Unknown	ACYLCOADEHYDROG-RXN;RXN-17775;RXN-17779;RXN-17783;RXN-17784;RXN-17788;RXN-17792;RXN-17796
ASD38_17575	Unknown	GSADENYLATION-RXN
ASD38_10665	Unknown	3-CH3-2-OXOBUTANOATE-OH-CH3-XFER-RXN;RXN-15635
ASD38_09660	Unknown	2.7.13.3-RXN
ASD38_08880	Unknown	1.1.1.274-RXN
ASD38_05795	Unknown	5.99.1.2-RXN
ASD38_22670	Unknown	RXN-12097;RXN-12098
ASD38_10805	guaA	GLUTAMIN-RXN;GMP-SYN-GLUT-RXN;GMP-SYN-NH3-RXN
ASD38_11380	sseA	MERCAPYSTRANS-RXN;RXN-18702;RXN-18703;RXN0-6945
ASD38_11925	Unknown	3.1.1.64-RXN;CARBOXYLESTERASE-RXN;RETINYL-PALMITATE-ESTERASE-RXN;RXN-10711;RXN-10767;RXN-12252;RXN-12575;RXNQT-4366
ASD38_02905	Unknown	PGLUCISOM-RXN
ASD38_21685	Unknown	UDP-NACMURALGLDAPAALIG-RXN
ASD38_06010	Unknown	RXN-11135
ASD38_12790	Unknown	1.8.4.12-RXN
ASD38_04050	Unknown	2.7.13.3-RXN
ASD38_13765	Unknown	ADDALT-RXN;ADENODEAMIN-RXN
ASD38_16130	Unknown	5.99.1.2-RXN
ASD38_04275	Unknown	AMIDASE-RXN;GUANIDINOBUTANAMIDE-NH3-RXN;PYRAZIN-RXN;R311-RXN;RXN-14727;RXN-14728;RXN-17608;RXNN-404
ASD38_08280	Unknown	CYTIDEAM-RXN;CYTIDEAM2-RXN
ASD38_12195	Unknown	ACYLCOADEHYDROG-RXN;RXN-17775;RXN-17779;RXN-17783;RXN-17784;RXN-17788;RXN-17792;RXN-17796
ASD38_04300	Unknown	RXN-10002
ASD38_00365	Unknown	2.7.13.3-RXN
ASD38_18045	Unknown	1.8.4.8-RXN
ASD38_03530	Unknown	KETOACYLCOATHIOL-RXN;RXN-10699;RXN-10700;RXN-10701;RXN-11246;RXN-12565;RXN-12710;RXN-13617;RXN-14268;RXN-14274;RXN-14277;RXN-14394;RXN-14774;RXN-14788;RXN-14793;RXN-14799;RXN-14803;RXN-16137;RXN-17116;RXN-17778;RXN-17782;RXN-17787;RXN-17791;RXN-17795;RXN-17799
ASD38_09890	Unknown	NICONUCADENYLYLTRAN-RXN
ASD38_18575	Unknown	GLYOXIII-RXN
ASD38_01615	Unknown	CYSTATHIONINE-BETA-SYNTHASE-RXN;RXN-19038;RXN66-534;RXN66-562
ASD38_15735	Unknown	2.7.13.3-RXN
ASD38_02870	Unknown	ACID-PHOSPHATASE-RXN;RXN-5822
ASD38_01195	Unknown	ACONITATEDEHYDR-RXN;ACONITATEHYDR-RXN;RXN-14047
ASD38_15720	gltA	CITSYN-RXN
ASD38_21040	Unknown	GLYOXIII-RXN
ASD38_22530	Unknown	D-AMINO-ACID-OXIDASE-RXN;RXN-8163
ASD38_15610	Unknown	RXN-12508;RXN-12583;RXN0-1134
ASD38_20495	Unknown	4.2.2.3-RXN
ASD38_07905	Unknown	RXN0-4261
ASD38_19290	Unknown	RXN0-5131
ASD38_07195	Unknown	DEOXYGLUCONOKIN-RXN
ASD38_18735	Unknown	GSHTRAN-RXN;GST-RXN;RXN-11663;RXN-13673;RXN-15680;RXN-18405;RXN-18407;RXNQT-4363
ASD38_06020	Unknown	RXN0-4961
ASD38_14595	Unknown	2.7.13.3-RXN
ASD38_14960	Unknown	GLYOXI-RXN
ASD38_01425	Unknown	DTDPGLUCDEHYDRAT-RXN
ASD38_22700	Unknown	OLIGOGALACTURONIDE-LYASE-RXN
ASD38_08720	Unknown	ALDOSE1EPIM-RXN
ASD38_19755	Unknown	TRIOSEPISOMERIZATION-RXN
ASD38_21900	Unknown	RXN-6201
ASD38_02810	Unknown	2.7.13.3-RXN
ASD38_18130	Unknown	3.1.11.6-RXN
ASD38_14925	Unknown	NADPH-DEHYDROGENASE-FLAVIN-RXN
ASD38_20115	Unknown	4OH2OXOGLUTARALDOL-RXN;KDPGALDOL-RXN
ASD38_03405	Unknown	KANAMYCIN-KINASE-RXN
ASD38_00265	Unknown	325-BISPHOSPHATE-NUCLEOTIDASE-RXN
ASD38_11555	Unknown	LAUROYLACYLTRAN-RXN
ASD38_07740	Unknown	1.18.1.2-RXN
ASD38_01585	nadE	NAD-SYNTH-GLN-RXN;NAD-SYNTH-NH3-RXN
ASD38_20020	Unknown	2.4.1.36-RXN;RXN-761;TREHALOSE6PSYN-RXN
ASD38_23035	Unknown	RXN0-5100
ASD38_02160	Unknown	PROTEIN-KINASE-RXN
ASD38_12695	Unknown	PANTOATE-BETA-ALANINE-LIG-RXN
ASD38_15655	Unknown	TRIOSEPISOMERIZATION-RXN
ASD38_08525	Unknown	AMINOCYL-TRNA-HYDROLASE-RXN;RXN-16637
ASD38_18075	Unknown	CHORISMATEMUT-RXN
ASD38_02950	Unknown	ATPPHOSPHORIBOSYLTRANS-RXN
ASD38_11715	Unknown	5.5.1.2-RXN
ASD38_16930	Unknown	3-HYDROXYBUTYRYL-COA-DEHYDROGENASE-RXN
ASD38_09725	Unknown	CATAL-RXN;RXN-14189;RXN66-1
ASD38_23045	Unknown	RXN0-5131
ASD38_11260	Unknown	RXN3O-218
ASD38_08800	Unknown	RXN-17131;RXN-17132;RXN-17133
ASD38_21330	Unknown	ALPHAGALACTOSID-RXN;RXN-11501;RXN-11502;RXN-12088;RXN-17754;RXN-17830
ASD38_18775	Unknown	SAICARSYN-RXN
ASD38_12990	Unknown	RXN-17155
ASD38_19405	Unknown	RXN0-1281
ASD38_15835	Unknown	DNA-DIRECTED-DNA-POLYMERASE-RXN
ASD38_00850	Unknown	GLYCERATE-DEHYDROGENASE-RXN;HYDROXYPYRUVATE-REDUCTASE-RXN
ASD38_01390	Unknown	CITSYN-RXN
ASD38_16585	Unknown	3.2.1.8-RXN
ASD38_11545	Unknown	ALLOPHANATE-HYDROLASE-RXN
ASD38_08115	Unknown	MYO-INOSITOL-1OR-4-MONOPHOSPHATASE-RXN;RXN-7253;RXN0-5408
ASD38_02320	Unknown	2-OCTAPRENYL-6-METHOXYPHENOL-HYDROX-RXN
ASD38_05420	Unknown	2.7.13.3-RXN
ASD38_21870	Unknown	TRNA-URACIL-5--METHYLTRANSFERASE-RXN
ASD38_02175	Unknown	2.8.1.6-RXN;RXN-17472;RXN-17473
ASD38_09320	Unknown	ACYLCOADEHYDROG-RXN;RXN-17775;RXN-17779;RXN-17783;RXN-17784;RXN-17788;RXN-17792;RXN-17796
ASD38_18630	Unknown	ATPASE-RXN
ASD38_07100	Unknown	3.1.26.4-RXN
ASD38_02775	Unknown	RXN-527;RXN1F-93
ASD38_11370	Unknown	ACSERLY-RXN;RXN-12726
ASD38_03510	Unknown	HYDROXYMETHYLGLUTARYL-COA-LYASE-RXN
ASD38_18910	Unknown	S-FORMYLGLUTATHIONE-HYDROLASE-RXN
ASD38_19295	Unknown	RXN0-5131
ASD38_01255	Unknown	DIHYDROFOLATESYNTH-RXN;FOLYLPOLYGLUTAMATESYNTH-RXN;FORMYLTHFGLUSYNTH-RXN;RXN-6341;RXN0-2921
ASD38_06935	Unknown	DEHYDDEOXPHOSGALACT-ALDOL-RXN
ASD38_05775	Unknown	RXN-10462;RXN-13805;RXN-1381;RXN-15045;RXN-16024;RXN-16117;RXN-17016;RXN-17017;RXN-17018
ASD38_20335	Unknown	D-ALANINE-AMINOTRANSFERASE-RXN
ASD38_03205	Unknown	CPM-KDOSYNTH-RXN
ASD38_12125	hppA	INORGPYROPHOSPHAT-RXN
ASD38_18680	Unknown	ACYLCOADEHYDROG-RXN;RXN-17775;RXN-17779;RXN-17783;RXN-17784;RXN-17788;RXN-17792;RXN-17796
ASD38_20240	Unknown	RXN-12587;RXN-12588;RXN-14382;RXN-14385;RXN-15881;RXN-9787;RXN0-308
ASD38_16230	Unknown	1.5.5.1-RXN;RXN66-550
ASD38_10630	Unknown	PRPPAMIDOTRANS-RXN
ASD38_21915	Unknown	AMIDASE-RXN;GUANIDINOBUTANAMIDE-NH3-RXN;PYRAZIN-RXN;R311-RXN;RXN-14727;RXN-14728;RXN-17608;RXNN-404
ASD38_10200	Unknown	PHOSPHOGLUCMUT-RXN;RXN-16997;RXN-16998
ASD38_21680	mraY	PHOSNACMURPENTATRANS-RXN;RXN-11347;RXN-8975
ASD38_13120	Unknown	RXN-9384
ASD38_09620	sucA	2-KETO-ADIPATE-DEHYDROG-RXN;2OXOGLUTARATEDEH-RXN;2OXOGLUTDECARB-RXN;RXN-7716;RXN0-1147
ASD38_11325	Unknown	2.7.10.1-RXN
ASD38_10110	Unknown	PENICILLIN-AMIDASE-RXN;RXN-17099
ASD38_15285	Unknown	3.1.1.64-RXN;CARBOXYLESTERASE-RXN;RETINYL-PALMITATE-ESTERASE-RXN;RXN-10711;RXN-10767;RXN-12252;RXN-12575;RXNQT-4366
ASD38_13985	Unknown	N-FORMYLGLUTAMATE-DEFORMYLASE-RXN
ASD38_07760	Unknown	DNA-DIRECTED-DNA-POLYMERASE-RXN;RXN0-4961
ASD38_21010	Unknown	GLYOXIII-RXN
ASD38_03395	Unknown	GLYRIBONUCSYN-RXN
ASD38_01605	Unknown	RXN0-313;TRANSALDOL-RXN
ASD38_02230	Unknown	ASPARTATE-SEMIALDEHYDE-DEHYDROGENASE-RXN
ASD38_03885	Unknown	GCVP-RXN
ASD38_01960	Unknown	RXN-14971;RXN-15378;SUCCINATE-DEHYDROGENASE-UBIQUINONE-RXN
ASD38_02135	Unknown	RXN-9998
ASD38_02840	Unknown	RXNI-2
ASD38_12520	Unknown	RXN0-2161;SERINE--TRNA-LIGASE-RXN
ASD38_15520	Unknown	MALTODEXGLUCOSID-RXN;RXN-14281;RXN-14282;RXN-14283;RXN-15910;RXN0-5183
ASD38_14470	Unknown	GSHTRAN-RXN;GST-RXN;RXN-11663;RXN-13673;RXN-15680;RXN-18405;RXN-18407;RXNQT-4363
ASD38_06305	Unknown	3.4.13.22-RXN
ASD38_18980	Unknown	ISOCITDEH-RXN;RXN-8642;RXN-9951
ASD38_14910	Unknown	FUMARYLACETOACETASE-RXN
ASD38_20345	Unknown	RXN0-5462
ASD38_15065	Unknown	2.7.13.3-RXN
ASD38_10880	Unknown	ACETYLORNDEACET-RXN;RXN-7933
ASD38_22610	Unknown	2-OCTAPRENYL-6-OHPHENOL-METHY-RXN;DHHB-METHYLTRANSFER-RXN
ASD38_02785	Unknown	RXN-11586
ASD38_10410	Unknown	EXOPOLYPHOSPHATASE-RXN
ASD38_14865	Unknown	LYSOPHOSPHOLIPASE-RXN;RXN-15035;RXN-19312
ASD38_19545	Unknown	MYO-INOSITOL-1OR-4-MONOPHOSPHATASE-RXN;RXN-7253;RXN0-5408
ASD38_00920	Unknown	PRIBFAICARPISOM-RXN
ASD38_18305	Unknown	PSERPHOSPHA-RXN;RXN0-5114
ASD38_01595	Unknown	MANNPISOM-RXN
ASD38_04065	Unknown	BRANCHED-CHAINAMINOTRANSFERILEU-RXN;BRANCHED-CHAINAMINOTRANSFERLEU-RXN;BRANCHED-CHAINAMINOTRANSFERVAL-RXN
ASD38_05260	Unknown	ACYLCOADEHYDROG-RXN;RXN-17775;RXN-17779;RXN-17783;RXN-17784;RXN-17788;RXN-17792;RXN-17796
ASD38_12100	Unknown	1.10.2.2-RXN;RXN-15829
ASD38_18160	Unknown	DNA-DIRECTED-DNA-POLYMERASE-RXN;RXN0-4961
ASD38_21755	Unknown	PMPOXI-RXN;PNPOXI-RXN
ASD38_10400	Unknown	POLYPHOSPHATE-KINASE-RXN
ASD38_06800	Unknown	PMPOXI-RXN;PNPOXI-RXN
ASD38_19765	Unknown	3.1.1.72-RXN
ASD38_10430	Unknown	AIRS-RXN
ASD38_02605	Unknown	FRUCTOKINASE-RXN
ASD38_10705	Unknown	2-HALOACID-DEHALOGENASE-RXN;3.8.1.11-RXN;RXN-6263;RXN-6264
ASD38_02525	Unknown	3.6.3.12-RXN;TRANS-RXN-2
ASD38_12705	Unknown	METHYLCROTONYL-COA-CARBOXYLASE-RXN
ASD38_18710	Unknown	PROTEIN-TYROSINE-PHOSPHATASE-RXN
ASD38_03225	Unknown	NADPYROPHOSPHAT-RXN;RXN0-4401
ASD38_03460	Unknown	GSHTRAN-RXN;GST-RXN;RXN-11663;RXN-13673;RXN-15680;RXN-18405;RXN-18407;RXNQT-4363
ASD38_09580	Unknown	ARYLSULFAT-RXN
ASD38_07570	Unknown	RXN-2
ASD38_05445	Unknown	GSHTRAN-RXN;GST-RXN;RXN-11663;RXN-13673;RXN-15680;RXN-18405;RXN-18407;RXNQT-4363
ASD38_21475	Unknown	METHYLMALONYL-COA-MUT-RXN
ASD38_21805	Unknown	2.7.13.3-RXN
ASD38_13800	Unknown	1.2.7.8-RXN
ASD38_21285	Unknown	HOLO-ACP-SYNTH-RXN
ASD38_09715	Unknown	3-ISOPROPYLMALDEHYDROG-RXN;RXN-13158;RXN-14986;RXN-18200;RXN-18202;RXN-18204;RXN-18206;RXN-18208;RXN-18210;RXNQT-4165;RXNQT-4168;RXNQT-4171;RXNQT-4174;RXNQT-4178
ASD38_18675	Unknown	ACYLCOADEHYDROG-RXN;RXN-17775;RXN-17779;RXN-17783;RXN-17784;RXN-17788;RXN-17792;RXN-17796
ASD38_21250	Unknown	DNA-DIRECTED-RNA-POLYMERASE-RXN
ASD38_00995	Unknown	DNA-DIRECTED-DNA-POLYMERASE-RXN
ASD38_06120	Unknown	PEPDEPHOS-RXN;RXN-14117;RXN-14192;RXN-14207
ASD38_03905	Unknown	ATPSYN-RXN
ASD38_00700	Unknown	RXN-8974
ASD38_12690	Unknown	ATPASE-RXN
ASD38_14795	Unknown	3.1.1.64-RXN;CARBOXYLESTERASE-RXN;RETINYL-PALMITATE-ESTERASE-RXN;RXN-10711;RXN-10767;RXN-12252;RXN-12575;RXNQT-4366
ASD38_02170	Unknown	PROTEIN-KINASE-RXN
ASD38_18975	Unknown	2.7.13.3-RXN
ASD38_00020	Unknown	PHOSPHOGLUCMUT-RXN;RXN-16997;RXN-16998
ASD38_08230	Unknown	3-DEHYDROQUINATE-SYNTHASE-RXN
ASD38_09630	sucC	SUCCCOASYN-RXN
ASD38_09220	Unknown	3.2.1.52-RXN;RXN-12625;RXN-12626;RXN-18082;RXN0-5226
ASD38_15745	Unknown	LIPIDXSYNTHESIS-RXN
ASD38_00630	Unknown	INORGPYROPHOSPHAT-RXN
ASD38_02635	Unknown	3.2.1.74-RXN
ASD38_06925	Unknown	DIHYDROXYISOVALDEHYDRAT-RXN;DIHYDROXYMETVALDEHYDRAT-RXN
ASD38_18155	Unknown	2.3.2.13-RXN;RXN-19236
ASD38_00405	Unknown	MALEYLACETOACETATE-ISOMERASE-RXN
ASD38_07825	Unknown	OHMETPYRKIN-RXN;PYRIMSYN3-RXN
ASD38_14455	Unknown	2-OCTAPRENYL-6-OHPHENOL-METHY-RXN;DHHB-METHYLTRANSFER-RXN
ASD38_06370	Unknown	2.7.13.3-RXN
ASD38_22775	Unknown	3-OXOACYL-ACP-REDUCT-RXN;RXN-10060;RXN-10655;RXN-10659;RXN-11476;RXN-11480;RXN-13008;RXN-16616;RXN-16622;RXN-16626;RXN-16630;RXN-9514;RXN-9518;RXN-9524;RXN-9528;RXN-9532;RXN-9536;RXN-9540;RXN-9552;RXN-9556;RXN-9633;RXN0-2142;RXN1G-157;RXN1G-349;RXN1G-469;RXN1G-508
ASD38_09795	Unknown	3.5.1.26-RXN
ASD38_18100	Unknown	ACETYL-COA-ACETYLTRANSFER-RXN;METHYLACETOACETYLCOATHIOL-RXN;RXN-12561
ASD38_11870	Unknown	ACYLCOASYN-RXN;LINOLENOYL-RXN;R223-RXN;RXN-12184;RXN-12978;RXN-13290;RXN-13614;RXN-16380;RXN-16389;RXN-16393;RXN-16401;RXN-16402;RXN-16415;RXN-16418;RXN-7904;RXN-9623;RXN-9644;RXN-9673;RXN0-7238;RXN0-7239;RXN0-7248;RXN66-469;RXN66-477;RXN66-480;RXN66-483;RXN66-484;TRANS-RXN0-623
ASD38_00210	Unknown	3-ISOPROPYLMALDEHYDROG-RXN;RXN-13158;RXN-14986;RXN-18200;RXN-18202;RXN-18204;RXN-18206;RXN-18208;RXN-18210;RXNQT-4165;RXNQT-4168;RXNQT-4171;RXNQT-4174;RXNQT-4178
ASD38_03690	Unknown	DXS-RXN
ASD38_05860	Unknown	DNA-DIRECTED-DNA-POLYMERASE-RXN
ASD38_06135	Unknown	PGLUCONDEHYDRAT-RXN
ASD38_05940	Unknown	2.7.13.3-RXN
ASD38_03250	Unknown	RXN0-5100
ASD38_01010	Unknown	RXN-11578
ASD38_09575	Unknown	RXN0-5100
ASD38_04355	Unknown	CARBPSYN-RXN;GLUTAMIN-RXN;RXN-13202;RXN-14196;RXN-16909;RXN-16910
ASD38_11020	Unknown	PEPTIDYLPROLYL-ISOMERASE-RXN
ASD38_08780	Unknown	2.7.13.3-RXN
ASD38_17705	Unknown	HYDROXY-MANDELATE-RACEMASE-RXN;MANDELATE-RACEMASE-RXN
ASD38_18095	Unknown	GSHTRAN-RXN;GST-RXN;RXN-11663;RXN-13673;RXN-15680;RXN-18405;RXN-18407;RXNQT-4363
ASD38_11565	Unknown	RXN0-5223
ASD38_02760	Unknown	GLUTATHIONE-SYN-RXN
ASD38_20185	Unknown	METHIONINE--TRNA-LIGASE-RXN;RXN-16165
ASD38_10650	Unknown	RXN0-5462
ASD38_00570	Unknown	2.7.7.8-RXN
ASD38_22850	Unknown	LEUCYLTRANSFERASE-RXN;RXN-17846;RXN-17847;RXN-17848
ASD38_06675	Unknown	ENOYL-COA-HYDRAT-RXN;METHYLACYLYLCOA-HYDROXY-RXN;RXN-10697;RXN-10704;RXN-10705;RXN-11244;RXN-12567;RXN-13616;RXN-14266;RXN-14272;RXN-14273;RXN-16135;RXN-16558;RXN-17114;RXN-17475;RXN-17776;RXN-17780;RXN-17785;RXN-17789;RXN-17793;RXN-17797;RXN-2425;RXN0-5393;TIGLYLCOA-HYDROXY-RXN
ASD38_03440	Unknown	MYO-INOSITOL-1OR-4-MONOPHOSPHATASE-RXN;RXN-7253;RXN0-5408
ASD38_08190	Unknown	RXN1A0-6303
ASD38_13010	Unknown	PHOSPHAGLYPSYN-RXN
ASD38_00045	Unknown	ACYLCOADEHYDROG-RXN;RXN-17775;RXN-17779;RXN-17783;RXN-17784;RXN-17788;RXN-17792;RXN-17796
ASD38_12430	Unknown	DNA-LIGASE-NAD+-RXN;RXN-17918;RXN-17919;RXN-17920
ASD38_12450	Unknown	UDPACYLGLCNACDEACETYL-RXN
ASD38_03820	Unknown	GLYOXIII-RXN
ASD38_07560	Unknown	GLYOXIII-RXN
ASD38_01720	Unknown	GLYOXI-RXN
ASD38_15420	Unknown	ACETYL-COA-ACETYLTRANSFER-RXN;METHYLACETOACETYLCOATHIOL-RXN;RXN-12561
ASD38_14050	Unknown	2-HALOACID-DEHALOGENASE-RXN;3.8.1.11-RXN;RXN-6263;RXN-6264
ASD38_03285	Unknown	GLUTAMIN-RXN
ASD38_02140	Unknown	RXN-15376;RXN-18319;RXN-9999;RXN0-1863
ASD38_15560	Unknown	ENOYL-COA-HYDRAT-RXN;METHYLACYLYLCOA-HYDROXY-RXN;RXN-10697;RXN-10704;RXN-10705;RXN-11244;RXN-12567;RXN-13616;RXN-14266;RXN-14272;RXN-14273;RXN-16135;RXN-16558;RXN-17114;RXN-17475;RXN-17776;RXN-17780;RXN-17785;RXN-17789;RXN-17793;RXN-17797;RXN-2425;RXN0-5393;TIGLYLCOA-HYDROXY-RXN
ASD38_07640	Unknown	PMPOXI-RXN;PNPOXI-RXN
ASD38_04375	Unknown	PHOSPHAGLYPSYN-RXN
ASD38_18720	Unknown	4.2.2.2-RXN
ASD38_10995	Unknown	RXN0-1342
ASD38_14320	Unknown	2.7.13.3-RXN
ASD38_18915	Unknown	RXN-17884;RXN-2962
ASD38_21665	Unknown	NACGLCTRANS-RXN;RXN-8976
ASD38_17505	Unknown	2.7.13.3-RXN
ASD38_02530	Unknown	ATPASE-RXN
ASD38_01455	Unknown	PEPTIDYLPROLYL-ISOMERASE-RXN
ASD38_17780	Unknown	3.4.13.9-RXN
ASD38_04005	Unknown	RXN0-5061
ASD38_19355	Unknown	LYSDECARBOX-RXN
ASD38_01080	Unknown	RXN0-4961
ASD38_05820	Unknown	AMINOACYLASE-RXN;RXN-13684
ASD38_13440	Unknown	RXN0-5422
ASD38_17020	Unknown	4.2.2.2-RXN
ASD38_21945	Unknown	GUANINE-DEAMINASE-RXN;RXN-15261
ASD38_01930	Unknown	ATPASE-RXN
ASD38_16800	Unknown	RXN-17362
ASD38_01865	Unknown	1.1.99.28-RXN
ASD38_02095	Unknown	RXN0-6515
ASD38_19900	Unknown	ALDOSE1EPIM-RXN
ASD38_19565	Unknown	MYO-INOSOSE-2-DEHYDRATASE-RXN
ASD38_14500	Unknown	RXN0-882
ASD38_12255	Unknown	2-NITROPROPANE-DIOXYGENASE-RXN
ASD38_11690	Unknown	RXNI-2
ASD38_15440	Unknown	3.1.1.64-RXN;CARBOXYLESTERASE-RXN;RETINYL-PALMITATE-ESTERASE-RXN;RXN-10711;RXN-10767;RXN-12252;RXN-12575;RXNQT-4366
ASD38_10340	Unknown	UGD-RXN
ASD38_00930	Unknown	HISTPRATPHYD-RXN
ASD38_00400	Unknown	FUMARYLACETOACETASE-RXN
ASD38_03435	Unknown	PROTEIN-TYROSINE-PHOSPHATASE-RXN
ASD38_16880	Unknown	GSHTRAN-RXN;GST-RXN;RXN-11663;RXN-13673;RXN-15680;RXN-18405;RXN-18407;RXNQT-4363
ASD38_14160	Unknown	NAD-SYNTH-GLN-RXN;NAD-SYNTH-NH3-RXN
ASD38_10905	Unknown	2.3.2.13-RXN;RXN-19236
ASD38_05750	Unknown	6.3.5.7-RXN
ASD38_05190	Unknown	MALTODEXGLUCOSID-RXN;RXN-14281;RXN-14282;RXN-14283;RXN-15910;RXN0-5183
ASD38_14460	Unknown	ASPARTATEKIN-RXN
ASD38_01450	Unknown	GSHTRAN-RXN;GST-RXN;RXN-11663;RXN-13673;RXN-15680;RXN-18405;RXN-18407;RXNQT-4363
ASD38_21160	Unknown	2.5.1.32-RXN;RXN-13323;RXNARA-8002
ASD38_11990	glpX	F16BDEPHOS-RXN
ASD38_21270	Unknown	RXN0-1441
ASD38_21445	Unknown	5-OXOPROLINASE-ATP-HYDROLYSING-RXN
ASD38_07645	Unknown	GSHTRAN-RXN;GST-RXN;RXN-11663;RXN-13673;RXN-15680;RXN-18405;RXN-18407;RXNQT-4363
ASD38_00785	Unknown	RXN-9235
ASD38_09025	Unknown	HISTCYCLOHYD-RXN
ASD38_04335	Unknown	GSHTRAN-RXN;GST-RXN;RXN-11663;RXN-13673;RXN-15680;RXN-18405;RXN-18407;RXNQT-4363
ASD38_07990	Unknown	F16ALDOLASE-RXN;RXN-10053;RXN-8631
ASD38_02800	Unknown	3.4.24.11-RXN
ASD38_19205	Unknown	LYSOPHOSPHOLIPASE-RXN;RXN-15035;RXN-19312
ASD38_06140	Unknown	6PGLUCONOLACT-RXN
ASD38_06840	Unknown	MALTODEXGLUCOSID-RXN;RXN-14281;RXN-14282;RXN-14283;RXN-15910;RXN0-5183
ASD38_08865	Unknown	GLUTCYSLIG-RXN
ASD38_15040	Unknown	GALACTODEHYDROG-RXN
ASD38_00015	Unknown	UDPGLUCEPIM-RXN
ASD38_18930	Unknown	PHOSPHASERDECARB-RXN
ASD38_13535	Unknown	RXN-9591
ASD38_12740	Unknown	3.2.1.17-RXN
ASD38_15800	pyrH	RXN-12002
ASD38_09670	Unknown	DNA-DIRECTED-DNA-POLYMERASE-RXN
ASD38_10190	Unknown	ARGSUCCINSYN-RXN;RXN-10
ASD38_12665	Unknown	GLYCPDIESTER-RXN;RXN-14073;RXN-14136;RXN-14160
ASD38_01460	Unknown	GLUC1PURIDYLTRANS-RXN
ASD38_18865	Unknown	PRODISULFREDUCT-RXN;RXN0-7271
ASD38_19130	Unknown	GPH-RXN
ASD38_07160	Unknown	2.7.13.3-RXN
ASD38_15255	Unknown	3.2.1.37-RXN
ASD38_05760	pyrB	ASPCARBTRANS-RXN
ASD38_21460	Unknown	3.1.26.3-RXN
ASD38_01055	Unknown	RXN-10642;UROGENDECARBOX-RXN
ASD38_22600	Unknown	HISTALDEHYD-RXN;HISTOLDEHYD-RXN;RXN-8001
ASD38_15415	Unknown	ALPHAGALACTOSID-RXN;RXN-11501;RXN-11502;RXN-12088;RXN-17754;RXN-17830
ASD38_21280	Unknown	PDXJ-RXN
ASD38_11985	Unknown	F16BDEPHOS-RXN
ASD38_06375	Unknown	2.7.13.3-RXN
ASD38_02070	Unknown	RXN-13908;RXN-7908
ASD38_07865	Unknown	RXN-1961
ASD38_00810	Unknown	DUTP-PYROP-RXN
ASD38_05915	Unknown	FMNREDUCT-RXN;NADPH-DEHYDROGENASE-FLAVIN-RXN;RXN-12444
ASD38_07790	Unknown	PSERTRANSAM-RXN;PSERTRANSAMPYR-RXN
ASD38_04310	Unknown	RXN-10001
