id	Common name	linked reactions
ASD52_16215	Unknown	RXN-8102
ASD52_16955	sucC	SUCCCOASYN-RXN
ASD52_00460	Unknown	GLUTAMINESYN-RXN
ASD52_04360	Unknown	GSHTRAN-RXN;GST-RXN;RXN-11663;RXN-13673;RXN-15680;RXN-18405;RXN-18407;RXNQT-4363
ASD52_18010	Unknown	CITSYN-RXN
ASD52_07785	Unknown	R502-RXN
ASD52_00115	Unknown	AMINOBUTDEHYDROG-RXN
ASD52_13885	Unknown	UDPGLUCEPIM-RXN
ASD52_22065	Unknown	SPERMIDINESYN-RXN
ASD52_23000	Unknown	R4-RXN
ASD52_11635	Unknown	ACETATE--COA-LIGASE-RXN;RXN-18446;RXN-18447;RXN-18448
ASD52_13975	Unknown	2-HALOACID-DEHALOGENASE-RXN;3.8.1.11-RXN;RXN-6263;RXN-6264
ASD52_31525	Unknown	R4-RXN
ASD52_14185	Unknown	FUMARYLACETOACETASE-RXN
ASD52_21385	Unknown	DEOXYRIBOSE-P-ALD-RXN
ASD52_11415	Unknown	PRAISOM-RXN
ASD52_18520	Unknown	GLYOXIII-RXN
ASD52_31830	Unknown	2-OXOPENT-4-ENOATE-HYDRATASE-RXN;RXN-10381
ASD52_14345	Unknown	ACID-PHOSPHATASE-RXN;RXN-5822
ASD52_10520	Unknown	5.99.1.2-RXN
ASD52_25590	Unknown	GLUTATHIONE-SYN-RXN
ASD52_24110	Unknown	ACETYLPUTRESCINE-DEACETYLASE-RXN
ASD52_18755	Unknown	RIBOFLAVINSYNDEAM-RXN;RIBOFLAVINSYNREDUC-RXN
ASD52_25055	Unknown	2.7.13.3-RXN
ASD52_23830	Unknown	1.11.1.15-RXN;RXN0-5468
ASD52_18585	Unknown	RXN-13907;RXN-14206;RXN66-569
ASD52_32015	Unknown	2-HALOACID-DEHALOGENASE-RXN
ASD52_09175	Unknown	DNA-DIRECTED-DNA-POLYMERASE-RXN;RXN0-4961
ASD52_11175	Unknown	4.2.1.41-RXN
ASD52_32450	Unknown	R4-RXN
ASD52_11275	Unknown	IMIDPHOSDEHYD-RXN
ASD52_12405	Unknown	2.7.13.3-RXN
ASD52_20680	Unknown	NAD-SYNTH-GLN-RXN;NAD-SYNTH-NH3-RXN
ASD52_01040	Unknown	RXN1A0-6303
ASD52_15795	Unknown	5.3.3.10-RXN
ASD52_05365	Unknown	RXN-9235
ASD52_31825	Unknown	MALEYLACETOACETATE-ISOMERASE-RXN
ASD52_08595	Unknown	ASPARAGHYD-RXN
ASD52_14950	Unknown	CYTOCHROME-C-OXIDASE-RXN;RXN-15830
ASD52_18765	glyA	GLYOHMETRANS-RXN;RXN0-5234
ASD52_24205	Unknown	PHOSMANMUT-RXN
ASD52_07815	Unknown	DEHYDDEOXGALACTKIN-RXN
ASD52_27950	Unknown	3.2.1.23-RXN;BETAGALACTOSID-RXN
ASD52_23455	Unknown	ADENYLATECYC-RXN
ASD52_14550	Unknown	PEPTIDYLPROLYL-ISOMERASE-RXN
ASD52_05375	Unknown	ENOYL-COA-HYDRAT-RXN;METHYLACYLYLCOA-HYDROXY-RXN;RXN-10697;RXN-10704;RXN-10705;RXN-11244;RXN-12567;RXN-13616;RXN-14266;RXN-14272;RXN-14273;RXN-16135;RXN-16558;RXN-17114;RXN-17475;RXN-17776;RXN-17780;RXN-17785;RXN-17789;RXN-17793;RXN-17797;RXN-2425;RXN0-5393;TIGLYLCOA-HYDROXY-RXN
ASD52_36130	Unknown	HISTAMINOTRANS-RXN
ASD52_17955	Unknown	DALADALALIG-RXN
ASD52_25900	dnaE2	DNA-DIRECTED-DNA-POLYMERASE-RXN;RXN0-4961
ASD52_20695	Unknown	CYTOCHROME-C-OXIDASE-RXN;RXN-15830
ASD52_11300	Unknown	HISTPRATPHYD-RXN
ASD52_19085	Unknown	RXN-13179
ASD52_30730	Unknown	GLYCEROL-KIN-RXN
ASD52_28070	Unknown	2.7.13.3-RXN
ASD52_21395	Unknown	3.4.11.1-RXN
ASD52_12380	Unknown	RXN-8529
ASD52_12160	Unknown	1.8.4.12-RXN
ASD52_30770	Unknown	RXN0-5462
ASD52_14645	Unknown	THIOREDOXIN-REDUCT-NADPH-RXN
ASD52_25300	Unknown	DIHYDROPYRIMIDINASE-RXN;RXN-11211;RXN-11217
ASD52_25195	Unknown	PYRROLINECARBREDUCT-RXN;RXN66-546
ASD52_35390	Unknown	ATPASE-RXN
ASD52_30800	Unknown	RXN-2043
ASD52_34250	Unknown	2.7.13.3-RXN
ASD52_03880	Unknown	3.4.13.9-RXN
ASD52_15320	Unknown	1.14.11.18-RXN;RXN66-470
ASD52_29835	Unknown	3.5.5.1-RXN;RXN-1404;RXN-17607;RXN-18229
ASD52_11290	Unknown	PRIBFAICARPISOM-RXN
ASD52_29135	Unknown	ATPASE-RXN
ASD52_04445	Unknown	GLYOXI-RXN
ASD52_25000	Unknown	3.1.26.4-RXN
ASD52_00900	Unknown	ARYLSULFATE-SULFOTRANSFERASE-RXN
ASD52_33840	Unknown	R4-RXN
ASD52_18095	Unknown	NAD-KIN-RXN
ASD52_33645	Unknown	ADENYLATECYC-RXN
ASD52_00385	Unknown	2-HALOACID-DEHALOGENASE-RXN;3.8.1.11-RXN;RXN-6263;RXN-6264
ASD52_07330	Unknown	1.2.1.27-RXN;RXN-11213;RXN-2902
ASD52_00830	Unknown	ISOCHORMAT-RXN
ASD52_26055	Unknown	FMNREDUCT-RXN;NADPH-DEHYDROGENASE-FLAVIN-RXN;RXN-12444
ASD52_04670	Unknown	RXN0-5131
ASD52_29090	Unknown	7KAPSYN-RXN;RXN-11484
ASD52_35110	Unknown	DTDPDEHYDRHAMEPIM-RXN
ASD52_18880	Unknown	EXOPOLYPHOSPHATASE-RXN
ASD52_09540	Unknown	PEPTIDYLPROLYL-ISOMERASE-RXN
ASD52_19220	Unknown	PHOSPHASERSYN-RXN
ASD52_02490	Unknown	1.11.1.15-RXN;RXN0-5468
ASD52_12960	Unknown	FMNREDUCT-RXN;NADPH-DEHYDROGENASE-FLAVIN-RXN;RXN-12444
ASD52_30985	Unknown	FORMYLTHFDEFORMYL-RXN
ASD52_19310	Unknown	GCVT-RXN
ASD52_05120	Unknown	OROTPDECARB-RXN
ASD52_23585	Unknown	IMP-DEHYDROG-RXN
ASD52_32420	Unknown	FMNREDUCT-RXN;NADPH-DEHYDROGENASE-FLAVIN-RXN;RXN-12444
ASD52_26900	Unknown	FMNREDUCT-RXN;NADPH-DEHYDROGENASE-FLAVIN-RXN;RXN-12444
ASD52_22200	Unknown	HYDROXYMETHYLGLUTARYL-COA-LYASE-RXN
ASD52_20080	Unknown	3.1.22.4-RXN
ASD52_32705	Unknown	GSHTRAN-RXN;GST-RXN;RXN-11663;RXN-13673;RXN-15680;RXN-18405;RXN-18407;RXNQT-4363
ASD52_18545	Unknown	ACETYLHOMOSER-CYS-RXN;O-ACETYLHOMOSERINE-THIOL-LYASE-RXN
ASD52_12855	Unknown	3-OXOACYL-ACP-REDUCT-RXN;RXN-10060;RXN-10655;RXN-10659;RXN-11476;RXN-11480;RXN-13008;RXN-16616;RXN-16622;RXN-16626;RXN-16630;RXN-9514;RXN-9518;RXN-9524;RXN-9528;RXN-9532;RXN-9536;RXN-9540;RXN-9552;RXN-9556;RXN-9633;RXN0-2142;RXN1G-157;RXN1G-349;RXN1G-469;RXN1G-508
ASD52_19130	Unknown	RXN1A0-6303
ASD52_08780	Unknown	SUPEROX-DISMUT-RXN
ASD52_21295	Unknown	ORNITHINE-CYCLODEAMINASE-RXN
ASD52_00010	Unknown	GLYOXIII-RXN
ASD52_23035	Unknown	2.7.13.3-RXN
ASD52_11680	Unknown	CARBODEHYDRAT-RXN;RXN0-5224
ASD52_36150	Unknown	AMP-NUCLEOSID-RXN
ASD52_13740	Unknown	RXN0-2584
ASD52_13400	Unknown	2-HALOACID-DEHALOGENASE-RXN
ASD52_10060	Unknown	LIPIDADISACCHARIDESYNTH-RXN
ASD52_26895	Unknown	GLYOXIII-RXN
ASD52_36450	Unknown	RXN0-5131
ASD52_01000	Unknown	ATPASE-RXN
ASD52_03780	Unknown	CYTDEAM-RXN;RXN-14129;RXN-14197
ASD52_24735	Unknown	4.2.99.18-RXN
ASD52_25030	Unknown	KANAMYCIN-KINASE-RXN
ASD52_07965	Unknown	2.5.1.19-RXN
ASD52_36045	Unknown	3.2.1.141-RXN
ASD52_00100	Unknown	TRANS-RXN-298
ASD52_05610	Unknown	RXN-14480;RXN-14481;RXN0-5063
ASD52_08220	Unknown	DIOHBUTANONEPSYN-RXN
ASD52_15160	Unknown	CARBOXYMETHYLENEBUTENOLIDASE-RXN;DIENELACHYDRO-RXN;RXN-9857;RXN-9868;RXN-9887;RXN-9890
ASD52_30990	Unknown	RXN1A0-6303
ASD52_31220	Unknown	5.3.3.10-RXN
ASD52_24425	Unknown	GLYOXIII-RXN
ASD52_25225	Unknown	ALLOPHANATE-HYDROLASE-RXN
ASD52_11385	Unknown	RXN0-4261
ASD52_16155	Unknown	HOMOCYSMET-RXN;HOMOCYSMETB12-RXN
ASD52_31110	ggt	GAMMA-GLUTAMYLTRANSFERASE-RXN;RXN-18092;RXN-18093;RXN-6601;RXN-9157;RXN66-336
ASD52_10715	Unknown	RXN-13037;RXN-13039;RXN-17127;RXN-8654;RXN-8655;RXN0-1141;RXN0-5098;RXN0-947
ASD52_03185	Unknown	XYLULOKIN-RXN
ASD52_28970	Unknown	CITLY-RXN;CITRYLY-RXN;CITTRANS-RXN
ASD52_04795	Unknown	RXN-12610;RXN-12611;THI-P-SYN-RXN
ASD52_19975	glmM	5.4.2.10-RXN;RXN-16424;RXN0-7139
ASD52_12450	Unknown	KDUD-RXN
ASD52_00230	Unknown	ACYLCOASYN-RXN;LINOLENOYL-RXN;R223-RXN;RXN-12184;RXN-12702;RXN-12746;RXN-12978;RXN-13290;RXN-13614;RXN-16380;RXN-16389;RXN-16393;RXN-16401;RXN-16402;RXN-16415;RXN-16418;RXN-7904;RXN-9623;RXN-9644;RXN-9673;RXN0-7238;RXN0-7239;RXN0-7248;RXN66-469;RXN66-477;RXN66-480;RXN66-483;RXN66-484;TRANS-RXN0-623
ASD52_19985	Unknown	RXN-1961
ASD52_17215	Unknown	DNA-DIRECTED-DNA-POLYMERASE-RXN;RXN0-4961
ASD52_11605	Unknown	LEUCINE--TRNA-LIGASE-RXN
ASD52_32715	Unknown	SUCCINATE-SEMIALDEHYDE-DEHYDROGENASE-RXN
ASD52_07750	Unknown	TETRAACYLDISACC4KIN-RXN
ASD52_10305	Unknown	D-ALANINE-AMINOTRANSFERASE-RXN
ASD52_04610	Unknown	3-CH3-2-OXOBUTANOATE-OH-CH3-XFER-RXN;RXN-15635
ASD52_13500	Unknown	3.1.11.2-RXN
ASD52_28610	Unknown	CYTDEAM-RXN;RXN-14129;RXN-14197
ASD52_31170	Unknown	FMNREDUCT-RXN;NADPH-DEHYDROGENASE-FLAVIN-RXN;RXN-12444
ASD52_12030	Unknown	2.6.1.37-RXN
ASD52_11555	Unknown	RXN-10642;UROGENDECARBOX-RXN
ASD52_05580	Unknown	TRYPTOPHAN--TRNA-LIGASE-RXN
ASD52_31250	Unknown	RXN0-5433
ASD52_26035	Unknown	GLYOXIII-RXN
ASD52_01680	Unknown	GSHTRAN-RXN;GST-RXN;RXN-11663;RXN-13673;RXN-15680;RXN-18405;RXN-18407;RXNQT-4363
ASD52_02865	Unknown	RXN0-4961
ASD52_26870	Unknown	325-BISPHOSPHATE-NUCLEOTIDASE-RXN
ASD52_24800	Unknown	GLYCERATE-DEHYDROGENASE-RXN;HYDROXYPYRUVATE-REDUCTASE-RXN;RXN0-300
ASD52_05680	Unknown	3.5.1.27-RXN;3.5.1.88-RXN
ASD52_11015	Unknown	ACYLCOADEHYDROG-RXN;RXN-17775;RXN-17779;RXN-17783;RXN-17784;RXN-17788;RXN-17792;RXN-17796
ASD52_05900	Unknown	ADENYLATECYC-RXN
ASD52_11690	Unknown	ASPARTATE-SEMIALDEHYDE-DEHYDROGENASE-RXN
ASD52_24060	Unknown	2.1.1.79-RXN;RXN-7421;RXN1G-2544;RXN1G-3641
ASD52_32685	Unknown	TRANS-RXN-283
ASD52_12395	Unknown	2.1.1.71-RXN;RXN4FS-2
ASD52_25360	Unknown	3.4.11.4-RXN
ASD52_14520	Unknown	RXN0-5131
ASD52_16835	Unknown	1.5.1.9-RXN
ASD52_24890	Unknown	D-PPENTOMUT-RXN;PPENTOMUT-RXN
ASD52_00650	murD	UDP-NACMURALA-GLU-LIG-RXN
ASD52_10955	Unknown	R4-RXN
ASD52_26670	Unknown	ADENYLATECYC-RXN
ASD52_20295	Unknown	AIRCARBOXY-RXN
ASD52_00780	Unknown	RXN0-5419
ASD52_23625	Unknown	2.7.13.3-RXN
ASD52_06060	Unknown	2.7.13.3-RXN
ASD52_17700	Unknown	FPPSYN-RXN;GPPSYN-RXN
ASD52_16980	Unknown	R601-RXN;RXN-14963
ASD52_11950	Unknown	PRAISOM-RXN
ASD52_31490	Unknown	GLYOXIII-RXN
ASD52_16600	Unknown	5-AMINOLEVULINIC-ACID-SYNTHASE-RXN
ASD52_08550	Unknown	CHOLINE-SULFATASE-RXN
ASD52_31660	lysS	LYSINE--TRNA-LIGASE-RXN
ASD52_34200	Unknown	NADH-DEHYDROG-A-RXN
ASD52_21080	gabD	RXN0-5293;SUCCINATE-SEMIALDEHYDE-DEHYDROGENASE-RXN
ASD52_34205	Unknown	1.6.99.5-RXN;NADH-DEHYDROGENASE-QUINONE-RXN
ASD52_02745	Unknown	R125-RXN
ASD52_31145	Unknown	RXN-14477;RXN-14478;RXN-14479;RXN0-1661
ASD52_10285	Unknown	CYTIDEAM-RXN;CYTIDEAM2-RXN
ASD52_16665	rocD	ORNITHINE--OXO-ACID-AMINOTRANSFERASE-RXN;ORNITHINE-GLU-AMINOTRANSFERASE-RXN
ASD52_28030	Unknown	ADENYLYLSULFKIN-RXN;GSADENYLATION-RXN;RXN-12720;SULFATE-ADENYLYLTRANS-RXN
ASD52_08930	Unknown	GLYOXIII-RXN
ASD52_17800	Unknown	ASPAMINOTRANS-RXN;RXN-10814;RXN-11737;RXN-13697
ASD52_20505	Unknown	ADENYLATECYC-RXN
ASD52_00645	mraY	PHOSNACMURPENTATRANS-RXN;RXN-11347;RXN-8975
ASD52_23435	Unknown	4-CARBOXYMUCONOLACTONE-DECARBOXYLASE-RXN
ASD52_14695	Unknown	5.99.1.3-RXN
ASD52_10195	Unknown	RXN-10078;RXN-10079;RXN-9912;RXN-9914;SALICYLATE-1-MONOOXYGENASE-RXN
ASD52_13120	Unknown	ADENYLATECYC-RXN
ASD52_28800	Unknown	RXN0-4961
ASD52_26960	Unknown	2.6.1.57-RXN;ASPAMINOTRANS-RXN;PHEAMINOTRANS-RXN;RXN-10814;RXN-11737;RXN-13697;RXN-14147;RXN-15200;TYROSINE-AMINOTRANSFERASE-RXN
ASD52_19850	Unknown	ISOCHORMAT-RXN
ASD52_30670	Unknown	RXN-6201
ASD52_16010	Unknown	2.3.1.41-RXN;3-OXOACYL-ACP-SYNTH-BASE-RXN;3-OXOACYL-ACP-SYNTH-RXN;RXN-10059;RXN-10654;RXN-10658;RXN-11474;RXN-11479;RXN-16615;RXN-16621;RXN-16625;RXN-16629;RXN-9516;RXN-9523;RXN-9527;RXN-9531;RXN-9535;RXN-9539;RXN-9632;RXN-9648;RXN-9650;RXN-9651;RXN-9652;RXN-9653;RXN-9654;RXN0-2141;RXN1G-368;RXN1G-445;RXN1G-460;RXN1G-499;RXN3O-1803
ASD52_00145	Unknown	3.1.1.64-RXN;CARBOXYLESTERASE-RXN;RETINYL-PALMITATE-ESTERASE-RXN;RXN-10711;RXN-10767;RXN-12252;RXN-12575;RXNQT-4366
ASD52_29625	Unknown	GSHTRAN-RXN;GST-RXN;RXN-11663;RXN-13673;RXN-15680;RXN-18405;RXN-18407;RXNQT-4363
ASD52_10200	Unknown	CYSTATHIONINE-BETA-LYASE-RXN;RXN-12729;RXN-15131;RXN-15137;RXN-15577;RXN-15582;RXN-18212;RXN-6763;RXN-8052;RXN-8054;RXNQT-4319;RXNQT-4320;RXNQT-4321;RXNQT-4322;RXNQT-4323;S-ALKYLCYSTEINE-LYASE-RXN
ASD52_34735	Unknown	ACYLCOASYN-RXN;LINOLENOYL-RXN;R223-RXN;RXN-12184;RXN-12702;RXN-12746;RXN-12978;RXN-13290;RXN-13614;RXN-16380;RXN-16389;RXN-16393;RXN-16401;RXN-16402;RXN-16415;RXN-16418;RXN-7904;RXN-9623;RXN-9644;RXN-9673;RXN0-7238;RXN0-7239;RXN0-7248;RXN66-469;RXN66-477;RXN66-480;RXN66-483;RXN66-484;TRANS-RXN0-623
ASD52_04025	Unknown	1.1.1.178-RXN
ASD52_13440	Unknown	PHOSACETYLTRANS-RXN
ASD52_04800	Unknown	OHMETPYRKIN-RXN;PYRIMSYN3-RXN
ASD52_16700	Unknown	1.2.1.2-RXN
ASD52_31535	Unknown	3-OXOACYL-ACP-REDUCT-RXN;RXN-10060;RXN-10655;RXN-10659;RXN-11476;RXN-11480;RXN-13008;RXN-16616;RXN-16622;RXN-16626;RXN-16630;RXN-9514;RXN-9518;RXN-9524;RXN-9528;RXN-9532;RXN-9536;RXN-9540;RXN-9552;RXN-9556;RXN-9633;RXN0-2142;RXN1G-157;RXN1G-349;RXN1G-469;RXN1G-508
ASD52_19460	Unknown	HOLO-ACP-SYNTH-RXN
ASD52_19940	Unknown	ADENYLOSUCCINATE-SYNTHASE-RXN
ASD52_11615	prpE	PROPIONATE--COA-LIGASE-RXN
ASD52_07820	Unknown	3-OXOACYL-ACP-REDUCT-RXN;RXN-10060;RXN-10655;RXN-10659;RXN-11476;RXN-11480;RXN-13008;RXN-16616;RXN-16622;RXN-16626;RXN-16630;RXN-9514;RXN-9518;RXN-9524;RXN-9528;RXN-9532;RXN-9536;RXN-9540;RXN-9552;RXN-9556;RXN-9633;RXN0-2142;RXN1G-157;RXN1G-349;RXN1G-469;RXN1G-508
ASD52_24600	Unknown	DNA-DIRECTED-DNA-POLYMERASE-RXN
ASD52_19475	Unknown	DNA-DIRECTED-RNA-POLYMERASE-RXN
ASD52_15300	Unknown	2.3.1.184-RXN;RXN-10020;RXN-10022;RXN-10023;RXN-10024;RXN-10025;RXN-10026
ASD52_18820	Unknown	UNSPECIFIC-MONOOXYGENASE-RXN
ASD52_13330	Unknown	HYDROXY-MANDELATE-RACEMASE-RXN;MANDELATE-RACEMASE-RXN
ASD52_24770	Unknown	METHGLYSYN-RXN
ASD52_09520	glmU	2.3.1.157-RXN;NAG1P-URIDYLTRANS-RXN
ASD52_32785	Unknown	AGMATIN-RXN
ASD52_18855	Unknown	3.1.13.5-RXN;RXN0-6483;RXN0-6484
ASD52_07505	Unknown	IMP-DEHYDROG-RXN
ASD52_20030	Unknown	3.1.2.23-RXN
ASD52_18135	Unknown	3-DEHYDROQUINATE-DEHYDRATASE-RXN
ASD52_27200	Unknown	ADDALT-RXN;ADENODEAMIN-RXN
ASD52_27210	Unknown	2.7.13.3-RXN
ASD52_01240	Unknown	RXN-19040;RXN0-6359;THIOSULFATE-SULFURTRANSFERASE-RXN
ASD52_15430	fumC	FUMHYDR-RXN
ASD52_23770	Unknown	IMP-DEHYDROG-RXN
ASD52_01185	Unknown	ADENYLATECYC-RXN
ASD52_24345	truB	TRNA-PSEUDOURIDINE-SYNTHASE-I-RXN
ASD52_03540	Unknown	METHELENE-THMPT-OXI-RXN
ASD52_06685	Unknown	3.2.1.14-RXN;RXN-12309
ASD52_30775	Unknown	DEOXYGLUCONOKIN-RXN
ASD52_27010	Unknown	2.3.2.13-RXN;RXN-19236
ASD52_10055	gltA	CITSYN-RXN
ASD52_27885	Unknown	ALPHAGALACTOSID-RXN;MALTODEXGLUCOSID-RXN;RXN-11501;RXN-11502;RXN-12088;RXN-14281;RXN-14282;RXN-14283;RXN-15910;RXN-17754;RXN-17830;RXN0-5183
ASD52_03430	Unknown	GSHTRAN-RXN;GST-RXN;RXN-11663;RXN-13673;RXN-15680;RXN-18405;RXN-18407;RXNQT-4363
ASD52_05545	Unknown	2.7.13.3-RXN
ASD52_09720	Unknown	RXN0-5131
ASD52_09515	Unknown	L-GLN-FRUCT-6-P-AMINOTRANS-RXN
ASD52_05745	Unknown	TETHYDPICSUCC-RXN
ASD52_04690	Unknown	DTDPGLUCOSEPP-RXN
ASD52_18875	Unknown	GLYCPDIESTER-RXN;RXN-14073;RXN-14136;RXN-14160
ASD52_04040	Unknown	RXN0-6575
ASD52_14805	Unknown	RXN-12587;RXN-12588;RXN-14382;RXN-14385;RXN-15881;RXN-9787;RXN0-308
ASD52_04285	Unknown	RXN-17954;RXN-17957;RXN0-6732
ASD52_15290	Unknown	MALIC-NADP-RXN;OXALODECARB-RXN
ASD52_05670	Unknown	RIBOKIN-RXN;RXN-14223
ASD52_09200	Unknown	SAICARSYN-RXN
ASD52_09930	pcm	2.1.1.77-RXN
ASD52_31795	Unknown	1.2.1.25-RXN;1.2.4.4-RXN;2.3.1.168-RXN;2KETO-3METHYLVALERATE-RXN;2KETO-4METHYL-PENTANOATE-DEHYDROG-RXN;ISOVALERYLCOA-DHLIPOAMIDE-RXN;KETOISOCAPROATE-RXN;MBCOA-DHLIPOAMIDE-RXN;METHYLVALERATE-RXN;RXN-7719
ASD52_20580	Unknown	RXN1A0-6303
ASD52_07210	Unknown	GLUTAMINESYN-RXN
ASD52_04385	Unknown	2.1.3.1-RXN
ASD52_19435	Unknown	RXN0-7010
ASD52_17560	Unknown	RXN-11586
ASD52_22315	Unknown	2.7.13.3-RXN
ASD52_17495	Unknown	ACONITATEDEHYDR-RXN;ACONITATEHYDR-RXN;RXN-14047
ASD52_22325	Unknown	3-HYDROXYDECANOYL-ACP-DEHYDR-RXN
ASD52_00855	Unknown	R4-RXN
ASD52_12095	Unknown	NAD-SYNTH-NH3-RXN
ASD52_15225	Unknown	FMNREDUCT-RXN;NADPH-DEHYDROGENASE-FLAVIN-RXN;RXN-12444
ASD52_28615	Unknown	R465-RXN
ASD52_33015	Unknown	RXN0-20
ASD52_00740	Unknown	GLYOXIII-RXN
ASD52_05805	Unknown	1.8.4.12-RXN
ASD52_13140	Unknown	RXN-13179
ASD52_07490	Unknown	GLYOXIII-RXN
ASD52_13845	Unknown	FMNREDUCT-RXN;NADPH-DEHYDROGENASE-FLAVIN-RXN;RXN-12444
ASD52_17250	Unknown	GLYOXIII-RXN
ASD52_20085	Unknown	ALKANE-1-MONOOXYGENASE-RXN
ASD52_08515	Unknown	1.8.4.8-RXN
ASD52_20340	Unknown	ALKAPHOSPHA-RXN;RXN-5822;RXN-8748
ASD52_09385	Unknown	RXN-15122;THREDEHYD-RXN
ASD52_06740	Unknown	RXN-982
ASD52_32285	Unknown	2.7.13.3-RXN
ASD52_14540	Unknown	QUEUOSINE-TRNA-RIBOSYLTRANSFERASE-RXN;RXN0-1321
ASD52_15995	Unknown	LAUROYLACYLTRAN-RXN
ASD52_19320	Unknown	PROTEIN-TYROSINE-PHOSPHATASE-RXN
ASD52_15090	Unknown	ALANINE--TRNA-LIGASE-RXN
ASD52_25550	Unknown	2.9.1.1-RXN
ASD52_06435	Unknown	NICOTINAMID-RXN
ASD52_34415	Unknown	NUCLEOTIDE-PYROPHOSPHATASE-RXN
ASD52_24815	Unknown	CYTOCHROME-C-OXIDASE-RXN;RXN-15830
ASD52_24710	Unknown	GLYCERATE-DEHYDROGENASE-RXN;HYDROXYPYRUVATE-REDUCTASE-RXN
ASD52_00225	Unknown	CARNDETRU-RXN
ASD52_33760	eutB	RXN-15122;THREDEHYD-RXN
ASD52_17715	ispG	RXN0-882
ASD52_02780	Unknown	1TRANSKETO-RXN;2TRANSKETO-RXN
ASD52_19490	Unknown	DIHYDRODIPICSYN-RXN
ASD52_03355	Unknown	PYRIMSYN1-RXN
ASD52_12915	Unknown	ARGINASE-RXN;RXN-34
ASD52_29850	Unknown	MANNONDEHYDRAT-RXN
ASD52_25440	Unknown	RXN-15122;THREDEHYD-RXN
ASD52_00150	Unknown	RXN-8668
ASD52_26020	Unknown	2.7.13.3-RXN
ASD52_19280	Unknown	CYSTEINE--TRNA-LIGASE-RXN
ASD52_35950	Unknown	DNA-DIRECTED-RNA-POLYMERASE-RXN
ASD52_10605	Unknown	IMP-DEHYDROG-RXN
ASD52_05785	Unknown	ACETYLGLUTKIN-RXN;RXN-15005
ASD52_15080	Unknown	ISOCITDEH-RXN;RXN-8642;RXN-9951
ASD52_12055	Unknown	ASPARTATE-4-DECARBOXYLASE-RXN
ASD52_09605	Unknown	2-OCTAPRENYL-6-METHOXYPHENOL-HYDROX-RXN
ASD52_30310	Unknown	ADENYLATECYC-RXN
ASD52_30485	Unknown	RXN0-5131
ASD52_01105	Unknown	GLYOXIII-RXN
ASD52_18950	Unknown	GSHTRAN-RXN;GST-RXN;RXN-11663;RXN-13673;RXN-15680;RXN-18405;RXN-18407;RXNQT-4363
ASD52_19050	Unknown	GALACTODEHYDROG-RXN
ASD52_19115	Unknown	RXN-17155
ASD52_11345	Unknown	PROTEIN-KINASE-RXN
ASD52_00520	Unknown	LYSOPHOSPHOLIPASE-RXN;RXN-15035;RXN-19312
ASD52_30875	Unknown	FORMATETHFLIG-RXN
ASD52_25735	Unknown	ACYLCOASYN-RXN;LINOLENOYL-RXN;R223-RXN;RXN-12184;RXN-12702;RXN-12746;RXN-12978;RXN-13290;RXN-13614;RXN-16380;RXN-16389;RXN-16393;RXN-16401;RXN-16402;RXN-16415;RXN-16418;RXN-7904;RXN-9623;RXN-9644;RXN-9673;RXN0-7238;RXN0-7239;RXN0-7248;RXN66-469;RXN66-477;RXN66-480;RXN66-483;RXN66-484;TRANS-RXN0-623
ASD52_13840	Unknown	PROTEIN-KINASE-RXN
ASD52_19210	Unknown	PRPPAMIDOTRANS-RXN
ASD52_17535	Unknown	RXN0-5062
ASD52_16360	Unknown	ADENYLATECYC-RXN
ASD52_30740	Unknown	3.4.11.18-RXN;RXN-17873;RXN-17874;RXN-17875;RXN-17876;RXN-17877;RXN-17878
ASD52_00690	Unknown	DALADALALIG-RXN
ASD52_16020	Unknown	RXN-17155
ASD52_18395	Unknown	1.6.99.5-RXN;NADH-DEHYDROGENASE-QUINONE-RXN
ASD52_15405	Unknown	GLUTATHIONE-REDUCT-NADPH-RXN
ASD52_07190	Unknown	PGLUCONDEHYDRAT-RXN
ASD52_14970	Unknown	SAICARSYN-RXN
ASD52_24695	Unknown	RXN0-5100
ASD52_35570	Unknown	6-PHOSPHO-BETA-GLUCOSIDASE-RXN;RXN0-5295;RXN0-5297;RXN0-6994;RXN0-7002
ASD52_29415	Unknown	HYDROXY-MANDELATE-RACEMASE-RXN;MANDELATE-RACEMASE-RXN
ASD52_33815	tdh	RXN-14249;THREODEHYD-RXN
ASD52_30700	Unknown	RXN-12587;RXN-12588;RXN-14382;RXN-14385;RXN-15881;RXN-9787;RXN0-308
ASD52_05275	Unknown	MYO-INOSOSE-2-DEHYDRATASE-RXN
ASD52_28245	Unknown	1-PHOSPHATIDYLINOSITOL-KINASE-RXN
ASD52_33030	Unknown	3.4.13.9-RXN
ASD52_31120	Unknown	2.7.13.3-RXN
ASD52_04080	Unknown	ACYLCOADEHYDROG-RXN;RXN-17775;RXN-17779;RXN-17783;RXN-17784;RXN-17788;RXN-17792;RXN-17796
ASD52_13435	Unknown	ACETATEKIN-RXN
ASD52_31810	Unknown	1.8.1.4-RXN;2OXOGLUTARATEDEH-RXN;2OXOGLUTDECARB-RXN;RXN-7716;RXN-7719;RXN-8629;RXN0-1132;RXN0-1147
ASD52_24290	Unknown	2.3.1.41-RXN;3-OXOACYL-ACP-SYNTH-BASE-RXN;3-OXOACYL-ACP-SYNTH-RXN;RXN-10059;RXN-10654;RXN-10658;RXN-11474;RXN-11479;RXN-16615;RXN-16621;RXN-16625;RXN-16629;RXN-9516;RXN-9523;RXN-9527;RXN-9531;RXN-9535;RXN-9539;RXN-9632;RXN-9648;RXN-9650;RXN-9651;RXN-9652;RXN-9653;RXN-9654;RXN0-2141;RXN1G-368;RXN1G-445;RXN1G-460;RXN1G-499;RXN3O-1803
ASD52_25215	Unknown	ACETYL-COA-CARBOXYLTRANSFER-RXN;BIOTIN-CARBOXYL-RXN
ASD52_33595	Unknown	GLUCISOM-RXN;XYLISOM-RXN
ASD52_30920	Unknown	RXN0-4022
ASD52_07675	ileS	ISOLEUCINE--TRNA-LIGASE-RXN
ASD52_28640	Unknown	URUR-RXN
ASD52_00635	Unknown	UDP-NACMURALGLDAPLIG-RXN
ASD52_12970	Unknown	CYTDEAM-RXN;RXN-14129;RXN-14197
ASD52_27540	Unknown	D-ALANINE-AMINOTRANSFERASE-RXN
ASD52_10270	Unknown	NADPH-DEHYDROGENASE-FLAVIN-RXN
ASD52_20965	Unknown	2.7.13.3-RXN
ASD52_05945	Unknown	DIHYDROOROT-RXN
ASD52_07125	Unknown	UDPMANACATRANS-RXN
ASD52_18685	Unknown	2.3.1.180-RXN
ASD52_08135	Unknown	ACETYL-COA-ACETYLTRANSFER-RXN;METHYLACETOACETYLCOATHIOL-RXN;RXN-12561
ASD52_20070	Unknown	RXN0-4261
ASD52_12795	Unknown	FMNREDUCT-RXN;NADPH-DEHYDROGENASE-FLAVIN-RXN;RXN-12444
ASD52_30275	Unknown	DIAMACTRANS-RXN;RXN-0;RXN-12667;RXN-9939;RXN0-7165;SPERMACTRAN-RXN
ASD52_20470	Unknown	MYO-INOSITOL-1OR-4-MONOPHOSPHATASE-RXN;RXN-7253;RXN0-5408
ASD52_16595	Unknown	DXPREDISOM-RXN
ASD52_09375	cpdB	3-NUCLEOTID-RXN;CYCPHOSDIESTER-RXN;RXN-14064;RXN-14090;RXN-14091;RXN-14112;RXN-14113;RXN-14115;RXN-14124;RXN-14126
ASD52_31755	Unknown	R321-RXN
ASD52_17390	Unknown	3-ISOPROPYLMALISOM-RXN;R-2-METHYLMALATE-DEHYDRATASE-RXN;RXN-13163;RXN-7744;RXN-8991
ASD52_34240	Unknown	1.6.99.5-RXN;NADH-DEHYDROGENASE-QUINONE-RXN
ASD52_17010	Unknown	1.10.2.2-RXN;RXN-15829
ASD52_18980	Unknown	RXN-18694;RXN-8342
ASD52_14225	Unknown	GLUCONOLACT-RXN;RXN-8783
ASD52_03070	Unknown	ACYLPHOSPHATASE-RXN
ASD52_07620	Unknown	HISTIDINE--TRNA-LIGASE-RXN
ASD52_10945	Unknown	CHLOROMALERED-RXN;MALEYLACETATE-REDUCTASE-RXN;RXN-9885;RXN-9891
ASD52_19470	Unknown	GDPPYPHOSKIN-RXN;GTPPYPHOSKIN-RXN
ASD52_17035	Unknown	UROGENIIISYN-RXN
ASD52_17950	Unknown	CARBOXYMETHYLENEBUTENOLIDASE-RXN;DIENELACHYDRO-RXN;RXN-9857;RXN-9868;RXN-9887;RXN-9890
ASD52_21855	Unknown	ADENYLATECYC-RXN
ASD52_05825	rnpA	3.1.26.5-RXN;RXN0-6480
ASD52_10405	eno	2PGADEHYDRAT-RXN
ASD52_17350	Unknown	3.1.11.2-RXN
ASD52_34430	Unknown	PEPTIDYLPROLYL-ISOMERASE-RXN
ASD52_05280	Unknown	RXN-14149
ASD52_18125	Unknown	4.1.99.4-RXN;RXN-15149
ASD52_01065	Unknown	NITRILE-HYDRATASE-RXN;R310-RXN;R313-RXN;RXN-14725;RXN-14726;RXN-17609;RXN-7567
ASD52_03460	Unknown	GALACTONDEHYDRAT-RXN
ASD52_10835	Unknown	2.7.13.3-RXN
ASD52_15490	Unknown	RXN-16427;RXN-16456;RXN0-262
ASD52_08615	Unknown	GSHTRAN-RXN;GST-RXN;RXN-11663;RXN-13673;RXN-15680;RXN-18405;RXN-18407;RXNQT-4363
ASD52_14555	Unknown	PEPTIDYLPROLYL-ISOMERASE-RXN
ASD52_23950	Unknown	RXN0-5131
ASD52_24040	Unknown	3.7.1.9-RXN
ASD52_11495	Unknown	5.99.1.3-RXN
ASD52_24915	Unknown	ADENPHOSPHOR-RXN;DEOXYADENPHOSPHOR-RXN;DEOXYGUANPHOSPHOR-RXN;DEOXYINOPHOSPHOR-RXN;INOPHOSPHOR-RXN;PNP-RXN;RXN-11715;RXN-11743;RXN-14029;RXN-7001;RXN0-5199;XANTHOSINEPHOSPHORY-RXN
ASD52_24410	Unknown	3.6.1.41-RXN
ASD52_04095	Unknown	RXN-11740
ASD52_25485	Unknown	ALKANE-1-MONOOXYGENASE-RXN
ASD52_03705	Unknown	3-OXOADIPATE-COA-TRANSFERASE-RXN;RXN-10085
ASD52_15735	Unknown	RXN0-2621
ASD52_16815	Unknown	KANAMYCIN-KINASE-RXN
ASD52_03695	Unknown	KETOACYLCOATHIOL-RXN;RXN-10699;RXN-10700;RXN-10701;RXN-11246;RXN-12565;RXN-12710;RXN-13617;RXN-14268;RXN-14274;RXN-14277;RXN-14394;RXN-14774;RXN-14788;RXN-14793;RXN-14799;RXN-14803;RXN-16137;RXN-17116;RXN-17778;RXN-17782;RXN-17787;RXN-17791;RXN-17795;RXN-17799;RXN-3641
ASD52_05175	Unknown	GLUTATHIONE-SYN-RXN
ASD52_14870	Unknown	RXN-11109
ASD52_28835	Unknown	DIHYDROXYISOVALDEHYDRAT-RXN;DIHYDROXYMETVALDEHYDRAT-RXN
ASD52_29985	Unknown	DIHYDRODIPICSYN-RXN
ASD52_24250	Unknown	2.5.1.19-RXN
ASD52_14300	Unknown	2PGADEHYDRAT-RXN
ASD52_34395	Unknown	PRODISULFREDUCT-RXN;RXN0-7271
ASD52_15525	Unknown	ASPARTATE-SEMIALDEHYDE-DEHYDROGENASE-RXN
ASD52_31760	Unknown	R322-RXN
ASD52_23020	Unknown	R4-RXN
ASD52_17750	Unknown	PYRUVATE-CARBOXYLASE-RXN
ASD52_11460	Unknown	PYRIDOXAL-4-DEHYDROGENASE-RXN
ASD52_04370	Unknown	METHYLMALONYL-COA-MUT-RXN
ASD52_11580	Unknown	RXN-11578
ASD52_27100	Unknown	CYTOCHROME-C-OXIDASE-RXN;RXN-15830
ASD52_19195	Unknown	ALARACECAT-RXN
ASD52_18795	Unknown	ARGINYLTRANSFERASE-RXN;RXN-17888;RXN-17889;RXN-17890;RXN-17891
ASD52_20125	Unknown	5-FORMYL-THF-CYCLO-LIGASE-RXN
ASD52_29280	Unknown	3.1.3.16-RXN
ASD52_20790	Unknown	GLYOXIII-RXN
ASD52_25640	Unknown	ASPARTATE-RACEMASE-RXN
ASD52_31545	Unknown	PHOSPHOKETOLASE-RXN
ASD52_17430	Unknown	CHORISMATEMUT-RXN
ASD52_01070	Unknown	NITRILE-HYDRATASE-RXN;R310-RXN;R313-RXN;RXN-14725;RXN-14726;RXN-17609;RXN-7567
ASD52_20610	Unknown	GLYCOGEN-BRANCH-RXN;RXN-14371;RXN-14372;RXN-18777;RXN-7669;RXN-7710
ASD52_14885	Unknown	2.7.1.148-RXN
ASD52_04410	Unknown	RXN-8529
ASD52_18005	Unknown	CHLORIDE-PEROXIDASE-RXN
ASD52_20175	Unknown	F16ALDOLASE-RXN;RXN-8631
ASD52_10565	Unknown	THREONINE--TRNA-LIGASE-RXN
ASD52_03640	Unknown	GABATRANSAM-RXN;RXN-2901
ASD52_18145	Unknown	BIOTIN-CARBOXYL-RXN
ASD52_18920	Unknown	RXN0-1441
ASD52_31225	Unknown	1.2.1.32-RXN;BADH-RXN;RXN-8831;RXN-8837
ASD52_34150	Unknown	ETHAMLY-RXN
ASD52_09500	Unknown	RXN0-4261
ASD52_13250	Unknown	HYDROXY-MANDELATE-RACEMASE-RXN;MANDELATE-RACEMASE-RXN
ASD52_31740	Unknown	2.1.1.131-RXN
ASD52_03975	Unknown	4-CARBOXYMUCONOLACTONE-DECARBOXYLASE-RXN
ASD52_07540	Unknown	GLUTCYSLIG-RXN
ASD52_33720	Unknown	SUCCINATE-SEMIALDEHYDE-DEHYDROGENASE-RXN
ASD52_05430	Unknown	GSHTRAN-RXN;GST-RXN;RXN-11663;RXN-13673;RXN-15680;RXN-18405;RXN-18407;RXNQT-4363
ASD52_20075	Unknown	RXN0-4261
ASD52_23410	Unknown	2.7.13.3-RXN
ASD52_12630	Unknown	RXN1A0-6303
ASD52_14845	Unknown	TYROSINE--TRNA-LIGASE-RXN
ASD52_21780	Unknown	RXN-17155
ASD52_33290	Unknown	3-OXOADIPATE-ENOL-LACTONASE-RXN
ASD52_19400	Unknown	ATPASE-RXN
ASD52_01585	Unknown	GSHTRAN-RXN;GST-RXN;RXN-11663;RXN-13673;RXN-15680;RXN-18405;RXN-18407;RXNQT-4363
ASD52_34495	Unknown	BTUR2-RXN;COBALADENOSYLTRANS-RXN;R344-RXN
ASD52_26810	Unknown	GLYCERATE-DEHYDROGENASE-RXN;HYDROXYPYRUVATE-REDUCTASE-RXN
ASD52_15450	Unknown	PMPOXI-RXN;PNPOXI-RXN
ASD52_10420	Unknown	RXN-9591
ASD52_17170	Unknown	NICONUCADENYLYLTRAN-RXN
ASD52_35935	Unknown	ADENYL-KIN-RXN
ASD52_35085	Unknown	CDP-GLUCOSE-46-DEHYDRATASE-RXN
ASD52_15105	Unknown	RXN0-5398
ASD52_14770	gcvT	GCVT-RXN
ASD52_08245	Unknown	HEMEOSYN-RXN
ASD52_20955	Unknown	ARYLSULFAT-RXN
ASD52_27935	Unknown	3.2.1.48-RXN;RXN-9985
ASD52_13410	Unknown	2.7.13.3-RXN
ASD52_07320	Unknown	1.11.1.15-RXN;RXN0-5468
ASD52_21155	Unknown	N-FORMYLGLUTAMATE-DEFORMYLASE-RXN
ASD52_15155	Unknown	H2PTERIDINEPYROPHOSPHOKIN-RXN;RXN-15733
ASD52_10415	Unknown	GLYOXI-RXN
ASD52_04850	Unknown	RXN0-5131
ASD52_20500	Unknown	1.11.1.15-RXN;RXN0-5468
ASD52_22205	Unknown	METHYLCROTONYL-COA-CARBOXYLASE-RXN
ASD52_21255	Unknown	MERCURY-II-REDUCTASE-RXN
ASD52_05605	Unknown	RXN-9591
ASD52_18945	Unknown	3.1.27.1-RXN
ASD52_29140	Unknown	1.11.1.15-RXN;RXN0-5468
ASD52_24755	Unknown	RXN-14014
ASD52_10395	Unknown	RXN-12508;RXN-12583;RXN0-1134
ASD52_25645	Unknown	4.1.99.4-RXN;RXN-15149
ASD52_00640	Unknown	UDP-NACMURALGLDAPAALIG-RXN
ASD52_03535	Unknown	ACYLCOADEHYDROG-RXN;RXN-17775;RXN-17779;RXN-17783;RXN-17784;RXN-17788;RXN-17792;RXN-17796
ASD52_13035	Unknown	RXN3DJ-170;RXN66-221
ASD52_18425	Unknown	1.6.99.5-RXN;NADH-DEHYDROGENASE-QUINONE-RXN
ASD52_08340	Unknown	2-HALOACID-DEHALOGENASE-RXN;3.8.1.11-RXN;RXN-6263;RXN-6264
ASD52_17830	Unknown	3-OXOACYL-ACP-REDUCT-RXN
ASD52_30725	Unknown	3-HYDROXYBUTYRATE-DEHYDROGENASE-RXN
ASD52_20625	Unknown	PHOSPHOGLUCMUT-RXN;RXN-16997;RXN-16998
ASD52_25435	Unknown	GLYOXI-RXN
ASD52_20840	Unknown	4OH2OXOGLUTARALDOL-RXN;KDPGALDOL-RXN
ASD52_19825	Unknown	HISTIDINE-AMMONIA-LYASE-RXN
ASD52_27610	Unknown	NANE-RXN
ASD52_10625	Unknown	2.3.2.13-RXN;RXN-19236
ASD52_25220	Unknown	ALLOPHANATE-HYDROLASE-RXN
ASD52_26950	Unknown	AGMATIN-RXN
ASD52_16005	Unknown	2.3.1.41-RXN;3-OXOACYL-ACP-SYNTH-BASE-RXN;3-OXOACYL-ACP-SYNTH-RXN;RXN-10059;RXN-10654;RXN-10658;RXN-11474;RXN-11479;RXN-16615;RXN-16621;RXN-16625;RXN-16629;RXN-9516;RXN-9523;RXN-9527;RXN-9531;RXN-9535;RXN-9539;RXN-9632;RXN-9648;RXN-9650;RXN-9651;RXN-9652;RXN-9653;RXN-9654;RXN0-2141;RXN1G-368;RXN1G-445;RXN1G-460;RXN1G-499;RXN3O-1803
ASD52_03970	Unknown	3-OXOADIPATE-ENOL-LACTONASE-RXN;RXN-10083
ASD52_03250	Unknown	3-HYDROXYISOBUTYRATE-DEHYDROGENASE-RXN
ASD52_07630	hisG	ATPPHOSPHORIBOSYLTRANS-RXN
ASD52_27655	Unknown	RXN0-5131
ASD52_26075	Unknown	3-OXOACYL-ACP-REDUCT-RXN;RXN-10060;RXN-10655;RXN-10659;RXN-11476;RXN-11480;RXN-13008;RXN-16616;RXN-16622;RXN-16626;RXN-16630;RXN-9514;RXN-9518;RXN-9524;RXN-9528;RXN-9532;RXN-9536;RXN-9540;RXN-9552;RXN-9556;RXN-9633;RXN0-2142;RXN1G-157;RXN1G-349;RXN1G-469;RXN1G-508
ASD52_17105	Unknown	AMIDASE-RXN;GUANIDINOBUTANAMIDE-NH3-RXN;PYRAZIN-RXN;R311-RXN;RXN-14727;RXN-14728;RXN-17608;RXNN-404
ASD52_05685	Unknown	METHIONYL-TRNA-FORMYLTRANSFERASE-RXN
ASD52_35990	Unknown	2-HALOACID-DEHALOGENASE-RXN;3.8.1.11-RXN;RXN-6263;RXN-6264
ASD52_09725	Unknown	FMNREDUCT-RXN;NADPH-DEHYDROGENASE-FLAVIN-RXN;RXN-12444
ASD52_04160	Unknown	RXN-8665
ASD52_18175	gatB	6.3.5.7-RXN
ASD52_13350	Unknown	RXN-12130
ASD52_08960	Unknown	1.8.4.12-RXN
ASD52_18080	Unknown	RXN0-5375
ASD52_29735	Unknown	FMNREDUCT-RXN;NADPH-DEHYDROGENASE-FLAVIN-RXN;RXN-12444
ASD52_15420	Unknown	GPH-RXN
ASD52_01125	Unknown	PDXJ-RXN
ASD52_31805	Unknown	1.2.4.4-RXN;2.3.1.168-RXN;KETOISOCAPROATE-RXN;METHYLVALERATE-RXN;RXN-7790
ASD52_00670	Unknown	UDPNACETYLMURAMATEDEHYDROG-RXN
ASD52_04970	Unknown	2.6.1.57-RXN;PHEAMINOTRANS-RXN;RXN-14147;RXN-15200;TRYPTOPHAN-AMINOTRANSFERASE-RXN;TYROSINE-AMINOTRANSFERASE-RXN
ASD52_31820	purU	FORMYLTHFDEFORMYL-RXN
ASD52_17200	Unknown	RXN0-5510
ASD52_07720	Unknown	325-BISPHOSPHATE-NUCLEOTIDASE-RXN
ASD52_24725	Unknown	GLYOXIII-RXN
ASD52_01130	Unknown	PHOSGLYPHOS-RXN
ASD52_19780	Unknown	GLUTAMINESYN-RXN
ASD52_32120	Unknown	KANAMYCIN-KINASE-RXN
ASD52_16985	Unknown	RXN-14971;RXN-15378;SUCCINATE-DEHYDROGENASE-UBIQUINONE-RXN
ASD52_11730	Unknown	AMIDASE-RXN;GUANIDINOBUTANAMIDE-NH3-RXN;PYRAZIN-RXN;R311-RXN;RXN-14727;RXN-14728;RXN-17608;RXNN-404
ASD52_27020	Unknown	GLUTAMINESYN-RXN
ASD52_35090	Unknown	2.7.7.33-RXN
ASD52_33130	Unknown	ADENPRIBOSYLTRAN-RXN;RXN-14270
ASD52_33770	Unknown	RXN-18397
ASD52_08420	Unknown	PYRUVATEORTHOPHOSPHATE-DIKINASE-RXN
ASD52_13950	Unknown	GAMMA-GLUTAMYLTRANSFERASE-RXN;RXN-18092;RXN-6601;RXN-9157;RXN66-336
ASD52_10180	Unknown	SERINE-O-ACETTRAN-RXN
ASD52_17030	Unknown	OHMETHYLBILANESYN-RXN
ASD52_21175	Unknown	3.2.1.52-RXN;RXN-12625;RXN-12626;RXN-18082;RXN0-5226
ASD52_19675	Unknown	ACETYL-COA-CARBOXYLTRANSFER-RXN;RXN0-5055
ASD52_34545	Unknown	PHOSACETYLTRANS-RXN
ASD52_00925	Unknown	GSHTRAN-RXN;GST-RXN;RXN-11663;RXN-13673;RXN-15680;RXN-18405;RXN-18407;RXNQT-4363
ASD52_30820	Unknown	PMPOXI-RXN;PNPOXI-RXN
ASD52_04295	Unknown	RXN-17956;RXN0-6734
ASD52_20605	Unknown	GLYCOPHOSPHORYL-RXN;GLYMALTOPHOSPHORYL-RXN;RXN-12171;RXN-12392;RXN-14284;RXN-14285;RXN-14286;RXN-14353;RXN-1826;RXN-9025;RXN0-5182;RXN0-5184
ASD52_29015	Unknown	1TRANSKETO-RXN;2TRANSKETO-RXN
ASD52_32045	Unknown	RXN-8529
ASD52_03735	Unknown	GABATRANSAM-RXN;RXN-2901
ASD52_23365	Unknown	3.2.1.55-RXN
ASD52_24430	Unknown	PREPHENATEDEHYDRAT-RXN
ASD52_08215	Unknown	CHORISMATE-SYNTHASE-RXN
ASD52_00565	Unknown	RXN-12347
ASD52_01030	Unknown	ACETOLACTSYN-RXN;ACETOOHBUTSYN-RXN
ASD52_29675	Unknown	D-SORBITOL-DEHYDROGENASE-RXN;L-IDITOL-2-DEHYDROGENASE-RXN;RXN-7644
ASD52_21540	Unknown	ALLANTOICASE-RXN
ASD52_12145	Unknown	GSHTRAN-RXN;GST-RXN;RXN-11663;RXN-13673;RXN-15680;RXN-18405;RXN-18407;RXNQT-4363
ASD52_23960	Unknown	RXN0-5131
ASD52_33295	Unknown	4-CARBOXYMUCONOLACTONE-DECARBOXYLASE-RXN
ASD52_04305	Unknown	RXN-17954;RXN-17957;RXN0-6732
ASD52_09450	Unknown	GUANPRIBOSYLTRAN-RXN;HYPOXANPRIBOSYLTRAN-RXN;XANPRIBOSYLTRAN-RXN
ASD52_06255	Unknown	R4-RXN
ASD52_05875	putA	PYRROLINECARBDEHYDROG-RXN;RXN-14116;RXN-14903;RXN0-7008
ASD52_23990	Unknown	RXN1A0-6303
ASD52_06130	Unknown	DCTP-DEAM-RXN;RXN-14118
ASD52_09595	Unknown	NQOR-RXN
ASD52_11480	Unknown	RXN0-5433
ASD52_12435	Unknown	CYTIDEAM-RXN;CYTIDEAM2-RXN
ASD52_30840	Unknown	DURIDKI-RXN;THYKI-RXN
ASD52_12325	Unknown	3-OCTAPRENYL-4-OHBENZOATE-DECARBOX-RXN
ASD52_23655	Unknown	GLYCOGEN-BRANCH-RXN;RXN-14371;RXN-14372;RXN-18777;RXN-7669;RXN-7710
ASD52_06205	Unknown	ACETYL-COA-ACETYLTRANSFER-RXN;METHYLACETOACETYLCOATHIOL-RXN;RXN-12561
ASD52_17450	Unknown	DIAMINOPIMEPIM-RXN
ASD52_14840	Unknown	RXN0-4621
ASD52_01095	Unknown	AMONITRO-RXN
ASD52_00665	murC	UDP-NACMUR-ALA-LIG-RXN
ASD52_09985	Unknown	ARGININE--TRNA-LIGASE-RXN
ASD52_20260	Unknown	MYO-INOSITOL-1OR-4-MONOPHOSPHATASE-RXN;RXN-7253;RXN0-5408
ASD52_06935	fliI	ATPSYN-RXN
ASD52_19635	Unknown	R342-RXN
ASD52_22830	Unknown	NQOR-RXN
ASD52_09840	Unknown	3.4.11.18-RXN;RXN-17873;RXN-17874;RXN-17875;RXN-17876;RXN-17877;RXN-17878
ASD52_11365	Unknown	ALKAPHOSPHA-RXN;RXN-5822;RXN-8748
ASD52_18200	Unknown	6.3.5.7-RXN
ASD52_18255	Unknown	RXN0-7023
ASD52_22155	Unknown	ALARACECAT-RXN
ASD52_36455	Unknown	RXN0-5131
ASD52_10020	Unknown	VALINE--TRNA-LIGASE-RXN
ASD52_29205	Unknown	1.14.11.2-RXN
ASD52_01490	Unknown	GSHTRAN-RXN;GST-RXN;RXN-11663;RXN-13673;RXN-15680;RXN-18405;RXN-18407;RXNQT-4363
ASD52_29710	Unknown	RXN-10137;RXN-17556
ASD52_11760	fabG	3-OXOACYL-ACP-REDUCT-RXN;RXN-10060;RXN-10655;RXN-10659;RXN-11476;RXN-11480;RXN-13008;RXN-16616;RXN-16622;RXN-16626;RXN-16630;RXN-9514;RXN-9518;RXN-9524;RXN-9528;RXN-9532;RXN-9536;RXN-9540;RXN-9552;RXN-9556;RXN-9633;RXN0-2142;RXN1G-157;RXN1G-349;RXN1G-469;RXN1G-508
ASD52_31875	Unknown	UDPGLUCEPIM-RXN
ASD52_15185	Unknown	3.6.4.4-RXN
ASD52_29340	Unknown	MYO-INOSITOL-1OR-4-MONOPHOSPHATASE-RXN;RXN-7253;RXN0-5408
ASD52_00265	Unknown	ALLANTOINASE-RXN
ASD52_30780	Unknown	MALTODEXGLUCOSID-RXN;RXN-14281;RXN-14282;RXN-14283;RXN-15910;RXN0-5183
ASD52_01315	Unknown	GLYOXIII-RXN
ASD52_17630	Unknown	RXN0-3221
ASD52_00975	Unknown	RXN0-6274
ASD52_22415	Unknown	3.2.1.52-RXN;RXN-12625;RXN-12626;RXN-18082;RXN0-5226
ASD52_17095	Unknown	ALKAPHOSPHA-RXN;RXN-5822;RXN-8748
ASD52_17815	Unknown	GLYCERATE-DEHYDROGENASE-RXN;HYDROXYPYRUVATE-REDUCTASE-RXN;RXN0-300
ASD52_07735	Unknown	2-HALOACID-DEHALOGENASE-RXN
ASD52_20325	Unknown	PEPDEPHOS-RXN;RXN-14117;RXN-14192;RXN-14207
ASD52_17160	Unknown	GLUTKIN-RXN
ASD52_28885	Unknown	RXN0-5268
ASD52_10665	Unknown	2.1.1.100-RXN
ASD52_18640	Unknown	RXN-11791
ASD52_04400	Unknown	3-HYDROXYISOBUTYRYL-COA-HYDROLASE-RXN;RXN-13721;RXN-6384
ASD52_28335	Unknown	RXN0-5131
ASD52_01290	Unknown	3.4.13.21-RXN
ASD52_05095	Unknown	RXN-12104
ASD52_15725	Unknown	ADENYLATECYC-RXN
ASD52_32845	Unknown	RXN0-4261
ASD52_00590	Unknown	2.7.1.90-RXN
ASD52_22080	Unknown	NICOTINAMID-RXN
ASD52_18240	Unknown	RXN-10462;RXN-13805;RXN-1381;RXN-15045;RXN-16024;RXN-16117;RXN-17016;RXN-17017;RXN-17018
ASD52_20585	Unknown	IMP-DEHYDROG-RXN
ASD52_11530	Unknown	RXN0-4961
ASD52_16840	cpsB	2.7.7.13-RXN
ASD52_20800	Unknown	ORNDECARBOX-RXN
ASD52_08660	Unknown	2.7.13.3-RXN
ASD52_01350	Unknown	ACETOLACTREDUCTOISOM-RXN;ACETOOHBUTREDUCTOISOM-RXN
ASD52_29010	Unknown	1TRANSKETO-RXN;2TRANSKETO-RXN
ASD52_08720	Unknown	1.1.1.274-RXN
ASD52_31605	Unknown	XYLULOKIN-RXN
ASD52_18710	hppA	INORGPYROPHOSPHAT-RXN
ASD52_18965	Unknown	RXN0-2621
ASD52_20565	Unknown	GLYOXIII-RXN
ASD52_04685	Unknown	DTDPDEHYRHAMREDUCT-RXN
ASD52_01685	Unknown	RXN0-5131
ASD52_09545	Unknown	PRTRANS-RXN
ASD52_22805	Unknown	CHLORIDE-PEROXIDASE-RXN
ASD52_07170	Unknown	MALTODEXGLUCOSID-RXN;RXN-14281;RXN-14282;RXN-14283;RXN-15910;RXN0-5183
ASD52_06440	Unknown	NICOTINATEPRIBOSYLTRANS-RXN
ASD52_00260	Unknown	HISTIDINE-AMMONIA-LYASE-RXN
ASD52_26225	Unknown	FUMARYLACETOACETASE-RXN
ASD52_25250	Unknown	3-OXOACYL-ACP-REDUCT-RXN;RXN-10060;RXN-10655;RXN-10659;RXN-11476;RXN-11480;RXN-13008;RXN-16616;RXN-16622;RXN-16626;RXN-16630;RXN-9514;RXN-9518;RXN-9524;RXN-9528;RXN-9532;RXN-9536;RXN-9540;RXN-9552;RXN-9556;RXN-9633;RXN0-2142;RXN1G-157;RXN1G-349;RXN1G-469;RXN1G-508
ASD52_16960	Unknown	MALATE-DEH-RXN
ASD52_16045	Unknown	4.1.1.81-RXN
ASD52_21635	Unknown	ADDALT-RXN;ADENODEAMIN-RXN
ASD52_05700	Unknown	SUCCDIAMINOPIMDESUCC-RXN
ASD52_04365	Unknown	GLYOXIII-RXN
ASD52_07780	Unknown	RXN-8102
ASD52_30675	Unknown	UREIDOGLYCOLATE-HYDROLASE-RXN
ASD52_29285	Unknown	MYO-INOSITOL-1OR-4-MONOPHOSPHATASE-RXN;RXN-7253;RXN0-5408
ASD52_18225	Unknown	ACYLCOADEHYDROG-RXN;RXN-17775;RXN-17779;RXN-17783;RXN-17784;RXN-17788;RXN-17792;RXN-17796
ASD52_15570	Unknown	2.7.13.3-RXN
ASD52_02670	Unknown	ADENOSYLHOMOCYSTEINASE-RXN
ASD52_34900	Unknown	THIAZOLSYN2-RXN
ASD52_21470	Unknown	RXN0-5289;TSA-REDUCT-RXN
ASD52_30900	Unknown	ANTHRANSYN-RXN
ASD52_08020	ubiA	4OHBENZOATE-OCTAPRENYLTRANSFER-RXN
ASD52_04085	Unknown	ENOYL-COA-HYDRAT-RXN;METHYLACYLYLCOA-HYDROXY-RXN;RXN-10697;RXN-10704;RXN-10705;RXN-11244;RXN-12567;RXN-13616;RXN-14266;RXN-14272;RXN-14273;RXN-16135;RXN-16558;RXN-17114;RXN-17475;RXN-17776;RXN-17780;RXN-17785;RXN-17789;RXN-17793;RXN-17797;RXN-2425;RXN0-5393;TIGLYLCOA-HYDROXY-RXN
ASD52_25700	Unknown	3-OXOACYL-ACP-REDUCT-RXN;RXN-10060;RXN-10655;RXN-10659;RXN-11476;RXN-11480;RXN-13008;RXN-16616;RXN-16622;RXN-16626;RXN-16630;RXN-9514;RXN-9518;RXN-9524;RXN-9528;RXN-9532;RXN-9536;RXN-9540;RXN-9552;RXN-9556;RXN-9633;RXN0-2142;RXN1G-157;RXN1G-349;RXN1G-469;RXN1G-508
ASD52_04055	Unknown	KETOACYLCOATHIOL-RXN;RXN-10699;RXN-10700;RXN-10701;RXN-11246;RXN-12565;RXN-12710;RXN-13617;RXN-14268;RXN-14274;RXN-14277;RXN-14394;RXN-14774;RXN-14788;RXN-14793;RXN-14799;RXN-14803;RXN-16137;RXN-17116;RXN-17778;RXN-17782;RXN-17787;RXN-17791;RXN-17795;RXN-17799;RXN-3641
ASD52_11035	Unknown	GALPMUT-RXN
ASD52_09730	Unknown	RXN-982
ASD52_18770	Unknown	AMIDASE-RXN;GUANIDINOBUTANAMIDE-NH3-RXN;PYRAZIN-RXN;R311-RXN;RXN-14727;RXN-14728;RXN-17608;RXNN-404
ASD52_20400	hemH	PROTOHEMEFERROCHELAT-RXN
ASD52_00370	Unknown	RXN-15740;RXN-15745;RXN0-5260
ASD52_26650	Unknown	DIHYDROURACIL-DEHYDROGENASE-NAD+-RXN;RXN0-6565
ASD52_11330	Unknown	PEPCARBOXYKIN-RXN
ASD52_30580	Unknown	2.3.2.13-RXN;RXN-19236
ASD52_22925	Unknown	ATPASE-RXN
ASD52_31690	Unknown	2.7.13.3-RXN
ASD52_32130	Unknown	ADENYLATECYC-RXN
ASD52_12900	Unknown	CHD-RXN;RXN0-7230
ASD52_01320	Unknown	PRPPSYN-RXN
ASD52_20465	Unknown	LYSOPHOSPHOLIPASE-RXN;RXN-15035;RXN-19312
ASD52_26345	Unknown	RXN0-5131
ASD52_10950	Unknown	RXN-10075
ASD52_22610	Unknown	GLYCEROL-KIN-RXN
ASD52_00970	Unknown	PSERPHOSPHA-RXN;RXN0-5114
ASD52_35380	Unknown	ENOYL-COA-HYDRAT-RXN;METHYLACYLYLCOA-HYDROXY-RXN;RXN-10697;RXN-10704;RXN-10705;RXN-11244;RXN-12567;RXN-13616;RXN-14266;RXN-14272;RXN-14273;RXN-16135;RXN-16558;RXN-17114;RXN-17475;RXN-17776;RXN-17780;RXN-17785;RXN-17789;RXN-17793;RXN-17797;RXN-2425;RXN0-5393;TIGLYLCOA-HYDROXY-RXN
ASD52_28460	Unknown	UDPGLUCEPIM-RXN
ASD52_21285	Unknown	DIMETHYLARGININASE-RXN
ASD52_20520	Unknown	DIHYDRODIPICSYN-RXN
ASD52_05645	Unknown	TRNA-GUANINE-N7--METHYLTRANSFERASE-RXN
ASD52_18390	Unknown	1.6.99.5-RXN;NADH-DEHYDROGENASE-QUINONE-RXN
ASD52_00405	Unknown	RIB5PISOM-RXN
ASD52_11595	Unknown	DNA-DIRECTED-DNA-POLYMERASE-RXN
ASD52_11610	Unknown	ALARACECAT-RXN
ASD52_26600	Unknown	RIBULOKIN-RXN;RXN0-5116
ASD52_23855	Unknown	3-OXOACYL-ACP-REDUCT-RXN
ASD52_17655	Unknown	RXN0-4261
ASD52_11465	Unknown	GALACTONDEHYDRAT-RXN
ASD52_00995	Unknown	2-OCTAPRENYL-6-OHPHENOL-METHY-RXN;DHHB-METHYLTRANSFER-RXN
ASD52_19530	Unknown	DIAMINOPIMDECARB-RXN
ASD52_27080	Unknown	CYTOCHROME-C-OXIDASE-RXN;RXN-15830
ASD52_20475	Unknown	N-FORMYLGLUTAMATE-DEFORMYLASE-RXN
ASD52_16445	Unknown	POLYPHOSPHATE-KINASE-RXN
ASD52_33605	Unknown	RXN0-5131
ASD52_07700	Unknown	RXN0-6515
ASD52_10380	Unknown	ARYLESTERASE-RXN
ASD52_01335	Unknown	RXN0-5131
ASD52_35115	Unknown	ADENYLATECYC-RXN
ASD52_15870	Unknown	GLUCISOM-RXN;XYLISOM-RXN
ASD52_19775	Unknown	ISOCHORMAT-RXN
ASD52_29335	Unknown	3.1.3.16-RXN
ASD52_27360	Unknown	ALKANE-1-MONOOXYGENASE-RXN
ASD52_11535	Unknown	DEPHOSPHOCOAKIN-RXN
ASD52_19340	Unknown	L-ASPARTATE-OXID-RXN;RXN-9772
ASD52_13775	Unknown	PMPOXI-RXN;PNPOXI-RXN
ASD52_34230	Unknown	1.6.99.5-RXN;NADH-DEHYDROGENASE-QUINONE-RXN
ASD52_29475	Unknown	ADENYLATECYC-RXN
ASD52_13275	Unknown	25-DIOXOVALERATE-DEHYDROGENASE-RXN;RXN-8775
ASD52_26580	Unknown	2.7.13.3-RXN
ASD52_17605	Unknown	THIAMIN-PYROPHOSPHOKINASE-RXN
ASD52_11815	Unknown	2.3.2.15-RXN
ASD52_25480	Unknown	1.11.1.15-RXN;RXN0-5468
ASD52_31750	cobH	5.4.1.2-RXN
ASD52_23955	Unknown	RXN0-5131
ASD52_20270	Unknown	RXN-12610;RXN-12611;THI-P-SYN-RXN
ASD52_32435	Unknown	GLYOXII-RXN;RXN-7919
ASD52_11970	Unknown	POLYPHOSPHATE-KINASE-RXN
ASD52_13215	Unknown	RXN-8999
ASD52_09770	Unknown	GLYOXIII-RXN
ASD52_13325	Unknown	ARYLESTERASE-RXN
ASD52_05335	Unknown	DCMP-DEAMINASE-RXN
ASD52_23470	Unknown	AMINOGLYCOSIDE-N3-ACETYLTRANSFERASE-RXN
ASD52_19360	Unknown	1.14.11.18-RXN;RXN66-470
ASD52_29025	Unknown	5-METHYLTHIORIBOSE-KINASE-RXN
ASD52_31270	Unknown	THIOREDOXIN-REDUCT-NADPH-RXN
ASD52_18210	Unknown	3.1.22.4-RXN
ASD52_04570	Unknown	GLUCISOM-RXN;XYLISOM-RXN
ASD52_32965	Unknown	BRANCHED-CHAINAMINOTRANSFERILEU-RXN;BRANCHED-CHAINAMINOTRANSFERLEU-RXN;BRANCHED-CHAINAMINOTRANSFERVAL-RXN
ASD52_12195	Unknown	NQOR-RXN
ASD52_28630	Unknown	RXN-9387;RXN-9781
ASD52_32865	Unknown	6.3.5.7-RXN
ASD52_35740	Unknown	THRESYN-RXN
ASD52_03470	Unknown	DIHYDROXYISOVALDEHYDRAT-RXN;DIHYDROXYMETVALDEHYDRAT-RXN
ASD52_26615	Unknown	D-SORBITOL-DEHYDROGENASE-RXN;L-IDITOL-2-DEHYDROGENASE-RXN;RXN-7644
ASD52_33980	Unknown	2.7.13.3-RXN
ASD52_06720	Unknown	UDPNACETYLGLUCOSAMENOLPYRTRANS-RXN
ASD52_24530	Unknown	3.5.1.80-RXN;NAG6PDEACET-RXN
ASD52_21530	Unknown	3.5.2.17-RXN
ASD52_19430	Unknown	2.1.1.79-RXN;RXN-7421;RXN1G-2544;RXN1G-3641
ASD52_15915	Unknown	RXN-9952
ASD52_14780	Unknown	GCVP-RXN
ASD52_21160	Unknown	UROCANATE-HYDRATASE-RXN
ASD52_31210	Unknown	PROTEIN-KINASE-RXN
ASD52_18590	Unknown	AGMATIN-RXN
ASD52_05135	Unknown	DNA-DIRECTED-DNA-POLYMERASE-RXN
ASD52_15200	Unknown	1.10.2.2-RXN;RXN-15829
ASD52_04945	Unknown	GSHTRAN-RXN;GST-RXN;RXN-11663;RXN-13673;RXN-15680;RXN-18405;RXN-18407;RXNQT-4363
ASD52_29575	Unknown	ARYLSULFAT-RXN
ASD52_22850	Unknown	GLYOXIII-RXN
ASD52_04750	Unknown	RXN0-5131
ASD52_27090	Unknown	CYTOCHROME-C-OXIDASE-RXN;RXN-15830
ASD52_11165	Unknown	5-OXOPROLINASE-ATP-HYDROLYSING-RXN
ASD52_18420	Unknown	1.6.99.5-RXN;NADH-DEHYDROGENASE-QUINONE-RXN
ASD52_00090	Unknown	ISOCHORMAT-RXN
ASD52_08105	Unknown	DXS-RXN
ASD52_07520	Unknown	CARBOXYMETHYLENEBUTENOLIDASE-RXN;DIENELACHYDRO-RXN;RXN-9857;RXN-9868;RXN-9887;RXN-9890
ASD52_02445	Unknown	L-GLN-FRUCT-6-P-AMINOTRANS-RXN
ASD52_13465	Unknown	1.3.99.16-RXN
ASD52_03680	Unknown	ATPASE-RXN
ASD52_04675	Unknown	DTDPDEHYDRHAMEPIM-RXN
ASD52_18750	Unknown	RIBOFLAVIN-SYN-RXN
ASD52_20435	gltD	GLUTAMATESYN-RXN;GLUTAMIN-RXN;GLUTDEHYD-RXN
ASD52_11250	Unknown	UNSPECIFIC-MONOOXYGENASE-RXN
ASD52_07730	Unknown	KDOTRANS-RXN
ASD52_09185	Unknown	1.5.5.1-RXN;RXN66-550
ASD52_19240	Unknown	LYSDECARBOX-RXN
ASD52_15065	Unknown	GLUTRACE-RXN
ASD52_15015	Unknown	PRODISULFREDUCT-RXN;RXN0-7271
ASD52_23750	Unknown	GLUCOKIN-RXN;HEXOKINASE-RXN
ASD52_02845	Unknown	PHOSGLYPHOS-RXN
ASD52_19545	Unknown	GUANPRIBOSYLTRAN-RXN;HYPOXANPRIBOSYLTRAN-RXN
ASD52_35235	Unknown	GLUCISOM-RXN;XYLISOM-RXN
ASD52_18785	Unknown	PORPHOBILSYNTH-RXN
ASD52_35260	Unknown	GLYCERATE-DEHYDROGENASE-RXN;HYDROXYPYRUVATE-REDUCTASE-RXN;RXN0-300
ASD52_12510	Unknown	RIBULOSE-BISPHOSPHATE-CARBOXYLASE-RXN
ASD52_16915	Unknown	GLUCOSE-1-DEHYDROGENASE-RXN
ASD52_35330	Unknown	GLYOXIII-RXN
ASD52_20365	Unknown	PABASYN-RXN
ASD52_02135	Unknown	3.2.1.17-RXN
ASD52_22090	Unknown	QUERCETIN-23-DIOXYGENASE-RXN
ASD52_10940	Unknown	RXN-8505
ASD52_11395	Unknown	DIHYDROFOLATESYNTH-RXN;FOLYLPOLYGLUTAMATESYNTH-RXN;FORMYLTHFGLUSYNTH-RXN;RXN-6341;RXN0-2921
ASD52_02880	Unknown	RXN0-5100
ASD52_03125	Unknown	RXN-9387;RXN-9781
ASD52_18230	pyrB	ASPCARBTRANS-RXN
ASD52_04125	Unknown	3-HYDROXY-KYNURENINASE-RXN;KYNURENINASE-RXN
ASD52_20045	Unknown	UDPGLUCEPIM-RXN
ASD52_28130	Unknown	3.1.1.69-RXN
ASD52_03440	araH	3.6.3.17-RXN;TRANS-RXN-320
ASD52_08140	Unknown	ACYLCOASYN-RXN;LINOLENOYL-RXN;R223-RXN;RXN-12184;RXN-12978;RXN-13290;RXN-13614;RXN-16380;RXN-16389;RXN-16393;RXN-16401;RXN-16402;RXN-16415;RXN-16418;RXN-7904;RXN-9623;RXN-9644;RXN-9673;RXN0-7238;RXN0-7239;RXN0-7248;RXN66-469;RXN66-477;RXN66-480;RXN66-483;RXN66-484;TRANS-RXN0-623
ASD52_31800	Unknown	1.2.1.25-RXN;1.2.4.4-RXN;2.3.1.168-RXN;2KETO-3METHYLVALERATE-RXN;2KETO-4METHYL-PENTANOATE-DEHYDROG-RXN;ISOVALERYLCOA-DHLIPOAMIDE-RXN;KETOISOCAPROATE-RXN;MBCOA-DHLIPOAMIDE-RXN;METHYLVALERATE-RXN;RXN-7719
ASD52_01075	Unknown	NITRILE-HYDRATASE-RXN;R310-RXN;R313-RXN;RXN-14725;RXN-14726;RXN-17609;RXN-7567
ASD52_07195	Unknown	6PGLUCONOLACT-RXN
ASD52_08540	Unknown	CHD-RXN;RXN0-7230
ASD52_01265	Unknown	4.3.1.17-RXN;RXN-15122;RXN-15125;THREDEHYD-RXN
ASD52_11660	purH	AICARTRANSFORM-RXN;IMPCYCLOHYDROLASE-RXN
ASD52_15880	Unknown	3.2.1.25-RXN
ASD52_24940	Unknown	ATPASE-RXN
ASD52_08235	Unknown	CYTOCHROME-C-OXIDASE-RXN;RXN-15830
ASD52_25920	Unknown	1-PHOSPHATIDYLINOSITOL-KINASE-RXN
ASD52_16990	Unknown	RXN-14971;RXN-15378;SUCCINATE-DEHYDROGENASE-UBIQUINONE-RXN
ASD52_19415	Unknown	UGD-RXN
ASD52_33145	Unknown	POLYNUCLEOTIDE-ADENYLYLTRANSFERASE-RXN
ASD52_18250	Unknown	5.99.1.2-RXN
ASD52_15275	Unknown	HYDROXY-MANDELATE-RACEMASE-RXN;MANDELATE-RACEMASE-RXN
ASD52_15030	Unknown	MYO-INOSITOL-1OR-4-MONOPHOSPHATASE-RXN;RXN-7253;RXN0-5408
ASD52_12455	Unknown	5.3.1.17-RXN
ASD52_11485	gabD	RXN0-5293;SUCCINATE-SEMIALDEHYDE-DEHYDROGENASE-RXN
ASD52_19805	Unknown	FORMIMINOGLUTAMATE-DEIMINASE-RXN
ASD52_32520	Unknown	HYDROXY-MANDELATE-RACEMASE-RXN;MANDELATE-RACEMASE-RXN
ASD52_12375	Unknown	3-OXOACYL-ACP-REDUCT-RXN;RXN-10060;RXN-10655;RXN-10659;RXN-11476;RXN-11480;RXN-13008;RXN-16616;RXN-16622;RXN-16626;RXN-16630;RXN-9514;RXN-9518;RXN-9524;RXN-9528;RXN-9532;RXN-9536;RXN-9540;RXN-9552;RXN-9556;RXN-9633;RXN0-2142;RXN1G-157;RXN1G-349;RXN1G-469;RXN1G-508
ASD52_29190	Unknown	GLYCERATE-DEHYDROGENASE-RXN;HYDROXYPYRUVATE-REDUCTASE-RXN;RXN0-300
ASD52_31730	Unknown	2.1.1.132-RXN;RXN-13824;RXN-13826
ASD52_03445	araG	3.6.3.17-RXN;TRANS-RXN-320
ASD52_36385	Unknown	RXN0-5131
ASD52_11655	Unknown	4.2.2.7-RXN
ASD52_18405	Unknown	1.6.99.5-RXN;NADH-DEHYDROGENASE-QUINONE-RXN
ASD52_27605	Unknown	NANE-RXN
ASD52_30785	Unknown	AMINOGLYCOSIDE-N6-ACETYLTRANSFERASE-RXN
ASD52_29055	Unknown	ALARACECAT-RXN
ASD52_30615	Unknown	RXN-11109
ASD52_20210	Unknown	ADENYLATECYC-RXN
ASD52_08510	Unknown	RXN-12720;SULFATE-ADENYLYLTRANS-RXN
ASD52_08505	Unknown	RXN-12720;SULFATE-ADENYLYLTRANS-RXN
ASD52_25085	Unknown	2.7.13.3-RXN
ASD52_10255	Unknown	ACETYL-COA-HYDROLASE-RXN
ASD52_22250	Unknown	GLUCONOKIN-RXN
ASD52_04300	Unknown	RXN-17956;RXN0-6734
ASD52_00775	Unknown	3.4.11.1-RXN
ASD52_30680	Unknown	3.5.2.17-RXN
ASD52_17055	Unknown	GLUTAMIN-RXN;GMP-SYN-GLUT-RXN;GMP-SYN-NH3-RXN
ASD52_35175	Unknown	MYO-INOSITOL-2-DEHYDROGENASE-RXN
ASD52_21010	Unknown	2.7.13.3-RXN
ASD52_34725	Unknown	DHSHIKIMATE-DEHYDRO-RXN
ASD52_16560	Unknown	DIHYDROOROT-RXN
ASD52_32345	Unknown	RXN0-5462
ASD52_33275	Unknown	FMNREDUCT-RXN;NADPH-DEHYDROGENASE-FLAVIN-RXN;RXN-12444
ASD52_04900	Unknown	3.1.11.6-RXN
ASD52_18480	Unknown	ALKAPHOSPHA-RXN;RXN-5822;RXN-8748
ASD52_00710	Unknown	UDPACYLGLCNACDEACETYL-RXN
ASD52_14825	Unknown	RXN-12587;RXN-12588;RXN-14382;RXN-14385;RXN-15881;RXN-9787;RXN0-308
ASD52_17155	obgE	RXN0-5462
ASD52_00450	Unknown	N-FORMYLGLUTAMATE-DEFORMYLASE-RXN
ASD52_32240	Unknown	3-DEHYDROQUINATE-DEHYDRATASE-RXN
ASD52_18300	Unknown	DNA-DIRECTED-DNA-POLYMERASE-RXN
ASD52_05285	Unknown	5-DEHYDRO-2-DEOXYGLUCONOKINASE-RXN
ASD52_35255	Unknown	PYRIDOXAL-4-DEHYDROGENASE-RXN
ASD52_13175	Unknown	DIHYDRODIPICSYN-RXN
ASD52_30140	Unknown	2.1.1.77-RXN
ASD52_29450	Unknown	GSHTRAN-RXN;GST-RXN;RXN-11663;RXN-13673;RXN-15680;RXN-18405;RXN-18407;RXNQT-4363
ASD52_11625	Unknown	R103-RXN
ASD52_00015	Unknown	METHIONINE-GAMMA-LYASE-RXN;RXN-14301
ASD52_30045	Unknown	MANNPISOM-RXN
ASD52_10510	Unknown	FPPSYN-RXN;GPPSYN-RXN
ASD52_19955	Unknown	PGLYCDEHYDROG-RXN
ASD52_17240	Unknown	CITLY-RXN;CITRYLY-RXN;CITTRANS-RXN
ASD52_29605	Unknown	FUMARYLACETOACETASE-RXN
ASD52_10550	Unknown	RXN-13853
ASD52_04030	Unknown	RXN-12093
ASD52_08180	Unknown	PMPOXI-RXN;PNPOXI-RXN
ASD52_24415	Unknown	NADPYROPHOSPHAT-RXN;RXN0-4401
ASD52_05835	Unknown	MERCURY-II-REDUCTASE-RXN
ASD52_34325	Unknown	ASPARTATEKIN-RXN
ASD52_34090	Unknown	GABATRANSAM-RXN;RXN-2901
ASD52_27660	Unknown	ISOCIT-CLEAV-RXN
ASD52_16460	Unknown	RXN-9387;RXN-9781
ASD52_11695	Unknown	ALKAPHOSPHA-RXN;RXN-5822;RXN-8748
ASD52_34295	Unknown	1.5.1.9-RXN
ASD52_14975	Unknown	FGAMSYN-RXN
ASD52_23120	Unknown	PYRROLINECARBREDUCT-RXN;RXN66-546
ASD52_33830	Unknown	1.5.1.19-RXN
ASD52_19000	ndk	CDPKIN-RXN;DADPKIN-RXN;DCDPKIN-RXN;DGDPKIN-RXN;DTDPKIN-RXN;DUDPKIN-RXN;GDPKIN-RXN;NUCLEOSIDE-DIP-KIN-RXN;RXN-14120;RXN-14228;UDPKIN-RXN
ASD52_27665	Unknown	RXN0-5131
ASD52_21580	Unknown	ATPASE-RXN
ASD52_31745	Unknown	2.1.1.130-RXN
ASD52_08115	Unknown	3.1.11.6-RXN
ASD52_07810	Unknown	DEHYDDEOXPHOSGALACT-ALDOL-RXN
ASD52_34425	Unknown	GLUTAMATE-N-ACETYLTRANSFERASE-RXN;N-ACETYLTRANSFER-RXN;RXN0-6948
ASD52_00660	Unknown	NACGLCTRANS-RXN;RXN-8976
ASD52_26095	Unknown	GPPSYN-RXN
ASD52_28875	Unknown	RXN0-5268
ASD52_12025	Unknown	3.11.1.2-RXN
ASD52_21490	Unknown	GUANINE-DEAMINASE-RXN;RXN-15261
ASD52_08195	Unknown	ENOYL-ACP-REDUCT-NADPH-RXN;RXN-9515;RXN-9521;RXN-9526;RXN-9530;RXN-9534;RXN-9538;RXN-9542;RXN3O-5293
ASD52_14305	Unknown	DIHYDRODIPICSYN-RXN
ASD52_18505	clpP	3.4.21.92-RXN
ASD52_05980	Unknown	ACYLCOASYN-RXN;LINOLENOYL-RXN;R223-RXN;RXN-12184;RXN-12978;RXN-13290;RXN-13614;RXN-16380;RXN-16389;RXN-16393;RXN-16401;RXN-16402;RXN-16415;RXN-16418;RXN-7904;RXN-9623;RXN-9644;RXN-9673;RXN0-7238;RXN0-7239;RXN0-7248;RXN66-469;RXN66-477;RXN66-480;RXN66-483;RXN66-484;TRANS-RXN0-623
ASD52_07555	Unknown	NUCLEOTIDE-PYROPHOSPHATASE-RXN
ASD52_31735	Unknown	RXN-8765
ASD52_24900	Unknown	URACIL-PRIBOSYLTRANS-RXN
ASD52_05570	Unknown	URITRANS-RXN
ASD52_05840	Unknown	1.8.1.4-RXN;2OXOGLUTARATEDEH-RXN;2OXOGLUTDECARB-RXN;RXN-7716;RXN-7719;RXN-8629;RXN0-1132;RXN0-1147
ASD52_06320	Unknown	UDPGLUCEPIM-RXN
ASD52_26690	Unknown	DIHYDROPYRIMIDINASE-RXN;RXN-11211;RXN-11217
ASD52_29715	Unknown	HYDROXY-MANDELATE-RACEMASE-RXN;MANDELATE-RACEMASE-RXN
ASD52_21955	Unknown	DIHYDROPYRIMIDINASE-RXN;RXN-11211;RXN-11217
ASD52_12415	Unknown	PROTEIN-TYROSINE-PHOSPHATASE-RXN
ASD52_18885	Unknown	POLYPHOSPHATE-KINASE-RXN
ASD52_07890	Unknown	3.1.26.4-RXN
ASD52_04790	Unknown	THIAZOLSYN3-RXN
ASD52_10005	Unknown	3.1.11.2-RXN
ASD52_07670	Unknown	FADSYN-RXN;RIBOFLAVINKIN-RXN;RXN-18510;RXN-18511
ASD52_18345	Unknown	METHYLMALONYL-COA-EPIM-RXN;RXN-16391
ASD52_04435	Unknown	RXN0-5131
ASD52_18435	Unknown	1.6.99.5-RXN;NADH-DEHYDROGENASE-QUINONE-RXN
ASD52_27910	Unknown	ALPHAGALACTOSID-RXN;MALTODEXGLUCOSID-RXN;RXN-11501;RXN-11502;RXN-12088;RXN-14281;RXN-14282;RXN-14283;RXN-15910;RXN-17754;RXN-17830;RXN0-5183
ASD52_01690	Unknown	RXN0-5131
ASD52_33360	Unknown	GSHTRAN-RXN;GST-RXN;RXN-11663;RXN-13673;RXN-15680;RXN-18405;RXN-18407;RXNQT-4363
ASD52_14600	Unknown	CARBPSYN-RXN;GLUTAMIN-RXN;RXN-13202;RXN-14196;RXN-16909;RXN-16910
ASD52_18015	Unknown	CITSYN-RXN
ASD52_22445	Unknown	GLUTAMINESYN-RXN
ASD52_10110	pyrH	RXN-12002
ASD52_09815	Unknown	HOMOSERDEHYDROG-RXN
ASD52_21075	Unknown	GABATRANSAM-RXN;RXN-2901
ASD52_10335	Unknown	RXN0-1281
ASD52_00070	Unknown	DIMETHYLGLYCINE-DEHYDROGENASE-RXN
ASD52_32980	Unknown	ATPASE-RXN
ASD52_01400	Unknown	GUANYLCYC-RXN
ASD52_33430	Unknown	GUANYLCYC-RXN
ASD52_03170	Unknown	RXN1A0-6303
ASD52_22265	Unknown	RXN-14364;RXN-14365
ASD52_34555	Unknown	RXN-2364
ASD52_00285	Unknown	UROCANATE-HYDRATASE-RXN
ASD52_34695	Unknown	DIHYDRODIPICSYN-RXN
ASD52_32035	Unknown	RXN0-5131
ASD52_11305	Unknown	PANTOTHENATE-KIN-RXN
ASD52_01395	Unknown	GUANYLCYC-RXN
ASD52_11340	Unknown	2.7.13.3-RXN
ASD52_23060	Unknown	GSHTRAN-RXN;GST-RXN;RXN-11663;RXN-13673;RXN-15680;RXN-18405;RXN-18407;RXNQT-4363
ASD52_15590	Unknown	COBALAMIN5PSYN-RXN;COBALAMINSYN-RXN;RXN-19296;RXN-19297;RXN-19302;RXN-19303;RXN-19304;RXN-19305;RXN-19307;RXN-19308
ASD52_05845	Unknown	2.7.13.3-RXN
ASD52_09225	Unknown	DNA-DIRECTED-DNA-POLYMERASE-RXN
ASD52_07990	Unknown	GLYRIBONUCSYN-RXN
ASD52_04395	Unknown	ACYLCOADEHYDROG-RXN;RXN-17775;RXN-17779;RXN-17783;RXN-17784;RXN-17788;RXN-17792;RXN-17796
ASD52_10410	Unknown	KDO-8PSYNTH-RXN
ASD52_33000	Unknown	PYRROLINECARBREDUCT-RXN;RXN66-546
ASD52_03255	Unknown	QOR-RXN
ASD52_14910	Unknown	RXN-8505
ASD52_08290	Unknown	3.1.26.4-RXN
ASD52_31440	Unknown	CHLOROMALERED-RXN;MALEYLACETATE-REDUCTASE-RXN;RXN-9885;RXN-9891
ASD52_32050	Unknown	GLUCONOLACT-RXN;RXN-8783
ASD52_08845	Unknown	RXN0-6373
ASD52_00620	Unknown	RXN-11638
ASD52_11725	Unknown	3-ISOPROPYLMALDEHYDROG-RXN;RXN-13158;RXN-14986;RXN-18200;RXN-18202;RXN-18204;RXN-18206;RXN-18208;RXN-18210;RXNQT-4165;RXNQT-4168;RXNQT-4171;RXNQT-4174;RXNQT-4178
ASD52_32430	Unknown	RXN-13418;RXN-15341;RXN0-280;RXN0-6973
ASD52_20615	Unknown	GLUC1PADENYLTRANS-RXN
ASD52_02790	Unknown	RXN-12134;RXN-12140;RXN-12141;RXN-12142
ASD52_27405	Unknown	RXNN-386
ASD52_27825	Unknown	RXN0-5131
ASD52_19410	Unknown	UDP-GLUCURONATE-5-EPIMERASE-RXN
ASD52_14475	Unknown	RXN0-2601
ASD52_14580	Unknown	RXN1A0-6303
ASD52_19110	Unknown	2.3.1.179-RXN;2.3.1.41-RXN;3-OXOACYL-ACP-SYNTH-BASE-RXN;3-OXOACYL-ACP-SYNTH-RXN;RXN-10654;RXN-10658;RXN-11474;RXN-11479;RXN-16615;RXN-16621;RXN-16625;RXN-16629;RXN-8391;RXN-9516;RXN-9523;RXN-9527;RXN-9531;RXN-9535;RXN-9539;RXN0-2141;RXN1G-460;RXN3O-1803
ASD52_17165	proA	GLUTSEMIALDEHYDROG-RXN
ASD52_09345	sseA	MERCAPYSTRANS-RXN;RXN-18702;RXN-18703;RXN0-6945
ASD52_30480	Unknown	RXN0-5131
ASD52_31230	Unknown	1.13.11.15-RXN
ASD52_31285	Unknown	ATPASE-RXN
ASD52_30650	Unknown	D-AMINO-ACID-OXIDASE-RXN;RXN-8163
ASD52_20395	Unknown	3-NUCLEOTID-RXN;5-NUCLEOTID-RXN;AMP-DEPHOSPHORYLATION-RXN;CYCPHOSDIESTER-RXN;RXN-14025;RXN-14026;RXN-14064;RXN-14090;RXN-14091;RXN-14112;RXN-14113;RXN-14115;RXN-14124;RXN-14126;RXN-14227;RXN-5841;RXN-7607;RXN-7609;XMPXAN-RXN
ASD52_17670	Unknown	ACETYL-COA-ACETYLTRANSFER-RXN;METHYLACETOACETYLCOATHIOL-RXN;RXN-12561
ASD52_33040	Unknown	PRPPSYN-RXN
ASD52_08940	Unknown	ADOMET-DMK-METHYLTRANSFER-RXN
ASD52_24920	Unknown	CYTIDEAM-RXN;CYTIDEAM2-RXN
ASD52_29510	Unknown	3.4.11.19-RXN
ASD52_14660	Unknown	12-OXOPHYTODIENOATE-REDUCTASE-RXN
ASD52_05975	Unknown	PGLUCISOM-RXN
ASD52_16895	Unknown	RXN0-5100
ASD52_29410	Unknown	4.2.1.41-RXN
ASD52_19255	Unknown	3.4.11.5-RXN
ASD52_08645	Unknown	GSHTRAN-RXN;GST-RXN;RXN-11663;RXN-13673;RXN-15680;RXN-18405;RXN-18407;RXNQT-4363
ASD52_09885	Unknown	TRNA-URACIL-5--METHYLTRANSFERASE-RXN
ASD52_03195	Unknown	2.7.13.3-RXN
ASD52_29595	Unknown	GLUTATHIONE-REDUCT-NADPH-RXN
ASD52_36495	Unknown	3-HYDROXYBUTYRYL-COA-DEHYDROGENASE-RXN
ASD52_33090	Unknown	AMINOCYL-TRNA-HYDROLASE-RXN;RXN-16637
ASD52_11475	Unknown	MANNONOXIDOREDUCT-RXN
ASD52_02680	Unknown	DCTP-DEAM-RXN;RXN-14118
ASD52_08295	Unknown	R4-RXN
ASD52_20155	Unknown	1TRANSKETO-RXN;2TRANSKETO-RXN
ASD52_32445	Unknown	GLUTAMIN-RXN;GMP-SYN-GLUT-RXN;GMP-SYN-NH3-RXN
ASD52_23175	Unknown	TRANS-RXN-298
ASD52_05760	Unknown	2-HALOACID-DEHALOGENASE-RXN;3.8.1.11-RXN;RXN-6263;RXN-6264
ASD52_18810	Unknown	5.99.1.2-RXN
ASD52_24285	Unknown	RXN-9655
ASD52_04035	Unknown	4.2.3.12-RXN
ASD52_15860	Unknown	RXN0-5410
ASD52_22355	Unknown	MYO-INOSITOL-1OR-4-MONOPHOSPHATASE-RXN;RXN-7253;RXN0-5408
ASD52_15415	Unknown	RIB5PISOM-RXN
ASD52_10445	Unknown	CTPSYN-RXN;GLUTAMIN-RXN;RXN-14325
ASD52_15125	Unknown	RXN-17131;RXN-17132;RXN-17133
ASD52_06420	Unknown	7KAPSYN-RXN;RXN-11484
ASD52_18900	Unknown	AIRS-RXN
ASD52_19570	Unknown	RXN-9591
ASD52_23840	Unknown	2.4.1.36-RXN;RXN-761;TREHALOSE6PSYN-RXN
ASD52_08075	Unknown	ACYLCOADEHYDROG-RXN;RXN-17775;RXN-17779;RXN-17783;RXN-17784;RXN-17788;RXN-17792;RXN-17796
ASD52_01160	Unknown	ASPARTATE-RACEMASE-RXN
ASD52_13260	Unknown	KDUD-RXN
ASD52_09600	Unknown	2.7.8.24-RXN
ASD52_16585	Unknown	GLYOXIII-RXN
ASD52_15560	Unknown	RXN0-2584
ASD52_02380	Unknown	CHLORIDE-PEROXIDASE-RXN
ASD52_09465	glnA	GLUTAMINESYN-RXN
ASD52_25605	Unknown	5.99.1.2-RXN
ASD52_01025	Unknown	ACETOLACTSYN-RXN;ACETOOHBUTSYN-RXN
ASD52_06010	Unknown	2.7.13.3-RXN
ASD52_23330	Unknown	CYTOCHROME-C-OXIDASE-RXN;RXN-15830
ASD52_03990	Unknown	5.5.1.2-RXN
ASD52_05510	Unknown	3.4.21.92-RXN
ASD52_04275	Unknown	PEPTIDYLPROLYL-ISOMERASE-RXN
ASD52_20160	gapA	GAPOXNPHOSPHN-RXN
ASD52_24340	Unknown	2.7.13.3-RXN
ASD52_15765	Unknown	RXN0-1281
ASD52_17585	Unknown	ARGSUCCINSYN-RXN;RXN-10
ASD52_31815	Unknown	ACETYL-COA-ACETYLTRANSFER-RXN;METHYLACETOACETYLCOATHIOL-RXN;RXN-12561
ASD52_06305	Unknown	2.7.13.3-RXN
ASD52_31790	Unknown	D-AMINO-ACID-OXIDASE-RXN;RXN-8163
ASD52_05475	Unknown	2.7.13.3-RXN
ASD52_33460	Unknown	SUCCINATE-SEMIALDEHYDE-DEHYDROGENASE-RXN
ASD52_31725	Unknown	2.1.1.133-RXN
ASD52_08270	Unknown	CYTOCHROME-C-OXIDASE-RXN;RXN-15830
ASD52_00375	Unknown	N-ACYLMANNOSAMINE-1-DEHYDROGENASE-RXN
ASD52_00235	Unknown	ACYLCOADEHYDROG-RXN;RXN-17775;RXN-17779;RXN-17783;RXN-17784;RXN-17788;RXN-17792;RXN-17796
ASD52_13475	Unknown	1.3.99.16-RXN
ASD52_12155	Unknown	RXN-8668
ASD52_22565	Unknown	GLYCERATE-DEHYDROGENASE-RXN;HYDROXYPYRUVATE-REDUCTASE-RXN;RXN0-300
ASD52_30180	Unknown	3.1.26.4-RXN
ASD52_22815	Unknown	R4-RXN
ASD52_10385	Unknown	1.2.4.4-RXN;2.3.1.168-RXN;KETOISOCAPROATE-RXN;METHYLVALERATE-RXN;RXN-7790
ASD52_05995	Unknown	ATPASE-RXN
ASD52_10075	Unknown	3-HYDROXYDECANOYL-ACP-DEHYDR-RXN
ASD52_00750	Unknown	PANTOATE-BETA-ALANINE-LIG-RXN
ASD52_18725	Unknown	LUMAZINESYN-RXN
ASD52_30695	Unknown	GUANINE-DEAMINASE-RXN;RXN-15261
ASD52_07310	Unknown	ADENYLATECYC-RXN
ASD52_05030	guaA	GLUTAMIN-RXN;GMP-SYN-GLUT-RXN;GMP-SYN-NH3-RXN
ASD52_16050	Unknown	R341-RXN;RXN-14256;RXN-14257;RXN-8769
ASD52_19670	Unknown	RXN0-5100
ASD52_25990	Unknown	ISOCHORMAT-RXN
ASD52_24910	Unknown	THYM-PHOSPH-RXN
ASD52_21950	Unknown	DIHYDROPYRIMIDINASE-RXN;RXN-11211;RXN-11217
ASD52_36005	Unknown	S-FORMYLGLUTATHIONE-HYDROLASE-RXN
ASD52_11800	Unknown	4.2.2.3-RXN
ASD52_32410	tauB	3.6.3.36-RXN;ABC-64-RXN
ASD52_05270	Unknown	RXN-14150
ASD52_00755	Unknown	3-CH3-2-OXOBUTANOATE-OH-CH3-XFER-RXN;RXN-15635
ASD52_15965	Unknown	CYTOCHROME-C-OXIDASE-RXN;RXN-15830
ASD52_16645	Unknown	KANAMYCIN-KINASE-RXN
ASD52_23270	Unknown	GLUCONATE-5-DEHYDROGENASE-RXN
ASD52_19175	Unknown	RXN0-4261
ASD52_30535	Unknown	RXN0-2601
ASD52_21770	nadE	NAD-SYNTH-NH3-RXN
ASD52_12410	Unknown	ACID-PHOSPHATASE-RXN;RXN-5822
ASD52_06045	Unknown	2-NITROPROPANE-DIOXYGENASE-RXN
ASD52_10455	Unknown	TRIOSEPISOMERIZATION-RXN
ASD52_34645	Unknown	4-HYDROXYPROLINE-EPIMERASE-RXN
ASD52_28520	Unknown	3.1.2.23-RXN
ASD52_10280	Unknown	DIMETHUROPORDEHYDROG-RXN;SIROHEME-FERROCHELAT-RXN;UROPORIIIMETHYLTRANSA-RXN
ASD52_00920	Unknown	THYMIDYLATESYN-RXN
ASD52_16335	Unknown	2-OCTAPRENYL-6-OHPHENOL-METHY-RXN;DHHB-METHYLTRANSFER-RXN
ASD52_15365	Unknown	NAD-SYNTH-GLN-RXN;NAD-SYNTH-NH3-RXN
ASD52_16975	Unknown	RXN-14971;RXN-15378;SUCCINATE-DEHYDROGENASE-UBIQUINONE-RXN
ASD52_24325	Unknown	2.7.7.8-RXN
ASD52_20420	Unknown	GLUC1PURIDYLTRANS-RXN
ASD52_25090	Unknown	ADENYLATECYC-RXN
ASD52_25385	Unknown	RXN-9380
ASD52_21995	Unknown	ACETYLHOMOSER-CYS-RXN;O-ACETYLHOMOSERINE-THIOL-LYASE-RXN
ASD52_15110	Unknown	2.7.13.3-RXN
ASD52_19440	Unknown	GLYCPDIESTER-RXN;RXN-14073;RXN-14136;RXN-14160
ASD52_17920	Unknown	GUANYLCYC-RXN
ASD52_14980	Unknown	FGAMSYN-RXN
ASD52_04070	Unknown	3.1.2.23-RXN
ASD52_09190	Unknown	RXN0-5131
ASD52_17075	Unknown	INORGPYROPHOSPHAT-RXN
ASD52_19960	Unknown	PSERTRANSAM-RXN;PSERTRANSAMPYR-RXN
ASD52_33640	Unknown	2.7.13.3-RXN
ASD52_22195	Unknown	ENOYL-COA-HYDRAT-RXN;METHYLACYLYLCOA-HYDROXY-RXN;RXN-10697;RXN-10704;RXN-10705;RXN-11244;RXN-12567;RXN-13616;RXN-14266;RXN-14272;RXN-14273;RXN-16135;RXN-16558;RXN-17114;RXN-17475;RXN-17776;RXN-17780;RXN-17785;RXN-17789;RXN-17793;RXN-17797;RXN-2425;RXN0-5393;TIGLYLCOA-HYDROXY-RXN
ASD52_27095	Unknown	CYTOCHROME-C-OXIDASE-RXN
ASD52_03475	Unknown	DIHYDRODIPICSYN-RXN
ASD52_22790	Unknown	2.7.13.3-RXN
ASD52_10360	Unknown	RXN-14950;RXN-14957;RXN-14959;RXN0-949
ASD52_34390	Unknown	3.5.5.1-RXN;RXN-1404;RXN-17607;RXN-18229
ASD52_08900	Unknown	GSHTRAN-RXN;GST-RXN;RXN-11663;RXN-13673;RXN-15680;RXN-18405;RXN-18407;RXNQT-4363
ASD52_05035	Unknown	ADENOSYLHOMOCYSTEINE-NUCLEOSIDASE-RXN;METHYLTHIOADENOSINE-NUCLEOSIDASE-RXN
ASD52_18310	Unknown	DNA-DIRECTED-DNA-POLYMERASE-RXN
ASD52_07625	hisZ	ATPPHOSPHORIBOSYLTRANS-RXN
ASD52_14905	Unknown	ATPASE-RXN
ASD52_24295	Unknown	ENOYL-ACP-REDUCT-NADH-RXN;RXN-10062;RXN-10657;RXN-10661;RXN-11478;RXN-11482;RXN-16620;RXN-16624;RXN-16628;RXN-16632;RXN-9558;RXN-9635;RXN-9657;RXN-9658;RXN-9659;RXN-9660;RXN-9661;RXN-9662;RXN-9663;RXN0-2145;RXN1G-395;RXN1G-488;RXN1G-526
ASD52_23070	Unknown	ATPASE-RXN
ASD52_09105	Unknown	2.7.13.3-RXN
ASD52_00240	Unknown	OHACYL-COA-DEHYDROG-RXN;RXN-10698;RXN-10702;RXN-10703;RXN-11245;RXN-11662;RXN-12490;RXN-12570;RXN-12705;RXN-12750;RXN-16133;RXN-17777;RXN-17781;RXN-17786;RXN-17790;RXN-17794;RXN-17798;RXN0-2044
ASD52_20530	Unknown	DIHYDROXYISOVALDEHYDRAT-RXN;DIHYDROXYMETVALDEHYDRAT-RXN
ASD52_19785	Unknown	N-FORMYLGLUTAMATE-DEFORMYLASE-RXN
ASD52_17690	Unknown	GSHTRAN-RXN;GST-RXN;RXN-11663;RXN-13673;RXN-15680;RXN-18405;RXN-18407;RXNQT-4363
ASD52_15920	Unknown	CYTOCHROME-C-OXIDASE-RXN;RXN-15830
ASD52_28265	Unknown	7KAPSYN-RXN
ASD52_31325	Unknown	GLYOXIII-RXN
ASD52_16475	Unknown	ADENYLATECYC-RXN
ASD52_32990	Unknown	PROTEIN-TYROSINE-PHOSPHATASE-RXN
ASD52_02875	Unknown	RXN0-4261
ASD52_10435	Unknown	PHOSPHAGLYPSYN-RXN
ASD52_03495	Unknown	ATPASE-RXN
ASD52_06330	Unknown	RXN0-5268
ASD52_23130	Unknown	R502-RXN
ASD52_04255	Unknown	GLUCISOM-RXN;XYLISOM-RXN
ASD52_29870	Unknown	3-HYDROXYISOBUTYRATE-DEHYDROGENASE-RXN
ASD52_31455	Unknown	RXN-10075
ASD52_21140	Unknown	PRPPSYN-RXN
ASD52_22840	Unknown	NQOR-RXN
ASD52_26370	Unknown	ALARACECAT-RXN
ASD52_24545	Unknown	N-ACETYLGLUCOSAMINE-KINASE-RXN
ASD52_04405	Unknown	3-HYDROXYISOBUTYRATE-DEHYDROGENASE-RXN
ASD52_10875	Unknown	ACYLCOADEHYDROG-RXN;RXN-17775;RXN-17779;RXN-17783;RXN-17784;RXN-17788;RXN-17792;RXN-17796
ASD52_26130	Unknown	25-DIOXOVALERATE-DEHYDROGENASE-RXN;RXN-8775
ASD52_10425	Unknown	CDPDIGLYSYN-RXN;RXN0-5515
ASD52_01035	Unknown	CYTIDEAM-RXN;CYTIDEAM2-RXN
ASD52_24000	Unknown	GLYOXIII-RXN
ASD52_00390	Unknown	ERYTH4PDEHYDROG-RXN
ASD52_05865	Unknown	RXN1A0-6303
ASD52_32855	Unknown	RXN0-5021
ASD52_07980	Unknown	ADENPHOSPHOR-RXN;DEOXYADENPHOSPHOR-RXN;DEOXYGUANPHOSPHOR-RXN;DEOXYINOPHOSPHOR-RXN;INOPHOSPHOR-RXN;PNP-RXN;RXN-11715;RXN-11743;RXN-14029;RXN-7001;RXN0-5199;XANTHOSINEPHOSPHORY-RXN
ASD52_24520	Unknown	N-ACETYLGLUCOSAMINE-KINASE-RXN
ASD52_05200	Unknown	ACSERLY-RXN;RXN-12726
ASD52_31595	Unknown	GLUCISOM-RXN;XYLISOM-RXN
ASD52_15400	Unknown	DAHPSYN-RXN
ASD52_01650	Unknown	R4-RXN
ASD52_22530	Unknown	3-OXOACYL-ACP-REDUCT-RXN
ASD52_07200	Unknown	GLU6PDEHYDROG-RXN
ASD52_07245	Unknown	ISOCIT-CLEAV-RXN
ASD52_17695	Unknown	RXN-16650
ASD52_10260	Unknown	1.18.1.2-RXN
ASD52_29980	Unknown	RXN-14014
ASD52_01170	Unknown	ISOCHORMAT-RXN
ASD52_19345	Unknown	QUINOLINATE-SYNTHA-RXN
ASD52_34375	Unknown	2-OCTAPRENYL-6-OHPHENOL-METHY-RXN;DHHB-METHYLTRANSFER-RXN
ASD52_16945	sucA	2-KETO-ADIPATE-DEHYDROG-RXN;2OXOGLUTARATEDEH-RXN;2OXOGLUTDECARB-RXN;RXN-7716;RXN0-1147
ASD52_20915	Unknown	CYTDEAM-RXN;RXN-14129;RXN-14197
ASD52_16965	Unknown	ATPASE-RXN
ASD52_17810	Unknown	2.6.1.18-RXN
ASD52_08325	Unknown	THRESYN-RXN
ASD52_35245	Unknown	3-OXOACYL-ACP-REDUCT-RXN
ASD52_24895	Unknown	ADDALT-RXN;ADENODEAMIN-RXN
ASD52_23835	Unknown	2-HALOACID-DEHALOGENASE-RXN
ASD52_17320	Unknown	2-OCTAPRENYL-6-METHOXYPHENOL-HYDROX-RXN
ASD52_14310	Unknown	DEHYDDEOXGALACTKIN-RXN
ASD52_09940	Unknown	RXN0-2161;SERINE--TRNA-LIGASE-RXN
ASD52_25840	Unknown	IMP-DEHYDROG-RXN
ASD52_10095	Unknown	CDPDIGLYSYN-RXN;RXN0-5515
ASD52_13015	Unknown	S-ADENOSYLHOMOCYSTEINE-DEAMINASE-RXN
ASD52_06285	Unknown	DIHYDROOROTATE-DEHYDROGENASE-RXN;RXN0-6491;RXN0-6554
ASD52_08240	Unknown	HEMEOSYN-RXN
ASD52_25350	Unknown	3.2.1.52-RXN;RXN-12625;RXN-12626;RXN-18082;RXN0-5226
ASD52_10650	Unknown	4.3.1.17-RXN;RXN-15125
ASD52_09145	Unknown	2.7.13.3-RXN
ASD52_21495	Unknown	RXN-12587;RXN-12588;RXN-14382;RXN-14385;RXN-15881;RXN-9787;RXN0-308
ASD52_22670	Unknown	DIHYDRODIPICSYN-RXN
ASD52_17545	Unknown	RXN-13908;RXN-7908
ASD52_29680	Unknown	3-OXOACYL-ACP-REDUCT-RXN;RXN-10060;RXN-10655;RXN-10659;RXN-11476;RXN-11480;RXN-13008;RXN-16616;RXN-16622;RXN-16626;RXN-16630;RXN-9514;RXN-9518;RXN-9524;RXN-9528;RXN-9532;RXN-9536;RXN-9540;RXN-9552;RXN-9556;RXN-9633;RXN0-2142;RXN1G-157;RXN1G-349;RXN1G-469;RXN1G-508
ASD52_26165	Unknown	SUCCINATE-SEMIALDEHYDE-DEHYDROGENASE-RXN
ASD52_20290	purE	RXN0-743
ASD52_28380	Unknown	GLUC1PURIDYLTRANS-RXN
ASD52_00850	Unknown	RXN0-4261
ASD52_09310	Unknown	DEOXYRIBODIPYRIMIDINE-PHOTOLYASE-RXN;RXN-19025;RXN-19026;RXN-19242;RXN-19243;RXN-19244;RXN-19245;RXN-19246;RXN-19247;RXN-19248
ASD52_30790	Unknown	ADDALT-RXN;ADENODEAMIN-RXN
ASD52_07665	Unknown	2-HALOACID-DEHALOGENASE-RXN;3.8.1.11-RXN;RXN-6263;RXN-6264
ASD52_22220	Unknown	RXN-14264;RXN0-2301
ASD52_22500	Unknown	DIHYDRODIPICSYN-RXN
ASD52_19660	Unknown	3-DEHYDROQUINATE-SYNTHASE-RXN
ASD52_14940	Unknown	AICARSYN-RXN;AMPSYN-RXN
ASD52_05540	Unknown	RXN-17362
ASD52_04680	Unknown	DTDPGLUCDEHYDRAT-RXN
ASD52_25820	Unknown	1.3.99.16-RXN
ASD52_24550	Unknown	RXN0-4641
ASD52_14065	Unknown	ADENYLATECYC-RXN
ASD52_28230	Unknown	3-OXOACYL-ACP-REDUCT-RXN
ASD52_31840	Unknown	HOMOGENTISATE-12-DIOXYGENASE-RXN
ASD52_15585	Unknown	DMBPPRIBOSYLTRANS-RXN;RXN-19295;RXN-19298;RXN-19299;RXN-19300;RXN-19301;RXN-19306
ASD52_17275	Unknown	HOMSUCTRAN-RXN
ASD52_11675	Unknown	PYRAMKIN-RXN
ASD52_27085	Unknown	CYTOCHROME-C-OXIDASE-RXN;RXN-15830
ASD52_24595	Unknown	FORMYLTHFDEFORMYL-RXN
ASD52_21705	Unknown	IMP-DEHYDROG-RXN
ASD52_05345	Unknown	3-OXOACYL-ACP-REDUCT-RXN;RXN-10060;RXN-10655;RXN-10659;RXN-11476;RXN-11480;RXN-13008;RXN-16616;RXN-16622;RXN-16626;RXN-16630;RXN-9514;RXN-9518;RXN-9524;RXN-9528;RXN-9532;RXN-9536;RXN-9540;RXN-9552;RXN-9556;RXN-9633;RXN0-2142;RXN1G-157;RXN1G-349;RXN1G-469;RXN1G-508
ASD52_09400	Unknown	2-HALOACID-DEHALOGENASE-RXN;3.8.1.11-RXN;RXN-6263;RXN-6264
ASD52_05450	Unknown	RXN0-6481;RXN0-6482;TRNA-NUCLEOTIDYLTRANSFERASE-RXN
ASD52_06210	Unknown	ACYLCOADEHYDROG-RXN;RXN-17775;RXN-17779;RXN-17783;RXN-17784;RXN-17788;RXN-17792;RXN-17796
ASD52_31765	Unknown	RXN0-2584
ASD52_32390	Unknown	PROTEIN-KINASE-RXN
ASD52_18605	Unknown	RXN-18399;RXN-18428;RXN-18430
ASD52_24435	Unknown	CPM-KDOSYNTH-RXN
ASD52_20845	Unknown	ADENYLATECYC-RXN
ASD52_32085	Unknown	CYSTATHIONINE-BETA-LYASE-RXN;RXN-15131
ASD52_29760	Unknown	ACYLCOADEHYDROG-RXN;RXN-17775;RXN-17779;RXN-17783;RXN-17784;RXN-17788;RXN-17792;RXN-17796
ASD52_16085	Unknown	BTUR2-RXN;COBALADENOSYLTRANS-RXN;R344-RXN
ASD52_15040	Unknown	GLUTAMIN-RXN
ASD52_33970	Unknown	GLUC1PURIDYLTRANS-RXN
ASD52_19520	Unknown	ARGSUCCINLYA-RXN;RXN-22
ASD52_16885	Unknown	ATPASE-RXN
ASD52_01015	Unknown	ATPASE-RXN
ASD52_15285	Unknown	LIPIDXSYNTHESIS-RXN
ASD52_19445	Unknown	RXN0-5462
ASD52_02870	Unknown	DNA-DIRECTED-DNA-POLYMERASE-RXN
ASD52_22230	Unknown	RXN-2043
ASD52_25575	Unknown	2.7.9.3-RXN
ASD52_11005	Unknown	RXN-13418;RXN-15341;RXN0-280;RXN0-6973
ASD52_20595	Unknown	2.3.2.13-RXN;RXN-19236
ASD52_05100	Unknown	GSHTRAN-RXN;GST-RXN;RXN-11663;RXN-13673;RXN-15680;RXN-18405;RXN-18407;RXNQT-4363
ASD52_21865	Unknown	ADENYLATECYC-RXN
ASD52_22020	Unknown	2-HALOACID-DEHALOGENASE-RXN
ASD52_16100	Unknown	2.7.1.156-RXN;COBINAMIDEKIN-RXN;RXN-14063
ASD52_04015	Unknown	SUPEROX-DISMUT-RXN
ASD52_00400	Unknown	TRIOSEPISOMERIZATION-RXN
ASD52_10080	Unknown	UDPHYDROXYMYRGLUCOSAMNACETYLTRANS-RXN
ASD52_11210	Unknown	ATPASE-RXN
ASD52_03365	Unknown	ATPASE-RXN
ASD52_11400	Unknown	ACETYL-COA-CARBOXYLTRANSFER-RXN;RXN0-5055
ASD52_18335	Unknown	PROLINE--TRNA-LIGASE-RXN
ASD52_10370	Unknown	1.8.1.4-RXN;2OXOGLUTARATEDEH-RXN;2OXOGLUTDECARB-RXN;RXN-7716;RXN-7719;RXN-8629;RXN0-1132;RXN0-1147
ASD52_29485	Unknown	3-OXOACYL-ACP-REDUCT-RXN
ASD52_20170	pgk	PHOSGLYPHOS-RXN
ASD52_03915	Unknown	2.1.1.77-RXN
ASD52_22870	Unknown	5-FORMYL-THF-CYCLO-LIGASE-RXN
ASD52_21465	Unknown	GLYCERATE-DEHYDROGENASE-RXN;HYDROXYPYRUVATE-REDUCTASE-RXN;RXN0-300
ASD52_08735	Unknown	RXN0-2441
ASD52_26210	Unknown	RXN0-5289;TSA-REDUCT-RXN
ASD52_09975	Unknown	3.2.1.52-RXN;RXN-12625;RXN-12626;RXN-18082;RXN0-5226
ASD52_17255	Unknown	3-ISOPROPYLMALISOM-RXN;RXN-13163;RXN-8991
ASD52_28515	Unknown	NUCLEOSIDE-DEOXYRIBOSYLTRANSFERASE-RXN
ASD52_17705	Unknown	HISTAMINOTRANS-RXN
ASD52_16105	Unknown	GUANYLCYC-RXN
ASD52_29020	Unknown	5.3.1.23-RXN
ASD52_15535	Unknown	2-OCTAPRENYL-6-OHPHENOL-METHY-RXN;DHHB-METHYLTRANSFER-RXN
ASD52_28220	Unknown	GSAAMINOTRANS-RXN
ASD52_03700	Unknown	3-OXOADIPATE-COA-TRANSFERASE-RXN;RXN-10085
ASD52_32905	Unknown	ASPAMINOTRANS-RXN;RXN-10814;RXN-11737;RXN-13697
ASD52_22215	Unknown	METHYLCROTONYL-COA-CARBOXYLASE-RXN
ASD52_03235	Unknown	5-OXOPROLINASE-ATP-HYDROLYSING-RXN
ASD52_10390	Unknown	RXN-12508;RXN-12583;RXN0-1134
ASD52_30560	Unknown	DIHYDROXYISOVALDEHYDRAT-RXN;DIHYDROXYMETVALDEHYDRAT-RXN
ASD52_01190	Unknown	1.11.1.15-RXN;RXN0-5468
ASD52_09230	Unknown	DTMPKI-RXN
ASD52_01595	Unknown	2-OCTAPRENYL-6-OHPHENOL-METHY-RXN;DHHB-METHYLTRANSFER-RXN
ASD52_18150	Unknown	LEUCYLTRANSFERASE-RXN;RXN-17846;RXN-17847;RXN-17848
ASD52_00415	Unknown	RIBOFLAVIN-SYN-RXN
ASD52_03030	Unknown	TAGAALDOL-RXN
ASD52_19095	Unknown	GUANYL-KIN-RXN
ASD52_12190	Unknown	R4-RXN
ASD52_10340	ispDF	2.7.7.60-RXN;RXN0-302
ASD52_13255	Unknown	4.2.1.41-RXN
ASD52_35985	Unknown	ATPASE-RXN
ASD52_09335	Unknown	ACSERLY-RXN;RXN-12726
ASD52_05195	Unknown	ATPASE-RXN
ASD52_33550	Unknown	1-PHOSPHATIDYLINOSITOL-KINASE-RXN
ASD52_06820	Unknown	RXN0-5306
ASD52_19865	Unknown	RXN0-2023
ASD52_07910	Unknown	2.7.1.148-RXN
ASD52_12020	Unknown	RXN-12513
ASD52_04165	Unknown	AMINOBENZCOALIG-RXN
ASD52_05640	Unknown	S-ADENMETSYN-RXN
ASD52_30080	Unknown	CATAL-RXN;RXN-14189;RXN66-1
ASD52_03835	Unknown	GUANYLCYC-RXN
ASD52_26080	Unknown	2-NITROPROPANE-DIOXYGENASE-RXN
ASD52_28570	Unknown	ACETYLPUTRESCINE-DEACETYLASE-RXN
ASD52_10135	Unknown	GLYCPDIESTER-RXN;RXN-14073;RXN-14136;RXN-14160
ASD52_07455	Unknown	FUMARYLACETOACETASE-RXN
ASD52_19055	Unknown	DNA-DIRECTED-DNA-POLYMERASE-RXN
ASD52_13220	Unknown	RXN-2103
ASD52_09990	Unknown	DGTPTRIPHYDRO-RXN
ASD52_20940	Unknown	GLYCEROL-1-PHOSPHATASE-RXN;RXN-14964;RXN-14965
ASD52_25380	Unknown	1.5.1.9-RXN
ASD52_34675	Unknown	25-DIOXOVALERATE-DEHYDROGENASE-RXN;RXN-8775
ASD52_18860	Unknown	ADENYLATECYC-RXN
ASD52_05415	Unknown	GLYOXIII-RXN
ASD52_07145	Unknown	METHENYLTHFCYCLOHYDRO-RXN;METHYLENETHFDEHYDROG-NADP-RXN
ASD52_18235	Unknown	DIHYDROOROT-RXN
ASD52_16290	Unknown	ATPASE-RXN
ASD52_05230	Unknown	DUTP-PYROP-RXN
ASD52_25725	Unknown	1.2.1.65-RXN
ASD52_09150	Unknown	GSADENYLATION-RXN
ASD52_14725	Unknown	ADPREDUCT-RXN;CDPREDUCT-RXN;GDPREDUCT-RXN;RIBONUCLEOSIDE-DIP-REDUCTI-RXN;RIBONUCLEOSIDE-DIP-REDUCTII-RXN;RXN0-722;RXN0-747;RXN0-748;UDPREDUCT-RXN
ASD52_12100	Unknown	DIMETHUROPORDEHYDROG-RXN;SIROHEME-FERROCHELAT-RXN;UROPORIIIMETHYLTRANSA-RXN
ASD52_27190	Unknown	ADDALT-RXN;ADENODEAMIN-RXN
ASD52_20730	Unknown	CREATININASE-RXN
ASD52_21480	Unknown	GLYOCARBOLIG-RXN
ASD52_28755	Unknown	MANNONDEHYDRAT-RXN
ASD52_35250	Unknown	ACYLCOADEHYDROG-RXN;RXN-17775;RXN-17779;RXN-17783;RXN-17784;RXN-17788;RXN-17792;RXN-17796
ASD52_19105	Unknown	ADCLY-RXN
ASD52_34895	Unknown	RXN-12610;RXN-12611;THI-P-SYN-RXN
ASD52_16940	Unknown	RXN0-1147
ASD52_00360	Unknown	XYLULOKIN-RXN
ASD52_16510	Unknown	HOMOCYSMET-RXN;HOMOCYSMETB12-RXN
ASD52_18195	gatA	6.3.5.7-RXN
ASD52_19590	Unknown	HISTAMINOTRANS-RXN
ASD52_08385	Unknown	RXN0-2661
ASD52_14195	Unknown	3-OXOACYL-ACP-REDUCT-RXN
ASD52_22495	Unknown	RXN-2425
ASD52_06100	Unknown	ACETYLORNTRANSAM-RXN;RXN-15007
ASD52_26765	Unknown	1.11.1.15-RXN;RXN0-5468
ASD52_36505	Unknown	RXN0-5131
ASD52_25730	Unknown	ENOYL-COA-HYDRAT-RXN;METHYLACYLYLCOA-HYDROXY-RXN;RXN-10697;RXN-10704;RXN-10705;RXN-11244;RXN-12567;RXN-13616;RXN-14266;RXN-14272;RXN-14273;RXN-16135;RXN-16558;RXN-17114;RXN-17475;RXN-17776;RXN-17780;RXN-17785;RXN-17789;RXN-17793;RXN-17797;RXN-2425;RXN0-5393;TIGLYLCOA-HYDROXY-RXN
ASD52_17540	Unknown	PROTEIN-TYROSINE-PHOSPHATASE-RXN
ASD52_25930	Unknown	1.11.1.15-RXN;RXN0-5468
ASD52_06315	Unknown	ASPAMINOTRANS-RXN;RXN-10814;RXN-11737;RXN-13697
ASD52_28225	Unknown	ACETOLACTSYN-RXN;ACETOOHBUTSYN-RXN
ASD52_09215	Unknown	METHIONINE--TRNA-LIGASE-RXN;RXN-16165
ASD52_31310	Unknown	RXN-15849;RXN-7563
ASD52_21475	Unknown	RXN0-305
ASD52_09315	Unknown	2.1.1.79-RXN;RXN-7421;RXN1G-2544;RXN1G-3641
ASD52_32790	Unknown	ORNITHINE-CYCLODEAMINASE-RXN
ASD52_07800	Unknown	DIHYDROXYISOVALDEHYDRAT-RXN;DIHYDROXYMETVALDEHYDRAT-RXN
ASD52_10035	Unknown	2.1.1.77-RXN
ASD52_20335	Unknown	N-FORMYLGLUTAMATE-DEFORMYLASE-RXN
ASD52_18160	Unknown	NADH-DEHYDROGENASE-RXN
ASD52_27995	Unknown	METHIONYL-TRNA-FORMYLTRANSFERASE-RXN
ASD52_10545	Unknown	FMNREDUCT-RXN;NADPH-DEHYDROGENASE-FLAVIN-RXN;RXN-12444
ASD52_30665	Unknown	ALLANTOINASE-RXN
ASD52_05000	Unknown	ATPASE-RXN
ASD52_21095	Unknown	ACYLCOADEHYDROG-RXN;RXN-17775;RXN-17779;RXN-17783;RXN-17784;RXN-17788;RXN-17792;RXN-17796
ASD52_17980	Unknown	CHLORIDE-PEROXIDASE-RXN
ASD52_29170	Unknown	ACETOLACTSYN-RXN;ACETOOHBUTSYN-RXN
ASD52_35495	Unknown	2-OCTAPRENYL-6-OHPHENOL-METHY-RXN;DHHB-METHYLTRANSFER-RXN
ASD52_06730	Unknown	HISTALDEHYD-RXN;HISTOLDEHYD-RXN;RXN-8001
ASD52_18970	Unknown	PHOSPHAGLYPSYN-RXN
ASD52_28750	Unknown	ADOMET-DMK-METHYLTRANSFER-RXN
ASD52_08285	Unknown	HOMOSERKIN-RXN
ASD52_11105	Unknown	CREATININASE-RXN
ASD52_21150	Unknown	HISTIDINE-AMMONIA-LYASE-RXN
ASD52_31195	Unknown	2-HALOACID-DEHALOGENASE-RXN;3.8.1.11-RXN;RXN-6263;RXN-6264
ASD52_24045	Unknown	2.3.2.13-RXN;RXN-19236
ASD52_28785	Unknown	MANNONDEHYDRAT-RXN
ASD52_05560	Unknown	MALIC-NADP-RXN;OXALODECARB-RXN
ASD52_06125	Unknown	RXN-9384
ASD52_19125	Unknown	MALONYL-COA-ACP-TRANSACYL-RXN
ASD52_34910	Unknown	1.4.3.19-RXN;RXN-12614;RXN-17951;RXN-8672;RXN-8673;RXN-8674
ASD52_09360	Unknown	ALANINE-DEHYDROGENASE-RXN
ASD52_15000	Unknown	FGAMSYN-RXN
ASD52_24190	Unknown	ADENYLATECYC-RXN
ASD52_16880	Unknown	RXN0-313;TRANSALDOL-RXN
ASD52_28495	Unknown	R4-RXN
ASD52_28025	Unknown	325-BISPHOSPHATE-NUCLEOTIDASE-RXN
ASD52_04235	Unknown	RXN-13179
ASD52_24405	Unknown	DNA-DIRECTED-DNA-POLYMERASE-RXN
ASD52_32755	Unknown	CITSYN-RXN
ASD52_26140	Unknown	2.7.13.3-RXN
ASD52_16910	Unknown	1.8.1.4-RXN;2OXOGLUTARATEDEH-RXN;2OXOGLUTDECARB-RXN;RXN-7716;RXN-7719;RXN-8629;RXN0-1132;RXN0-1147
ASD52_27140	Unknown	RXN0-5131
ASD52_06325	Unknown	CHORISMATEMUT-RXN
ASD52_26205	Unknown	DIHYDROXYISOVALDEHYDRAT-RXN;DIHYDROXYMETVALDEHYDRAT-RXN
ASD52_31025	Unknown	RXN-9235
ASD52_11670	Unknown	GLUTAMATE-DEHYDROGENASE-RXN
ASD52_19335	Unknown	QUINOPRIBOTRANS-RXN
ASD52_13705	Unknown	GLYOXI-RXN
ASD52_05305	Unknown	P-PANTOCYSDECARB-RXN;P-PANTOCYSLIG-RXN;RXN-11781
ASD52_09550	Unknown	IGPSYN-RXN
ASD52_19275	Unknown	GLYOXIII-RXN
ASD52_19665	Unknown	SHIKIMATE-KINASE-RXN
ASD52_05750	Unknown	LYSDECARBOX-RXN
ASD52_18600	Unknown	N-ACETYLGLUTPREDUCT-RXN;RXN-15006
ASD52_24195	Unknown	ADENYLATECYC-RXN
ASD52_14560	Unknown	PANTEPADENYLYLTRAN-RXN
ASD52_10695	Unknown	ADENYLATECYC-RXN
ASD52_01570	Unknown	RXN1A0-6303
ASD52_21045	Unknown	F16ALDOLASE-RXN;RXN-10053;RXN-8631
ASD52_19450	Unknown	3.1.26.3-RXN
ASD52_11360	Unknown	ADENOSYLHOMOCYSTEINASE-RXN
ASD52_11920	Unknown	RIBOKIN-RXN;RXN-14223
ASD52_29740	Unknown	RXN-2
ASD52_30930	Unknown	3.4.21.92-RXN
ASD52_14545	Unknown	RXN0-1342
ASD52_08630	Unknown	DIHYDROFOLATEREDUCT-RXN;RXN-18357
ASD52_28880	Unknown	RXN0-5268
ASD52_34400	Unknown	PRPPAMIDOTRANS-RXN
ASD52_11235	Unknown	MALSYN-RXN
ASD52_16015	Unknown	3-HYDROXYDECANOYL-ACP-DEHYDR-RXN
ASD52_11240	Unknown	DIHYDROPYRIMIDINASE-RXN;RXN-11211;RXN-11217
ASD52_21370	Unknown	RIBOKIN-RXN;RXN-14223
ASD52_04310	Unknown	RXN-17954;RXN-17957;RXN0-6732
ASD52_30795	Unknown	2.6.1.18-RXN
ASD52_01640	Unknown	DIHYDROFOLATEREDUCT-RXN;RXN-18357
ASD52_19600	Unknown	GLYOXII-RXN;RXN-7919
ASD52_16515	Unknown	MANNPISOM-RXN
ASD52_32870	Unknown	CARBPSYN-RXN;GLUTAMIN-RXN;RXN-13202;RXN-14196;RXN-16909;RXN-16910
ASD52_25035	Unknown	GLYOXIII-RXN
ASD52_17660	Unknown	RXN-12560;RXN-13279;RXN-5901
ASD52_08740	Unknown	2-HALOACID-DEHALOGENASE-RXN
ASD52_31855	Unknown	4-HYDROXYPHENYLPYRUVATE-DIOXYGENASE-RXN;RXN-10815
ASD52_25615	Unknown	2.7.13.3-RXN
ASD52_10595	Unknown	HISTCYCLOHYD-RXN
ASD52_28890	Unknown	RXN0-5268
ASD52_19225	Unknown	PHOSPHASERDECARB-RXN
ASD52_24235	Unknown	RXN-11832;RXN-12002;RXN-7913
ASD52_30940	Unknown	2-ISOPROPYLMALATESYN-RXN
ASD52_07725	Unknown	MYO-INOSITOL-1OR-4-MONOPHOSPHATASE-RXN;RXN-7253;RXN0-5408
ASD52_09455	Unknown	RXN-12752;RXN-13142
ASD52_25600	Unknown	N-FORMYLGLUTAMATE-DEFORMYLASE-RXN
ASD52_28035	Unknown	RXN-12720;SULFATE-ADENYLYLTRANS-RXN
ASD52_29860	Unknown	RXN1A0-6303
ASD52_15835	Unknown	3.2.1.37-RXN
ASD52_29745	Unknown	3-OXOACYL-ACP-REDUCT-RXN;RXN-10060;RXN-10655;RXN-10659;RXN-11476;RXN-11480;RXN-13008;RXN-16616;RXN-16622;RXN-16626;RXN-16630;RXN-9514;RXN-9518;RXN-9524;RXN-9528;RXN-9532;RXN-9536;RXN-9540;RXN-9552;RXN-9556;RXN-9633;RXN0-2142;RXN1G-157;RXN1G-349;RXN1G-469;RXN1G-508
ASD52_24765	Unknown	GLUCOKIN-RXN;HEXOKINASE-RXN
ASD52_17285	Unknown	ALDOSE1EPIM-RXN
ASD52_05950	Unknown	OROPRIBTRANS-RXN
ASD52_16220	Unknown	HOMOCYSMETB12-RXN
ASD52_13265	Unknown	5.3.1.17-RXN
ASD52_09895	Unknown	2.5.1.32-RXN;RXN-13323;RXNARA-8002
ASD52_03110	Unknown	HOMOCYSMET-RXN
ASD52_28560	Unknown	R125-RXN
ASD52_21145	Unknown	IMIDAZOLONEPROPIONASE-RXN
ASD52_03955	Unknown	4-HYDROXYBENZOATE-3-MONOOXYGENASE-RXN
ASD52_12390	Unknown	RXN0-7167
ASD52_33200	Unknown	RXN0-7010
ASD52_16660	Unknown	ARGINASE-RXN;RXN-34
ASD52_07340	Unknown	RXN0-3221
ASD52_04525	Unknown	2.7.13.3-RXN
ASD52_30690	lldD	L-LACTATE-DEHYDROGENASE-CYTOCHROME-RXN
ASD52_35620	Unknown	AGMATIN-RXN
ASD52_07480	Unknown	EXOPOLYPHOSPHATASE-RXN
