# 
#
# Authors:
#
# Please see the license agreement regarding the use of and distribution of this file.
# The format of this file is defined at http://bioinformatics.ai.sri.com/ptools/flatfile-format.html .
#
# Species: Rhizobium sp. Root149
# Database: NIL
# Version: 1.0
# File Name: protein-features.dat
# Date and time generated: December 3, 2018, 13:15:42
#
# Attributes:
#    UNIQUE-ID
#    TYPES
#    COMMON-NAME
#    ACCESSION-1
#    ALTERNATE-SEQUENCE
#    ATTACHED-GROUP
#    CATALYTIC-ACTIVITY
#    CITATIONS
#    COMMENT
#    COMPONENT-OF
#    CREDITS
#    DATA-SOURCE
#    DBLINKS
#    DOCUMENTATION
#    FEATURE-COLOR
#    FEATURE-OF
#    HIDE-SLOT?
#    HOMOLOGY-MOTIF
#    INSTANCE-NAME-TEMPLATE
#    LEFT-END-POSITION
#    LINKAGE-TYPE
#    MEMBER-SORT-FN
#    PATHOLOGIC-NAME-MATCHER-EVIDENCE
#    PATHOLOGIC-PWY-EVIDENCE
#    POSSIBLE-FEATURE-STATES
#    RESIDUE-NUMBER
#    RESIDUE-TYPE
#    RIGHT-END-POSITION
#    SYNONYMS
#
# The GCA_001427345_1_ROOT149 database contains no Protein-Features.