id	Common name	linked reactions
ASD07_28925	Unknown	RXN0-5131
ASD07_27825	Unknown	1.2.7.8-RXN
ASD07_04760	Unknown	1.11.1.15-RXN;RXN0-5468
ASD07_15990	Unknown	GLYOXIII-RXN
ASD07_23985	Unknown	SUCCGLUDESUCC-RXN
ASD07_14875	Unknown	ARGSUCCINSYN-RXN;RXN-10
ASD07_00890	Unknown	1.2.1.25-RXN;1.2.4.4-RXN;2.3.1.168-RXN;2KETO-3METHYLVALERATE-RXN;2KETO-4METHYL-PENTANOATE-DEHYDROG-RXN;ISOVALERYLCOA-DHLIPOAMIDE-RXN;KETOISOCAPROATE-RXN;MBCOA-DHLIPOAMIDE-RXN;METHYLVALERATE-RXN;RXN-7719
ASD07_01200	Unknown	3.2.1.3-RXN;RXN-9024
ASD07_19575	Unknown	2.7.13.3-RXN
ASD07_18330	Unknown	SUPEROX-DISMUT-RXN
ASD07_11090	Unknown	GSHTRAN-RXN;GST-RXN;RXN-11663;RXN-13673;RXN-15680;RXN-18405;RXN-18407;RXNQT-4363
ASD07_09920	Unknown	GLYOXIII-RXN
ASD07_28665	Unknown	METHIONYL-TRNA-FORMYLTRANSFERASE-RXN
ASD07_21950	Unknown	CYTOCHROME-C-OXIDASE-RXN;RXN-15830
ASD07_02130	Unknown	RXNI-2
ASD07_05205	Unknown	RXN0-1461
ASD07_07140	Unknown	4OH2OXOGLUTARALDOL-RXN;KDPGALDOL-RXN
ASD07_00075	Unknown	2.7.10.1-RXN
ASD07_07195	Unknown	RIB5PISOM-RXN
ASD07_07550	Unknown	2.7.13.3-RXN
ASD07_21530	Unknown	RXN0-4261
ASD07_19150	Unknown	PORPHOBILSYNTH-RXN
ASD07_01045	Unknown	DEOXYGLUCONOKIN-RXN
ASD07_16655	Unknown	ACID-PHOSPHATASE-RXN;RXN-5822
ASD07_12440	Unknown	2-OCTAPRENYL-6-METHOXYPHENOL-HYDROX-RXN
ASD07_28345	Unknown	GLYOXIII-RXN
ASD07_04340	pyrB	ASPCARBTRANS-RXN
ASD07_01080	Unknown	MANNONOXIDOREDUCT-RXN
ASD07_12235	Unknown	3.5.1.80-RXN;NAG6PDEACET-RXN
ASD07_00420	Unknown	ACYLCOADEHYDROG-RXN;RXN-17775;RXN-17779;RXN-17783;RXN-17784;RXN-17788;RXN-17792;RXN-17796
ASD07_04955	garD	GALACTARDEHYDRA-RXN
ASD07_13930	Unknown	RXN0-305
ASD07_20915	Unknown	RXN1A0-6303
ASD07_08505	Unknown	ADENYLOSUCCINATE-SYNTHASE-RXN
ASD07_08710	Unknown	RXN0-4261
ASD07_07420	Unknown	DIHYDRODIPICSYN-RXN
ASD07_07695	Unknown	3-ISOPROPYLMALDEHYDROG-RXN;RXN-13158;RXN-14986;RXN-18200;RXN-18202;RXN-18204;RXN-18206;RXN-18208;RXN-18210;RXNQT-4165;RXNQT-4168;RXNQT-4171;RXNQT-4174;RXNQT-4178
ASD07_00425	Unknown	ACETYL-COA-ACETYLTRANSFER-RXN;METHYLACETOACETYLCOATHIOL-RXN;RXN-12561
ASD07_14440	Unknown	3.1.2.23-RXN
ASD07_12725	Unknown	ARGININE-N-SUCCINYLTRANSFERASE-RXN;RXN-7561
ASD07_15420	Unknown	ACETOLACTREDUCTOISOM-RXN;ACETOOHBUTREDUCTOISOM-RXN
ASD07_00920	Unknown	3-OXOACYL-ACP-REDUCT-RXN;RXN-10060;RXN-10655;RXN-10659;RXN-11476;RXN-11480;RXN-13008;RXN-16616;RXN-16622;RXN-16626;RXN-16630;RXN-9514;RXN-9518;RXN-9524;RXN-9528;RXN-9532;RXN-9536;RXN-9540;RXN-9552;RXN-9556;RXN-9633;RXN0-2142;RXN1G-157;RXN1G-349;RXN1G-469;RXN1G-508
ASD07_26005	Unknown	GLUTCYSLIG-RXN
ASD07_11415	Unknown	ACYLCOADEHYDROG-RXN;RXN-17775;RXN-17779;RXN-17783;RXN-17784;RXN-17788;RXN-17792;RXN-17796
ASD07_25375	Unknown	ATPASE-RXN
ASD07_21190	Unknown	GLYCERATE-DEHYDROGENASE-RXN;HYDROXYPYRUVATE-REDUCTASE-RXN;RXN0-300
ASD07_26145	Unknown	ACYLCOASYN-RXN;LINOLENOYL-RXN;R223-RXN;RXN-12184;RXN-12978;RXN-13290;RXN-13614;RXN-16380;RXN-16389;RXN-16393;RXN-16401;RXN-16402;RXN-16415;RXN-16418;RXN-7904;RXN-9623;RXN-9644;RXN-9673;RXN0-7238;RXN0-7239;RXN0-7248;RXN66-469;RXN66-477;RXN66-480;RXN66-483;RXN66-484;TRANS-RXN0-623
ASD07_12830	Unknown	QUEUOSINE-TRNA-RIBOSYLTRANSFERASE-RXN;RXN0-1321
ASD07_01575	guaA	GLUTAMIN-RXN;GMP-SYN-GLUT-RXN;GMP-SYN-NH3-RXN
ASD07_06310	ispH	ISPH2-RXN;RXN0-884
ASD07_13425	Unknown	THIOREDOXIN-REDUCT-NADPH-RXN
ASD07_19515	Unknown	PRIBFAICARPISOM-RXN
ASD07_23070	ampC	BETA-LACTAMASE-RXN
ASD07_10005	Unknown	ACETYL-COA-ACETYLTRANSFER-RXN;METHYLACETOACETYLCOATHIOL-RXN;RXN-12561
ASD07_19805	Unknown	2.7.13.3-RXN
ASD07_09840	Unknown	RXN0-5398
ASD07_08300	Unknown	ATPASE-RXN
ASD07_17475	Unknown	GLUTAMINE--TRNA-LIGASE-RXN
ASD07_28465	Unknown	6.3.5.7-RXN
ASD07_05925	Unknown	GSHTRAN-RXN;GST-RXN;RXN-11663;RXN-13673;RXN-15680;RXN-18405;RXN-18407;RXNQT-4363
ASD07_25215	Unknown	RXN0-5131
ASD07_18160	Unknown	RXN-11832;RXN-12002;RXN-7913
ASD07_21855	Unknown	RXN-13039;RXN-17127;RXN-8654;RXN-8655;RXN0-1141;RXN0-5098
ASD07_09725	Unknown	1.6.99.5-RXN;NADH-DEHYDROGENASE-QUINONE-RXN
ASD07_18955	Unknown	3.2.1.37-RXN
ASD07_07935	Unknown	3.4.11.18-RXN;RXN-17873;RXN-17874;RXN-17875;RXN-17876;RXN-17877;RXN-17878
ASD07_12305	Unknown	GLUTSEMIALDEHYDROG-RXN
ASD07_28265	Unknown	ARYLSULFAT-RXN
ASD07_00650	Unknown	ACYLPHOSPHATASE-RXN
ASD07_19190	Unknown	DIAMINOPIMDECARB-RXN
ASD07_29070	Unknown	DNA-DIRECTED-DNA-POLYMERASE-RXN;RXN0-4961
ASD07_28015	Unknown	3.1.2.23-RXN
ASD07_04245	Unknown	RXN-16650
ASD07_12285	Unknown	2.7.13.3-RXN
ASD07_26185	Unknown	GUANPRIBOSYLTRAN-RXN;HYPOXANPRIBOSYLTRAN-RXN
ASD07_06025	Unknown	RXN0-20
ASD07_04380	Unknown	RXN0-5061
ASD07_22415	Unknown	RXN0-5268
ASD07_05815	Unknown	PHOSPHOGLUCMUT-RXN;RXN-16997;RXN-16998
ASD07_21380	Unknown	HISTCYCLOHYD-RXN
ASD07_09610	Unknown	ATPASE-RXN
ASD07_14865	Unknown	2.7.13.3-RXN
ASD07_26375	Unknown	SAMDECARB-RXN
ASD07_18460	Unknown	RXN-11791
ASD07_02065	Unknown	GDPPYPHOSKIN-RXN;GTPPYPHOSKIN-RXN
ASD07_20175	Unknown	UDPGLUCEPIM-RXN
ASD07_05355	Unknown	ISOCHORSYN-RXN
ASD07_11800	Unknown	H2PTERIDINEPYROPHOSPHOKIN-RXN;RXN-15733
ASD07_17445	Unknown	1.17.1.1-RXN
ASD07_23660	Unknown	CYTOCHROME-C-OXIDASE-RXN;RXN-15830
ASD07_28495	Unknown	4.2.99.18-RXN;RXN0-2601
ASD07_02825	Unknown	METHELENE-THMPT-OXI-RXN
ASD07_01585	Unknown	GLUCONOKIN-RXN
ASD07_25260	Unknown	GSHTRAN-RXN;GST-RXN;RXN-11663;RXN-13673;RXN-15680;RXN-18405;RXN-18407;RXNQT-4363
ASD07_01780	Unknown	3.4.11.18-RXN;RXN-17873;RXN-17874;RXN-17875;RXN-17876;RXN-17877;RXN-17878
ASD07_09830	Unknown	PYROGLUTAMYL-PEPTIDASE-I-RXN
ASD07_28490	Unknown	OROPRIBTRANS-RXN
ASD07_10885	Unknown	FUMHYDR-RXN
ASD07_04205	Unknown	R4-RXN
ASD07_17470	Unknown	2.7.13.3-RXN
ASD07_12425	Unknown	KANAMYCIN-KINASE-RXN
ASD07_15810	Unknown	PRODISULFREDUCT-RXN;RXN0-7271
ASD07_23730	Unknown	2.7.13.3-RXN
ASD07_11100	Unknown	1.14.11.2-RXN
ASD07_25880	Unknown	4.3.1.17-RXN;RXN-15122;RXN-15125;THREDEHYD-RXN
ASD07_15770	Unknown	3.4.21.4-RXN;RXN-17832
ASD07_29145	Unknown	DMBPPRIBOSYLTRANS-RXN;RXN-19295;RXN-19298;RXN-19299;RXN-19300;RXN-19301;RXN-19306
ASD07_02080	Unknown	3-HYDROXYBUTYRATE-DEHYDROGENASE-RXN
ASD07_22020	Unknown	RXN-13853
ASD07_15300	Unknown	RXN0-2584
ASD07_02920	Unknown	MALONYL-COA-ACP-TRANSACYL-RXN
ASD07_12980	Unknown	RXN0-5289;TSA-REDUCT-RXN
ASD07_29185	Unknown	3.1.26.5-RXN
ASD07_18405	Unknown	RXN-11740
ASD07_19250	Unknown	RXN0-2661
ASD07_08285	Unknown	RXN0-1147
ASD07_18810	Unknown	3.1.11.2-RXN
ASD07_23100	Unknown	LIPIDXSYNTHESIS-RXN
ASD07_02190	Unknown	GUANINE-DEAMINASE-RXN;RXN-15261
ASD07_23720	Unknown	2.7.13.3-RXN
ASD07_19240	Unknown	DGTPTRIPHYDRO-RXN
ASD07_20670	Unknown	ANTHRANSYN-RXN
ASD07_06075	Unknown	3.4.24.70-RXN
ASD07_08980	Unknown	HOMOSERKIN-RXN
ASD07_10450	Unknown	URIDINEKIN-RXN;URKI-RXN
ASD07_29400	Unknown	RNA-3-PHOSPHATE-CYCLASE-RXN;RXN-17928;RXN-17930;RXN-17931
ASD07_22290	Unknown	2-NITROPROPANE-DIOXYGENASE-RXN
ASD07_18855	Unknown	RXN-12720;SULFATE-ADENYLYLTRANS-RXN
ASD07_14845	Unknown	3.1.13.3-RXN
ASD07_12715	Unknown	SUCCARGDIHYDRO-RXN
ASD07_04215	Unknown	RXN0-2361;RXN0-7022
ASD07_20700	Unknown	ENOYL-COA-HYDRAT-RXN;METHYLACYLYLCOA-HYDROXY-RXN;RXN-10697;RXN-10704;RXN-10705;RXN-11244;RXN-12567;RXN-13616;RXN-14266;RXN-14272;RXN-14273;RXN-16135;RXN-16558;RXN-17114;RXN-17475;RXN-17776;RXN-17780;RXN-17785;RXN-17789;RXN-17793;RXN-17797;RXN-2425;RXN0-5393;TIGLYLCOA-HYDROXY-RXN
ASD07_24525	Unknown	RXN0-5131
ASD07_06335	Unknown	4.3.1.17-RXN;RXN-15122;RXN-15125;THREDEHYD-RXN
ASD07_28470	Unknown	6.3.5.7-RXN
ASD07_20000	Unknown	RXN-11109
ASD07_26930	Unknown	3.2.1.52-RXN;RXN-12625;RXN-12626;RXN-18082;RXN0-5226
ASD07_07985	Unknown	2.7.13.3-RXN
ASD07_24820	Unknown	ACYLCOADEHYDROG-RXN;RXN-17775;RXN-17779;RXN-17783;RXN-17784;RXN-17788;RXN-17792;RXN-17796
ASD07_25855	fadH	DIENOYLCOAREDUCT-RXN;RXN-12521;RXN-14715;RXN-14776;RXN-14790;RXN-7835;RXN-7911
ASD07_08230	sdhB	RXN-14971;RXN-15378;SUCCINATE-DEHYDROGENASE-UBIQUINONE-RXN
ASD07_21850	Unknown	RXN-14950;RXN-14957;RXN-14959;RXN0-949
ASD07_02295	Unknown	DIOHBUTANONEPSYN-RXN
ASD07_23535	Unknown	GSHTRAN-RXN;GST-RXN;RXN-11663;RXN-13673;RXN-15680;RXN-18405;RXN-18407;RXNQT-4363
ASD07_22070	Unknown	3.2.1.14-RXN;RXN-12309
ASD07_14370	Unknown	DIOHBUTANONEPSYN-RXN
ASD07_11650	Unknown	DIMETHUROPORDEHYDROG-RXN
ASD07_12705	Unknown	SUCCGLUDESUCC-RXN
ASD07_01700	Unknown	UDPHYDROXYMYRGLUCOSAMNACETYLTRANS-RXN
ASD07_22660	glmM	5.4.2.10-RXN;RXN-16424;RXN0-7139
ASD07_23950	Unknown	ACETATEKIN-RXN
ASD07_14855	Unknown	RXN-13908;RXN-7908
ASD07_12800	Unknown	GSHTRAN-RXN;GST-RXN;RXN-11663;RXN-13673;RXN-15680;RXN-18405;RXN-18407;RXNQT-4363
ASD07_12610	Unknown	AICARSYN-RXN;AMPSYN-RXN
ASD07_15735	Unknown	2.7.7.60-RXN
ASD07_28865	purH	AICARTRANSFORM-RXN;IMPCYCLOHYDROLASE-RXN
ASD07_14765	Unknown	ACID-PHOSPHATASE-RXN;RXN-5822
ASD07_01550	Unknown	3.2.1.55-RXN
ASD07_04395	Unknown	2.7.13.3-RXN
ASD07_14140	Unknown	QOR-RXN
ASD07_00360	Unknown	DNA-DIRECTED-DNA-POLYMERASE-RXN
ASD07_21220	Unknown	R4-RXN
ASD07_00445	Unknown	QUINOLINATE-SYNTHA-RXN
ASD07_17940	Unknown	2.7.13.3-RXN
ASD07_17855	Unknown	3.5.1.80-RXN;NAG6PDEACET-RXN
ASD07_07570	Unknown	RXN0-5100
ASD07_18220	Unknown	THIOREDOXIN-REDUCT-NADPH-RXN
ASD07_06450	Unknown	DIHYDROOROTATE-DEHYDROGENASE-RXN;RXN-9929;RXN0-6491;RXN0-6554
ASD07_10145	Unknown	RXN-982
ASD07_24895	Unknown	CYSTATHIONINE-BETA-LYASE-RXN;RXN-15131
ASD07_21125	Unknown	ASPARAGHYD-RXN
ASD07_06980	Unknown	DNA-DIRECTED-RNA-POLYMERASE-RXN
ASD07_23265	Unknown	ADOMET-DMK-METHYLTRANSFER-RXN
ASD07_08485	Unknown	RXN0-5462
ASD07_02195	Unknown	3.5.2.17-RXN
ASD07_13180	Unknown	2.1.1.44-RXN;RXN-14431;RXN-14437;RXN-14438
ASD07_20650	trpC	IGPSYN-RXN
ASD07_00885	Unknown	1.2.1.25-RXN;1.2.4.4-RXN;2.3.1.168-RXN;2KETO-3METHYLVALERATE-RXN;2KETO-4METHYL-PENTANOATE-DEHYDROG-RXN;ISOVALERYLCOA-DHLIPOAMIDE-RXN;KETOISOCAPROATE-RXN;MBCOA-DHLIPOAMIDE-RXN;METHYLVALERATE-RXN;RXN-7719
ASD07_19275	ipk	2.7.1.148-RXN
ASD07_14395	Unknown	RIBOFLAVINSYNDEAM-RXN
ASD07_09510	murC	UDP-NACMUR-ALA-LIG-RXN
ASD07_29170	gyrB	5.99.1.3-RXN
ASD07_09975	Unknown	RXN0-275
ASD07_11655	Unknown	DIMETHUROPORDEHYDROG-RXN
ASD07_00035	Unknown	L-ASPARTATE-OXID-RXN;RXN-9772
ASD07_19975	Unknown	CARBOXYMETHYLENEBUTENOLIDASE-RXN;DIENELACHYDRO-RXN;RXN-9857;RXN-9868;RXN-9887;RXN-9890
ASD07_18390	Unknown	2.7.13.3-RXN
ASD07_09670	argJ	GLUTAMATE-N-ACETYLTRANSFERASE-RXN;N-ACETYLTRANSFER-RXN;RXN0-6948
ASD07_13370	Unknown	STRICTOSIDINE-SYNTHASE-RXN
ASD07_16815	Unknown	RXN-17155
ASD07_24180	Unknown	2.7.13.3-RXN
ASD07_28775	Unknown	FMNREDUCT-RXN;NADPH-DEHYDROGENASE-FLAVIN-RXN;RXN-12444
ASD07_05685	Unknown	GLUCISOM-RXN;XYLISOM-RXN
ASD07_27175	Unknown	3.4.21.26-RXN
ASD07_16640	Unknown	AMIDASE-RXN;GUANIDINOBUTANAMIDE-NH3-RXN;PYRAZIN-RXN;R311-RXN;RXN-14727;RXN-14728;RXN-17608;RXNN-404
ASD07_16890	Unknown	RXN0-2621
ASD07_02915	Unknown	2.7.8.25-RXN
ASD07_16150	Unknown	RXN-19040;RXN0-6359;THIOSULFATE-SULFURTRANSFERASE-RXN
ASD07_02170	Unknown	RXN0-305
ASD07_01060	Unknown	3.2.1.151-RXN;RXN-12401
ASD07_12435	Unknown	3.4.11.1-RXN
ASD07_16125	Unknown	RXN-11109
ASD07_12900	Unknown	2-OCTAPRENYL-6-OHPHENOL-METHY-RXN;DHHB-METHYLTRANSFER-RXN
ASD07_12340	Unknown	3.4.11.18-RXN;RXN-17873;RXN-17874;RXN-17875;RXN-17876;RXN-17877;RXN-17878
ASD07_16115	Unknown	GLYOXIII-RXN
ASD07_22345	Unknown	RXN-11578
ASD07_18355	Unknown	CPM-KDOSYNTH-RXN
ASD07_00340	Unknown	3.1.21.1-RXN
ASD07_12710	Unknown	GLUTAMATE-DEHYDROGENASE-NADP+-RXN;GLUTAMATE-DEHYDROGENASE-RXN;GLUTDEHYD-RXN
ASD07_01985	Unknown	2.7.13.3-RXN
ASD07_03635	Unknown	3.1.1.64-RXN;CARBOXYLESTERASE-RXN;RETINYL-PALMITATE-ESTERASE-RXN;RXN-10711;RXN-10767;RXN-12252;RXN-12575;RXNQT-4366
ASD07_02540	Unknown	ISOCITDEH-RXN;RXN-8642;RXN-9951
ASD07_02290	Unknown	RIBOFLAVINSYNDEAM-RXN
ASD07_17070	Unknown	RXN-12178;RXN-12270
ASD07_04990	Unknown	4.2.1.41-RXN
ASD07_09950	Unknown	ALANINE-DEHYDROGENASE-RXN
ASD07_09870	Unknown	THYM-PHOSPH-RXN
ASD07_02730	Unknown	GSHTRAN-RXN;GST-RXN;RXN-11663;RXN-13673;RXN-15680;RXN-18405;RXN-18407;RXNQT-4363
ASD07_06680	Unknown	GLYOXIII-RXN
ASD07_23560	Unknown	4-HYDROXYPROLINE-EPIMERASE-RXN
ASD07_20235	Unknown	PYRNUTRANSHYDROGEN-RXN;TRANS-RXN0-277
ASD07_11805	panB	3-CH3-2-OXOBUTANOATE-OH-CH3-XFER-RXN;RXN-15635
ASD07_11465	Unknown	ACETALD-DEHYDROG-RXN;RXN-13671
ASD07_08955	Unknown	RXN-11135
ASD07_11545	Unknown	PHOSGLYPHOS-RXN
ASD07_05120	Unknown	2.7.13.3-RXN
ASD07_17405	pyrF	OROTPDECARB-RXN
ASD07_15660	Unknown	1.6.99.5-RXN;NADH-DEHYDROGENASE-QUINONE-RXN
ASD07_04690	Unknown	RXN-10462;RXN-13805;RXN-1381;RXN-15045;RXN-16024;RXN-16117;RXN-17016;RXN-17017;RXN-17018
ASD07_15760	Unknown	GLYOXI-RXN
ASD07_03795	Unknown	3.4.13.9-RXN
ASD07_17165	Unknown	25-DIOXOVALERATE-DEHYDROGENASE-RXN;RXN-8775
ASD07_13640	Unknown	INORGPYROPHOSPHAT-RXN
ASD07_03490	Unknown	3.2.2.15-RXN
ASD07_25655	Unknown	DIAMINOPIMDECARB-RXN
ASD07_24015	Unknown	RXN0-5375
ASD07_14930	Unknown	EXOPOLYPHOSPHATASE-RXN
ASD07_01655	Unknown	PEPSYNTH-RXN
ASD07_08570	Unknown	RXN0-2621
ASD07_11830	Unknown	RXN0-3942
ASD07_15480	Unknown	RXN0-5268
ASD07_03025	Unknown	S-FORMYLGLUTATHIONE-HYDROLASE-RXN
ASD07_21505	gltD	GLUTAMATESYN-RXN;GLUTAMIN-RXN;GLUTDEHYD-RXN
ASD07_27545	Unknown	ACYLCOASYN-RXN;LINOLENOYL-RXN;R223-RXN;RXN-12184;RXN-12978;RXN-13290;RXN-13614;RXN-16380;RXN-16389;RXN-16393;RXN-16401;RXN-16402;RXN-16415;RXN-16418;RXN-7904;RXN-9623;RXN-9644;RXN-9673;RXN0-7238;RXN0-7239;RXN0-7248;RXN66-469;RXN66-477;RXN66-480;RXN66-483;RXN66-484;TRANS-RXN0-623
ASD07_08205	Unknown	MALATE-DEH-RXN
ASD07_08575	Unknown	2.6.1.57-RXN;PHEAMINOTRANS-RXN;RXN-14147;RXN-15200;TRYPTOPHAN-AMINOTRANSFERASE-RXN;TYROSINE-AMINOTRANSFERASE-RXN
ASD07_20675	Unknown	GPH-RXN
ASD07_17150	Unknown	ALDOSE1EPIM-RXN
ASD07_07950	Unknown	R4-RXN
ASD07_29155	Unknown	2.7.13.3-RXN
ASD07_18420	Unknown	ENOYL-COA-HYDRAT-RXN;METHYLACYLYLCOA-HYDROXY-RXN;RXN-10697;RXN-10704;RXN-10705;RXN-11244;RXN-12567;RXN-13616;RXN-14266;RXN-14272;RXN-14273;RXN-16135;RXN-16558;RXN-17114;RXN-17475;RXN-17776;RXN-17780;RXN-17785;RXN-17789;RXN-17793;RXN-17797;RXN-2425;RXN0-5393;TIGLYLCOA-HYDROXY-RXN
ASD07_09945	Unknown	2.6.1.18-RXN
ASD07_17545	Unknown	ACYLCOADEHYDROG-RXN;RXN-17775;RXN-17779;RXN-17783;RXN-17784;RXN-17788;RXN-17792;RXN-17796
ASD07_07075	Unknown	TRANSALDOL-RXN
ASD07_23580	Unknown	DIHYDRODIPICSYN-RXN
ASD07_15630	Unknown	TRIOSEPISOMERIZATION-RXN
ASD07_18400	Unknown	AMINOBENZCOALIG-RXN
ASD07_21660	Unknown	3.4.13.22-RXN
ASD07_24610	Unknown	CYSTATHIONINE-BETA-LYASE-RXN;RXN-12729;RXN-15131;RXN-15137;RXN-15577;RXN-15582;RXN-18212;RXN-6763;RXN-8052;RXN-8054;RXNQT-4319;RXNQT-4320;RXNQT-4321;RXNQT-4322;RXNQT-4323;S-ALKYLCYSTEINE-LYASE-RXN
ASD07_07730	Unknown	ACETYL-COA-CARBOXYLTRANSFER-RXN;RXN0-5055
ASD07_28565	Unknown	2.7.3.9-RXN;RXN-17354;RXN-17355
ASD07_15260	Unknown	2-OXOPENT-4-ENOATE-HYDRATASE-RXN;RXN-10381
ASD07_23105	Unknown	PEPTIDYLPROLYL-ISOMERASE-RXN
ASD07_25875	Unknown	3.4.11.5-RXN
ASD07_21160	Unknown	DNA-DIRECTED-DNA-POLYMERASE-RXN
ASD07_22150	Unknown	5.4.1.2-RXN
ASD07_28200	Unknown	SPERMIDINESYN-RXN
ASD07_28560	metX	HOMOSERINE-O-ACETYLTRANSFERASE-RXN
ASD07_00975	Unknown	3.2.1.37-RXN
ASD07_16845	Unknown	PRODISULFREDUCT-RXN;RXN0-7271
ASD07_21215	Unknown	R4-RXN
ASD07_24505	Unknown	BETA-PHOSPHOGLUCOMUTASE-RXN;RXN-16995;RXN-16996
ASD07_22235	Unknown	RXN0-6515
ASD07_21940	Unknown	CYTOCHROME-C-OXIDASE-RXN;RXN-15830
ASD07_15670	Unknown	1.6.99.5-RXN;NADH-DEHYDROGENASE-QUINONE-RXN
ASD07_16075	Unknown	TETHYDPICSUCC-RXN
ASD07_02185	Unknown	PEPDEPHOS-RXN;RXN-14117;RXN-14192;RXN-14207
ASD07_29715	Unknown	RXN0-5268
ASD07_05270	Unknown	F16BDEPHOS-RXN
ASD07_01345	Unknown	GALPMUT-RXN
ASD07_19790	Unknown	2.7.13.3-RXN
ASD07_13660	Unknown	OHMETHYLBILANESYN-RXN
ASD07_22210	Unknown	L-GLN-FRUCT-6-P-AMINOTRANS-RXN
ASD07_27360	Unknown	PEPTIDYLPROLYL-ISOMERASE-RXN
ASD07_01495	Unknown	2.7.13.3-RXN
ASD07_11330	Unknown	2.1.1.79-RXN;RXN-7421;RXN1G-2544;RXN1G-3641
ASD07_22095	Unknown	1.11.1.15-RXN;RXN0-5468
ASD07_07025	rph	RXN0-6481;RXN0-6482;TRNA-NUCLEOTIDYLTRANSFERASE-RXN
ASD07_10020	Unknown	ALLANTOATE-DEIMINASE-RXN
ASD07_21515	Unknown	RXN0-5131
ASD07_07130	Unknown	PGLUCISOM-RXN
ASD07_14225	Unknown	RXN0-5131
ASD07_26220	Unknown	2-NITROPROPANE-DIOXYGENASE-RXN
ASD07_21690	Unknown	RXN0-4641
ASD07_22530	Unknown	ALARACECAT-RXN
ASD07_07210	Unknown	GLUTAMATE-N-ACETYLTRANSFERASE-RXN;N-ACETYLTRANSFER-RXN;RXN0-6948
ASD07_26395	Unknown	3-OXOACYL-ACP-REDUCT-RXN;RXN-10060;RXN-10655;RXN-10659;RXN-11476;RXN-11480;RXN-13008;RXN-16616;RXN-16622;RXN-16626;RXN-16630;RXN-9514;RXN-9518;RXN-9524;RXN-9528;RXN-9532;RXN-9536;RXN-9540;RXN-9552;RXN-9556;RXN-9633;RXN0-2142;RXN1G-157;RXN1G-349;RXN1G-469;RXN1G-508
ASD07_28835	Unknown	TYROSINE--TRNA-LIGASE-RXN
ASD07_06580	Unknown	PROTEIN-KINASE-RXN
ASD07_09730	Unknown	3.5.2.17-RXN
ASD07_04185	Unknown	RXN0-5419
ASD07_22240	Unknown	PANTEPADENYLYLTRAN-RXN
ASD07_15895	Unknown	2.7.7.1-RXN
ASD07_28690	Unknown	5.99.1.2-RXN
ASD07_08280	sucA	2-KETO-ADIPATE-DEHYDROG-RXN;2OXOGLUTARATEDEH-RXN;2OXOGLUTDECARB-RXN;RXN-7716;RXN0-1147
ASD07_17170	Unknown	3-OXOACYL-ACP-REDUCT-RXN;RXN-10060;RXN-10655;RXN-10659;RXN-11476;RXN-11480;RXN-13008;RXN-16616;RXN-16622;RXN-16626;RXN-16630;RXN-9514;RXN-9518;RXN-9524;RXN-9528;RXN-9532;RXN-9536;RXN-9540;RXN-9552;RXN-9556;RXN-9633;RXN0-2142;RXN1G-157;RXN1G-349;RXN1G-469;RXN1G-508
ASD07_11460	Unknown	MHPELY-RXN
ASD07_05420	Unknown	3-OXOADIPATE-ENOL-LACTONASE-RXN;RXN-10083
ASD07_15405	Unknown	DNA-DIRECTED-RNA-POLYMERASE-RXN
ASD07_01340	Unknown	GALACTONDEHYDRAT-RXN
ASD07_08225	Unknown	R601-RXN;RXN-14963
ASD07_17230	Unknown	3.6.3.44-RXN;TRANS-RXN-311
ASD07_08990	Unknown	DNA-DIRECTED-DNA-POLYMERASE-RXN
ASD07_06305	Unknown	PEPTIDYLPROLYL-ISOMERASE-RXN
ASD07_07340	Unknown	KDO-8PSYNTH-RXN
ASD07_12015	Unknown	2.1.1.77-RXN
ASD07_01845	Unknown	PROTEIN-TYROSINE-PHOSPHATASE-RXN
ASD07_23335	Unknown	GALACTODEHYDROG-RXN
ASD07_28085	Unknown	RXN-12587;RXN-12588;RXN-14382;RXN-14385;RXN-15881;RXN-9787;RXN0-308
ASD07_03530	Unknown	3.4.14.11-RXN
ASD07_01720	Unknown	DXPREDISOM-RXN
ASD07_23295	Unknown	DIAMINOPIMDECARB-RXN
ASD07_05360	entE	DHBAMPLIG-RXN
ASD07_18425	Unknown	ACYLCOADEHYDROG-RXN;RXN-17775;RXN-17779;RXN-17783;RXN-17784;RXN-17788;RXN-17792;RXN-17796
ASD07_12410	pdxA	RXN-13179
ASD07_28420	Unknown	BIOTINLIG-RXN;RXN0-7192
ASD07_26950	Unknown	4-HYDROXYPHENYLPYRUVATE-DIOXYGENASE-RXN;RXN-10815
ASD07_23655	Unknown	CYTOCHROME-C-OXIDASE-RXN;RXN-15830
ASD07_24305	Unknown	LYSDECARBOX-RXN
ASD07_00515	Unknown	2.7.13.3-RXN
ASD07_04660	Unknown	RXN0-5100
ASD07_10850	Unknown	ADENYLOSUCCINATE-SYNTHASE-RXN
ASD07_03595	Unknown	4-CARBOXYMUCONOLACTONE-DECARBOXYLASE-RXN
ASD07_09895	Unknown	GLYOXIII-RXN
ASD07_05880	Unknown	MYRISTOYLACYLTRAN-RXN;MYRPALMTRAN-RXN
ASD07_02085	Unknown	CARBODEHYDRAT-RXN;RXN0-5224
ASD07_13615	nadE	NAD-SYNTH-GLN-RXN;NAD-SYNTH-NH3-RXN
ASD07_19255	Unknown	RXN0-5462
ASD07_13420	Unknown	3.2.1.89-RXN
ASD07_09505	Unknown	NACGLCTRANS-RXN;RXN-8976
ASD07_04940	Unknown	RXN-2103
ASD07_05895	Unknown	GLUCOKIN-RXN
ASD07_12090	Unknown	RXN0-4261
ASD07_07685	Unknown	3-ISOPROPYLMALISOM-RXN;R-2-METHYLMALATE-DEHYDRATASE-RXN;RXN-13163;RXN-7744;RXN-8991
ASD07_09275	Unknown	HEMEOSYN-RXN
ASD07_04370	Unknown	HISTIDPHOS-RXN
ASD07_07750	Unknown	PRPPAMIDOTRANS-RXN
ASD07_12465	Unknown	PYRNUTRANSHYDROGEN-RXN;TRANS-RXN0-277
ASD07_01725	Unknown	CDPDIGLYSYN-RXN
ASD07_08850	Unknown	ACYLCOADEHYDROG-RXN;RXN-17775;RXN-17779;RXN-17783;RXN-17784;RXN-17788;RXN-17792;RXN-17796
ASD07_28855	Unknown	RXN0-1281
ASD07_03110	Unknown	GSHTRAN-RXN;GST-RXN;RXN-11663;RXN-13673;RXN-15680;RXN-18405;RXN-18407;RXNQT-4363
ASD07_29795	Unknown	RXN0-5131
ASD07_01140	Unknown	ALPHAGALACTOSID-RXN;RXN-11501;RXN-11502;RXN-12088;RXN-17754;RXN-17830
ASD07_21750	Unknown	2.8.1.6-RXN;RXN-17472;RXN-17473
ASD07_03330	Unknown	3.1.11.2-RXN
ASD07_16755	Unknown	ISOCIT-CLEAV-RXN
ASD07_08855	Unknown	ACETYL-COA-CARBOXYLTRANSFER-RXN;RXN0-5055
ASD07_09860	Unknown	DEOXYRIBOSE-P-ALD-RXN
ASD07_25930	Unknown	HOMOCYSMET-RXN
ASD07_13430	Unknown	GSHTRAN-RXN;GST-RXN;RXN-11663;RXN-13673;RXN-15680;RXN-18405;RXN-18407;RXNQT-4363
ASD07_27325	Unknown	3.4.21.92-RXN
ASD07_15310	Unknown	RXN-12587;RXN-12588;RXN-14382;RXN-14385;RXN-15881;RXN-9787;RXN0-308
ASD07_06530	Unknown	RXN-17362
ASD07_25720	Unknown	GDP-MANNOSE-6-DEHYDROGENASE-RXN
ASD07_19615	Unknown	ACYLCOADEHYDROG-RXN;RXN-17775;RXN-17779;RXN-17783;RXN-17784;RXN-17788;RXN-17792;RXN-17796
ASD07_04505	Unknown	2.7.13.3-RXN
ASD07_16080	Unknown	SUCCINYLDIAMINOPIMTRANS-RXN
ASD07_24915	Unknown	PENICILLIN-AMIDASE-RXN;RXN-17099
ASD07_06210	Unknown	UNSPECIFIC-MONOOXYGENASE-RXN
ASD07_19490	Unknown	RXN0-4022
ASD07_13070	Unknown	RXN-11109
ASD07_23690	Unknown	RXN-15849;RXN-7563
ASD07_05765	Unknown	CYTDEAM-RXN;RXN-14129;RXN-14197
ASD07_24885	Unknown	DURIDKI-RXN;THYKI-RXN
ASD07_20560	Unknown	ISOCIT-CLEAV-RXN
ASD07_29380	Unknown	RNA-3-PHOSPHATE-CYCLASE-RXN;RXN-17928;RXN-17930;RXN-17931
ASD07_28505	Unknown	2.3.1.184-RXN;RXN-10020;RXN-10022;RXN-10023;RXN-10024;RXN-10025;RXN-10026
ASD07_23775	lldD	L-LACTATE-DEHYDROGENASE-CYTOCHROME-RXN
ASD07_08440	Unknown	RXN-11586
ASD07_11055	Unknown	FORMIMINOGLUTAMATE-DEIMINASE-RXN
ASD07_11045	Unknown	IMIDAZOLONEPROPIONASE-RXN
ASD07_20520	Unknown	R345-RXN
ASD07_03095	Unknown	PENICILLIN-AMIDASE-RXN;RXN-17099
ASD07_07700	Unknown	ASPARTATE-SEMIALDEHYDE-DEHYDROGENASE-RXN
ASD07_04360	Unknown	3.6.1.41-RXN
ASD07_24170	Unknown	URACIL-PRIBOSYLTRANS-RXN
ASD07_14350	Unknown	3-OCTAPRENYL-4-OHBENZOATE-DECARBOX-RXN
ASD07_08605	Unknown	4.2.2.2-RXN
ASD07_08435	Unknown	CDPKIN-RXN;DADPKIN-RXN;DCDPKIN-RXN;DGDPKIN-RXN;DTDPKIN-RXN;DUDPKIN-RXN;GDPKIN-RXN;NUCLEOSIDE-DIP-KIN-RXN;RXN-14120;RXN-14228;UDPKIN-RXN
ASD07_12840	Unknown	RXN0-4261
ASD07_28900	Unknown	RXN0-5131
ASD07_16805	Unknown	MALONYL-COA-ACP-TRANSACYL-RXN
ASD07_14610	Unknown	2-HALOACID-DEHALOGENASE-RXN
ASD07_24090	Unknown	2.7.13.3-RXN
ASD07_17520	ugpQ	GLYCPDIESTER-RXN;RXN-14073;RXN-14136;RXN-14160
ASD07_02630	Unknown	RXN0-3221
ASD07_10360	glnA	GLUTAMINESYN-RXN
ASD07_16035	Unknown	RXN0-1241
ASD07_15720	Unknown	RXN0-1441
ASD07_12895	Unknown	DIHYDROOROT-RXN
ASD07_14100	Unknown	RXN-8889
ASD07_20905	Unknown	NQOR-RXN
ASD07_16810	fabG	3-OXOACYL-ACP-REDUCT-RXN;RXN-10060;RXN-10655;RXN-10659;RXN-11476;RXN-11480;RXN-13008;RXN-16616;RXN-16622;RXN-16626;RXN-16630;RXN-9514;RXN-9518;RXN-9524;RXN-9528;RXN-9532;RXN-9536;RXN-9540;RXN-9552;RXN-9556;RXN-9633;RXN0-2142;RXN1G-157;RXN1G-349;RXN1G-469;RXN1G-508
ASD07_08460	Unknown	HISTIDINE--TRNA-LIGASE-RXN
ASD07_12730	Unknown	ARGININE-N-SUCCINYLTRANSFERASE-RXN;RXN-7561
ASD07_21420	hisG	ATPPHOSPHORIBOSYLTRANS-RXN
ASD07_22085	Unknown	3.2.1.14-RXN;RXN-12309
ASD07_02665	Unknown	ALPHAGALACTOSID-RXN;RXN-11501;RXN-11502;RXN-12088;RXN-17754;RXN-17830
ASD07_09480	Unknown	UDP-NACMURALGLDAPLIG-RXN
ASD07_07310	Unknown	DNA-DIRECTED-DNA-POLYMERASE-RXN;RXN0-4961
ASD07_27290	Unknown	RXN-11355;RXN-12243;RXN-12244
ASD07_24125	Unknown	RXN0-4961
ASD07_08240	gltA	CITSYN-RXN
ASD07_19090	Unknown	DNA-DIRECTED-RNA-POLYMERASE-RXN
ASD07_16490	Unknown	PANTOATE-BETA-ALANINE-LIG-RXN
ASD07_09535	Unknown	1.11.1.15-RXN;RXN0-5468
ASD07_21375	Unknown	HISTPRATPHYD-RXN
ASD07_23750	Unknown	2.7.13.3-RXN
ASD07_23120	Unknown	3.2.2.21-RXN
ASD07_11705	Unknown	2.7.13.3-RXN
ASD07_28515	Unknown	2.3.1.184-RXN;RXN-10020;RXN-10022;RXN-10023;RXN-10024;RXN-10025;RXN-10026
ASD07_10900	Unknown	ACETATE--COA-LIGASE-RXN;RXN-18446;RXN-18447;RXN-18448
ASD07_22165	Unknown	2.1.1.130-RXN
ASD07_07335	pyrG	CTPSYN-RXN;GLUTAMIN-RXN;RXN-14325
ASD07_00910	Unknown	RXN0-4261
ASD07_26625	Unknown	1.3.99.16-RXN
ASD07_27750	Unknown	MYRISTOYLACYLTRAN-RXN
ASD07_19395	Unknown	PHENYLPCARB-RXN
ASD07_28210	Unknown	2.7.13.3-RXN
ASD07_26295	Unknown	RXN-19040;RXN0-6359;THIOSULFATE-SULFURTRANSFERASE-RXN
ASD07_21800	Unknown	RXN0-4301
ASD07_19795	Unknown	3.2.2.21-RXN
ASD07_22850	Unknown	RXN0-4261
ASD07_03220	Unknown	CARBODEHYDRAT-RXN;RXN0-5224
ASD07_29105	Unknown	2.7.1.156-RXN;COBINAMIDEKIN-RXN;RXN-14063
ASD07_17525	Unknown	ALANINE--TRNA-LIGASE-RXN
ASD07_06285	Unknown	RXN0-5131
ASD07_21200	Unknown	3.4.21.83-RXN
ASD07_07690	Unknown	3-ISOPROPYLMALISOM-RXN;RXN-13163;RXN-8991
ASD07_20665	Unknown	ANTHRANSYN-RXN
ASD07_21250	Unknown	OLEATE-HYDRATASE-RXN
ASD07_15685	Unknown	1.6.99.5-RXN;NADH-DEHYDROGENASE-QUINONE-RXN
ASD07_11490	Unknown	2.7.7.33-RXN
ASD07_04025	Unknown	MYRISTOYLACYLTRAN-RXN;MYRPALMTRAN-RXN
ASD07_03985	Unknown	PROLINE--TRNA-LIGASE-RXN
ASD07_11210	Unknown	THI-P-KIN-RXN
ASD07_27090	Unknown	4-CARBOXYMUCONOLACTONE-DECARBOXYLASE-RXN
ASD07_09855	Unknown	D-PPENTOMUT-RXN;PPENTOMUT-RXN
ASD07_05200	Unknown	NICONUCADENYLYLTRAN-RXN
ASD07_26270	Unknown	GPH-RXN
ASD07_15650	Unknown	1.6.99.5-RXN;NADH-DEHYDROGENASE-QUINONE-RXN
ASD07_08005	Unknown	2.7.13.3-RXN
ASD07_19390	Unknown	DARAB5PISOM-RXN
ASD07_21860	Unknown	GSHTRAN-RXN;GST-RXN;RXN-11663;RXN-13673;RXN-15680;RXN-18405;RXN-18407;RXNQT-4363
ASD07_07580	Unknown	DNA-LIGASE-ATP-RXN;RXN-17917;RXN-17918;RXN-17919
ASD07_04550	Unknown	25-DIOXOVALERATE-DEHYDROGENASE-RXN;RXN-8775
ASD07_02640	Unknown	2.7.13.3-RXN
ASD07_11070	Unknown	UROCANATE-HYDRATASE-RXN
ASD07_19100	Unknown	1.6.4.4-RXN
ASD07_11790	Unknown	PSERPHOSPHA-RXN;RXN0-5114
ASD07_10155	Unknown	RXN-8992
ASD07_08455	ispG	RXN0-882
ASD07_23875	ligD	DNA-LIGASE-ATP-RXN;RXN-17917;RXN-17918;RXN-17919
ASD07_28475	gatB	6.3.5.7-RXN
ASD07_11535	Unknown	F16ALDOLASE-RXN;RXN-10053;RXN-8631
ASD07_21835	Unknown	RXN0-2584
ASD07_11060	Unknown	N-FORMYLGLUTAMATE-DEFORMYLASE-RXN
ASD07_00815	Unknown	RXN-982
ASD07_05890	Unknown	MALTODEXGLUCOSID-RXN;RXN-14281;RXN-14282;RXN-14283;RXN-15910;RXN0-5183
ASD07_22060	Unknown	R4-RXN
ASD07_09495	Unknown	UDP-NACMURALA-GLU-LIG-RXN
ASD07_17100	Unknown	GALACTONDEHYDRAT-RXN
ASD07_20070	Unknown	CHLORIDE-PEROXIDASE-RXN
ASD07_29550	Unknown	RXN0-5131
ASD07_25550	Unknown	ATPASE-RXN
ASD07_05450	Unknown	CATAL-RXN;RXN-14189;RXN66-1
ASD07_04385	Unknown	KDOTRANS-RXN
ASD07_03460	Unknown	ISOCIT-CLEAV-RXN
ASD07_18145	Unknown	ASPAMINOTRANS-RXN;RXN-10814;RXN-11737;RXN-13697
ASD07_06540	Unknown	FADSYN-RXN;RIBOFLAVINKIN-RXN;RXN-18510;RXN-18511
ASD07_28215	Unknown	2.7.13.3-RXN
ASD07_04480	Unknown	RXN-14480;RXN-14481;RXN0-5063
ASD07_14365	Unknown	LUMAZINESYN-RXN
ASD07_21585	Unknown	ACYLCOADEHYDROG-RXN;RXN-17775;RXN-17779;RXN-17783;RXN-17784;RXN-17788;RXN-17792;RXN-17796
ASD07_08500	hisZ	ATPPHOSPHORIBOSYLTRANS-RXN
ASD07_17155	Unknown	DIHYDROXYISOVALDEHYDRAT-RXN;DIHYDROXYMETVALDEHYDRAT-RXN
ASD07_05555	Unknown	2.7.13.3-RXN
ASD07_03765	Unknown	KETOACYLCOATHIOL-RXN;RXN-10699;RXN-10700;RXN-10701;RXN-11246;RXN-12565;RXN-12710;RXN-13617;RXN-14268;RXN-14274;RXN-14277;RXN-14394;RXN-14774;RXN-14788;RXN-14793;RXN-14799;RXN-14803;RXN-16137;RXN-17116;RXN-17778;RXN-17782;RXN-17787;RXN-17791;RXN-17795;RXN-17799;RXN-3641
ASD07_02800	Unknown	FMNREDUCT-RXN;NADPH-DEHYDROGENASE-FLAVIN-RXN;RXN-12444
ASD07_28585	Unknown	GLUTCYSLIG-RXN
ASD07_21545	Unknown	3-OCTAPRENYL-4-OHBENZOATE-DECARBOX-RXN
ASD07_12760	Unknown	2.7.13.3-RXN
ASD07_15440	Unknown	PHOSPHASERSYN-RXN
ASD07_04790	Unknown	RXN0-5021
ASD07_12585	Unknown	FRUCTOKINASE-RXN
ASD07_08635	Unknown	RXN0-5131
ASD07_04995	Unknown	25-DIOXOVALERATE-DEHYDROGENASE-RXN;RXN-8775
ASD07_18500	Unknown	4.2.2.7-RXN
ASD07_28825	Unknown	RXN0-4621
ASD07_13585	Unknown	THIOREDOXIN-REDUCT-NADPH-RXN
ASD07_10430	Unknown	GSADENYLATION-RXN
ASD07_06640	Unknown	3.1.26.12-RXN;RXN0-6478;RXN0-6485;RXN0-6521;RXN0-6522;RXN0-6523
ASD07_04375	Unknown	PHOSMANMUT-RXN;PHOSPHOGLUCMUT-RXN;RXN-16997;RXN-16998
ASD07_23745	Unknown	2.7.13.3-RXN
ASD07_08170	Unknown	CATAL-RXN;RXN-14189;RXN66-1
ASD07_27235	Unknown	AKBLIG-RXN
ASD07_24510	Unknown	LYSINE--TRNA-LIGASE-RXN
ASD07_27415	Unknown	PEPTIDYLPROLYL-ISOMERASE-RXN
ASD07_05210	Unknown	GLYRIBONUCSYN-RXN
ASD07_01410	Unknown	CHLORIDE-PEROXIDASE-RXN
ASD07_23135	Unknown	ASPARTATEKIN-RXN
ASD07_25885	Unknown	GSHTRAN-RXN;GST-RXN;RXN-11663;RXN-13673;RXN-15680;RXN-18405;RXN-18407;RXNQT-4363
ASD07_05630	Unknown	1.17.4.2-RXN;RIBONUCLEOSIDE-TRIP-REDUCT-RXN;RXN0-723;RXN0-724;RXN0-745;RXN0-746
ASD07_09050	Unknown	FPPSYN-RXN
ASD07_17925	Unknown	FUMHYDR-RXN
ASD07_29305	Unknown	3.4.11.1-RXN
ASD07_14555	Unknown	MALTODEXGLUCOSID-RXN;RXN-14281;RXN-14282;RXN-14283;RXN-15910;RXN0-5183
ASD07_07265	Unknown	GSHTRAN-RXN;GST-RXN;RXN-11663;RXN-13673;RXN-15680;RXN-18405;RXN-18407;RXNQT-4363
ASD07_05180	Unknown	RXN0-6523
ASD07_07775	Unknown	HOMOSERINE-O-ACETYLTRANSFERASE-RXN
ASD07_16995	Unknown	ISOCIT-CLEAV-RXN
ASD07_16865	Unknown	3.1.26.3-RXN
ASD07_00970	Unknown	MALTODEXGLUCOSID-RXN;RXN-14281;RXN-14282;RXN-14283;RXN-15910;RXN0-5183
ASD07_07400	Unknown	RXN-14569
ASD07_13240	Unknown	EXOPOLYPHOSPHATASE-RXN
ASD07_19425	Unknown	3-HYDROXYISOBUTYRYL-COA-HYDROLASE-RXN;RXN-13721;RXN-6384
ASD07_18540	Unknown	GDP-MANNOSE-6-DEHYDROGENASE-RXN
ASD07_02225	Unknown	RXN-14477;RXN-14478;RXN-14479;RXN0-1661
ASD07_05230	Unknown	METHGLYSYN-RXN
ASD07_11310	Unknown	PEPTIDYLPROLYL-ISOMERASE-RXN
ASD07_21330	Unknown	RXN0-4261
ASD07_07720	Unknown	RXN0-2382;TRYPSYN-RXN
ASD07_06525	Unknown	RXN-11781
ASD07_27300	Unknown	RXN-12263;RXN-13162;RXN-13724;RXN66-281
ASD07_12225	Unknown	TAGAALDOL-RXN
ASD07_25415	Unknown	METHYLMALONYL-COA-MUT-RXN
ASD07_14570	Unknown	GLYCPDIESTER-RXN;RXN-14073;RXN-14136;RXN-14160
ASD07_01785	Unknown	URITRANS-RXN
ASD07_03500	Unknown	RXN0-1441
ASD07_26275	Unknown	DIHYDROOROTATE-DEHYDROGENASE-RXN;RXN0-6491
ASD07_17625	Unknown	RXN-11135
ASD07_10170	obgE	RXN0-5462
ASD07_12310	Unknown	DNA-DIRECTED-DNA-POLYMERASE-RXN
ASD07_27720	Unknown	RXN0-5100
ASD07_20660	trpD	PRTRANS-RXN
ASD07_08905	Unknown	RXN-12610;RXN-12611;THI-P-SYN-RXN
ASD07_00370	Unknown	ADCLY-RXN
ASD07_03315	Unknown	1.14.11.2-RXN
ASD07_18770	Unknown	2-METHYLCITRATE-SYNTHASE-RXN
ASD07_21110	Unknown	4.1.1.32-RXN;RXN-12481
ASD07_27775	Unknown	5-FORMYL-THF-CYCLO-LIGASE-RXN
ASD07_01360	Unknown	DTDPDEHYRHAMREDUCT-RXN
ASD07_24815	Unknown	KANAMYCIN-KINASE-RXN
ASD07_04350	Unknown	RXN-9591
ASD07_27055	Unknown	2.7.13.3-RXN
ASD07_20115	Unknown	GSHTRAN-RXN;GST-RXN;RXN-11663;RXN-13673;RXN-15680;RXN-18405;RXN-18407;RXNQT-4363
ASD07_07710	Unknown	TRNA-PSEUDOURIDINE-SYNTHASE-I-RXN
ASD07_16895	Unknown	PHOSPHAGLYPSYN-RXN
ASD07_17560	Unknown	RXN-14903;RXN0-7008
ASD07_09515	Unknown	DALADALALIG-RXN
ASD07_24210	Unknown	ACETYLHOMOSER-CYS-RXN;O-ACETYLHOMOSERINE-THIOL-LYASE-RXN
ASD07_21415	Unknown	HISTALDEHYD-RXN;HISTOLDEHYD-RXN;RXN-8001
ASD07_15515	Unknown	2.7.7.8-RXN
ASD07_17830	Unknown	3.2.1.52-RXN;RXN-12625;RXN-12626;RXN-18082;RXN0-5226
ASD07_28810	Unknown	N-ACETYLGLUTPREDUCT-RXN;RXN-15006
ASD07_06535	Unknown	ISOLEUCINE--TRNA-LIGASE-RXN
ASD07_21565	Unknown	RXN-14264;RXN0-2301
ASD07_05005	Unknown	GLUCONOLACT-RXN;RXN-8783
ASD07_06670	Unknown	RXN-11833
ASD07_08845	Unknown	METHYLCROTONYL-COA-CARBOXYLASE-RXN
ASD07_14585	Unknown	3.6.3.44-RXN;TRANS-RXN-311
ASD07_21575	Unknown	ACETYL-COA-ACETYLTRANSFER-RXN;METHYLACETOACETYLCOATHIOL-RXN;RXN-12561
ASD07_24140	Unknown	GLYOXII-RXN;RXN-7919
ASD07_13545	Unknown	RXN0-2161;SERINE--TRNA-LIGASE-RXN
ASD07_12735	argD	ACETYLORNTRANSAM-RXN;RXN-15007;SUCCINYLDIAMINOPIMTRANS-RXN
ASD07_15995	Unknown	2.7.13.3-RXN
ASD07_27740	Unknown	DIAMINOPIMEPIM-RXN
ASD07_00440	Unknown	QUINOPRIBOTRANS-RXN
ASD07_24270	thyA	THYMIDYLATESYN-RXN
ASD07_16465	Unknown	ARYLSULFAT-RXN
ASD07_06445	Unknown	RXN1A0-6303
ASD07_01680	rnhB	3.1.26.4-RXN
ASD07_02845	Unknown	SERINE-O-ACETTRAN-RXN
ASD07_14155	Unknown	PRPPSYN-RXN
ASD07_06585	Unknown	ADDALT-RXN;ADENODEAMIN-RXN
ASD07_02030	Unknown	THREONINE--TRNA-LIGASE-RXN
ASD07_06460	Unknown	ARGINYLTRANSFERASE-RXN;RXN-17888;RXN-17889;RXN-17890;RXN-17891
ASD07_18860	Unknown	RXN-12720;SULFATE-ADENYLYLTRANS-RXN
ASD07_09030	Unknown	MERCAPYSTRANS-RXN;RXN-18702;RXN-18703;RXN0-6945
ASD07_26255	Unknown	ACETYLGLUTKIN-RXN;RXN-15005
ASD07_27580	Unknown	PRODISULFREDUCT-RXN;RXN0-7271
ASD07_06600	Unknown	2.7.13.3-RXN
ASD07_11525	Unknown	RXN0-743
ASD07_09760	Unknown	ADDALT-RXN;ADENODEAMIN-RXN
ASD07_20880	Unknown	2.7.13.3-RXN
ASD07_17060	Unknown	3.2.1.18-RXN
ASD07_08670	Unknown	GLYOXIII-RXN
ASD07_04585	Unknown	PEPTIDYLPROLYL-ISOMERASE-RXN
ASD07_10390	Unknown	2.7.13.3-RXN
ASD07_08220	Unknown	RXN-14971;RXN-15378;SUCCINATE-DEHYDROGENASE-UBIQUINONE-RXN
ASD07_04275	Unknown	GSAAMINOTRANS-RXN
ASD07_04595	Unknown	CARBODEHYDRAT-RXN;RXN0-5224
ASD07_15445	Unknown	2-ISOPROPYLMALATESYN-RXN
ASD07_16820	Unknown	2.3.1.179-RXN;2.3.1.41-RXN;3-OXOACYL-ACP-SYNTH-BASE-RXN;3-OXOACYL-ACP-SYNTH-RXN;RXN-10654;RXN-10658;RXN-11474;RXN-11479;RXN-16615;RXN-16621;RXN-16625;RXN-16629;RXN-8391;RXN-9516;RXN-9523;RXN-9527;RXN-9531;RXN-9535;RXN-9539;RXN0-2141;RXN1G-460;RXN3O-1803
ASD07_09390	Unknown	GAMMA-GLUTAMYLTRANSFERASE-RXN;RXN-18092;RXN-6601;RXN-9157;RXN66-336
ASD07_11325	Unknown	PMPOXI-RXN;PNPOXI-RXN
ASD07_04200	Unknown	3-DEHYDROQUINATE-DEHYDRATASE-RXN
ASD07_12475	mnmA	RXN0-2023
ASD07_19525	Unknown	RXN-9235
ASD07_18875	Unknown	NADPH-DEHYDROGENASE-FLAVIN-RXN
ASD07_04575	Unknown	RXN0-6274
ASD07_08920	Unknown	RXN-17884;RXN-2962
ASD07_22080	Unknown	3.2.1.14-RXN;RXN-12309
ASD07_28400	argS	ARGININE--TRNA-LIGASE-RXN
ASD07_11660	Unknown	DIMETHUROPORDEHYDROG-RXN
ASD07_11945	Unknown	PROTOHEMEFERROCHELAT-RXN
ASD07_04765	Unknown	DAHPSYN-RXN
ASD07_18155	Unknown	2.5.1.19-RXN
ASD07_03105	Unknown	PMPOXI-RXN;PNPOXI-RXN
ASD07_07500	Unknown	ATPASE-RXN
ASD07_03090	Unknown	CARBOXYMETHYLENEBUTENOLIDASE-RXN;DIENELACHYDRO-RXN;RXN-9857;RXN-9868;RXN-9887;RXN-9890
ASD07_27760	Unknown	ADENOSYLHOMOCYSTEINASE-RXN
ASD07_01875	Unknown	GCVP-RXN
ASD07_27005	Unknown	RXN0-5131
ASD07_07255	Unknown	DNA-DIRECTED-DNA-POLYMERASE-RXN;RXN0-4961
ASD07_19125	Unknown	2.7.13.3-RXN
ASD07_16800	Unknown	2.3.1.180-RXN
ASD07_23820	Unknown	GLYCERATE-DEHYDROGENASE-RXN
ASD07_08320	Unknown	RXN0-4261
ASD07_12120	Unknown	TRNA-GUANINE-N7--METHYLTRANSFERASE-RXN
ASD07_06610	Unknown	RXN0-5100
ASD07_21115	Unknown	PGLYCDEHYDROG-RXN
ASD07_09890	Unknown	GLYOXIII-RXN
ASD07_14300	Unknown	2.7.13.3-RXN
ASD07_20155	Unknown	DTDPGLUCDEHYDRAT-RXN
ASD07_10060	Unknown	DNA-DIRECTED-DNA-POLYMERASE-RXN
ASD07_16340	Unknown	2.7.13.3-RXN
ASD07_00220	fabG	3-OXOACYL-ACP-REDUCT-RXN;RXN-10060;RXN-10655;RXN-10659;RXN-11476;RXN-11480;RXN-13008;RXN-16616;RXN-16622;RXN-16626;RXN-16630;RXN-9514;RXN-9518;RXN-9524;RXN-9528;RXN-9532;RXN-9536;RXN-9540;RXN-9552;RXN-9556;RXN-9633;RXN0-2142;RXN1G-157;RXN1G-349;RXN1G-469;RXN1G-508
ASD07_14860	Unknown	RXN0-5462
ASD07_11530	Unknown	SAICARSYN-RXN
ASD07_27250	Unknown	THRESYN-RXN
ASD07_02635	Unknown	3.4.21.26-RXN
ASD07_04785	Unknown	6.3.5.7-RXN
ASD07_14785	Unknown	PROTEIN-KINASE-RXN
ASD07_09180	Unknown	4OHBENZOATE-OCTAPRENYLTRANSFER-RXN
ASD07_04615	Unknown	RXN-12104
ASD07_10880	Unknown	GLUTRACE-RXN
ASD07_15680	Unknown	1.6.99.5-RXN;NADH-DEHYDROGENASE-QUINONE-RXN
ASD07_25135	Unknown	TRYPTOPHAN--TRNA-LIGASE-RXN
ASD07_05690	Unknown	1.14.11.18-RXN;RXN66-470
ASD07_10415	gapA	GAPOXNPHOSPHN-RXN
ASD07_28870	Unknown	3.1.22.4-RXN
ASD07_21985	Unknown	2.7.13.3-RXN
ASD07_03510	Unknown	4-CARBOXYMUCONOLACTONE-DECARBOXYLASE-RXN
ASD07_23565	Unknown	D-AMINO-ACID-OXIDASE-RXN;RXN-8163
ASD07_12720	astD	SUCCGLUALDDEHYD-RXN
ASD07_19470	Unknown	RXN-10837;RXN-9382
ASD07_23915	ureB	UREASE-RXN
ASD07_18230	Unknown	ACSERLY-RXN;RXN-12726
ASD07_12500	Unknown	GSHTRAN-RXN;GST-RXN;RXN-11663;RXN-13673;RXN-15680;RXN-18405;RXN-18407;RXNQT-4363
ASD07_04320	Unknown	DEOXYRIBODIPYRIMIDINE-PHOTOLYASE-RXN;RXN-19025;RXN-19026;RXN-19242;RXN-19243;RXN-19244;RXN-19245;RXN-19246;RXN-19247;RXN-19248
ASD07_01580	Unknown	IMP-DEHYDROG-RXN
ASD07_02735	Unknown	GSHTRAN-RXN;GST-RXN;RXN-11663;RXN-13673;RXN-15680;RXN-18405;RXN-18407;RXNQT-4363
ASD07_00875	Unknown	1.8.1.4-RXN;2OXOGLUTARATEDEH-RXN;2OXOGLUTDECARB-RXN;RXN-7716;RXN-7719;RXN-8629;RXN0-1132;RXN0-1147
ASD07_08215	Unknown	RXN-14971;RXN-15378;SUCCINATE-DEHYDROGENASE-UBIQUINONE-RXN
ASD07_11540	Unknown	PEPDEPHOS-RXN;RXN-14117;RXN-14192;RXN-14207
ASD07_07290	Unknown	2.7.13.3-RXN
ASD07_17410	sbcB	3.1.11.1-RXN
ASD07_27435	Unknown	1.8.4.12-RXN
ASD07_10175	Unknown	GLUTKIN-RXN
ASD07_09220	Unknown	PRPPAMIDOTRANS-RXN
ASD07_22040	fadH	DIENOYLCOAREDUCT-RXN;RXN-12521;RXN-14715;RXN-14776;RXN-14790;RXN-7835;RXN-7911
ASD07_20160	Unknown	DTDPDEHYRHAMREDUCT-RXN
ASD07_19900	Unknown	RXN-12093
ASD07_08895	Unknown	THIAZOLSYN2-RXN
ASD07_21960	Unknown	CYTOCHROME-C-OXIDASE-RXN;RXN-15830
ASD07_21245	Unknown	4.1.1.74-RXN;PHENYLPYRUVATE-DECARBOXYLASE-RXN
ASD07_09850	Unknown	ADENPHOSPHOR-RXN;DEOXYADENPHOSPHOR-RXN;DEOXYGUANPHOSPHOR-RXN;DEOXYINOPHOSPHOR-RXN;INOPHOSPHOR-RXN;PNP-RXN;RXN-11715;RXN-11743;RXN-14029;RXN-7001;RXN0-5199;XANTHOSINEPHOSPHORY-RXN
ASD07_23030	Unknown	ADPREDUCT-RXN;CDPREDUCT-RXN;GDPREDUCT-RXN;RIBONUCLEOSIDE-DIP-REDUCTI-RXN;RIBONUCLEOSIDE-DIP-REDUCTII-RXN;RXN0-722;RXN0-747;RXN0-748;UDPREDUCT-RXN
ASD07_06080	Unknown	METHENYLTHFCYCLOHYDRO-RXN;METHYLENETHFDEHYDROG-NADP-RXN
ASD07_18245	Unknown	2.3.2.13-RXN;RXN-19236
ASD07_04525	Unknown	3-OXOACYL-ACP-REDUCT-RXN;RXN-10060;RXN-10655;RXN-10659;RXN-11476;RXN-11480;RXN-13008;RXN-16616;RXN-16622;RXN-16626;RXN-16630;RXN-9514;RXN-9518;RXN-9524;RXN-9528;RXN-9532;RXN-9536;RXN-9540;RXN-9552;RXN-9556;RXN-9633;RXN0-2142;RXN1G-157;RXN1G-349;RXN1G-469;RXN1G-508
ASD07_03145	Unknown	AMP-NUCLEOSID-RXN
ASD07_19325	Unknown	AMINOCYL-TRNA-HYDROLASE-RXN;RXN-16637
ASD07_15490	Unknown	RXN0-5268
ASD07_06520	Unknown	DUTP-PYROP-RXN
ASD07_19495	Unknown	RXN-15122;THREDEHYD-RXN
ASD07_09445	glpK	GLYCEROL-KIN-RXN
ASD07_03465	Unknown	RXN0-5131
ASD07_13395	Unknown	RXN-2103
ASD07_00320	Unknown	DEHYDDEOXPHOSGALACT-ALDOL-RXN
ASD07_09485	Unknown	6.3.2.10-RXN;UDP-NACMURALGLDAPAALIG-RXN
ASD07_18015	Unknown	RXN0-5375
ASD07_07410	Unknown	TRYPTOPHAN--TRNA-LIGASE-RXN
ASD07_24810	Unknown	3.1.3.46-RXN
ASD07_25560	Unknown	2.7.10.1-RXN
ASD07_11065	Unknown	HISTIDINE-AMMONIA-LYASE-RXN
ASD07_02400	Unknown	2.7.13.3-RXN
ASD07_02180	Unknown	GLYCERATE-DEHYDROGENASE-RXN;HYDROXYPYRUVATE-REDUCTASE-RXN;RXN0-300
ASD07_10960	Unknown	RXN0-5131
ASD07_22270	putA	PYRROLINECARBDEHYDROG-RXN;RXN-14116;RXN-14903;RXN0-7008
ASD07_06935	Unknown	2.7.13.3-RXN
ASD07_07910	Unknown	GSHTRAN-RXN;GST-RXN;RXN-11663;RXN-13673;RXN-15680;RXN-18405;RXN-18407;RXNQT-4363
ASD07_14120	Unknown	RXN-11376;RXN3DJ-11417;RXN3O-458;SPHINGANINE-KINASE-RXN
ASD07_15820	Unknown	3.4.13.19-RXN;RXN-15682;RXN66-337
ASD07_14390	Unknown	RIBOFLAVIN-SYN-RXN
ASD07_16535	Unknown	METHIONINE--TRNA-LIGASE-RXN;RXN-16165
ASD07_11475	Unknown	ACETOLACTSYN-RXN;ACETOOHBUTSYN-RXN
ASD07_00350	Unknown	RXN-10837;RXN-9382
ASD07_16880	Unknown	PDXJ-RXN
ASD07_20075	Unknown	CATAL-RXN;RXN-14189;RXN66-1
ASD07_15465	Unknown	2.7.13.3-RXN
ASD07_10520	Unknown	GLUCOKIN-RXN;HEXOKINASE-RXN
ASD07_12945	Unknown	ALKAPHOSPHA-RXN;RXN-5822;RXN-8748
ASD07_29140	Unknown	COBALAMIN5PSYN-RXN;COBALAMINSYN-RXN;RXN-19296;RXN-19297;RXN-19302;RXN-19303;RXN-19304;RXN-19305;RXN-19307;RXN-19308
ASD07_12575	Unknown	FRUCTOKINASE-RXN
ASD07_07055	Unknown	LYSOPHOSPHOLIPASE-RXN;RXN-15035;RXN-19312
ASD07_24580	Unknown	PSERPHOSPHA-RXN;RXN0-5114
ASD07_29355	Unknown	2.7.13.3-RXN
ASD07_09695	Unknown	DEPHOSPHOCOAKIN-RXN
ASD07_17175	Unknown	3.2.1.55-RXN
ASD07_06650	Unknown	2-HALOACID-DEHALOGENASE-RXN;3.8.1.11-RXN;RXN-6263;RXN-6264
ASD07_13375	Unknown	3.2.1.40-RXN;QUERCITRINASE-RXN;RXN-13788;RXN-14574;RXN-16248;RXN-16249;RXN-16250
ASD07_22920	Unknown	RXN0-7023
ASD07_25410	Unknown	1.2.7.8-RXN
ASD07_21615	Unknown	RXN0-7023
ASD07_06115	Unknown	RXN0-1133
ASD07_14315	Unknown	2.7.13.3-RXN
ASD07_22225	glmU	2.3.1.157-RXN;NAG1P-URIDYLTRANS-RXN
ASD07_00365	tmk	DTMPKI-RXN
ASD07_11380	Unknown	PPGPPSYN-RXN
ASD07_21755	Unknown	METHYLCROTONYL-COA-CARBOXYLASE-RXN
ASD07_00475	Unknown	RXN0-5507
ASD07_27795	Unknown	HISTONE-ACETYLTRANSFERASE-RXN
ASD07_00185	Unknown	DNA-DIRECTED-DNA-POLYMERASE-RXN
ASD07_27745	Unknown	MYRISTOYLACYLTRAN-RXN
ASD07_21425	Unknown	UDPNACETYLGLUCOSAMENOLPYRTRANS-RXN
ASD07_15705	Unknown	1.6.99.5-RXN;NADH-DEHYDROGENASE-QUINONE-RXN
ASD07_24460	Unknown	CYCPHOSDIESTER-RXN;RXN-14064;RXN-14091;RXN-14112;RXN-14113
ASD07_18335	Unknown	3.1.11.6-RXN
ASD07_08860	Unknown	DIENOYLCOAREDUCT-RXN;RXN-12521;RXN-14715;RXN-14776;RXN-14790;RXN-7835;RXN-7911
ASD07_09560	Unknown	UDPACYLGLCNACDEACETYL-RXN
ASD07_14925	Unknown	2-NITROPROPANE-DIOXYGENASE-RXN
ASD07_11015	Unknown	RXN0-5131
ASD07_20230	Unknown	GLUCISOM-RXN;XYLISOM-RXN
ASD07_10000	Unknown	ACYLCOADEHYDROG-RXN;RXN-17775;RXN-17779;RXN-17783;RXN-17784;RXN-17788;RXN-17792;RXN-17796
ASD07_05365	Unknown	ISOCHORMAT-RXN
ASD07_01970	Unknown	2.7.13.3-RXN
ASD07_23250	Unknown	3.1.1.75-RXN
ASD07_12590	Unknown	AMYLOSUCRASE-RXN
ASD07_25910	Unknown	RXN-12560;RXN-13279;RXN-5901
ASD07_15540	Unknown	2.7.13.3-RXN
ASD07_19315	Unknown	UREASE-RXN
ASD07_25985	Unknown	GLUTRNAREDUCT-RXN
ASD07_18135	Unknown	PSERTRANSAM-RXN;PSERTRANSAMPYR-RXN
ASD07_03160	Unknown	THYM-PHOSPH-RXN
ASD07_07165	Unknown	ACYLCOADEHYDROG-RXN;RXN-17775;RXN-17779;RXN-17783;RXN-17784;RXN-17788;RXN-17792;RXN-17796
ASD07_09735	Unknown	ALLANTOINASE-RXN
ASD07_10110	Unknown	N-ACYLGLUCOSAMINE-2-EPIMERASE-RXN;R381-RXN;RXN-16006
ASD07_21400	Unknown	IMIDPHOSDEHYD-RXN
ASD07_27820	Unknown	4-HYDROXYPHENYLPYRUVATE-DIOXYGENASE-RXN;RXN-10815
ASD07_08405	Unknown	2.1.1.77-RXN
ASD07_11960	ppnK	NAD-KIN-RXN
ASD07_24615	rimO	RXN0-6366
ASD07_12180	Unknown	R4-RXN
ASD07_09770	Unknown	3-NUCLEOTID-RXN;5-NUCLEOTID-RXN;AMP-DEPHOSPHORYLATION-RXN;CYCPHOSDIESTER-RXN;RXN-14025;RXN-14026;RXN-14064;RXN-14090;RXN-14091;RXN-14112;RXN-14113;RXN-14115;RXN-14124;RXN-14126;RXN-14227;RXN-5841;RXN-7607;RXN-7609;XMPXAN-RXN
ASD07_24890	Unknown	CYSTATHIONINE-BETA-SYNTHASE-RXN;RXN-19038;RXN66-534;RXN66-562
ASD07_19285	Unknown	PRPPSYN-RXN
ASD07_28670	Unknown	3.5.1.27-RXN;3.5.1.88-RXN
ASD07_13155	Unknown	2-ISOPROPYLMALATESYN-RXN
ASD07_22140	Unknown	RXN-8762
ASD07_28175	Unknown	POLYPHOSPHATE-KINASE-RXN
ASD07_08865	Unknown	ACYLCOADEHYDROG-RXN;RXN-17775;RXN-17779;RXN-17783;RXN-17784;RXN-17788;RXN-17792;RXN-17796
ASD07_14340	Unknown	DNA-DIRECTED-DNA-POLYMERASE-RXN
ASD07_18765	prpB	METHYLISOCITRATE-LYASE-RXN
ASD07_20165	Unknown	DTDPGLUCOSEPP-RXN
ASD07_22190	Unknown	RXN-8771
ASD07_25275	Unknown	1.10.2.2-RXN;RXN-15829
ASD07_06340	Unknown	ORNITHINE-CYCLODEAMINASE-RXN
ASD07_01110	Unknown	PYRIDOXAL-4-DEHYDROGENASE-RXN
ASD07_06985	Unknown	GUANYL-KIN-RXN
ASD07_08515	Unknown	PEPTIDYLPROLYL-ISOMERASE-RXN
ASD07_15265	Unknown	MALEYLACETOACETATE-ISOMERASE-RXN
ASD07_05835	Unknown	RXN0-5131
ASD07_22800	Unknown	2.7.13.3-RXN
ASD07_23125	Unknown	ACETYL-COA-CARBOXYLTRANSFER-RXN;RXN0-5055
ASD07_09465	Unknown	RXN-11638
ASD07_09905	Unknown	2.7.13.3-RXN
ASD07_11825	Unknown	GLUTAMINESYN-RXN
ASD07_29165	Unknown	ACID-PHOSPHATASE-RXN;RXN-5822
ASD07_18350	Unknown	TETRAACYLDISACC4KIN-RXN
ASD07_27755	Unknown	S-ADENMETSYN-RXN
ASD07_04330	Unknown	3.1.22.4-RXN
ASD07_15485	Unknown	RXN0-5268
ASD07_06690	Unknown	FUMARYLACETOACETASE-RXN
ASD07_14220	Unknown	RXN0-5131
ASD07_07845	Unknown	GLYOXIII-RXN
ASD07_16100	Unknown	GSHTRAN-RXN;GST-RXN;RXN-11663;RXN-13673;RXN-15680;RXN-18405;RXN-18407;RXNQT-4363
ASD07_03865	Unknown	3.4.15.6-RXN
ASD07_01150	Unknown	MALTODEXGLUCOSID-RXN;RXN-14281;RXN-14282;RXN-14283;RXN-15910;RXN0-5183
ASD07_14665	Unknown	DCTP-DEAM-RXN;RXN-14118
ASD07_12660	Unknown	3.1.4.14-RXN
ASD07_04855	Unknown	RXN-12130
ASD07_18375	Unknown	1.1.1.178-RXN
ASD07_09965	Unknown	DIHYDROURACIL-DEHYDROGENASE-NAD+-RXN;RXN0-6565
ASD07_29285	Unknown	2.7.13.3-RXN
ASD07_07345	eno	2PGADEHYDRAT-RXN
ASD07_18380	Unknown	GAMMA-GLUTAMYLTRANSFERASE-RXN;RXN-18092;RXN-6601;RXN-9157;RXN66-336
ASD07_09875	Unknown	CYTIDEAM-RXN;CYTIDEAM2-RXN
ASD07_06120	Unknown	1.8.1.4-RXN;2OXOGLUTARATEDEH-RXN;2OXOGLUTDECARB-RXN;RXN-7716;RXN-7719;RXN-8629;RXN0-1132;RXN0-1147
ASD07_07440	Unknown	PEPTIDYLPROLYL-ISOMERASE-RXN
ASD07_09955	Unknown	1.2.1.27-RXN;RXN-11213;RXN-2902
ASD07_16990	Unknown	RXN0-5131
ASD07_18535	Unknown	4.2.2.7-RXN
ASD07_27400	Unknown	FGAMSYN-RXN
ASD07_26470	fliI	ATPSYN-RXN
ASD07_04345	Unknown	DIHYDROOROT-RXN
ASD07_12775	Unknown	ADENYLYLSULFKIN-RXN
ASD07_22155	Unknown	RXN-8764
ASD07_01685	Unknown	LIPIDADISACCHARIDESYNTH-RXN
ASD07_04420	Unknown	RXN0-4361
ASD07_00255	Unknown	2.7.13.3-RXN
ASD07_27385	Unknown	5-OXOPROLINASE-ATP-HYDROLYSING-RXN
ASD07_20170	Unknown	DTDPDEHYDRHAMEPIM-RXN
ASD07_10100	Unknown	3.2.1.25-RXN
ASD07_29095	Unknown	4.1.1.81-RXN
ASD07_11520	Unknown	AIRCARBOXY-RXN
ASD07_06245	Unknown	SPERMIDINESYN-RXN
ASD07_18025	Unknown	NICOTINATEPRIBOSYLTRANS-RXN
ASD07_28745	Unknown	OCTAPRENYL-METHYL-METHOXY-BENZOQ-OH-RXN
ASD07_17020	Unknown	RXN0-5131
ASD07_25125	Unknown	3.5.1.93-RXN
ASD07_16380	Unknown	RXN-8665
ASD07_07865	Unknown	GUANYLCYC-RXN
ASD07_22750	Unknown	CYTOCHROME-C-OXIDASE-RXN;RXN-15830
ASD07_18140	Unknown	CHORISMATEMUT-RXN
ASD07_26355	Unknown	SPERMIDINESYN-RXN
ASD07_25670	Unknown	RXN-17155
ASD07_19635	Unknown	ENOYL-COA-HYDRAT-RXN;METHYLACYLYLCOA-HYDROXY-RXN;RXN-10697;RXN-10704;RXN-10705;RXN-11244;RXN-12567;RXN-13616;RXN-14266;RXN-14272;RXN-14273;RXN-16135;RXN-16558;RXN-17114;RXN-17475;RXN-17776;RXN-17780;RXN-17785;RXN-17789;RXN-17793;RXN-17797;RXN-2425;RXN0-5393;TIGLYLCOA-HYDROXY-RXN
ASD07_24395	Unknown	3.1.21.1-RXN
ASD07_08190	acnA	ACONITATEDEHYDR-RXN;ACONITATEHYDR-RXN;RXN-14047
ASD07_09055	Unknown	DXS-RXN
ASD07_11665	Unknown	DIMETHUROPORDEHYDROG-RXN
ASD07_24530	Unknown	RXN-15740;RXN-15745;RXN0-5260
ASD07_20140	Unknown	GLUC1PURIDYLTRANS-RXN
ASD07_21320	Unknown	RXN-10642;UROGENDECARBOX-RXN
ASD07_21945	Unknown	CYTOCHROME-C-OXIDASE-RXN;RXN-15830
ASD07_27295	Unknown	RXN-12263;RXN-13162;RXN-13724;RXN66-281
ASD07_13775	purU	FORMYLTHFDEFORMYL-RXN
ASD07_13655	Unknown	UROGENIIISYN-RXN
ASD07_26010	Unknown	ACETYLPUTRESCINE-DEACETYLASE-RXN
ASD07_28875	Unknown	RXN0-4261
ASD07_21405	Unknown	HISTAMINOTRANS-RXN
ASD07_09845	Unknown	RXN0-5398
ASD07_16155	Unknown	UNSPECIFIC-MONOOXYGENASE-RXN
ASD07_13535	Unknown	FMNREDUCT-RXN;NADPH-DEHYDROGENASE-FLAVIN-RXN;RXN-12444
ASD07_16885	Unknown	HOLO-ACP-SYNTH-RXN
ASD07_04240	aroE	SHIKIMATE-5-DEHYDROGENASE-RXN
ASD07_02355	fliI	ATPSYN-RXN
ASD07_19480	Unknown	PROTEIN-KINASE-RXN
ASD07_01460	Unknown	ATPASE-RXN
ASD07_12000	Unknown	GLYOXI-RXN
ASD07_17865	Unknown	ATPASE-RXN
ASD07_02175	Unknown	RXN0-5289;TSA-REDUCT-RXN
ASD07_24185	Unknown	2.7.13.3-RXN
ASD07_04495	Unknown	2.7.13.3-RXN
ASD07_25915	Unknown	ACETYL-COA-ACETYLTRANSFER-RXN;METHYLACETOACETYLCOATHIOL-RXN;RXN-12561
ASD07_28605	Unknown	RXN0-4301
ASD07_18110	Unknown	GPH-RXN
ASD07_12455	Unknown	NAD-SYNTH-GLN-RXN;NAD-SYNTH-NH3-RXN
ASD07_06470	Unknown	RXN0-1441
ASD07_00960	Unknown	3.2.1.37-RXN
ASD07_02145	Unknown	1.5.5.1-RXN;RXN66-550
ASD07_17040	Unknown	5-NUCLEOTID-RXN;AMP-DEPHOSPHORYLATION-RXN;RXN-14025;RXN-14026;RXN-14227;RXN-5841;RXN-7607;RXN-7609;XMPXAN-RXN
ASD07_26015	Unknown	ATPASE-RXN
ASD07_13135	Unknown	2.7.9.3-RXN
ASD07_28010	Unknown	2.7.13.3-RXN
ASD07_22815	Unknown	RXN0-5131
ASD07_29085	Unknown	R345-RXN
ASD07_04190	Unknown	BIOTIN-CARBOXYL-RXN
ASD07_27420	Unknown	PEPTIDYLPROLYL-ISOMERASE-RXN
ASD07_16870	Unknown	RXN0-5462
ASD07_19940	Unknown	2.7.13.3-RXN
ASD07_03980	Unknown	RXN0-5510
ASD07_07125	Unknown	GLUCONOLACT-RXN;RXN-8783
ASD07_10410	Unknown	1TRANSKETO-RXN;2TRANSKETO-RXN
ASD07_24130	rnhA	3.1.26.4-RXN
ASD07_13105	Unknown	GLUTAMATE-DEHYDROGENASE-NADP+-RXN;GLUTAMATE-DEHYDROGENASE-RXN;GLUTDEHYD-RXN
ASD07_15255	Unknown	GLYOXIII-RXN
ASD07_01740	Unknown	RXN-12002
ASD07_05620	Unknown	PROTEIN-TYROSINE-PHOSPHATASE-RXN
ASD07_03855	Unknown	ARGSUCCINLYA-RXN;RXN-22
ASD07_06065	Unknown	DNA-DIRECTED-DNA-POLYMERASE-RXN
ASD07_09140	Unknown	PYRROLINECARBREDUCT-RXN;RXN66-546
ASD07_22280	Unknown	ADENOSYLHOMOCYSTEINE-NUCLEOSIDASE-RXN
ASD07_17025	Unknown	ISOCIT-CLEAV-RXN
ASD07_05095	dnaE	DNA-DIRECTED-DNA-POLYMERASE-RXN
ASD07_03760	Unknown	RXN-10819
ASD07_28645	Unknown	HOMOCYSMET-RXN;HOMOCYSMETB12-RXN
ASD07_21740	Unknown	7KAPSYN-RXN;RXN-11484
ASD07_02210	Unknown	R122-RXN
ASD07_08180	Unknown	ADENYLATECYC-RXN
ASD07_06625	Unknown	RXN-16427;RXN-16456;RXN0-262
ASD07_19695	Unknown	2-HALOACID-DEHALOGENASE-RXN
ASD07_18200	Unknown	DNA-DIRECTED-DNA-POLYMERASE-RXN
ASD07_20080	Unknown	CHLORIDE-PEROXIDASE-RXN
ASD07_23455	Unknown	2.7.13.3-RXN
ASD07_11770	Unknown	AIRS-RXN
ASD07_27245	Unknown	4.3.1.17-RXN;RXN-15125
ASD07_07085	Unknown	RXN-15849;RXN-7563
ASD07_20215	Unknown	RXN0-5131
ASD07_07965	Unknown	HOMOSERDEHYDROG-RXN
ASD07_11485	Unknown	CDP-GLUCOSE-46-DEHYDRATASE-RXN
ASD07_23340	Unknown	ISOCHORMAT-RXN
ASD07_13920	Unknown	MYO-INOSITOL-1OR-4-MONOPHOSPHATASE-RXN;RXN-7253;RXN0-5408
ASD07_18115	Unknown	2-OCTAPRENYL-6-OHPHENOL-METHY-RXN;DHHB-METHYLTRANSFER-RXN
ASD07_23685	Unknown	2.7.13.3-RXN
ASD07_02245	Unknown	HISTIDINE-AMMONIA-LYASE-RXN
ASD07_06220	Unknown	RXN-11109
ASD07_23115	Unknown	CYSTEINE--TRNA-LIGASE-RXN
ASD07_03745	Unknown	ENOYL-COA-HYDRAT-RXN;METHYLACYLYLCOA-HYDROXY-RXN;RXN-10697;RXN-10704;RXN-10705;RXN-11244;RXN-12567;RXN-13616;RXN-14266;RXN-14272;RXN-14273;RXN-16135;RXN-16558;RXN-17114;RXN-17475;RXN-17776;RXN-17780;RXN-17785;RXN-17789;RXN-17793;RXN-17797;RXN-2425;RXN0-5393;TIGLYLCOA-HYDROXY-RXN
ASD07_29540	Unknown	RXN0-5100
ASD07_11740	Unknown	6PFRUCTPHOS-RXN
ASD07_15730	Unknown	2.7.7.60-RXN
ASD07_11925	Unknown	CARBODEHYDRAT-RXN;RXN0-5224
ASD07_02260	Unknown	ALLANTOATE-DEIMINASE-RXN
ASD07_21295	Unknown	RXN0-4261
ASD07_00410	Unknown	GLUCONATE-5-DEHYDROGENASE-RXN
ASD07_27365	Unknown	RXN0-2281
ASD07_07815	Unknown	RXN0-4261
ASD07_00880	Unknown	1.2.4.4-RXN;2.3.1.168-RXN;KETOISOCAPROATE-RXN;METHYLVALERATE-RXN;RXN-7790
ASD07_24365	Unknown	2.7.13.3-RXN
ASD07_25030	Unknown	PROTEIN-KINASE-RXN
ASD07_29110	Unknown	R341-RXN;RXN-14256;RXN-14257;RXN-8769
ASD07_21765	Unknown	HYDROXYMETHYLGLUTARYL-COA-LYASE-RXN
ASD07_21955	Unknown	CYTOCHROME-C-OXIDASE-RXN;RXN-15830
ASD07_29115	Unknown	BTUR2-RXN;COBALADENOSYLTRANS-RXN;R344-RXN
ASD07_07295	Unknown	PANTEPADENYLYLTRAN-RXN
ASD07_10470	Unknown	DAHPSYN-RXN
ASD07_18360	Unknown	ADENYL-KIN-RXN
ASD07_02165	Unknown	GLYOCARBOLIG-RXN
ASD07_23290	Unknown	R101-RXN
ASD07_12460	Unknown	PYRNUTRANSHYDROGEN-RXN;TRANS-RXN0-277
ASD07_19630	Unknown	ACETYL-COA-ACETYLTRANSFER-RXN;METHYLACETOACETYLCOATHIOL-RXN;RXN-12561
ASD07_16365	Unknown	R4-RXN
ASD07_19235	Unknown	3-DEHYDROQUINATE-SYNTHASE-RXN
ASD07_22160	Unknown	2.1.1.132-RXN;RXN-13824;RXN-13826
ASD07_00925	Unknown	FUMARYLACETOACETASE-RXN
ASD07_21725	Unknown	METHYLCROTONYL-COA-CARBOXYLASE-RXN
ASD07_03215	Unknown	1.6.4.4-RXN
ASD07_26345	Unknown	ALKAPHOSPHA-RXN;RXN-5822;RXN-8748
ASD07_09755	Unknown	GUANINE-DEAMINASE-RXN;RXN-15261
ASD07_15840	Unknown	DGTPTRIPHYDRO-RXN
ASD07_27785	Unknown	GSHTRAN-RXN;GST-RXN;RXN-11663;RXN-13673;RXN-15680;RXN-18405;RXN-18407;RXNQT-4363
ASD07_07375	Unknown	RXN0-1061
ASD07_25220	Unknown	RXN0-5131
ASD07_12835	Unknown	RXN0-1342
ASD07_21675	Unknown	ATPASE-RXN
ASD07_06975	Unknown	PPGPPSYN-RXN
ASD07_21390	Unknown	PRIBFAICARPISOM-RXN
ASD07_12570	Unknown	GLYOXIII-RXN
ASD07_05135	Unknown	RXN0-5061
ASD07_10810	Unknown	RXN0-1281
ASD07_00595	Unknown	CYTOCHROME-C-OXIDASE-RXN;RXN-15830
ASD07_15425	Unknown	ALKAPHOSPHA-RXN;RXN-5822;RXN-8748
ASD07_21540	Unknown	PRODISULFREDUCT-RXN;RXN0-7271
ASD07_02790	Unknown	RXN-13418;RXN-15341;RXN0-280;RXN0-6973
ASD07_10555	truB	TRNA-PSEUDOURIDINE-SYNTHASE-I-RXN
ASD07_27040	Unknown	FMNREDUCT-RXN;NADPH-DEHYDROGENASE-FLAVIN-RXN;RXN-12444
ASD07_11965	Unknown	GLYOXIII-RXN
ASD07_16040	Unknown	SUCCDIAMINOPIMDESUCC-RXN
ASD07_22555	Unknown	POLYPHOSPHATE-KINASE-RXN
ASD07_08750	Unknown	ACYLCOASYN-RXN;LINOLENOYL-RXN;R223-RXN;RXN-12184;RXN-12978;RXN-13290;RXN-13614;RXN-16380;RXN-16389;RXN-16393;RXN-16401;RXN-16402;RXN-16415;RXN-16418;RXN-7904;RXN-9623;RXN-9644;RXN-9673;RXN0-7238;RXN0-7239;RXN0-7248;RXN66-469;RXN66-477;RXN66-480;RXN66-483;RXN66-484;TRANS-RXN0-623
ASD07_04335	Unknown	URACIL-PRIBOSYLTRANS-RXN
ASD07_18365	hppA	INORGPYROPHOSPHAT-RXN
ASD07_21305	Unknown	1.8.1.4-RXN;2OXOGLUTARATEDEH-RXN;2OXOGLUTDECARB-RXN;RXN-7716;RXN-7719;RXN-8629;RXN0-1132;RXN0-1147
ASD07_28655	Unknown	RXN-8529
ASD07_12605	Unknown	GSHTRAN-RXN;GST-RXN;RXN-11663;RXN-13673;RXN-15680;RXN-18405;RXN-18407;RXNQT-4363
ASD07_06465	Unknown	LEUCYLTRANSFERASE-RXN;RXN-17846;RXN-17847;RXN-17848
ASD07_26190	Unknown	2.7.13.3-RXN
ASD07_08510	Unknown	NICOTINATEPRIBOSYLTRANS-RXN
ASD07_04415	Unknown	RXN-9591
ASD07_29175	Unknown	DNA-DIRECTED-DNA-POLYMERASE-RXN
ASD07_11795	Unknown	POLYNUCLEOTIDE-ADENYLYLTRANSFERASE-RXN
ASD07_19260	Unknown	3.2.2.23-RXN;RXN-18435
ASD07_18865	Unknown	1.8.4.8-RXN
ASD07_07015	Unknown	PROTEIN-KINASE-RXN
ASD07_07135	Unknown	PGLUCONDEHYDRAT-RXN
ASD07_15780	Unknown	QUERCETIN-23-DIOXYGENASE-RXN
ASD07_23130	Unknown	RXN-1961
ASD07_18465	Unknown	AMINOCYL-TRNA-HYDROLASE-RXN;RXN-16637
ASD07_24370	dcd	DCTP-DEAM-RXN;RXN-14118
ASD07_07640	Unknown	RXN0-5131
ASD07_21760	Unknown	GLYCERATE-DEHYDROGENASE-RXN;HYDROXYPYRUVATE-REDUCTASE-RXN;RXN0-300
ASD07_10215	Unknown	1.18.1.2-RXN
ASD07_16220	Unknown	2-AMINOADIPATE-AMINOTRANSFERASE-RXN
ASD07_05980	Unknown	2.7.13.3-RXN
ASD07_08780	Unknown	VALINE--TRNA-LIGASE-RXN
ASD07_18685	Unknown	ISOCITDEH-RXN;RXN-8642;RXN-9951
ASD07_22930	Unknown	SERINE-O-ACETTRAN-RXN
ASD07_04280	Unknown	OHMETPYRKIN-RXN;PYRIMSYN3-RXN
ASD07_21745	Unknown	DETHIOBIOTIN-SYN-RXN
ASD07_10305	Unknown	PEPTIDYLPROLYL-ISOMERASE-RXN
ASD07_09655	Unknown	2.7.13.3-RXN
ASD07_08295	Unknown	1.8.1.4-RXN;2OXOGLUTARATEDEH-RXN;2OXOGLUTDECARB-RXN;RXN-7716;RXN-7719;RXN-8629;RXN0-1132;RXN0-1147
ASD07_07715	Unknown	PRAISOM-RXN
ASD07_21290	Unknown	2.7.13.3-RXN
ASD07_07735	Unknown	DIHYDROFOLATESYNTH-RXN;FOLYLPOLYGLUTAMATESYNTH-RXN;FORMYLTHFGLUSYNTH-RXN;RXN-6341;RXN0-2921
ASD07_17145	Unknown	3.2.1.55-RXN
ASD07_24195	Unknown	CHORISMATE-SYNTHASE-RXN
ASD07_10180	Unknown	4.2.99.18-RXN
ASD07_05635	Unknown	RNTRACTIV-RXN
ASD07_14915	Unknown	UDPNACETYLMURAMATEDEHYDROG-RXN
ASD07_01825	Unknown	3.5.1.27-RXN;3.5.1.88-RXN
ASD07_16460	Unknown	2.7.13.3-RXN
ASD07_16300	Unknown	ATPASE-RXN
ASD07_16955	Unknown	RXN0-5021
ASD07_05240	Unknown	NQOR-RXN
ASD07_25495	Unknown	DNA-DIRECTED-DNA-POLYMERASE-RXN
ASD07_14430	glyA	GLYOHMETRANS-RXN;RXN0-5234
ASD07_00480	Unknown	RXN0-6575
ASD07_20935	Unknown	NADPYROPHOSPHAT-RXN;RXN0-4401
ASD07_21730	Unknown	ENOYL-COA-HYDRAT-RXN;METHYLACYLYLCOA-HYDROXY-RXN;RXN-10697;RXN-10704;RXN-10705;RXN-11244;RXN-12567;RXN-13616;RXN-14266;RXN-14272;RXN-14273;RXN-16135;RXN-16558;RXN-17114;RXN-17475;RXN-17776;RXN-17780;RXN-17785;RXN-17789;RXN-17793;RXN-17797;RXN-2425;RXN0-5393;TIGLYLCOA-HYDROXY-RXN
ASD07_05370	Unknown	DHBDEHYD-RXN
ASD07_12360	Unknown	RXN-14014
ASD07_17965	Unknown	GSHTRAN-RXN;GST-RXN;RXN-11663;RXN-13673;RXN-15680;RXN-18405;RXN-18407;RXNQT-4363
ASD07_11680	sucC	SUCCCOASYN-RXN
ASD07_28780	Unknown	1.11.1.15-RXN;RXN0-5468
ASD07_04070	Unknown	RXN0-5131
ASD07_18125	Unknown	5.99.1.3-RXN
ASD07_15675	Unknown	NADH-DEHYDROG-A-RXN
ASD07_25435	Unknown	BETA-PHOSPHOGLUCOMUTASE-RXN;RXN-16995;RXN-16996
ASD07_11455	Unknown	DTDPGLUCDEHYDRAT-RXN
ASD07_00915	Unknown	DIHYDROXYISOVALDEHYDRAT-RXN;DIHYDROXYMETVALDEHYDRAT-RXN
ASD07_03085	Unknown	2.7.13.3-RXN
ASD07_22550	Unknown	RXN-17131;RXN-17132;RXN-17133
ASD07_17090	Unknown	DEHYDDEOXPHOSGALACT-ALDOL-RXN
ASD07_28580	Unknown	GLUTATHIONE-SYN-RXN
ASD07_25705	Unknown	2.7.13.3-RXN
ASD07_16385	Unknown	3-HYDROXY-KYNURENINASE-RXN;KYNURENINASE-RXN
ASD07_12320	leuS	LEUCINE--TRNA-LIGASE-RXN
ASD07_06035	Unknown	DIHYDROXYISOVALDEHYDRAT-RXN;DIHYDROXYMETVALDEHYDRAT-RXN
ASD07_08475	Unknown	RXN0-5462
ASD07_25180	Unknown	PHOSPHASERDECARB-RXN
