{
    "alternative_symbionts": [
        "Root142",
        "Root491",
        "Root930",
        "Root418",
        "Root920",
        "Root695",
        "Root336D2",
        "Root31",
        "Root52",
        "Root1204",
        "Root1455",
        "Root74",
        "Root1310",
        "Root166",
        "Root569",
        "Root1220",
        "Root483D1",
        "Root278",
        "Root413D1",
        "Root1471",
        "Root369",
        "Root1203",
        "Root274",
        "Root552",
        "Root1240",
        "Root22",
        "Root558",
        "Root1312",
        "Root351",
        "Root268",
        "Root239",
        "Root1298",
        "Root1212",
        "Root1334",
        "Root231",
        "Root954",
        "Root198D2",
        "Root149",
        "Root685",
        "Root1252",
        "Root401",
        "Root11",
        "Root635",
        "Root431",
        "Root381",
        "Root100",
        "Root423",
        "Root335",
        "Root180",
        "Root554",
        "Root73",
        "Root918",
        "Root485",
        "Root157",
        "Root131",
        "Root137",
        "Root71",
        "Root436",
        "Root651",
        "Root672",
        "Root1304",
        "Root258",
        "Root564",
        "Root1480D1",
        "Root105",
        "Root133",
        "Root670",
        "Root708",
        "Root68",
        "Root482",
        "Root1279",
        "Root444D2",
        "Root102",
        "Root147",
        "Root1485",
        "Root172",
        "Root127",
        "Root329",
        "Root264",
        "Root404",
        "Root483D2",
        "Root66D1",
        "Root487D2Y"
    ],
    "bacteria": [
        "Root71",
        "Root918"
    ],
    "enum_bacteria": {
        "1": [
            "Root71",
            "Root918"
        ],
        "2": [
            "Root918",
            "Root68"
        ],
        "3": [
            "Root569",
            "Root918"
        ],
        "4": [
            "Root401",
            "Root918"
        ],
        "5": [
            "Root329",
            "Root918"
        ],
        "6": [
            "Root569",
            "Root52"
        ],
        "7": [
            "Root569",
            "Root1480D1"
        ],
        "8": [
            "Root180",
            "Root71"
        ],
        "9": [
            "Root180",
            "Root68"
        ],
        "10": [
            "Root180",
            "Root569"
        ],
        "11": [
            "Root166",
            "Root71"
        ],
        "12": [
            "Root166",
            "Root68"
        ],
        "13": [
            "Root569",
            "Root1279"
        ],
        "14": [
            "Root569",
            "Root335"
        ],
        "15": [
            "Root569",
            "Root166"
        ],
        "16": [
            "Root569",
            "Root444D2"
        ],
        "17": [
            "Root22",
            "Root71"
        ],
        "18": [
            "Root22",
            "Root68"
        ],
        "19": [
            "Root22",
            "Root569"
        ],
        "20": [
            "Root569",
            "Root431"
        ],
        "21": [
            "Root569",
            "Root264"
        ],
        "22": [
            "Root569",
            "Root413D1"
        ],
        "23": [
            "Root569",
            "Root635"
        ],
        "24": [
            "Root685",
            "Root569"
        ],
        "25": [
            "Root569",
            "Root487D2Y"
        ],
        "26": [
            "Root436",
            "Root569"
        ],
        "27": [
            "Root569",
            "Root133"
        ],
        "28": [
            "Root569",
            "Root1455"
        ],
        "29": [
            "Root569",
            "Root1310"
        ],
        "30": [
            "Root672",
            "Root569"
        ],
        "31": [
            "Root569",
            "Root105"
        ],
        "32": [
            "Root401",
            "Root166"
        ],
        "33": [
            "Root22",
            "Root401"
        ],
        "34": [
            "Root198D2",
            "Root68"
        ],
        "35": [
            "Root198D2",
            "Root401"
        ],
        "36": [
            "Root198D2",
            "Root71"
        ],
        "37": [
            "Root198D2",
            "Root569"
        ],
        "38": [
            "Root336D2",
            "Root71"
        ],
        "39": [
            "Root336D2",
            "Root68"
        ],
        "40": [
            "Root336D2",
            "Root401"
        ],
        "41": [
            "Root569",
            "Root336D2"
        ],
        "42": [
            "Root180",
            "Root401"
        ],
        "43": [
            "Root401",
            "Root239"
        ],
        "44": [
            "Root569",
            "Root239"
        ],
        "45": [
            "Root131",
            "Root71"
        ],
        "46": [
            "Root131",
            "Root68"
        ],
        "47": [
            "Root401",
            "Root131"
        ],
        "48": [
            "Root569",
            "Root131"
        ],
        "49": [
            "Root920",
            "Root401"
        ],
        "50": [
            "Root920",
            "Root569"
        ],
        "51": [
            "Root147",
            "Root401"
        ],
        "52": [
            "Root569",
            "Root147"
        ],
        "53": [
            "Root11",
            "Root71"
        ],
        "54": [
            "Root11",
            "Root401"
        ],
        "55": [
            "Root11",
            "Root68"
        ],
        "56": [
            "Root569",
            "Root11"
        ],
        "57": [
            "Root401",
            "Root651"
        ],
        "58": [
            "Root401",
            "Root491"
        ],
        "59": [
            "Root329",
            "Root239"
        ],
        "60": [
            "Root329",
            "Root180"
        ],
        "61": [
            "Root329",
            "Root651"
        ],
        "62": [
            "Root920",
            "Root329"
        ],
        "63": [
            "Root329",
            "Root491"
        ],
        "64": [
            "Root329",
            "Root166"
        ],
        "65": [
            "Root329",
            "Root198D2"
        ],
        "66": [
            "Root329",
            "Root147"
        ],
        "67": [
            "Root329",
            "Root336D2"
        ],
        "68": [
            "Root329",
            "Root11"
        ],
        "69": [
            "Root569",
            "Root651"
        ],
        "70": [
            "Root569",
            "Root483D1"
        ],
        "71": [
            "Root569",
            "Root102"
        ],
        "72": [
            "Root569",
            "Root351"
        ],
        "73": [
            "Root569",
            "Root1204"
        ],
        "74": [
            "Root569",
            "Root554"
        ],
        "75": [
            "Root569",
            "Root483D2"
        ],
        "76": [
            "Root569",
            "Root1485"
        ],
        "77": [
            "Root569",
            "Root695"
        ],
        "78": [
            "Root569",
            "Root274"
        ],
        "79": [
            "Root569",
            "Root1471"
        ],
        "80": [
            "Root569",
            "Root66D1"
        ],
        "81": [
            "Root569",
            "Root708"
        ],
        "82": [
            "Root1220",
            "Root569"
        ],
        "83": [
            "Root670",
            "Root569"
        ],
        "84": [
            "Root569",
            "Root1203"
        ],
        "85": [
            "Root569",
            "Root268"
        ],
        "86": [
            "Root31",
            "Root569"
        ],
        "87": [
            "Root569",
            "Root954"
        ],
        "88": [
            "Root278",
            "Root569"
        ],
        "89": [
            "Root569",
            "Root1240"
        ],
        "90": [
            "Root569",
            "Root74"
        ],
        "91": [
            "Root569",
            "Root491"
        ],
        "92": [
            "Root569",
            "Root552"
        ],
        "93": [
            "Root157",
            "Root569"
        ],
        "94": [
            "Root369",
            "Root569"
        ],
        "95": [
            "Root569",
            "Root564"
        ],
        "96": [
            "Root569",
            "Root1304"
        ],
        "97": [
            "Root569",
            "Root1212"
        ],
        "98": [
            "Root569",
            "Root73"
        ],
        "99": [
            "Root569",
            "Root381"
        ],
        "100": [
            "Root569",
            "Root482"
        ],
        "101": [
            "Root569",
            "Root404"
        ],
        "102": [
            "Root569",
            "Root1334"
        ],
        "103": [
            "Root569",
            "Root172"
        ],
        "104": [
            "Root569",
            "Root418"
        ],
        "105": [
            "Root569",
            "Root149"
        ],
        "106": [
            "Root569",
            "Root127"
        ],
        "107": [
            "Root569",
            "Root558"
        ],
        "108": [
            "Root569",
            "Root142"
        ],
        "109": [
            "Root569",
            "Root1312"
        ],
        "110": [
            "Root569",
            "Root1298"
        ],
        "111": [
            "Root569",
            "Root423"
        ],
        "112": [
            "Root569",
            "Root100"
        ],
        "113": [
            "Root569",
            "Root231"
        ],
        "114": [
            "Root258",
            "Root569"
        ],
        "115": [
            "Root569",
            "Root1252"
        ],
        "116": [
            "Root329",
            "Root22"
        ],
        "117": [
            "Root329",
            "Root131"
        ],
        "118": [
            "Root930",
            "Root71"
        ],
        "119": [
            "Root930",
            "Root68"
        ],
        "120": [
            "Root569",
            "Root930"
        ],
        "121": [
            "Root930",
            "Root401"
        ],
        "122": [
            "Root329",
            "Root930"
        ],
        "123": [
            "Root137",
            "Root569"
        ],
        "124": [
            "Root137",
            "Root71"
        ],
        "125": [
            "Root137",
            "Root68"
        ],
        "126": [
            "Root329",
            "Root137"
        ],
        "127": [
            "Root137",
            "Root401"
        ],
        "128": [
            "Root485",
            "Root569"
        ],
        "129": [
            "Root485",
            "Root71"
        ],
        "130": [
            "Root485",
            "Root68"
        ],
        "131": [
            "Root485",
            "Root329"
        ],
        "132": [
            "Root485",
            "Root401"
        ]
    },
    "enum_exchanged": {
        "1": [],
        "2": [],
        "3": [],
        "4": [],
        "5": [],
        "6": [],
        "7": [],
        "8": [],
        "9": [],
        "10": [],
        "11": [],
        "12": [],
        "13": [],
        "14": [],
        "15": [],
        "16": [],
        "17": [],
        "18": [],
        "19": [],
        "20": [],
        "21": [],
        "22": [],
        "23": [],
        "24": [],
        "25": [],
        "26": [],
        "27": [],
        "28": [],
        "29": [],
        "30": [],
        "31": [],
        "32": [],
        "33": [],
        "34": [],
        "35": [],
        "36": [],
        "37": [],
        "38": [],
        "39": [],
        "40": [],
        "41": [],
        "42": [],
        "43": [],
        "44": [],
        "45": [],
        "46": [],
        "47": [],
        "48": [],
        "49": [],
        "50": [],
        "51": [],
        "52": [],
        "53": [],
        "54": [],
        "55": [],
        "56": [],
        "57": [],
        "58": [],
        "59": [],
        "60": [],
        "61": [],
        "62": [],
        "63": [],
        "64": [],
        "65": [],
        "66": [],
        "67": [],
        "68": [],
        "69": [],
        "70": [],
        "71": [],
        "72": [],
        "73": [],
        "74": [],
        "75": [],
        "76": [],
        "77": [],
        "78": [],
        "79": [],
        "80": [],
        "81": [],
        "82": [],
        "83": [],
        "84": [],
        "85": [],
        "86": [],
        "87": [],
        "88": [],
        "89": [],
        "90": [],
        "91": [],
        "92": [],
        "93": [],
        "94": [],
        "95": [],
        "96": [],
        "97": [],
        "98": [],
        "99": [],
        "100": [],
        "101": [],
        "102": [],
        "103": [],
        "104": [],
        "105": [],
        "106": [],
        "107": [],
        "108": [],
        "109": [],
        "110": [],
        "111": [],
        "112": [],
        "113": [],
        "114": [],
        "115": [],
        "116": [],
        "117": [],
        "118": [],
        "119": [],
        "120": [],
        "121": [],
        "122": [],
        "123": [],
        "124": [],
        "125": [],
        "126": [],
        "127": [],
        "128": [],
        "129": [],
        "130": [],
        "131": [],
        "132": []
    },
    "enum_targetsproducers": {
        "1": {
            "M_CPD__45__110_c": [
                "Root71"
            ]
        },
        "2": {
            "M_CPD__45__110_c": [
                "Root68"
            ]
        },
        "3": {
            "M_CPD__45__110_c": [
                "Root569"
            ]
        },
        "4": {
            "M_CPD__45__110_c": [
                "Root401"
            ]
        },
        "5": {
            "M_CPD__45__110_c": [
                "Root329"
            ]
        },
        "6": {
            "M_CPD__45__110_c": [
                "Root569"
            ]
        },
        "7": {
            "M_CPD__45__110_c": [
                "Root569"
            ]
        },
        "8": {
            "M_CPD__45__110_c": [
                "Root71"
            ]
        },
        "9": {
            "M_CPD__45__110_c": [
                "Root68"
            ]
        },
        "10": {
            "M_CPD__45__110_c": [
                "Root569"
            ]
        },
        "11": {
            "M_CPD__45__110_c": [
                "Root71"
            ]
        },
        "12": {
            "M_CPD__45__110_c": [
                "Root68"
            ]
        },
        "13": {
            "M_CPD__45__110_c": [
                "Root569"
            ]
        },
        "14": {
            "M_CPD__45__110_c": [
                "Root569"
            ]
        },
        "15": {
            "M_CPD__45__110_c": [
                "Root569"
            ]
        },
        "16": {
            "M_CPD__45__110_c": [
                "Root569"
            ]
        },
        "17": {
            "M_CPD__45__110_c": [
                "Root71"
            ]
        },
        "18": {
            "M_CPD__45__110_c": [
                "Root68"
            ]
        },
        "19": {
            "M_CPD__45__110_c": [
                "Root569"
            ]
        },
        "20": {
            "M_CPD__45__110_c": [
                "Root569"
            ]
        },
        "21": {
            "M_CPD__45__110_c": [
                "Root569"
            ]
        },
        "22": {
            "M_CPD__45__110_c": [
                "Root569"
            ]
        },
        "23": {
            "M_CPD__45__110_c": [
                "Root569"
            ]
        },
        "24": {
            "M_CPD__45__110_c": [
                "Root569"
            ]
        },
        "25": {
            "M_CPD__45__110_c": [
                "Root569"
            ]
        },
        "26": {
            "M_CPD__45__110_c": [
                "Root569"
            ]
        },
        "27": {
            "M_CPD__45__110_c": [
                "Root569"
            ]
        },
        "28": {
            "M_CPD__45__110_c": [
                "Root569"
            ]
        },
        "29": {
            "M_CPD__45__110_c": [
                "Root569"
            ]
        },
        "30": {
            "M_CPD__45__110_c": [
                "Root569"
            ]
        },
        "31": {
            "M_CPD__45__110_c": [
                "Root569"
            ]
        },
        "32": {
            "M_CPD__45__110_c": [
                "Root401"
            ]
        },
        "33": {
            "M_CPD__45__110_c": [
                "Root401"
            ]
        },
        "34": {
            "M_CPD__45__110_c": [
                "Root68"
            ]
        },
        "35": {
            "M_CPD__45__110_c": [
                "Root401"
            ]
        },
        "36": {
            "M_CPD__45__110_c": [
                "Root71"
            ]
        },
        "37": {
            "M_CPD__45__110_c": [
                "Root569"
            ]
        },
        "38": {
            "M_CPD__45__110_c": [
                "Root71"
            ]
        },
        "39": {
            "M_CPD__45__110_c": [
                "Root68"
            ]
        },
        "40": {
            "M_CPD__45__110_c": [
                "Root401"
            ]
        },
        "41": {
            "M_CPD__45__110_c": [
                "Root569"
            ]
        },
        "42": {
            "M_CPD__45__110_c": [
                "Root401"
            ]
        },
        "43": {
            "M_CPD__45__110_c": [
                "Root401"
            ]
        },
        "44": {
            "M_CPD__45__110_c": [
                "Root569"
            ]
        },
        "45": {
            "M_CPD__45__110_c": [
                "Root71"
            ]
        },
        "46": {
            "M_CPD__45__110_c": [
                "Root68"
            ]
        },
        "47": {
            "M_CPD__45__110_c": [
                "Root401"
            ]
        },
        "48": {
            "M_CPD__45__110_c": [
                "Root569"
            ]
        },
        "49": {
            "M_CPD__45__110_c": [
                "Root401"
            ]
        },
        "50": {
            "M_CPD__45__110_c": [
                "Root569"
            ]
        },
        "51": {
            "M_CPD__45__110_c": [
                "Root401"
            ]
        },
        "52": {
            "M_CPD__45__110_c": [
                "Root569"
            ]
        },
        "53": {
            "M_CPD__45__110_c": [
                "Root71"
            ]
        },
        "54": {
            "M_CPD__45__110_c": [
                "Root401"
            ]
        },
        "55": {
            "M_CPD__45__110_c": [
                "Root68"
            ]
        },
        "56": {
            "M_CPD__45__110_c": [
                "Root569"
            ]
        },
        "57": {
            "M_CPD__45__110_c": [
                "Root401"
            ]
        },
        "58": {
            "M_CPD__45__110_c": [
                "Root401"
            ]
        },
        "59": {
            "M_CPD__45__110_c": [
                "Root329"
            ]
        },
        "60": {
            "M_CPD__45__110_c": [
                "Root329"
            ]
        },
        "61": {
            "M_CPD__45__110_c": [
                "Root329"
            ]
        },
        "62": {
            "M_CPD__45__110_c": [
                "Root329"
            ]
        },
        "63": {
            "M_CPD__45__110_c": [
                "Root329"
            ]
        },
        "64": {
            "M_CPD__45__110_c": [
                "Root329"
            ]
        },
        "65": {
            "M_CPD__45__110_c": [
                "Root329"
            ]
        },
        "66": {
            "M_CPD__45__110_c": [
                "Root329"
            ]
        },
        "67": {
            "M_CPD__45__110_c": [
                "Root329"
            ]
        },
        "68": {
            "M_CPD__45__110_c": [
                "Root329"
            ]
        },
        "69": {
            "M_CPD__45__110_c": [
                "Root569"
            ]
        },
        "70": {
            "M_CPD__45__110_c": [
                "Root569"
            ]
        },
        "71": {
            "M_CPD__45__110_c": [
                "Root569"
            ]
        },
        "72": {
            "M_CPD__45__110_c": [
                "Root569"
            ]
        },
        "73": {
            "M_CPD__45__110_c": [
                "Root569"
            ]
        },
        "74": {
            "M_CPD__45__110_c": [
                "Root569"
            ]
        },
        "75": {
            "M_CPD__45__110_c": [
                "Root569"
            ]
        },
        "76": {
            "M_CPD__45__110_c": [
                "Root569"
            ]
        },
        "77": {
            "M_CPD__45__110_c": [
                "Root569"
            ]
        },
        "78": {
            "M_CPD__45__110_c": [
                "Root569"
            ]
        },
        "79": {
            "M_CPD__45__110_c": [
                "Root569"
            ]
        },
        "80": {
            "M_CPD__45__110_c": [
                "Root569"
            ]
        },
        "81": {
            "M_CPD__45__110_c": [
                "Root569"
            ]
        },
        "82": {
            "M_CPD__45__110_c": [
                "Root569"
            ]
        },
        "83": {
            "M_CPD__45__110_c": [
                "Root569"
            ]
        },
        "84": {
            "M_CPD__45__110_c": [
                "Root569"
            ]
        },
        "85": {
            "M_CPD__45__110_c": [
                "Root569"
            ]
        },
        "86": {
            "M_CPD__45__110_c": [
                "Root569"
            ]
        },
        "87": {
            "M_CPD__45__110_c": [
                "Root569"
            ]
        },
        "88": {
            "M_CPD__45__110_c": [
                "Root569"
            ]
        },
        "89": {
            "M_CPD__45__110_c": [
                "Root569"
            ]
        },
        "90": {
            "M_CPD__45__110_c": [
                "Root569"
            ]
        },
        "91": {
            "M_CPD__45__110_c": [
                "Root569"
            ]
        },
        "92": {
            "M_CPD__45__110_c": [
                "Root569"
            ]
        },
        "93": {
            "M_CPD__45__110_c": [
                "Root569"
            ]
        },
        "94": {
            "M_CPD__45__110_c": [
                "Root569"
            ]
        },
        "95": {
            "M_CPD__45__110_c": [
                "Root569"
            ]
        },
        "96": {
            "M_CPD__45__110_c": [
                "Root569"
            ]
        },
        "97": {
            "M_CPD__45__110_c": [
                "Root569"
            ]
        },
        "98": {
            "M_CPD__45__110_c": [
                "Root569"
            ]
        },
        "99": {
            "M_CPD__45__110_c": [
                "Root569"
            ]
        },
        "100": {
            "M_CPD__45__110_c": [
                "Root569"
            ]
        },
        "101": {
            "M_CPD__45__110_c": [
                "Root569"
            ]
        },
        "102": {
            "M_CPD__45__110_c": [
                "Root569"
            ]
        },
        "103": {
            "M_CPD__45__110_c": [
                "Root569"
            ]
        },
        "104": {
            "M_CPD__45__110_c": [
                "Root569"
            ]
        },
        "105": {
            "M_CPD__45__110_c": [
                "Root569"
            ]
        },
        "106": {
            "M_CPD__45__110_c": [
                "Root569"
            ]
        },
        "107": {
            "M_CPD__45__110_c": [
                "Root569"
            ]
        },
        "108": {
            "M_CPD__45__110_c": [
                "Root569"
            ]
        },
        "109": {
            "M_CPD__45__110_c": [
                "Root569"
            ]
        },
        "110": {
            "M_CPD__45__110_c": [
                "Root569"
            ]
        },
        "111": {
            "M_CPD__45__110_c": [
                "Root569"
            ]
        },
        "112": {
            "M_CPD__45__110_c": [
                "Root569"
            ]
        },
        "113": {
            "M_CPD__45__110_c": [
                "Root569"
            ]
        },
        "114": {
            "M_CPD__45__110_c": [
                "Root569"
            ]
        },
        "115": {
            "M_CPD__45__110_c": [
                "Root569"
            ]
        },
        "116": {
            "M_CPD__45__110_c": [
                "Root329"
            ]
        },
        "117": {
            "M_CPD__45__110_c": [
                "Root329"
            ]
        },
        "118": {
            "M_CPD__45__110_c": [
                "Root71"
            ]
        },
        "119": {
            "M_CPD__45__110_c": [
                "Root68"
            ]
        },
        "120": {
            "M_CPD__45__110_c": [
                "Root569"
            ]
        },
        "121": {
            "M_CPD__45__110_c": [
                "Root401"
            ]
        },
        "122": {
            "M_CPD__45__110_c": [
                "Root329"
            ]
        },
        "123": {
            "M_CPD__45__110_c": [
                "Root569"
            ]
        },
        "124": {
            "M_CPD__45__110_c": [
                "Root71"
            ]
        },
        "125": {
            "M_CPD__45__110_c": [
                "Root68"
            ]
        },
        "126": {
            "M_CPD__45__110_c": [
                "Root329"
            ]
        },
        "127": {
            "M_CPD__45__110_c": [
                "Root401"
            ]
        },
        "128": {
            "M_CPD__45__110_c": [
                "Root569"
            ]
        },
        "129": {
            "M_CPD__45__110_c": [
                "Root71"
            ]
        },
        "130": {
            "M_CPD__45__110_c": [
                "Root68"
            ]
        },
        "131": {
            "M_CPD__45__110_c": [
                "Root329"
            ]
        },
        "132": {
            "M_CPD__45__110_c": [
                "Root401"
            ]
        }
    },
    "essential_symbionts": [],
    "exchanged": [],
    "inter_bacteria": [],
    "inter_exchanged": [],
    "inter_targetsproducers": {},
    "key_species": [
        "Root133",
        "Root635",
        "Root483D1",
        "Root268",
        "Root487D2Y",
        "Root149",
        "Root670",
        "Root1334",
        "Root930",
        "Root418",
        "Root444D2",
        "Root102",
        "Root552",
        "Root954",
        "Root180",
        "Root569",
        "Root558",
        "Root258",
        "Root68",
        "Root1485",
        "Root1212",
        "Root564",
        "Root404",
        "Root401",
        "Root436",
        "Root73",
        "Root482",
        "Root239",
        "Root274",
        "Root231",
        "Root485",
        "Root157",
        "Root329",
        "Root198D2",
        "Root554",
        "Root708",
        "Root1312",
        "Root695",
        "Root336D2",
        "Root1471",
        "Root491",
        "Root71",
        "Root74",
        "Root1480D1",
        "Root105",
        "Root1240",
        "Root127",
        "Root1203",
        "Root918",
        "Root278",
        "Root651",
        "Root335",
        "Root1310",
        "Root147",
        "Root483D2",
        "Root66D1",
        "Root920",
        "Root672",
        "Root142",
        "Root1220",
        "Root131",
        "Root100",
        "Root1455",
        "Root172",
        "Root423",
        "Root22",
        "Root11",
        "Root52",
        "Root1279",
        "Root1298",
        "Root381",
        "Root166",
        "Root431",
        "Root1304",
        "Root413D1",
        "Root685",
        "Root1204",
        "Root351",
        "Root264",
        "Root31",
        "Root137",
        "Root369",
        "Root1252"
    ],
    "newly_prod": [
        "M_CPD__45__110_c"
    ],
    "one_model": {
        "chosen_bacteria": [
            "Root71",
            "Root918"
        ],
        "newly_producible_target": [
            "M_CPD__45__110_c"
        ],
        "producible_target": [
            "M_CPD__45__110_c"
        ],
        "target_producer_coop_selectedcom": {
            "M_CPD__45__110_c": [
                "Root71"
            ]
        },
        "unproducible_target": [
            "M_CPD__45__693_c",
            "M_ETHYLENE__45__CMPD_c",
            "M_INDOLE_ACETATE_AUXIN_c",
            "M_CPD__45__734_c"
        ]
    },
    "one_model_targetsproducers": {
        "M_CPD__45__110_c": [
            "Root71"
        ]
    },
    "producible": [
        "M_CPD__45__110_c"
    ],
    "score_optimum_inter": "2",
    "score_optimum_union": "2",
    "still_unprod": [
        "M_CPD__45__693_c",
        "M_ETHYLENE__45__CMPD_c",
        "M_INDOLE_ACETATE_AUXIN_c",
        "M_CPD__45__734_c"
    ],
    "union_bacteria": [
        "Root133",
        "Root635",
        "Root483D1",
        "Root268",
        "Root487D2Y",
        "Root149",
        "Root670",
        "Root1334",
        "Root930",
        "Root418",
        "Root444D2",
        "Root102",
        "Root552",
        "Root954",
        "Root180",
        "Root569",
        "Root558",
        "Root258",
        "Root68",
        "Root1485",
        "Root1212",
        "Root564",
        "Root404",
        "Root401",
        "Root436",
        "Root73",
        "Root482",
        "Root239",
        "Root274",
        "Root231",
        "Root485",
        "Root157",
        "Root329",
        "Root198D2",
        "Root554",
        "Root708",
        "Root1312",
        "Root695",
        "Root336D2",
        "Root1471",
        "Root491",
        "Root71",
        "Root74",
        "Root1480D1",
        "Root105",
        "Root1240",
        "Root127",
        "Root1203",
        "Root918",
        "Root278",
        "Root651",
        "Root335",
        "Root1310",
        "Root147",
        "Root483D2",
        "Root66D1",
        "Root920",
        "Root672",
        "Root142",
        "Root1220",
        "Root131",
        "Root100",
        "Root1455",
        "Root172",
        "Root423",
        "Root22",
        "Root11",
        "Root52",
        "Root1279",
        "Root1298",
        "Root381",
        "Root166",
        "Root431",
        "Root1304",
        "Root413D1",
        "Root685",
        "Root1204",
        "Root351",
        "Root264",
        "Root31",
        "Root137",
        "Root369",
        "Root1252"
    ],
    "union_exchanged": [],
    "union_targetsproducers": {
        "M_CPD__45__110_c": [
            "Root68",
            "Root401",
            "Root329",
            "Root71",
            "Root569"
        ]
    }
}