,mincom_producible_targets,mincom_unproducible_targets,miscoto_single_strains_producible_targets,miscoto_single_strains_unproducible_targets,fullcom_producible_targets,fullcom_unproducible_targets
mineral_medium,12,5,6,11,12,5
MMJS,12,5,11,6,12,5
phb_pyruvate_ARE,13,4,13,4,13,4
phb_pyruvate,13,4,13,4,13,4
basal_ARE,12,5,12,5,12,5
MMJS_ARE,12,5,12,5,12,5
hydrogen_oxydizing,13,4,6,11,13,4
M9,12,5,6,11,12,5
hydrogen_oxydizing_ARE,13,4,12,5,13,4
basal,12,5,9,8,12,5
mineral_medium_ARE,12,5,12,5,12,5
MBM_ARE,13,4,12,5,13,4
M63_ARE,12,5,12,5,12,5
M9_ARE,12,5,12,5,12,5
M63,12,5,6,11,12,5
MBM,13,4,6,11,13,4
