{
    "com_prodtargets": [],
    "com_scope": [
        "M_CPD__45__650_c",
        "M_CPD__45__12575_c",
        "M_DCTP_c",
        "M_GLC__45__1__45__P_c",
        "M_ADENINE_c",
        "M_DATP_c",
        "M_CAMP_c",
        "M_RIBOSE__45__5P_c",
        "M_PHOSPHORIBULOSYL__45__FORMIMINO__45__AICAR__45__P_c",
        "M_GUANOSINE_c",
        "M_G3P_c",
        "M_GDP__45__TP_c",
        "M_IMP_c",
        "M_DEOXYGUANOSINE_c",
        "M_INOSINE_c",
        "M_CPD__45__15317_c",
        "M_XYLULOSE__45__5__45__PHOSPHATE_c",
        "M_HYPOXANTHINE_c",
        "M_XANTHOSINE__45__5__45__PHOSPHATE_c",
        "M_NMNH_c",
        "M_CGMP_c",
        "M_GUANINE_c",
        "M_3__45__P__45__HYDROXYPYRUVATE_c",
        "M_ERYTHROSE__45__4P_c",
        "M_H2CO3_c",
        "M_DIHYDROXY__45__ACETONE__45__PHOSPHATE_c",
        "M_ADENOSINE_c",
        "M_ACETALD_c",
        "M_PRPP_c",
        "M_D__45__ALPHABETA__45__D__45__HEPTOSE__45__7__45__PHOSPHATE_c",
        "M_FRUCTOSE__45__6P_c",
        "M_GMP_c",
        "M_PROTON_e",
        "M_HCO3_c",
        "M_RIBULOSE__45__5P_c",
        "M_ACETOACETYL__45__COA_c",
        "M_D__45__glucopyranose__45__6__45__phosphate_c",
        "M_CDP__45__D__45__GLUCOSE_c",
        "M_DIHYDROXY__45__BUTANONE__45__P_c",
        "M_CPD__45__658_c",
        "M_ACETYL__45__COA_c",
        "M_XANTHINE_c",
        "M_CPD__45__14553_c",
        "M_XANTHOSINE_c",
        "M_NICOTINAMIDE_RIBOSE_c",
        "M_D__45__LACTATE_c",
        "M_DUTP_c",
        "M_GAP_c",
        "M_NICOTINAMIDE_NUCLEOTIDE_c",
        "M_D__45__SEDOHEPTULOSE__45__7__45__P_c",
        "M_METHYL__45__GLYOXAL_c",
        "M_DGTP_c",
        "M_UDP__45__D__45__GALACTO__45__14__45__FURANOSE_c",
        "M_CPD__45__10791_c",
        "M_UREA_c",
        "M_PHOSPHORIBOSYL__45__FORMIMINO__45__AICAR__45__P_c",
        "M_GUANOSINE__45__5DP__45__3DP_c",
        "M_FRUCTOSE__45__16__45__DIPHOSPHATE_c",
        "M_CTP_c",
        "M_DEOXYINOSINE_c",
        "M_DEOXY__45__RIBOSE__45__5P_c",
        "M_DUMP_c",
        "M_RIBOSE__45__1P_c",
        "M_PHOSPHORIBOSYL__45__AMP_c",
        "M_MALONYL__45__COA_c",
        "M_PHOSPHORIBOSYL__45__FORMAMIDO__45__CARBOXAMIDE_c",
        "M_P3I_c",
        "M_DEOXYADENOSINE_c",
        "M_APS_c",
        "M_FORMATE_c",
        "M_UTP_c",
        "M_PHOSPHORIBOSYL__45__ATP_c",
        "M_DEOXY__45__D__45__RIBOSE__45__1__45__PHOSPHATE_c",
        "M_DPG_c",
        "M_PAPS_c",
        "M_ARABINOSE__45__5P_c"
    ],
    "com_unprodtargets": [
        "M_PHE_c",
        "M_INDOLE_ACETATE_AUXIN_c",
        "M_ILE_c",
        "M_PYRIDOXINE_c",
        "M_PRO_c",
        "M_HIS_c",
        "M_ASN_c",
        "M_L__45__ASPARTATE_c",
        "M_THIAMINE__45__PYROPHOSPHATE_c",
        "M_THF_c",
        "M_RIBOFLAVIN_c",
        "M_CPD__45__693_c",
        "M_GLN_c",
        "M_BIOTIN_c",
        "M_MET_c",
        "M_VAL_c",
        "M_ADENOSYLCOBALAMIN_c",
        "M_ARG_c",
        "M_LYS_c",
        "M_NIACINE_c",
        "M_TRP_c",
        "M_CPD__45__110_c",
        "M_PANTOTHENATE_c",
        "M_GLY_c",
        "M_ETHYLENE__45__CMPD_c",
        "M_LEU_c",
        "M_CYS_c",
        "M_THR_c",
        "M_CPD__45__734_c",
        "M_TYR_c"
    ],
    "targets_producers": {}
}