dbRef_id	Common name	Produced (p), Consumed (c), Both (cp)
CPD-17640	18-hydroxystearate	c
DNA-Adjacent-Pyrimidines	two adjacent pyrimidine nucleosides in DNA	p
CPD-15566	(2E,4E)-tetradecadienoyl-CoA	c
INDOLE_PYRUVATE	(indol-3-yl)pyruvate	cp
CYTOSINE	cytosine	c
CPD0-881	N-acetyl-D-muramate 6-phosphate	p
Pyruvate-dehydrogenase-acetylDHlipoyl	a [pyruvate dehydrogenase E2 protein] N6-S-acetyldihydrolipoyl-L-lysine	c
TETRACHLOROHYDROQUINONE	2,3,5,6-tetrachlorohydroquinone	c
TREHALOSE	&alpha;,&alpha;-trehalose	p
CPD-17641	18-hydroxystearoyl-CoA	p
Pyruvate-dehydrogenase-dihydrolipoate	a [pyruvate dehydrogenase E2 protein] N6-dihydrolipoyl-L-lysine	cp
CPD-15567	(3E)-tetradec-3-enoyl-CoA	p
Pyruvate-dehydrogenase-lipoate	a [pyruvate dehydrogenase E2 protein] N6-lipoyl-L-lysine	p
TREHALOSE-6P	&alpha;,&alpha;-trehalose 6-phosphate	p
CPD-1772	2-aminoacetaldehyde	p
CPD0-882	1,6-anhydro-N-acetyl-&beta;-muramate	cp
CPD-15568	2E)-tetradec-2-enoyl-CoA	c
DNA-Combined-With-Exogenous-DNA	DNA combined with exogenous DNA to form a recombinational junction	c
DNA-Cytidines	a 2'-deoxycytidine in DNA	p
ACETYLSERINE	O-acetyl-L-serine	cp
CPD-17813	(2E,11Z)-hexadec-2,11-dienoyl-CoA	c
CPD0-929	heptosyl-Kdo2-lipid A	c
CPD-15654	2-trans, 4-cis-undecadienoyl-CoA	c
DNA-Cytosines	a cytosine in DNA	c
CPD-17814	(11Z)-(S)-3-hydroxyhexadec-11-enoyl-CoA	p
PROTOPORPHYRINOGEN	protoporphyrinogen IX	p
QUEUINE	queuine	c
CPD0-930	(heptosyl)2-Kdo2-lipid A	p
CPD-15655	(3E)-undec-3-enoyl-CoA	p
PHOSPHORIBOSYL-AMP	1-(5-phospho-&beta;-D-ribosyl)-AMP	cp
CPD-17927	a nascent peptidoglycan with (L-alanyl-&gamma;-D-glutamyl-meso-2,6-diaminopimeloyl-D-alanyl-D-alanine) pentapeptide	cp
TETRADEHYDROACYL-COA	a (2E,4E)-alkane-2,4-dienoyl-CoA	c
HS	hydrogen sulfide	cp
CPD-15661	2-trans, 4-trans-undecadienoyl-CoA	c
CPD-18	linoleoyl-CoA	p
PHOSPHORIBOSYL-ATP	1-(5-phospho-&beta;-D-ribosyl)-ATP	cp
CPD0-971	an &alpha;-limit dextrin	cp
INOSINE	inosine	p
CPD1F-2	(-)-methyl jasmonate	c
HSCN	thiocyanate	p
GAP	D-glyceraldehyde 3-phosphate	cp
CPD-15663	2-trans-nonenoyl-CoA	p
THF-GLU-N	a tetrahydrofolate	cp
Nonadjacent-pyrimidine-dimer-in-DNA	a dimer of non-adjacent pyrimidine nucleosides in DNA	c
CPD-18105	4-methylphenyl 5-phospho-&alpha;-D-ribofuranoside	c
PANTETHEINE-P	4'-phosphopantetheine	cp
QUINOLINATE	quinolinate	cp
PHOSPHORIBOSYL-CARBOXY-AMINOIMIDAZOLE	5-amino-1-(5-phospho-D-ribosyl)imidazole-4-carboxylate	cp
PROTOPORPHYRIN_IX	protoporphyrin IX	cp
2-METHYL-3-HYDROXY-BUTYRYL-COA	(2S,3S)-3-hydroxy-2-methylbutanoyl-CoA	cp
C6	ditrans,octacis-undecaprenyldiphospho-[(N-acetyl-&beta;-D-glucosaminyl)-(1,4)-]-N-acetyl-&alpha;-D-muramoyl-L-alanyl-&gamma;-D-glutamyl-meso-2,6-diaminopimeloyl-D-alanyl-D-alanine	cp
3-Hydroxy-octanoyl-ACPs	a (3R)-3-hydroxyoctanoyl-[acp]	p
CPD-11528	3-oxo-2-(cis-2'-pentenyl)-cyclopentane-1-(3-oxobutanoyl)-CoA	c
Carboxylates	a carboxylate	cp
L-THREONINE-O-3-PHOSPHATE	L-threonine 3-O-phosphate	c
2-METHYL-ACETO-ACETYL-COA	2-methylacetoacetyl-CoA	cp
CPD-19487	3-isopropyl-10-(methylthio)-2-oxodecanoate	cp
S-NITROSOGLUTATHIONE	S-nitrosoglutathione	c
Nonmethylated-Ribosomal-Protein-L11s	a non-methylated ribosomal protein L11	c
3-Hydroxyglutaryl-ACP-methyl-ester	a (3R)-3-hydroxyglutaryl-[acp] methyl ester	p
Carboxylic-esters	a carboxylic ester	c
CPD-11529	(+)-7-epi-jasmonoyl-CoA	p
METHYLENE-THF-GLU-N	a 5,10-methylene-tetrahydrofolate	cp
CPD-19488	3-isopropyl-9-(methylthio)-2-oxononanoate	cp
DNA-Holder	DNA	p
CADAVERINE	cadaverine	p
CPD-19489	3-isopropyl-8-(methylthio)-2-oxooctanoate	cp
MAL	(S)-malate	cp
CPD-11592	2-methylsulfanyl-N6-dimethylallyladenosine37 in tRNA	p
CPD-105	(R)-4-hydroxymandelate	c
L-arginyl-3-sulfino-L-alaninyl-Peptides	an N-terminal L-arginiyl-3-sulfino-L-alanyl-[protein]	p
CPD-10546	methyl (indol-3-yl)acetate	c
CPD-19490	3-isopropyl-7-(methylthio)-2-oxoheptanoate	cp
L-arginyl-3-sulfo-L-alaninyl-Peptides	an N-terminal L-arginiyl-3-sulfo-L-alanyl-[protein]	p
L-arginyl-L-Glutamyl-Peptides	an N-terminal L-arginiyl-L-glutamyl-[protein]	p
S-Substituted-Glutathione	a glutathione-toxin conjugate	p
METHYLENETETRAHYDROMETHANOPTERIN	5,10-methylene-tetrahydromethanopterin	c
L-arginyl-L-aspartyl-Peptides	an N-terminal L-arginiyl-L-aspartyl-[protein]	p
CPD-10589	(24E)-3&alpha;,7&alpha;-dihydroxy-5&beta;-cholest-24-enoyl-CoA	c
CPD-19491	3-isopropyl-6-(methylthio)-2-oxohexanoate	cp
2-METHYL-BUTYRYL-COA	2-methylbutanoyl-CoA	p
CPD-11643	two adjacent thymidines in DNA	p
L-glutamyl-tRNAGln	an L-glutamyl-[tRNAGln]	c
S-Substituted-L-Cysteines	an L-cysteine-S-conjugate	c
B-ALANINE	&beta;-alanine	cp
CPD-19492	3-ethyl-2-oxosuccinate	cp
L-leucyl-L-arginyl-Protein	a [protein] N-terminal L-leucyl-L-arginine	p
CPD-11746	N-acetyldemethyl-L-phosphinothricin	p
CPD-19493	S-(mercaptomethyl)-L-cysteine	p
S2O3	thiosulfate	cp
236-TRICHLOROHYDROQUINONE	2,3,6-trichlorohydroquinone	c
Nucleoside-Diphosphates	a nucleoside diphosphate	cp
L-leucyl-L-lysyl-Protein	a [protein] N-terminal L-leucyl-L-lysine	p
Damaged-DNA-Pyrimidine	a damaged DNA pyrimidine	c
CPD-195	octanoate	c
L-methionyl-L-alanyl-Protein	an N-terminal-L-methionyl-L-alanyl-[protein]	c
CPD-10590	(24R,25R)-3&alpha;,7&alpha;,24-trihydroxy-5&beta;-cholestanoyl CoA	p
Decanoyl-ACPs	a decanoyl-[acp]	c
L-methionyl-L-cysteinyl-Protein	an N-terminal-L-methionyl-L-cysteinyl-[protein]	c
B-KETOACYL-ACP	a 3-oxoacyl-[acp]	cp
CAFFEOYL-COA	trans-caffeoyl-CoA	p
L-methionyl-L-seryl-Protein	an N-terminal-L-methionyl-L-seryl-[protein]	c
PRPP	5-phospho-&alpha;-D-ribose 1-diphosphate	cp
GLYCYLGLYCINE	glycyl-glycine	c
CIS-2-CHLORO-4-CARBOXYMETHYLENEBUT-2-EN-	2-chloro-cis-dienelactone	c
L-methionyl-L-threonyl-Protein	an N-terminal-L-methionyl-L-threonyl-[protein]	c
3-KETO-ADIPATE	3-oxoadipate	cp
Nucleoside-Monophosphates	a nucleoside 5'-monophosphate	p
23S-rRNA-2-methyladenine2503	a 2-methyladenine2503 in 23S rRNA	p
L-methionyl-L-valyl-Protein	an N-terminal-L-methionyl-L-valyl-[protein]	c
L-methionyl-glycyl-Protein	an N-terminal-L-methionyl-glycyl-[protein]	c
Delta4-hexadecenoyl-ACPs	a (4Z)-hexadec-4-enoyl-[acp]	c
CPD-196	octanoyl-CoA	p
CPD-121	(R)-mandelate	c
L-methionyl-tRNAfmet	an L-methionyl-[initiator tRNAMet]	cp
SACCHAROPINE	L-saccharopine	c
Nucleoside-Triphosphates	a nucleoside triphosphate	cp
CPD-12112	salicyloyl-CoA	c
23S-rRNA-adenine-2503	adenine2503 in 23S rRNA	c
2-METHYLMALEATE	citraconate	cp
CIS-ACONITATE	cis-aconitate	cp
BCAA-dehydrogenase-DH-lipoyl	an [apo BCAA dehydrogenase E2 protein] N6-dihydrolipoyl-L-lysine	cp
L-phenylalanyl-L-arginyl-Protein	L-phenylalanyl-L-arginyl-[protein]	p
CPD-12173	(S)-3-hydroxy-isobutanoyl-CoA	cp
Charged-ALA-tRNAs	an L-alanyl-[tRNAAla]	p
L-phenylalanyl-L-lysyl-Protein	L-phenylalanyl-L-lysyl-[protein]	p
CPD-106	(S)-4-hydroxymandelate	p
CPD-10600	4-hydroxybenzoyl-acetyl-CoA	c
BCAA-dehydrogenase-lipoyl	an [apo BCAA dehydrogenase E2 protein] N6-lipoyl-L-lysine	cp
Charged-ARG-tRNAs	an L-arginyl-[tRNAArg]	cp
Phosphoglucosamine-Mutase	a phosphoglucosamine mutase	cp
PANTOTHENATE	(R)-pantothenate	p
CPD-9956	ubiquinol-8	p
AMMONIA	ammonia	c
Phospholipid-Cyclopropane-Fatty-Acids	a [phospholipid] cyclopropane fatty acid	p
Phospholipid-Olefinic-Fatty-Acids	a [phospholipid] olefinic fatty acid	c
CPD-592	4-guanidinobutanoate	p
Charged-CYS-tRNAs	an L-cysteinyl-[tRNACys]	cp
N-FORMYLKYNURENINE	N-formylkynurenine	cp
CPD-9965	icosanoyl-CoA	cp
Kanamycin-3-phosphates	a kanamycin 3'-phosphate	p
Phosphorylated-Phosphoglucosamine-Mutase	a phosphorylated phosphoglucosamine mutase	cp
AMMONIUM	ammonium	cp
Phosphoserines	L(or D)-O-phosphoserine	c
Charged-GLN-tRNAs	an L-glutaminyl-[tRNAGln]	p
CPD-600	N-formyl-L-glutamate	c
5S-rRNAs	a 5S rRNA	p
Charged-GLT-tRNAs	an L-glutamyl-[tRNAGlu]	c
Kanamycins	a kanamycin	c
CPD-9999	N-acetylphosphinothricin	p
N-ISOPROPYLAMMELIDE	N-isopropylammelide	p
CPD0-1027	a debranched &alpha;-limit dextrin	c
CPD-602	5-amino-6-(5-phospho-D-ribosylamino)uracil	p
Pi	phosphate	cp
Charged-HIS-tRNAs	an L-histidyl-[tRNAHis]	p
SULFATE	sulfate	cp
Charged-ILE-tRNAs	an L-isoleucyl-[tRNAIle]	p
5Z-3-oxo-tetradec-5-enoyl-ACPs	a (5Z)-3-oxo-tetradec-5-enoyl-[acp]	cp
Pimeloyl-ACPs	a pimeloyl-[acp]	c
QXC-ACP	a quinoxaline-2-carboxyl-[acyl-carrier protein]	p
Charged-LEU-tRNAs	an L-leucyl-[tRNALeu]	cp
L-1-GLYCERO-PHOSPHORYLCHOLINE	sn-glycero-3-phosphocholine	p
N-SUCCINYL-2-AMINO-6-KETOPIMELATE	N-succinyl-2-amino-6-ketopimelate	cp
O-PHOSPHO-L-HOMOSERINE	O-phospho-L-homoserine	cp
PAPS	3'-phosphoadenylyl-sulfate	cp
CPD-618	(2R,3S)-2-methylisocitrate	cp
Charged-LYS-tRNAs	an L-lysyl-[tRNALys]	p
CPD0-1080	GlcNAc-1,6-anhMurNAc-L-Ala-&gamma;-D-Glu-DAP-D-Ala	c
L-1-GLYCEROPHOSPHORYLETHANOL-AMINE	sn-glycero-3-phosphoethanolamine	cp
AMP	AMP	cp
Charged-MET-tRNAs	an L-methionyl-[elongator tRNAMet]	p
CPD0-1081	N-acetyl-&beta;-D-glucosamine-1,6-anhydro-N-acetyl-&beta;-D-muramate	cp
Charged-PHE-tRNAs	an L-phenylalanyl-[tRNAPhe]	c
5Z-tetradec-5-enoyl-ACPs	a (5Z)-tetradec-5-enoyl-[acp]	c
5Z8Z11Z14Z17Z-EICOSAPENTAENOATE	icosapentaenoate	c
Charged-PRO-tRNAs	an L-prolyl-[tRNAPro]	p
Charged-SEC-tRNAs	an L-selenocysteinyl-[tRNAsec]	p
FE+2	Fe2+	cp
Charged-SER-tRNAs	an L-seryl-[tRNAser]	p
VANILLATE	vanillate	c
2C-METH-D-ERYTHRITOL-CYCLODIPHOSPHATE	2-C-methyl-D-erythritol-2,4-cyclodiphosphate	c
6-CARBOXYHEX-2-ENOYL-COA	6-carboxyhex-2-enoyl-CoA	p
MALONATE-S-ALD	3-oxopropanoate	cp
CPD-321	3-aci-nitropropanoate	c
DGDP	dGDP	cp
Charged-THR-tRNAs	an L-threonyl-[tRNAThr]	p
O-SUCCINYLBENZOATE	2-succinylbenzoate	c
Charged-TRP-tRNAs	an L-tryptophanyl-[tRNATrp]	p
IS30-Insertion-Sequences	an insertion sequence element IS30	cp
CPD-323	cholest-4-en-3-one	p
Charged-TYR-tRNAs	an L-tyrosyl-[tRNATyr]	p
FE+3	Fe3+	p
IS30-with-Integrated-Transposon	an insertion sequence IS30 with integrated transposon	cp
Charged-VAL-tRNAs	an L-valyl-[tRNAVal]	p
2H6OH2-4DIENOATE	cis,cis-2-hydroxy-6-oxohepta-2,4-dienoate	p
ISOBUTYRATE	isobutanoate	c
AGMATHINE	agmatine	c
3-KETO-ADIPYL-COA	3-oxoadipyl-CoA	cp
Charged-fMET-tRNAs	an N-formyl-L-methionylaminoacyl-tRNA	c
HCN	hydrogen cyanide	c
2K-4CH3-PENTANOATE	4-methyl-2-oxopentanoate	cp
ISOBUTYRYL-COA	isobutanoyl-CoA	cp
DGTP	dGTP	cp
2K-ADIPATE	2-oxoadipate	cp
HX	HX	p
HYDROGEN-PEROXIDE	hydrogen peroxide	cp
CPD-335	(R)-3-hydroxybutanoate	cp
FERULIC-ACID	ferulate	cp
CPD-3617	decanoate	c
AICAR	5-amino-1-(5-phospho-D-ribosyl)imidazole-4-carboxamide	cp
FERULOYL-COA	feruloyl-CoA	p
3-KETOACYL-COA	a 3-oxoacyl-CoA	cp
3-KETOBUTYRATE	acetoacetate	cp
Chlorides	an organochlorine compound	p
O-UREIDOHOMOSERINE	O-ureido-L-homoserine	c
CAMP	cyclic-AMP	p
Deoxy-Ribonucleoside-Diphosphates	a 2'-deoxyribonucleoside 5'-diphosphate	p
2-Me-Branched-234-Sat-FA	a 2-methyl branched 2,3,4-saturated fatty acid	c
4-METHYLCATECHOL	4-methylcatechol	c
CPD66-21	leukotriene-D4	p
2-Me-Branched-234-Sat-Fatty-Acyl-CoA	a 2-methyl branched 2,3,4-saturated fatty acyl-CoA	p
6-Dimethylallyladenosine37-tRNAs	N6-dimethylallyladenosine37 in tRNA	cp
Deoxy-Ribonucleoside-Monophosphates	a 2'-deoxyribonucleoside 5'-monophosphate	p
SALICYLALDEHYDE	salicylaldehyde	c
CANAVANINE	L-canavanine	p
Deoxy-Ribonucleoside-Triphosphates	a 2'-deoxyribonucleoside 5'-triphosphate	c
PHOSPHORIBOSYL-FORMAMIDO-CARBOXAMIDE	5-formamido-1-(5-phospho-D-ribosyl)-imidazole-4-carboxamide	cp
ISOCHORISMATE	isochorismate	c
CPD66-27	pregn-5-ene-3,20-dione-17-ol	cp
PHOSPHORIBOSYL-FORMIMINO-AICAR-P	1-(5-phospho-&beta;-D-ribosyl)-5-[(5-phosphoribosylamino)methylideneamino]imidazole-4-carboxamide	cp
CPD66-28	pregn-5-ene-3,20-dione	c
6-HYDROXY-NICOTINATE	6-hydroxynicotinate	c
THIAMINE-P	thiamine phosphate	cp
4-OXALOMESACONATE	(1E)-4-oxobut-1-ene-1,2,4-tricarboxylate	p
THIAMINE-PYROPHOSPHATE	thiamine diphosphate	p
2-OCTAPRENYL-6-HYDROXYPHENOL	3-(all-trans-octaprenyl)benzene-1,2-diol	c
CPD66-29	5-androstene-3,17-dione	c
CPD-7737	(2-carboxy-2,5-dihydro-5-oxofuran-2-yl)-acetate	cp
CANAVANINOSUCCINATE	canavaninosuccinate	cp
CPD66-39	a 2,3,4-saturated fatty acid	c
CARBAMATE	carbamate	cp
PHOSPHORIBULOSYL-FORMIMINO-AICAR-P	phosphoribulosylformimino-AICAR-phosphate	p
OCTADEC-9-ENE-118-DIOIC-ACID	&alpha;,&omega;-9Z-octadecenedioate	c
2-OCTAPRENYL-6-METHOXYPHENOL	2-methoxy-6-(all-trans-octaprenyl)phenol	cp
CPDN-384	2-hydroxychromene-2-carboxylate	c
CPD-782	3,4-dihydroxyphenylacetate	p
MALONYL-ACP	a malonyl-[acp]	cp
4-P-PANTOTHENATE	(R)-4'-phosphopantothenate	p
Diacylglycerol-Prolipoproteins	an [apolipoprotein]-(S-diacylglyceryl)-L-cysteine	p
MALONYL-COA	malonyl-CoA	cp
Dihydro-Lipoyl-Proteins	a [lipoyl-carrier protein] N6-dihydrolipoyl-L-lysine	c
CARBAMOYL-P	carbamoyl phosphate	cp
CPDN-385	trans-O-hydroxybenzylidenepyruvate	p
4-PHOSPHONOOXY-THREONINE	4-phosphooxy-L-threonine	cp
OCTANOL	1-octanol	p
Cis-Delta5-dodecenoyl-ACPs	a (5Z)-dodec-5-enoyl-[acp]	c
4-hydroxybenzoate	4-hydroxybenzoate	cp
SE-2	selenide	c
Cis-Delta7-tetradecenoyl-ACPs	a cis-&Delta;7-tetradecenoyl-[acp]	c
OCTAPRENYL-DIPHOSPHATE	all-trans-octaprenyl diphosphate	cp
L-seryl-SEC-tRNAs	an L-seryl-[tRNAsec]	cp
N-SUCCINYLLL-2-6-DIAMINOPIMELATE	N-succinyl-L,L-2,6-diaminopimelate	cp
CPD-15667	6-cis, 3-oxo-tridecenoyl-CoA	c
CPD-622	(2S,3S)-2-methylcitrate	cp
Quinones	a quinone	c
CPD0-1082	L-alanyl-&gamma;-D-glutamyl-meso-2,6-diaminopimeloyl-D-alanine	cp
LACTALD	(S)-lactaldehyde	cp
CPD-12175	(S)-3-hydroxy-isobutanoate	cp
Cis-delta-3-decenoyl-ACPs	a (3Z)-dec-3-enoyl-[acp]	c
CPD0-1096	glucosamine 1,6-diphosphate	cp
R-1-AMINOPROPAN-2-YL-PHOSPHATE	(R)-1-amino-2-propanol O-2-phosphate	p
CPD-15668	4-cis-undecenoyl-CoA	p
Cis-vaccenoyl-ACPs	a cis-vaccenoyl-[acp]	c
CIS-CIS-MUCONATE	cis,cis-muconate	c
L-1-LYSOPHOSPHATIDATE	1-oleyl-2-lyso-phosphatidate	p
N-Substituted-Amino-Acids	an N-modified amino acid	p
DNA-Ligase-L-lysine	a [DNA ligase]-L-lysine	cp
CPD-15676	6-trans-3-oxo-tridecenoyl-CoA	c
CPD-6442	methylsalicylate	c
R-2-Haloacids	an (R)-2-haloacid	c
L-1-PHOSPHATIDYL-ETHANOLAMINE	an L-1-phosphatidylethanolamine	p
Citrate-Lyase-Citryl-Form	a citryl-holo [citrate lyase acyl-carrier protein]	c
N-Substituted-Aminoacyl-tRNA	an N-modified aminoacyl-[tRNA]	c
R-2-Hydroxyacids	an (R)-2-hydroxyacid	p
N-acetyl-D-glucosamine	N-acetyl-D-glucosamine	p
LAUROYLCOA-CPD	lauroyl-CoA	p
CIS-D2-ENOYL-COA	a cis-2-enoyl-CoA	cp
CPD-15677	4-trans-undecenoyl-CoA	p
METOH	methanol	cp
GDP	GDP	cp
L-1-PHOSPHATIDYL-GLYCEROL	an L-1-phosphatidyl-sn-glycerol	cp
CPD0-1133	maltoheptaose	cp
GLYOX	glyoxylate	cp
L-1-PHOSPHATIDYL-GLYCEROL-P	1-(3-sn-phosphatidyl)-sn-glycerol 3-phosphate	cp
CPD-12179	methylmalonate semialdehyde	c
L-1-PHOSPHATIDYL-SERINE	a 3-O-sn-phosphatidyl-L-serine	cp
CPD-15678	4-trans-3-oxo-undecenoyl-CoA	c
R-3-Hydroxypalmitoyl-ACPs	a (3R)-3-hydroxypalmitoyl-[acp]	p
CPD-12199	3S-(4-hydroxyphenyl)-3-hydroxy-propanoyl-CoA	p
N-acetyl-beta-D-hexosamines	an N-acetyl-&beta;-D-hexosamine	p
GDP-4-DEHYDRO-6-DEOXY-D-MANNOSE	GDP-4-dehydro-&alpha;-D-rhamnose	p
OCTAPRENYL-METHOXY-BENZOQUINONE	2-methoxy-6-all trans-octaprenyl-1,4-benzoquinol	p
R-3-hydroxy-cis-vaccenoyl-ACPs	(R)-3-hydroxy-cis-vacc-11-enoyl-[acp]	p
CPD0-1147	methyl red	c
R-3-hydroxyarachidoyl-ACPs	a (3R)-3-hydroxyarachidoyl-[acp]	p
N-formyl-L-methionyl-tRNAfmet	an N-formyl-L-methionyl-[initiator tRNAmet]	p
CPD-15687	5-cis, 7-trans-3-oxo-tetradecadienoyl-CoA	c
CPD-650	(3R)-3-hydroxybutanoyl-CoA	cp
L-3-HYDROXYACYL-COA	a (3S)-3-hydroxyacyl-CoA	p
R-3-hydroxybehenoyl-ACPs	a (3R)-3-hydroxybehenoyl-[acp]	p
R-3-hydroxycerotoyl-ACPs	a (3R)-3-hydroxycerotoyl-[acp]	p
CPD0-1148	N,N'-dimethyl-p-phenylenediamine	p
CIT	citrate	cp
DNA-Ligase-L-lysine-adenylate	a [DNA ligase]-N6-(5'-adenylyl)-L-lysine	cp
L-5-Monosubstituted-Hydantoins	an L-5-monosubstituted hydantoin	cp
CPD-15688	(3Z,5E)-dodeca-3,5-dienoyl-CoA	p
R-3-hydroxydodecanoyl-ACPs	a (3R)-3-hydroxydodecanoyl-[acp]	p
N-terminal-L-Serine	an N-terminal L-seryl-[protein]	p
CPD-122	(S)-mandelate	p
LEU	L-leucine	cp
L-ALA-GAMMA-D-GLU-DAP	L-alanyl-&gamma;-D-glutamyl-meso-diaminopimelate	c
CITRATE-LYASE	an acetyl-holo [citrate lyase acyl-carrier protein]	p
R-3-hydroxyhexanoyl-ACPs	a (3R)-3-hydroxyhexanoyl-[acp]	p
N-terminal-L-alanine	an N-terminal L-alanyl-[protein]	p
GDP-D-GLUCOSE	GDP-&alpha;-D-glucose	c
LEU-tRNAs	a tRNALeu	cp
L-ALPHA-ALANINE	L-alanine	cp
CPD-15691	(5E)-3-oxo-dodec-5-enoyl-CoA	c
R-3-hydroxylignoceroyl-ACPs	a (3R)-3-hydroxylignoceroyl-[acp]	p
CPD-12279	2-iminoacetate	c
R-3-hydroxymyristoyl-ACPs	a (3R)-3-hydroxymyristoyl-[acp]	cp
N-terminal-L-cysteine	an N-terminal L-cysteinyl-[protein]	p
N-terminal-L-cysteine-sulfinate	an N-terminal 3-sulfino-L-alanyl-[protein]	c
R-3-hydroxypetroselinoyl-ACPs	a (3R)-3-hydroxypetroselinoyl-[acp]	p
CPD-15692	(3E)-dec-3-enoyl-CoA	p
N-terminal-L-cysteine-sulfonate	an N-terminal 3-sulfo-L-alanyl-[protein]	c
R-3-hydroxystearoyl-ACPs	a (3R)-3-hydroxystearoyl-[acp]	p
CPD-654	2,5-dioxopentanoate	p
N-terminal-L-valine	an N-terminal L-valyl-[protein]	p
HCO3	hydrogencarbonate	cp
3-Ketoglutaryl-ACP-methyl-ester	a 3-oxo-glutaryl-[acp] methyl ester	cp
ACP	a holo-[acyl-carrier protein]	cp
Plastoquinols	a plastoquinol	cp
CPD-10608	trans-dienelactone	c
BCCP-L-lysine	a [biotin carboxyl-carrier protein]-L-lysine	c
CPD-18118	D-arabinofuranose 5-phosphate	c
3-Ketopimeloyl-ACP-methyl-esters	a 3-oxo-pimeloyl-[acp] methyl ester	cp
CPD-13793	3-oxo-24-ethyl-cholest-5-ene	c
BCCP-biotin-L-lysine	a [biotin carboxyl-carrier protein]-biotin-N6-L-lysine	p
ACRYLAMIDE	acrylamide	c
CPD-13794	3-oxo-24-ethyl-cholest-4-ene	p
CPD-18238	carboxyphosphate	cp
Poly-Hydroxybutyrate	poly-3-hydroxybutanoate	cp
CPD-18320	5-methylbenzimidazole	c
3-MERCAPTO-PYRUVATE	3-mercaptopyruvate	c
DI-H-OROTATE	(S)-dihydroorotate	cp
3-METHYL-CROTONYL-COA	3-methylcrotonyl-CoA	cp
OCTAPRENYL-METHYL-METHOXY-BENZQ	6-methoxy-3-methyl-2-all-trans-octaprenyl-1,4-benzoquinol	c
CPD-18321	5-methoxybenzimidazole	c
BENZIMIDAZOLE	benzimidazole	c
Polyisoprenyl-Monophosphates	a polyprenol phosphate	c
CPD-10633	5-chloro-trans-dienelactone	c
DIAMINO-OH-PHOSPHORIBOSYLAMINO-PYR	2,5-diamino-6-(5-phospho-D-ribosylamino)pyrimidin-4(3H)-one	c
OCTAPRENYL-METHYL-OH-METHOXY-BENZQ	3-demethylubiquinol-8	cp
CPD-18346	cis-vaccenoyl-CoA	cp
ACRYLATE	acrylate	p
CPD-10634	5-chloromaleylacetate	p
CPD-19761	2,6-dichloro-3-(glutathione-S-yl)-hydroquinone	p
CPD-18348	1-cis-vaccenoylglycerol-3-phosphate	p
BENZOATE	benzoate	p
GDP-MANNOSE	GDP-&alpha;-D-mannose	c
CPD-10636	2,5-dichloro-trans-dienelactone	c
SUPER-OXIDE	superoxide	c
CPD-19763	2,3,5-trichloro-6-(glutathione-S-yl)-hydroquinone	p
HEXANOYL-COA	hexanoyl-CoA	cp
3-METHYLTHIOPROPYLHYDROXAMIC-ACID	(E)-N-hydroxy-4-(methylsulfanyl)butimidothioate	cp
CPD-18379	1-myristoylglycerol 3-phosphate	p
CPD-10637	2,5-dichloromaleylacetate	p
3-Methyl-Saturated-Fatty-Acids	a 3-methyl-branched 2,3,4-saturated fatty acid	c
3-Methyl-Saturated-Fatty-Acyl-CoA	a 3-methyl-branched 2,3,4-saturated fatty acyl-CoA	cp
3-OCTAPRENYL-4-HYDROXYBENZOATE	3-octaprenyl-4-hydroxybenzoate	cp
DIAMINONONANOATE	7,8-diaminopelargonate	c
GDP-TP	pppGpp	p
CPD-3618	2-oxovalerate	p
DNA-N	DNAn	cp
HYDROXY-METHYL-BUTENYL-DIP	(E)-4-hydroxy-3-methylbut-2-en-1-yl diphosphate	cp
SELENATE	selenate	c
ATP	ATP	cp
Cyclic-2-3-Ribonucleoside-Monophosphates	a ribonucleoside 2',3'-cyclic phosphate	c
CPD-3706	adenosine 3'-monophosphate	p
OH-ACYL-ACP	a (3R)-3-hydroxyacyl-[acyl-carrier protein]	p
HYDROXYATRAZINE	hydroxyatrazine	c
OH-HEXANOYL-COA	(S)-3-hydroxyhexanoyl-CoA	c
UDP-OHMYR-ACETYLGLUCOSAMINE	UDP-3-O-[(3R)-3-hydroxymyristoyl]-N-acetyl-&alpha;-D-glucosamine	c
SELENOHOMOCYSTEINE	seleno-L-homocysteine	p
HYDROXYLAMINE	hydroxylamine	p
CPD-3707	adenosine 2',3'-cyclic monophosphate	c
UDP-OHMYR-GLUCOSAMINE	UDP-3-O-(3-hydroxymyristoyl)-&alpha;-D-glucosamine	cp
SEPO3	selenophosphate	cp
FMN	FMN	cp
CPD-3708	guanosine 3'-monophosphate	p
HYDROXYMETHYLBILANE	preuroporphyrinogen	cp
FMNH2	FMNH2	cp
OH-MYRISTOYL	UDP-2-N,3-O-bis[(3R)-3-hydroxytetradecanoyl]-&alpha;-D-glucosamine	cp
SER	L-serine	cp
TRP	L-tryptophan	cp
CPDQT-27	6-(methylthio)-2-oxohexanoate	p
OH-PYR	hydroxypyruvate	cp
DNA-Segment-Placeholder	a DNA segment	cp
CPD-784	5-carboxymethyl-2-hydroxymuconate	c
VERY-LONG-CHAIN-FATTY-ACYL-COA	a very long chain fatty acyl-CoA	p
MEVALONATE	(R)-mevalonate	cp
Cysteine-Desulfurase-L-cysteine	an [L-cysteine desulfurase]-L-cysteine	cp
CPD-157	(2Z,4E)-2-hydroxy-6-oxonona-2,4-diene-1,9-dioate	p
Cytidine-34-tRNAIle2	a cytidine34 in tRNAIle2	c
CPDQT-28	7-(methylthio)-2-oxoheptanoate	p
DNA-Segment-in-Reverse-Orientations	a DNA segment in reverse orientation	cp
CPD-785	(3E,5R)-5-carboxy-2-oxohept-3-enedioate	p
DNA-With-GO	a 7,8-dihydro-8-oxoguanine in DNA	c
CPDQT-29	8-(methylthio)-2-oxooctanoate	p
Cytochromes-C-Oxidized	an oxidized c-type cytochrome	cp
CPDQT-30	9-(methylthio)-2-oxononanoate	p
Very-long-chain-fatty-acids	a very-long-chain fatty acid	c
DNA-With-GO-A-Mismatch	DNA with adenine:7,8-dihydro-8-oxoguanine mismatch	c
LEUKOTRIENE-C4	leukotriene-C4	c
CPD-15873	bis(guanylyl molybdopterin cofactor)	p
CPDQT-36	3-[(3'-methylthio)propyl]malate	cp
MALTOHEXAOSE	maltohexaose	cp
Cytochromes-C-Reduced	a reduced c-type cytochrome	cp
CPD-15874	bis(molybdenum cofactor)	c
CPDQT-37	3-[(4'-methylthio)butyl]malate	cp
MONOMER0-4342	a [prolipoprotein]-(S-diacylglyceryl)-L-cysteine	cp
DNA-With-Hypoxanthines	a DNA with hypoxanthine	c
ACYL-ACP	an acyl-[acyl-carrier protein]	cp
WATER	H2O	cp
CPDQT-38	3-[(5'-methylthio)pentyl]malate	cp
ACYL-COA	an acyl-CoA	c
CPD-159	(S)-5-amino-3-oxohexanoate	cp
CPD-15979	D-mannopyranose 6-phosphate	cp
CPDQT-39	3-[(6'-methylthio)hexyl]malate	cp
CPD-8123	MoO2-molybdopterin cofactor	c
ACYL-SN-GLYCEROL-3P	a 1-acyl-sn-glycerol 3-phosphate	p
MALTOOLIGOSYLTREHALOSE	a maltooligosyl-trehalose	cp
CPDQT-40	3-[(7'-methylthio)heptyl]malate	cp
Wound-RNA	wound RNA	c
CPDQT-406	S-5-methylthiopentylhydroximoyl-L-cysteine	cp
D-3-HYDROXYACYL-COA	a (3R)-3-hydroxyacyl-CoA	cp
XANTHINE	xanthine	p
CPD-8180	DNA with lesion	c
LINOLEIC_ACID	linoleate	c
DNA-containing-a-Apyrimidinic-Sites	an apyrimidinic site in DNA	p
CARBAMYUL-L-ASPARTATE	N-carbamoyl-L-aspartate	cp
D-5-Monosubstituted-Hydantoins	a D-5-monosubstituted hydantoin	cp
2-OCTAPRENYLPHENOL	2-octaprenylphenol	p
HG+2	Hg2+	c
Diribonucleotide	a diribonucleotide	p
2-OH-3-Methyl-Saturated-Fatty-Acyl-CoA	a 2-hydroxy-3-methyl-branched 2,3,4-saturated fatty acyl-CoA	p
DNA-containing-aPurinic-Sites	an apurinic site within DNA	p
PLASTOQUINONE	a plastoquinone	cp
D-ALA-D-ALA	D-alanyl-D-alanine	cp
2-OXOBUTANOATE	2-oxobutanoate	cp
ANDROST4ENE	androst-4-ene-3,17-dione	p
Dodecanoyl-ACPs	a dodecanoyl-[acp]	c
CARBON-DIOXIDE	CO2	cp
HG0	Hg0	p
DNA-containing-abasic-Sites	a DNA containing an apurinic/apyrimidinic site	cp
Donor-H2	a reduced electron acceptor	cp
Double-Stranded-DNAs	a double stranded DNA	cp
ANTHRANILATE	anthranilate	cp
Double-helix-DNA	a double-helix DNA	c
Drugs	a drug	cp
HIS	L-histidine	cp
HIS-tRNAs	a tRNAHis	c
DNA-containing-diamino-hydro-formamidops	a ring-opened 7-methylguanine in DNA	c
ALA-tRNAs	a tRNAAla	c
POLY-GLUCOSYLATED-GLYCOGENINS	a glucosylated glycogenin	c
CARBON-MONOXIDE	carbon monoxide	p
APS	adenosine 5'-phosphosulfate	cp
D-ALANINE	D-alanine	cp
DNA-deoxycytidine-dimer	a dimer of non-adjacent 2'-deoxycytidines in DNA	c
OLEATE-CPD	oleate	cp
2-PG	2-phospho-D-glycerate	cp
CPD-184	2-pyrone-4,6-dicarboxylate	c
MALTOPENTAOSE	maltopentaose	cp
CPD-12321	15-cis-phytoene	c
TRP-tRNAs	a tRNATrp	c
CPD-13940	Co&alpha;-[a-(5-methoxybenzimidazolyl)]-Co&beta;-adenosylcobamide 5'-phosphate	p
HYDROXYMUCONATE-SALD	(2Z,4E)-2-hydroxy-6-oxohexa-2,4-dienoate	p
Polysaccharides	a polysaccharide	p
CPD-658	CDP-4-dehydro-6-deoxy-D-glucose	c
DNA-deoxycytidine-thymidine-dimer	a dimer of non-adjacent 2'-deoxycytidine and thymidine in DNA	c
CPD-14018	icosapentaenoyl-CoA	p
GLUTARYL-COA	glutaryl-CoA	p
DNA-pyrimidines	a pyrimidine nucleoside in DNA	p
CPD-18492	(2E,6Z,9Z,12Z,15Z,18Z)-tetracosahexaenoyl-CoA	c
CPD-14053	(6R)-L-erythro-5,6,7,8-tetrahydrobiopterin	c
3-OXO-EICOSAPENTAENOYL-ACP	a 3-oxo-docosapentaenoyl [acp]	c
D-ALPHABETA-D-HEPTOSE-7-PHOSPHATE	D-glycero-D-manno-heptose 7-phosphate	p
CPD-66	2-hydroxy-3-oxosuccinate	cp
LINOLENIC_ACID	&alpha;-linolenate	c
MALTOSE	maltose	cp
CPD-667	O-acetyl-L-homoserine	cp
CPD-19782	(3E)-5-chloro-2-oxopent-3-enoate	c
Saturated-Fatty-Acyl-ACPs	a 2,3,4-saturated fatty acyl-[acp]	c
MALTOTETRAOSE	maltotetraose	cp
DNA-thymidine-deoxycytidine-dimer	a dimer of non-adjacent thymidine and 2'-deoxycytidine in DNA	c
CPD-18493	(3S)-hydroxy-(6Z,9Z,12Z,15Z,18Z)-tetracosapentaenoyl-CoA	p
CPD-19833	roseoflavin	c
Saturated-Fatty-Acyl-CoA	a 2,3,4-saturated fatty acyl CoA	cp
DNA-thymidine-dimer	a dimer of non-adjacent thymidines in DNA	c
Prolipoprotein-Cysteines	a [prolipoprotein]-L-cysteine	c
CPD-14202	L-erythro-7,8-dihydrobiopterin	p
CPD-18494	3-oxo-(6Z,9Z,12Z,15Z,18Z)-tetracosapentaenoyl-CoA	c
CPD-19839	roseoflavin 5'-phosphate	cp
LINOLENOYL-COA	&alpha;-linolenoyl-CoA	p
THMPT	tetrahydromethanopterin	p
CPD-12427	7,8-dihydro-8-oxoguanine	p
DNA-thymidines	a thymidine in DNA	p
GLUTATHIONE	glutathione	cp
MALTOTRIOSE	maltotriose	cp
CPD-67	2-phosphoglycolate	c
CL-	chloride	cp
CPD-19840	roseoflavin adenine dinucleotide	p
CPD-18495	5-methoxy-6-methylbenzimidazole	c
FORMALDEHYDE	formaldehyde	cp
CPD-672	(S)-3-aminobutanoyl-CoA	cp
HYPOXANTHINE	hypoxanthine	cp
CPD-14268	(15Z)-tetracosenoate	c
DNA-with-Uracils	a uracil in DNA	c
OLEOYL-COA	oleoyl-CoA	cp
CPD-201	4-hydroxybenzoyl-CoA	cp
CPD-18497	5-hydroxy-benzimidazole	c
THR	L-threonine	cp
Protein-Disulfides	a protein disulfide	cp
CPD-12575	UDP-&alpha;-D-glucose	cp
D-BETA-D-HEPTOSE-1-P	D-glycero-&beta;-D-manno-heptose 1-phosphate	p
THR-tRNAs	a tRNAThr	c
Protein-Dithiols	a protein dithiol	cp
Semiquinones	a semiquinone	p
CPD-14269	(Z)-15-tetracosenoyl-CoA	p
CPD-6746	1D-myo-inositol 2-monophosphate	c
OLIGOPEPTIDES	an oligopeptide	c
Protein-Histidines	a [protein]-L-histidine	cp
CPD-18532	(R)-&beta;-hydroxy-L-kynurenine	p
CPD-12634	(glutathion-S-yl)(1H-indol-3-yl)acetonitrile	p
CPD-14298	2,6-dioxo-6-phenylhexa-3-enoate	c
LIPID-IV-A	lipid IVA	cp
CPD-205	pimelate	c
Serines	serine	p
3-4-DIHYDROXYBENZOATE	protocatechuate	p
N-terminal-glycine	an N-terminal glycyl-[protein]	p
DODECANOATE	laurate	c
MYO-INOSITOL	myo-inositol	p
D-BETA-D-HEPTOSE-17-DIPHOSPHATE	D-glycero-&beta;-D-manno-heptose 1,7-bisphosphate	c
CPD-3709	guanosine 2',3'-cyclic monophosphate	c
CMP	CMP	cp
N2-SUCCINYLGLUTAMATE	N2-succinylglutamate	cp
CMP-KDO	CMP-3-deoxy-&beta;-D-manno-octulosonate	cp
XANTHOSINE	xanthosine	p
DPG	3-phospho-D-glyceroyl-phosphate	cp
7-8-DIHYDROPTEROATE	7,8-dihydropteroate	c
BIO-5-AMP	biotinyl-5'-adenylate	p
XANTHOSINE-5-PHOSPHATE	XMP	cp
L-ARGININO-SUCCINATE	L-arginino-succinate	cp
3-5-ADP	adenosine 3',5'-bisphosphate	cp
CPD-3711	cytidine-3'-monophosphate	p
N2-SUCCINYLORNITHINE	N2-succinyl-L-ornithine	p
D-ERYTHRO-IMIDAZOLE-GLYCEROL-P	D-erythro-imidazole-glycerol-phosphate	c
7-AMINOMETHYL-7-DEAZAGUANINE	preQ1	cp
L-ASPARTATE	L-aspartate	cp
N5-Formyl-THF-Glu-N	an (6S)-N5-formyl-tetrahydrofolate	cp
CPD-3713	cytidine 2',3'-cyclic monophosphate	c
7-CYANO-7-DEAZAGUANINE	preQ0	cp
CPD-1078	CDP-4-dehydro-3,6-dideoxy-D-glucose	p
L-ASPARTATE-SEMIALDEHYDE	L-aspartate-semialdehyde	cp
BIOTIN	biotin	cp
ISOVALERATE	isovalerate	c
Acceptor	an oxidized electron acceptor	cp
CPD-10791	6-deoxy-5-ketofructose 1-phosphate	p
CPD-3724	uridine 3'-monophosphate	p
XYLULOSE-5-PHOSPHATE	D-xylulose 5-phosphate	cp
DTDP-D-GLUCOSE	dTDP-&alpha;-D-glucose	cp
Xenobiotic	a xenobiotic	cp
UMP	UMP	cp
Malonyl-acp-methyl-ester	a malonyl-[acp] methyl ester	c
NAD	NAD+	cp
SER-tRNAs	a tRNAser	c
1-CHLORO-24-DINITROBENZENE	1-chloro-2,4-dinitrobenzene	cp
Acetoacetyl-ACPs	an acetoacetyl-[acp]	cp
CPD0-1162	(2E,5Z)-tetradecenoyl-CoA	cp
Short-glucans	a short glucan	cp
1-KETO-2-METHYLVALERATE	(R)-2,3-dihydroxy-3-methylpentanoate	cp
CPD0-1163	(S)-3-hydroxy-(5Z)-tetradecenoyl-CoA	p
D-GALACTONO-1-4-LACTONE	D-galactono-1,4-lactone	p
1-L-MYO-INOSITOL-1-P	1D-myo-inositol 3-monophosphate	c
Single-Stranded-DNAs	a single stranded DNA	cp
CPD0-1327	5-fluorouracil	p
D-GLT	D-glutamate	cp
OROTATE	orotate	cp
1-PALMITOYLGLYCEROL-3-PHOSPHATE	1-palmitoylglycerol 3-phosphate	p
DTDP-DEOH-DEOXY-GLUCOSE	dTDP-4-dehydro-6-deoxy-&alpha;-D-glucopyranose	cp
Soluble-Heteroglycans	a plant soluble heteroglycan	cp
SEROTONIN	serotonin	c
POLYPRENYLPHOSPHATE-GLUCOSE	a polyprenylphosphate-glucose	p
CPD0-1456	UDP-N-acetyl-&alpha;-D-muramoyl-L-alanine	cp
3-CARBOXY-3-HYDROXY-ISOCAPROATE	(2S)-2-isopropylmalate	cp
HISTIDINAL	histidinal	cp
DTDP-DEOH-DEOXY-MANNOSE	dTDP-4-dehydro-&beta;-L-rhamnose	cp
PORPHOBILINOGEN	porphobilinogen	cp
CPD0-1699	6-carboxy-5,6,7,8-tetrahydropterin	cp
PTS-I-Histidines	a [PTS enzyme I]-L-histidine	cp
Starch	starch	p
PTS-I-pi-phospho-L-histidines	a [PTS enzyme I]-N&pi;-phospho-L-histidine	cp
GMP	GMP	cp
Actinorhodin-Intermediate-2	9-hydroxy-3,5,7,11,13,15-hexaoxohexadecanoyl-[PKS-acp]	p
ARABINOSE-5P	aldehydo-D-arabinose 5-phosphate	cp
CPD-822	N2-succinyl-L-glutamate 5-semialdehyde	c
DTDP-RHAMNOSE	dTDP-&beta;-L-rhamnose	p
Stearoyl-ACPs	a stearoyl-[acp]	c
CPD-18539	(R)-N-formyl-&beta;-hydroxy-L-kynurenine	c
CPD-12703	gentisyl-CoA	p
CPD-18550	quinoxaline-2-carboxyl adenylate	c
Acyl-Phosphates	an acyl phosphate	c
D-GLUCARATE	D-glucarate	c
CPD-12760	(R)-4-phosphopantoate	c
CPD-16458	7,8-dihydrolumazine	p
CPD-824	5-guanidino-2-oxopentanoate	p
2-ACETO-2-HYDROXY-BUTYRATE	(S)-2-aceto-2-hydroxybutanoate	cp
CPD-16491	2,6-diamino-4-hydroxy-5-(N-methyl)formamidopyrimidine	p
CPD-8259	&beta;-D-ribosylnicotinate	p
D-GLUCOSAMINE-6-P	D-glucosamine 6-phosphate	cp
OROTIDINE-5-PHOSPHATE	orotidine 5'-phosphate	cp
CPD-19014	2-hydroxy-2-methylpropanoate	p
CPD-8355	1-18:1-2-lysophosphatidylethanolamine	c
CPD-1301	tetrahydropteroyl tri-L-glutamate	cp
CPD-16549	3-(N-morpholino)propanal	p
Adjacent-pyrimidine-dimer-in-DNA	a dimer of adjacent pyrimidine nucleosides in DNA	c
CPD-19042	2-hydroxyisobutyramide	c
Alcohols	an alcohol	p
CPD-19144	(7Z)-hexadecenoyl-CoA	cp
CPD-8534	DNA without lesion	p
CPD-1302	5-methyltetrahydropteroyl tri-L-glutamate	cp
CPD-16953	2-amino-6-[1-hydroxyethyl]-7-methyl-7,8-dihydropterin	c
CPD-19147	(7Z)-tetradecenoyl-CoA	cp
2-ACETO-LACTATE	(S)-2-acetolactate	cp
Aldehydes	an aldehyde	cp
ARG	L-arginine	cp
CPD-8550	a substituted &beta;-amino acid	p
CPD-8579	a [histone] N6-methyl-L-lysine	p
SHIKIMATE	shikimate	p
CPD-13035	adenylyl molybdenum cofactor	p
CPD-8624	a [protein]-L-proline (&omega; = 180)	cp
CPD-19148	(5Z)-dodecenoyl-CoA	cp
CPD-16954	[1-(2-amino-7-methyl-4-oxo-7,8-dihydro-3H-pteridin-6-yl)]ethyl diphosphate	p
CPD-8625	a [protein]-L-proline (&omega; = 0)	cp
CPD-13043	7-carboxy-7-deazaguanine	cp
CPD-17045	3-benzyl-3,6-dihydroxy-6-(hydroxymethyl)-diketopiperazine	c
CPD-676	trans-caffeate	c
CPDQT-407	S-6-methylthiohexylhydroximoyl-L-cysteine	cp
CO-A	coenzyme A	cp
7Z-3-oxo-hexadec-7-enoyl-ACPs	a (7Z)-3-oxo-hexadec-7-enoyl-[acp]	cp
THREO-DS-ISO-CITRATE	D-threo-isocitrate	cp
CPDQT-408	S-7-methylthioheptylhydroximoyl-L-cysteine	cp
Maltodextrins	a maltodextrin	cp
7Z-hexadec-7-enoyl-ACPs	a (7Z)-hexadec-7-enoyl-[acp]	c
Halide-Anions	a halide anion	p
CARBOXYPHENYLAMINO-DEOXYRIBULOSE-P	1-(o-carboxyphenylamino)-1'-deoxyribulose 5'-phosphate	cp
8-AMINO-7-OXONONANOATE	8-amino-7-oxononanoate	p
CPDQT-409	S-8-methylthiooctylhydroximoyl-L-cysteine	cp
Protein-L-glutamine	a [protein]-L-glutamine	c
ARG-tRNAs	a tRNAArg	cp
DIHYDRO-DIOH-BENZOATE	(2S,3S)-2,3-dihydroxy-2,3-dihydrobenzoate	p
CPD-3725	uridine 2'3'-cyclic monophosphate	c
FORMAMIDE	formamide	cp
L-BETA-ASPARTYL-P	L-aspartyl-4-phosphate	cp
CPDQT-41	10-(methylthio)-2-oxodecanoate	p
Protein-L-lysine	a [protein]-L-lysine	c
5-10-METHENYL-THF-GLU-N	a 5,10-methenyltetrahydrofolate	cp
CPDQT-410	S-9-methylthiononylhydroximoyl-L-cysteine	cp
a-2-oxoglutarate-dehydrogenase-E2-protei	a [2-oxoglutarate-dehydrogenase E2 protein] N6-octanoyl-L-lysine	c
L-CITRULLINE	L-citrulline	c
Protein-L-methionine	a [protein]-L-methionine	cp
DATP	dATP	p
5-AMINO-LEVULINATE	5-aminolevulinate	cp
CPD-678	hydrogen selenide	c
CPDQT-411	(E)-N-hydroxy-5-(methylsulfanyl)pentimidothioate	cp
NAD-P-OR-NOP	NAD(P)+	cp
Protein-L-methionine-R-S-oxides	a protein-L-methionine-(R)-S-oxide	cp
CPD-3734	thiophosphate	p
D-LACTATE	(R)-lactate	p
5-DEHYDROGLUCONATE	5-dehydro-D-gluconate	c
CPDQT-412	(E)-N-hydroxy-6-(methylsulfanyl)heximidothioate	cp
a-pyruvate-dehydrogenase-E2-protein-Nsup	a [pyruvate dehydrogenase E2 protein] N6-octanoyl-L-lysine	c
DIHYDROFOLATE	7,8-dihydrofolate monoglutamate	p
apo-ACP	an apo-[acyl-carrier protein]	cp
CPDQT-413	(E)-N-hydroxy-7-(methylsulfanyl)heptimidothioate	cp
Protein-L-serine-or-L-threonine	a [protein]-(L-serine/L-threonine)	cp
CPD-3740	djenkolate	c
DIHYDROFOLATE-GLU-N	a 7,8-dihydrofolate	p
FORMATE	formate	cp
L-CYSTATHIONINE	L-cystathionine	c
b-Hydroxy-cis-D5-dodecenoyl-ACPs	a (3R,5Z)-3-hydroxy-dodec-5-enoyl-[acp]	p
CPDQT-414	(E)-N-hydroxy-8-(methylsulfanyl)octimidothioate	cp
Hepta-oxo-hexadecanoyl-ACPs	a 3,5,7,9,11,13,15-hepta-oxo-hexadecanoyl-[PKS-acp]	c
9S-RRNA	a 9S rRNA	c
CPD-3744	1-butanesulfonate	c
b-Keto-cis-D5-dodecenoyl-ACPs	a (5Z)-3-oxo-dodec-5-enoyl-[acp]	cp
DCDP	dCDP	cp
CPDQT-415	(E)-N-hydroxy-9-(methylsulfanyl)nonimidothioate	cp
9Z-3-oxo-octadec-9-enoyl-ACPs	a (9Z)-3-oxo-octadec-9-enoyl-[acp]	cp
biotin-L-lysine-in-BCCP-dimers	a [biotin carboxyl-carrier-protein dimer]-N6-biotinyl-L-lysine	cp
A-5-prime-PP-5-prime-DNA	an adenosine-5'-diphospho-5'-[DNA]	cp
Hexanoyl-ACPs	a hexanoyl-[acyl-carrier-protein]	c
ACET	acetate	cp
CPD-3745	isethionate	c
Menaquinols	a menaquinol	cp
Protein-N-terminal-L-Arginine	an N-terminal arginyl-[protein]	cp
carboxybiotin-L-lysine-in-BCCP-dimers	a [carboxyl-carrier protein dimer]-N6-carboxybiotinyl-L-lysine	cp
CPD-687	hydrogenobyrinate	c
OXALACETIC_ACID	oxaloacetate	cp
ACETALD	acetaldehyde	cp
CPDQT-429	indolylmethylisothiocyanate	c
Menaquinones	a menaquinone	cp
Protein-N-terminal-L-Lysine	an N-terminal L-lysyl-[protein]	c
cis-19-CP-37-Mex-38-Me-C59-ACPs	a cis-methoxy-C59-meroacyl-[acp]	p
cis-21-CP-39-keto-40-Me-C60-ACPs	a cis-keto-C60-meroacyl-[acp]	p
D-METHYL-MALONYL-COA	(S)-methylmalonyl-CoA	cp
CPD-3766	menadione	c
cis-D19-37-MOH-38-Me-C57-1-ACPs	a cis-delta19-37-methoxy-38-methyl-C57:1-[acp]	c
Protein-N-terminal-L-threonine	an N-terminal L-threonyl-[protein]	p
CPDQT-434	indol-3-ylmethylisothiocyanate-glutathione	p
cis-D21-39-oxo-40-Me-C59-1-ACPs	a cis-delta21-39-oxo-40-methyl-C59:1-[acp]	c
L-CYSTEATE	L-cysteate	cp
COB-I-ALAMIN	cob(I)alamin	c
FORMYL-COA	formyl-CoA	cp
Histone-Acetyl-Lysine	a [histone]-N6-acetyl-L-lysine	p
Sulfur-Carrier-Proteins-ThiI	a [ThiI sulfur-carrier protein]-L-cysteine	cp
HISTIDINOL	histidinol	cp
CPD-10806	4-hydroxy-2-nonenal	c
2-PHOSPHO-4-CYTIDINE-5-DIPHOSPHO-2-C-MET	2-phospho-4-(cytidine 5'-diphospho)-2-C-methyl-D-erythritol	p
D-MYO-INOSITOL-1-MONOPHOSPHATE	1D-myo-inositol 1-monophosphate	c
PUTRESCINE	putrescine	cp
UNDECAPRENYL-DIPHOSPHATE	di-trans,octa-cis-undecaprenyl diphosphate	p
Sulfurated-Sulfur-Acceptors	a sulfurated [sulfur carrier]	cp
CPD-206	phytanoyl-CoA	c
CPD-10824	3-methylmuconolactone	c
2-PROTOCATECHUOYLPHLOROGLUCINOLCARBOXYLA	2-protocatechuoylphloroglucinolcarboxylate	p
Sulfurylated-ThiI	a [ThiI sulfur-carrier protein]-S-sulfanyl-L-cysteine	cp
CPD-14443	(2S,4S)-4-hydroxy-2,3,4,5-tetrahydrodipicolinate	cp
3-OXOADIPATE-ENOL-LACTONE	(4,5-dihydro-5-oxofuran-2-yl)-acetate	cp
ERYTHROSE-4P	D-erythrose 4-phosphate	cp
CPD-10825	4-methyl-3-oxoadipate-enol-lactone	cp
URACIL	uracil	cp
CPD-10826	4-methyl-3-oxoadipate	cp
CPD-14553	UDP-&alpha;-D-galactose	cp
LIPOIC-ACID	(R)-lipoate	c
Supercoiled-Duplex-DNAs	a supercoiled duplex DNA	c
CPD-1083	(E)-2-methylcrotonoyl-CoA	cp
T2-C4-DECADIENYL-COA	trans-&Delta;2, cis-&Delta;4-decadienoyl-CoA	c
PYRAZINAMIDE	pyrazinamide	c
GERANYL-PP	geranyl diphosphate	cp
D-SEDOHEPTULOSE-7-P	D-sedoheptulose 7-phosphate	cp
CPD-10832	4-methyl-3-oxoadipyl-CoA	p
LIPOYL-AMP	lipoyl-adenylate	cp
2-hydroxyacyl-glutathiones	S-(2-hydroxyacyl)glutathione	c
ETF-Oxidized	an oxidized electron-transfer flavoprotein	cp
2-trans-4-cis-dienoyl-CoAs	a 2-trans-4-cis-dienoyl-CoA	c
CPD-207	phenylacetyl-CoA	p
CPD-20735	two adjacent 2'-deoxycytidines in DNA	p
CPD-20736	adjacent 2'-deoxycytidine-thymidine in DNA	p
CPD-20737	adjacent thymidine-2'-deoxycytidine in DNA	p
CPD-14675	pristanoyl-CoA	p
CPD-20741	a dimer of adjacent 2'-deoxycytidines in DNA	c
CPD-20742	a dimer of adjacent thymidines in DNA	c
T2-DECENOYL-COA	(2E)-dec-2-enoyl-CoA	cp
3-Oxo-Delta-4-Steroids	a 3-oxo-&Delta;4-steroid	cp
CPD-20743	a dimer of adjacent 2'-deoxycytidine and thymidine in DNA	c
3-Oxo-octanoyl-ACPs	a 3-oxo-octanoyl-[acp]	cp
CPD-20744	a dimer of adjacent thymidine and 2'-deoxycytidine in DNA	c
GLC	&beta;-D-glucopyranose	cp
ETF-Reduced	a reduced electron-transfer flavoprotein	cp
MENADIOL	menadiol	p
PYRAZINOIC-ACID	pyrazine-2-carboxylate	p
GLC-1-P	&alpha;-D-glucopyranose 1-phosphate	cp
CPD-14704	4-hydroxy-2-nonenal-glutathione conjugate	p
TARTRATE	L-tartrate	cp
LL-DIAMINOPIMELATE	L,L-diaminopimelate	cp
TTP	dTTP	cp
OXALATE	oxalate	cp
CPD-14736	L-kynurenine	cp
3-P-HYDROXYPYRUVATE	3-phosphooxypyruvate	cp
GLC-D-LACTONE	D-glucono-1,5-lactone	cp
SHIKIMATE-5P	shikimate 3-phosphate	cp
ISOVALERYL-COA	isovaleryl-CoA	cp
3-DEHYDRO-SHIKIMATE	3-dehydroshikimate	cp
CPD-17046	3-benzyl-3,6 -bis(glutathione)- 6-(hydroxymethyl)-diketopiperazine	p
ADENINE	adenine	cp
CPD-17063	ferroheme o	p
CPD-17095	iminoarginine	p
D-galactopyranose	D-galactopyranose	c
D-glucopyranose-6-phosphate	D-glucopyranose 6-phosphate	cp
ITP	ITP	cp
RH-Group	an organic molecule	c
CPD-17189	pseudo-adenosyl cobamide	p
TARTRONATE-S-ALD	tartronate semialdehyde	cp
CATECHOL	catechol	c
ALLANTOATE	allantoate	p
3-DEOXY-D-ARABINO-HEPTULOSONATE-7-P	3-deoxy-D-arabino-heptulosonate 7-phosphate	cp
CPD-173	salicyl alcohol	p
ADENOSINE	adenosine	cp
RIBOFLAVIN	riboflavin	cp
CPD-17312	docosahexaenoyl-CoA	p
DUDP	dUDP	cp
SINAPATE	sinapate	c
ADENOSINE_DIPHOSPHATE_RIBOSE	ADP-D-ribose	c
DADP	dADP	cp
SINAPOYL-COA	sinapoyl-CoA	p
TAURINE	taurine	c
Initiation-tRNAmet	initiator tRNAMet	c
OXALO-SUCCINATE	oxalosuccinate	cp
NADH	NADH	cp
Histone-L-lysine	a [histone]-L-lysine	c
CPD-19150	(2E,5Z)-dodecenoyl-CoA	cp
CPD-8742	(3E)-2-oxohex-3-enedioate	cp
L-Cysteine-Desulfurase-persulfide	an [L-cysteine desulfurase]-S-sulfanyl-L-cysteine	cp
DCMP	dCMP	c
CPD0-1718	7,8-dihydropterin	c
Red-Glutaredoxins	a reduced glutaredoxin	c
CPD-13171	15,9'-di-cis-phytofluene	cp
Hpr-Histidine	an [HPr]-L-histidine	c
DCTP	dCTP	cp
CPD-8781	2-hydroxy-5-methyl-6-oxohexa-2,4-dienoate	p
Hpr-pi-phospho-L-histidines	an [HPr protein]-N&pi;-phospho-L-histidine	p
CPD-19151	(S)-3-hydroxy-(5Z)-dodecenoyl-CoA	p
Red-Thioredoxin	a reduced thioredoxin	cp
CPD0-181	N5-carboxyaminoimidazole ribonucleotide	c
CPD-13172	6-hydroxy-2-cyclohexen-one-carboxylate	p
L-Cysteine-Desulfurases	an [L-cysteine desulfurase]	c
CPD-8782	2-hydroxy-6-oxohepta-2,4-dienoate	p
L-DELTA1-PYRROLINE_5-CARBOXYLATE	(S)-1-pyrroline-5-carboxylate	cp
CPD-19153	3-oxo-(5Z)-dodecenoyl-CoA	c
Reduced-2Fe-2S-Ferredoxins	a reduced [2Fe-2S] ferredoxin	c
Reduced-CycA1-cytochromes	a reduced CycA1 cytochrome	c
DIHYDROLIPOYL-GCVH	a [glycine-cleavage complex H protein] N6-dihydrolipoyl-L-lysine	cp
CPD-8978	ethylphosphate	c
L-GAMMA-GLUTAMYLCYSTEINE	&gamma;-L-glutamyl-L-cysteine	cp
DIHYDRONEOPTERIN-P3	7,8-dihydroneopterin 3'-triphosphate	c
CPD-13174	salicyl-6-hydroxy-2-cyclohexene-on-oyl	c
CPD-19154	(S)-3-hydroxy-(7Z)-tetradecenoyl-CoA	p
Reduced-NrdH-Proteins	a reduced NrdH glutaredoxin-like protein	c
ACETAMIDE	acetamide	c
NADH-P-OR-NOP	NAD(P)H	cp
CPD-13227	N,N',N''-triacetylchitotriose	c
Reduced-Rubredoxins	a reduced rubredoxin	cp
OXALYL-COA	oxalyl-CoA	cp
CPD-19155	(S)-3-hydroxy-(9Z)-hexadecenoyl-CoA	p
CPD-9049	cobyrinate	c
PPI	diphosphate	cp
CPD0-1958	3-(N-morpholino)propanesulfonate	c
CPD-19157	3-oxo-(7Z)-tetradecenoyl-CoA	c
Reduced-ferredoxins	a reduced ferredoxin [iron-sulfur] cluster	cp
CPD-19158	3-oxo-(9Z)-hexadecenoyl-CoA	c
CPD-13339	(2Z,4E)-2-hydroxyhexa-2,4-dienedioate	cp
IDP	IDP	cp
Relaxed-DNAs	a relaxed DNA	cp
CPD0-2015	N-acetyl-L-methionine	p
Resolution-of-Recombinational-Junction	resolution of recombinational junction formation of two intact strands	p
CPD-13357	(2R)-2,3-dihydroxy-3-methylbutanoate	cp
L-GLUTAMATE-5-P	&gamma;-L-glutamyl 5-phosphate	cp
CPD-19159	(S)-3-hydroxy-(11Z)-octadecenoyl-CoA	p
NADP	NADP+	cp
Retinols	a retinol	p
DE-O-GLUCONATE	2-deoxygluconate	c
CPD-19160	3-oxo-(11Z)-octadecenoyl-CoA	c
Rhodoquinols	a rhodoquinol	c
2-AMINO-3-3-OXOPROP-2-ENYL-BUT-2-ENEDI	aminocarboxymuconate semialdehyde	c
CPD-688	hydrogenobyrinate a,c-diamide	p
Protein-N6-5-glutamyl-lysine-crosslinks	a protein with an N6-(&gamma;-glutamyl)-L-lysine crosslink	p
Protein-N6-5-glutamyl-serotonin	a [protein] N6-[(5-hydroxy-1H-indol-3-yl)ethyl]-L-glutamine	p
Protein-Ser-or-Thr-phosphate	a [protein] (L-serine/L-threonine) phosphate	cp
3-ENOLPYRUVYL-SHIKIMATE-5P	5-enolpyruvoyl-shikimate 3-phosphate	cp
OXIDIZED-GLUTATHIONE	glutathione disulfide	p
TUM1-L-cysteine	a [3-mercaptopyruvate sulfurtransferase]-L-cysteine	cp
BISOHMYR-GLC	lipid A disaccharide	cp
CPD-689	cob(II)yrinate a,c-diamide	p
FORMYL-L-METHIONYL-PEPTIDE	a [protein] N-terminal-formyl-L-methionine	c
Protein-Tyrosines	a [protein]-L-tyrosine	c
3-HYDROXY-3-METHYL-GLUTARYL-COA	(S)-3-hydroxy-3-methylglutaryl-CoA	cp
TUM1-S-sulfanylcysteine	a [3-mercaptopyruvate sulfurtransferase]-S-sulfanyl-L-cysteine	cp
FORMYL-THF-GLU-N	an N10-formyl-tetrahydrofolate	cp
BISOHMYR-GLUCOSAMINYL-1P	lipid X	cp
TYR	L-tyrosine	cp
PYRIDOXAL_PHOSPHATE	pyridoxal 5'-phosphate	p
Protein-With-N-Terminal-Met	a peptide with an N-terminal L-methionine	c
OXOPENTENOATE	2-oxopent-4-enoate	cp
Protein-With-N-Terminal-Pro	a peptide with an N-terminal L-proline	cp
Protein-With-N-Terminal-X-Pro	a peptide with an N-terminal X-L-proline	c
2-AMINOACRYLATE	2-aminoprop-2-enoate	p
TYR-tRNAs	a tRNATyr	c
PYRIDOXAMINE-5P	pyridoxamine 5'-phosphate	c
Protein-alpha-L-Glutamates	a [protein]-&alpha;-L-glutamate	p
NADPH	NADPH	cp
CPD-690	adenosyl-cobyrinate a,c-diamide	cp
3-HYDROXY-ANTHRANILATE	3-hydroxyanthranilate	p
Protein-phospho-L-histidines	a [protein]-N-phospho-L-histidine	cp
Protein-pi-phospho-L-histidines	a [protein]-N&pi;-phospho-L-histidine	c
GTP	GTP	cp
Methylated-Ribosomal-Protein-L11s	a methylated ribosomal protein L11	p
CPD-691	adenosylcobyrate	p
mRNA-Fragments	an mRNA fragment	p
Protein-tauphospho-L-histidines	a [protein]-N&tau;-phospho-L-histidine	c
GLN	L-glutamine	cp
UREA	urea	cp
Protein-tyrosine-phosphates	a [protein]-L-tyrosine phosphate	p
GLN-tRNAs	a tRNAGln	c
2-AMINOBENZOYL-COA	anthraniloyl-CoA	p
mRNAs	an mRNA	cp
mRNAs-with-5-monophosphate	a 5'-phospho-[mRNA]	p
CPD-694	cob(I)yrinate a,c-diamide	c
mRNAs-with-5-triphosphate	a 5' triphospho-[mRNA]	c
PYRIDOXINE-5P	pyridoxine 5'-phosphate	cp
OXYGEN-MOLECULE	oxygen	cp
Proteins-With-N-Terminal-Asp	an N-terminal L-aspartyl-[protein]	c
COBINAMIDE	cobinamide	c
2-AMINOMUCONATE_SEMIALDEHYDE	(2Z,4E)-2-amino-6-oxohexa-2,4-dienoate	p
FRU1P	&beta;-D-fructofuranose 1-phosphate	c
GLT	L-glutamate	cp
3-HYDROXY-DOCOSAPENTAENOYL-ACP	a (3R)-3-hydroxy-docosapentaenoyl-[acp]	p
CPD-6972	4-(2'-carboxyphenyl)-4-oxobutyryl-CoA	p
Mnm5Se2U-containing-tRNAs	a 5-methylaminomethyl-2-selenouridine in tRNA	p
GLT-tRNAs	a tRNAglu	p
3-HYDROXY-ISOBUTYRATE	3-hydroxy-isobutanoate	p
3-HYDROXY-ISOBUTYRYL-COA	3-hydroxy-isobutanoyl-CoA	c
3-P-SERINE	3-phospho-L-serine	cp
SN-GLYCEROL-1-PHOSPHATE	sn-glycerol 1-phosphate	p
CPDQT-520	phosphatidylglycerophosphate (1-octadecenoyl(9Z), 2-palmitoyl)	c
ETHANAMINE	ethylamine	p
5-HYDROXY-FERULIC-ACID	5-hydroxyferulate	c
THYMINE	thymine	p
SO3	sulfite	cp
5-HYDROXY-FERULOYL-COA	5-hydroxy-feruloyl-CoA	p
PREPHENATE	prephenate	cp
ETHANOL-AMINE	ethanolamine	cp
5-HYDROXYISOURATE	(S)-5-hydroxyisourate	c
CPD-380	3-sulfopyruvate	cp
LYS	L-lysine	cp
MESO-DIAMINOPIMELATE	meso-diaminopimelate	cp
3-Phosphomonucleotides	a ribonucleoside 3'-phosphate	p
LYS-tRNAs	a tRNALys	c
CD-S-SP-Complex	a [cysteine desulfurase]-S-sulfanyl-[disordered-form scaffold protein] complex	c
CTP	CTP	cp
CPD-110	salicylate	p
5-KETO-4-DEOXY-D-GLUCARATE	5-dehydro-4-deoxy-D-glucarate	cp
CPD-11020	5-chloro-4-hydroxy-2-oxopentanoate	p
3-SULFOCATECHOL	3-sulfocatechol	c
MESO-TARTRATE	meso-tartrate	cp
SPERMIDINE	spermidine	cp
5-L-GLUTAMYL-AMINO-ACID	an &alpha;-(5-L-glutamyl)-amino acid	p
CPD-421	N2-succinyl-L-arginine	cp
GLY	glycine	cp
CDP	CDP	cp
CPD-4211	dimethylallyl diphosphate	cp
GLYCERALD	D-glyceraldehyde	p
CPD-111	3-methylcatechol	c
5-L-GLUTAMYL-L-AMINO-ACID	an &alpha;-(&gamma;-L-glutamyl)-L-amino acid	p
Octanoyl-ACPs	an octanoyl-[acp]	c
3-hydroxy-cis-D7-tetraecenoyl-ACPs	a (3R)-3-hydroxy cis &Delta;7-tetradecenoyl-[acp]	p
3-hydroxy-cis-D9-hexaecenoyl-ACPs	a (3R)-3-hydroxy cis &Delta;9-hexadecenoyl-[acp]	p
Octanoylated-Gcv-H	a [glycine-cleavage complex H protein] N6-octanoyl-L-lysine	c
3-hydroxypimeloyl-ACP-methyl-esters	a (3R)-3-hydroxypimeloyl-[acp] methyl ester	p
3-oxo-D5-steroids	a 3-oxo-&delta;5-steroid	cp
Octanoylated-domains	a [lipoyl-carrier protein] N6-octanoyl-L-lysine	cp
CDPDIACYLGLYCEROL	a CDP-diacylglycerol	cp
MET	L-methionine	cp
3-oxo-arachidoyl-ACPs	a 3-oxo-arachidoyl-[acp]	c
PRISTANATE	pristanate	c
GLYCERATE	D-glycerate	cp
5-L-GLUTAMYL-PEPTIDE	a 5-L-glutamyl-[peptide]	c
3-oxo-behenoyl-ACPs	a 3-oxo-behenoyl-[acp]	cp
Odd-Saturated-Fatty-Acyl-CoA	an odd numbered straight chain 2,3,4-saturated fatty acyl CoA	p
5-METHYL-THF-GLU-N	a 5-methyltetrahydrofolate	cp
ETOH	ethanol	cp
Odd-Straight-Chain-234-Sat-FA	an odd numbered straight chain 2,3,4-saturated fatty acid	c
Rhodoquinones	a rhodoquinone	p
Ribonucleoside-Diphosphates	a ribonucleoside diphosphate	cp
Ribonucleoside-Monophosphates	a ribonucleoside 5'-monophosphate	cp
DE-O-K-GLUCONATE	3-dehydro-2-deoxy-D-gluconate	p
CPD-14772	hexadecanedioyl-CoA	cp
FRUCTOSE-16-DIPHOSPHATE	&beta;-D-fructose 1,6-bisphosphate	cp
Ribonucleoside-Triphosphates	a ribonucleoside triphosphate	c
Oleoyl-ACPs	an oleoyl-[acp]	c
PHE	L-phenylalanine	cp
CPD-148	n-octane	c
Ribonucleosides	a ribonucleoside	p
L-GLUTAMATE_GAMMA-SEMIALDEHYDE	L-glutamate-5-semialdehyde	cp
DEAMIDO-NAD	nicotinate adenine dinucleotide	cp
Oleoyl-lipid	a [glycerolipid]-oleate	c
FRUCTOSE-6P	&beta;-D-fructofuranose 6-phosphate	cp
CPD-14828	1-C16:0-&alpha;,&omega;-dicarboxyl-2-lysophosphatidate	cp
PHE-tRNAs	a tRNAPhe	p
Ribosomal-protein-L3-L-glutamine	a [ribosomal protein L3]-L-glutamine	c
ACETOACETYL-COA	acetoacetyl-CoA	cp
Ribosomal-protein-L3-N5M-L-glutamine	a [ribosomal protein L3]-N5-methyl-L-glutamine	p
Ribosomal-protein-S12-3-methylthio-Asp89	a [ribosomal protein S12]-3-methylsulfanyl-L-aspartate89	p
Ribosomal-protein-S12-Asp89	a [ribosomal protein S12] L-aspartate89	c
ALLO-THR	DL-allothreonine	c
Oligonucleotides	an oligonucleotide	c
S-2-Haloacids	an (S)-2-haloacid	c
ALLYSINE	(S)-2-amino-6-oxohexanoate	p
S-2-Hydroxyacids1	an (S)-2-hydroxyacid	p
S-2-INDOL-3-YLACETYL-COA	S-2-(indol-3 yl)acetyl-CoA	cp
L-GULONATE	L-gulonate	p
K-HEXANOYL-COA	3-oxohexanoyl-CoA	p
ALPHA-ANDROSTAN-3BETA17BETA-DIOL	5-&alpha;-androstan-3&beta;,17&beta;-diol	cp
CPD-14925	(3Z)-dec-3-enoyl-CoA	p
FUM	fumarate	cp
DEHYDRO-3-DEOXY-L-RHAMNONATE	2-dehydro-3-deoxy-L-rhamnonate	cp
S-24-DINITROPHENYLGLUTATHIONE	2,4-dinitrophenyl-S-glutathione	cp
CPD-14927	phytenate	c
HMP	4-amino-2-methyl-5-pyrimidinemethanol	c
DEHYDRO-DEOXY-GALACTONATE-PHOSPHATE	2-dehydro-3-deoxy-D-galactonate 6-phosphate	cp
CH3-MALONATE-S-ALD	(S)-methylmalonate-semialdehyde	cp
PHENOL-PHOSPHATE	phenyl phosphate	cp
CPD-14928	phytenoyl-CoA	p
GUANINE	guanine	cp
S-3-HYDROXYBUTANOYL-COA	(S)-3-hydroxybutanoyl-CoA	p
L-GULONO-1-4-LACTONE	L-gulono-1,4-lactone	c
ALPHA-D-GALACTOSE	&alpha;-D-galactose	cp
3OH-4P-OH-ALPHA-KETOBUTYRATE	(3R)-3-hydroxy-2-oxo-4 phosphooxybutanoate	cp
CPD0-2018	5-methylcytosine	c
CPD-20826	7-(5-phospho-&alpha;-D-ribosyl)adenine	p
2-C-METHYL-D-ERYTHRITOL-4-PHOSPHATE	2-C-methyl-D-erythritol 4-phosphate	cp
Omega-carboxyacyl-CoAs	an &omega;-carboxyacyl-CoA	p
CPD-20827	phenolyl-Co&beta;-adenosylcobamide 5'-phosphate	p
3R-11Z-3-hydroxy-icos-11-enoyl-ACPs	a (3R,11Z)-3-hydroxy-icos-11-enoyl-[acp]	p
CPD0-2030	glycerophosphoserine	c
ADENOSYL-HOMO-CYS	S-adenosyl-L-homocysteine	cp
CPD-20828	4-methylphenolyl-Co&beta;-adenosylcobamide 5'-phosphate	p
3R-5Z-3-hydroxy-tetradec-5-enoyl-ACPs	a (3R,5Z)-3-hydroxy-tetradec-5-enoyl-[acp]	p
THZ-P	4-methyl-5-(2-phosphooxyethyl)thiazole	c
CPD-20829	[(2R,3S,4R,5S)-5-(1,3-benzodiazol-1-yl)-3,4-dihydroxyoxolan-2-yl]methyl phosphate	cp
2-CHLOROMALEYLACETATE	2-chloromaleylacetate	p
3R-7Z-3-hydroxy-hexadec-7-enoyl-ACPs	a (3R,7Z)-3-hydroxy-hexadec-7-enoyl-[acp]	p
URIDINE	uridine	p
ADENOSYL-P4	5',5'''-diadenosine tetraphosphate	c
CPD-20830	[(2R,3S,4R,5S)-3,4-dihydroxy-5-(5-hydroxy-1,3-benzodiazol-1-yl)oxolan-2-yl]methyl phosphate	p
3R-9Z-3-hydroxy-octadec-9-enoyl-ACPs	a (3R,9Z)-3-hydroxy-octadec-9-enoyl-[acp]	p
CPD-20831	[(2R,3S,4R,5S)-3,4-dihydroxy-5-(5-methoxy-1,3-benzodiazol-1-yl)oxolan-2-yl]methyl phosphate	cp
CPD0-2105	3-oxododecanoyl-CoA	cp
CPD-20832	[(2R,3S,4R,5S)-3,4-dihydroxy-5-(5-methoxy-6-methyl-1,3-benzodiazol-1-yl)oxolan-2-yl]methyl phosphate	cp
CPD-20833	Co&alpha;-[a-(benzimidazolyl)]-Co&beta;-adenosylcobamide 5'-phosphate	p
2-D-THREO-HYDROXY-3-CARBOXY-ISOCAPROATE	(2R,3S)-3-isopropylmalate	cp
3S-CITRYL-COA	(3S)-citryl-CoA	cp
CPD0-2106	3-oxooctanoyl-CoA	cp
CPD-20836	Co&alpha;-[a-(5-methoxy-6-methyl-benzimidazolyl)]-Co&beta;-adenosylcobamide 5'-phosphate	p
2-DEHYDROPANTOATE	2-dehydropantoate	cp
CPD-20838	[(2R,3S,4R,5S)-3,4-dihydroxy-5-(5-methyl-1,3-benzodiazol-1-yl)oxolan-2-yl]methyl phosphate	cp
PHENYL-PYRUVATE	keto-phenylpyruvate	cp
ADENOSYLCOBALAMIN	adenosylcobalamin	cp
CPD-20839	Co&alpha;-[a-(5-methylbenzimidazolyl)]-Co&beta;-adenosylcobamide 5'-phosphate	p
3Z-dodec-3-enoyl-ACPs	a (3Z)-dodec-3-enoyl-[acp]	c
NALPHANALPHA-DIMETHYL-L-HISTIDINE	N&alpha;,N&alpha;-dimethyl-L-histidine	cp
3b-hydroxy-D5-steroids	a 3&beta;-hydroxy-&delta;5-steroid	cp
PHENYLACETATE	phenylacetate	c
CPD-20840	7-&alpha;-D-ribosyladenine	c
CPD-20841	(2S,3R,4S,5R)-2-(5-hydroxy-1,3-benzodiazol-1-yl)-5-(hydroxymethyl)oxolane-3,4-diol	c
CPD-20849	Co&alpha;-[a-(5-hydroxybenzimidazolyl)]-Co&beta;-adenosylcobamide	p
BUTANAL	butan-1-al	p
ADENOSYLCOBALAMIN-5-P	adenosylcobalamin 5'-phosphate	p
4-AMINO-4-DEOXYCHORISMATE	4-amino-4-deoxychorismate	cp
CPD-209	UDP-N-acetyl-&alpha;-D-muramoyl-L-alanyl-&gamma;-D-glutamyl-L-lysine	c
CPD0-2113	1-stearoyl-sn-glycerol 3-phosphate	p
URIDYLYL-PROTEIN-PII	a uridylylated PII protein	p
GUANOSINE	guanosine	p
Orthophosphoric-Monoesters	a phosphate monoester	c
BUTYRYL-COA	butanoyl-CoA	c
ADENOSYLCOBINAMIDE	adenosylcobinamide	cp
GUANOSINE-5DP-3DP	ppGpp	cp
CPD-2183	1-oleoyl-2-palmitoyl-phosphatidylglycerol	p
CPD-9169	2-hydroxylaminobenzoate	c
ADENOSYLCOBINAMIDE-GDP	adenosylcobinamide-GDP	cp
Alkanesulfonates	an alkylsulfonate	c
CPD0-2117	trans-hexadec-2-enoyl-CoA	c
4-CARBOXYMETHYLENEBUT-2-EN-4-OLIDE	cis-dienelactone	c
NAcMur-Peptide-Undecaprenols	a N-acetylmuramoyl-pentapeptide-diphosphoundecaprenol	p
TMP	dTMP	cp
5-METHYLTHIOADENOSINE	S-methyl-5'-thioadenosine	cp
CPD-13524	all-trans-retinol	p
Ox-Glutaredoxins	an oxidized glutaredoxin	p
CPD-19161	(2E,7Z)-tetradecenoyl-CoA	cp
CPD-465	presqualene diphosphate	cp
5-Methylcytosine-DNA	a 5-methylcytosine in DNA	p
DIHYDROPTERIN-CH2OH-PP	(7,8-dihydropterin-6-yl)methyl diphosphate	p
ILE	L-isoleucine	cp
CPD-17365	(4Z,7Z,10Z,13Z,16Z)-docosapentaenoyl-CoA	p
CPD-19162	(2E,9Z)-hexadecenoyl-CoA	cp
ETR-Quinols	an electron-transfer quinol	cp
PRO	L-proline	cp
ILE-tRNAs	a tRNAIle	c
ETR-Quinones	an electron-transfer quinone	cp
PRO-tRNAs	a tRNAPro	c
Ox-Thioredoxin	an oxidized thioredoxin	cp
UROCANATE	urocanate	cp
CPD-19163	(2E,11Z)-octadecenoyl-CoA	cp
CPD-13533	(3R)-3-hydroxypentanoyl-CoA	c
Monocarboxylates	a monocarboxylate	p
COPROPORPHYRINOGEN_I	coproporphyrinogen I	p
Monocarboxylic-Acid-Amides	a monocarboxylic acid amide	c
CPD-468	L-2-aminoadipate	cp
DIHYDROXY-ACETONE-PHOSPHATE	glycerone phosphate	cp
COPROPORPHYRINOGEN_III	coproporphyrinogen III	cp
Oxidized-2Fe-2S-Ferredoxins	an oxidized [2Fe-2S] ferredoxin	p
PROGESTERONE	progesterone	p
CPD-17370	18-hydroxyoleoyl-CoA	cp
PYRROLINE-HYDROXY-CARBOXYLATE	(3R,5S)-3-hydroxy-1-pyrroline-5-carboxylate	c
CPD-19167	3-oxo-(7Z)-hexadecenoyl-CoA	c
CPD-13534	3-oxopentanoyl-CoA	cp
CPD-469	N-acetyl-L-glutamate 5-semialdehyde	cp
Oxidized-CycA1-cytochromes	an oxidized CycA1 cytochrome	p
DIHYDROXY-BUTANONE-P	1-deoxy-L-glycero-tetrulose 4-phosphate	cp
CPD-13575	2-[(2R,5Z)-2-carboxy-4-methylthiazol-5(2H)-ylidene]ethyl phosphate	cp
CPD-17372	1-[18-hydroxyoleyl]-2-lyso-phosphatidate	p
CPD-19168	(S)-3-hydroxy-(7Z)-hexadecenoyl-CoA	p
Oxidized-NrdH-Proteins	an oxidized NrdH glutaredoxin-like protein	p
HOMO-CYS	L-homocysteine	cp
COUMARATE	4-coumarate	c
IMIDAZOLE-ACETOL-P	imidazole acetol-phosphate	cp
Oxidized-Rubredoxins	an oxidized rubredoxin	cp
CPD-13576	2-(2-carboxy-4-methylthiazol-5-yl)ethyl phosphate	c
CPD-19169	3-oxo-(9Z)-octadecenoyl-CoA	c
CPD-10011	demethyl-L-phosphinothricin	c
CPD-17386	(2E,6Z,9Z,12Z,15Z,18Z,21Z)-tetracosaheptaenoyl-CoA	c
Elongation-tRNAMet	elongator tRNAMet	c
Myristoyl-ACPs	a myristoyl-[acp]	c
RIBOSE-5P	D-ribose 5-phosphate	cp
5-OXOPROLINE	5-oxo-L-proline	c
N-5-PHOSPHORIBOSYL-ANTHRANILATE	N-(5-phosphoribosyl)-anthranilate	cp
CPD-19170	(2E,7Z)-hexadecenoyl-CoA	cp
CPD-13684	cholest-5-en-3-one	cp
CPD-17387	(3S)-hydroxy-(6Z,9Z,12Z,15Z,18Z,21Z)-tetracosahexaenoyl-CoA	p
5-P-BETA-D-RIBOSYL-AMINE	5-phospho-&beta;-D-ribosylamine	cp
CYS	L-cysteine	cp
N-ACETYL-D-GLUCOSAMINE	N-acetyl-&beta;-D-glucosamine	p
3-oxo-cerotoyl-ACPs	a 3-oxo-cerotoyl-[acp]	c
Oxidized-ferredoxins	an oxidized ferredoxin [iron-sulfur] cluster	cp
3-HYDROXY-ISOVALERYL-COA	3-hydroxyisovaleryl-CoA	cp
CPD-11281	S-sulfanylglutathione	c
SQUALENE	squalene	p
3-oxo-cis-D7-tetradecenoyl-ACPs	a 3-oxo-cis-&Delta;7-tetradecenoyl-[acp]	cp
protein-L-glutamate-O4-methyl-ester	a [protein]-L-glutamate-O5-methyl-ester	c
3-oxo-cis-D9-hexadecenoyl-ACPs	a 3-oxo-cis-&Delta;9-hexadecenoyl-[acp]	cp
L-Glutamyl-Peptides	an N-terminal L-glutamyl-[protein]	c
3-oxo-cis-vaccenoyl-ACPs	a 3-oxo-cis-vacc-11-enoyl-[acp]	cp
METHACRYLYL-COA	methylacrylyl-CoA	cp
3-oxo-decanoyl-ACPs	a 3-oxo-decanoyl-[acp]	cp
CPD-1130	3-ethylmalate	cp
SS-Oligodeoxyribonucleotides	a single-stranded oligodeoxyribonucleotide	p
STEARIC_ACID	stearate	c
L-HISTIDINOL-P	L-histidinol phosphate	cp
Oxo-glutarate-dehydro-suc-DH-lipoyl	a [2-oxoglutarate dehydrogenase E2 protein] N6-S-succinyldihydrolipoyl-L-lysine	cp
3-oxo-dodecanoyl-ACPs	a 3-oxo-dodecanoyl-[acp]	cp
CPD-7000	isobutanal	cp
Oxo-glutarate-dehydrogenase-DH-lipoyl	a [2-oxoglutarate dehydrogenase E2 protein] N6-dihydrolipoyl-L-lysine	cp
CPD-1136	cis-2-methylaconitate	cp
3-HYDROXY-L-KYNURENINE	3-hydroxy-L-kynurenine	c
3-oxo-hexanoyl-ACPs	a 3-oxo-hexanoyl-[acp]	cp
rRNA-fragments	an rRNA fragment	p
Thi-S	a ThiS sulfur-carrier protein	p
NIACINE	nicotinate	cp
3-oxo-lignoceroyl-ACPs	a 3-oxo-lignoceroyl-[acp]	c
Oxo-glutarate-dehydrogenase-lipoyl	a [2-oxoglutarate dehydrogenase E2 protein] N6-lipoyl-L-lysine	cp
CPD-7043	amylopectin	p
STEAROYL-COA	stearoyl-CoA	p
3-oxo-myristoyl-ACPs	a 3-oxo-myristoyl-[acp]	cp
CPD-7066	(2R,3S)-3-methylmalate	p
3-HYDROXY-PROPIONATE	3-hydroxypropanoate	p
CPD-11444	uroporphyrinogen-I	c
Purine-ribonucleosides-5-PP	a purine ribonucleoside 5'-diphosphate	p
Beta-3-hydroxybutyryl-ACPs	a (3R)-3-hydroxybutanoyl-[acp]	p
3-oxo-palmitoyl-ACPs	a 3-oxo-palmitoyl-[acp]	cp
IMINOASPARTATE	2-iminosuccinate	cp
Purine-ribonucleosides-5-PPP	a purine ribonucleoside 5'-triphosphate	c
3-HYDROXY-PROPIONYL-COA	3-hydroxypropanoyl-CoA	c
3-oxo-petroselinoyl-ACPs	a 3-oxo-petroselinoyl-[acp]	cp
ssDNA-RNA-primer-hybrid	an ssDNA/RNA primer hybrid	p
L-LACTATE	(S)-lactate	c
Gcv-H	[glycine cleavage system lipoyl-carrier protein]-L-lysine	c
Beta-Lactams	a &beta;-lactam	c
ssRNAs	a single-stranded RNA	cp
CPD-707	campesterol	c
CPD-7076	2-methylbutanoate	c
RIBULOSE-5P	D-ribulose 5-phosphate	cp
General-Protein-Substrates	a protein	cp
3-oxo-stearoyl-ACPs	a 3-oxo-stearoyl-[acp]	cp
CPD-11495	(2-hydroxyphenyl)acetate	p
Beta-hydroxydecanoyl-ACPs	a (3R)-3-hydroxydecanoyl-[acp]	p
P-AMINO-BENZOATE	4-aminobenzoate	cp
GlgE-Glycogen	a GlgE-glycogen	p
3-terminal-unsaturated-sugars	a 3'-terminal unsaturated sugar	p
Fatty-Acids	a fatty acid	p
Thiocarboxyadenylated-ThiS-Proteins	a thiocarboxy-[ThiS-Protein]	c
tRNA-2-thiouridine34	a 2-thiouridine34 in tRNA	p
SUC	succinate	cp
Gln-B	a PII protein	c
CPD-708	campest-4-en-3&beta;-ol	p
P-COUMAROYL-COA	4-coumaroyl-CoA	cp
Glucans	a glucan	cp
SUC-COA	succinyl-CoA	cp
Thiols	a thiol	p
Glucopyranose	D-glucopyranose	cp
CPD-11518	3-oxo-2-(cis-2'-pentenyl)-cyclopentane-1-(E-octa-2-enoyl)-CoA	c
3-HYDROXYADIPYL-COA	(3S)-hydroxyadipyl-CoA	cp
Thiopurine-Methylethers	a thiopurine S-methylether	p
KDO	3-deoxy-&alpha;-D-manno-2-octulosonate	c
HOMO-SER	L-homoserine	cp
CPD-14931	a 10-formyltetrahydrofolate-4a-carbinolamine	cp
CPD-15015	4-hydroxy-2-oxoglutarate	cp
CPD-15056	(2Z)-2-aminobut-2-enoate	cp
KDO-8P	3-deoxy-D-manno-octulosonate 8-phosphate	p
2-HYDROXYPHYTANOYL-COA	2-hydroxyphytanoyl-CoA	p
RNA-DNA-hybrids	a RNA-DNA hybrid	c
RNA-Holder	a ribonucleic acid	cp
ADENOSYLCOBINAMIDE-P	adenosyl-cobinamide phosphate	p
CPD-15121	5-fluorocytosine	c
Light	h&nu;	c
RNASE-E-DEGRADATION-SUBSTRATE-MRNA	RNase E degradation substrate mRNA	c
CPD-15124	(+)-muconolactone	cp
RNASE-E-MRNA-PROCESSING-SUBSTRATE	RNase E mRNA processing substrate	c
GLYCEROL	glycerol	cp
RNASE-E-PROCESSING-PRODUCT-MRNA	RNase E processing product mRNA	p
GLYCEROL-3P	sn-glycerol 3-phosphate	cp
NICOTINAMIDE_NUCLEOTIDE	&beta;-nicotinamide D-ribonucleotide	cp
P-HYDROXY-PHENYLPYRUVATE	4-hydroxyphenylpyruvate	cp
RNASE-G-DEGRADATION-SUBSTRATE-MRNA	RNase G degradation substrate mRNA	c
Linear-Malto-Oligosaccharides	a linear malto-oligosaccharide	cp
RNASE-R-DEGRADATION-SUBSTRATE-RNA	RNase R degradation substrate RNA	c
ARSENATE	arsenate	c
2-Hydroxy-carboxylates	a 2-hydroxy carboxylate	p
Lipid-dihydrosterculate	a [glycerolipid]-dihydrosterculate	p
NICOTINAMIDE_RIBOSE	1-(&beta;-D ribofuranosyl)nicotinamide	p
CPD-15159	(6R)-6,7-dihydrobiopterin	p
2-KETO-3-DEOXY-6-P-GLUCONATE	2-dehydro-3-deoxy-D-gluconate 6-phosphate	cp
P-RIBOSYL-4-SUCCCARB-AMINOIMIDAZOLE	5'-phosphoribosyl-4-(N-succinocarboxamide)-5-aminoimidazole	cp
Lipoprotein-signal-peptide	a lipoprotein signal peptide	p
KDO-LIPID-IVA	&alpha;-Kdo-(2&rarr;6)-lipid IVA	p
2-KETO-3-METHYL-VALERATE	(S)-3-methyl-2-oxopentanoate	cp
Lipoyl-Protein-L-Lysine	a [lipoyl-carrier protein]-L-lysine	c
CPD-15182	cob(II)yrinate c-monoamide	cp
Lipoyl-Protein-N6-lipoyllysine	a [lipoyl-carrier protein]-N6-lipoyl-L-lysine	p
TRANS-2-CHLORO-4-CARBOXYMETHYLENEBUT-2-E	2-chloro-trans-dienelactone	c
ACETYL-ACP	an acetyl-[acp]	c
CPD-15244	3-oxo-(5Z)-tetradecenoyl-CoA	c
RX	RX	c
HOMOGENTISATE	homogentisate	cp
PROPIONAMIDE	propionamide	c
Alkyl-Hydro-Peroxides	an organic hydroperoxide	c
Alkyl-Thiols	an alkyl-thiol	cp
CPD0-2121	trans-hex-2-enoyl-CoA	p
DEHYDROQUINATE	3-dehydroquinate	cp
Alkylated-Bases	an alkylated nucleobase	p
ALPHA-GLC-6-P	&alpha;-D-glucose 6-phosphate	c
DELTA1-PIPERIDEINE-2-6-DICARBOXYLATE	(S)-2,3,4,5-tetrahydrodipicolinate	cp
Alkylated-DNAs	an alkylated DNA	c
PROPIONATE	propanoate	cp
ACETYL-COA	acetyl-CoA	cp
S-ADENOSYLMETHIONINAMINE	S-adenosyl 3-(methylthio)propylamine	cp
GLUCONATE	D-gluconate	cp
CPD0-2123	3-oxodecanoyl-CoA	c
10-FORMYL-DIHYDROFOLATE-GLU-N	an N10-formyldihydrofolate	p
ALPHA-GLUCOSE	&alpha;-D-glucopyranose	cp
S-ADENOSYLMETHIONINE	S-adenosyl-L-methionine	cp
4-CYTIDINE-5-DIPHOSPHO-2-C	4-(cytidine 5'-diphospho)-2-C-methyl-D-erythritol	cp
DELTA3-ISOPENTENYL-PP	isopentenyl diphosphate	cp
METHIONYL-PEPTIDE	an N-terminal L-methionyl-[protein]	p
CPD0-2171	(S)-3-hydroxytetradecanoyl-CoA	p
NICOTINATE_NUCLEOTIDE	&beta;-nicotinate D-ribonucleotide	cp
ALPHA-RIBAZOLE	&alpha;-ribazole	cp
11Z-3-oxo-icos-11-enoyl-ACPs	an (11Z)-3-oxo-icos-11-enoyl-[acp]	cp
ALPHA-RIBAZOLE-5-P	&alpha;-ribazole 5'-phosphate	cp
4-FUMARYL-ACETOACETATE	4-fumaryl-acetoacetate	cp
All-trans-Retinyl-Esters	an all-trans-retinyl ester	c
CPD0-2231	dIDP	cp
Feruloyl-polysaccharides	a feruloyl-polysaccharide	c
Alpha-6-alpha-14-glucans	a (1,6)-&alpha;-D-glucosyl-(1,4)-&alpha;-glucan	p
NICOTINE	(S)-nicotine	c
Alpha-Amyloses	&alpha;-amylose	c
DIMETHYL-D-RIBITYL-LUMAZINE	6,7-dimethyl-8-(1-D-ribityl)lumazine	cp
METHYL-GLYOXAL	methylglyoxal	cp
DEOXYADENOSINE	2'-deoxyadenosine	c
PROPIONYL-COA	propanoyl-CoA	cp
CPD0-2232	(S)-3-hydroxyhexadecanoyl-CoA	p
DIMETHYLBENZIMIDAZOLE	5,6-dimethylbenzimidazole	c
CPD-9245	palmitoleate	c
Thiopurines	a thiopurine	c
IMP	IMP	cp
PHENYLACETOTHIOHYDROXIMATE	(Z)-N-hydroxy-2-phenylacetimidothioate	cp
CH33ADO	5'-deoxyadenosine	p
CYS-GLY	L-cysteinyl-glycine	p
CPD-10019	(5S)-5-benzyl-hydantoin	cp
CPD-9247	cis-vaccenate	c
UROPORPHYRINOGEN-III	uroporphyrinogen-III	cp
Trans-3-enoyl-CoAs	a (3E)-alkan-3-enoyl-CoA	p
CPD-10020	(5R)-5-benzyl-hydantoin	cp
CPD-9437	(S)-2-formylglutarate	p
CPD-1005	(2R,3S)-2,3-dihydroxy-2,3-dihydro-p-cumate	c
5-P-RIBOSYL-N-FORMYLGLYCINEAMIDE	N2-formyl-N1-(5-phospho-&beta;-D-ribosyl)glycinamide	c
CH4	methane	p
5-PHOSPHO-RIBOSYL-GLYCINEAMIDE	N1-(5-phospho-&beta;-D-ribosyl)glycinamide	p
CYS-tRNAs	a tRNACys	cp
UTP	UTP	cp
CPD-1006	2,3-dihydroxy-p-cumate	p
CPD-9451	2-isopropylmaleate	cp
CHITIN	chitin	cp
CHITOBIOSE	N,N'-diacetylchitobiose	cp
Truncated-Limit-Dextrins	a &alpha;-limit dextrin with short branches	cp
5-PHOSPHORIBOSYL-5-AMINOIMIDAZOLE	5-amino-1-(5-phospho-&beta;-D-ribosyl)imidazole	cp
TusE-L-cysteine	a [TusE sulfur carrier protein]-L-cysteine	p
TusE-S-sulfanylcysteine	a [TusE sulfur carrier protein]-S-sulfanylcysteine	c
FAD	FAD	cp
1-4-alpha-D-Glucan	a 1,4-&alpha;-D-glucan	cp
16-HYDROXYPALMITATE	16-hydroxypalmitate	c
CPD-9612	caldariellaquinone	c
1-AMINO-PROPAN-2-ONE-3-PHOSPHATE	3-amino-1-hydroxyacetone 1-phosphate	cp
Ubiquinols	an ubiquinol	cp
GLUCOSAMINE-1P	D-glucosamine 1-phosphate	cp
5-PHOSPHORIBOSYL-N-FORMYLGLYCINEAMIDINE	2-(formamido)-N1-(5-phospho-&beta;-D-ribosyl)acetamidine	cp
UDP	UDP	cp
UDP-AA-GLUTAMATE	UDP-N-acetyl-&alpha;-D-muramoyl-L-alanyl-D-glutamate	cp
Ubiquinones	a ubiquinone	cp
FADH2	FADH2	cp
CHOCOLA_A	all-trans-retinyl palmitate	c
CPD-479	4-(methylsulfanyl)-2-oxobutanoate	cp
N-ACETYL-D-GLUCOSAMINE-1-P	N-acetyl-&alpha;-D-glucosamine 1-phosphate	cp
tRNA-Adenosines-37	an adenosine37 in tRNA	c
CPD-13689	(25S)-3-oxocholest-4-en-26-oate	c
CPD-17388	3-oxo-(6Z,9Z,12Z,15Z,18Z,21Z)-tetracosahexaenoyl-CoA	c
METHYL-MALONYL-COA	(R)-methylmalonyl-CoA	cp
CPD-7100	(2S)-2-isopropyl-3-oxosuccinate	cp
tRNA-Containing-5MeAminoMe-2-ThioU	a 5-methylaminomethyl-2-thiouridine34 in tRNA	c
SUCC-S-ALD	succinate semialdehyde	c
4-GUANIDO-BUTYRAMIDE	4-guanidinobutyramide	c
CPD-520	quercetin	c
S-ALLANTOIN	(S)-(+)-allantoin	cp
NITRITE	nitrite	p
CPD-13691	(25S)-3-oxocholest-4-en-26-oyl-CoA	p
tRNA-Containing-N7-Methylguanine-46	an N7-methylguanine46 in tRNA	p
PYRUVATE	pyruvate	cp
4-HYDROXY-2-KETOVALERATE	(S)-4-hydroxy-2-oxopentanoate	cp
tRNA-Dihydrouridines	a 5,6-dihydrouridine in tRNA	p
GLYCEROPHOSPHOGLYCEROL	glycerophosphoglycerol	c
CPD-7221	(3Z)-dodec-3-enoyl-CoA	p
N-ACETYL-GLUTAMYL-P	N-acetylglutamyl-phosphate	cp
4-HYDROXY-L-PROLINE	trans-4-hydroxy-L-proline	p
16S-rRNA-N2-methylguanine966	an N2-methylguanine966 in 16S rRNA	p
CPD-7243	(24E)-3&alpha;,7&alpha;,12&alpha;-trihydroxy-5&beta;-cholest-24-enoyl-CoA	cp
16S-rRNA-N4-methylcytidine1402	an N4-methylcytidine1402  in 16S rRNA	p
S-Alkyl-L-Cysteines	an S-alkyl-L-cysteine	cp
ADENYLOSUCC	adenylo-succinate	cp
16S-rRNA-N7-methylguanine527	an N7-methylguanine527 in 16S rRNA	p
tRNA-Sec	a tRNAsec	c
S-CD-S-SP-Complex	an S-sulfanyl-[cysteine desulfurase]-S-sulfanyl-[disordered-form scaffold protein] complex	p
16S-rRNA-cytidine1402	a cytidine1402 in 16S rRNA	c
CPD-17621	16-hydroxypalmitoyl-CoA	p
16S-rRNA-guanine-527	a guanine527 in 16S rRNA	c
tRNA-fragment	a tRNA fragment	p
CPD-7275	(24R,25R)-3&alpha;,7&alpha;,12&alpha;,24-tetrahydroxy-5&beta;-cholestanoyl CoA	cp
tRNA-precursors	a tRNA precursor	c
ACETYL-GLU	N-acetyl-L-glutamate	cp
CPD-535	&beta;-D-fructose 2,6-bisphosphate	c
16S-rRNA-guanine-966	a guanine966 in 16S rRNA	c
tRNA-pseudouridine-38-40	a pseudouridine38-40 in tRNA	p
CPD-17624	&omega;-carboxy-(9Z)-octadec-9-enoyl-CoA	p
S-HYDROXYMETHYLGLUTATHIONE	S-(hydroxymethyl)glutathione	c
16S-rRNA-pseudouridine516	a 16S rRNA pseudouridine516	p
tRNA-uridine-38-40	a uridine38-40 in tRNA	c
16S-rRNA-uridine516	a uridine516 in 16S rRNA	c
tRNA-uridine34	a uridine34 in tRNA	c
S-LACTOYL-GLUTATHIONE	(R)-S-lactoylglutathione	cp
CPD-17637	7-hydroxylaurate	c
CPD-548	S-formylglutathione	cp
tRNA-uridines	a uridine in tRNA	c
NN-DIMETHYLANILINE	N,N-dimethylaniline	c
tRNA-with-7-aminomethyl-7-deazaguanine	a 7-aminomethyl-7-deazaguanosine34 in tRNA	cp
CPD-17638	7-hydroxylauroyl-CoA	p
CPD-13699	3,22-dioxochol-4-en-24-oyl-CoA	c
Palmitoleoyl-ACPs	a palmitoleoyl-[acp]	c
NN-DIMETHYLANILINE-N-OXIDE	N,N-dimethylaniline-N-oxide	p
CPD-558	pimeloyl-CoA	cp
Palmitoyl-ACPs	a palmitoyl-[acp]	c
CPD-220	D-arginine	c
KDO2-LAUROYL-LIPID-IVA	&alpha;-Kdo-(2->4)-&alpha;-Kdo-(2->6)-(lauroyl)-lipid IVA	c
Alpha-omega-dicarboxylates	an &alpha;,&omega;-dicarboxylate	c
CPD-19171	(S)-3-hydroxy-(9Z)-octadecenoyl-CoA	p
CPD-11519	3-oxo-2-(cis-2'-pentenyl)-cyclopentane-1-(3R-hydroxyoctanoyl)-CoA	p
CPD-15280	hercynine	p
DEOXYGUANOSINE	2'-deoxyguanosine	p
L-Methionylaminoacyl-tRNAs	a L-methionylaminoacyl-tRNA	p
Long-Chain-Acyl-CoAs	a long-chain acyl-CoA	p
CPD-11520	3-oxo-2-(cis-2'-pentenyl)-cyclopentane-1-(3-oxooctanoyl)-CoA	c
L-ORNITHINE	L-ornithine	cp
17-ALPHA-HYDROXYPROGESTERONE	17-&alpha;-hydroxyprogesterone	cp
KDO2-LIPID-A	&alpha;-D-Kdo-(2&rarr;4)-&alpha;-D-Kdo-(2&rarr;6)-lipid A	p
CPD-19172	(2E,9Z)-octadecenoyl-CoA	cp
TRANS-23-DEHYDROADIPYL-COA	trans-2,3-dehydroadipyl-coA	cp
Amino-Acids	an amino acid	c
Long-Chain-Fatty-Acids	a long-chain fatty acid	c
CPD-237	(indol-3-yl)acetamide	c
PROT-CYS	a [protein]-L-cysteine	c
Amino-Acids-20	a proteinogenic amino acid	cp
CPD-15285	N&alpha;-methyl-L-histidine	cp
CPD-11521	3-oxo-2-(cis-2'-pentenyl)-cyclopentane-1-hexanoyl-CoA	p
Long-Chain-Polyphosphate	long chain polyphosphate	cp
CPD-19217	S-(hydroxysulfenamide)-glutathione	p
CPD-11522	3-oxo-2-(cis-2'-pentenyl)-cyclopentane-1-(E-hexa-2-enoyl)-CoA	c
DEOXYINOSINE	2'-deoxyinosine	p
TRANS-3-METHYL-GLUTACONYL-COA	3-methylglutaconyl-CoA	p
CPD-15301	caldariellaquinol	p
L-PANTOATE	(R)-pantoate	cp
PROTEIN-L-BETA-ISOASPARTATES	a [protein]-L-&beta;-isoaspartate	c
Long-linear-glucans	a long-linear &alpha;-D-glucan	cp
CPD-245	3-carboxy-cis,cis-muconate	c
PROTEIN-L-BETA-ISOSPARTATE-METHYL-ESTERS	a protein L-&beta;-isoaspartate &alpha;-methyl ester	p
CPD-11523	3-oxo-2-(cis-2'-pentenyl)-cyclopentane-1-(3R-hydroxyhexanoyl)-CoA	p
CPD-15317	D-ribofuranose 5-phosphate	p
INDOLE	indole	c
AMINO-HYDROXYMETHYL-METHYL-PYR-P	4-amino-2-methyl-5-(phosphooxymethyl)pyrimidine	cp
CPD-19236	&alpha;-D-ribose-1-(2-N-acetamidomethylphosphonate) 5-phosphate	c
CPD-15360	2-sulfanyl-N6-dimethylallyladenosine37 in tRNA	cp
PROTEIN-LIPOYLLYSINE	a [glycine-cleavage complex H protein] N6-lipoyl-L-lysine	cp
INDOLE-3-GLYCEROL-P	(1S,2R)-1-C-(indol-3-yl)glycerol 3-phosphate	cp
TRANS-D2-ENOYL-COA	a (2E)-alkan-2-enoyl-CoA	cp
CPD-11524	3-oxo-2-(cis-2'-pentenyl)-cyclopentane-1-(3-oxohexanoyl)-CoA	c
LysW-L-glutamate	a [2-aminoadipate carrier protein]-L-glutamate	c
CYTIDINE	cytidine	p
LysW-L-glutamate-5-phosphate	a [2-aminoadipate carrier protein]-L-glutamate 5-phosphate	cp
INDOLEYL-CPD	(indole-3-yl)acetonitrile	c
CPD-19237	N-methylacetamide	p
CPD-2743	nicotine-1'-N-oxide	p
CPD-15435	L-threonylcarbamoyladenylate	cp
17-BETA-HYDROXY-5ALPHA-ANDROSTAN-3-O	17-&beta;-hydroxy-5-&alpha;-androstan-3-one	cp
LysW-L-glutamate-5-semialdehyde	a [2-aminoadipate carrier protein]-L-glutamate 5-semialdehyde	cp
L-PHOSPHATIDATE	a 1,2-diacyl-sn-glycerol 3-phosphate	c
PROTOHEME	ferroheme b	cp
L-PHOSPHINOTHRICIN	L-phosphinothricin	c
CPD-11525	3-oxo-2-(cis-2'-pentenyl)-cyclopentane-1-butanoyl-CoA	p
DEOXYXYLULOSE-5P	1-deoxy-D-xylulose 5-phosphate	cp
AMINO-HYDROXYMETHYL-METHYLPYRIMIDINE-PP	4-amino-2-methyl-5-(diphosphomethyl)pyrimidine	cp
CPD-19395	&gamma;-L-glutamyl-glycylglycine	p
CPD-15436	(5Z)-tetradecenoyl-CoA	cp
L-SELENOCYSTEINE	L-selenocysteine	p
LysW-L-ornithine	a [2-aminoadipate carrier protein]-L-ornithine	cp
CPD-11526	3-oxo-2-(cis-2'-pentenyl)-cyclopentane-1-(E-buta-2-enoyl)-CoA	c
CPD-15539	phenyl 5-phospho-&alpha;-D-ribofuranoside	c
CPD-283	6-oxo-1,4,5,6-tetrahydronicotinate	cp
INDOLE_ACETATE_AUXIN	(indol-3-yl)acetate	p
Lysidine-tRNA-Ile2	a lysidine34 in tRNAIle2	p
DEPHOSPHO-COA	3'-dephospho-CoA	cp
Aromatic-Amino-Acids	an aromatic amino acid	cp
CPD-11527	3-oxo-2-(cis-2'-pentenyl)-cyclopentane-1-(3R-hydroxybutanoyl)-CoA	p
AMINO-OH-HYDROXYMETHYL-DIHYDROPTERIDINE	6-(hydroxymethyl)-7,8-dihydropterin	c
Aromatic-Oxoacids	an aromatic 2-oxo-acid	cp
5-Phospho-terminated-DNAs	a 5'-phospho-[DNA]	cp
CHOLESTEROL	cholesterol	c
CPD-10267	decanoyl-CoA	cp
CPD-9699	hypoglycin A	c
G3P	3-phospho-D-glycerate	cp
Butanoyl-ACPs	a butanoyl-[acp]	c
ACETYL-P	acetyl phosphate	cp
CPD0-2244	(S)-3-hydroxydecanoyl-CoA	p
CPD-9700	hypoglycin B	p
5-phosphooligonucleotides	a 5'-phosphooligonucleotide	p
CPD-10269	palmitoleoyl-CoA	cp
18-HYDROXYOLEATE	18-hydroxyoleate	c
C1	UDP-N-acetyl-&alpha;-D-muramoyl-L-alanyl-&gamma;-D-glutamyl-meso-2,6-diaminopimeloyl-D-alanyl-D-alanine	p
CPD-9869	all trans-decaprenyl-2-methoxy-6-1,4-benzoquinol	c
CPD0-2350	a polycistronic tRNA precursor	cp
CPD-10284	3-oxo-myristoyl-CoA	c
CPD0-2351	a tRNA precursor with a 5' extension and a long 3' trailer	p
CPD0-2352	a tRNA precursor with a 5' extension and a short 3' extension	cp
CPD0-2353	a tRNA precursor with a short 3' extension	cp
TDP	dTDP	cp
2-KETO-ISOVALERATE	3-methyl-2-oxobutanoate	cp
CPD0-2354	a tRNA precursor with a 5' extension	p
2-KETOGLUTARATE	2-oxoglutarate	cp
C3	UDP-N-acetyl-&alpha;-D-muramoyl-L-alanyl-&gamma;-D-glutamyl-L-lysyl-D-alanyl-D-alanine	p
CPD-9871	6-methoxy-3-methyl-2-all-trans-decaprenyl-1,4-benzoquinol	p
2-LYSOPHOSPHATIDYLETHANOLAMINES	a 1-acyl 2-lyso-phosphatidylethanolamine	c
CPD0-2463	5-phospho-&alpha;-D-ribose 1,2-cyclic phosphate	p
DITP	dITP	cp
C4	undecaprenyl-diphospho-N-acetylmuramoyl-L-alanyl-&gamma;-D-glutamyl-L-lysyl- D-alanyl-D-alanine	c
CHORISMATE	chorismate	cp
2-Lysophosphatidylcholines	a 1-acyl-sn-glycero-3-phosphocholine	c
GALACTOSE	&beta;-D-galactose	cp
P3I	PPPi	p
2-3-DIHYDROXYPHENYL-PROPIONATE	3-(2,3-dihydroxyphenyl)propanoate	c
CPD0-2480	&alpha;-D-ribose-1-methylphosphonate 5-phosphate	c
3-Hydroxy-Terminated-DNAs	a [DNA]-3'-hydroxyl	c
C5	undecaprenyldiphospho-N-acetylmuramoyl-L-alanyl-&gamma;-D-glutamyl-meso-2,6-diaminopimeloyl-D-alanyl-D-alanine	cp
UDP-AAGM-DIAMINOHEPTANEDIOATE	UDP-N-acetyl-&alpha;-D-muramoyl-L-alanyl-&gamma;-D-glutamyl-meso-2,6-diaminopimelate	cp
tRNAs	an uncharged tRNA	p
Unfolded-Proteins	an unfolded protein	cp
tRNAs-containing-epoxy-quenosine	an epoxyqueuosine34 in tRNA	cp
UDP-ACETYL-CARBOXYVINYL-GLUCOSAMINE	UDP-N-acetyl-&alpha;-D-glucosamine-enolpyruvate	cp
Unspecified-Degradation-Products	[unspecified degradation products]	p
tRNAs-with-CCA	a tRNA containing a 3' CCA end	p
Unsulfurated-Sulfur-Acceptors	an unsulfurated [sulfur carrier]	cp
Unwound-DNA	an unwound double-stranded DNA	p
Glutamine-synthetase-Tyr	a [glutamine-synthetase]-L-tyrosine	c
Glutamine-synthetase-adenylyl-Tyr	a [glutamine synthetase]-O4-(5'-adenylyl)-L-tyrosine	p
Unwound-RNA	an unwound RNA	p
tRNAs-with-queuine	a queuosine34 in tRNA	p
GLYCOLALDEHYDE	glycolaldehyde	p
Glutaryl-ACP-methyl-esters	a glutaryl-[acp] methyl ester	c
CPD-5662	9-mercaptodethiobiotin	cp
UDP-D-GALACTO-14-FURANOSE	UDP-&alpha;-D-galactofuranose	cp
DUMP	dUMP	cp
ADP	ADP	cp
Negatively-super-coiled-DNAs	a negatively supercoiled DNA	cp
DUTP	dUTP	cp
ADP-D-GLUCOSE	ADP-&alpha;-D-glucose	cp
Glycerophosphodiesters	a glycerophosphodiester	c
VAL	L-valine	cp
CPD-569	N-acetylputrescine	cp
VAL-tRNAs	a tRNAVal	c
UDP-MURNAC-TETRAPEPTIDE	UDP-N-acetylmuramoyl-L-alanyl-&gamma;-D-glutamyl-meso-2,6-diaminopimeloyl-D-alanine	p
Glycogens	a glycogen	cp
FARNESYL-PP	(2E,6E)-farnesyl diphosphate	cp
CPD-582	guanylyl molybdenum cofactor	p
CPD-5821	(S)-2-oxo-4-hydroxy-4-carboxy-5-ureidoimidazoline	cp
UDP-N-ACETYL-D-GLUCOSAMINE	UDP-N-acetyl-&alpha;-D-glucosamine	cp
ADP-L-GLYCERO-D-MANNO-HEPTOSE	ADP-L-glycero-&beta;-D-manno-heptose	c
Guanine34-in-tRNAs	a guanine34 in tRNA	c
UDP-N-ACETYLMURAMATE	UDP-N-acetyl-&alpha;-D-muramate	cp
Guanine46-in-tRNA	a guanine46 in tRNA	c
GLYCOLLATE	glycolate	p
H2CO3	carbonic acid	cp
CPD-5881	(6R)-4a-hydroxy-tetrahydrobiopterin	cp
CPD-734	(-)-jasmonate	p
CPD-294	2-maleylacetate	p
CPD-13700	3-oxo-4-pregnene-20-carboxyl-CoA	p
CPD-13711	3-[(3aS,4S,7aS)-7a-methyl-1,5-dioxo-octahydro-1H-inden-4-yl]propanoate	c
AMINO-OXOBUT	L-2-amino-3-oxobutanoate	c
4-HYDROXYPHENYLACETATE	4-hydroxyphenylacetate	c
CPD-2961	D-gluconate 6-phosphate	cp
N-ALPHA-ACETYLORNITHINE	N-acetyl-L-ornithine	cp
AMINO-RIBOSYLAMINO-1H-3H-PYR-DIONE	5-amino-6-(D-ribitylamino)uracil	cp
Peptides-holder	a peptide	p
CPD-13713	adenosine 5'-phosphoselenate	p
Peptidoglycans	a peptidoglycan	c
CPD-13717	L-selenocystathionine	c
CPD-7535	9,15,9'-tri-cis-&zeta;-carotene	p
Persulfurated-L-cysteine-desulfurases	an S-sulfanyl-[L-cysteine desulfurase]	p
CPD-302	D-aspartate	p
DETHIOBIOTIN	dethiobiotin	cp
N-Acetyl-beta-D-Hexosaminides	an N-acetyl-&beta;-D-hexosaminide	c
CPD-7545	S-(phenylacetothiohydroximoyl)-L-cysteine	cp
CPD-31	(R)-citramalate	cp
CPD-7546	S-(4-methylthiobutylhydroximoyl)-L-cysteine	cp
4-IMIDAZOLONE-5-PROPIONATE	4-imidazolone-5-propanoate	cp
CPD-316	reduced riboflavin	p
PALMITATE	palmitate	cp
CPD-763	arsenite	p
4-MALEYL-ACETOACETATE	4-maleyl-acetoacetate	cp
PROTON	H+	cp
GLUTAMATE-1-SEMIALDEHYDE	(S)-4-amino-5-oxopentanoate	cp
CPD-7671	methanethiol	c
AMINOMETHYLDIHYDROLIPOYL-GCVH	a [glycine-cleavage complex H protein] N6-aminomethyldihydrolipoyl-L-lysine	cp
PALMITYL-COA	palmitoyl-CoA	p
CPD-320	ethylnitronate	c
CPD-13754	3-[(3aS,4S,7aS)-7a-methyl-1,5-dioxo-octahydro-1H-inden-4-yl]propanoyl-CoA	p
N-FORMIMINO-L-GLUTAMATE	N-formimino-L-glutamate	cp
CPD-7695	ditrans,octacis-undecaprenyldiphospho-N-acetyl-(N-acetyl-&beta;-D-glucosaminyl)muramoyl-L-alanyl-&gamma;-D-glutamyl-L-lysyl-D-alanyl-D-alanine	p
PHOSPHO-ENOL-PYRUVATE	phosphoenolpyruvate	cp
