id	Common name	linked reactions
ASE07_22625	Unknown	MALONYL-COA-ACP-TRANSACYL-RXN
ASE07_04440	Unknown	1.5.1.9-RXN
ASE07_19155	Unknown	GPH-RXN
ASE07_15190	Unknown	3-HYDROXYISOBUTYRYL-COA-HYDROLASE-RXN;RXN-13721;RXN-6384
ASE07_14355	Unknown	PEPDEPHOS-RXN;RXN-14117;RXN-14192;RXN-14207
ASE07_25130	Unknown	ACYLCOASYN-RXN;LINOLENOYL-RXN;R223-RXN;RXN-12184;RXN-12702;RXN-12746;RXN-12978;RXN-13290;RXN-13614;RXN-16380;RXN-16389;RXN-16393;RXN-16401;RXN-16402;RXN-16415;RXN-16418;RXN-7904;RXN-9623;RXN-9644;RXN-9673;RXN0-7238;RXN0-7239;RXN0-7248;RXN66-469;RXN66-477;RXN66-480;RXN66-483;RXN66-484;TRANS-RXN0-623
ASE07_14365	Unknown	SAICARSYN-RXN
ASE07_18250	pntA	PYRNUTRANSHYDROGEN-RXN;TRANS-RXN0-277
ASE07_09740	glgC	GLUC1PADENYLTRANS-RXN
ASE07_06670	Unknown	4-HYDROXYBENZOATE-3-MONOOXYGENASE-RXN
ASE07_22450	Unknown	FMNREDUCT-RXN;NADPH-DEHYDROGENASE-FLAVIN-RXN;RXN-12444
ASE07_02130	Unknown	DCTP-DEAM-RXN;RXN-14118
ASE07_20440	Unknown	ACYLCOADEHYDROG-RXN;RXN-17775;RXN-17779;RXN-17783;RXN-17784;RXN-17788;RXN-17792;RXN-17796
ASE07_10245	Unknown	KETOACYLCOATHIOL-RXN;RXN-10699;RXN-10700;RXN-10701;RXN-11246;RXN-12565;RXN-12710;RXN-13617;RXN-14268;RXN-14274;RXN-14277;RXN-14394;RXN-14774;RXN-14788;RXN-14793;RXN-14799;RXN-14803;RXN-16137;RXN-17116;RXN-17778;RXN-17782;RXN-17787;RXN-17791;RXN-17795;RXN-17799;RXN-3641
ASE07_03505	Unknown	ADENYLOSUCCINATE-SYNTHASE-RXN
ASE07_24635	Unknown	RXN0-5131
ASE07_15570	trpC	IGPSYN-RXN
ASE07_26955	Unknown	RXN0-5131
ASE07_06485	Unknown	MALEYLACETOACETATE-ISOMERASE-RXN
ASE07_26525	Unknown	ACYLCOADEHYDROG-RXN;RXN-17775;RXN-17779;RXN-17783;RXN-17784;RXN-17788;RXN-17792;RXN-17796
ASE07_12570	Unknown	GLYOXIII-RXN
ASE07_06095	Unknown	2.7.13.3-RXN
ASE07_13080	Unknown	RXN-11355;RXN-12243;RXN-12244
ASE07_14515	Unknown	PSERTRANSAM-RXN;PSERTRANSAMPYR-RXN
ASE07_26260	Unknown	KDOTRANS-RXN
ASE07_10250	Unknown	3-HYDROXYBUTYRYL-COA-DEHYDROGENASE-RXN
ASE07_05240	Unknown	RXN0-5462
ASE07_25595	Unknown	METHENYLTHFCYCLOHYDRO-RXN;METHYLENETHFDEHYDROG-NADP-RXN
ASE07_03250	Unknown	1.11.1.15-RXN;RXN0-5468
ASE07_21450	Unknown	QUERCETIN-23-DIOXYGENASE-RXN
ASE07_03685	Unknown	RXN-14971;RXN-15378;SUCCINATE-DEHYDROGENASE-UBIQUINONE-RXN
ASE07_21650	Unknown	ISOLEUCINE--TRNA-LIGASE-RXN
ASE07_07495	Unknown	ACYLCOADEHYDROG-RXN;RXN-17775;RXN-17779;RXN-17783;RXN-17784;RXN-17788;RXN-17792;RXN-17796
ASE07_09935	Unknown	ATPASE-RXN
ASE07_02365	Unknown	3.1.1.64-RXN;CARBOXYLESTERASE-RXN;RETINYL-PALMITATE-ESTERASE-RXN;RXN-10711;RXN-10767;RXN-12252;RXN-12575;RXNQT-4366
ASE07_18485	Unknown	FPPSYN-RXN
ASE07_18590	Unknown	VALINE--TRNA-LIGASE-RXN
ASE07_14135	Unknown	ACYLCOADEHYDROG-RXN;RXN-17775;RXN-17779;RXN-17783;RXN-17784;RXN-17788;RXN-17792;RXN-17796
ASE07_10200	Unknown	ACETYL-COA-ACETYLTRANSFER-RXN;METHYLACETOACETYLCOATHIOL-RXN;RXN-12561
ASE07_04470	Unknown	DTDPDEHYRHAMREDUCT-RXN
ASE07_07395	Unknown	RXN0-2621
ASE07_16680	Unknown	TETHYDPICSUCC-RXN
ASE07_20800	Unknown	1.18.1.2-RXN
ASE07_22970	Unknown	3.1.3.16-RXN
ASE07_13720	Unknown	2.7.13.3-RXN
ASE07_04315	Unknown	3-ISOPROPYLMALDEHYDROG-RXN;RXN-13158;RXN-14986;RXN-18200;RXN-18202;RXN-18204;RXN-18206;RXN-18208;RXN-18210;RXNQT-4165;RXNQT-4168;RXNQT-4171;RXNQT-4174;RXNQT-4178
ASE07_19565	Unknown	PROTEIN-KINASE-RXN
ASE07_12470	Unknown	ACYLCOADEHYDROG-RXN;RXN-17775;RXN-17779;RXN-17783;RXN-17784;RXN-17788;RXN-17792;RXN-17796
ASE07_12475	Unknown	6-CARBOXYHEXANOATE--COA-LIGASE-RXN
ASE07_04695	Unknown	RXN0-5061
ASE07_12330	Unknown	4.2.1.107-RXN;RXN-9847
ASE07_12165	Unknown	RXN0-6523
ASE07_02290	Unknown	OHMETHYLBILANESYN-RXN
ASE07_14735	Unknown	5-NUCLEOTID-RXN;AMP-DEPHOSPHORYLATION-RXN;RXN-14025;RXN-14026;RXN-14227;RXN-5841;RXN-7607;RXN-7609;XMPXAN-RXN
ASE07_18225	Unknown	KANAMYCIN-KINASE-RXN
ASE07_14645	Unknown	GLYOXIII-RXN
ASE07_25350	Unknown	RXN0-5131
ASE07_11405	Unknown	2-NITROPROPANE-DIOXYGENASE-RXN
ASE07_05315	Unknown	5.99.1.2-RXN
ASE07_04835	Unknown	2.6.1.18-RXN
ASE07_12535	Unknown	4-HYDROXYBENZOATE-3-MONOOXYGENASE-RXN
ASE07_01470	gyrB	5.99.1.3-RXN
ASE07_16880	Unknown	ALARACECAT-RXN
ASE07_07385	Unknown	HOLO-ACP-SYNTH-RXN
ASE07_08515	Unknown	CYTDEAM-RXN;RXN-14129;RXN-14197
ASE07_10085	Unknown	3-OXOADIPATE-COA-TRANSFERASE-RXN;RXN-10085
ASE07_17830	Unknown	RXN0-5131
ASE07_26255	Unknown	RXN0-5061
ASE07_11840	Unknown	R341-RXN;RXN-14256;RXN-14257;RXN-8769
ASE07_13195	Unknown	DNA-DIRECTED-DNA-POLYMERASE-RXN;RXN0-4961
ASE07_00555	Unknown	HYDROXYMETHYLGLUTARYL-COA-LYASE-RXN
ASE07_12835	Unknown	QUERCETIN-23-DIOXYGENASE-RXN
ASE07_14520	Unknown	CHORISMATEMUT-RXN
ASE07_17520	Unknown	ORNITHINE-CYCLODEAMINASE-RXN
ASE07_09305	Unknown	2-NITROPROPANE-DIOXYGENASE-RXN
ASE07_25780	Unknown	LYSINE--TRNA-LIGASE-RXN
ASE07_11495	Unknown	ENOYL-COA-HYDRAT-RXN;METHYLACYLYLCOA-HYDROXY-RXN;RXN-10697;RXN-10704;RXN-10705;RXN-11244;RXN-12567;RXN-13616;RXN-14266;RXN-14272;RXN-14273;RXN-16135;RXN-16558;RXN-17114;RXN-17475;RXN-17776;RXN-17780;RXN-17785;RXN-17789;RXN-17793;RXN-17797;RXN-2425;RXN0-5393;TIGLYLCOA-HYDROXY-RXN
ASE07_07505	Unknown	3.1.3.46-RXN
ASE07_03445	Unknown	ACETYL-COA-CARBOXYLTRANSFER-RXN;RXN0-5055
ASE07_03205	Unknown	EXOPOLYPHOSPHATASE-RXN
ASE07_16590	Unknown	DXPREDISOM-RXN
ASE07_16940	Unknown	RXN-8992
ASE07_02640	prpE	PROPIONATE--COA-LIGASE-RXN
ASE07_11970	Unknown	RXN-6201
ASE07_05990	truB	TRNA-PSEUDOURIDINE-SYNTHASE-I-RXN
ASE07_18880	Unknown	6.3.5.7-RXN
ASE07_06070	Unknown	DIHYDROOROTATE-DEHYDROGENASE-RXN;RXN-9929;RXN0-6491;RXN0-6554
ASE07_12750	Unknown	ACETYL-COA-ACETYLTRANSFER-RXN;METHYLACETOACETYLCOATHIOL-RXN;RXN-12561
ASE07_08440	Unknown	PEPTIDYLPROLYL-ISOMERASE-RXN
ASE07_22415	Unknown	CITSYN-RXN
ASE07_03915	Unknown	RXNI-2
ASE07_08715	Unknown	RXN0-5289;TSA-REDUCT-RXN
ASE07_04065	Unknown	PHOSPHASERSYN-RXN
ASE07_06520	Unknown	PEPTIDYLPROLYL-ISOMERASE-RXN
ASE07_17790	Unknown	PHOSPHASERDECARB-RXN
ASE07_15580	Unknown	ANTHRANSYN-RXN
ASE07_12975	Unknown	QOR-RXN
ASE07_00265	Unknown	5.99.1.2-RXN
ASE07_22610	Unknown	MUCONATE-CYCLOISOMERASE-RXN
ASE07_02645	prpD	2-METHYLCITRATE-DEHYDRATASE-RXN
ASE07_06145	Unknown	2.3.2.13-RXN;RXN-19236
ASE07_23180	Unknown	DNA-DIRECTED-DNA-POLYMERASE-RXN
ASE07_21235	Unknown	ATPASE-RXN
ASE07_08450	Unknown	ACYLCOADEHYDROG-RXN;RXN-17775;RXN-17779;RXN-17783;RXN-17784;RXN-17788;RXN-17792;RXN-17796
ASE07_18505	Unknown	MERCAPYSTRANS-RXN;RXN-18702;RXN-18703;RXN0-6945
ASE07_07320	Unknown	2.3.1.179-RXN;2.3.1.41-RXN;3-OXOACYL-ACP-SYNTH-BASE-RXN;3-OXOACYL-ACP-SYNTH-RXN;RXN-10654;RXN-10658;RXN-11474;RXN-11479;RXN-16615;RXN-16621;RXN-16625;RXN-16629;RXN-8391;RXN-9516;RXN-9523;RXN-9527;RXN-9531;RXN-9535;RXN-9539;RXN0-2141;RXN1G-460;RXN3O-1803
ASE07_16610	Unknown	RXN-12002
ASE07_03170	Unknown	POLYPHOSPHATE-KINASE-RXN
ASE07_17995	Unknown	RXN0-5100
ASE07_09805	Unknown	2.1.3.1-RXN
ASE07_01935	rnhA	3.1.26.4-RXN
ASE07_11855	Unknown	2.7.7.1-RXN
ASE07_12190	Unknown	RXN0-1461
ASE07_15505	Unknown	GLUTRNAREDUCT-RXN
ASE07_04000	Unknown	1.6.99.5-RXN;NADH-DEHYDROGENASE-QUINONE-RXN
ASE07_21560	Unknown	RXN0-5021
ASE07_04260	Unknown	PRPPAMIDOTRANS-RXN
ASE07_12945	Unknown	1.8.4.12-RXN
ASE07_13015	Unknown	PEPTIDYLPROLYL-ISOMERASE-RXN
ASE07_25385	Unknown	ATPASE-RXN
ASE07_16755	Unknown	ATPASE-RXN
ASE07_16700	Unknown	RXN0-1241
ASE07_01335	Unknown	4.1.1.32-RXN;RXN-12481
ASE07_14055	Unknown	PEPDEPHOS-RXN;RXN-14117;RXN-14192;RXN-14207
ASE07_14510	Unknown	5.99.1.3-RXN
ASE07_00495	Unknown	GUANPRIBOSYLTRAN-RXN;HYPOXANPRIBOSYLTRAN-RXN
ASE07_17195	Unknown	3.1.22.4-RXN
ASE07_26535	Unknown	KANAMYCIN-KINASE-RXN
ASE07_16205	Unknown	UDP-NACMURALA-GLU-LIG-RXN
ASE07_09705	Unknown	2.7.13.3-RXN
ASE07_06710	Unknown	4-CARBOXYMUCONOLACTONE-DECARBOXYLASE-RXN
ASE07_00035	Unknown	RXN-982
ASE07_18480	Unknown	DXS-RXN
ASE07_04330	Unknown	3-ISOPROPYLMALISOM-RXN;R-2-METHYLMALATE-DEHYDRATASE-RXN;RXN-13163;RXN-7744;RXN-8991
ASE07_16570	Unknown	UDPHYDROXYMYRGLUCOSAMNACETYLTRANS-RXN
ASE07_23185	Unknown	GLUTSEMIALDEHYDROG-RXN
ASE07_17205	pyrB	ASPCARBTRANS-RXN
ASE07_00620	Unknown	ACYLCOADEHYDROG-RXN;RXN-17775;RXN-17779;RXN-17783;RXN-17784;RXN-17788;RXN-17792;RXN-17796
ASE07_06735	Unknown	3-OXOADIPATE-COA-TRANSFERASE-RXN;RXN-10085
ASE07_21110	Unknown	DTDPDEHYRHAMREDUCT-RXN
ASE07_16190	Unknown	UDP-NACMURALGLDAPLIG-RXN
ASE07_05415	Unknown	ASPAMINOTRANS-RXN;RXN-10814;RXN-11737;RXN-13697
ASE07_11310	Unknown	2.7.13.3-RXN
ASE07_13075	Unknown	RXN-12263;RXN-13162;RXN-13724;RXN66-281
ASE07_24725	Unknown	RXN-8529
ASE07_17650	Unknown	ATPASE-RXN
ASE07_19380	Unknown	MYRISTOYLACYLTRAN-RXN
ASE07_01345	Unknown	IMP-DEHYDROG-RXN
ASE07_15875	Unknown	AMINOCYL-TRNA-HYDROLASE-RXN;RXN-16637
ASE07_02180	Unknown	PGLUCONDEHYDRAT-RXN
ASE07_23525	Unknown	2.7.13.3-RXN
ASE07_04380	Unknown	ACETYLHOMOSER-CYS-RXN;O-ACETYLHOMOSERINE-THIOL-LYASE-RXN
ASE07_00575	Unknown	7KAPSYN-RXN;RXN-11484
ASE07_02090	Unknown	GLUTAMIN-RXN
ASE07_01005	Unknown	ATPSYN-RXN
ASE07_03455	Unknown	CYSTEINE--TRNA-LIGASE-RXN
ASE07_03735	Unknown	ADENYLATECYC-RXN
ASE07_25625	Unknown	1.17.1.1-RXN
ASE07_13490	Unknown	2.7.13.3-RXN
ASE07_16650	Unknown	3.5.1.27-RXN;3.5.1.88-RXN
ASE07_16355	Unknown	ALDOSE-1-EPIMERASE-RXN;ALDOSE1EPIM-RXN
ASE07_18535	Unknown	HOMOSERKIN-RXN
ASE07_12145	Unknown	RXN0-5462
ASE07_11515	Unknown	6.2.1.34-RXN
ASE07_23930	Unknown	RXN-2462
ASE07_15135	Unknown	DIAMINOPIMDECARB-RXN
ASE07_16655	ligA	DNA-LIGASE-NAD+-RXN;RXN-17918;RXN-17919;RXN-17920
ASE07_15460	Unknown	GSHTRAN-RXN;GST-RXN;RXN-11663;RXN-13673;RXN-15680;RXN-18405;RXN-18407;RXNQT-4363
ASE07_14605	Unknown	2.3.2.13-RXN;RXN-19236
ASE07_10890	Unknown	QUERCETIN-23-DIOXYGENASE-RXN
ASE07_01810	Unknown	ARYLFORMAMIDASE-RXN;RXN-17150
ASE07_26395	Unknown	ACYLCOADEHYDROG-RXN;RXN-17775;RXN-17779;RXN-17783;RXN-17784;RXN-17788;RXN-17792;RXN-17796
ASE07_03480	Unknown	SERINE-O-ACETTRAN-RXN
ASE07_02605	Unknown	RXN-12720;SULFATE-ADENYLYLTRANS-RXN
ASE07_00105	Unknown	L-GLN-FRUCT-6-P-AMINOTRANS-RXN
ASE07_12765	Unknown	GLUCONOLACT-RXN;RXN-8783
ASE07_12225	Unknown	3-OXOACYL-ACP-REDUCT-RXN;RXN-10060;RXN-10655;RXN-10659;RXN-11476;RXN-11480;RXN-13008;RXN-16616;RXN-16622;RXN-16626;RXN-16630;RXN-9514;RXN-9518;RXN-9524;RXN-9528;RXN-9532;RXN-9536;RXN-9540;RXN-9552;RXN-9556;RXN-9633;RXN0-2142;RXN1G-157;RXN1G-349;RXN1G-469;RXN1G-508
ASE07_18090	Unknown	RXN0-6274
ASE07_02795	Unknown	4.2.99.18-RXN
ASE07_01815	Unknown	3-HYDROXY-KYNURENINASE-RXN;KYNURENINASE-RXN
ASE07_14495	Unknown	2-OCTAPRENYL-6-OHPHENOL-METHY-RXN;DHHB-METHYLTRANSFER-RXN
ASE07_03605	Unknown	2.1.1.77-RXN
ASE07_16750	Unknown	ATPASE-RXN
ASE07_03715	acnA	ACONITATEDEHYDR-RXN;ACONITATEHYDR-RXN;RXN-14047
ASE07_24955	Unknown	RXN0-5131
ASE07_03115	Unknown	2.7.13.3-RXN
ASE07_06060	Unknown	LEUCYLTRANSFERASE-RXN;RXN-17846;RXN-17847;RXN-17848
ASE07_00985	Unknown	RXN-10642;UROGENDECARBOX-RXN
ASE07_06850	Unknown	DICARBOXYLATE--COA-LIGASE-RXN
ASE07_20265	Unknown	MHPELY-RXN
ASE07_24320	Unknown	SUCCINATE-SEMIALDEHYDE-DEHYDROGENASE-RXN
ASE07_16375	Unknown	RXN0-5507
ASE07_05850	Unknown	GPPSYN-RXN
ASE07_24390	Unknown	2-NITROPROPANE-DIOXYGENASE-RXN
ASE07_13530	Unknown	RXN0-5131
ASE07_24330	Unknown	RXN0-5131
ASE07_13045	Unknown	3.4.21.92-RXN
ASE07_09810	Unknown	BIOTIN-CARBOXYL-RXN;RXN0-5055
ASE07_19575	Unknown	GUANYL-KIN-RXN
ASE07_21335	Unknown	ACYLCOASYN-RXN;LINOLENOYL-RXN;R223-RXN;RXN-12184;RXN-12702;RXN-12746;RXN-12978;RXN-13290;RXN-13614;RXN-16380;RXN-16389;RXN-16393;RXN-16401;RXN-16402;RXN-16415;RXN-16418;RXN-7904;RXN-9623;RXN-9644;RXN-9673;RXN0-7238;RXN0-7239;RXN0-7248;RXN66-469;RXN66-477;RXN66-480;RXN66-483;RXN66-484;TRANS-RXN0-623
ASE07_18640	Unknown	RXN0-1281
ASE07_07490	Unknown	GSHTRAN-RXN;GST-RXN;RXN-11663;RXN-13673;RXN-15680;RXN-18405;RXN-18407;RXNQT-4363
ASE07_13090	Unknown	ALARACECAT-RXN
ASE07_20040	Unknown	METHYLMALONYL-COA-MUT-RXN
ASE07_02740	Unknown	RXN0-5462
ASE07_23115	ppnK	NAD-KIN-RXN
ASE07_16225	Unknown	DALADALALIG-RXN
ASE07_11730	Unknown	GLYOXIII-RXN
ASE07_09800	Unknown	3-OXOADIPATE-COA-TRANSFERASE-RXN;RXN-10085
ASE07_19430	Unknown	ACETOLACTSYN-RXN;ACETOOHBUTSYN-RXN
ASE07_17215	Unknown	RXN-9591
ASE07_07515	Unknown	GSHTRAN-RXN;GST-RXN;RXN-11663;RXN-13673;RXN-15680;RXN-18405;RXN-18407;RXNQT-4363
ASE07_23240	Unknown	GLUCONOKIN-RXN
ASE07_16270	Unknown	3.4.11.18-RXN;RXN-17873;RXN-17874;RXN-17875;RXN-17876;RXN-17877;RXN-17878
ASE07_25925	Unknown	ADCLY-RXN
ASE07_12235	Unknown	NQOR-RXN
ASE07_03440	Unknown	RXN-1961
ASE07_11045	Unknown	2.7.13.3-RXN
ASE07_03240	Unknown	RXN0-2161;SERINE--TRNA-LIGASE-RXN
ASE07_01405	Unknown	2.7.13.3-RXN
ASE07_03640	Unknown	ATPASE-RXN
ASE07_21950	Unknown	FORMIMINOGLUTAMASE-RXN
ASE07_10080	Unknown	3-OXOADIPATE-COA-TRANSFERASE-RXN;RXN-10085
ASE07_06175	Unknown	AMONITRO-RXN
ASE07_00295	Unknown	CYTDEAM-RXN;RXN-14129;RXN-14197
ASE07_07370	Unknown	RXN0-5462
ASE07_06985	Unknown	RXN0-1441
ASE07_19410	Unknown	5-FORMYL-THF-CYCLO-LIGASE-RXN
ASE07_25855	Unknown	2.6.1.57-RXN;PHEAMINOTRANS-RXN;RXN-14147;RXN-15200;TRYPTOPHAN-AMINOTRANSFERASE-RXN;TYROSINE-AMINOTRANSFERASE-RXN
ASE07_07400	Unknown	PHOSPHAGLYPSYN-RXN
ASE07_15845	Unknown	PANTEPADENYLYLTRAN-RXN
ASE07_10835	Unknown	2-DEHYDROPANTOATE-REDUCT-RXN
ASE07_19700	Unknown	R4-RXN
ASE07_04275	Unknown	DIHYDROFOLATESYNTH-RXN;FOLYLPOLYGLUTAMATESYNTH-RXN;FORMYLTHFGLUSYNTH-RXN;RXN-6341;RXN0-2921
ASE07_18965	Unknown	RXN-13039;RXN-17127;RXN-8654;RXN-8655;RXN0-1141;RXN0-5098
ASE07_04345	Unknown	CHORISMATE-SYNTHASE-RXN
ASE07_25915	Unknown	DNA-DIRECTED-DNA-POLYMERASE-RXN
ASE07_00630	Unknown	ACETYL-COA-ACETYLTRANSFER-RXN;METHYLACETOACETYLCOATHIOL-RXN;RXN-12561
ASE07_14525	Unknown	ASPAMINOTRANS-RXN;RXN-10814;RXN-11737;RXN-13697
ASE07_09865	Unknown	RXN0-5289;TSA-REDUCT-RXN
ASE07_04955	Unknown	RXN0-4301
ASE07_10255	Unknown	ACYLCOASYN-RXN;LINOLENOYL-RXN;R223-RXN;RXN-12184;RXN-12978;RXN-13290;RXN-13614;RXN-16380;RXN-16389;RXN-16393;RXN-16401;RXN-16402;RXN-16415;RXN-16418;RXN-7904;RXN-9623;RXN-9644;RXN-9673;RXN0-7238;RXN0-7239;RXN0-7248;RXN66-469;RXN66-477;RXN66-480;RXN66-483;RXN66-484;TRANS-RXN0-623
ASE07_15590	Unknown	GPH-RXN
ASE07_02490	Unknown	4.1.1.81-RXN
ASE07_02585	Unknown	NADPH-DEHYDROGENASE-FLAVIN-RXN
ASE07_19435	Unknown	CITSYN-RXN
ASE07_07025	Unknown	2.7.13.3-RXN
ASE07_16130	Unknown	ACYLCOADEHYDROG-RXN;RXN-17775;RXN-17779;RXN-17783;RXN-17784;RXN-17788;RXN-17792;RXN-17796
ASE07_03510	hisZ	ATPPHOSPHORIBOSYLTRANS-RXN
ASE07_12490	Unknown	3-HYDROXYISOBUTYRATE-DEHYDROGENASE-RXN
ASE07_17525	Unknown	DIHYDRODIPICSYN-RXN
ASE07_19230	Unknown	PRODISULFREDUCT-RXN;RXN0-7271
ASE07_25030	Unknown	2.7.10.1-RXN
ASE07_07195	Unknown	GDPMANDEHYDRA-RXN
ASE07_14370	Unknown	RXN0-743
ASE07_13595	Unknown	FMNREDUCT-RXN;NADPH-DEHYDROGENASE-FLAVIN-RXN;RXN-12444
ASE07_00085	glmU	2.3.1.157-RXN;NAG1P-URIDYLTRANS-RXN
ASE07_01070	Unknown	RXN-11578
ASE07_20620	Unknown	ACYLCOASYN-RXN;LINOLENOYL-RXN;R223-RXN;RXN-12184;RXN-12978;RXN-13290;RXN-13614;RXN-16380;RXN-16389;RXN-16393;RXN-16401;RXN-16402;RXN-16415;RXN-16418;RXN-7904;RXN-9623;RXN-9644;RXN-9673;RXN0-7238;RXN0-7239;RXN0-7248;RXN66-469;RXN66-477;RXN66-480;RXN66-483;RXN66-484;TRANS-RXN0-623
ASE07_06490	Unknown	5.3.3.10-RXN
ASE07_04410	astD	SUCCGLUALDDEHYD-RXN
ASE07_15890	Unknown	PRPPSYN-RXN
ASE07_18180	Unknown	RXN-9591
ASE07_06630	Unknown	3.1.11.6-RXN
ASE07_14175	Unknown	RXN0-1483
ASE07_00825	Unknown	3.4.11.5-RXN
ASE07_14695	pyrF	OROTPDECARB-RXN
ASE07_07600	Unknown	2.7.7.60-RXN
ASE07_25990	Unknown	ACETYL-COA-ACETYLTRANSFER-RXN;METHYLACETOACETYLCOATHIOL-RXN;RXN-12561
ASE07_07380	Unknown	PDXJ-RXN
ASE07_03215	Unknown	CATAL-RXN;RXN-14189;RXN66-1
ASE07_23725	Unknown	MHPELY-RXN
ASE07_13190	Unknown	DNA-DIRECTED-DNA-POLYMERASE-RXN;RXN0-4961
ASE07_16675	Unknown	SUCCINYLDIAMINOPIMTRANS-RXN
ASE07_25390	Unknown	2.7.13.3-RXN
ASE07_16955	obgE	RXN0-5462
ASE07_26010	Unknown	2.4.1.36-RXN;RXN-761;TREHALOSE6PSYN-RXN
ASE07_09665	Unknown	2.9.1.1-RXN
ASE07_24235	Unknown	RXN-9235
ASE07_07920	Unknown	PRPPSYN-RXN
ASE07_20770	Unknown	3.1.1.75-RXN
ASE07_05290	Unknown	METHIONYL-TRNA-FORMYLTRANSFERASE-RXN
ASE07_14285	Unknown	RXN-17956;RXN0-6734
ASE07_02285	Unknown	UROGENIIISYN-RXN
ASE07_23060	Unknown	H2PTERIDINEPYROPHOSPHOKIN-RXN;RXN-15733
ASE07_20850	Unknown	DIHYDROXYISOVALDEHYDRAT-RXN;DIHYDROXYMETVALDEHYDRAT-RXN
ASE07_05935	Unknown	2-DEHYDROPANTOATE-REDUCT-RXN
ASE07_23205	gabD	RXN0-5293;SUCCINATE-SEMIALDEHYDE-DEHYDROGENASE-RXN
ASE07_16550	rnhB	3.1.26.4-RXN
ASE07_10390	Unknown	RXN0-305
ASE07_01570	Unknown	RXN-8505
ASE07_03005	Unknown	SUCCGLUDESUCC-RXN
ASE07_23080	Unknown	CARBODEHYDRAT-RXN;RXN0-5224
ASE07_04645	Unknown	GLUTATHIONE-SYN-RXN
ASE07_19360	Unknown	RXN0-5100
ASE07_00500	Unknown	2-NITROPROPANE-DIOXYGENASE-RXN
ASE07_03890	Unknown	GDPPYPHOSKIN-RXN;GTPPYPHOSKIN-RXN
ASE07_17270	Unknown	GDPMANDEHYDRA-RXN
ASE07_03500	Unknown	NICOTINATEPRIBOSYLTRANS-RXN
ASE07_03700	Unknown	MALATE-DEH-RXN
ASE07_18875	Unknown	6.3.5.7-RXN
ASE07_07875	Unknown	RXN0-2281
ASE07_09875	gabD	RXN0-5293;SUCCINATE-SEMIALDEHYDE-DEHYDROGENASE-RXN
ASE07_19475	Unknown	2.7.10.1-RXN
ASE07_12260	Unknown	F16BDEPHOS-RXN
ASE07_18730	Unknown	DIHYDROOROT-RXN
ASE07_26585	Unknown	ACETYL-COA-CARBOXYLTRANSFER-RXN;RXN0-5055
ASE07_01945	Unknown	GLYOXII-RXN;RXN-7919
ASE07_23750	Unknown	3.7.1.8-RXN
ASE07_12380	Unknown	ISOCITDEH-RXN;RXN-8642;RXN-9951
ASE07_01500	Unknown	ACETYLPUTRESCINE-DEACETYLASE-RXN
ASE07_26420	Unknown	ACYLCOADEHYDROG-RXN;RXN-17775;RXN-17779;RXN-17783;RXN-17784;RXN-17788;RXN-17792;RXN-17796
ASE07_21820	Unknown	CARBPSYN-RXN;GLUTAMIN-RXN;RXN-13202;RXN-14196;RXN-16909;RXN-16910
ASE07_17505	Unknown	ALANINE--GLYOXYLATE-AMINOTRANSFERASE-RXN
ASE07_17185	Unknown	DEOXYRIBODIPYRIMIDINE-PHOTOLYASE-RXN;RXN-19025;RXN-19026;RXN-19242;RXN-19243;RXN-19244;RXN-19245;RXN-19246;RXN-19247;RXN-19248
ASE07_17980	Unknown	RXN-10462;RXN-13805;RXN-1381;RXN-15045;RXN-16024;RXN-16117;RXN-17016;RXN-17017;RXN-17018
ASE07_23005	Unknown	2.7.13.3-RXN
ASE07_15295	gltD	GLUTAMATESYN-RXN;GLUTAMIN-RXN;GLUTDEHYD-RXN
ASE07_09430	Unknown	ISOCITRATE-DEHYDROGENASE-NAD+-RXN
ASE07_13925	Unknown	MALIC-NADP-RXN;OXALODECARB-RXN
ASE07_24980	Unknown	1.5.5.1-RXN;RXN66-550
ASE07_01680	ligD	DNA-LIGASE-ATP-RXN;RXN-17917;RXN-17918;RXN-17919
ASE07_01540	Unknown	MANNPISOM-RXN
ASE07_25980	Unknown	GLUCONATE-5-DEHYDROGENASE-RXN
ASE07_05120	Unknown	DNA-DIRECTED-DNA-POLYMERASE-RXN;RXN0-4961
ASE07_21925	Unknown	RXN0-5061
ASE07_10525	Unknown	GSHTRAN-RXN;GST-RXN;RXN-11663;RXN-13673;RXN-15680;RXN-18405;RXN-18407;RXNQT-4363
ASE07_01020	Unknown	ATPSYN-RXN
ASE07_21940	Unknown	IMIDAZOLONEPROPIONASE-RXN
ASE07_12960	Unknown	PEPTIDYLPROLYL-ISOMERASE-RXN
ASE07_03690	Unknown	RXN-14971;RXN-15378;SUCCINATE-DEHYDROGENASE-UBIQUINONE-RXN
ASE07_13870	Unknown	PEPTIDYLPROLYL-ISOMERASE-RXN
ASE07_21725	Unknown	GUANINE-DEAMINASE-RXN;RXN-15261
ASE07_25225	Unknown	RXN-982
ASE07_09720	Unknown	RXN0-5268
ASE07_12110	Unknown	AMIDASE-RXN;GUANIDINOBUTANAMIDE-NH3-RXN;PYRAZIN-RXN;R311-RXN;RXN-14727;RXN-14728;RXN-17608;RXNN-404
ASE07_11245	Unknown	ETHAMLY-RXN
ASE07_00370	Unknown	CYTOCHROME-C-OXIDASE-RXN;RXN-15830
ASE07_21845	Unknown	ACYLCOADEHYDROG-RXN;RXN-17775;RXN-17779;RXN-17783;RXN-17784;RXN-17788;RXN-17792;RXN-17796
ASE07_23030	Unknown	2.3.2.13-RXN;RXN-19236
ASE07_02535	Unknown	COBALAMIN5PSYN-RXN;COBALAMINSYN-RXN;RXN-19296;RXN-19297;RXN-19302;RXN-19303;RXN-19304;RXN-19305;RXN-19307;RXN-19308
ASE07_05470	Unknown	SERINE-O-ACETTRAN-RXN
ASE07_22865	Unknown	ACYLCOASYN-RXN;LINOLENOYL-RXN;R223-RXN;RXN-12184;RXN-12978;RXN-13290;RXN-13614;RXN-16380;RXN-16389;RXN-16393;RXN-16401;RXN-16402;RXN-16415;RXN-16418;RXN-7904;RXN-9623;RXN-9644;RXN-9673;RXN0-7238;RXN0-7239;RXN0-7248;RXN66-469;RXN66-477;RXN66-480;RXN66-483;RXN66-484;TRANS-RXN0-623
ASE07_11190	Unknown	RXN0-5131
ASE07_19425	cca	CYCPHOSDIESTER-RXN;RXN-14064;RXN-14091;RXN-14112;RXN-14113;TRNA-CYTIDYLYLTRANSFERASE-RXN
ASE07_13650	dnaE	DNA-DIRECTED-DNA-POLYMERASE-RXN
ASE07_05585	Unknown	GSHTRAN-RXN;GST-RXN;RXN-11663;RXN-13673;RXN-15680;RXN-18405;RXN-18407;RXNQT-4363
ASE07_25605	Unknown	RXN0-1133
ASE07_26860	Unknown	GLYOXIII-RXN
ASE07_00595	Unknown	METHYLCROTONYL-COA-CARBOXYLASE-RXN
ASE07_07310	fabG	3-OXOACYL-ACP-REDUCT-RXN;RXN-10060;RXN-10655;RXN-10659;RXN-11476;RXN-11480;RXN-13008;RXN-16616;RXN-16622;RXN-16626;RXN-16630;RXN-9514;RXN-9518;RXN-9524;RXN-9528;RXN-9532;RXN-9536;RXN-9540;RXN-9552;RXN-9556;RXN-9633;RXN0-2142;RXN1G-157;RXN1G-349;RXN1G-469;RXN1G-508
ASE07_03450	Unknown	3.2.2.21-RXN
ASE07_24355	Unknown	RXN0-5131
ASE07_07220	Unknown	RXN0-5100
ASE07_02935	Unknown	3.2.2.15-RXN
ASE07_00650	Unknown	RXN-14264;RXN0-2301
ASE07_09750	Unknown	GLYCOPHOSPHORYL-RXN;GLYMALTOPHOSPHORYL-RXN;RXN-12171;RXN-12392;RXN-14284;RXN-14285;RXN-14286;RXN-14353;RXN-1826;RXN-9025;RXN0-5182;RXN0-5184
ASE07_20225	Unknown	AMIDASE-RXN;GUANIDINOBUTANAMIDE-NH3-RXN;PYRAZIN-RXN;R311-RXN;RXN-14727;RXN-14728;RXN-17608;RXNN-404
ASE07_19370	Unknown	DIAMINOPIMEPIM-RXN
ASE07_20405	Unknown	ACYLCOADEHYDROG-RXN;RXN-17775;RXN-17779;RXN-17783;RXN-17784;RXN-17788;RXN-17792;RXN-17796
ASE07_00900	Unknown	RXN0-4261
ASE07_24360	Unknown	KETOACYLCOATHIOL-RXN;RXN-10699;RXN-10700;RXN-10701;RXN-11246;RXN-12565;RXN-12710;RXN-13617;RXN-14268;RXN-14274;RXN-14277;RXN-14394;RXN-14774;RXN-14788;RXN-14793;RXN-14799;RXN-14803;RXN-16137;RXN-17116;RXN-17778;RXN-17782;RXN-17787;RXN-17791;RXN-17795;RXN-17799;RXN-3641
ASE07_10945	Unknown	RXN1A0-6303
ASE07_12185	Unknown	NICONUCADENYLYLTRAN-RXN
ASE07_03935	Unknown	1.5.5.1-RXN;RXN66-550
ASE07_01030	Unknown	ATPSYN-RXN
ASE07_01140	putA	PYRROLINECARBDEHYDROG-RXN;RXN-14116;RXN-14903;RXN0-7008
ASE07_06030	Unknown	RXN0-1441
ASE07_26120	Unknown	RXN0-4261
ASE07_27460	Unknown	3-OXOACYL-ACP-REDUCT-RXN
ASE07_26360	Unknown	RXN0-4261
ASE07_05180	Unknown	2-AMINOADIPATE-AMINOTRANSFERASE-RXN
ASE07_03335	Unknown	RIBOFLAVIN-SYN-RXN
ASE07_07510	Unknown	ENOYL-COA-HYDRAT-RXN;METHYLACYLYLCOA-HYDROXY-RXN;RXN-10697;RXN-10704;RXN-10705;RXN-11244;RXN-12567;RXN-13616;RXN-14266;RXN-14272;RXN-14273;RXN-16135;RXN-16558;RXN-17114;RXN-17475;RXN-17776;RXN-17780;RXN-17785;RXN-17789;RXN-17793;RXN-17797;RXN-2425;RXN0-5393;TIGLYLCOA-HYDROXY-RXN
ASE07_07390	Unknown	3.2.1.52-RXN;RXN-12625;RXN-12626;RXN-18082;RXN0-5226
ASE07_19795	Unknown	PEPTIDYLPROLYL-ISOMERASE-RXN
ASE07_00570	Unknown	DETHIOBIOTIN-SYN-RXN
ASE07_18175	Unknown	RXN0-4361
ASE07_03465	Unknown	PEPTIDYLPROLYL-ISOMERASE-RXN
ASE07_07260	Unknown	2-HALOACID-DEHALOGENASE-RXN;3.8.1.11-RXN;RXN-6263;RXN-6264
ASE07_21395	Unknown	1.1.1.34-RXN
ASE07_08130	Unknown	GSHTRAN-RXN;GST-RXN;RXN-11663;RXN-13673;RXN-15680;RXN-18405;RXN-18407;RXNQT-4363
ASE07_04290	Unknown	RXN0-2382;TRYPSYN-RXN
ASE07_25905	Unknown	RXN-10837;RXN-9382
ASE07_10920	Unknown	ACETOACETATE--COA-LIGASE-RXN
ASE07_16780	Unknown	ACYLCOASYN-RXN;LINOLENOYL-RXN;R223-RXN;RXN-12184;RXN-12978;RXN-13290;RXN-13614;RXN-16380;RXN-16389;RXN-16393;RXN-16401;RXN-16402;RXN-16415;RXN-16418;RXN-7904;RXN-9623;RXN-9644;RXN-9673;RXN0-7238;RXN0-7239;RXN0-7248;RXN66-469;RXN66-477;RXN66-480;RXN66-483;RXN66-484;TRANS-RXN0-623
ASE07_15635	Unknown	HISTONE-ACETYLTRANSFERASE-RXN
ASE07_16735	Unknown	2.7.13.3-RXN
ASE07_19720	Unknown	RXN0-4261
ASE07_09160	Unknown	3.1.1.64-RXN;CARBOXYLESTERASE-RXN;RETINYL-PALMITATE-ESTERASE-RXN;RXN-10711;RXN-10767;RXN-12252;RXN-12575;RXNQT-4366
ASE07_15185	Unknown	DGTPTRIPHYDRO-RXN
ASE07_15475	Unknown	3-OCTAPRENYL-4-OHBENZOATE-DECARBOX-RXN
ASE07_13615	Unknown	CARBOXYMETHYLENEBUTENOLIDASE-RXN;DIENELACHYDRO-RXN;RXN-9857;RXN-9868;RXN-9887;RXN-9890
ASE07_17200	Unknown	URACIL-PRIBOSYLTRANS-RXN
ASE07_24705	Unknown	ACETALD-DEHYDROG-RXN;RXN-13671
ASE07_23940	Unknown	CITRYLY-RXN;RXN-7929
ASE07_10185	Unknown	ACYLCOADEHYDROG-RXN;RXN-17775;RXN-17779;RXN-17783;RXN-17784;RXN-17788;RXN-17792;RXN-17796
ASE07_13560	Unknown	ASPCARBTRANS-RXN
ASE07_04045	Unknown	2.7.7.8-RXN
ASE07_20550	Unknown	AMIDASE-RXN;GUANIDINOBUTANAMIDE-NH3-RXN;PYRAZIN-RXN;R311-RXN;RXN-14727;RXN-14728;RXN-17608;RXNN-404
ASE07_01465	Unknown	DNA-DIRECTED-DNA-POLYMERASE-RXN
ASE07_15900	ipk	2.7.1.148-RXN
ASE07_15955	Unknown	RXN0-4022
ASE07_15055	Unknown	DNA-DIRECTED-RNA-POLYMERASE-RXN
ASE07_14335	Unknown	BRANCHED-CHAINAMINOTRANSFERILEU-RXN;BRANCHED-CHAINAMINOTRANSFERLEU-RXN;BRANCHED-CHAINAMINOTRANSFERVAL-RXN
ASE07_15390	Unknown	HISTCYCLOHYD-RXN
ASE07_16320	Unknown	QUINOLINATE-SYNTHA-RXN
ASE07_18820	Unknown	RXN0-5289;TSA-REDUCT-RXN
ASE07_02005	Unknown	2.1.1.44-RXN;RXN-14431;RXN-14437;RXN-14438
ASE07_12840	Unknown	AMIDASE-RXN;GUANIDINOBUTANAMIDE-NH3-RXN;PYRAZIN-RXN;R311-RXN;RXN-14727;RXN-14728;RXN-17608;RXNN-404
ASE07_25585	Unknown	PRODISULFREDUCT-RXN;RXN0-7271
ASE07_12500	Unknown	SUCCINATE-SEMIALDEHYDE-DEHYDROGENASE-RXN
ASE07_16215	Unknown	NACGLCTRANS-RXN;RXN-8976
ASE07_24425	Unknown	ACYLCOADEHYDROG-RXN;RXN-17775;RXN-17779;RXN-17783;RXN-17784;RXN-17788;RXN-17792;RXN-17796
ASE07_02085	Unknown	LYSDECARBOX-RXN
ASE07_12050	Unknown	1.2.7.5-RXN
ASE07_17210	Unknown	DIHYDROOROT-RXN
ASE07_17100	Unknown	RXN0-2361;RXN0-7022
ASE07_15585	Unknown	ANTHRANSYN-RXN
ASE07_01295	Unknown	HYDROXY-MANDELATE-RACEMASE-RXN;MANDELATE-RACEMASE-RXN
ASE07_25850	Unknown	RXN0-2621
ASE07_06105	Unknown	ISOCITDEH-RXN;RXN-8642;RXN-9951
ASE07_14710	Unknown	THI-P-KIN-RXN
ASE07_18555	Unknown	RXN-12610;RXN-12611;THI-P-SYN-RXN
ASE07_11415	Unknown	RXN-11740
ASE07_09725	Unknown	RXN0-5268
ASE07_23395	Unknown	2.7.13.3-RXN
ASE07_22470	Unknown	ENOYL-COA-HYDRAT-RXN;METHYLACYLYLCOA-HYDROXY-RXN;RXN-10697;RXN-10704;RXN-10705;RXN-11244;RXN-12567;RXN-13616;RXN-14266;RXN-14272;RXN-14273;RXN-16135;RXN-16558;RXN-17114;RXN-17475;RXN-17776;RXN-17780;RXN-17785;RXN-17789;RXN-17793;RXN-17797;RXN-2425;RXN0-5393;TIGLYLCOA-HYDROXY-RXN
ASE07_26865	Unknown	MALEYLACETOACETATE-ISOMERASE-RXN
ASE07_17230	Unknown	DTDPGLUCOSEPP-RXN
ASE07_24130	Unknown	DTDPGLUCOSEPP-RXN
ASE07_04550	Unknown	RXN0-7023
ASE07_20095	Unknown	2-NITROPROPANE-DIOXYGENASE-RXN;RXN-16322
ASE07_07450	gcvT	GCVT-RXN
ASE07_13270	Unknown	RXN-6883;RXN0-5266
ASE07_15265	Unknown	2.7.13.3-RXN
ASE07_02475	Unknown	R345-RXN
ASE07_05130	Unknown	RXN-11135
ASE07_15680	Unknown	RXN-12093
ASE07_01900	Unknown	FUMARYLACETOACETASE-RXN
ASE07_03535	Unknown	RXN0-5462
ASE07_03625	Unknown	RXN0-4261
ASE07_15080	Unknown	1.6.4.4-RXN
ASE07_25075	Unknown	ACYLCOASYN-RXN;LINOLENOYL-RXN;R223-RXN;RXN-12184;RXN-12702;RXN-12746;RXN-12978;RXN-13290;RXN-13614;RXN-16380;RXN-16389;RXN-16393;RXN-16401;RXN-16402;RXN-16415;RXN-16418;RXN-7904;RXN-9623;RXN-9644;RXN-9673;RXN0-7238;RXN0-7239;RXN0-7248;RXN66-469;RXN66-477;RXN66-480;RXN66-483;RXN66-484;TRANS-RXN0-623
ASE07_24095	Unknown	DNA-DIRECTED-DNA-POLYMERASE-RXN
ASE07_16775	Unknown	GLUCONATE-5-DEHYDROGENASE-RXN
ASE07_04650	Unknown	GLUTCYSLIG-RXN
ASE07_23050	Unknown	PSERPHOSPHA-RXN;RXN0-5114
ASE07_03325	Unknown	LUMAZINESYN-RXN
ASE07_22905	Unknown	ACYLCOADEHYDROG-RXN;RXN-17775;RXN-17779;RXN-17783;RXN-17784;RXN-17788;RXN-17792;RXN-17796
ASE07_20090	Unknown	ENOYL-COA-HYDRAT-RXN;METHYLACYLYLCOA-HYDROXY-RXN;RXN-10697;RXN-10704;RXN-10705;RXN-11244;RXN-12567;RXN-13616;RXN-14266;RXN-14272;RXN-14273;RXN-16135;RXN-16558;RXN-17114;RXN-17475;RXN-17776;RXN-17780;RXN-17785;RXN-17789;RXN-17793;RXN-17797;RXN-2425;RXN0-5393;TIGLYLCOA-HYDROXY-RXN
ASE07_25085	Unknown	ACETYL-COA-ACETYLTRANSFER-RXN;METHYLACETOACETYLCOATHIOL-RXN;RXN-12561
ASE07_08315	Unknown	ACYLCOADEHYDROG-RXN;RXN-17775;RXN-17779;RXN-17783;RXN-17784;RXN-17788;RXN-17792;RXN-17796
ASE07_23195	Unknown	RXNN-386
ASE07_04665	Unknown	GSHTRAN-RXN;GST-RXN;RXN-11663;RXN-13673;RXN-15680;RXN-18405;RXN-18407;RXNQT-4363
ASE07_16595	Unknown	CDPDIGLYSYN-RXN
ASE07_04585	Unknown	GLUTRACE-RXN
ASE07_24715	Unknown	4.1.1.77-RXN
ASE07_03575	Unknown	CDPKIN-RXN;DADPKIN-RXN;DCDPKIN-RXN;DGDPKIN-RXN;DTDPKIN-RXN;DUDPKIN-RXN;GDPKIN-RXN;NUCLEOSIDE-DIP-KIN-RXN;RXN-14120;RXN-14228;UDPKIN-RXN
ASE07_17070	Unknown	RXN0-5419
ASE07_11300	Unknown	PROTEIN-KINASE-RXN
ASE07_15100	Unknown	PORPHOBILSYNTH-RXN
ASE07_06055	Unknown	RXN-9615
ASE07_15220	Unknown	PHENYLPCARB-RXN
ASE07_02865	Unknown	2-AMINOADIPATE-AMINOTRANSFERASE-RXN
ASE07_06075	Unknown	RXN1A0-6303
ASE07_06860	Unknown	ACYLCOADEHYDROG-RXN;RXN-17775;RXN-17779;RXN-17783;RXN-17784;RXN-17788;RXN-17792;RXN-17796
ASE07_04060	Unknown	2-ISOPROPYLMALATESYN-RXN
ASE07_04915	Unknown	2.7.3.9-RXN;RXN-17354;RXN-17355
ASE07_24710	Unknown	MHPELY-RXN
ASE07_11980	Unknown	HISTIDINE-AMMONIA-LYASE-RXN
ASE07_15365	Unknown	HISTAMINOTRANS-RXN
ASE07_14815	Unknown	RXN0-4261
ASE07_25215	Unknown	RXN-982
ASE07_08670	Unknown	ACETYL-COA-ACETYLTRANSFER-RXN;METHYLACETOACETYLCOATHIOL-RXN;RXN-12561
ASE07_20575	Unknown	5.99.1.2-RXN
ASE07_02700	glnA	GLUTAMINESYN-RXN
ASE07_25725	Unknown	KDO-8PSYNTH-RXN
ASE07_07500	Unknown	KANAMYCIN-KINASE-RXN
ASE07_21850	Unknown	1.3.1.62-RXN
ASE07_16695	Unknown	SUCCDIAMINOPIMDESUCC-RXN
ASE07_12320	Unknown	ACYLCOADEHYDROG-RXN;RXN-17775;RXN-17779;RXN-17783;RXN-17784;RXN-17788;RXN-17792;RXN-17796
ASE07_17225	Unknown	DTDPGLUCDEHYDRAT-RXN
ASE07_18560	Unknown	OHMETPYRKIN-RXN;PYRIMSYN3-RXN
ASE07_25695	glyA	GLYOHMETRANS-RXN;RXN0-5234
ASE07_25235	Unknown	GLYOXIII-RXN
ASE07_08915	Unknown	3-ISOPROPYLMALISOM-RXN;RXN-13163;RXN-8991
ASE07_04310	Unknown	ASPARTATE-SEMIALDEHYDE-DEHYDROGENASE-RXN
ASE07_15285	Unknown	RXN0-5131
ASE07_24260	Unknown	6-HYDROXYNICOTINATE-REDUCTASE-RXN
ASE07_11965	Unknown	ALLANTOINASE-RXN
ASE07_06990	Unknown	ALANINE--TRNA-LIGASE-RXN
ASE07_06890	Unknown	FUMHYDR-RXN
ASE07_18625	Unknown	GLUC1PURIDYLTRANS-RXN
ASE07_20765	Unknown	GSHTRAN-RXN;GST-RXN;RXN-11663;RXN-13673;RXN-15680;RXN-18405;RXN-18407;RXNQT-4363
ASE07_27505	Unknown	R4-RXN
ASE07_25330	Unknown	RXN0-5131
ASE07_26550	fadH	DIENOYLCOAREDUCT-RXN;RXN-12521;RXN-14715;RXN-14776;RXN-14790;RXN-7835;RXN-7911
ASE07_24840	Unknown	ACYLCOASYN-RXN;LINOLENOYL-RXN;R223-RXN;RXN-12184;RXN-12702;RXN-12746;RXN-12978;RXN-13290;RXN-13614;RXN-16380;RXN-16389;RXN-16393;RXN-16401;RXN-16402;RXN-16415;RXN-16418;RXN-7904;RXN-9623;RXN-9644;RXN-9673;RXN0-7238;RXN0-7239;RXN0-7248;RXN66-469;RXN66-477;RXN66-480;RXN66-483;RXN66-484;TRANS-RXN0-623
ASE07_03905	Unknown	3-HYDROXYBUTYRATE-DEHYDROGENASE-RXN
ASE07_06965	Unknown	ACYLCOADEHYDROG-RXN;RXN-17775;RXN-17779;RXN-17783;RXN-17784;RXN-17788;RXN-17792;RXN-17796
ASE07_10055	Unknown	BIOTIN-CARBOXYL-RXN;RXN0-5055
ASE07_09010	Unknown	RXN0-5131
ASE07_21635	Unknown	DUTP-PYROP-RXN
ASE07_18855	Unknown	OROPRIBTRANS-RXN
ASE07_14360	Unknown	F16ALDOLASE-RXN;RXN-10053;RXN-8631
ASE07_10625	Unknown	2.7.13.3-RXN
ASE07_02930	Unknown	GLUCOSE-1-DEHYDROGENASE-RXN
ASE07_03910	Unknown	RXNI-2
ASE07_04320	Unknown	3-ISOPROPYLMALISOM-RXN;RXN-13163;RXN-8991
ASE07_16840	glpK	GLYCEROL-KIN-RXN
ASE07_07585	Unknown	PSERPHOSPHA-RXN;RXN0-5114
ASE07_16050	Unknown	RXN-19040;RXN0-6359;THIOSULFATE-SULFURTRANSFERASE-RXN
ASE07_15380	Unknown	PRIBFAICARPISOM-RXN
ASE07_07245	Unknown	3.1.26.12-RXN;RXN0-6478;RXN0-6485;RXN0-6521;RXN0-6522;RXN0-6523
ASE07_23040	Unknown	AIRS-RXN
ASE07_07810	lldD	L-LACTATE-DEHYDROGENASE-CYTOCHROME-RXN
ASE07_03175	Unknown	RXN-17131;RXN-17132;RXN-17133
ASE07_20270	Unknown	ACETALD-DEHYDROG-RXN;RXN-13671
ASE07_19775	Unknown	MYO-INOSITOL-1OR-4-MONOPHOSPHATASE-RXN;RXN-7253;RXN0-5408
ASE07_22600	Unknown	2.7.13.3-RXN
ASE07_09965	Unknown	FORMAMIDASE-RXN
ASE07_20155	Unknown	MERCURY-II-REDUCTASE-RXN
ASE07_21375	Unknown	ACETYL-COA-ACETYLTRANSFER-RXN;METHYLACETOACETYLCOATHIOL-RXN;RXN-12561
ASE07_14900	Unknown	DIHYDROXYISOVALDEHYDRAT-RXN;DIHYDROXYMETVALDEHYDRAT-RXN
ASE07_19815	Unknown	GLYOXIII-RXN
ASE07_14535	Unknown	2.5.1.19-RXN
ASE07_16495	Unknown	IMP-DEHYDROG-RXN
ASE07_23730	Unknown	ACETALD-DEHYDROG-RXN;RXN-13671
ASE07_20260	Unknown	3.7.1.8-RXN
ASE07_25985	Unknown	ACYLCOADEHYDROG-RXN;RXN-17775;RXN-17779;RXN-17783;RXN-17784;RXN-17788;RXN-17792;RXN-17796
ASE07_10420	Unknown	R4-RXN
ASE07_12230	Unknown	METHGLYSYN-RXN
ASE07_18610	Unknown	RXN0-4261
ASE07_12650	Unknown	5.3.3.10-RXN
ASE07_02510	Unknown	BTUR2-RXN;COBALADENOSYLTRANS-RXN;R344-RXN
ASE07_18605	Unknown	RXN0-4261
ASE07_09870	Unknown	4-CARBOXYMUCONOLACTONE-DECARBOXYLASE-RXN
ASE07_19020	Unknown	RXN-8643;TARTRATE-DEHYDROGENASE-RXN
ASE07_19825	Unknown	RXN-982
ASE07_01905	Unknown	HOMOGENTISATE-12-DIOXYGENASE-RXN
ASE07_08035	Unknown	ACETYL-COA-ACETYLTRANSFER-RXN;METHYLACETOACETYLCOATHIOL-RXN;RXN-12561
ASE07_04935	Unknown	GLUTCYSLIG-RXN
ASE07_19620	Unknown	ISOCIT-CLEAV-RXN
ASE07_09795	Unknown	3-OXOADIPATE-COA-TRANSFERASE-RXN;RXN-10085
ASE07_21920	Unknown	R4-RXN
ASE07_20175	Unknown	SUCCINATE-SEMIALDEHYDE-DEHYDROGENASE-RXN
ASE07_03555	ispG	RXN0-882
ASE07_08425	Unknown	ACYLCOASYN-RXN;LINOLENOYL-RXN;R223-RXN;RXN-12184;RXN-12978;RXN-13290;RXN-13614;RXN-16380;RXN-16389;RXN-16393;RXN-16401;RXN-16402;RXN-16415;RXN-16418;RXN-7904;RXN-9623;RXN-9644;RXN-9673;RXN0-7238;RXN0-7239;RXN0-7248;RXN66-469;RXN66-477;RXN66-480;RXN66-483;RXN66-484;TRANS-RXN0-623
ASE07_02775	Unknown	DAHPSYN-RXN
ASE07_25730	pyrG	CTPSYN-RXN;GLUTAMIN-RXN;RXN-14325
ASE07_05555	Unknown	PMPOXI-RXN;PNPOXI-RXN
ASE07_14350	Unknown	PHOSGLYPHOS-RXN
ASE07_12325	Unknown	ACYLCOASYN-RXN;LINOLENOYL-RXN;R223-RXN;RXN-12184;RXN-12702;RXN-12746;RXN-12978;RXN-13290;RXN-13614;RXN-16380;RXN-16389;RXN-16393;RXN-16401;RXN-16402;RXN-16415;RXN-16418;RXN-7904;RXN-9623;RXN-9644;RXN-9673;RXN0-7238;RXN0-7239;RXN0-7248;RXN66-469;RXN66-477;RXN66-480;RXN66-483;RXN66-484;TRANS-RXN0-623
ASE07_21020	Unknown	MALSYN-RXN
ASE07_20030	Unknown	ENOYL-COA-HYDRAT-RXN;METHYLACYLYLCOA-HYDROXY-RXN;RXN-10697;RXN-10704;RXN-10705;RXN-11244;RXN-12567;RXN-13616;RXN-14266;RXN-14272;RXN-14273;RXN-16135;RXN-16558;RXN-17114;RXN-17475;RXN-17776;RXN-17780;RXN-17785;RXN-17789;RXN-17793;RXN-17797;RXN-2425;RXN0-5393;TIGLYLCOA-HYDROXY-RXN
ASE07_10685	Unknown	CYTOCHROME-C-OXIDASE-RXN;RXN-15830
ASE07_15870	Unknown	LYSOPHOSPHOLIPASE-RXN;RXN-15035;RXN-19312
ASE07_09730	Unknown	RXN0-5268
ASE07_26325	Unknown	2.1.1.77-RXN
ASE07_25410	Unknown	RXN0-5462
ASE07_03550	Unknown	HISTIDINE--TRNA-LIGASE-RXN
ASE07_14280	Unknown	RXN-17956;RXN0-6734
ASE07_03785	Unknown	2.7.13.3-RXN
ASE07_12920	Unknown	ACYLCOASYN-RXN;LINOLENOYL-RXN;R223-RXN;RXN-12184;RXN-12978;RXN-13290;RXN-13614;RXN-16380;RXN-16389;RXN-16393;RXN-16401;RXN-16402;RXN-16415;RXN-16418;RXN-7904;RXN-9623;RXN-9644;RXN-9673;RXN0-7238;RXN0-7239;RXN0-7248;RXN66-469;RXN66-477;RXN66-480;RXN66-483;RXN66-484;TRANS-RXN0-623
ASE07_24325	Unknown	4-CARBOXYMUCONOLACTONE-DECARBOXYLASE-RXN
ASE07_23055	Unknown	POLYNUCLEOTIDE-ADENYLYLTRANSFERASE-RXN
ASE07_08605	Unknown	4-CARBOXYMUCONOLACTONE-DECARBOXYLASE-RXN
ASE07_18310	Unknown	AICARSYN-RXN;AMPSYN-RXN
ASE07_15345	Unknown	UDPNACETYLGLUCOSAMENOLPYRTRANS-RXN
ASE07_23220	Unknown	TRNA-GUANINE-N7--METHYLTRANSFERASE-RXN
ASE07_14705	Unknown	PGPPHOSPHA-RXN;RXN-13313
ASE07_18370	Unknown	RXN0-4261
ASE07_03975	Unknown	1.6.99.5-RXN;NADH-DEHYDROGENASE-QUINONE-RXN
ASE07_04075	Unknown	ACETOLACTREDUCTOISOM-RXN;ACETOOHBUTREDUCTOISOM-RXN
ASE07_03570	Unknown	RXN-11586
ASE07_17835	Unknown	RXN0-5131
ASE07_04455	Unknown	PROTEIN-KINASE-RXN
ASE07_17235	Unknown	DTDPDEHYDRHAMEPIM-RXN
ASE07_12015	Unknown	1.2.7.8-RXN
ASE07_07300	Unknown	2.3.1.180-RXN
ASE07_07455	Unknown	RXN-14950;RXN-14957;RXN-14959;RXN0-949
ASE07_18630	purH	AICARTRANSFORM-RXN;IMPCYCLOHYDROLASE-RXN
ASE07_19865	Unknown	RXN-14569
ASE07_12085	Unknown	ALKANE-1-MONOOXYGENASE-RXN
ASE07_17575	Unknown	MALTODEXGLUCOSID-RXN;RXN-14281;RXN-14282;RXN-14283;RXN-15910;RXN0-5183
ASE07_24700	Unknown	2-OXOPENT-4-ENOATE-HYDRATASE-RXN;RXN-10381
ASE07_22980	sucC	SUCCCOASYN-RXN
ASE07_14075	Unknown	GLYOCARBOLIG-RXN
ASE07_06580	Unknown	GAMMA-GLUTAMYLTRANSFERASE-RXN;RXN-18092;RXN-6601;RXN-9157;RXN66-336
ASE07_18360	Unknown	QUEUOSINE-TRNA-RIBOSYLTRANSFERASE-RXN;RXN0-1321
ASE07_15920	Unknown	RXN0-5462
ASE07_18785	Unknown	ACYLCOASYN-RXN;LINOLENOYL-RXN;R223-RXN;RXN-12184;RXN-12978;RXN-13290;RXN-13614;RXN-16380;RXN-16389;RXN-16393;RXN-16401;RXN-16402;RXN-16415;RXN-16418;RXN-7904;RXN-9623;RXN-9644;RXN-9673;RXN0-7238;RXN0-7239;RXN0-7248;RXN66-469;RXN66-477;RXN66-480;RXN66-483;RXN66-484;TRANS-RXN0-623
ASE07_25325	Unknown	RXN0-5131
ASE07_24685	Unknown	CATECHOL-2-3-DIOXYGENASE-RXN;CATECHOL-23-DIOXYGENASE-RXN;RXN-11218;RXN-11219;RXN-13704
ASE07_16345	Unknown	DIHYDROXYISOVALDEHYDRAT-RXN;DIHYDROXYMETVALDEHYDRAT-RXN
ASE07_10265	Unknown	ACETYL-COA-ACETYLTRANSFER-RXN;METHYLACETOACETYLCOATHIOL-RXN;RXN-12561
ASE07_13255	Unknown	2.7.13.3-RXN
ASE07_25425	Unknown	MCPMETEST-RXN
ASE07_02595	Unknown	1.8.4.8-RXN
ASE07_19495	Unknown	ADDALT-RXN;ADENODEAMIN-RXN
ASE07_07885	Unknown	2.7.9.3-RXN
ASE07_17085	Unknown	3-DEHYDROQUINATE-DEHYDRATASE-RXN
ASE07_02450	Unknown	R341-RXN;RXN-14256;RXN-14257;RXN-8769
ASE07_26530	Unknown	ACYLCOADEHYDROG-RXN;RXN-17775;RXN-17779;RXN-17783;RXN-17784;RXN-17788;RXN-17792;RXN-17796
ASE07_16265	Unknown	L-ASPARTATE-OXID-RXN;RXN-9772
ASE07_17815	Unknown	2-HALOACID-DEHALOGENASE-RXN;3.8.1.11-RXN;RXN-6263;RXN-6264
ASE07_08385	Unknown	ACYLCOADEHYDROG-RXN;RXN-17775;RXN-17779;RXN-17783;RXN-17784;RXN-17788;RXN-17792;RXN-17796
ASE07_18780	Unknown	ALKAPHOSPHA-RXN;RXN-5822;RXN-8748
ASE07_16335	Unknown	DEHYDDEOXPHOSGALACT-ALDOL-RXN
ASE07_01800	Unknown	RXN-12560;RXN-13279;RXN-5901
ASE07_18410	Unknown	PYRROLINECARBREDUCT-RXN;RXN66-546
ASE07_09830	Unknown	4.2.1.107-RXN;RXN-9847
ASE07_07565	rimO	RXN0-6366
ASE07_08390	Unknown	ACETYL-COA-ACETYLTRANSFER-RXN;METHYLACETOACETYLCOATHIOL-RXN;RXN-12561
ASE07_26540	Unknown	THIOPURINE-S-METHYLTRANSFERASE-RXN
ASE07_16970	Unknown	RXN0-5510
ASE07_08975	Unknown	FMNREDUCT-RXN;NADPH-DEHYDROGENASE-FLAVIN-RXN;RXN-12444
ASE07_17090	Unknown	R4-RXN
ASE07_26660	Unknown	RXN-8529
ASE07_21685	gapA	GAPOXNPHOSPHN-RXN
ASE07_19455	Unknown	ADENYLYLSULFKIN-RXN
ASE07_01000	Unknown	POLYPHOSPHATE-KINASE-RXN
ASE07_00590	Unknown	ENOYL-COA-HYDRAT-RXN;METHYLACYLYLCOA-HYDROXY-RXN;RXN-10697;RXN-10704;RXN-10705;RXN-11244;RXN-12567;RXN-13616;RXN-14266;RXN-14272;RXN-14273;RXN-16135;RXN-16558;RXN-17114;RXN-17475;RXN-17776;RXN-17780;RXN-17785;RXN-17789;RXN-17793;RXN-17797;RXN-2425;RXN0-5393;TIGLYLCOA-HYDROXY-RXN
ASE07_16315	Unknown	QUINOPRIBOTRANS-RXN
ASE07_14130	Unknown	ACYLCOADEHYDROG-RXN;RXN-17775;RXN-17779;RXN-17783;RXN-17784;RXN-17788;RXN-17792;RXN-17796
ASE07_14490	Unknown	GPH-RXN
ASE07_01920	Unknown	RXN0-4961
ASE07_16245	Unknown	1.11.1.15-RXN;RXN0-5468
ASE07_05925	Unknown	RXN0-4961
ASE07_12280	Unknown	RXN0-5131
ASE07_01010	Unknown	ATPSYN-RXN
ASE07_16485	guaA	GLUTAMIN-RXN;GMP-SYN-GLUT-RXN;GMP-SYN-NH3-RXN
ASE07_08420	fadH	DIENOYLCOAREDUCT-RXN;RXN-12521;RXN-14715;RXN-14776;RXN-14790;RXN-7835;RXN-7911
ASE07_24395	Unknown	ACETYL-COA-ACETYLTRANSFER-RXN;METHYLACETOACETYLCOATHIOL-RXN;RXN-12561
ASE07_21030	Unknown	4-HYDROXYPHENYLPYRUVATE-DIOXYGENASE-RXN;RXN-10815
ASE07_11530	Unknown	ENOYL-COA-HYDRAT-RXN;METHYLACYLYLCOA-HYDROXY-RXN;RXN-10697;RXN-10704;RXN-10705;RXN-11244;RXN-12567;RXN-13616;RXN-14266;RXN-14272;RXN-14273;RXN-16135;RXN-16558;RXN-17114;RXN-17475;RXN-17776;RXN-17780;RXN-17785;RXN-17789;RXN-17793;RXN-17797;RXN-2425;RXN0-5393;TIGLYLCOA-HYDROXY-RXN
ASE07_15645	Unknown	RXN-13907;RXN-14206;RXN66-569
ASE07_23300	Unknown	1.18.1.2-RXN
ASE07_21680	Unknown	1TRANSKETO-RXN;2TRANSKETO-RXN
ASE07_24550	Unknown	RXN0-5131
ASE07_06605	Unknown	CPM-KDOSYNTH-RXN
ASE07_25010	Unknown	ACYLCOADEHYDROG-RXN;RXN-17775;RXN-17779;RXN-17783;RXN-17784;RXN-17788;RXN-17792;RXN-17796
ASE07_22125	Unknown	RXN-17884;RXN-2962
ASE07_00690	argS	ARGININE--TRNA-LIGASE-RXN
ASE07_00560	Unknown	METHYLCROTONYL-COA-CARBOXYLASE-RXN
ASE07_17145	Unknown	GSAAMINOTRANS-RXN
ASE07_03955	Unknown	1.6.99.5-RXN;NADH-DEHYDROGENASE-QUINONE-RXN
ASE07_14715	Unknown	RUBREDOXIN--NAD+-REDUCTASE-RXN
ASE07_01240	Unknown	2.7.13.3-RXN
ASE07_11880	Unknown	ATPASE-RXN
ASE07_16845	Unknown	UDPACYLGLCNACDEACETYL-RXN
ASE07_05910	Unknown	DAHPSYN-RXN
ASE07_09580	gudD	GLUCARDEHYDRA-RXN
ASE07_07950	Unknown	PGLYCDEHYDROG-RXN
ASE07_23145	Unknown	RXN-14014
ASE07_20960	Unknown	RXN-9387;RXN-9781
ASE07_02125	Unknown	ACID-PHOSPHATASE-RXN;RXN-5822
ASE07_05280	Unknown	HOMOCYSMET-RXN;HOMOCYSMETB12-RXN
ASE07_27435	Unknown	UDPGLUCEPIM-RXN
ASE07_05345	Unknown	ADDALT-RXN;ADENODEAMIN-RXN
ASE07_02600	Unknown	RXN-12720;SULFATE-ADENYLYLTRANS-RXN
ASE07_15370	Unknown	IMIDPHOSDEHYD-RXN
ASE07_12970	Unknown	AMIDASE-RXN;GUANIDINOBUTANAMIDE-NH3-RXN;PYRAZIN-RXN;R311-RXN;RXN-14727;RXN-14728;RXN-17608;RXNN-404
ASE07_25620	argD	ACETYLORNTRANSAM-RXN;RXN-15007
ASE07_21640	Unknown	RXN-11781
ASE07_19585	Unknown	PPGPPSYN-RXN
ASE07_10195	Unknown	QOR-RXN
ASE07_18660	Unknown	TYROSINE--TRNA-LIGASE-RXN
ASE07_05210	Unknown	LYSOPHOSPHOLIPASE-RXN;RXN-15035;RXN-19312
ASE07_17345	Unknown	GALPMUT-RXN
ASE07_02155	Unknown	RIB5PISOM-RXN
ASE07_19855	Unknown	TRYPTOPHAN--TRNA-LIGASE-RXN
ASE07_24795	Unknown	ACYLCOADEHYDROG-RXN;RXN-17775;RXN-17779;RXN-17783;RXN-17784;RXN-17788;RXN-17792;RXN-17796
ASE07_19395	Unknown	ADENOSYLHOMOCYSTEINASE-RXN
ASE07_00345	Unknown	RXN-16427;RXN-16456;RXN0-262
ASE07_12600	Unknown	RXN-11453
ASE07_24385	Unknown	ACYLCOADEHYDROG-RXN;RXN-17775;RXN-17779;RXN-17783;RXN-17784;RXN-17788;RXN-17792;RXN-17796
ASE07_13585	Unknown	RXN-13418;RXN-15341;RXN0-280;RXN0-6973
ASE07_19580	Unknown	DNA-DIRECTED-RNA-POLYMERASE-RXN
ASE07_03340	Unknown	RIBOFLAVINSYNDEAM-RXN
ASE07_00975	Unknown	GSHTRAN-RXN;GST-RXN;RXN-11663;RXN-13673;RXN-15680;RXN-18405;RXN-18407;RXNQT-4363
ASE07_17560	Unknown	GLYCOGEN-BRANCH-RXN;RXN-14371;RXN-14372;RXN-18777;RXN-7669;RXN-7710
ASE07_23515	Unknown	PRODISULFREDUCT-RXN;RXN0-7271
ASE07_25920	tmk	DTMPKI-RXN
ASE07_22810	Unknown	3-ISOPROPYLMALISOM-RXN;RXN-13163;RXN-8991
ASE07_00640	Unknown	4.3.1.17-RXN;RXN-15125
ASE07_08815	Unknown	GCVT-RXN
ASE07_04010	Unknown	1.6.99.5-RXN;NADH-DEHYDROGENASE-QUINONE-RXN
ASE07_13070	Unknown	RXN-12263;RXN-13162;RXN-13724;RXN66-281
ASE07_18865	gatB	6.3.5.7-RXN
ASE07_06820	Unknown	RXN0-5268
ASE07_11250	Unknown	ETHAMLY-RXN
ASE07_18520	Unknown	DNA-DIRECTED-DNA-POLYMERASE-RXN
ASE07_15350	hisG	ATPPHOSPHORIBOSYLTRANS-RXN
ASE07_16770	Unknown	GLYOXIII-RXN
ASE07_27385	Unknown	RXN0-5131
ASE07_01820	Unknown	RXN-8665
ASE07_03295	Unknown	DNA-DIRECTED-DNA-POLYMERASE-RXN
ASE07_08015	Unknown	ACYLCOASYN-RXN;LINOLENOYL-RXN;R223-RXN;RXN-12184;RXN-12978;RXN-13290;RXN-13614;RXN-16380;RXN-16389;RXN-16393;RXN-16401;RXN-16402;RXN-16415;RXN-16418;RXN-7904;RXN-9623;RXN-9644;RXN-9673;RXN0-7238;RXN0-7239;RXN0-7248;RXN66-469;RXN66-477;RXN66-480;RXN66-483;RXN66-484;TRANS-RXN0-623
ASE07_02305	Unknown	2.7.13.3-RXN
ASE07_05440	Unknown	GSHTRAN-RXN;GST-RXN;RXN-11663;RXN-13673;RXN-15680;RXN-18405;RXN-18407;RXNQT-4363
ASE07_08960	Unknown	DNA-DIRECTED-DNA-POLYMERASE-RXN
ASE07_15540	Unknown	NQOR-RXN;RXN-12303
ASE07_10665	Unknown	CYTOCHROME-C-OXIDASE-RXN;RXN-15830
ASE07_01120	Unknown	1.2.1.27-RXN;RXN-11213;RXN-2902
ASE07_23770	Unknown	RXN-665
ASE07_21465	Unknown	2.4.1.78-RXN
ASE07_21645	Unknown	RXN-17362
ASE07_04300	Unknown	TRNA-PSEUDOURIDINE-SYNTHASE-I-RXN
ASE07_14050	Unknown	R122-RXN
ASE07_19420	Unknown	GSHTRAN-RXN;GST-RXN;RXN-11663;RXN-13673;RXN-15680;RXN-18405;RXN-18407;RXNQT-4363
ASE07_15985	Unknown	RXN-9235
ASE07_18055	Unknown	RXN-12104
ASE07_00995	Unknown	LYSOPHOSPHOLIPASE-RXN;RXN-15035;RXN-19312
ASE07_14540	Unknown	RXN-11832;RXN-12002;RXN-7913
ASE07_18240	Unknown	2-OCTAPRENYL-6-METHOXYPHENOL-HYDROX-RXN
ASE07_19555	rph	RXN0-6481;RXN0-6482;TRNA-NUCLEOTIDYLTRANSFERASE-RXN
ASE07_18365	Unknown	RXN0-1342
ASE07_16405	Unknown	SERINE-O-ACETTRAN-RXN
ASE07_10885	Unknown	RXN0-5375
ASE07_19845	Unknown	DIHYDRODIPICSYN-RXN
ASE07_24005	Unknown	ACETYL-COA-ACETYLTRANSFER-RXN;METHYLACETOACETYLCOATHIOL-RXN;RXN-12561
ASE07_09715	Unknown	CYTOCHROME-C-OXIDASE-RXN;RXN-15830
ASE07_13635	Unknown	3.1.4.14-RXN
ASE07_06515	ispH	ISPH2-RXN;RXN0-884
ASE07_14375	Unknown	AIRCARBOXY-RXN
ASE07_15480	Unknown	PRODISULFREDUCT-RXN;RXN0-7271
ASE07_12665	Unknown	PGLYCDEHYDROG-RXN
ASE07_26580	Unknown	ACYLCOADEHYDROG-RXN;RXN-17775;RXN-17779;RXN-17783;RXN-17784;RXN-17788;RXN-17792;RXN-17796
ASE07_02940	Unknown	SPERMIDINESYN-RXN
ASE07_11950	Unknown	3.5.2.17-RXN
ASE07_25685	Unknown	3.1.2.23-RXN
ASE07_09125	Unknown	1.14.13.8-RXN;RXN66-81
ASE07_23075	panB	3-CH3-2-OXOBUTANOATE-OH-CH3-XFER-RXN;RXN-15635
ASE07_04280	Unknown	ACETYL-COA-CARBOXYLTRANSFER-RXN;RXN0-5055
ASE07_08040	Unknown	3.1.1.73-RXN
ASE07_25590	Unknown	3.4.24.70-RXN
ASE07_17150	Unknown	OHMETPYRKIN-RXN;PYRIMSYN3-RXN
ASE07_16220	murC	UDP-NACMUR-ALA-LIG-RXN
ASE07_10050	Unknown	2.1.3.1-RXN
ASE07_17540	Unknown	5.4.99.15-RXN
ASE07_25965	Unknown	GSHTRAN-RXN;GST-RXN;RXN-11663;RXN-13673;RXN-15680;RXN-18405;RXN-18407;RXNQT-4363
ASE07_23170	leuS	LEUCINE--TRNA-LIGASE-RXN
ASE07_10315	Unknown	RXN0-3221
ASE07_16150	Unknown	ENOYL-COA-HYDRAT-RXN;METHYLACYLYLCOA-HYDROXY-RXN;RXN-10697;RXN-10704;RXN-10705;RXN-11244;RXN-12567;RXN-13616;RXN-14266;RXN-14272;RXN-14273;RXN-16135;RXN-16558;RXN-17114;RXN-17475;RXN-17776;RXN-17780;RXN-17785;RXN-17789;RXN-17793;RXN-17797;RXN-2425;RXN0-5393;TIGLYLCOA-HYDROXY-RXN
ASE07_20740	Unknown	CHLORIDE-PEROXIDASE-RXN
ASE07_16530	Unknown	PEPSYNTH-RXN
ASE07_02315	Unknown	ARGSUCCINLYA-RXN;RXN-22
ASE07_22870	Unknown	ACETYL-COA-ACETYLTRANSFER-RXN;METHYLACETOACETYLCOATHIOL-RXN;RXN-12561
ASE07_26575	Unknown	METHYLCROTONYL-COA-CARBOXYLASE-RXN
ASE07_17550	Unknown	3.2.1.141-RXN
ASE07_02270	Unknown	INORGPYROPHOSPHAT-RXN
ASE07_02635	Unknown	3.1.11.2-RXN
ASE07_12425	Unknown	3-DEHYDROQUINATE-DEHYDRATASE-RXN
ASE07_02750	Unknown	ARGSUCCINSYN-RXN;RXN-10
ASE07_23950	Unknown	GSHTRAN-RXN;GST-RXN;RXN-11663;RXN-13673;RXN-15680;RXN-18405;RXN-18407;RXNQT-4363
ASE07_19910	Unknown	RXN0-1061
ASE07_17725	Unknown	R4-RXN
ASE07_02500	Unknown	2.7.1.156-RXN;COBINAMIDEKIN-RXN;RXN-14063
ASE07_06720	Unknown	5.5.1.2-RXN
ASE07_16380	Unknown	RXN0-6575
ASE07_12850	Unknown	1.1.1.145-RXN;1.1.1.210-RXN;RXN-12694;RXN-12790;RXN-709;RXN66-351;RXN66-354;RXN66-362;STEROID-DELTA-ISOMERASE-RXN
ASE07_01155	Unknown	UREASE-RXN
ASE07_27700	Unknown	RXN0-5100
ASE07_08890	Unknown	2.7.13.3-RXN
ASE07_20415	Unknown	ENOYL-COA-HYDRAT-RXN;METHYLACYLYLCOA-HYDROXY-RXN;RXN-10697;RXN-10704;RXN-10705;RXN-11244;RXN-12567;RXN-13616;RXN-14266;RXN-14272;RXN-14273;RXN-16135;RXN-16558;RXN-17114;RXN-17475;RXN-17776;RXN-17780;RXN-17785;RXN-17789;RXN-17793;RXN-17797;RXN-2425;RXN0-5393;TIGLYLCOA-HYDROXY-RXN
ASE07_23995	Unknown	4-COUMARATE--COA-LIGASE-RXN;RXN-10919;RXN-1122;RXN-1126
ASE07_26110	Unknown	ACONITATEDEHYDR-RXN;ACONITATEHYDR-RXN;RXN-14047
ASE07_21795	Unknown	CHOLESTEROL-OXIDASE-RXN;RXN-12694;RXN-12778
ASE07_02760	Unknown	UDPNACETYLMURAMATEDEHYDROG-RXN
ASE07_16555	Unknown	LIPIDADISACCHARIDESYNTH-RXN
ASE07_02240	nadE	NAD-SYNTH-GLN-RXN;NAD-SYNTH-NH3-RXN
ASE07_07055	Unknown	GLUTAMINE--TRNA-LIGASE-RXN
ASE07_02915	Unknown	2-DEHYDROPANTOATE-REDUCT-RXN
ASE07_03665	gltA	CITSYN-RXN
ASE07_10325	Unknown	PHOSPHASERSYN-RXN
ASE07_18600	Unknown	4.1.1.77-RXN
ASE07_11280	Unknown	GLYOXIII-RXN
ASE07_03940	Unknown	RXN0-1441
ASE07_16805	Unknown	RXN-15740;RXN-15745;RXN0-5260
ASE07_22420	Unknown	NICOTINATEPRIBOSYLTRANS-RXN
ASE07_15800	Unknown	HEMEOSYN-RXN
ASE07_11410	Unknown	AMINOBENZCOALIG-RXN
ASE07_04830	Unknown	RXN0-1281
ASE07_01560	Unknown	ISOCHORMAT-RXN
ASE07_18930	Unknown	RXN0-4301
ASE07_18190	Unknown	GLYOXI-RXN
ASE07_01995	Unknown	2-ISOPROPYLMALATESYN-RXN
ASE07_05435	Unknown	ACYLCOASYN-RXN;LINOLENOYL-RXN;R223-RXN;RXN-12184;RXN-12978;RXN-13290;RXN-13614;RXN-16380;RXN-16389;RXN-16393;RXN-16401;RXN-16402;RXN-16415;RXN-16418;RXN-7904;RXN-9623;RXN-9644;RXN-9673;RXN0-7238;RXN0-7239;RXN0-7248;RXN66-469;RXN66-477;RXN66-480;RXN66-483;RXN66-484;TRANS-RXN0-623
ASE07_01450	Unknown	3.1.26.5-RXN
ASE07_02435	Unknown	PANTOATE-BETA-ALANINE-LIG-RXN
ASE07_17075	Unknown	BIOTIN-CARBOXYL-RXN
ASE07_05540	Unknown	2.7.13.3-RXN
ASE07_07305	Unknown	MALONYL-COA-ACP-TRANSACYL-RXN
ASE07_18960	Unknown	RXN-14950;RXN-14957;RXN-14959;RXN0-949
ASE07_14225	Unknown	PEPTIDYLPROLYL-ISOMERASE-RXN
ASE07_06730	Unknown	3-OXOADIPATE-COA-TRANSFERASE-RXN;RXN-10085
ASE07_02185	Unknown	PGLUCISOM-RXN
ASE07_11820	Unknown	RXN-11109
ASE07_20275	Unknown	2-OXOPENT-4-ENOATE-HYDRATASE-RXN;RXN-10381
ASE07_18245	pntB	PYRNUTRANSHYDROGEN-RXN;TRANS-RXN0-277
ASE07_12135	Unknown	RXN0-5131
ASE07_19030	Unknown	RXN-8643;TARTRATE-DEHYDROGENASE-RXN
ASE07_18705	Unknown	1.11.1.15-RXN;RXN0-5468
ASE07_08825	Unknown	AGMATIN-RXN
ASE07_02250	Unknown	PROTEIN-KINASE-RXN
ASE07_10170	Unknown	ENOYL-COA-HYDRAT-RXN;METHYLACYLYLCOA-HYDROXY-RXN;RXN-10697;RXN-10704;RXN-10705;RXN-11244;RXN-12567;RXN-13616;RXN-14266;RXN-14272;RXN-14273;RXN-16135;RXN-16558;RXN-17114;RXN-17475;RXN-17776;RXN-17780;RXN-17785;RXN-17789;RXN-17793;RXN-17797;RXN-2425;RXN0-5393;TIGLYLCOA-HYDROXY-RXN
ASE07_19145	Unknown	ACETYLGLUTKIN-RXN;RXN-15005
ASE07_03435	Unknown	ASPARTATEKIN-RXN
ASE07_17870	Unknown	6.3.5.7-RXN
ASE07_22920	Unknown	RXN0-5131
ASE07_09975	amiE	AMIDASE-RXN;GUANIDINOBUTANAMIDE-NH3-RXN;PYRAZIN-RXN;R311-RXN;RXN-14727;RXN-14728;RXN-17608;RXNN-404
ASE07_27770	Unknown	RXN0-5131
ASE07_06585	Unknown	1.1.1.178-RXN
ASE07_15840	Unknown	RXN0-6515
ASE07_04930	Unknown	GLUTATHIONE-SYN-RXN
ASE07_16960	Unknown	GLUTKIN-RXN
ASE07_00175	Unknown	1.2.7.8-RXN
ASE07_00450	Unknown	ACYLCOASYN-RXN;LINOLENOYL-RXN;R223-RXN;RXN-12184;RXN-12978;RXN-13290;RXN-13614;RXN-16380;RXN-16389;RXN-16393;RXN-16401;RXN-16402;RXN-16415;RXN-16418;RXN-7904;RXN-9623;RXN-9644;RXN-9673;RXN0-7238;RXN0-7239;RXN0-7248;RXN66-469;RXN66-477;RXN66-480;RXN66-483;RXN66-484;TRANS-RXN0-623
ASE07_05295	Unknown	3.5.1.27-RXN;3.5.1.88-RXN
ASE07_03980	Unknown	1.6.99.5-RXN;NADH-DEHYDROGENASE-QUINONE-RXN
ASE07_21580	Unknown	RXN0-5131
ASE07_02175	Unknown	4OH2OXOGLUTARALDOL-RXN;KDPGALDOL-RXN
ASE07_21690	Unknown	GSADENYLATION-RXN
ASE07_02220	Unknown	THIOREDOXIN-REDUCT-NADPH-RXN
ASE07_10270	Unknown	RXN-12560;RXN-13279;RXN-5901
ASE07_15915	Unknown	3.2.2.23-RXN;RXN-18435
ASE07_03660	sucA	2-KETO-ADIPATE-DEHYDROG-RXN;2OXOGLUTARATEDEH-RXN;2OXOGLUTDECARB-RXN;RXN-7716;RXN0-1147
ASE07_01980	Unknown	RXN-11109
ASE07_10670	Unknown	CYTOCHROME-C-OXIDASE-RXN;RXN-15830
ASE07_03655	Unknown	RXN0-1147
ASE07_20280	Unknown	1.13.11.16-RXN
ASE07_12680	Unknown	RXN-2
ASE07_03330	Unknown	DIOHBUTANONEPSYN-RXN
ASE07_21270	Unknown	DNA-CYTOSINE-5--METHYLTRANSFERASE-RXN
ASE07_19975	Unknown	2-OCTAPRENYL-6-OHPHENOL-METHY-RXN;DHHB-METHYLTRANSFER-RXN
ASE07_02540	Unknown	DMBPPRIBOSYLTRANS-RXN;RXN-19295;RXN-19298;RXN-19299;RXN-19300;RXN-19301;RXN-19306
ASE07_04655	Unknown	N-FORMYLGLUTAMATE-DEFORMYLASE-RXN
ASE07_03065	glmM	5.4.2.10-RXN;RXN-16424;RXN0-7139
ASE07_16175	Unknown	RXN-11638
ASE07_24490	Unknown	ACYLCOADEHYDROG-RXN;RXN-17775;RXN-17779;RXN-17783;RXN-17784;RXN-17788;RXN-17792;RXN-17796
ASE07_04560	Unknown	ACETATE--COA-LIGASE-RXN;RXN-18446;RXN-18447;RXN-18448
ASE07_06715	Unknown	3-OXOADIPATE-ENOL-LACTONASE-RXN;RXN-10083
ASE07_03425	Unknown	1.14.11.18-RXN;RXN66-470
ASE07_25845	Unknown	RXN0-2584
ASE07_24255	Unknown	1.18.1.2-RXN
ASE07_18140	Unknown	RXN-14480;RXN-14481;RXN0-5063
ASE07_08575	Unknown	1.2.1.65-RXN
ASE07_14060	Unknown	GLYCERATE-DEHYDROGENASE-RXN;HYDROXYPYRUVATE-REDUCTASE-RXN;RXN0-300
ASE07_21960	Unknown	UROCANATE-HYDRATASE-RXN
ASE07_03490	Unknown	RXN0-7023
ASE07_04790	Unknown	GALPMUT-RXN
ASE07_16195	Unknown	6.3.2.10-RXN;UDP-NACMURALGLDAPAALIG-RXN
ASE07_18620	Unknown	3.1.22.4-RXN
ASE07_07440	Unknown	GCVP-RXN
ASE07_02200	Unknown	TRANSALDOL-RXN
ASE07_01340	Unknown	PGLYCDEHYDROG-RXN
ASE07_23565	Unknown	CATECHOL-2-3-DIOXYGENASE-RXN;CATECHOL-23-DIOXYGENASE-RXN;RXN-11218;RXN-11219;RXN-13704
ASE07_08135	Unknown	RXN-17884;RXN-2962
ASE07_14890	Unknown	RXN0-20
ASE07_15740	Unknown	PRPPAMIDOTRANS-RXN
ASE07_14065	Unknown	RXN0-5289;TSA-REDUCT-RXN
ASE07_20465	Unknown	ENOYL-COA-HYDRAT-RXN;METHYLACYLYLCOA-HYDROXY-RXN;RXN-10697;RXN-10704;RXN-10705;RXN-11244;RXN-12567;RXN-13616;RXN-14266;RXN-14272;RXN-14273;RXN-16135;RXN-16558;RXN-17114;RXN-17475;RXN-17776;RXN-17780;RXN-17785;RXN-17789;RXN-17793;RXN-17797;RXN-2425;RXN0-5393;TIGLYLCOA-HYDROXY-RXN
ASE07_10415	Unknown	R4-RXN
ASE07_03985	Unknown	NADH-DEHYDROG-A-RXN
ASE07_16625	Unknown	3.4.11.18-RXN;RXN-17873;RXN-17874;RXN-17875;RXN-17876;RXN-17877;RXN-17878
ASE07_03990	Unknown	1.6.99.5-RXN;NADH-DEHYDROGENASE-QUINONE-RXN
ASE07_25100	Unknown	KDUD-RXN
ASE07_11445	Unknown	QOR-RXN
ASE07_06645	Unknown	RXN0-5433
ASE07_16865	argJ	GLUTAMATE-N-ACETYLTRANSFERASE-RXN;N-ACETYLTRANSFER-RXN;RXN0-6948
ASE07_07595	Unknown	2.7.7.60-RXN
ASE07_25210	Unknown	FMNREDUCT-RXN;NADPH-DEHYDROGENASE-FLAVIN-RXN;RXN-12444
ASE07_15395	Unknown	HISTPRATPHYD-RXN
ASE07_02735	Unknown	RXN-13908;RXN-7908
ASE07_23735	Unknown	2-OXOPENT-4-ENOATE-HYDRATASE-RXN;RXN-10381
ASE07_19160	Unknown	DIHYDROOROTATE-DEHYDROGENASE-RXN;RXN0-6491
ASE07_17470	Unknown	PROTEIN-KINASE-RXN
ASE07_22820	Unknown	O-SUCCINYLBENZOATE-COA-LIG-RXN
ASE07_16885	Unknown	RXN-15849;RXN-7563
ASE07_16975	Unknown	PROLINE--TRNA-LIGASE-RXN
ASE07_27635	Unknown	RXN0-5131
ASE07_12285	Unknown	RXN0-5131
ASE07_06995	ugpQ	GLYCPDIESTER-RXN;RXN-14073;RXN-14136;RXN-14160
ASE07_27355	Unknown	GLYCPDIESTER-RXN;RXN-14073;RXN-14136;RXN-14160
ASE07_05520	Unknown	HISTONE-LYSINE-N-METHYLTRANSFERASE-RXN
ASE07_18550	Unknown	RXN-11135
ASE07_26100	Unknown	PHOSACETYLTRANS-RXN
ASE07_10730	Unknown	2.7.13.3-RXN
ASE07_00310	Unknown	1.14.11.18-RXN;RXN66-470
ASE07_21240	Unknown	ATPASE-RXN
ASE07_16630	Unknown	URITRANS-RXN
ASE07_09685	Unknown	ISOCHORMAT-RXN
ASE07_18515	Unknown	CARBOXYMETHYLENEBUTENOLIDASE-RXN;DIENELACHYDRO-RXN;RXN-9857;RXN-9868;RXN-9887;RXN-9890
ASE07_08925	Unknown	AMP-NUCLEOSID-RXN
ASE07_02505	Unknown	R341-RXN;RXN-14256;RXN-14257;RXN-8769
ASE07_02030	thyA	THYMIDYLATESYN-RXN
ASE07_06635	Unknown	SUPEROX-DISMUT-RXN
ASE07_06615	Unknown	TETRAACYLDISACC4KIN-RXN
ASE07_15960	Unknown	RXN-15122;THREDEHYD-RXN
ASE07_02665	prpB	METHYLISOCITRATE-LYASE-RXN
ASE07_22890	Unknown	1.1.1.178-RXN
ASE07_05650	Unknown	4-CARBOXYMUCONOLACTONE-DECARBOXYLASE-RXN
ASE07_04875	Unknown	4.2.99.18-RXN;RXN0-2601
ASE07_10675	Unknown	CYTOCHROME-C-OXIDASE-RXN;RXN-15830
ASE07_15355	Unknown	HISTALDEHYD-RXN;HISTOLDEHYD-RXN;RXN-8001
ASE07_18760	Unknown	GLUTAMATE-DEHYDROGENASE-NADP+-RXN;GLUTAMATE-DEHYDROGENASE-RXN;GLUTDEHYD-RXN
ASE07_22615	Unknown	MUCONOLACTONE-DELTA-ISOMERASE-RXN;RXN-10082
ASE07_03680	Unknown	R601-RXN;RXN-14963
ASE07_06725	Unknown	KETOACYLCOATHIOL-RXN;RXN-10699;RXN-10700;RXN-10701;RXN-11246;RXN-12565;RXN-12710;RXN-13617;RXN-14268;RXN-14274;RXN-14277;RXN-14394;RXN-14774;RXN-14788;RXN-14793;RXN-14799;RXN-14803;RXN-16137;RXN-17116;RXN-17778;RXN-17782;RXN-17787;RXN-17791;RXN-17795;RXN-17799;RXN-3641
ASE07_02725	Unknown	3.1.13.3-RXN
ASE07_01545	Unknown	GSHTRAN-RXN;GST-RXN;RXN-11663;RXN-13673;RXN-15680;RXN-18405;RXN-18407;RXNQT-4363
ASE07_13165	Unknown	RXN0-5100
ASE07_22460	Unknown	RXN-10819
ASE07_19110	Unknown	BIOTINLIG-RXN;RXN0-7192
ASE07_20945	Unknown	AMIDASE-RXN;GUANIDINOBUTANAMIDE-NH3-RXN;PYRAZIN-RXN;R311-RXN;RXN-14727;RXN-14728;RXN-17608;RXNN-404
ASE07_06180	Unknown	3.2.1.17-RXN
ASE07_12355	Unknown	ACYLCOASYN-RXN;LINOLENOYL-RXN;R223-RXN;RXN-12184;RXN-12702;RXN-12746;RXN-12978;RXN-13290;RXN-13614;RXN-16380;RXN-16389;RXN-16393;RXN-16401;RXN-16402;RXN-16415;RXN-16418;RXN-7904;RXN-9623;RXN-9644;RXN-9673;RXN0-7238;RXN0-7239;RXN0-7248;RXN66-469;RXN66-477;RXN66-480;RXN66-483;RXN66-484;TRANS-RXN0-623
ASE07_04295	Unknown	PRAISOM-RXN
ASE07_27645	Unknown	ASPARTATE-RACEMASE-RXN
ASE07_04405	Unknown	SUCCARGDIHYDRO-RXN
ASE07_24050	Unknown	RXN0-299
ASE07_00565	Unknown	2.8.1.6-RXN;RXN-17472;RXN-17473
ASE07_08460	Unknown	ACETYL-COA-ACETYLTRANSFER-RXN;METHYLACETOACETYLCOATHIOL-RXN;RXN-12561
ASE07_11305	Unknown	2.7.13.3-RXN
ASE07_07575	Unknown	CYSTATHIONINE-BETA-LYASE-RXN;RXN-12729;RXN-15131;RXN-15137;RXN-15577;RXN-15582;RXN-18212;RXN-6763;RXN-8052;RXN-8054;RXNQT-4319;RXNQT-4320;RXNQT-4321;RXNQT-4322;RXNQT-4323;S-ALKYLCYSTEINE-LYASE-RXN
ASE07_17130	Unknown	RXN-16650
ASE07_18670	Unknown	RXN0-4621
ASE07_23105	Unknown	PROTOHEMEFERROCHELAT-RXN
ASE07_20560	Unknown	5-OXOPROLINASE-ATP-HYDROLYSING-RXN
ASE07_14415	Unknown	PMPOXI-RXN;PNPOXI-RXN
ASE07_09285	Unknown	ADPREDUCT-RXN;CDPREDUCT-RXN;GDPREDUCT-RXN;RIBONUCLEOSIDE-DIP-REDUCTI-RXN;RIBONUCLEOSIDE-DIP-REDUCTII-RXN;RXN0-722;RXN0-747;RXN0-748;UDPREDUCT-RXN
ASE07_22120	Unknown	S-FORMYLGLUTATHIONE-HYDROLASE-RXN
ASE07_16145	Unknown	ACETYL-COA-ACETYLTRANSFER-RXN;METHYLACETOACETYLCOATHIOL-RXN;RXN-12561
ASE07_09910	Unknown	CYTOCHROME-C-OXIDASE-RXN;RXN-15830
ASE07_12360	Unknown	ACYLCOADEHYDROG-RXN;RXN-17775;RXN-17779;RXN-17783;RXN-17784;RXN-17788;RXN-17792;RXN-17796
ASE07_01320	Unknown	GSHTRAN-RXN;GST-RXN;RXN-11663;RXN-13673;RXN-15680;RXN-18405;RXN-18407;RXNQT-4363
ASE07_22165	Unknown	FMNREDUCT-RXN;NADPH-DEHYDROGENASE-FLAVIN-RXN;RXN-12444
ASE07_23935	Unknown	RXN0-1382
ASE07_05055	Unknown	RXN0-2621
ASE07_18235	Unknown	3.4.11.1-RXN
ASE07_11485	Unknown	RXN-8846
ASE07_16350	Unknown	GLUCONOLACT-RXN;RXN-8783
ASE07_15445	Unknown	1.10.2.2-RXN;RXN-15829
ASE07_06065	Unknown	ARGINYLTRANSFERASE-RXN;RXN-17888;RXN-17889;RXN-17890;RXN-17891
ASE07_00845	Unknown	DNA-DIRECTED-DNA-POLYMERASE-RXN
ASE07_02145	Unknown	GLUTAMATE-N-ACETYLTRANSFERASE-RXN;N-ACETYLTRANSFER-RXN;RXN0-6948
ASE07_18400	Unknown	4OHBENZOATE-OCTAPRENYLTRANSFER-RXN
ASE07_04420	Unknown	ARGININE-N-SUCCINYLTRANSFERASE-RXN;RXN-7561
ASE07_04425	argD	ACETYLORNTRANSAM-RXN;RXN-15007;SUCCINYLDIAMINOPIMTRANS-RXN
ASE07_00230	Unknown	SUPEROX-DISMUT-RXN
ASE07_22805	Unknown	3-ISOPROPYLMALISOM-RXN;R-2-METHYLMALATE-DEHYDRATASE-RXN;RXN-13163;RXN-7744;RXN-8991
ASE07_10740	Unknown	RXN-11833
ASE07_15575	trpD	PRTRANS-RXN
ASE07_15225	Unknown	DARAB5PISOM-RXN
ASE07_11435	Unknown	ACYLCOADEHYDROG-RXN;RXN-17775;RXN-17779;RXN-17783;RXN-17784;RXN-17788;RXN-17792;RXN-17796
ASE07_10530	Unknown	3.1.21.1-RXN
ASE07_27195	Unknown	R341-RXN;RXN-14256;RXN-14257;RXN-8769
ASE07_07315	Unknown	RXN-17155
ASE07_25080	Unknown	O-SUCCINYLBENZOATE-COA-LIG-RXN;RXN-7614
ASE07_24070	Unknown	ACYLCOADEHYDROG-RXN;RXN-17775;RXN-17779;RXN-17783;RXN-17784;RXN-17788;RXN-17792;RXN-17796
ASE07_12715	Unknown	FUMARYLACETOACETASE-RXN
ASE07_17025	Unknown	RXN0-5225
ASE07_03875	Unknown	THREONINE--TRNA-LIGASE-RXN
ASE07_17545	Unknown	AMYLOMALT-RXN;MALTODEG-RXN;RXN-12193;RXN-12391;RXN-14260;RXN-14261;RXN-14354;RXN-1828;RXN-9023
ASE07_17220	Unknown	3.6.1.41-RXN
ASE07_10295	Unknown	4-CARBOXYMUCONOLACTONE-DECARBOXYLASE-RXN
ASE07_18305	Unknown	GSHTRAN-RXN;GST-RXN;RXN-11663;RXN-13673;RXN-15680;RXN-18405;RXN-18407;RXNQT-4363
ASE07_09570	Unknown	4.2.1.41-RXN
ASE07_15670	Unknown	PROTEIN-KINASE-RXN
ASE07_11430	Unknown	ENOYL-COA-HYDRAT-RXN;METHYLACYLYLCOA-HYDROXY-RXN;RXN-10697;RXN-10704;RXN-10705;RXN-11244;RXN-12567;RXN-13616;RXN-14266;RXN-14272;RXN-14273;RXN-16135;RXN-16558;RXN-17114;RXN-17475;RXN-17776;RXN-17780;RXN-17785;RXN-17789;RXN-17793;RXN-17797;RXN-2425;RXN0-5393;TIGLYLCOA-HYDROXY-RXN
ASE07_22335	Unknown	RXN1-42
ASE07_00610	Unknown	2-HALOACID-DEHALOGENASE-RXN;3.8.1.11-RXN;RXN-6263;RXN-6264
ASE07_01015	Unknown	ATPSYN-RXN
ASE07_18205	pdxA	RXN-13179
ASE07_24135	Unknown	DTDPGLUCDEHYDRAT-RXN
ASE07_00615	Unknown	RXN-19040;RXN0-6359;THIOSULFATE-SULFURTRANSFERASE-RXN
ASE07_23685	Unknown	RXN0-5131
ASE07_26960	Unknown	RXN0-5131
ASE07_25510	Unknown	GLYOXIII-RXN
ASE07_21955	Unknown	HISTIDINE-AMMONIA-LYASE-RXN
ASE07_13890	Unknown	GLYCERATE-DEHYDROGENASE-RXN;HYDROXYPYRUVATE-REDUCTASE-RXN
ASE07_03305	Unknown	3-OCTAPRENYL-4-OHBENZOATE-DECARBOX-RXN
ASE07_06600	Unknown	ADENYL-KIN-RXN
ASE07_25750	Unknown	3.1.21.1-RXN
ASE07_17125	aroE	SHIKIMATE-5-DEHYDROGENASE-RXN
ASE07_17535	Unknown	ATPASE-RXN
ASE07_04030	Unknown	TRIOSEPISOMERIZATION-RXN
ASE07_17865	Unknown	RXN0-5021
ASE07_24830	Unknown	1.1.1.178-RXN
ASE07_12710	Unknown	R125-RXN
ASE07_22915	Unknown	RXN0-5131
ASE07_05595	Unknown	3.2.2.21-RXN
ASE07_04415	Unknown	ARGININE-N-SUCCINYLTRANSFERASE-RXN;RXN-7561
ASE07_09085	Unknown	CARBODEHYDRAT-RXN;RXN0-5224
ASE07_17275	Unknown	GDPMANDEHYDRA-RXN
ASE07_19780	Unknown	RXN-11109
ASE07_15260	Unknown	2.7.13.3-RXN
ASE07_25825	Unknown	RXN-12587;RXN-12588;RXN-14382;RXN-14385;RXN-15881;RXN-9787;RXN0-308
ASE07_26830	Unknown	2-OXOPENT-4-ENOATE-HYDRATASE-RXN;RXN-10381
ASE07_16910	Unknown	DEPHOSPHOCOAKIN-RXN
ASE07_17685	ampC	BETA-LACTAMASE-RXN
ASE07_15945	Unknown	PROTEIN-KINASE-RXN
ASE07_14070	Unknown	RXN0-305
ASE07_17180	Unknown	2.7.13.3-RXN
ASE07_18260	mnmA	RXN0-2023
ASE07_25580	Unknown	DNA-DIRECTED-DNA-POLYMERASE-RXN
ASE07_02370	purU	FORMYLTHFDEFORMYL-RXN
ASE07_04895	metX	HOMOSERINE-O-ACETYLTRANSFERASE-RXN
ASE07_12505	Unknown	RXN0-5289;TSA-REDUCT-RXN
ASE07_05590	Unknown	GSHTRAN-RXN;GST-RXN;RXN-11663;RXN-13673;RXN-15680;RXN-18405;RXN-18407;RXNQT-4363
ASE07_07445	Unknown	4.3.1.17-RXN;RXN-15125
ASE07_12660	Unknown	2PGADEHYDRAT-RXN
ASE07_03650	Unknown	1.8.1.4-RXN;2OXOGLUTARATEDEH-RXN;2OXOGLUTDECARB-RXN;RXN-7716;RXN-7719;RXN-8629;RXN0-1132;RXN0-1147
ASE07_12965	Unknown	FGAMSYN-RXN
ASE07_19375	Unknown	MYRISTOYLACYLTRAN-RXN
ASE07_21715	Unknown	RXN-8529
ASE07_19385	Unknown	S-ADENMETSYN-RXN
ASE07_04090	Unknown	DNA-DIRECTED-RNA-POLYMERASE-RXN
ASE07_15240	Unknown	ACYLPHOSPHATASE-RXN
ASE07_10775	Unknown	2.4.1.36-RXN;RXN-761;TREHALOSE6PSYN-RXN
ASE07_08845	Unknown	CARBODEHYDRAT-RXN;RXN0-5224
ASE07_11480	Unknown	4-HYDROXYBENZOATE--COA-LIGASE-RXN
ASE07_18690	Unknown	N-ACETYLGLUTPREDUCT-RXN;RXN-15006
ASE07_25615	Unknown	1.8.1.4-RXN;2OXOGLUTARATEDEH-RXN;2OXOGLUTDECARB-RXN;RXN-7716;RXN-7719;RXN-8629;RXN0-1132;RXN0-1147
ASE07_19685	Unknown	HOMOSERDEHYDROG-RXN
ASE07_14410	Unknown	2.1.1.79-RXN;RXN-7421;RXN1G-2544;RXN1G-3641
ASE07_19740	emrB	3.6.3.44-RXN;TRANS-RXN-311
ASE07_19675	Unknown	AKBLIG-RXN
ASE07_02415	Unknown	METHIONINE--TRNA-LIGASE-RXN;RXN-16165
ASE07_14580	Unknown	ACSERLY-RXN;RXN-12726
ASE07_04760	Unknown	2-HALOACID-DEHALOGENASE-RXN;3.8.1.11-RXN;RXN-6263;RXN-6264
ASE07_05505	Unknown	PROTEIN-KINASE-RXN
ASE07_07010	Unknown	GAMMA-GLUTAMYLTRANSFERASE-RXN;RXN-18092;RXN-6601;RXN-9157;RXN66-336
ASE07_03470	Unknown	LIPIDXSYNTHESIS-RXN
ASE07_07955	Unknown	1.18.1.2-RXN
ASE07_21655	Unknown	FADSYN-RXN;RIBOFLAVINKIN-RXN;RXN-18510;RXN-18511
ASE07_17425	Unknown	URACIL-PRIBOSYLTRANS-RXN
ASE07_01275	Unknown	4-COUMARATE--COA-LIGASE-RXN;RXN-10919;RXN-1122;RXN-1126
ASE07_18710	Unknown	OCTAPRENYL-METHYL-METHOXY-BENZOQ-OH-RXN
ASE07_08850	Unknown	2-OCTAPRENYL-6-OHPHENOL-METHY-RXN;DHHB-METHYLTRANSFER-RXN
ASE07_21015	Unknown	2-HALOACID-DEHALOGENASE-RXN
ASE07_02660	Unknown	2-METHYLCITRATE-SYNTHASE-RXN
ASE07_20570	Unknown	GLUTAMATE-DEHYDROGENASE-NADP+-RXN;GLUTAMATE-DEHYDROGENASE-RXN;GLUTDEHYD-RXN
ASE07_12195	Unknown	GLYRIBONUCSYN-RXN
ASE07_24875	Unknown	RXN0-5131
ASE07_12655	Unknown	KANAMYCIN-KINASE-RXN
ASE07_19665	Unknown	THRESYN-RXN
ASE07_21040	Unknown	FUMARYLACETOACETASE-RXN
ASE07_11595	Unknown	PEPTIDYLPROLYL-ISOMERASE-RXN
ASE07_02675	Unknown	GSHTRAN-RXN;GST-RXN;RXN-11663;RXN-13673;RXN-15680;RXN-18405;RXN-18407;RXNQT-4363
ASE07_20170	Unknown	GALACTODEHYDROG-RXN
ASE07_12345	Unknown	3-OXOACYL-ACP-REDUCT-RXN;RXN-10060;RXN-10655;RXN-10659;RXN-11476;RXN-11480;RXN-13008;RXN-16616;RXN-16622;RXN-16626;RXN-16630;RXN-9514;RXN-9518;RXN-9524;RXN-9528;RXN-9532;RXN-9536;RXN-9540;RXN-9552;RXN-9556;RXN-9633;RXN0-2142;RXN1G-157;RXN1G-349;RXN1G-469;RXN1G-508
ASE07_24245	Unknown	3.5.2.18-RXN
ASE07_01045	Unknown	ATPSYN-RXN
ASE07_15925	Unknown	RXN0-2661
ASE07_01040	Unknown	ATPSYN-RXN
ASE07_10180	Unknown	ACYLCOADEHYDROG-RXN;RXN-17775;RXN-17779;RXN-17783;RXN-17784;RXN-17788;RXN-17792;RXN-17796
ASE07_17240	Unknown	DTDPDEHYRHAMREDUCT-RXN
ASE07_20875	Unknown	ENOYL-COA-HYDRAT-RXN;METHYLACYLYLCOA-HYDROXY-RXN;RXN-10697;RXN-10704;RXN-10705;RXN-11244;RXN-12567;RXN-13616;RXN-14266;RXN-14272;RXN-14273;RXN-16135;RXN-16558;RXN-17114;RXN-17475;RXN-17776;RXN-17780;RXN-17785;RXN-17789;RXN-17793;RXN-17797;RXN-2425;RXN0-5393;TIGLYLCOA-HYDROXY-RXN
ASE07_23765	Unknown	AMINO-CARBOXYMUCONATE-SEMIALDEHYDE-RXN
ASE07_18565	Unknown	THIAZOLSYN2-RXN
ASE07_03675	sdhB	RXN-14971;RXN-15378;SUCCINATE-DEHYDROGENASE-UBIQUINONE-RXN
