# 
#
# Authors:
#
# Please see the license agreement regarding the use of and distribution of this file.
# The format of this file is defined at http://bioinformatics.ai.sri.com/ptools/flatfile-format.html .
#
# Species: Rhizobium sp. Root651
# Database: NIL
# Version: 1.0
# File Name: rnas.dat
# Date and time generated: December 3, 2018, 13:34:57
#
# Attributes:
#    UNIQUE-ID
#    TYPES
#    COMMON-NAME
#    ABBREV-NAME
#    ACCESSION-1
#    ANTICODON
#    AROMATIC-RINGS
#    ATOM-CHARGES
#    ATOM-ISOTOPES
#    CHEMICAL-FORMULA
#    CITATIONS
#    CODONS
#    COFACTORS-OF
#    COMMENT
#    COMPONENT-OF
#    CREDITS
#    DATA-SOURCE
#    DBLINKS
#    DOCUMENTATION
#    FAST-EQUILIBRATING-INSTANCES?
#    GENE
#    GO-TERMS
#    HAS-NO-STRUCTURE?
#    HIDE-SLOT?
#    IN-MIXTURE
#    INCHI
#    INCHI-KEY
#    INSTANCE-NAME-TEMPLATE
#    INTERNALS-OF-GROUP
#    LOCATIONS
#    MEMBER-SORT-FN
#    MODIFIED-FORM
#    MOLECULAR-WEIGHT
#    MONOISOTOPIC-MW
#    N+1-NAME
#    N-1-NAME
#    N-NAME
#    NON-STANDARD-INCHI
#    PATHOLOGIC-NAME-MATCHER-EVIDENCE
#    PATHOLOGIC-PWY-EVIDENCE
#    PKA1
#    PKA2
#    PKA3
#    RADICAL-ATOMS
#    REGULATED-BY
#    REGULATES
#    SMILES
#    SPECIES
#    SPLICE-FORM-INTRONS
#    STRUCTURE-BONDS
#    SUPERATOMS
#    SYNONYMS
#    SYSTEMATIC-NAME
#    TAUTOMERS
#    UNMODIFIED-FORM
#
UNIQUE-ID - charged-ASD85_06760-tRNA
TYPES - Charged-PRO-tRNAs
COMMON-NAME - charged tRNA-Pro
NON-STANDARD-INCHI - InChI=1S/C5H9NO/c7-4-5-2-1-3-6-5/h4-6H,1-3H2/p+1/t5-/m0/s1
UNMODIFIED-FORM - ASD85_06760-tRNA
//
UNIQUE-ID - charged-ASD85_09365-tRNA
TYPES - Charged-PRO-tRNAs
COMMON-NAME - charged tRNA-Pro
NON-STANDARD-INCHI - InChI=1S/C5H9NO/c7-4-5-2-1-3-6-5/h4-6H,1-3H2/p+1/t5-/m0/s1
UNMODIFIED-FORM - ASD85_09365-tRNA
//
UNIQUE-ID - charged-ASD85_15470-tRNA
TYPES - Charged-GLX-tRNAs
COMMON-NAME - charged tRNA-Gln
NON-STANDARD-INCHI - InChI=1S/C15H29O19P3/c16-7-1-27-10(13(7)19)4-31-36(23,24)34-15-9(18)3-29-12(15)6-32-37(25,26)33-14-8(17)2-28-11(14)5-30-35(20,21)22/h7-19H,1-6H2,(H,23,24)(H,25,26)(H2,20,21,22)/p-3/t7-,8-,9-,10+,11+,12+,13-,14-,15-/m0/s1
UNMODIFIED-FORM - ASD85_15470-tRNA
//
UNIQUE-ID - charged-ASD85_19465-tRNA
TYPES - Charged-GLX-tRNAs
COMMON-NAME - charged tRNA-Gln
NON-STANDARD-INCHI - InChI=1S/C15H29O19P3/c16-7-1-27-10(13(7)19)4-31-36(23,24)34-15-9(18)3-29-12(15)6-32-37(25,26)33-14-8(17)2-28-11(14)5-30-35(20,21)22/h7-19H,1-6H2,(H,23,24)(H,25,26)(H2,20,21,22)/p-3/t7-,8-,9-,10+,11+,12+,13-,14-,15-/m0/s1
UNMODIFIED-FORM - ASD85_19465-tRNA
//
UNIQUE-ID - charged-ASD85_27205-tRNA
TYPES - Charged-TRP-tRNAs
COMMON-NAME - charged tRNA-Trp
NON-STANDARD-INCHI - InChI=1S/C11H12N2O/c12-9(7-14)5-8-6-13-11-4-2-1-3-10(8)11/h1-4,6-7,9,13H,5,12H2/p+1/t9-/m0/s1
UNMODIFIED-FORM - ASD85_27205-tRNA
//
UNIQUE-ID - ASD85_19465-tRNA
TYPES - GLN-tRNAs
COMMON-NAME - tRNA-Gln
ANTICODON - CTG
GENE - ASD85_19465
MODIFIED-FORM - charged-ASD85_19465-tRNA
NON-STANDARD-INCHI - InChI=1S/C15H29O19P3/c16-7-1-27-10(13(7)19)4-31-36(23,24)34-15-9(18)3-29-12(15)6-32-37(25,26)33-14-8(17)2-28-11(14)5-30-35(20,21)22/h7-19H,1-6H2,(H,23,24)(H,25,26)(H2,20,21,22)/p-3/t7-,8-,9-,10+,11+,12+,13-,14-,15-/m0/s1
//
UNIQUE-ID - ASD85_19925-tRNA
TYPES - ALA-tRNAs
COMMON-NAME - tRNA-Ala
ANTICODON - GGC
GENE - ASD85_19925
MODIFIED-FORM - charged-ASD85_19925-tRNA
NON-STANDARD-INCHI - InChI=1S/C15H29O19P3/c16-7-1-27-10(13(7)19)4-31-36(23,24)34-15-9(18)3-29-12(15)6-32-37(25,26)33-14-8(17)2-28-11(14)5-30-35(20,21)22/h7-19H,1-6H2,(H,23,24)(H,25,26)(H2,20,21,22)/p-3/t7-,8-,9-,10+,11+,12+,13-,14-,15-/m0/s1
//
UNIQUE-ID - ASD85_15450-tRNA
TYPES - PRO-tRNAs
COMMON-NAME - tRNA-Pro
ANTICODON - CGG
GENE - ASD85_15450
MODIFIED-FORM - charged-ASD85_15450-tRNA
NON-STANDARD-INCHI - InChI=1S/C15H29O19P3/c16-7-1-27-10(13(7)19)4-31-36(23,24)34-15-9(18)3-29-12(15)6-32-37(25,26)33-14-8(17)2-28-11(14)5-30-35(20,21)22/h7-19H,1-6H2,(H,23,24)(H,25,26)(H2,20,21,22)/p-3/t7-,8-,9-,10+,11+,12+,13-,14-,15-/m0/s1
//
UNIQUE-ID - ASD85_15470-tRNA
TYPES - GLN-tRNAs
COMMON-NAME - tRNA-Gln
ANTICODON - TTG
GENE - ASD85_15470
MODIFIED-FORM - charged-ASD85_15470-tRNA
NON-STANDARD-INCHI - InChI=1S/C15H29O19P3/c16-7-1-27-10(13(7)19)4-31-36(23,24)34-15-9(18)3-29-12(15)6-32-37(25,26)33-14-8(17)2-28-11(14)5-30-35(20,21)22/h7-19H,1-6H2,(H,23,24)(H,25,26)(H2,20,21,22)/p-3/t7-,8-,9-,10+,11+,12+,13-,14-,15-/m0/s1
//
UNIQUE-ID - ASD85_16450-tRNA
TYPES - HIS-tRNAs
COMMON-NAME - tRNA-His
ANTICODON - GTG
GENE - ASD85_16450
MODIFIED-FORM - charged-ASD85_16450-tRNA
NON-STANDARD-INCHI - InChI=1S/C15H29O19P3/c16-7-1-27-10(13(7)19)4-31-36(23,24)34-15-9(18)3-29-12(15)6-32-37(25,26)33-14-8(17)2-28-11(14)5-30-35(20,21)22/h7-19H,1-6H2,(H,23,24)(H,25,26)(H2,20,21,22)/p-3/t7-,8-,9-,10+,11+,12+,13-,14-,15-/m0/s1
//
UNIQUE-ID - ASD85_17035-tRNA
TYPES - PRO-tRNAs
COMMON-NAME - tRNA-Pro
ANTICODON - TGG
GENE - ASD85_17035
MODIFIED-FORM - charged-ASD85_17035-tRNA
NON-STANDARD-INCHI - InChI=1S/C15H29O19P3/c16-7-1-27-10(13(7)19)4-31-36(23,24)34-15-9(18)3-29-12(15)6-32-37(25,26)33-14-8(17)2-28-11(14)5-30-35(20,21)22/h7-19H,1-6H2,(H,23,24)(H,25,26)(H2,20,21,22)/p-3/t7-,8-,9-,10+,11+,12+,13-,14-,15-/m0/s1
//
UNIQUE-ID - ASD85_17040-tRNA
TYPES - MET-tRNAs
COMMON-NAME - tRNA-Met
ANTICODON - CAT
GENE - ASD85_17040
MODIFIED-FORM - charged-ASD85_17040-tRNA
NON-STANDARD-INCHI - InChI=1S/C15H29O19P3/c16-7-1-27-10(13(7)19)4-31-36(23,24)34-15-9(18)3-29-12(15)6-32-37(25,26)33-14-8(17)2-28-11(14)5-30-35(20,21)22/h7-19H,1-6H2,(H,23,24)(H,25,26)(H2,20,21,22)/p-3/t7-,8-,9-,10+,11+,12+,13-,14-,15-/m0/s1
//
UNIQUE-ID - ASD85_17240-tRNA
TYPES - THR-tRNAs
COMMON-NAME - tRNA-Thr
ANTICODON - GGT
GENE - ASD85_17240
MODIFIED-FORM - charged-ASD85_17240-tRNA
NON-STANDARD-INCHI - InChI=1S/C15H29O19P3/c16-7-1-27-10(13(7)19)4-31-36(23,24)34-15-9(18)3-29-12(15)6-32-37(25,26)33-14-8(17)2-28-11(14)5-30-35(20,21)22/h7-19H,1-6H2,(H,23,24)(H,25,26)(H2,20,21,22)/p-3/t7-,8-,9-,10+,11+,12+,13-,14-,15-/m0/s1
//
UNIQUE-ID - ASD85_13465-tRNA
TYPES - SER-tRNAs
COMMON-NAME - tRNA-Ser
ANTICODON - GGA
GENE - ASD85_13465
MODIFIED-FORM - charged-ASD85_13465-tRNA
NON-STANDARD-INCHI - InChI=1S/C15H29O19P3/c16-7-1-27-10(13(7)19)4-31-36(23,24)34-15-9(18)3-29-12(15)6-32-37(25,26)33-14-8(17)2-28-11(14)5-30-35(20,21)22/h7-19H,1-6H2,(H,23,24)(H,25,26)(H2,20,21,22)/p-3/t7-,8-,9-,10+,11+,12+,13-,14-,15-/m0/s1
//
UNIQUE-ID - ASD85_13965-tRNA
TYPES - LEU-tRNAs
COMMON-NAME - tRNA-Leu
ANTICODON - CAG
GENE - ASD85_13965
MODIFIED-FORM - charged-ASD85_13965-tRNA
NON-STANDARD-INCHI - InChI=1S/C15H29O19P3/c16-7-1-27-10(13(7)19)4-31-36(23,24)34-15-9(18)3-29-12(15)6-32-37(25,26)33-14-8(17)2-28-11(14)5-30-35(20,21)22/h7-19H,1-6H2,(H,23,24)(H,25,26)(H2,20,21,22)/p-3/t7-,8-,9-,10+,11+,12+,13-,14-,15-/m0/s1
//
UNIQUE-ID - ASD85_14770-tRNA
TYPES - ARG-tRNAs
COMMON-NAME - tRNA-Arg
ANTICODON - ACG
GENE - ASD85_14770
MODIFIED-FORM - charged-ASD85_14770-tRNA
NON-STANDARD-INCHI - InChI=1S/C15H29O19P3/c16-7-1-27-10(13(7)19)4-31-36(23,24)34-15-9(18)3-29-12(15)6-32-37(25,26)33-14-8(17)2-28-11(14)5-30-35(20,21)22/h7-19H,1-6H2,(H,23,24)(H,25,26)(H2,20,21,22)/p-3/t7-,8-,9-,10+,11+,12+,13-,14-,15-/m0/s1
//
UNIQUE-ID - ASD85_14900-tRNA
TYPES - THR-tRNAs
COMMON-NAME - tRNA-Thr
ANTICODON - CGT
GENE - ASD85_14900
MODIFIED-FORM - charged-ASD85_14900-tRNA
NON-STANDARD-INCHI - InChI=1S/C15H29O19P3/c16-7-1-27-10(13(7)19)4-31-36(23,24)34-15-9(18)3-29-12(15)6-32-37(25,26)33-14-8(17)2-28-11(14)5-30-35(20,21)22/h7-19H,1-6H2,(H,23,24)(H,25,26)(H2,20,21,22)/p-3/t7-,8-,9-,10+,11+,12+,13-,14-,15-/m0/s1
//
UNIQUE-ID - ASD85_14990-tRNA
TYPES - GLY-tRNAs
COMMON-NAME - tRNA-Gly
ANTICODON - CCC
GENE - ASD85_14990
MODIFIED-FORM - charged-ASD85_14990-tRNA
NON-STANDARD-INCHI - InChI=1S/C15H29O19P3/c16-7-1-27-10(13(7)19)4-31-36(23,24)34-15-9(18)3-29-12(15)6-32-37(25,26)33-14-8(17)2-28-11(14)5-30-35(20,21)22/h7-19H,1-6H2,(H,23,24)(H,25,26)(H2,20,21,22)/p-3/t7-,8-,9-,10+,11+,12+,13-,14-,15-/m0/s1
//
UNIQUE-ID - ASD85_10030-tRNA
TYPES - MET-tRNAs
COMMON-NAME - tRNA-Met
ANTICODON - CAT
GENE - ASD85_10030
MODIFIED-FORM - charged-ASD85_10030-tRNA
NON-STANDARD-INCHI - InChI=1S/C15H29O19P3/c16-7-1-27-10(13(7)19)4-31-36(23,24)34-15-9(18)3-29-12(15)6-32-37(25,26)33-14-8(17)2-28-11(14)5-30-35(20,21)22/h7-19H,1-6H2,(H,23,24)(H,25,26)(H2,20,21,22)/p-3/t7-,8-,9-,10+,11+,12+,13-,14-,15-/m0/s1
//
UNIQUE-ID - ASD85_10750-tRNA
TYPES - GLY-tRNAs
COMMON-NAME - tRNA-Gly
ANTICODON - GCC
GENE - ASD85_10750
MODIFIED-FORM - charged-ASD85_10750-tRNA
NON-STANDARD-INCHI - InChI=1S/C15H29O19P3/c16-7-1-27-10(13(7)19)4-31-36(23,24)34-15-9(18)3-29-12(15)6-32-37(25,26)33-14-8(17)2-28-11(14)5-30-35(20,21)22/h7-19H,1-6H2,(H,23,24)(H,25,26)(H2,20,21,22)/p-3/t7-,8-,9-,10+,11+,12+,13-,14-,15-/m0/s1
//
UNIQUE-ID - ASD85_11355-tRNA
TYPES - ARG-tRNAs
COMMON-NAME - tRNA-Arg
ANTICODON - CCG
GENE - ASD85_11355
MODIFIED-FORM - charged-ASD85_11355-tRNA
NON-STANDARD-INCHI - InChI=1S/C15H29O19P3/c16-7-1-27-10(13(7)19)4-31-36(23,24)34-15-9(18)3-29-12(15)6-32-37(25,26)33-14-8(17)2-28-11(14)5-30-35(20,21)22/h7-19H,1-6H2,(H,23,24)(H,25,26)(H2,20,21,22)/p-3/t7-,8-,9-,10+,11+,12+,13-,14-,15-/m0/s1
//
UNIQUE-ID - ASD85_12325-tRNA
TYPES - MET-tRNAs
COMMON-NAME - tRNA-Met
ANTICODON - CAT
GENE - ASD85_12325
MODIFIED-FORM - charged-ASD85_12325-tRNA
NON-STANDARD-INCHI - InChI=1S/C15H29O19P3/c16-7-1-27-10(13(7)19)4-31-36(23,24)34-15-9(18)3-29-12(15)6-32-37(25,26)33-14-8(17)2-28-11(14)5-30-35(20,21)22/h7-19H,1-6H2,(H,23,24)(H,25,26)(H2,20,21,22)/p-3/t7-,8-,9-,10+,11+,12+,13-,14-,15-/m0/s1
//
UNIQUE-ID - ASD85_13175-RNA
TYPES - Misc-RNAs
COMMON-NAME - bacterial RNase P
COMMENT - Derived by automated computational analysis using gene prediction method: cmsearch.
GENE - ASD85_13175
//
UNIQUE-ID - ASD85_13045-tRNA
TYPES - THR-tRNAs
COMMON-NAME - tRNA-Thr
ANTICODON - TGT
GENE - ASD85_13045
MODIFIED-FORM - charged-ASD85_13045-tRNA
NON-STANDARD-INCHI - InChI=1S/C15H29O19P3/c16-7-1-27-10(13(7)19)4-31-36(23,24)34-15-9(18)3-29-12(15)6-32-37(25,26)33-14-8(17)2-28-11(14)5-30-35(20,21)22/h7-19H,1-6H2,(H,23,24)(H,25,26)(H2,20,21,22)/p-3/t7-,8-,9-,10+,11+,12+,13-,14-,15-/m0/s1
//
UNIQUE-ID - ASD85_13140-tRNA
TYPES - TYR-tRNAs
COMMON-NAME - tRNA-Tyr
ANTICODON - GTA
GENE - ASD85_13140
MODIFIED-FORM - charged-ASD85_13140-tRNA
NON-STANDARD-INCHI - InChI=1S/C15H29O19P3/c16-7-1-27-10(13(7)19)4-31-36(23,24)34-15-9(18)3-29-12(15)6-32-37(25,26)33-14-8(17)2-28-11(14)5-30-35(20,21)22/h7-19H,1-6H2,(H,23,24)(H,25,26)(H2,20,21,22)/p-3/t7-,8-,9-,10+,11+,12+,13-,14-,15-/m0/s1
//
UNIQUE-ID - ASD85_13145-tRNA
TYPES - GLY-tRNAs
COMMON-NAME - tRNA-Gly
ANTICODON - TCC
GENE - ASD85_13145
MODIFIED-FORM - charged-ASD85_13145-tRNA
NON-STANDARD-INCHI - InChI=1S/C15H29O19P3/c16-7-1-27-10(13(7)19)4-31-36(23,24)34-15-9(18)3-29-12(15)6-32-37(25,26)33-14-8(17)2-28-11(14)5-30-35(20,21)22/h7-19H,1-6H2,(H,23,24)(H,25,26)(H2,20,21,22)/p-3/t7-,8-,9-,10+,11+,12+,13-,14-,15-/m0/s1
//
UNIQUE-ID - ASD85_27205-tRNA
TYPES - TRP-tRNAs
COMMON-NAME - tRNA-Trp
ANTICODON - CCA
GENE - ASD85_27205
MODIFIED-FORM - charged-ASD85_27205-tRNA
NON-STANDARD-INCHI - InChI=1S/C15H29O19P3/c16-7-1-27-10(13(7)19)4-31-36(23,24)34-15-9(18)3-29-12(15)6-32-37(25,26)33-14-8(17)2-28-11(14)5-30-35(20,21)22/h7-19H,1-6H2,(H,23,24)(H,25,26)(H2,20,21,22)/p-3/t7-,8-,9-,10+,11+,12+,13-,14-,15-/m0/s1
//
UNIQUE-ID - ASD85_05195-tRNA
TYPES - SER-tRNAs
COMMON-NAME - tRNA-Ser
ANTICODON - GCT
GENE - ASD85_05195
MODIFIED-FORM - charged-ASD85_05195-tRNA
NON-STANDARD-INCHI - InChI=1S/C15H29O19P3/c16-7-1-27-10(13(7)19)4-31-36(23,24)34-15-9(18)3-29-12(15)6-32-37(25,26)33-14-8(17)2-28-11(14)5-30-35(20,21)22/h7-19H,1-6H2,(H,23,24)(H,25,26)(H2,20,21,22)/p-3/t7-,8-,9-,10+,11+,12+,13-,14-,15-/m0/s1
//
UNIQUE-ID - ASD85_06025-tRNA
TYPES - LEU-tRNAs
COMMON-NAME - tRNA-Leu
ANTICODON - TAA
GENE - ASD85_06025
MODIFIED-FORM - charged-ASD85_06025-tRNA
NON-STANDARD-INCHI - InChI=1S/C15H29O19P3/c16-7-1-27-10(13(7)19)4-31-36(23,24)34-15-9(18)3-29-12(15)6-32-37(25,26)33-14-8(17)2-28-11(14)5-30-35(20,21)22/h7-19H,1-6H2,(H,23,24)(H,25,26)(H2,20,21,22)/p-3/t7-,8-,9-,10+,11+,12+,13-,14-,15-/m0/s1
//
UNIQUE-ID - ASD85_06300-tRNA
TYPES - ASN-tRNAs
COMMON-NAME - tRNA-Asn
ANTICODON - GTT
GENE - ASD85_06300
MODIFIED-FORM - charged-ASD85_06300-tRNA
NON-STANDARD-INCHI - InChI=1S/C15H29O19P3/c16-7-1-27-10(13(7)19)4-31-36(23,24)34-15-9(18)3-29-12(15)6-32-37(25,26)33-14-8(17)2-28-11(14)5-30-35(20,21)22/h7-19H,1-6H2,(H,23,24)(H,25,26)(H2,20,21,22)/p-3/t7-,8-,9-,10+,11+,12+,13-,14-,15-/m0/s1
//
UNIQUE-ID - ASD85_06555-tRNA
TYPES - CYS-tRNAs
COMMON-NAME - tRNA-Cys
ANTICODON - GCA
GENE - ASD85_06555
MODIFIED-FORM - charged-ASD85_06555-tRNA
NON-STANDARD-INCHI - InChI=1S/C15H29O19P3/c16-7-1-27-10(13(7)19)4-31-36(23,24)34-15-9(18)3-29-12(15)6-32-37(25,26)33-14-8(17)2-28-11(14)5-30-35(20,21)22/h7-19H,1-6H2,(H,23,24)(H,25,26)(H2,20,21,22)/p-3/t7-,8-,9-,10+,11+,12+,13-,14-,15-/m0/s1
//
UNIQUE-ID - ASD85_06760-tRNA
TYPES - PRO-tRNAs
COMMON-NAME - tRNA-Pro
ANTICODON - GGG
GENE - ASD85_06760
MODIFIED-FORM - charged-ASD85_06760-tRNA
NON-STANDARD-INCHI - InChI=1S/C15H29O19P3/c16-7-1-27-10(13(7)19)4-31-36(23,24)34-15-9(18)3-29-12(15)6-32-37(25,26)33-14-8(17)2-28-11(14)5-30-35(20,21)22/h7-19H,1-6H2,(H,23,24)(H,25,26)(H2,20,21,22)/p-3/t7-,8-,9-,10+,11+,12+,13-,14-,15-/m0/s1
//
UNIQUE-ID - ASD85_06920-tRNA
TYPES - VAL-tRNAs
COMMON-NAME - tRNA-Val
ANTICODON - TAC
GENE - ASD85_06920
MODIFIED-FORM - charged-ASD85_06920-tRNA
NON-STANDARD-INCHI - InChI=1S/C15H29O19P3/c16-7-1-27-10(13(7)19)4-31-36(23,24)34-15-9(18)3-29-12(15)6-32-37(25,26)33-14-8(17)2-28-11(14)5-30-35(20,21)22/h7-19H,1-6H2,(H,23,24)(H,25,26)(H2,20,21,22)/p-3/t7-,8-,9-,10+,11+,12+,13-,14-,15-/m0/s1
//
UNIQUE-ID - ASD85_06925-tRNA
TYPES - ASP-tRNAs
COMMON-NAME - tRNA-Asp
ANTICODON - GTC
GENE - ASD85_06925
MODIFIED-FORM - charged-ASD85_06925-tRNA
NON-STANDARD-INCHI - InChI=1S/C15H29O19P3/c16-7-1-27-10(13(7)19)4-31-36(23,24)34-15-9(18)3-29-12(15)6-32-37(25,26)33-14-8(17)2-28-11(14)5-30-35(20,21)22/h7-19H,1-6H2,(H,23,24)(H,25,26)(H2,20,21,22)/p-3/t7-,8-,9-,10+,11+,12+,13-,14-,15-/m0/s1
//
UNIQUE-ID - ASD85_06930-tRNA
TYPES - ASP-tRNAs
COMMON-NAME - tRNA-Asp
ANTICODON - GTC
GENE - ASD85_06930
MODIFIED-FORM - charged-ASD85_06930-tRNA
NON-STANDARD-INCHI - InChI=1S/C15H29O19P3/c16-7-1-27-10(13(7)19)4-31-36(23,24)34-15-9(18)3-29-12(15)6-32-37(25,26)33-14-8(17)2-28-11(14)5-30-35(20,21)22/h7-19H,1-6H2,(H,23,24)(H,25,26)(H2,20,21,22)/p-3/t7-,8-,9-,10+,11+,12+,13-,14-,15-/m0/s1
//
UNIQUE-ID - ASD85_07965-tRNA
TYPES - SER-tRNAs
COMMON-NAME - tRNA-Ser
ANTICODON - TGA
GENE - ASD85_07965
MODIFIED-FORM - charged-ASD85_07965-tRNA
NON-STANDARD-INCHI - InChI=1S/C15H29O19P3/c16-7-1-27-10(13(7)19)4-31-36(23,24)34-15-9(18)3-29-12(15)6-32-37(25,26)33-14-8(17)2-28-11(14)5-30-35(20,21)22/h7-19H,1-6H2,(H,23,24)(H,25,26)(H2,20,21,22)/p-3/t7-,8-,9-,10+,11+,12+,13-,14-,15-/m0/s1
//
UNIQUE-ID - ASD85_08200-tRNA
TYPES - LEU-tRNAs
COMMON-NAME - tRNA-Leu
ANTICODON - GAG
GENE - ASD85_08200
MODIFIED-FORM - charged-ASD85_08200-tRNA
NON-STANDARD-INCHI - InChI=1S/C15H29O19P3/c16-7-1-27-10(13(7)19)4-31-36(23,24)34-15-9(18)3-29-12(15)6-32-37(25,26)33-14-8(17)2-28-11(14)5-30-35(20,21)22/h7-19H,1-6H2,(H,23,24)(H,25,26)(H2,20,21,22)/p-3/t7-,8-,9-,10+,11+,12+,13-,14-,15-/m0/s1
//
UNIQUE-ID - charged-ASD85_25945-tRNA
TYPES - Charged-PHE-tRNAs
COMMON-NAME - charged tRNA-Phe
NON-STANDARD-INCHI - InChI=1S/C9H11NO/c10-9(7-11)6-8-4-2-1-3-5-8/h1-5,7,9H,6,10H2/p+1/t9-/m0/s1
UNMODIFIED-FORM - ASD85_25945-tRNA
//
UNIQUE-ID - charged-ASD85_19925-tRNA
TYPES - Charged-ALA-tRNAs
COMMON-NAME - charged tRNA-Ala
NON-STANDARD-INCHI - InChI=1S/C3H7NO/c1-3(4)2-5/h2-3H,4H2,1H3/p+1/t3-/m0/s1
UNMODIFIED-FORM - ASD85_19925-tRNA
//
UNIQUE-ID - ASD85_08545-tRNA
TYPES - LYS-tRNAs
COMMON-NAME - tRNA-Lys
ANTICODON - CTT
GENE - ASD85_08545
MODIFIED-FORM - charged-ASD85_08545-tRNA
NON-STANDARD-INCHI - InChI=1S/C15H29O19P3/c16-7-1-27-10(13(7)19)4-31-36(23,24)34-15-9(18)3-29-12(15)6-32-37(25,26)33-14-8(17)2-28-11(14)5-30-35(20,21)22/h7-19H,1-6H2,(H,23,24)(H,25,26)(H2,20,21,22)/p-3/t7-,8-,9-,10+,11+,12+,13-,14-,15-/m0/s1
//
UNIQUE-ID - charged-ASD85_00025-tRNA
TYPES - Charged-ALA-tRNAs
COMMON-NAME - charged tRNA-Ala
NON-STANDARD-INCHI - InChI=1S/C3H7NO/c1-3(4)2-5/h2-3H,4H2,1H3/p+1/t3-/m0/s1
UNMODIFIED-FORM - ASD85_00025-tRNA
//
UNIQUE-ID - charged-ASD85_06920-tRNA
TYPES - Charged-VAL-tRNAs
COMMON-NAME - charged tRNA-Val
NON-STANDARD-INCHI - InChI=1S/C5H11NO/c1-4(2)5(6)3-7/h3-5H,6H2,1-2H3/p+1/t5-/m1/s1
UNMODIFIED-FORM - ASD85_06920-tRNA
//
UNIQUE-ID - ASD85_08690-tRNA
TYPES - LEU-tRNAs
COMMON-NAME - tRNA-Leu
ANTICODON - TAG
GENE - ASD85_08690
MODIFIED-FORM - charged-ASD85_08690-tRNA
NON-STANDARD-INCHI - InChI=1S/C15H29O19P3/c16-7-1-27-10(13(7)19)4-31-36(23,24)34-15-9(18)3-29-12(15)6-32-37(25,26)33-14-8(17)2-28-11(14)5-30-35(20,21)22/h7-19H,1-6H2,(H,23,24)(H,25,26)(H2,20,21,22)/p-3/t7-,8-,9-,10+,11+,12+,13-,14-,15-/m0/s1
//
UNIQUE-ID - charged-ASD85_00300-tRNA
TYPES - Charged-VAL-tRNAs
COMMON-NAME - charged tRNA-Val
NON-STANDARD-INCHI - InChI=1S/C5H11NO/c1-4(2)5(6)3-7/h3-5H,6H2,1-2H3/p+1/t5-/m1/s1
UNMODIFIED-FORM - ASD85_00300-tRNA
//
UNIQUE-ID - charged-ASD85_08690-tRNA
TYPES - Charged-LEU-tRNAs
COMMON-NAME - charged tRNA-Leu
NON-STANDARD-INCHI - InChI=1S/C6H13NO/c1-5(2)3-6(7)4-8/h4-6H,3,7H2,1-2H3/p+1
UNMODIFIED-FORM - ASD85_08690-tRNA
//
UNIQUE-ID - ASD85_08955-tRNA
TYPES - CYS-tRNAs
COMMON-NAME - tRNA-Cys
ANTICODON - GCA
GENE - ASD85_08955
MODIFIED-FORM - charged-ASD85_08955-tRNA
NON-STANDARD-INCHI - InChI=1S/C15H29O19P3/c16-7-1-27-10(13(7)19)4-31-36(23,24)34-15-9(18)3-29-12(15)6-32-37(25,26)33-14-8(17)2-28-11(14)5-30-35(20,21)22/h7-19H,1-6H2,(H,23,24)(H,25,26)(H2,20,21,22)/p-3/t7-,8-,9-,10+,11+,12+,13-,14-,15-/m0/s1
//
UNIQUE-ID - charged-ASD85_08200-tRNA
TYPES - Charged-LEU-tRNAs
COMMON-NAME - charged tRNA-Leu
NON-STANDARD-INCHI - InChI=1S/C6H13NO/c1-5(2)3-6(7)4-8/h4-6H,3,7H2,1-2H3/p+1
UNMODIFIED-FORM - ASD85_08200-tRNA
//
UNIQUE-ID - charged-ASD85_02545-tRNA
TYPES - Charged-LEU-tRNAs
COMMON-NAME - charged tRNA-Leu
NON-STANDARD-INCHI - InChI=1S/C6H13NO/c1-5(2)3-6(7)4-8/h4-6H,3,7H2,1-2H3/p+1
UNMODIFIED-FORM - ASD85_02545-tRNA
//
UNIQUE-ID - ASD85_09320-tRNA
TYPES - LYS-tRNAs
COMMON-NAME - tRNA-Lys
ANTICODON - TTT
GENE - ASD85_09320
MODIFIED-FORM - charged-ASD85_09320-tRNA
NON-STANDARD-INCHI - InChI=1S/C15H29O19P3/c16-7-1-27-10(13(7)19)4-31-36(23,24)34-15-9(18)3-29-12(15)6-32-37(25,26)33-14-8(17)2-28-11(14)5-30-35(20,21)22/h7-19H,1-6H2,(H,23,24)(H,25,26)(H2,20,21,22)/p-3/t7-,8-,9-,10+,11+,12+,13-,14-,15-/m0/s1
//
UNIQUE-ID - charged-ASD85_06025-tRNA
TYPES - Charged-LEU-tRNAs
COMMON-NAME - charged tRNA-Leu
NON-STANDARD-INCHI - InChI=1S/C6H13NO/c1-5(2)3-6(7)4-8/h4-6H,3,7H2,1-2H3/p+1
UNMODIFIED-FORM - ASD85_06025-tRNA
//
UNIQUE-ID - charged-ASD85_13965-tRNA
TYPES - Charged-LEU-tRNAs
COMMON-NAME - charged tRNA-Leu
NON-STANDARD-INCHI - InChI=1S/C6H13NO/c1-5(2)3-6(7)4-8/h4-6H,3,7H2,1-2H3/p+1
UNMODIFIED-FORM - ASD85_13965-tRNA
//
UNIQUE-ID - ASD85_09365-tRNA
TYPES - PRO-tRNAs
COMMON-NAME - tRNA-Pro
GENE - ASD85_09365
MODIFIED-FORM - charged-ASD85_09365-tRNA
NON-STANDARD-INCHI - InChI=1S/C15H29O19P3/c16-7-1-27-10(13(7)19)4-31-36(23,24)34-15-9(18)3-29-12(15)6-32-37(25,26)33-14-8(17)2-28-11(14)5-30-35(20,21)22/h7-19H,1-6H2,(H,23,24)(H,25,26)(H2,20,21,22)/p-3/t7-,8-,9-,10+,11+,12+,13-,14-,15-/m0/s1
//
UNIQUE-ID - charged-ASD85_17240-tRNA
TYPES - Charged-THR-tRNAs
COMMON-NAME - charged tRNA-Thr
NON-STANDARD-INCHI - InChI=1S/C4H9NO2/c1-3(7)4(5)2-6/h2-4,7H,5H2,1H3/p+1/t3-,4+/m0/s1
UNMODIFIED-FORM - ASD85_17240-tRNA
//
UNIQUE-ID - charged-ASD85_13045-tRNA
TYPES - Charged-THR-tRNAs
COMMON-NAME - charged tRNA-Thr
NON-STANDARD-INCHI - InChI=1S/C4H9NO2/c1-3(7)4(5)2-6/h2-4,7H,5H2,1H3/p+1/t3-,4+/m0/s1
UNMODIFIED-FORM - ASD85_13045-tRNA
//
UNIQUE-ID - ASD85_09375-tRNA
TYPES - ARG-tRNAs
COMMON-NAME - tRNA-Arg
ANTICODON - TCT
GENE - ASD85_09375
MODIFIED-FORM - charged-ASD85_09375-tRNA
NON-STANDARD-INCHI - InChI=1S/C15H29O19P3/c16-7-1-27-10(13(7)19)4-31-36(23,24)34-15-9(18)3-29-12(15)6-32-37(25,26)33-14-8(17)2-28-11(14)5-30-35(20,21)22/h7-19H,1-6H2,(H,23,24)(H,25,26)(H2,20,21,22)/p-3/t7-,8-,9-,10+,11+,12+,13-,14-,15-/m0/s1
//
UNIQUE-ID - charged-ASD85_14900-tRNA
TYPES - Charged-THR-tRNAs
COMMON-NAME - charged tRNA-Thr
NON-STANDARD-INCHI - InChI=1S/C4H9NO2/c1-3(7)4(5)2-6/h2-4,7H,5H2,1H3/p+1/t3-,4+/m0/s1
UNMODIFIED-FORM - ASD85_14900-tRNA
//
UNIQUE-ID - charged-ASD85_13465-tRNA
TYPES - Charged-SER-tRNAs
COMMON-NAME - charged tRNA-Ser
NON-STANDARD-INCHI - InChI=1S/C3H7NO2/c4-3(1-5)2-6/h1,3,6H,2,4H2/p+1/t3-/m1/s1
UNMODIFIED-FORM - ASD85_13465-tRNA
//
UNIQUE-ID - ASD85_25945-tRNA
TYPES - PHE-tRNAs
COMMON-NAME - tRNA-Phe
ANTICODON - GAA
GENE - ASD85_25945
MODIFIED-FORM - charged-ASD85_25945-tRNA
NON-STANDARD-INCHI - InChI=1S/C15H29O19P3/c16-7-1-27-10(13(7)19)4-31-36(23,24)34-15-9(18)3-29-12(15)6-32-37(25,26)33-14-8(17)2-28-11(14)5-30-35(20,21)22/h7-19H,1-6H2,(H,23,24)(H,25,26)(H2,20,21,22)/p-3/t7-,8-,9-,10+,11+,12+,13-,14-,15-/m0/s1
//
UNIQUE-ID - charged-ASD85_07965-tRNA
TYPES - Charged-SER-tRNAs
COMMON-NAME - charged tRNA-Ser
NON-STANDARD-INCHI - InChI=1S/C3H7NO2/c4-3(1-5)2-6/h1,3,6H,2,4H2/p+1/t3-/m1/s1
UNMODIFIED-FORM - ASD85_07965-tRNA
//
UNIQUE-ID - charged-ASD85_05195-tRNA
TYPES - Charged-SER-tRNAs
COMMON-NAME - charged tRNA-Ser
NON-STANDARD-INCHI - InChI=1S/C3H7NO2/c4-3(1-5)2-6/h1,3,6H,2,4H2/p+1/t3-/m1/s1
UNMODIFIED-FORM - ASD85_05195-tRNA
//
UNIQUE-ID - ASD85_00005-tRNA
TYPES - MET-tRNAs
COMMON-NAME - tRNA-Met
ANTICODON - CAT
GENE - ASD85_00005
MODIFIED-FORM - charged-ASD85_00005-tRNA
NON-STANDARD-INCHI - InChI=1S/C15H29O19P3/c16-7-1-27-10(13(7)19)4-31-36(23,24)34-15-9(18)3-29-12(15)6-32-37(25,26)33-14-8(17)2-28-11(14)5-30-35(20,21)22/h7-19H,1-6H2,(H,23,24)(H,25,26)(H2,20,21,22)/p-3/t7-,8-,9-,10+,11+,12+,13-,14-,15-/m0/s1
//
UNIQUE-ID - charged-ASD85_00690-tRNA
TYPES - Charged-SER-tRNAs
COMMON-NAME - charged tRNA-Ser
NON-STANDARD-INCHI - InChI=1S/C3H7NO2/c4-3(1-5)2-6/h1,3,6H,2,4H2/p+1/t3-/m1/s1
UNMODIFIED-FORM - ASD85_00690-tRNA
//
UNIQUE-ID - charged-ASD85_06930-tRNA
TYPES - Charged-ASX-tRNAs
COMMON-NAME - charged tRNA-Asp
NON-STANDARD-INCHI - InChI=1S/C15H29O19P3/c16-7-1-27-10(13(7)19)4-31-36(23,24)34-15-9(18)3-29-12(15)6-32-37(25,26)33-14-8(17)2-28-11(14)5-30-35(20,21)22/h7-19H,1-6H2,(H,23,24)(H,25,26)(H2,20,21,22)/p-3/t7-,8-,9-,10+,11+,12+,13-,14-,15-/m0/s1
UNMODIFIED-FORM - ASD85_06930-tRNA
//
UNIQUE-ID - ASD85_00010-tRNA
TYPES - MET-tRNAs
COMMON-NAME - tRNA-Met
ANTICODON - CAT
GENE - ASD85_00010
MODIFIED-FORM - charged-ASD85_00010-tRNA
NON-STANDARD-INCHI - InChI=1S/C15H29O19P3/c16-7-1-27-10(13(7)19)4-31-36(23,24)34-15-9(18)3-29-12(15)6-32-37(25,26)33-14-8(17)2-28-11(14)5-30-35(20,21)22/h7-19H,1-6H2,(H,23,24)(H,25,26)(H2,20,21,22)/p-3/t7-,8-,9-,10+,11+,12+,13-,14-,15-/m0/s1
//
UNIQUE-ID - charged-ASD85_06925-tRNA
TYPES - Charged-ASX-tRNAs
COMMON-NAME - charged tRNA-Asp
NON-STANDARD-INCHI - InChI=1S/C15H29O19P3/c16-7-1-27-10(13(7)19)4-31-36(23,24)34-15-9(18)3-29-12(15)6-32-37(25,26)33-14-8(17)2-28-11(14)5-30-35(20,21)22/h7-19H,1-6H2,(H,23,24)(H,25,26)(H2,20,21,22)/p-3/t7-,8-,9-,10+,11+,12+,13-,14-,15-/m0/s1
UNMODIFIED-FORM - ASD85_06925-tRNA
//
UNIQUE-ID - charged-ASD85_06300-tRNA
TYPES - Charged-ASX-tRNAs
COMMON-NAME - charged tRNA-Asn
NON-STANDARD-INCHI - InChI=1S/C15H29O19P3/c16-7-1-27-10(13(7)19)4-31-36(23,24)34-15-9(18)3-29-12(15)6-32-37(25,26)33-14-8(17)2-28-11(14)5-30-35(20,21)22/h7-19H,1-6H2,(H,23,24)(H,25,26)(H2,20,21,22)/p-3/t7-,8-,9-,10+,11+,12+,13-,14-,15-/m0/s1
UNMODIFIED-FORM - ASD85_06300-tRNA
//
UNIQUE-ID - ASD85_00015-rRNA
TYPES - rRNAs
COMMON-NAME - 5S ribosomal RNA
COMMENT - Derived by automated computational analysis using gene prediction method: cmsearch.
GENE - ASD85_00015
NON-STANDARD-INCHI - InChI=1S/C15H29O19P3/c16-7-1-27-10(13(7)19)4-31-36(23,24)34-15-9(18)3-29-12(15)6-32-37(25,26)33-14-8(17)2-28-11(14)5-30-35(20,21)22/h7-19H,1-6H2,(H,23,24)(H,25,26)(H2,20,21,22)/p-3/t7-,8-,9-,10+,11+,12+,13-,14-,15-/m0/s1
//
UNIQUE-ID - charged-ASD85_13140-tRNA
TYPES - Charged-TYR-tRNAs
COMMON-NAME - charged tRNA-Tyr
NON-STANDARD-INCHI - InChI=1S/C9H11NO2/c10-8(6-11)5-7-1-3-9(12)4-2-7/h1-4,6,8,12H,5,10H2/p+1/t8-/m0/s1
UNMODIFIED-FORM - ASD85_13140-tRNA
//
UNIQUE-ID - ASD85_00020-rRNA
TYPES - rRNAs
COMMON-NAME - 23S ribosomal RNA
GENE - ASD85_00020
NON-STANDARD-INCHI - InChI=1S/C15H29O19P3/c16-7-1-27-10(13(7)19)4-31-36(23,24)34-15-9(18)3-29-12(15)6-32-37(25,26)33-14-8(17)2-28-11(14)5-30-35(20,21)22/h7-19H,1-6H2,(H,23,24)(H,25,26)(H2,20,21,22)/p-3/t7-,8-,9-,10+,11+,12+,13-,14-,15-/m0/s1
//
UNIQUE-ID - charged-ASD85_17040-tRNA
TYPES - Charged-MET-tRNAs
COMMON-NAME - charged tRNA-Met
NON-STANDARD-INCHI - InChI=1S/C5H11NOS/c1-8-3-2-5(6)4-7/h4-5H,2-3,6H2,1H3/p+1/t5-/m0/s1
UNMODIFIED-FORM - ASD85_17040-tRNA
//
UNIQUE-ID - charged-ASD85_01365-tRNA
TYPES - Charged-MET-tRNAs
COMMON-NAME - charged tRNA-Met
NON-STANDARD-INCHI - InChI=1S/C5H11NOS/c1-8-3-2-5(6)4-7/h4-5H,2-3,6H2,1H3/p+1/t5-/m0/s1
UNMODIFIED-FORM - ASD85_01365-tRNA
//
UNIQUE-ID - ASD85_00025-tRNA
TYPES - ALA-tRNAs
COMMON-NAME - tRNA-Ala
ANTICODON - TGC
GENE - ASD85_00025
MODIFIED-FORM - charged-ASD85_00025-tRNA
NON-STANDARD-INCHI - InChI=1S/C15H29O19P3/c16-7-1-27-10(13(7)19)4-31-36(23,24)34-15-9(18)3-29-12(15)6-32-37(25,26)33-14-8(17)2-28-11(14)5-30-35(20,21)22/h7-19H,1-6H2,(H,23,24)(H,25,26)(H2,20,21,22)/p-3/t7-,8-,9-,10+,11+,12+,13-,14-,15-/m0/s1
//
UNIQUE-ID - charged-ASD85_12325-tRNA
TYPES - Charged-MET-tRNAs
COMMON-NAME - charged tRNA-Met
NON-STANDARD-INCHI - InChI=1S/C5H11NOS/c1-8-3-2-5(6)4-7/h4-5H,2-3,6H2,1H3/p+1/t5-/m0/s1
UNMODIFIED-FORM - ASD85_12325-tRNA
//
UNIQUE-ID - charged-ASD85_00010-tRNA
TYPES - Charged-MET-tRNAs
COMMON-NAME - charged tRNA-Met
NON-STANDARD-INCHI - InChI=1S/C5H11NOS/c1-8-3-2-5(6)4-7/h4-5H,2-3,6H2,1H3/p+1/t5-/m0/s1
UNMODIFIED-FORM - ASD85_00010-tRNA
//
UNIQUE-ID - ASD85_00030-tRNA
TYPES - ILE-tRNAs
COMMON-NAME - tRNA-Ile
ANTICODON - GAT
GENE - ASD85_00030
MODIFIED-FORM - charged-ASD85_00030-tRNA
NON-STANDARD-INCHI - InChI=1S/C15H29O19P3/c16-7-1-27-10(13(7)19)4-31-36(23,24)34-15-9(18)3-29-12(15)6-32-37(25,26)33-14-8(17)2-28-11(14)5-30-35(20,21)22/h7-19H,1-6H2,(H,23,24)(H,25,26)(H2,20,21,22)/p-3/t7-,8-,9-,10+,11+,12+,13-,14-,15-/m0/s1
//
UNIQUE-ID - charged-ASD85_10030-tRNA
TYPES - Charged-MET-tRNAs
COMMON-NAME - charged tRNA-Met
NON-STANDARD-INCHI - InChI=1S/C5H11NOS/c1-8-3-2-5(6)4-7/h4-5H,2-3,6H2,1H3/p+1/t5-/m0/s1
UNMODIFIED-FORM - ASD85_10030-tRNA
//
UNIQUE-ID - charged-ASD85_00005-tRNA
TYPES - Charged-MET-tRNAs
COMMON-NAME - charged tRNA-Met
NON-STANDARD-INCHI - InChI=1S/C5H11NOS/c1-8-3-2-5(6)4-7/h4-5H,2-3,6H2,1H3/p+1/t5-/m0/s1
UNMODIFIED-FORM - ASD85_00005-tRNA
//
UNIQUE-ID - ASD85_00035-rRNA
TYPES - rRNAs
COMMON-NAME - 16S ribosomal RNA
GENE - ASD85_00035
NON-STANDARD-INCHI - InChI=1S/C15H29O19P3/c16-7-1-27-10(13(7)19)4-31-36(23,24)34-15-9(18)3-29-12(15)6-32-37(25,26)33-14-8(17)2-28-11(14)5-30-35(20,21)22/h7-19H,1-6H2,(H,23,24)(H,25,26)(H2,20,21,22)/p-3/t7-,8-,9-,10+,11+,12+,13-,14-,15-/m0/s1
//
UNIQUE-ID - charged-ASD85_01370-tRNA
TYPES - Charged-GLY-tRNAs
COMMON-NAME - charged tRNA-Gly
NON-STANDARD-INCHI - InChI=1S/C2H5NO/c3-1-2-4/h2H,1,3H2/p+1
UNMODIFIED-FORM - ASD85_01370-tRNA
//
UNIQUE-ID - charged-ASD85_13145-tRNA
TYPES - Charged-GLY-tRNAs
COMMON-NAME - charged tRNA-Gly
NON-STANDARD-INCHI - InChI=1S/C2H5NO/c3-1-2-4/h2H,1,3H2/p+1
UNMODIFIED-FORM - ASD85_13145-tRNA
//
UNIQUE-ID - ASD85_00300-tRNA
TYPES - VAL-tRNAs
COMMON-NAME - tRNA-Val
ANTICODON - GAC
GENE - ASD85_00300
MODIFIED-FORM - charged-ASD85_00300-tRNA
NON-STANDARD-INCHI - InChI=1S/C15H29O19P3/c16-7-1-27-10(13(7)19)4-31-36(23,24)34-15-9(18)3-29-12(15)6-32-37(25,26)33-14-8(17)2-28-11(14)5-30-35(20,21)22/h7-19H,1-6H2,(H,23,24)(H,25,26)(H2,20,21,22)/p-3/t7-,8-,9-,10+,11+,12+,13-,14-,15-/m0/s1
//
UNIQUE-ID - charged-ASD85_10750-tRNA
TYPES - Charged-GLY-tRNAs
COMMON-NAME - charged tRNA-Gly
NON-STANDARD-INCHI - InChI=1S/C2H5NO/c3-1-2-4/h2H,1,3H2/p+1
UNMODIFIED-FORM - ASD85_10750-tRNA
//
UNIQUE-ID - charged-ASD85_14990-tRNA
TYPES - Charged-GLY-tRNAs
COMMON-NAME - charged tRNA-Gly
NON-STANDARD-INCHI - InChI=1S/C2H5NO/c3-1-2-4/h2H,1,3H2/p+1
UNMODIFIED-FORM - ASD85_14990-tRNA
//
UNIQUE-ID - ASD85_00690-tRNA
TYPES - SER-tRNAs
COMMON-NAME - tRNA-Ser
ANTICODON - CGA
GENE - ASD85_00690
MODIFIED-FORM - charged-ASD85_00690-tRNA
NON-STANDARD-INCHI - InChI=1S/C15H29O19P3/c16-7-1-27-10(13(7)19)4-31-36(23,24)34-15-9(18)3-29-12(15)6-32-37(25,26)33-14-8(17)2-28-11(14)5-30-35(20,21)22/h7-19H,1-6H2,(H,23,24)(H,25,26)(H2,20,21,22)/p-3/t7-,8-,9-,10+,11+,12+,13-,14-,15-/m0/s1
//
UNIQUE-ID - charged-ASD85_00030-tRNA
TYPES - Charged-ILE-tRNAs
COMMON-NAME - charged tRNA-Ile
NON-STANDARD-INCHI - InChI=1S/C6H13NO/c1-3-5(2)6(7)4-8/h4-6H,3,7H2,1-2H3/p+1/t5-,6?/m0/s1
UNMODIFIED-FORM - ASD85_00030-tRNA
//
UNIQUE-ID - charged-ASD85_11355-tRNA
TYPES - Charged-ARG-tRNAs
COMMON-NAME - charged tRNA-Arg
NON-STANDARD-INCHI - InChI=1S/C6H14N4O/c7-5(4-11)2-1-3-10-6(8)9/h4-5H,1-3,7H2,(H4,8,9,10)/p+2
UNMODIFIED-FORM - ASD85_11355-tRNA
//
UNIQUE-ID - ASD85_01365-tRNA
TYPES - MET-tRNAs
COMMON-NAME - tRNA-Met
ANTICODON - CAT
GENE - ASD85_01365
MODIFIED-FORM - charged-ASD85_01365-tRNA
NON-STANDARD-INCHI - InChI=1S/C15H29O19P3/c16-7-1-27-10(13(7)19)4-31-36(23,24)34-15-9(18)3-29-12(15)6-32-37(25,26)33-14-8(17)2-28-11(14)5-30-35(20,21)22/h7-19H,1-6H2,(H,23,24)(H,25,26)(H2,20,21,22)/p-3/t7-,8-,9-,10+,11+,12+,13-,14-,15-/m0/s1
//
UNIQUE-ID - charged-ASD85_09375-tRNA
TYPES - Charged-ARG-tRNAs
COMMON-NAME - charged tRNA-Arg
NON-STANDARD-INCHI - InChI=1S/C6H14N4O/c7-5(4-11)2-1-3-10-6(8)9/h4-5H,1-3,7H2,(H4,8,9,10)/p+2
UNMODIFIED-FORM - ASD85_09375-tRNA
//
UNIQUE-ID - charged-ASD85_14770-tRNA
TYPES - Charged-ARG-tRNAs
COMMON-NAME - charged tRNA-Arg
NON-STANDARD-INCHI - InChI=1S/C6H14N4O/c7-5(4-11)2-1-3-10-6(8)9/h4-5H,1-3,7H2,(H4,8,9,10)/p+2
UNMODIFIED-FORM - ASD85_14770-tRNA
//
UNIQUE-ID - ASD85_01370-tRNA
TYPES - GLY-tRNAs
COMMON-NAME - tRNA-Gly
ANTICODON - GCC
GENE - ASD85_01370
MODIFIED-FORM - charged-ASD85_01370-tRNA
NON-STANDARD-INCHI - InChI=1S/C15H29O19P3/c16-7-1-27-10(13(7)19)4-31-36(23,24)34-15-9(18)3-29-12(15)6-32-37(25,26)33-14-8(17)2-28-11(14)5-30-35(20,21)22/h7-19H,1-6H2,(H,23,24)(H,25,26)(H2,20,21,22)/p-3/t7-,8-,9-,10+,11+,12+,13-,14-,15-/m0/s1
//
UNIQUE-ID - charged-ASD85_16450-tRNA
TYPES - Charged-HIS-tRNAs
COMMON-NAME - charged tRNA-His
NON-STANDARD-INCHI - InChI=1S/C6H9N3O/c7-5(3-10)1-6-2-8-4-9-6/h2-5H,1,7H2,(H,8,9)/p+1
UNMODIFIED-FORM - ASD85_16450-tRNA
//
UNIQUE-ID - charged-ASD85_08955-tRNA
TYPES - Charged-CYS-tRNAs
COMMON-NAME - charged tRNA-Cys
NON-STANDARD-INCHI - InChI=1S/C3H7NOS/c4-3(1-5)2-6/h1,3,6H,2,4H2/p+1
UNMODIFIED-FORM - ASD85_08955-tRNA
//
UNIQUE-ID - ASD85_02545-tRNA
TYPES - LEU-tRNAs
COMMON-NAME - tRNA-Leu
ANTICODON - CAA
GENE - ASD85_02545
MODIFIED-FORM - charged-ASD85_02545-tRNA
NON-STANDARD-INCHI - InChI=1S/C15H29O19P3/c16-7-1-27-10(13(7)19)4-31-36(23,24)34-15-9(18)3-29-12(15)6-32-37(25,26)33-14-8(17)2-28-11(14)5-30-35(20,21)22/h7-19H,1-6H2,(H,23,24)(H,25,26)(H2,20,21,22)/p-3/t7-,8-,9-,10+,11+,12+,13-,14-,15-/m0/s1
//
UNIQUE-ID - charged-ASD85_06555-tRNA
TYPES - Charged-CYS-tRNAs
COMMON-NAME - charged tRNA-Cys
NON-STANDARD-INCHI - InChI=1S/C3H7NOS/c4-3(1-5)2-6/h1,3,6H,2,4H2/p+1
UNMODIFIED-FORM - ASD85_06555-tRNA
//
UNIQUE-ID - charged-ASD85_09320-tRNA
TYPES - Charged-LYS-tRNAs
COMMON-NAME - charged tRNA-Lys
NON-STANDARD-INCHI - InChI=1S/C6H14N2O/c7-4-2-1-3-6(8)5-9/h5-6H,1-4,7-8H2/p+2
UNMODIFIED-FORM - ASD85_09320-tRNA
//
UNIQUE-ID - charged-ASD85_08545-tRNA
TYPES - Charged-LYS-tRNAs
COMMON-NAME - charged tRNA-Lys
NON-STANDARD-INCHI - InChI=1S/C6H14N2O/c7-4-2-1-3-6(8)5-9/h5-6H,1-4,7-8H2/p+2
UNMODIFIED-FORM - ASD85_08545-tRNA
//
UNIQUE-ID - charged-ASD85_17035-tRNA
TYPES - Charged-PRO-tRNAs
COMMON-NAME - charged tRNA-Pro
NON-STANDARD-INCHI - InChI=1S/C5H9NO/c7-4-5-2-1-3-6-5/h4-6H,1-3H2/p+1/t5-/m0/s1
UNMODIFIED-FORM - ASD85_17035-tRNA
//
UNIQUE-ID - charged-ASD85_15450-tRNA
TYPES - Charged-PRO-tRNAs
COMMON-NAME - charged tRNA-Pro
NON-STANDARD-INCHI - InChI=1S/C5H9NO/c7-4-5-2-1-3-6-5/h4-6H,1-3H2/p+1/t5-/m0/s1
UNMODIFIED-FORM - ASD85_15450-tRNA
//
