dbRef_id	Common name	Produced (p), Consumed (c), Both (cp)
CPD-10011	demethyl-L-phosphinothricin	c
CPD-11746	N-acetyldemethyl-L-phosphinothricin	p
N-Acylated-Aliphatic-Amino-Acids	an N-acylated aliphatic-L-amino acid	c
CPD-19163	(2E,11Z)-octadecenoyl-CoA	cp
11Z-3-oxo-icos-11-enoyl-ACPs	an (11Z)-3-oxo-icos-11-enoyl-[acp]	cp
PALMITATE	palmitate	cp
Peptidoglycans	a peptidoglycan	c
GLUTATHIONE	glutathione	cp
PALMITYL-COA	palmitoyl-CoA	cp
HMP	4-amino-2-methyl-5-pyrimidinemethanol	c
CPD-19168	(S)-3-hydroxy-(7Z)-hexadecenoyl-CoA	p
OROTIDINE-5-PHOSPHATE	orotidine 5'-phosphate	cp
THMPT	tetrahydromethanopterin	p
11Z-icos-11-enoyl-ACPs	a gondoyl-[acp]	p
CPD-11770	7,8-dihydromonapterin	c
CPD-19170	(2E,7Z)-hexadecenoyl-CoA	cp
N-FORMIMINO-L-GLUTAMATE	N-formimino-L-glutamate	cp
CPD-19171	(S)-3-hydroxy-(9Z)-octadecenoyl-CoA	p
CPD-12115	demethylmenaquinol-8	c
CPD-10267	decanoyl-CoA	p
Phosphoglucosamine-Mutase	a phosphoglucosamine mutase	cp
CPD-19172	(2E,9Z)-octadecenoyl-CoA	cp
OXALACETIC_ACID	oxaloacetate	cp
THR	L-threonine	cp
CPD-12173	(S)-3-hydroxy-isobutanoyl-CoA	cp
CPD-10269	palmitoleoyl-CoA	cp
N-FORMYLKYNURENINE	N-formylkynurenine	p
PANTETHEINE-P	4'-phosphopantetheine	c
CPD-10330	&alpha;-D-ribofuranose	c
THR-tRNAs	a tRNAThr	c
CPD-19217	S-(hydroxysulfenamide)-glutathione	p
Phospholipid-Cyclopropane-Fatty-Acids	a [phospholipid] cyclopropane fatty acid	p
Phospholipid-Olefinic-Fatty-Acids	a [phospholipid] olefinic fatty acid	c
N-Hydroxy-Arylamines	an N-hydroxy-arylamine	c
CPD-19395	&gamma;-L-glutamyl-glycylglycine	p
N-SUCCINYL-2-AMINO-6-KETOPIMELATE	N-succinyl-2-amino-6-ketopimelate	p
Phosphorylated-Phosphoglucosamine-Mutase	a phosphorylated phosphoglucosamine mutase	cp
TTP	dTTP	cp
Phosphorylated-beta-phosphoglucomutase	a phosphorylated &beta;-phosphoglucomutase	cp
CPD-548	S-formylglutathione	cp
CPD-784	5-carboxymethyl-2-hydroxymuconate	c
holo-Transcarboxylases	a holo-[methylmalonyl-CoA:pyruvate carboxytransferase]	p
2-KETO-3-DEOXY-6-P-GLUCONATE	2-dehydro-3-deoxy-D-gluconate 6-phosphate	cp
mRNA-Fragments	an mRNA fragment	p
CPD-302	D-aspartate	p
CPD-556	cholesteryl-&beta;-D-glucoside	p
mRNAs	an mRNA	cp
CPD-785	(3E,5R)-5-carboxy-2-oxohept-3-enedioate	p
2-KETO-3-METHYL-VALERATE	(S)-3-methyl-2-oxopentanoate	cp
mRNAs-with-5-monophosphate	a 5'-phospho-[mRNA]	p
4-IMIDAZOLONE-5-PROPIONATE	4-imidazolone-5-propanoate	cp
QUEUINE	queuine	c
mRNAs-with-5-triphosphate	a 5' triphospho-[mRNA]	c
CPD-31	(R)-citramalate	cp
4-MALEYL-ACETOACETATE	4-maleyl-acetoacetate	cp
16-HYDROXYPALMITATE	16-hydroxypalmitate	c
KDO-LIPID-IVA	&alpha;-Kdo-(2&rarr;6)-lipid IVA	cp
CPD-13940	Co&alpha;-[a-(5-methoxybenzimidazolyl)]-Co&beta;-adenosylcobamide 5'-phosphate	p
CPD-316	reduced riboflavin	p
CPD-558	pimeloyl-CoA	c
CPD-805	deethylsimazine	c
CPD-14018	icosapentaenoyl-CoA	p
CPD-14053	(6R)-L-erythro-5,6,7,8-tetrahydrobiopterin	cp
QUINOLINATE	quinolinate	c
KDO2-LAUROYL-LIPID-IVA	&alpha;-Kdo-(2->4)-&alpha;-Kdo-(2->6)-(lauroyl)-lipid IVA	p
CPD-320	ethylnitronate	c
CPD-806	N-ethylammeline	p
DEOXYINOSINE	2'-deoxyinosine	p
CPD-5662	9-mercaptodethiobiotin	cp
IMP	IMP	cp
CPD-14202	L-erythro-7,8-dihydrobiopterin	p
4-P-PANTOTHENATE	(R)-4'-phosphopantothenate	p
rRNA-fragments	an rRNA fragment	p
CPD-568	N1-acetylspermidine	p
TYR	L-tyrosine	cp
CPD-14268	(15Z)-tetracosenoate	c
TYR-tRNAs	a tRNATyr	c
KDO2-LIPID-IVA	&alpha;-Kdo-(2->4)-&alpha;-Kdo-(2->6)-lipid IVA	c
16S-rRNA-N2-methylguanine966	an N2-methylguanine966 in 16S rRNA	p
4-PHOSPHONOOXY-THREONINE	4-phosphooxy-L-threonine	cp
16S-rRNA-N4-methylcytidine1402	an N4-methylcytidine1402  in 16S rRNA	p
L-PHOSPHATIDATE	a 1,2-diacyl-sn-glycerol 3-phosphate	c
L-PHOSPHINOTHRICIN	L-phosphinothricin	c
3-Hydroxy-Terminated-DNAs	a [DNA]-3'-hydroxyl	c
16S-rRNA-N7-methylguanine527	an N7-methylguanine527 in 16S rRNA	p
GUANINE	guanine	cp
7-8-DIHYDROPTEROATE	7,8-dihydropteroate	c
OXALATE	oxalate	cp
HOMO-CIT	(2R)-homocitrate	cp
16S-rRNA-cytidine1402	a cytidine1402 in 16S rRNA	c
L-SELENOCYSTEINE	L-selenocysteine	p
3-Hydroxy-octanoyl-ACPs	a (3R)-3-hydroxyoctanoyl-[acp]	p
16S-rRNA-guanine-527	a guanine527 in 16S rRNA	c
16S-rRNA-guanine-966	a guanine966 in 16S rRNA	c
HOMO-CYS	L-homocysteine	cp
CH33ADO	5'-deoxyadenosine	cp
3-Hydroxyglutaryl-ACP-methyl-ester	a (3R)-3-hydroxyglutaryl-[acp] methyl ester	p
16S-rRNA-pseudouridine516	a 16S rRNA pseudouridine516	p
Acceptor	an oxidized electron acceptor	cp
OXALO-SUCCINATE	oxalosuccinate	cp
SUPER-OXIDE	superoxide	c
16S-rRNA-uridine516	a uridine516 in 16S rRNA	c
UMP	UMP	cp
HOMO-SER	L-homoserine	cp
7-AMINOMETHYL-7-DEAZAGUANINE	preQ1	cp
CHITIN	chitin	cp
OXALYL-COA	oxalyl-CoA	cp
L-THREONINE-O-3-PHOSPHATE	L-threonine 3-O-phosphate	c
CHITOBIOSE	N,N'-diacetylchitobiose	cp
Acetoacetyl-ACPs	an acetoacetyl-[acp]	cp
CYTIDINE	cytidine	p
GUANOSINE	guanosine	p
UNDECAPRENYL-DIPHOSPHATE	di-trans,octa-cis-undecaprenyl diphosphate	p
DITP	dITP	cp
CHLORAMPHENICOL	chloramphenicol	cp
236-TRICHLOROHYDROQUINONE	2,3,6-trichlorohydroquinone	c
CHLORAMPHENICOL-3-ACETATE	chloramphenicol 3-acetate	cp
GUANOSINE-5DP-3DP	ppGpp	p
18-HYDROXYOLEATE	18-hydroxyoleate	c
L-glutamyl-tRNAGln	an L-glutamyl-[tRNAGln]	c
3-KETO-ADIPATE	3-oxoadipate	p
Saturated-Fatty-Acyl-ACPs	a 2,3,4-saturated fatty acyl-[acp]	cp
7-CYANO-7-DEAZAGUANINE	preQ0	cp
L-leucyl-L-arginyl-Protein	a [protein] N-terminal L-leucyl-L-arginine	p
OXIDIZED-GLUTATHIONE	glutathione disulfide	cp
Saturated-Fatty-Acyl-CoA	a 2,3,4-saturated fatty acyl CoA	cp
URACIL	uracil	p
L-leucyl-L-lysyl-Protein	a [protein] N-terminal L-leucyl-L-lysine	p
OXOPENTENOATE	2-oxopent-4-enoate	cp
FARNESYL-PP	(2E,6E)-farnesyl diphosphate	cp
GAP	D-glyceraldehyde 3-phosphate	cp
LysW-L-glutamate-5-phosphate	a [2-aminoadipate carrier protein]-L-glutamate 5-phosphate	cp
METHYLENE-THF-GLU-N	a 5,10-methylene-tetrahydrofolate	cp
LysW-L-glutamate-5-semialdehyde	a [2-aminoadipate carrier protein]-L-glutamate 5-semialdehyde	cp
S-NITROSOGLUTATHIONE	S-nitrosoglutathione	c
CPD0-1192	poly-&beta;-1,6-N-acetyl-D-glucosamine	c
Acetylxylan	acetylxylan	c
CPD0-1193	partially N-deacetylated poly-&beta;-1,6-N-acetyl-D-glucosamine	p
LysW-L-ornithine	a [2-aminoadipate carrier protein]-L-ornithine	cp
PHOSPHORIBULOSYL-FORMIMINO-AICAR-P	phosphoribulosylformimino-AICAR-phosphate	p
CPD0-1327	5-fluorouracil	p
Lysidine-tRNA-Ile2	a lysidine34 in tRNAIle2	p
METHYLENETETRAHYDROMETHANOPTERIN	5,10-methylene-tetrahydromethanopterin	c
S-Substituted-Glutathione	a glutathione-toxin conjugate	p
S-Substituted-L-Cysteines	an L-cysteine-S-conjugate	p
CPD0-1456	UDP-N-acetyl-&alpha;-D-muramoyl-L-alanine	cp
FE+2	Fe2+	cp
Actinorhodin-Intermediate-2	9-hydroxy-3,5,7,11,13,15-hexaoxohexadecanoyl-[PKS-acp]	p
SACCHAROPINE	L-saccharopine	c
2-3-4-Saturated-L-Phosphatidates	a 1,2-diacyl-sn-glycerol 3-phosphate	c
MAL	(S)-malate	cp
CPD0-1699	6-carboxy-5,6,7,8-tetrahydropterin	cp
Acyl-Phosphates	an acyl phosphate	c
Negatively-super-coiled-DNAs	a negatively supercoiled DNA	cp
CPD0-181	N5-carboxyaminoimidazole ribonucleotide	c
GDP	GDP	cp
GDP-MANNOSE	GDP-&alpha;-D-mannose	c
DEOXYURIDINE	2'-deoxyuridine	c
2-ACETO-2-HYDROXY-BUTYRATE	(S)-2-aceto-2-hydroxybutanoate	cp
DUTP	dUTP	cp
THREO-DS-ISO-CITRATE	D-threo-isocitrate	cp
ssDNA-RNA-primer-hybrid	an ssDNA/RNA primer hybrid	p
ssRNAs	a single-stranded RNA	cp
23S-rRNA-2-methyladenine2503	a 2-methyladenine2503 in 23S rRNA	p
CPD-19487	3-isopropyl-10-(methylthio)-2-oxodecanoate	cp
QXC-ACP	a quinoxaline-2-carboxyl-[acyl-carrier protein]	p
CPD-19488	3-isopropyl-9-(methylthio)-2-oxononanoate	cp
N-SUCCINYLLL-2-6-DIAMINOPIMELATE	N-succinyl-L,L-2,6-diaminopimelate	c
tRNA-2-thiouridine34	a 2-thiouridine34 in tRNA	p
INDOLE	indole	c
23S-rRNA-adenine-2503	adenine2503 in 23S rRNA	c
CPD-19489	3-isopropyl-8-(methylthio)-2-oxooctanoate	cp
INDOLE-3-GLYCEROL-P	(1S,2R)-1-C-(indol-3-yl)glycerol 3-phosphate	cp
23S-rRNA-pseudouridine746	a pseudouridine746 in 23S rRNA	p
PANTOTHENATE	(R)-pantothenate	cp
7Z-3-oxo-hexadec-7-enoyl-ACPs	a (7Z)-3-oxo-hexadec-7-enoyl-[acp]	cp
CPD-19490	3-isopropyl-7-(methylthio)-2-oxoheptanoate	cp
tRNA-Adenosines-37	an adenosine37 in tRNA	c
23S-rRNA-uridine746	uridine746 in 23S rRNA	c
INDOLEYL-CPD	(indole-3-yl)acetonitrile	c
7Z-hexadec-7-enoyl-ACPs	a (7Z)-hexadec-7-enoyl-[acp]	cp
CPD-19491	3-isopropyl-6-(methylthio)-2-oxohexanoate	cp
Adjacent-pyrimidine-dimer-in-DNA	a dimer of adjacent pyrimidine nucleosides in DNA	c
N-Substituted-Amino-Acids	an N-modified amino acid	p
URATE	urate	cp
Quinones	a quinone	c
tRNA-Containing-N7-Methylguanine-46	an N7-methylguanine46 in tRNA	p
8-AMINO-7-OXONONANOATE	8-amino-7-oxononanoate	p
tRNA-Dihydrouridines	a 5,6-dihydrouridine in tRNA	p
CPD-19492	3-ethyl-2-oxosuccinate	cp
N-Substituted-Aminoacyl-tRNA	an N-modified aminoacyl-[tRNA]	c
N-acetyl-D-glucosamine	N-acetyl-D-glucosamine	cp
R-1-AMINOPROPAN-2-YL-PHOSPHATE	(R)-1-amino-2-propanol O-2-phosphate	p
DEOXYXYLULOSE-5P	1-deoxy-D-xylulose 5-phosphate	cp
Alcohols	an alcohol	p
CPD-195	octanoate	c
Behenoyl-ACPs	a behenoyl-[acp]	p
INDOLE_ACETATE_AUXIN	(indol-3-yl)acetate	p
DEPHOSPHO-COA	3'-dephospho-CoA	cp
N-acetyl-D-mannosamine	N-acetyl-D-mannosamine	cp
CPD-196	octanoyl-CoA	p
Aldehydes	an aldehyde	cp
R-2-Haloacids	an (R)-2-haloacid	c
R-2-Hydroxyacids	an (R)-2-hydroxyacid	p
N-acetyl-beta-D-hexosamines	an N-acetyl-&beta;-D-hexosamine	p
UREA	urea	cp
tRNA-Sec	a tRNAsec	c
Beta-3-hydroxybutyryl-ACPs	a (3R)-3-hydroxybutanoyl-[acp]	p
Gcv-H	[glycine cleavage system lipoyl-carrier protein]-L-lysine	c
2-ACETO-LACTATE	(S)-2-acetolactate	cp
INDOLE_PYRUVATE	(indol-3-yl)pyruvate	cp
General-Protein-Substrates	a protein	cp
N-formyl-L-methionyl-tRNAfmet	an N-formyl-L-methionyl-[initiator tRNAmet]	p
2C-METH-D-ERYTHRITOL-CYCLODIPHOSPHATE	2-C-methyl-D-erythritol-2,4-cyclodiphosphate	c
tRNA-precursors	a tRNA precursor	c
R-3-Hydroxypalmitoyl-ACPs	a (3R)-3-hydroxypalmitoyl-[acp]	p
tRNA-pseudouridine-38-40	a pseudouridine38-40 in tRNA	p
N-terminal-L-Serine	an N-terminal L-seryl-[protein]	p
Gln-B	a PII protein	c
R-3-hydroxy-cis-vaccenoyl-ACPs	(R)-3-hydroxy-cis-vacc-11-enoyl-[acp]	p
PAPS	3'-phosphoadenylyl-sulfate	cp
9S-RRNA	a 9S rRNA	c
2-ALPHA-HYDROXYETHYL-THPP	2-(&alpha;-hydroxyethyl)thiamine diphosphate	cp
tRNA-uridine-38-40	a uridine38-40 in tRNA	c
N-terminal-L-alanine	an N-terminal L-alanyl-[protein]	p
2E-11Z-icosa-2-11-dienoyl-ACPs	an (2E,11Z)-icosa-2,11-dienoyl-[acp]	c
Beta-hydroxydecanoyl-ACPs	a (3R)-3-hydroxydecanoyl-[acp]	p
R-3-hydroxyarachidoyl-ACPs	a (3R)-3-hydroxyarachidoyl-[acp]	p
Glucopyranose	D-glucopyranose	cp
9Z-3-oxo-octadec-9-enoyl-ACPs	a (9Z)-3-oxo-octadec-9-enoyl-[acp]	cp
2E-5Z-tetradeca-2-5-dienoyl-ACPs	a (2E,5Z)-tetradeca-2,5-dienoyl-[acp]	c
URIDINE	uridine	p
CPD-335	(R)-3-hydroxybutanoate	cp
4-hydroxybenzoate	4-hydroxybenzoate	cp
2-KETO-ISOVALERATE	3-methyl-2-oxobutanoate	cp
CPD-17637	7-hydroxylaurate	c
CPD-343	3-deoxy-D-glycero-2,5-hexodiulosonate	cp
2-KETOGLUTARATE	2-oxoglutarate	cp
2-LYSOPHOSPHATIDYLETHANOLAMINES	a 1-acyl 2-lyso-phosphatidylethanolamine	c
Nitriles	a nitrile	c
CPD-17638	7-hydroxylauroyl-CoA	p
Pi	phosphate	cp
Semiquinones	a semiquinone	p
CPD-3462	N8-acetylspermidine	p
Pimeloyl-ACP-methyl-esters	a pimeloyl-[acp] methyl ester	cp
CPD-17640	18-hydroxystearate	c
Tetradec-2-enoyl-ACPs	a trans tetradec-2-enoyl-[acp]	c
Pimeloyl-ACPs	a pimeloyl-[acp]	cp
2-Lysophosphatidylcholines	a 1-acyl-sn-glycero-3-phosphocholine	c
GDP-TP	pppGpp	p
CPD-17641	18-hydroxystearoyl-CoA	p
Thi-S	a ThiS sulfur-carrier protein	p
CPD-17813	(2E,11Z)-hexadec-2,11-dienoyl-CoA	c
3-KETOACYL-COA	a 3-oxoacyl-CoA	cp
CPD-3617	decanoate	c
2-METHYL-3-HYDROXY-BUTYRYL-COA	(2S,3S)-3-hydroxy-2-methylbutanoyl-CoA	cp
CPD-17814	(11Z)-(S)-3-hydroxyhexadec-11-enoyl-CoA	p
3-KETOBUTYRATE	acetoacetate	cp
CPD-3618	2-oxovalerate	p
CPD-17858	&omega;-saturated C55 dolichol phosphate	c
2-METHYL-ACETO-ACETYL-COA	2-methylacetoacetyl-CoA	cp
Poly-Hydroxybutyrate	poly-3-hydroxybutanoate	cp
3-Ketoglutaryl-ACP-methyl-ester	a 3-oxo-glutaryl-[acp] methyl ester	cp
CPD-17894	&beta;-D-mannosyl-(C55 &omega;-saturated dolichyl phosphate)	p
Thiocarboxyadenylated-ThiS-Proteins	a thiocarboxy-[ThiS-Protein]	c
CPD-17926	a nascent peptidoglycan with (L-alanyl-&gamma;-D-glutamyl-meso-2,6-diaminopimeloyl-D-alanine) tetrapeptide	p
CPD-17927	a nascent peptidoglycan with (L-alanyl-&gamma;-D-glutamyl-meso-2,6-diaminopimeloyl-D-alanyl-D-alanine) pentapeptide	cp
CPD-17931	a peptidoglycan with (L-alanyl-&gamma;-D-glutamyl-meso-2,6-diaminopimeloyl-D-alanine) tetrapeptide	c
3-Ketopimeloyl-ACP-methyl-esters	a 3-oxo-pimeloyl-[acp] methyl ester	cp
CPD-37	5-dehydro-4-deoxy-D-glucuronate	cp
DNA-Adjacent-Pyrimidines	two adjacent pyrimidine nucleosides in DNA	p
CPD-8123	MoO2-molybdopterin cofactor	c
CPD-14269	(Z)-15-tetracosenoyl-CoA	p
CPD-569	N-acetylputrescine	p
CYTOSINE	cytosine	c
CPD-8124	thio-molybdenum cofactor	p
DNA-Combined-With-Exogenous-DNA	DNA combined with exogenous DNA to form a recombinational junction	c
ALLO-THR	DL-allothreonine	c
CPD-12199	3S-(4-hydroxyphenyl)-3-hydroxy-propanoyl-CoA	p
ADENINE	adenine	cp
ALLYSINE	(S)-2-amino-6-oxohexanoate	cp
CPD-14415	[L-Asp(4-L-Arg)] dipeptide	p
DNA-Cytidines	a 2'-deoxycytidine in DNA	p
CPD-8180	DNA with lesion	c
CPD-5881	(6R)-4a-hydroxy-tetrahydrobiopterin	cp
CPD-12230	a peptidoglycan with D,D cross-link (S. aureus)	p
CPD-8259	&beta;-D-ribosylnicotinate	p
ARSENATE	arsenate	c
CPD-8355	1-18:1-2-lysophosphatidylethanolamine	c
CPD-12231	a peptidoglycan dimer (meso-diaminopimelate containing)	c
CPD-592	4-guanidinobutanoate	p
METOH	methanol	cp
CPD-12259	a peptidoglycan dimer (S. aureus)	c
CPD-14443	(2S,4S)-4-hydroxy-2,3,4,5-tetrahydrodipicolinate	cp
DNA-Holder	DNA	p
ADENOSINE	adenosine	cp
HOMOGENTISATE	homogentisate	cp
CPD-12261	a peptidoglycan with D,D cross-links (meso-diaminopimelate containing)	p
CPD-597	N-carbamoylputrescine	p
ADENOSINE_DIPHOSPHATE_RIBOSE	ADP-D-ribose	c
CPD-8534	DNA without lesion	p
CPD-14553	UDP-&alpha;-D-galactose	cp
CPD-12279	2-iminoacetate	c
CPD-8624	a [protein]-L-proline (&omega; = 180)	cp
CPD-600	N-formyl-L-glutamate	cp
Single-Stranded-DNAs	a single stranded DNA	cp
CPD-12286	4-O-phospho-&alpha;-Kdo-(2&rarr;6)-lipid IVA	p
ALPHA-RIBAZOLE	&alpha;-ribazole	cp
ALPHA-RIBAZOLE-5-P	&alpha;-ribazole 5'-phosphate	cp
CPD-8625	a [protein]-L-proline (&omega; = 0)	cp
tRNA-uridine34	a uridine34 in tRNA	c
CPD-10546	methyl (indol-3-yl)acetate	c
Carboxylates	a carboxylate	cp
L-methionyl-L-alanyl-Protein	an N-terminal-L-methionyl-L-alanyl-[protein]	c
L-methionyl-L-cysteinyl-Protein	an N-terminal-L-methionyl-L-cysteinyl-[protein]	c
CPD0-1905	8-oxo-dGTP	c
DETHIOBIOTIN	dethiobiotin	cp
tRNA-uridines	a uridine in tRNA	c
L-methionyl-L-seryl-Protein	an N-terminal-L-methionyl-L-seryl-[protein]	c
Damaged-DNA-Pyrimidine	a damaged DNA pyrimidine	c
CPD-10608	trans-dienelactone	c
L-methionyl-L-threonyl-Protein	an N-terminal-L-methionyl-L-threonyl-[protein]	c
Carboxylic-esters	a carboxylic ester	c
tRNA-with-7-aminomethyl-7-deazaguanine	a 7-aminomethyl-7-deazaguanosine34 in tRNA	cp
L-methionyl-L-valyl-Protein	an N-terminal-L-methionyl-L-valyl-[protein]	c
Decanoyl-ACPs	a decanoyl-[acp]	cp
L-methionyl-glycyl-Protein	an N-terminal-L-methionyl-glycyl-[protein]	c
FERRICYTOCHROME-B5	a ferricytochrome b5	p
L-methionyl-tRNAfmet	an L-methionyl-[initiator tRNAMet]	cp
CPD0-1965	N&alpha;,N&epsilon;-diacetyl-lysyl-D-alanyl-D-alanine	cp
OXYGEN-MOLECULE	oxygen	cp
3-METHYL-CROTONYL-COA	3-methylcrotonyl-CoA	cp
URIDYLYL-PROTEIN-PII	a uridylylated PII protein	p
tRNAs	an uncharged tRNA	p
Starch	starch	c
tRNAs-containing-epoxy-quenosine	an epoxyqueuosine34 in tRNA	cp
FERROCYTOCHROME-B5	a ferrocytochrome b5	c
Delta4-hexadecenoyl-ACPs	a (4Z)-hexadec-4-enoyl-[acp]	c
L-phenylalanyl-L-arginyl-Protein	L-phenylalanyl-L-arginyl-[protein]	p
tRNAs-with-CCA	a tRNA containing a 3' CCA end	p
L-phenylalanyl-L-lysyl-Protein	L-phenylalanyl-L-lysyl-[protein]	p
CPD0-2018	5-methylcytosine	c
L-seryl-SEC-tRNAs	an L-seryl-[tRNAsec]	p
PECTATE	a pectate	cp
UROCANATE	urocanate	cp
PENICILLIN	a penicillin	cp
Stearoyl-ACPs	a stearoyl-[acp]	p
3-Methyl-Saturated-Fatty-Acids	a 3-methyl-branched 2,3,4-saturated fatty acid	c
tRNAs-with-queuine	a queuosine34 in tRNA	p
3-Methyl-Saturated-Fatty-Acyl-CoA	a 3-methyl-branched 2,3,4-saturated fatty acyl-CoA	cp
3-OCTAPRENYL-4-HYDROXYBENZOATE	3-octaprenyl-4-hydroxybenzoate	p
trans-delta2-arachidoyl-ACPs	a trans-eicos-2-enoyl-[acp]	c
trans-delta2-behenoyl-ACPs	a trans-docos-2-enoyl-[acp]	c
CPD0-2117	trans-hexadec-2-enoyl-CoA	c
CPD-1063	5-(methylthio)ribulose 1-phosphate	cp
Deoxy-Ribonucleoside-Diphosphates	a 2'-deoxyribonucleoside 5'-diphosphate	p
trans-delta2-lignoceroyl-ACPs	a trans-tetracos-2-enoyl-[acp]	c
PENICILLIN-G	penicillin G	cp
Deoxy-Ribonucleoside-Monophosphates	a 2'-deoxyribonucleoside 5'-monophosphate	p
Octadec-2-enoyl-ACPs	a trans-octadec-2-enoyl-[acp]	c
LAUROYLCOA-CPD	lauroyl-CoA	p
Deoxy-Ribonucleoside-Triphosphates	a 2'-deoxyribonucleoside 5'-triphosphate	c
SELENATE	selenate	c
Sterol-3-beta-D-glucosides	a sterol 3-&beta;-D-glucoside	p
Octanoyl-ACPs	an octanoyl-[acp]	cp
Cerotoyl-ACPs	a cerotoyl-[acp]	p
CPD-10633	5-chloro-trans-dienelactone	c
Octanoylated-Gcv-H	a [glycine-cleavage complex H protein] N6-octanoyl-L-lysine	c
3-OXO-EICOSAPENTAENOYL-ACP	a 3-oxo-docosapentaenoyl [acp]	c
Octanoylated-domains	a [lipoyl-carrier protein] N6-octanoyl-L-lysine	cp
Charged-ALA-tRNAs	an L-alanyl-[tRNAAla]	p
CPD0-2121	trans-hex-2-enoyl-CoA	p
DGDP	dGDP	cp
Charged-ARG-tRNAs	an L-arginyl-[tRNAArg]	p
CPD-10634	5-chloromaleylacetate	p
Odd-Saturated-Fatty-Acyl-CoA	an odd numbered straight chain 2,3,4-saturated fatty acyl CoA	p
Sterols	a sterol	c
Odd-Straight-Chain-234-Sat-FA	an odd numbered straight chain 2,3,4-saturated fatty acid	c
Charged-ASN-tRNAs	an L-asparaginyl-[tRNAAsn]	p
CHOCOLA_A	all-trans-retinyl palmitate	c
CPD-10636	2,5-dichloro-trans-dienelactone	c
FMN	FMN	cp
CHOLESTEROL	cholesterol	c
Oleoyl-ACPs	an oleoyl-[acp]	cp
CPD0-2171	(S)-3-hydroxytetradecanoyl-CoA	p
UROPORPHYRINOGEN-III	uroporphyrinogen-III	c
Oleoyl-lipid	a [glycerolipid]-oleate	c
A-5-prime-PP-5-prime-DNA	an adenosine-5'-diphospho-5'-[DNA]	cp
Charged-CYS-tRNAs	an L-cysteinyl-[tRNACys]	cp
N-terminal-L-cysteine	an N-terminal L-cysteinyl-[protein]	p
DNA-Ligase-L-lysine	a [DNA ligase]-L-lysine	cp
ACET	acetate	cp
N-terminal-L-valine	an N-terminal L-valyl-[protein]	p
Charged-GLN-tRNAs	an L-glutaminyl-[tRNAGln]	p
ACETALD	acetaldehyde	p
N-terminal-glycine	an N-terminal glycyl-[protein]	p
N1-ACETYLSPERMINE	N1-acetylspermine	p
Charged-GLT-tRNAs	an L-glutamyl-[tRNAGlu]	c
DNA-Ligase-L-lysine-adenylate	a [DNA ligase]-N6-(5'-adenylyl)-L-lysine	cp
Charged-HIS-tRNAs	an L-histidyl-[tRNAHis]	p
N5-Formyl-THF-Glu-N	an (6S)-N5-formyl-tetrahydrofolate	cp
Charged-ILE-tRNAs	an L-isoleucyl-[tRNAIle]	p
ACETAMIDE	acetamide	c
Charged-LEU-tRNAs	an L-leucyl-[tRNALeu]	cp
N6-ACETYLKANAMYCIN-B	N6'-acetylkanamycin-B	p
Charged-LYS-tRNAs	an L-lysyl-[tRNALys]	p
Charged-MET-tRNAs	an L-methionyl-[elongator tRNAMet]	p
Charged-PHE-tRNAs	an L-phenylalanyl-[tRNAPhe]	c
Charged-PRO-tRNAs	an L-prolyl-[tRNAPro]	p
Charged-SER-tRNAs	an L-seryl-[tRNAser]	p
NAD	NAD+	cp
Prolipoprotein-Cysteines	a [prolipoprotein]-L-cysteine	c
CPD-17932	a nascent peptidoglycan with D,D cross-links (meso-diaminopimelate containing)	p
2-METHYL-BUTYRYL-COA	2-methylbutanoyl-CoA	cp
Charged-THR-tRNAs	an L-threonyl-[tRNAThr]	p
Charged-TRP-tRNAs	an L-tryptophanyl-[tRNATrp]	p
DNA-N	DNAn	cp
Charged-TYR-tRNAs	an L-tyrosyl-[tRNATyr]	p
Sulfurated-Sulfur-Acceptors	a sulfurated [sulfur carrier]	c
CPD-3706	adenosine 3'-monophosphate	p
SER	L-serine	cp
Charged-VAL-tRNAs	an L-valyl-[tRNAVal]	p
ADENOSYL-HOMO-CYS	S-adenosyl-L-homocysteine	cp
Charged-fMET-tRNAs	an N-formyl-L-methionylaminoacyl-tRNA	c
CPD-3707	adenosine 2',3'-cyclic monophosphate	c
GERANYL-PP	geranyl diphosphate	c
GLY	glycine	cp
Supercoiled-Duplex-DNAs	a supercoiled duplex DNA	c
ADENOSYLCOBALAMIN	adenosylcobalamin	cp
SER-tRNAs	a tRNAser	c
CHORISMATE	chorismate	cp
ADENOSYLCOBALAMIN-5-P	adenosylcobalamin 5'-phosphate	p
CPD-19761	2,6-dichloro-3-(glutathione-S-yl)-hydroquinone	p
T2-DECENOYL-COA	(2E)-dec-2-enoyl-CoA	c
CPD-19763	2,3,5-trichloro-6-(glutathione-S-yl)-hydroquinone	p
CPD-18	linoleoyl-CoA	p
2-METHYLMALEATE	citraconate	cp
GLYCERALD	D-glyceraldehyde	p
CPD-3708	guanosine 3'-monophosphate	p
CPD-18065	&alpha;-Kdo8N-(2&rarr;6)-lipid IVA	c
GLC-1-P	&alpha;-D-glucopyranose 1-phosphate	cp
MONOMER0-4342	a [prolipoprotein]-(S-diacylglyceryl)-L-cysteine	cp
CPD-18066	4-O-phospho-&alpha;-Kdo8N-(2&rarr;6)-lipid IVA	p
GLC-6-P	&beta;-D-glucose 6-phosphate	cp
ADENOSYLCOBINAMIDE	adenosylcobinamide	cp
ADENOSYLCOBINAMIDE-GDP	adenosylcobinamide-GDP	cp
FORMALDEHYDE	formaldehyde	p
CPD-19778	(2Z,4Z)-2-amino-5-chloro-6-oxohexa-2,4-dienoate	c
2-Me-Branched-234-Sat-FA	a 2-methyl branched 2,3,4-saturated fatty acid	c
SEROTONIN	serotonin	c
MYO-INOSITOL	myo-inositol	p
2-Me-Branched-234-Sat-Fatty-Acyl-CoA	a 2-methyl branched 2,3,4-saturated fatty acyl-CoA	p
Chitodextrins	a chitodextrin	cp
CPD-19779	(2Z,4Z)-2-amino-5-chlorohexa-2,4-dienedioate	p
GLYCERATE	D-glycerate	cp
AMINO-ACETONE	aminoacetone	p
CPD-18105	4-methylphenyl 5-phospho-&alpha;-D-ribofuranoside	c
Chlorides	an organochlorine compound	p
CPD-3709	guanosine 2',3'-cyclic monophosphate	c
CPD-18118	D-arabinofuranose 5-phosphate	c
CIS-2-CHLORO-4-CARBOXYMETHYLENEBUT-2-EN-	2-chloro-cis-dienelactone	c
Kanamycin-3-phosphates	a kanamycin 3'-phosphate	p
CPD-14673	3-phenylpropionitrile	c
Beta-phosphoglucomutase	a &beta;-phosphoglucomutase	cp
DNA-Segment-Placeholder	a DNA segment	cp
R-3-hydroxybehenoyl-ACPs	a (3R)-3-hydroxybehenoyl-[acp]	p
2E-7Z-hexadeca-2-7-dienoyl-ACPs	a (2E,7Z)-hexadeca-2,7-dienoyl-[acp]	c
CPD-8742	(3E)-2-oxohex-3-enedioate	cp
CPD-602	5-amino-6-(5-phospho-D-ribosylamino)uracil	cp
2E-9Z-octadeca-2-9-dienoyl-ACPs	a (2E,9Z)-octadeca-2,9-dienoyl-[acp]	c
R-3-hydroxycerotoyl-ACPs	a (3R)-3-hydroxycerotoyl-[acp]	p
PTS-I-Histidines	a [PTS enzyme I]-L-histidine	cp
R-3-hydroxydodecanoyl-ACPs	a (3R)-3-hydroxydodecanoyl-[acp]	p
PTS-I-pi-phospho-L-histidines	a [PTS enzyme I]-N&pi;-phospho-L-histidine	cp
2K-4CH3-PENTANOATE	4-methyl-2-oxopentanoate	cp
Oligonucleotides	an oligonucleotide	c
Nonadjacent-pyrimidine-dimer-in-DNA	a dimer of non-adjacent pyrimidine nucleosides in DNA	c
TAGATOSE-1-6-DIPHOSPHATE	D-tagatofuranose 1,6-bisphosphate	c
Biotin-EC6-4-1-4	a [methylcrotonoyl-CoA carboxylase]-biotin-N6-L-lysine	p
DNA-Segment-in-Reverse-Orientations	a DNA segment in reverse orientation	cp
R-3-hydroxyhexanoyl-ACPs	a (3R)-3-hydroxyhexanoyl-[acp]	p
2K-ADIPATE	2-oxoadipate	c
PUTRESCINE	putrescine	cp
Aliphatic-Alpha-Omega-Diamines	an aliphatic &alpha;,&omega;-diamine	c
CPD-14675	pristanoyl-CoA	p
CPD-8978	ethylphosphate	c
Nonmethylated-Ribosomal-Protein-L11s	a non-methylated ribosomal protein L11	c
Aliphatic-Amines	an aliphatic amine	c
R-3-hydroxylignoceroyl-ACPs	a (3R)-3-hydroxylignoceroyl-[acp]	p
DNA-With-GO-A-Mismatch	DNA with adenine:7,8-dihydro-8-oxoguanine mismatch	c
CPD0-2231	dIDP	cp
R-3-hydroxymyristoyl-ACPs	a (3R)-3-hydroxymyristoyl-[acp]	cp
CPD-618	(2R,3S)-2-methylisocitrate	cp
R-3-hydroxypetroselinoyl-ACPs	a (3R)-3-hydroxypetroselinoyl-[acp]	p
PORPHOBILINOGEN	porphobilinogen	cp
CPD-8999	5-(methylsulfanyl)-2,3-dioxopentyl 1-phosphate	p
Butanoyl-ACPs	a butanoyl-[acp]	cp
CPD-14704	4-hydroxy-2-nonenal-glutathione conjugate	p
R-3-hydroxystearoyl-ACPs	a (3R)-3-hydroxystearoyl-[acp]	p
CPD-14736	L-kynurenine	c
Aliphatic-L-Amino-Acids	an aliphatic L-amino acid	p
Aliphatic-N-Acetyl-Diamines	Unknown	p
Nucleoside-Diphosphates	a nucleoside diphosphate	cp
CPD-622	(2S,3S)-2-methylcitrate	cp
CPD0-2232	(S)-3-hydroxyhexadecanoyl-CoA	p
INOSINE	inosine	p
MALONYL-ACP	a malonyl-[acp]	cp
Nucleoside-Monophosphates	a nucleoside 5'-monophosphate	p
DNA-With-Hypoxanthines	a DNA with hypoxanthine	c
C1	UDP-N-acetyl-&alpha;-D-muramoyl-L-alanyl-&gamma;-D-glutamyl-meso-2,6-diaminopimeloyl-D-alanyl-D-alanine	cp
Nucleoside-Triphosphates	a nucleoside triphosphate	cp
CPD-14927	phytenate	c
CPD-9049	cobyrinate	c
CPD-6442	methylsalicylate	c
Alkyl-Hydro-Peroxides	an organic hydroperoxide	c
CPD0-2244	(S)-3-hydroxydecanoyl-CoA	p
ACETOACETYL-COA	acetoacetyl-CoA	cp
CPD-14928	phytenoyl-CoA	p
MALONYL-COA	malonyl-CoA	cp
Orthophosphoric-Monoesters	a phosphate monoester	c
Cis-Delta5-dodecenoyl-ACPs	a (5Z)-dodec-5-enoyl-[acp]	cp
C4	undecaprenyl-diphospho-N-acetylmuramoyl-L-alanyl-&gamma;-D-glutamyl-L-lysyl- D-alanyl-D-alanine	c
Alkylated-Bases	an alkylated nucleobase	p
CPD-650	(3R)-3-hydroxybutanoyl-CoA	cp
CPD0-2350	a polycistronic tRNA precursor	cp
CPD-14931	a 10-formyltetrahydrofolate-4a-carbinolamine	cp
Cis-Delta7-tetradecenoyl-ACPs	a cis-&Delta;7-tetradecenoyl-[acp]	cp
CPD0-2351	a tRNA precursor with a 5' extension and a long 3' trailer	p
Ox-Glutaredoxins	an oxidized glutaredoxin	p
Alkylated-DNAs	an alkylated DNA	c
CPD-15015	4-hydroxy-2-oxoglutarate	cp
PPI	diphosphate	cp
O-D-MANNOSYL-PROTEIN	a 3-O-(&alpha;-D-mannosyl)-(Ser/Thr)-[protein]	p
CPD0-2352	a tRNA precursor with a 5' extension and a short 3' extension	cp
CPD0-2353	a tRNA precursor with a short 3' extension	c
Cis-delta-3-decenoyl-ACPs	a (3Z)-dec-3-enoyl-[acp]	c
DNA-containing-a-Apyrimidinic-Sites	an apyrimidinic site in DNA	p
Ox-Thioredoxin	an oxidized thioredoxin	cp
CPD-15056	(2Z)-2-aminobut-2-enoate	cp
CPD0-2354	a tRNA precursor with a 5' extension	p
CPD-9148	(2Z,4E)-2-amino-5-methyl-muconate semialdehyde	c
C5	undecaprenyldiphospho-N-acetylmuramoyl-L-alanyl-&gamma;-D-glutamyl-meso-2,6-diaminopimeloyl-D-alanyl-D-alanine	cp
Cis-vaccenoyl-ACPs	a cis-vaccenoyl-[acp]	p
Thiopurine-Methylethers	a thiopurine S-methylether	p
Citrate-Lyase-Citryl-Form	a citryl-holo [citrate lyase acyl-carrier protein]	c
Thiopurines	a thiopurine	c
Diacylglycerol-Prolipoproteins	an [apolipoprotein]-(S-diacylglyceryl)-L-cysteine	p
DNA-containing-aPurinic-Sites	an apurinic site within DNA	p
DGTP	dGTP	p
Dihydro-Lipoyl-Proteins	a [lipoyl-carrier protein] N6-dihydrolipoyl-L-lysine	c
5-10-METHENYL-THF-GLU-N	a 5,10-methenyltetrahydrofolate	cp
Trans-D2-decenoyl-ACPs	a (2E)-dec-2-enoyl-[acp]	c
5-AMINO-LEVULINATE	5-aminolevulinate	cp
Trans-D2-hexacos-2-enoyl-ACPs	a trans-hexacos-2-enoyl-[acp]	c
DNA-containing-abasic-Sites	a DNA containing an apurinic/apyrimidinic site	cp
Trans-D3-cis-D5-dodecenoyl-ACPs	a (3E,5Z)-dodeca-3,5-dienoyl-[acp]	c
AMINO-HYDROXYMETHYL-METHYL-PYR-P	4-amino-2-methyl-5-(phosphooxymethyl)pyrimidine	cp
Trans-D3-cis-D7-tetradecenoyl-ACPs	a trans-&Delta;3-cis-&Delta;7-tetradecenoyl-[acp]	c
UTP	UTP	cp
Trans-D3-cis-D9-hexadecenoyl-ACPs	a trans-&Delta;3-cis-&Delta;9-hexadecenoyl-[acp]	c
AMINO-HYDROXYMETHYL-METHYLPYRIMIDINE-PP	4-amino-2-methyl-5-(diphosphomethyl)pyrimidine	p
Dipeptides-With-Proline-Carboxy	a dipeptide with proline at the C-terminal	c
DNA-deoxycytidine-dimer	a dimer of non-adjacent 2'-deoxycytidines in DNA	c
Diribonucleotide	a diribonucleotide	p
TusE-L-cysteine	a [TusE sulfur carrier protein]-L-cysteine	p
AMINO-OH-HYDROXYMETHYL-DIHYDROPTERIDINE	6-(hydroxymethyl)-7,8-dihydropterin	cp
DI-H-OROTATE	(S)-dihydroorotate	cp
TusE-S-sulfanylcysteine	a [TusE sulfur carrier protein]-S-sulfanylcysteine	c
Ubiquinols	an ubiquinol	cp
5-L-GLUTAMYL-AMINO-ACID	an &alpha;-(5-L-glutamyl)-amino acid	p
Ubiquinones	a ubiquinone	cp
Dodec-2-enoyl-ACPs	a (2E)-dodec-2-enoyl-[acp]	c
5-L-GLUTAMYL-L-AMINO-ACID	an &alpha;-(&gamma;-L-glutamyl)-L-amino acid	p
UDP	UDP	cp
Dodecanoyl-ACPs	a dodecanoyl-[acp]	cp
UDP-AA-GLUTAMATE	UDP-N-acetyl-&alpha;-D-muramoyl-L-alanyl-D-glutamate	cp
AMINO-OXOBUT	L-2-amino-3-oxobutanoate	cp
5-L-GLUTAMYL-PEPTIDE	a 5-L-glutamyl-[peptide]	c
GLC-D-LACTONE	D-glucono-1,5-lactone	cp
CPD-10637	2,5-dichloromaleylacetate	p
LEU	L-leucine	cp
DNA-deoxycytidine-thymidine-dimer	a dimer of non-adjacent 2'-deoxycytidine and thymidine in DNA	c
THYMIDINE	thymidine	cp
CPD-12310	a peptidoglycan dimer (E. faeciums)	c
2-OCTAPRENYL-6-HYDROXYPHENOL	3-(all-trans-octaprenyl)benzene-1,2-diol	c
LEU-tRNAs	a tRNALeu	cp
IS30-Insertion-Sequences	an insertion sequence element IS30	cp
DNA-pyrimidines	a pyrimidine nucleoside in DNA	p
CPD-12311	a peptidoglycan with D,D cross-link (E. faecium)	p
IS30-with-Integrated-Transposon	an insertion sequence IS30 with integrated transposon	cp
Glutamine-synthetase-Tyr	a [glutamine-synthetase]-L-tyrosine	c
ISOBUTYRATE	isobutanoate	c
Glutamine-synthetase-adenylyl-Tyr	a [glutamine synthetase]-O4-(5'-adenylyl)-L-tyrosine	p
CPD-12365	8-oxo-dGMP	p
2-OCTAPRENYL-6-METHOXYPHENOL	2-methoxy-6-(all-trans-octaprenyl)phenol	cp
Glutaryl-ACP-methyl-esters	a glutaryl-[acp] methyl ester	cp
NAD-P-OR-NOP	NAD(P)+	cp
ISOBUTYRYL-COA	isobutanoyl-CoA	cp
GLN	L-glutamine	cp
Malonyl-acp-methyl-ester	a malonyl-[acp] methyl ester	cp
DNA-thymidine-deoxycytidine-dimer	a dimer of non-adjacent thymidine and 2'-deoxycytidine in DNA	c
GLN-tRNAs	a tRNAGln	c
DNA-thymidine-dimer	a dimer of non-adjacent thymidines in DNA	c
GLT	L-glutamate	cp
1-4-alpha-D-Glucan	a 1,4-&alpha;-D-glucan	cp
GLT-tRNAs	a tRNAglu	p
1-4-beta-D-Glucan	a 1,4-&beta;-D-glucan	cp
CPD-12575	UDP-&alpha;-D-glucose	cp
Crotonyl-ACPs	a crotonyl-[acp]	c
DNA-thymidines	a thymidine in DNA	p
1-AMINO-PROPAN-2-ONE-3-PHOSPHATE	3-amino-1-hydroxyacetone 1-phosphate	c
Guanine34-in-tRNAs	a guanine34 in tRNA	c
Guanine46-in-tRNA	a guanine46 in tRNA	c
CPD-1078	CDP-4-dehydro-3,6-dideoxy-D-glucose	p
2-OH-3-Methyl-Saturated-Fatty-Acyl-CoA	a 2-hydroxy-3-methyl-branched 2,3,4-saturated fatty acyl-CoA	p
ISOCHORISMATE	isochorismate	c
NADH	NADH	cp
2-OXOBUTANOATE	2-oxobutanoate	cp
CPD-12634	(glutathion-S-yl)(1H-indol-3-yl)acetonitrile	p
Cyanophycin	cyanophycin	c
H2CO3	carbonic acid	cp
Menaquinols	a menaquinol	cp
Kanamycins	a kanamycin	c
O-PHOSPHO-L-HOMOSERINE	O-phospho-L-homoserine	cp
THYMINE	thymine	cp
DNA-with-Uracils	a uracil in DNA	c
C6	ditrans,octacis-undecaprenyldiphospho-[(N-acetyl-&beta;-D-glucosaminyl)-(1,4)-]-N-acetyl-&alpha;-D-muramoyl-L-alanyl-&gamma;-D-glutamyl-meso-2,6-diaminopimeloyl-D-alanyl-D-alanine	cp
Propionyl-CoA-CO2-ligases	[propionyl-CoA:carbon-dioxide ligase (ADP-forming)]	p
Cyclic-2-3-Ribonucleoside-Monophosphates	a ribonucleoside 2',3'-cyclic phosphate	c
CIS-4-HYDROXY-D-PROLINE	cis-4-hydroxy-D-proline	cp
L-1-GLYCERO-PHOSPHORYLCHOLINE	sn-glycero-3-phosphocholine	p
3-OXOADIPATE-ENOL-LACTONE	(4,5-dihydro-5-oxofuran-2-yl)-acetate	c
CPD-654	2,5-dioxopentanoate	c
L-1-GLYCEROPHOSPHORYLETHANOL-AMINE	sn-glycero-3-phosphoethanolamine	p
CADAVERINE	cadaverine	p
Protein-Disulfides	a protein disulfide	cp
MALTOHEXAOSE	maltohexaose	cp
Protein-Dithiols	a protein dithiol	p
CPD-658	CDP-4-dehydro-6-deoxy-D-glucose	c
CIS-ACONITATE	cis-aconitate	cp
O-SUCCINYL-L-HOMOSERINE	O-succinyl-L-homoserine	cp
Protein-Histidines	a [protein]-L-histidine	c
PREPHENATE	prephenate	cp
L-1-LYSOPHOSPHATIDATE	1-oleyl-2-lyso-phosphatidate	p
3-Oxo-octanoyl-ACPs	a 3-oxo-octanoyl-[acp]	cp
CIS-D2-ENOYL-COA	a cis-2-enoyl-CoA	cp
L-1-PHOSPHATIDYL-ETHANOLAMINE	an L-1-phosphatidylethanolamine	p
REDUCED-MENAQUINONE	menaquinol-8	p
3-P-HYDROXYPYRUVATE	3-phosphooxypyruvate	cp
MALTOPENTAOSE	maltopentaose	cp
O-UREIDOHOMOSERINE	O-ureido-L-homoserine	c
L-1-PHOSPHATIDYL-GLYCEROL	an L-1-phosphatidyl-sn-glycerol	c
SHIKIMATE	shikimate	cp
CPD-667	O-acetyl-L-homoserine	cp
Protein-L-glutamine	a [protein]-L-glutamine	c
L-1-PHOSPHATIDYL-GLYCEROL-P	1-(3-sn-phosphatidyl)-sn-glycerol 3-phosphate	p
SHIKIMATE-5P	shikimate 3-phosphate	cp
DODECANOATE	laurate	c
L-1-PHOSPHATIDYL-SERINE	a 3-O-sn-phosphatidyl-L-serine	cp
CANAVANINE	L-canavanine	cp
3-P-SERINE	3-phospho-L-serine	cp
Protein-L-lysine	a [protein]-L-lysine	c
Cyclodextrins	a cyclodextrin	cp
CIT	citrate	cp
CPD-67	2-phosphoglycolate	c
OCTADEC-9-ENE-118-DIOIC-ACID	&alpha;,&omega;-9Z-octadecenedioate	c
Protein-L-methionine	a [protein]-L-methionine	cp
L-3-HYDROXYACYL-COA	a (3S)-3-hydroxyacyl-CoA	p
CPD-6746	1D-myo-inositol 2-monophosphate	c
Protein-L-methionine-R-S-oxides	a protein-L-methionine-(R)-S-oxide	cp
3-PHENYLPROPIONATE	3-phenylpropanoate	p
L-ALA-GAMMA-D-GLU-DAP	L-alanyl-&gamma;-D-glutamyl-meso-diaminopimelate	c
Oxidized-2Fe-2S-Ferredoxins	an oxidized [2Fe-2S] ferredoxin	p
CPD-15121	5-fluorocytosine	c
Donor-H2	a reduced electron acceptor	cp
Oxidized-CycA1-cytochromes	an oxidized CycA1 cytochrome	p
AMINO-RIBOSYLAMINO-1H-3H-PYR-DIONE	5-amino-6-(D-ribitylamino)uracil	cp
Cytidine-34-tRNAIle2	a cytidine34 in tRNAIle2	c
Double-Stranded-DNAs	a double stranded DNA	cp
CPD-9150	(2Z,4E)-2-amino-5-methyl-muconate	cp
CPD-19782	(3E)-5-chloro-2-oxopent-3-enoate	c
Oxidized-NrdH-Proteins	an oxidized NrdH glutaredoxin-like protein	p
CPD-15159	(6R)-6,7-dihydrobiopterin	p
GLYCEROL-3P	sn-glycerol 3-phosphate	cp
LEUKOTRIENE-C4	leukotriene-C4	c
Double-helix-DNA	a double-helix DNA	c
CPD0-2471	a [protein] with C-terminal &alpha;-L-glutamate-&alpha;-L-glutamate	p
FORMATE	formate	cp
CPD-19833	roseoflavin	c
CPD-9151	3-chlorocatechol	p
CPD-3711	cytidine-3'-monophosphate	p
Drugs	a drug	cp
Oxidized-ferredoxins	an oxidized ferredoxin [iron-sulfur] cluster	cp
CPD-19839	roseoflavin 5'-phosphate	cp
Oxo-glutarate-dehydro-suc-DH-lipoyl	a [2-oxoglutarate dehydrogenase E2 protein] N6-S-succinyldihydrolipoyl-L-lysine	cp
DIAMINO-OH-PHOSPHORIBOSYLAMINO-PYR	2,5-diamino-6-(5-phospho-D-ribosylamino)pyrimidin-4(3H)-one	c
CPD-9152	4-chlorocatechol	p
Oxo-glutarate-dehydrogenase-DH-lipoyl	a [2-oxoglutarate dehydrogenase E2 protein] N6-dihydrolipoyl-L-lysine	cp
HS	hydrogen sulfide	cp
CPD-19840	roseoflavin adenine dinucleotide	p
CPD0-881	N-acetyl-D-muramate 6-phosphate	p
Oxo-glutarate-dehydrogenase-lipoyl	a [2-oxoglutarate dehydrogenase E2 protein] N6-lipoyl-L-lysine	cp
CPD-15182	cob(II)yrinate c-monoamide	cp
LINOLEIC_ACID	linoleate	c
CPD-3713	cytidine 2',3'-cyclic monophosphate	c
P-AMINO-BENZOATE	4-aminobenzoate	cp
DIAMINONONANOATE	7,8-diaminopelargonate	c
FORMYL-COA	formyl-CoA	cp
CPD-206	phytanoyl-CoA	c
P-COUMAROYL-COA	4-coumaroyl-CoA	c
CPD-15199	5-deoxy-&alpha;-ribose 1-phosphate	p
CPD0-882	1,6-anhydro-N-acetyl-&beta;-muramate	cp
Cytochromes-C-Oxidized	an oxidized c-type cytochrome	cp
CPD-3724	uridine 3'-monophosphate	p
CPD-15301	caldariellaquinol	p
FORMYL-L-METHIONYL-PEPTIDE	a [protein] N-terminal-formyl-L-methionine	c
LINOLENIC_ACID	&alpha;-linolenate	c
CPD-15317	D-ribofuranose 5-phosphate	p
CPD0-929	heptosyl-Kdo2-lipid A	c
CPD-15318	&alpha;-D-ribose 5-phosphate	p
FORMYL-THF-GLU-N	an N10-formyl-tetrahydrofolate	cp
P-HYDROXY-PHENYLPYRUVATE	4-hydroxyphenylpyruvate	c
3-5-ADP	adenosine 3',5'-bisphosphate	cp
Cytochromes-C-Reduced	a reduced c-type cytochrome	cp
CPD-3725	uridine 2'3'-cyclic monophosphate	c
GLYCOLALDEHYDE	glycolaldehyde	p
CPD0-930	(heptosyl)2-Kdo2-lipid A	p
AMINOMETHYLDIHYDROLIPOYL-GCVH	a [glycine-cleavage complex H protein] N6-aminomethyldihydrolipoyl-L-lysine	cp
GLYCOLLATE	glycolate	p
CPD-15360	2-sulfanyl-N6-dimethylallyladenosine37 in tRNA	cp
CPD-20735	two adjacent 2'-deoxycytidines in DNA	p
DOLICHOLP	a dolichyl phosphate	cp
ADENOSYLCOBINAMIDE-P	adenosyl-cobinamide phosphate	p
Unspecified-Degradation-Products	[unspecified degradation products]	p
5-METHYL-THF-GLU-N	a 5-methyltetrahydrofolate	c
Unsulfurated-Sulfur-Acceptors	an unsulfurated [sulfur carrier]	p
UDP-AAGM-DIAMINOHEPTANEDIOATE	UDP-N-acetyl-&alpha;-D-muramoyl-L-alanyl-&gamma;-D-glutamyl-meso-2,6-diaminopimelate	cp
Unwound-DNA	an unwound double-stranded DNA	p
5-METHYLTHIOADENOSINE	S-methyl-5'-thioadenosine	cp
UDP-ACETYL-CARBOXYVINYL-GLUCOSAMINE	UDP-N-acetyl-&alpha;-D-glucosamine-enolpyruvate	cp
Unwound-RNA	an unwound RNA	p
PHE	L-phenylalanine	cp
All-tRNAs	a tRNA	p
D-3-HYDROXYACYL-COA	a (3R)-3-hydroxyacyl-CoA	cp
All-trans-Retinyl-Esters	an all-trans-retinyl ester	c
3-Phosphomonucleotides	a ribonucleoside 3'-phosphate	p
VAL	L-valine	cp
DPG	3-phospho-D-glyceroyl-phosphate	cp
PRISTANATE	pristanate	c
VAL-tRNAs	a tRNAVal	c
D-6-P-GLUCONO-DELTA-LACTONE	6-phospho D-glucono-1,5-lactone	p
PHE-tRNAs	a tRNAPhe	p
3-SULFINOALANINE	3-sulfinoalanine	cp
TMP	dTMP	cp
D-ALA-D-ALA	D-alanyl-D-alanine	cp
UDP-GLUCURONATE	UDP-&alpha;-D-glucuronate	p
3-hydroxy-cis-D7-tetraecenoyl-ACPs	a (3R)-3-hydroxy cis &Delta;7-tetradecenoyl-[acp]	p
5-OXOPROLINE	5-oxo-L-proline	p
3-hydroxy-cis-D9-hexaecenoyl-ACPs	a (3R)-3-hydroxy cis &Delta;9-hexadecenoyl-[acp]	p
UDP-MURNAC-TETRAPEPTIDE	UDP-N-acetylmuramoyl-L-alanyl-&gamma;-D-glutamyl-meso-2,6-diaminopimeloyl-D-alanine	cp
PRO	L-proline	cp
Amino-Acids	an amino acid	c
PRO-tRNAs	a tRNAPro	c
TRANS-2-CHLORO-4-CARBOXYMETHYLENEBUT-2-E	2-chloro-trans-dienelactone	c
Amino-Acids-20	a proteinogenic amino acid	cp
DTDP-D-GLUCOSE	dTDP-&alpha;-D-glucose	cp
5-P-BETA-D-RIBOSYL-AMINE	5-phospho-&beta;-D-ribosylamine	cp
3-hydroxypimeloyl-ACP-methyl-esters	a (3R)-3-hydroxypimeloyl-[acp] methyl ester	p
OCTAPRENYL-DIPHOSPHATE	all-trans-octaprenyl diphosphate	cp
CPD-10806	4-hydroxy-2-nonenal	c
Protein-L-methionine-S-S-oxides	a protein-L-methionine-(S)-S-oxide	c
L-ALPHA-ALANINE	L-alanine	cp
NADH-P-OR-NOP	NAD(P)H	cp
CITRATE-LYASE	an acetyl-holo [citrate lyase acyl-carrier protein]	p
CPD-12991	&beta;-aspartyl dipeptide	c
OCTAPRENYL-METHOXY-BENZOQUINONE	2-methoxy-6-all trans-octaprenyl-1,4-benzoquinol	p
MALTOSE	maltose	cp
CPD-1301	tetrahydropteroyl tri-L-glutamate	cp
Protein-L-serine-or-L-threonine	a [protein]-(L-serine/L-threonine)	cp
CPD-10819	L-erythro-biopterin	cp
ACETYL-ACP	an acetyl-[acp]	c
NADP	NADP+	cp
MALTOTETRAOSE	maltotetraose	p
PHENOL	phenol	c
D-ALANINE	D-alanine	cp
CPD-1302	5-methyltetrahydropteroyl tri-L-glutamate	cp
Protein-N-terminal-5-oxo-prolines	an N-terminal 5-oxo-L-prolyl-[protein]	c
CPD-10825	4-methyl-3-oxoadipate-enol-lactone	c
Protein-N-terminal-L-Arginine	an N-terminal arginyl-[protein]	c
CPD-10826	4-methyl-3-oxoadipate	p
ACETYL-COA	acetyl-CoA	cp
CPD-13043	7-carboxy-7-deazaguanine	cp
Protein-N-terminal-L-Lysine	an N-terminal L-lysyl-[protein]	c
MALTOTRIOSE	maltotriose	c
SIROHEME	siroheme	p
NADPH	NADPH	cp
HCO3	hydrogencarbonate	cp
DTDP-DEOH-DEOXY-GLUCOSE	dTDP-4-dehydro-6-deoxy-&alpha;-D-glucopyranose	cp
CPD-1083	(E)-2-methylcrotonoyl-CoA	cp
Protein-N-terminal-L-threonine	an N-terminal L-threonyl-[protein]	p
OCTAPRENYL-METHYL-METHOXY-BENZQ	6-methoxy-3-methyl-2-all-trans-octaprenyl-1,4-benzoquinol	c
CPD-13080	solasodine	c
L-ARGININO-SUCCINATE	L-arginino-succinate	cp
CPD-1086	5-amino-6-(5-phospho-D-ribitylamino)uracil	p
OCTAPRENYL-METHYL-OH-METHOXY-BENZQ	3-demethylubiquinol-8	cp
Protein-N6-5-glutamyl-lysine-crosslinks	a protein with an N6-(&gamma;-glutamyl)-L-lysine crosslink	p
CPD-13081	solasodine 3-O-&beta;-D-glucoside	p
CPD-10866	2-chlorophenol	c
Protein-N6-5-glutamyl-serotonin	a [protein] N6-[(5-hydroxy-1H-indol-3-yl)ethyl]-L-glutamine	p
DTDP-DEOH-DEOXY-MANNOSE	dTDP-4-dehydro-&beta;-L-rhamnose	cp
ASN	L-asparagine	cp
Protein-Ser-or-Thr-phosphate	a [protein] (L-serine/L-threonine) phosphate	cp
SIROHYDROCHLORIN	sirohydrochlorin	c
L-ASPARTATE	L-aspartate	cp
ASN-tRNAs	tRNAAsn	c
Protein-Tyrosines	a [protein]-L-tyrosine	cp
MANNOSE-1P	&alpha;-D-mannose 1-phosphate	cp
CPD-13084	brassicasterol 3-O-&beta;-D-glucoside	p
L-ASPARTATE-SEMIALDEHYDE	L-aspartate-semialdehyde	cp
PHENOL-PHOSPHATE	phenyl phosphate	cp
Protein-With-N-Terminal-Met	a peptide with an N-terminal L-methionine	c
CPD-10868	3-chlorophenol	c
Protein-With-N-Terminal-Pro	a peptide with an N-terminal L-proline	cp
CL-	chloride	cp
Protein-With-N-Terminal-X-Pro	a peptide with an N-terminal X-L-proline	c
D-ERYTHRO-IMIDAZOLE-GLYCEROL-P	D-erythro-imidazole-glycerol-phosphate	c
CANAVANINOSUCCINATE	canavaninosuccinate	cp
DTDP-RHAMNOSE	dTDP-&beta;-L-rhamnose	p
CPD-3736	lanthionine	p
RH-Group	an organic molecule	c
Menaquinones	a menaquinone	cp
HX	HX	p
HYDROGEN-PEROXIDE	hydrogen peroxide	cp
CPD-3762	5-amino-4-imidazolecarboxyamide	c
D-GALACTOSAMINE-6-PHOSPHATE	D-galactosamine 6-phosphate	p
Mercapturates	a mercapturate	c
CPD-9164	(E)-5-methyl-2-oxo-3-hex-3-enedioate	p
CPD-678	hydrogen selenide	c
PYRAZINAMIDE	pyrazinamide	c
CPD-18320	5-methylbenzimidazole	c
RIBOFLAVIN	riboflavin	cp
ADENYLOSUCC	adenylo-succinate	cp
CPD-3766	menadione	c
CARBAMOYL-P	carbamoyl phosphate	cp
5-P-RIBOSYL-N-FORMYLGLYCINEAMIDE	N2-formyl-N1-(5-phospho-&beta;-D-ribosyl)glycinamide	c
CPD-18321	5-methoxybenzimidazole	c
HYDROXY-METHYL-BUTENYL-DIP	(E)-4-hydroxy-3-methylbut-2-en-1-yl diphosphate	cp
5-PHOSPHO-RIBOSYL-GLYCINEAMIDE	N1-(5-phospho-&beta;-D-ribosyl)glycinamide	p
PYRAZINOIC-ACID	pyrazine-2-carboxylate	p
ERGOSTEROL	ergosterol	c
FRU1P	&beta;-D-fructofuranose 1-phosphate	c
CPD-18346	cis-vaccenoyl-CoA	cp
CARBAMYUL-L-ASPARTATE	N-carbamoyl-L-aspartate	cp
5-PHOSPHORIBOSYL-5-AMINOIMIDAZOLE	5-amino-1-(5-phospho-&beta;-D-ribosyl)imidazole	cp
GLYCYLGLYCINE	glycyl-glycine	c
CPD-380	3-sulfopyruvate	cp
D-GLT	D-glutamate	c
CPD-687	hydrogenobyrinate	c
CPD-9245	palmitoleate	c
Methylated-Ribosomal-Protein-L11s	a methylated ribosomal protein L11	p
CPD-9247	cis-vaccenate	c
5-PHOSPHORIBOSYL-N-FORMYLGLYCINEAMIDINE	2-(formamido)-N1-(5-phospho-&beta;-D-ribosyl)acetamidine	cp
HYDROXYMETHYLBILANE	preuroporphyrinogen	p
CPD-18492	(2E,6Z,9Z,12Z,15Z,18Z)-tetracosahexaenoyl-CoA	c
CARBON-DIOXIDE	CO2	cp
CPD-688	hydrogenobyrinate a,c-diamide	p
PYRIDOXAL_PHOSPHATE	pyridoxal 5'-phosphate	p
CPD-4143	sitosterol	c
LINOLENOYL-COA	&alpha;-linolenoyl-CoA	p
CPD-15384	L-alanyl-&gamma;-D-glutamyl-L-lysyl-D-alanyl-D-alanine	cp
CPD1F-2	(-)-methyl jasmonate	c
VERY-LONG-CHAIN-FATTY-ACYL-COA	a very long chain fatty acyl-CoA	p
3-CARBOXY-3-HYDROXY-ISOCAPROATE	(2S)-2-isopropylmalate	cp
TRANS-23-DEHYDROADIPYL-COA	trans-2,3-dehydroadipyl-coA	cp
CPD-15436	(5Z)-tetradecenoyl-CoA	c
D-GLUCOSAMINE-6-P	D-glucosamine 6-phosphate	cp
PHENYL-PYRUVATE	keto-phenylpyruvate	cp
CPD-15539	phenyl 5-phospho-&alpha;-D-ribofuranoside	c
CPD1F-90	kaempferol	p
2-Octenoyl-ACPs	a trans oct-2-enoyl-[acp]	c
TRANS-3-METHYL-GLUTACONYL-COA	3-methylglutaconyl-CoA	p
PHENYLACETATE	phenylacetate	cp
CPD66-21	leukotriene-D4	p
2-Oxo-carboxylates	a 2-oxo carboxylate	cp
LIPID-IV-A	lipid IVA	cp
TRANS-D2-ENOYL-ACP	a trans-2-enoyl-[acyl-carrier protein]	cp
CPD-15568	2E)-tetradec-2-enoyl-CoA	c
TRANS-D2-ENOYL-COA	a (2E)-alkan-2-enoyl-CoA	cp
DIHYDRO-DIOH-BENZOATE	(2S,3S)-2,3-dihydroxy-2,3-dihydrobenzoate	p
CPD66-39	a 2,3,4-saturated fatty acid	c
CPDQT-27	6-(methylthio)-2-oxohexanoate	p
2-PG	2-phospho-D-glycerate	cp
3-DEHYDRO-SHIKIMATE	3-dehydroshikimate	cp
CPDQT-28	7-(methylthio)-2-oxoheptanoate	p
2-PHOSPHO-4-CYTIDINE-5-DIPHOSPHO-2-C-MET	2-phospho-4-(cytidine 5'-diphospho)-2-C-methyl-D-erythritol	p
D-HEXOSE-6-PHOSPHATE	D-hexose 6-phosphate	p
DIHYDRO-NEO-PTERIN	7,8-dihydroneopterin	c
CPDQT-29	8-(methylthio)-2-oxooctanoate	p
Very-long-chain-fatty-acids	a very-long-chain fatty acid	c
HIS	L-histidine	cp
2-PROTOCATECHUOYLPHLOROGLUCINOLCARBOXYLA	2-protocatechuoylphloroglucinolcarboxylate	p
CPDQT-30	9-(methylthio)-2-oxononanoate	p
HIS-tRNAs	a tRNAHis	c
P-RIBOSYL-4-SUCCCARB-AMINOIMIDAZOLE	5'-phosphoribosyl-4-(N-succinocarboxamide)-5-aminoimidazole	cp
SN-GLYCEROL-1-PHOSPHATE	sn-glycerol 1-phosphate	p
ACETYL-GLU	N-acetyl-L-glutamate	cp
D-Hexoses	a D-hexose	c
D-LACTATE	(R)-lactate	p
SO3	sulfite	cp
ERYTHROSE-4P	D-erythrose 4-phosphate	cp
Apo-Propionyl-CoA-CO2-ligases	apo-[propionyl-CoA:carbon-dioxide ligase (ADP-forming)]	c
Arachidoyl-ACPs	an arachidoyl-[acp]	p
ACETYL-P	acetyl phosphate	cp
Red-Glutaredoxins	a reduced glutaredoxin	c
AMMONIUM	ammonium	cp
ETF-Oxidized	an oxidized electron-transfer flavoprotein	cp
Red-Thioredoxin	a reduced thioredoxin	cp
Reduced-2Fe-2S-Ferredoxins	a reduced [2Fe-2S] ferredoxin	c
D-MYO-INOSITOL-1-MONOPHOSPHATE	1D-myo-inositol 1-monophosphate	c
Reduced-CycA1-cytochromes	a reduced CycA1 cytochrome	c
GLUCOSAMINE-1P	D-glucosamine 1-phosphate	cp
SPERMIDINE	spermidine	cp
ETF-Reduced	a reduced electron-transfer flavoprotein	cp
Reduced-NrdH-Proteins	a reduced NrdH glutaredoxin-like protein	c
AMP	AMP	cp
B-ALANINE	&beta;-alanine	c
D-SEDOHEPTULOSE-7-P	D-sedoheptulose 7-phosphate	cp
Reduced-ferredoxins	a reduced ferredoxin [iron-sulfur] cluster	cp
CPD-13172	6-hydroxy-2-cyclohexen-one-carboxylate	p
3-methylcrotonoyl-CoA-carboxylase-lysine	a [3-methylcrotonoyl-CoA-carboxylase]-L-lysine	c
CPD-20736	adjacent 2'-deoxycytidine-thymidine in DNA	p
OH-ACYL-ACP	a (3R)-3-hydroxyacyl-[acyl-carrier protein]	cp
CPD-20737	adjacent thymidine-2'-deoxycytidine in DNA	p
3-oxo-arachidoyl-ACPs	a 3-oxo-arachidoyl-[acp]	c
CPD-20741	a dimer of adjacent 2'-deoxycytidines in DNA	c
GLYOX	glyoxylate	cp
OH-HEXANOYL-COA	(S)-3-hydroxyhexanoyl-CoA	c
2-AMINO-3-3-OXOPROP-2-ENYL-BUT-2-ENEDI	aminocarboxymuconate semialdehyde	cp
GLUCOSE-16-DIPHOSPHATE	glucose-1,6-bisphosphate	cp
FRUCTOSE-16-DIPHOSPHATE	&beta;-D-fructose 1,6-bisphosphate	cp
CPD-20742	a dimer of adjacent thymidines in DNA	c
DIHYDROFOLATE	7,8-dihydrofolate monoglutamate	p
CPD-13174	salicyl-6-hydroxy-2-cyclohexene-on-oyl	c
CPD-20743	a dimer of adjacent 2'-deoxycytidine and thymidine in DNA	c
3-oxo-behenoyl-ACPs	a 3-oxo-behenoyl-[acp]	cp
Protein-phospho-L-histidines	a [protein]-N-phospho-L-histidine	p
2-AMINO-MUCONATE	(2Z,4E)-2-aminomuconate	cp
CPD-20744	a dimer of adjacent thymidine and 2'-deoxycytidine in DNA	c
DIHYDROFOLATE-GLU-N	a 7,8-dihydrofolate	p
CPD-20746	N&alpha;,N&epsilon;-diacetyl-lysyl-D-alanine	cp
3-oxo-cerotoyl-ACPs	a 3-oxo-cerotoyl-[acp]	c
FRUCTOSE-6P	&beta;-D-fructofuranose 6-phosphate	cp
Protein-tyrosine-phosphates	a [protein]-L-tyrosine phosphate	cp
CPD-20750	L-alanyl-&gamma;-D-glutamyl-L-lysyl-D-alanine	cp
CPD-13227	N,N',N''-triacetylchitotriose	c
3-oxo-cis-D7-tetradecenoyl-ACPs	a 3-oxo-cis-&Delta;7-tetradecenoyl-[acp]	cp
3-oxo-cis-D9-hexadecenoyl-ACPs	a 3-oxo-cis-&Delta;9-hexadecenoyl-[acp]	cp
OH-MYRISTOYL	UDP-2-N,3-O-bis[(3R)-3-hydroxytetradecanoyl]-&alpha;-D-glucosamine	cp
CPD-20756	N-acetyl-muramoyl-(L-alanyl-&gamma;-D-glutamyl-L-lysyl-D-alanyl-D-alanine)	cp
PROPIONAMIDE	propionamide	c
3-oxo-cis-vaccenoyl-ACPs	a 3-oxo-cis-vacc-11-enoyl-[acp]	cp
CPD-20757	N-acetyl-muramoyl-(L-alanyl-&gamma;-D-glutamyl-L-lysyl-D-alanine)	cp
OH-PYR	hydroxypyruvate	cp
CPD-13339	(2Z,4E)-2-hydroxyhexa-2,4-dienedioate	cp
3-oxo-decanoyl-ACPs	a 3-oxo-decanoyl-[acp]	cp
2-AMINOACRYLATE	2-aminoprop-2-enoate	p
CPD-20826	7-(5-phospho-&alpha;-D-ribosyl)adenine	p
3-oxo-dodecanoyl-ACPs	a 3-oxo-dodecanoyl-[acp]	cp
Monocarboxylates	a monocarboxylate	p
CPD-13357	(2R)-2,3-dihydroxy-3-methylbutanoate	cp
Monocarboxylic-Acid-Amides	a monocarboxylic acid amide	c
2-AMINOMUCONATE_SEMIALDEHYDE	(2Z,4E)-2-amino-6-oxohexa-2,4-dienoate	cp
PROPIONATE	propanoate	cp
3-oxo-hexanoyl-ACPs	a 3-oxo-hexanoyl-[acp]	cp
D-glucopyranose-6-phosphate	D-glucopyranose 6-phosphate	cp
CPD-20827	phenolyl-Co&beta;-adenosylcobamide 5'-phosphate	p
HYPOXANTHINE	hypoxanthine	cp
GLUTAMATE-1-SEMIALDEHYDE	(S)-4-amino-5-oxopentanoate	cp
3-oxo-lignoceroyl-ACPs	a 3-oxo-lignoceroyl-[acp]	c
FUM	fumarate	cp
CPD-20828	4-methylphenolyl-Co&beta;-adenosylcobamide 5'-phosphate	p
3-oxo-myristoyl-ACPs	a 3-oxo-myristoyl-[acp]	cp
CPD-20829	[(2R,3S,4R,5S)-5-(1,3-benzodiazol-1-yl)-3,4-dihydroxyoxolan-2-yl]methyl phosphate	cp
3-oxo-palmitoyl-ACPs	a 3-oxo-palmitoyl-[acp]	cp
CPD-20830	[(2R,3S,4R,5S)-3,4-dihydroxy-5-(5-hydroxy-1,3-benzodiazol-1-yl)oxolan-2-yl]methyl phosphate	p
CPD-20831	[(2R,3S,4R,5S)-3,4-dihydroxy-5-(5-methoxy-1,3-benzodiazol-1-yl)oxolan-2-yl]methyl phosphate	cp
3-oxo-petroselinoyl-ACPs	a 3-oxo-petroselinoyl-[acp]	cp
CPD-20832	[(2R,3S,4R,5S)-3,4-dihydroxy-5-(5-methoxy-6-methyl-1,3-benzodiazol-1-yl)oxolan-2-yl]methyl phosphate	cp
2-C-METHYL-D-ERYTHRITOL-4-PHOSPHATE	2-C-methyl-D-erythritol 4-phosphate	cp
CPD-20833	Co&alpha;-[a-(benzimidazolyl)]-Co&beta;-adenosylcobamide 5'-phosphate	p
CPD-13524	all-trans-retinol	p
Myristoyl-ACPs	a myristoyl-[acp]	cp
CPD-20836	Co&alpha;-[a-(5-methoxy-6-methyl-benzimidazolyl)]-Co&beta;-adenosylcobamide 5'-phosphate	p
3-oxo-stearoyl-ACPs	a 3-oxo-stearoyl-[acp]	cp
DADP	dADP	cp
N-5-PHOSPHORIBOSYL-ANTHRANILATE	N-(5-phosphoribosyl)-anthranilate	cp
DIHYDROKAEMPFEROL-CMPD	(+)-dihydrokaempferol	c
3-terminal-unsaturated-sugars	a 3'-terminal unsaturated sugar	p
CPD-13533	(3R)-3-hydroxypentanoyl-CoA	c
CPD-20838	[(2R,3S,4R,5S)-3,4-dihydroxy-5-(5-methyl-1,3-benzodiazol-1-yl)oxolan-2-yl]methyl phosphate	cp
PYRIDOXAMINE-5P	pyridoxamine 5'-phosphate	c
CPDQT-36	3-[(3'-methylthio)propyl]malate	cp
UDP-N-ACETYL-D-GLUCOSAMINE	UDP-N-acetyl-&alpha;-D-glucosamine	cp
CPD-689	cob(II)yrinate a,c-diamide	p
5-Phospho-terminated-DNAs	a 5'-phospho-[DNA]	cp
ISOVALERATE	isovalerate	c
UDP-N-ACETYLMURAMATE	UDP-N-acetyl-&alpha;-D-muramate	cp
WATER	H2O	cp
CPDQT-37	3-[(4'-methylthio)butyl]malate	cp
ADP	ADP	cp
2-hydroxyacyl-glutathiones	S-(2-hydroxyacyl)glutathione	c
CPD-10870	4-chlorophenol	c
5-phosphooligonucleotides	a 5'-phosphooligonucleotide	p
ADP-L-GLYCERO-D-MANNO-HEPTOSE	ADP-L-glycero-&beta;-D-manno-heptose	c
CPDQT-38	3-[(5'-methylthio)pentyl]malate	cp
CPD-690	adenosyl-cobyrinate a,c-diamide	cp
MENADIOL	menadiol	p
CPDQT-39	3-[(6'-methylthio)hexyl]malate	cp
CPD-110	salicylate	p
Wound-RNA	wound RNA	c
CPD-11020	5-chloro-4-hydroxy-2-oxopentanoate	p
ISOVALERYL-COA	isovaleryl-CoA	cp
PYRIDOXINE-5P	pyridoxine 5'-phosphate	cp
XANTHINE	xanthine	cp
L-BETA-ASPARTYL-P	L-aspartyl-4-phosphate	cp
3-DEOXY-D-ARABINO-HEPTULOSONATE-7-P	3-deoxy-D-arabino-heptulosonate 7-phosphate	cp
CPDQT-40	3-[(7'-methylthio)heptyl]malate	cp
CPD-691	adenosylcobyrate	p
L-CANALINE	L-canaline	p
CPD-1109	an N-acyl-D-mannosamine	cp
CMP	CMP	cp
CPD-11244	an unsaturated pectate oligosaccharide	cp
CPDQT-41	10-(methylthio)-2-oxodecanoate	p
CMP-KDO	CMP-3-deoxy-&beta;-D-manno-octulosonate	cp
CPD-694	cob(I)yrinate a,c-diamide	c
XANTHOSINE	xanthosine	p
CPDQT-429	indolylmethylisothiocyanate	c
XANTHOSINE-5-PHOSPHATE	XMP	cp
L-CITRULLINE	L-citrulline	cp
CPDQT-434	indol-3-ylmethylisothiocyanate-glutathione	p
MESO-DIAMINOPIMELATE	meso-diaminopimelate	cp
L-CYSTATHIONINE	L-cystathionine	cp
MET	L-methionine	cp
AGMATHINE	agmatine	cp
LIPOIC-ACID	(R)-lipoate	c
CPD-18493	(3S)-hydroxy-(6Z,9Z,12Z,15Z,18Z)-tetracosapentaenoyl-CoA	p
CPD-9451	2-isopropylmaleate	cp
CPD-4161	brassicasterol	c
LIPOYL-AMP	lipoyl-adenylate	cp
3OH-4P-OH-ALPHA-KETOBUTYRATE	(3R)-3-hydroxy-2-oxo-4 phosphooxybutanoate	cp
Halide-Anions	a halide anion	p
B-KETOACYL-ACP	a 3-oxoacyl-[acp]	cp
CPD-18495	5-methoxy-6-methylbenzimidazole	c
SPERMINE	spermine	c
DCMP	dCMP	c
BCAA-dehydrogenase-2MB-DH-lipoyl	an [apo BCAA dehydrogenase E2 protein] N6-S-[2-methylbutanoyl]dihydrolipoyl-L-lysine	cp
BCAA-dehydrogenase-2MP-DH-lipoyl	an [apo BCAA dehydrogenase E2 protein] N6-S-[2-methylpropanoyl]dihydrolipoyl-L-lysine	cp
DIHYDROLIPOYL-GCVH	a [glycine-cleavage complex H protein] N6-dihydrolipoyl-L-lysine	cp
CPD-18497	5-hydroxy-benzimidazole	c
SS-Oligodeoxyribonucleotides	a single-stranded oligodeoxyribonucleotide	p
PROPIONYL-COA	propanoyl-CoA	cp
DIHYDRONEOPTERIN-P3	7,8-dihydroneopterin 3'-triphosphate	c
BCAA-dehydrogenase-3MB-DH-lipoyl	a [apo BCAA dehydrogenase E2 protein] N6-S-[3-methylbutanoyl]dihydrolipoyl-L-lysine	p
BCAA-dehydrogenase-DH-lipoyl	an [apo BCAA dehydrogenase E2 protein] N6-dihydrolipoyl-L-lysine	cp
CO-A	coenzyme A	cp
CPD-9612	caldariellaquinone	c
CPD-4162	stigmasterol	c
LL-DIAMINOPIMELATE	L,L-diaminopimelate	cp
CPD-18550	quinoxaline-2-carboxyl adenylate	c
3R-11Z-3-hydroxy-icos-11-enoyl-ACPs	a (3R,11Z)-3-hydroxy-icos-11-enoyl-[acp]	p
BCAA-dehydrogenase-lipoyl	an [apo BCAA dehydrogenase E2 protein] N6-lipoyl-L-lysine	cp
CARBON-MONOXIDE	carbon monoxide	p
STEARIC_ACID	stearate	c
3R-5Z-3-hydroxy-tetradec-5-enoyl-ACPs	a (3R,5Z)-3-hydroxy-tetradec-5-enoyl-[acp]	p
BCCP-L-lysine	a [biotin carboxyl-carrier protein]-L-lysine	c
CPD-4211	dimethylallyl diphosphate	cp
DCTP	dCTP	cp
CPD-9699	hypoglycin A	c
3R-7Z-3-hydroxy-hexadec-7-enoyl-ACPs	a (3R,7Z)-3-hydroxy-hexadec-7-enoyl-[acp]	p
BCCP-biotin-L-lysine	a [biotin carboxyl-carrier protein]-biotin-N6-L-lysine	p
Hepta-oxo-hexadecanoyl-ACPs	a 3,5,7,9,11,13,15-hepta-oxo-hexadecanoyl-[PKS-acp]	c
PROT-CYS	a [protein]-L-cysteine	c
CPD-9700	hypoglycin B	p
Hex-2-enoyl-ACPs	a trans hex-2-enoyl-[acp]	c
Hexanoyl-ACPs	a hexanoyl-[acyl-carrier-protein]	cp
3R-9Z-3-hydroxy-octadec-9-enoyl-ACPs	a (3R,9Z)-3-hydroxy-octadec-9-enoyl-[acp]	p
CPD-19014	2-hydroxy-2-methylpropanoate	cp
CPD-444	S-(methyl-5-thio-&alpha;-D-ribose 1-phosphate	cp
BENZENE	benzene	c
STEAROYL-COA	stearoyl-CoA	cp
CPD-9869	all trans-decaprenyl-2-methoxy-6-1,4-benzoquinol	c
PROTEIN-L-BETA-ISOASPARTATES	a [protein]-L-&beta;-isoaspartate	c
PROTEIN-L-BETA-ISOSPARTATE-METHYL-ESTERS	a protein L-&beta;-isoaspartate &alpha;-methyl ester	p
CPD-19042	2-hydroxyisobutyramide	c
3S-CITRYL-COA	(3S)-citryl-CoA	cp
LYS	L-lysine	cp
PROTEIN-LIPOYLLYSINE	a [glycine-cleavage complex H protein] N6-lipoyl-L-lysine	cp
LYS-tRNAs	a tRNALys	c
CPD-19144	(7Z)-hexadecenoyl-CoA	c
CPD-448	&beta;-D-glucopyranose 1-phosphate	cp
Hpr-Histidine	an [HPr]-L-histidine	c
Hpr-pi-phospho-L-histidines	an [HPr protein]-N&pi;-phospho-L-histidine	p
CPD-9871	6-methoxy-3-methyl-2-all-trans-decaprenyl-1,4-benzoquinol	p
CPD-19147	(7Z)-tetradecenoyl-CoA	c
TDP	dTDP	cp
1-CHLORO-24-DINITROBENZENE	1-chloro-2,4-dinitrobenzene	cp
CPD-15979	D-mannopyranose 6-phosphate	cp
HISTIDINAL	histidinal	cp
1-KETO-2-METHYLVALERATE	(R)-2,3-dihydroxy-3-methylpentanoate	cp
1-L-MYO-INOSITOL-1-P	1D-myo-inositol 3-monophosphate	c
NAcMur-4Peptide-NAcGlc-Undecaprenols	a N-acetylglucosamine--N-acetylmuramyl-(tetrapeptide) pyrophosphoryl-undecaprenol	p
NAcMur-Peptide-NAcGlc-Undecaprenols	a lipid II	c
NAcMur-Peptide-Undecaprenols	a N-acetylmuramoyl-pentapeptide-diphosphoundecaprenol	p
CARBOXYPHENYLAMINO-DEOXYRIBULOSE-P	1-(o-carboxyphenylamino)-1'-deoxyribulose 5'-phosphate	cp
CPD-16953	2-amino-6-[1-hydroxyethyl]-7-methyl-7,8-dihydropterin	c
TETRACHLOROHYDROQUINONE	2,3,5,6-tetrachlorohydroquinone	c
CPD-16954	[1-(2-amino-7-methyl-4-oxo-7,8-dihydro-3H-pteridin-6-yl)]ethyl diphosphate	p
CPD-17045	3-benzyl-3,6-dihydroxy-6-(hydroxymethyl)-diketopiperazine	c
ANTHRANILATE	anthranilate	cp
CPD-1130	3-ethylmalate	cp
3-ENOLPYRUVYL-SHIKIMATE-5P	5-enolpyruvoyl-shikimate 3-phosphate	cp
DATP	dATP	p
Relaxed-DNAs	a relaxed DNA	cp
3-HYDROXY-3-METHYL-GLUTARYL-COA	(S)-3-hydroxy-3-methylglutaryl-CoA	c
Resolution-of-Recombinational-Junction	resolution of recombinational junction formation of two intact strands	p
CPD-1136	cis-2-methylaconitate	cp
3Z-dodec-3-enoyl-ACPs	a (3Z)-dodec-3-enoyl-[acp]	c
Retinols	a retinol	p
Rhodoquinols	a rhodoquinol	c
3-HYDROXY-ANTHRANILATE	3-hydroxyanthranilate	cp
Rhodoquinones	a rhodoquinone	p
CPD-11444	uroporphyrinogen-I	c
Ribonucleoside-Diphosphates	a ribonucleoside diphosphate	cp
XYLULOSE-5-PHOSPHATE	D-xylulose 5-phosphate	cp
Ribonucleoside-Monophosphates	a ribonucleoside 5'-monophosphate	cp
4-AMINO-4-DEOXYCHORISMATE	4-amino-4-deoxychorismate	cp
Xenobiotic	a xenobiotic	cp
Ribonucleoside-Triphosphates	a ribonucleoside triphosphate	c
ACETYLSERINE	O-acetyl-L-serine	cp
CPD-11495	(2-hydroxyphenyl)acetate	p
Ribonucleosides	a ribonucleoside	p
DCDP	dCDP	cp
4-CARBOXYMETHYLENEBUT-2-EN-4-OLIDE	cis-dienelactone	c
Xylans	xylan	p
Ribosomal-protein-L3-L-glutamine	a [ribosomal protein L3]-L-glutamine	c
Ribosomal-protein-L3-N5M-L-glutamine	a [ribosomal protein L3]-N5-methyl-L-glutamine	p
a-2-oxoglutarate-dehydrogenase-E2-protei	a [2-oxoglutarate-dehydrogenase E2 protein] N6-octanoyl-L-lysine	c
Ribosomal-protein-S12-3-methylthio-Asp89	a [ribosomal protein S12]-3-methylsulfanyl-L-aspartate89	p
CPD-11518	3-oxo-2-(cis-2'-pentenyl)-cyclopentane-1-(E-octa-2-enoyl)-CoA	c
Ribosomal-protein-S12-Asp89	a [ribosomal protein S12] L-aspartate89	c
3-HYDROXY-DOCOSAPENTAENOYL-ACP	a (3R)-3-hydroxy-docosapentaenoyl-[acp]	p
4-CYTIDINE-5-DIPHOSPHO-2-C	4-(cytidine 5'-diphospho)-2-C-methyl-D-erythritol	cp
Fatty-Acids	a fatty acid	p
RIBOSE-5P	D-ribose 5-phosphate	cp
S-2-Haloacids	an (S)-2-haloacid	c
a-pyruvate-dehydrogenase-E2-protein-Nsup	a [pyruvate dehydrogenase E2 protein] N6-octanoyl-L-lysine	c
S-2-Hydroxyacids1	an (S)-2-hydroxyacid	p
CPD-11519	3-oxo-2-(cis-2'-pentenyl)-cyclopentane-1-(3R-hydroxyoctanoyl)-CoA	p
alpha-N-Peptidyl-LGlutamate	a [protein] C-terminal L-glutamate	c
S-2-INDOL-3-YLACETYL-COA	S-2-(indol-3 yl)acetyl-CoA	cp
4-FUMARYL-ACETOACETATE	4-fumaryl-acetoacetate	cp
3-HYDROXY-ISOVALERYL-COA	3-hydroxyisovaleryl-CoA	cp
apo-Transcarboxylases	an apo-[methylmalonyl-CoA:pyruvate carboxytransferase]	c
CPD-11522	3-oxo-2-(cis-2'-pentenyl)-cyclopentane-1-(E-hexa-2-enoyl)-CoA	c
b-Hydroxy-cis-D5-dodecenoyl-ACPs	a (3R,5Z)-3-hydroxy-dodec-5-enoyl-[acp]	p
2-CHLOROMALEYLACETATE	2-chloromaleylacetate	p
N-ACETYL-D-GALACTOSAMINE-6-PHOSPHATE	N-acetyl-D-galactosamine 6-phosphate	c
SUC	succinate	cp
Purine-ribonucleosides-5-PP	a purine ribonucleoside 5'-diphosphate	p
SUC-COA	succinyl-CoA	cp
Purine-ribonucleosides-5-PPP	a purine ribonucleoside 5'-triphosphate	c
DE-O-GLUCONATE	2-deoxygluconate	c
2-D-THREO-HYDROXY-3-CARBOXY-ISOCAPROATE	(2R,3S)-3-isopropylmalate	cp
ETOH	ethanol	cp
THF-GLU-N	a tetrahydrofolate	cp
CTP	CTP	cp
CPD-7066	(2R,3S)-3-methylmalate	p
2-DEHYDRO-3-DEOXY-D-GLUCONATE	2-dehydro-3-deoxy-D-gluconate	c
N-ACETYL-D-GLUCOSAMINE	N-acetyl-&beta;-D-glucosamine	cp
L-CYSTEATE	L-cysteate	cp
DE-O-K-GLUCONATE	3-dehydro-2-deoxy-D-gluconate	p
N-ACETYL-D-GLUCOSAMINE-1-P	N-acetyl-&alpha;-D-glucosamine 1-phosphate	cp
CPD-13534	3-oxopentanoyl-CoA	cp
METHACRYLYL-COA	methylacrylyl-CoA	cp
CPD-7076	2-methylbutanoate	c
L-DELTA1-PYRROLINE_5-CARBOXYLATE	(S)-1-pyrroline-5-carboxylate	c
PROTOHEME	ferroheme b	cp
APS	adenosine 5'-phosphosulfate	cp
PYRROLINE-HYDROXY-CARBOXYLATE	(3R,5S)-3-hydroxy-1-pyrroline-5-carboxylate	c
ETR-Quinols	an electron-transfer quinol	cp
CPD-13575	2-[(2R,5Z)-2-carboxy-4-methylthiazol-5(2H)-ylidene]ethyl phosphate	p
CPD-7100	(2S)-2-isopropyl-3-oxosuccinate	cp
ETR-Quinones	an electron-transfer quinone	cp
N-ACETYL-D-GLUCOSAMINE-6-P	N-acetyl-D-glucosamine 6-phosphate	c
2-DEHYDROPANTOATE	2-dehydropantoate	cp
THIAMINE-P	thiamine phosphate	c
CPD-469	N-acetyl-L-glutamate 5-semialdehyde	cp
ARABINOSE-5P	aldehydo-D-arabinose 5-phosphate	cp
L-GAMMA-GLUTAMYLCYSTEINE	&gamma;-L-glutamyl-L-cysteine	cp
DEAMIDO-NAD	nicotinate adenine dinucleotide	cp
THIAMINE-PYROPHOSPHATE	thiamine diphosphate	cp
N-ACETYL-D-MANNOSAMINE	N-acetyl-&beta;-D-mannosamine	cp
UDP-OHMYR-ACETYLGLUCOSAMINE	UDP-3-O-[(3R)-3-hydroxymyristoyl]-N-acetyl-&alpha;-D-glucosamine	c
CPD-7224	N-acetyl-L-citrulline	cp
CPD-13644	N5-acetyl-L-ornithine	p
CPD-474	(+)-taxifolin	c
DEHYDROQUINATE	3-dehydroquinate	cp
PYRUVATE	pyruvate	cp
2-DEOXYRIBOSE	2'-deoxyribose	c
UDP-OHMYR-GLUCOSAMINE	UDP-3-O-(3-hydroxymyristoyl)-&alpha;-D-glucosamine	cp
CPD-13689	(25S)-3-oxocholest-4-en-26-oate	c
N-ACETYL-GLUTAMYL-P	N-acetylglutamyl-phosphate	cp
ITP	ITP	cp
CPD-9956	ubiquinol-8	p
CPD-19148	(5Z)-dodecenoyl-CoA	c
BENZIMIDAZOLE	benzimidazole	c
CPD-19150	(2E,5Z)-dodecenoyl-CoA	cp
CPD-9965	icosanoyl-CoA	cp
AICAR	5-amino-1-(5-phospho-D-ribosyl)imidazole-4-carboxamide	cp
COB-I-ALAMIN	cob(I)alamin	c
BETA-D-FRUCTOSE	&beta;-D-fructofuranose	c
RIBULOSE-5P	D-ribulose 5-phosphate	cp
OLEATE-CPD	oleate	cp
CPD-19151	(S)-3-hydroxy-(5Z)-dodecenoyl-CoA	p
CPD-9999	N-acetylphosphinothricin	p
IDP	IDP	cp
Initiation-tRNAmet	initiator tRNAMet	c
CPD-19154	(S)-3-hydroxy-(7Z)-tetradecenoyl-CoA	p
5S-rRNAs	a 5S rRNA	p
CPD0-1081	N-acetyl-&beta;-D-glucosamine-1,6-anhydro-N-acetyl-&beta;-D-muramate	c
CATECHOL	catechol	p
CPD-19155	(S)-3-hydroxy-(9Z)-hexadecenoyl-CoA	p
GMP	GMP	cp
CPD0-1082	L-alanyl-&gamma;-D-glutamyl-meso-2,6-diaminopimeloyl-D-alanine	c
CPD-19159	(S)-3-hydroxy-(11Z)-octadecenoyl-CoA	p
OLEOYL-COA	oleoyl-CoA	cp
CPD0-1096	glucosamine 1,6-diphosphate	cp
5Z-3-oxo-tetradec-5-enoyl-ACPs	a (5Z)-3-oxo-tetradec-5-enoyl-[acp]	cp
BIOTIN	biotin	cp
CPD-19161	(2E,7Z)-tetradecenoyl-CoA	cp
RNA-DNA-hybrids	a RNA-DNA hybrid	c
ILE	L-isoleucine	cp
RNA-Holder	a ribonucleic acid	cp
CPD-19162	(2E,9Z)-hexadecenoyl-CoA	cp
ILE-tRNAs	a tRNAIle	c
CPD-17046	3-benzyl-3,6 -bis(glutathione)- 6-(hydroxymethyl)-diketopiperazine	p
S-24-DINITROPHENYLGLUTATHIONE	2,4-dinitrophenyl-S-glutathione	cp
5Z-tetradec-5-enoyl-ACPs	a (5Z)-tetradec-5-enoyl-[acp]	cp
CPD-17063	ferroheme o	p
TRP	L-tryptophan	cp
DIHYDROPTERIN-CH2OH-PP	(7,8-dihydropterin-6-yl)methyl diphosphate	p
5Z8Z11Z14Z17Z-EICOSAPENTAENOATE	icosapentaenoate	c
RNASE-E-DEGRADATION-SUBSTRATE-MRNA	RNase E degradation substrate mRNA	c
TRP-tRNAs	a tRNATrp	c
RNASE-E-MRNA-PROCESSING-SUBSTRATE	RNase E mRNA processing substrate	c
CPD-171	a dolichyl &beta;-D-mannosyl phosphate	cp
RNASE-E-PROCESSING-PRODUCT-MRNA	RNase E processing product mRNA	p
RNASE-G-DEGRADATION-SUBSTRATE-MRNA	RNase G degradation substrate mRNA	c
CPD-17189	pseudo-adenosyl cobamide	p
ARG	L-arginine	cp
RNASE-III-MRNA-PROCESSING-SUBSTRATE	RNase III mRNA processing substrate	c
6-AMINOPENICILLANATE	6-aminopenicillanate	cp
RNASE-III-PROCESSING-PRODUCT-MRNA	RNase III processing product mRNA	p
RNASE-R-DEGRADATION-SUBSTRATE-RNA	RNase R degradation substrate RNA	c
CPD-173	salicyl alcohol	p
HISTIDINOL	histidinol	cp
S-ADENOSYLMETHIONINAMINE	S-adenosyl 3-(methylthio)propylamine	cp
Palmitoleoyl-ACPs	a palmitoleoyl-[acp]	cp
PROTON	H+	cp
Palmitoyl-ACPs	a palmitoyl-[acp]	cp
S-ADENOSYLMETHIONINE	S-adenosyl-L-methionine	cp
DIHYDROXY-ACETONE-PHOSPHATE	glycerone phosphate	cp
RX	RX	c
ARG-tRNAs	a tRNAArg	c
DIHYDROXY-BUTANONE-P	1-deoxy-L-glycero-tetrulose 4-phosphate	cp
S-CITRAMALATE	(S)-citramalate	cp
Peptides-holder	a peptide	p
6-Dimethylallyladenosine37-tRNAs	N6-dimethylallyladenosine37 in tRNA	cp
DELTA1-PIPERIDEINE-2-6-DICARBOXYLATE	(S)-2,3,4,5-tetrahydrodipicolinate	cp
L-GLUTAMATE-5-P	&gamma;-L-glutamyl 5-phosphate	cp
Elongation-tRNAMet	elongator tRNAMet	c
NIACINE	nicotinate	p
Enoylglutaryl-ACP-methyl-esters	an enoylglutaryl-[acp] methyl ester	c
ACP	a holo-[acyl-carrier protein]	cp
Enoylpimeloyl-ACP-methyl-esters	an enoylpimeloyl-[acp] methyl ester	c
P3I	PPPi	p
DELTA3-ISOPENTENYL-PP	isopentenyl diphosphate	cp
ACRYLAMIDE	acrylamide	c
L-GLUTAMATE_GAMMA-SEMIALDEHYDE	L-glutamate-5-semialdehyde	cp
NICOTINAMIDE_NUCLEOTIDE	&beta;-nicotinamide D-ribonucleotide	cp
NICOTINAMIDE_RIBOSE	1-(&beta;-D ribofuranosyl)nicotinamide	p
PHOSPHO-ENOL-PYRUVATE	phosphoenolpyruvate	cp
Light	h&nu;	c
DEOXY-D-RIBOSE-1-PHOSPHATE	2-deoxy-&alpha;-D-ribose 1-phosphate	cp
OROTATE	orotate	cp
Lignoceroyl-ACPs	a lignoceroyl-[acp]	p
ACRYLATE	acrylate	p
NICOTINATE_NUCLEOTIDE	&beta;-nicotinate D-ribonucleotide	cp
Lipid-dihydrosterculate	a [glycerolipid]-dihydrosterculate	p
DEOXY-RIBOSE-5P	2-deoxy-D-ribose 5-phosphate	p
DEOXYADENOSINE	2'-deoxyadenosine	c
CPD-13691	(25S)-3-oxocholest-4-en-26-oyl-CoA	p
CPD-20839	Co&alpha;-[a-(5-methylbenzimidazolyl)]-Co&beta;-adenosylcobamide 5'-phosphate	p
b-Keto-cis-D5-dodecenoyl-ACPs	a (5Z)-3-oxo-dodec-5-enoyl-[acp]	cp
CPD-11523	3-oxo-2-(cis-2'-pentenyl)-cyclopentane-1-(3R-hydroxyhexanoyl)-CoA	p
CPD-734	(-)-jasmonate	p
L-HISTIDINOL-P	L-histidinol phosphate	cp
CPD-20840	7-&alpha;-D-ribosyladenine	c
PROTOPORPHYRINOGEN	protoporphyrinogen IX	p
biotin-L-lysine-in-BCCP-dimers	a [biotin carboxyl-carrier-protein dimer]-N6-biotinyl-L-lysine	cp
COBINAMIDE	cobinamide	c
CPD-20841	(2S,3R,4S,5R)-2-(5-hydroxy-1,3-benzodiazol-1-yl)-5-(hydroxymethyl)oxolane-3,4-diol	c
CPD-20849	Co&alpha;-[a-(5-hydroxybenzimidazolyl)]-Co&beta;-adenosylcobamide	p
2-HYDROXY-2-METHYLPROPANENITRILE	2-hydroxy-2-methylpropanenitrile	cp
CPD-13711	3-[(3aS,4S,7aS)-7a-methyl-1,5-dioxo-octahydro-1H-inden-4-yl]propanoate	c
CPD-11526	3-oxo-2-(cis-2'-pentenyl)-cyclopentane-1-(E-buta-2-enoyl)-CoA	c
CPD-237	(indol-3-yl)acetamide	c
4-GUANIDO-BUTYRAMIDE	4-guanidinobutyramide	c
carboxybiotin-L-lysine-in-BCCP-dimers	a [carboxyl-carrier protein dimer]-N6-carboxybiotinyl-L-lysine	cp
CDP	CDP	cp
cis-19-CP-37-Mex-38-Me-C59-ACPs	a cis-methoxy-C59-meroacyl-[acp]	p
4-HYDROXY-2-KETOVALERATE	(S)-4-hydroxy-2-oxopentanoate	cp
CDP-2-3-4-Saturated-Diacylglycerols	a CDP-2,3,4-saturated-diacylglycerol	p
CPD-4822	kanamycin B	c
CPD-763	arsenite	p
CPD-11527	3-oxo-2-(cis-2'-pentenyl)-cyclopentane-1-(3R-hydroxybutanoyl)-CoA	p
cis-21-CP-39-keto-40-Me-C60-ACPs	a cis-keto-C60-meroacyl-[acp]	p
CPD-13713	adenosine 5'-phosphoselenate	p
cis-D19-37-MOH-38-Me-C57-1-ACPs	a cis-delta19-37-methoxy-38-methyl-C57:1-[acp]	c
cis-D21-39-oxo-40-Me-C59-1-ACPs	a cis-delta21-39-oxo-40-methyl-C59:1-[acp]	c
METHIONYL-PEPTIDE	an N-terminal L-methionyl-[protein]	p
CPD-7671	methanethiol	cp
CPD-11592	2-methylsulfanyl-N6-dimethylallyladenosine37 in tRNA	p
4-HYDROXY-L-PROLINE	trans-4-hydroxy-L-proline	cp
CPD-270	an N-acyl-D-glucosamine	cp
CPD-520	quercetin	cp
CPD-288	(1R,2S)-cyclohexa-3,5-diene-1,2-diol	p
L-Methionylaminoacyl-tRNAs	a L-methionylaminoacyl-tRNA	p
CYS	L-cysteine	cp
L-ORNITHINE	L-ornithine	cp
CPD-7695	ditrans,octacis-undecaprenyldiphospho-N-acetyl-(N-acetyl-&beta;-D-glucosaminyl)muramoyl-L-alanyl-&gamma;-D-glutamyl-L-lysyl-D-alanyl-D-alanine	p
CPD-11602	ergosterol 3-O-&beta;-D-glucoside	p
CDPDIACYLGLYCEROL	a CDP-diacylglycerol	cp
CYS-GLY	L-cysteinyl-glycine	p
KDO	3-deoxy-&alpha;-D-manno-2-octulosonate	c
N-ALPHA-ACETYLORNITHINE	N-acetyl-L-ornithine	cp
CPD-11606	stigmasterol 3-O-&beta;-D-glucoside	p
2-HYDROXYPHYTANOYL-COA	2-hydroxyphytanoyl-CoA	p
KDO-8P	3-deoxy-D-manno-octulosonate 8-phosphate	p
CPD-294	2-maleylacetate	p
CPD-13754	3-[(3aS,4S,7aS)-7a-methyl-1,5-dioxo-octahydro-1H-inden-4-yl]propanoyl-CoA	p
N-Acetoxy-Arylamines	an N-acetoxyarylamine	p
Pyruvate-dehydrogenase-acetylDHlipoyl	a [pyruvate dehydrogenase E2 protein] N6-S-acetyldihydrolipoyl-L-lysine	p
COPROPORPHYRINOGEN_I	coproporphyrinogen I	p
L-PANTOATE	(R)-pantoate	c
METHYL-GLYOXAL	methylglyoxal	cp
Pyruvate-dehydrogenase-dihydrolipoate	a [pyruvate dehydrogenase E2 protein] N6-dihydrolipoyl-L-lysine	c
COPROPORPHYRINOGEN_III	coproporphyrinogen III	cp
2-Hexadecenoyl-ACPs	a trans hexadecenoyl-[acp]	c
CPD-11608	&beta;-sitosterol 3-O-&beta;-D-glucoside	p
Pyruvate-dehydrogenase-lipoate	a [pyruvate dehydrogenase E2 protein] N6-lipoyl-L-lysine	cp
GLUTARYL-COA	glutaryl-CoA	p
CPD-535	&beta;-D-fructose 2,6-bisphosphate	c
CPD-11643	two adjacent thymidines in DNA	p
CPD-2961	D-gluconate 6-phosphate	c
cis-vaccen-2-enoyl-ACPs	a (2-trans-11-cis)-vaccen-2-enoyl-[acp]	c
2-Hydroxy-carboxylates	a 2-hydroxy carboxylate	p
PROTOPORPHYRIN_IX	protoporphyrin IX	cp
CYS-tRNAs	a tRNACys	cp
N-Acetyl-beta-D-Hexosaminides	an N-acetyl-&beta;-D-hexosaminide	c
CPD0-1133	maltoheptaose	c
G3P	3-phospho-D-glycerate	cp
CPD0-1147	methyl red	c
3-HYDROXY-L-KYNURENINE	3-hydroxy-L-kynurenine	cp
CPD0-1148	N,N'-dimethyl-p-phenylenediamine	p
ATP	ATP	cp
IMIDAZOLE-ACETOL-P	imidazole acetol-phosphate	cp
3-HYDROXYADIPYL-COA	(3S)-hydroxyadipyl-CoA	cp
NITRITE	nitrite	p
ACYL-ACP	an acyl-[acyl-carrier protein]	cp
S-HYDROXYMETHYLGLUTATHIONE	S-(hydroxymethyl)glutathione	c
ACYL-COA	an acyl-CoA	c
NMNH	reduced &beta;-nicotinamide D-ribonucleotide	p
S-LACTOYL-GLUTATHIONE	(R)-S-lactoylglutathione	cp
CPD0-1162	(2E,5Z)-tetradecenoyl-CoA	cp
BISOHMYR-GLC	lipid A disaccharide	cp
ACYL-SN-GLYCEROL-3P	a 1-acyl-sn-glycerol 3-phosphate	p
BISOHMYR-GLUCOSAMINYL-1P	lipid X	cp
SULFATE	sulfate	cp
PRPP	5-phospho-&alpha;-D-ribose 1-diphosphate	cp
CPD0-1163	(S)-3-hydroxy-(5Z)-tetradecenoyl-CoA	p
DUDP	dUDP	cp
CPD-17370	18-hydroxyoleoyl-CoA	p
METHYL-MALONYL-COA	(R)-methylmalonyl-CoA	cp
FAD	FAD	cp
ALA-tRNAs	a tRNAAla	c
Lipoprotein-signal-peptide	a lipoprotein signal peptide	p
Lipoyl-Protein-L-Lysine	a [lipoyl-carrier protein]-L-lysine	c
Lipoyl-Protein-N6-lipoyllysine	a [lipoyl-carrier protein]-N6-lipoyl-L-lysine	p
CPD-17386	(2E,6Z,9Z,12Z,15Z,18Z,21Z)-tetracosaheptaenoyl-CoA	c
FADH2	FADH2	cp
PHOSPHORIBOSYL-AMP	1-(5-phospho-&beta;-D-ribosyl)-AMP	cp
PHOSPHORIBOSYL-ATP	1-(5-phospho-&beta;-D-ribosyl)-ATP	cp
CPD-17387	(3S)-hydroxy-(6Z,9Z,12Z,15Z,18Z,21Z)-tetracosahexaenoyl-CoA	p
PHOSPHORIBOSYL-CARBOXY-AMINOIMIDAZOLE	5-amino-1-(5-phospho-D-ribosyl)imidazole-4-carboxylate	cp
DUMP	dUMP	cp
Long-Chain-Acyl-CoAs	a long-chain acyl-CoA	p
GTP	GTP	cp
Long-Chain-Fatty-Acids	a long-chain fatty acid	c
Long-Chain-Polyphosphate	long chain polyphosphate	cp
DIMETHYL-D-RIBITYL-LUMAZINE	6,7-dimethyl-8-(1-D-ribityl)lumazine	cp
CPD-17621	16-hydroxypalmitoyl-CoA	p
PHOSPHORIBOSYL-FORMAMIDO-CARBOXAMIDE	5-formamido-1-(5-phospho-D-ribosyl)-imidazole-4-carboxamide	cp
10-FORMYL-DIHYDROFOLATE-GLU-N	an N10-formyldihydrofolate	p
PHOSPHORIBOSYL-FORMIMINO-AICAR-P	1-(5-phospho-&beta;-D-ribosyl)-5-[(5-phosphoribosylamino)methylideneamino]imidazole-4-carboxamide	cp
LysW-L-glutamate	a [2-aminoadipate carrier protein]-L-glutamate	c
DIMETHYLBENZIMIDAZOLE	5,6-dimethylbenzimidazole	c
CPD-17624	&omega;-carboxy-(9Z)-octadec-9-enoyl-CoA	p
