id	Common name	linked reactions
ASE10_15580	Unknown	RXN-17155
ASE10_02765	Unknown	RIBOKIN-RXN;RXN-14223
ASE10_06840	Unknown	H2PTERIDINEPYROPHOSPHOKIN-RXN;RXN-15733
ASE10_06775	Unknown	KDUD-RXN
ASE10_05100	Unknown	DIHYDROXYISOVALDEHYDRAT-RXN;DIHYDROXYMETVALDEHYDRAT-RXN
ASE10_12035	Unknown	RXN-11109
ASE10_08495	Unknown	CARBODEHYDRAT-RXN;RXN0-5224
ASE10_19140	Unknown	AMIDASE-RXN;GUANIDINOBUTANAMIDE-NH3-RXN;PYRAZIN-RXN;R311-RXN;RXN-14727;RXN-14728;RXN-17608;RXNN-404
ASE10_09620	Unknown	OHMETHYLBILANESYN-RXN
ASE10_13405	Unknown	AMINEOXID-RXN
ASE10_19125	Unknown	DAHPSYN-RXN
ASE10_08675	Unknown	2.4.1.83-RXN;RXN-16602
ASE10_17710	Unknown	4.2.99.18-RXN
ASE10_16670	Unknown	N-FORMYLGLUTAMATE-DEFORMYLASE-RXN
ASE10_05165	Unknown	2.1.1.77-RXN
ASE10_13300	Unknown	METHENYLTHFCYCLOHYDRO-RXN;METHYLENETHFDEHYDROG-NADP-RXN
ASE10_10920	Unknown	3.4.15.6-RXN
ASE10_05180	Unknown	LAUROYLACYLTRAN-RXN
ASE10_03300	Unknown	ASPARTATEKIN-RXN;DIAMINOPIMDECARB-RXN
ASE10_18335	Unknown	GLYC3PDEHYDROGBIOSYN-RXN
ASE10_11030	Unknown	CYSTATHIONINE-BETA-LYASE-RXN;RXN-15131
ASE10_09410	Unknown	TAGAALDOL-RXN
ASE10_10065	Unknown	ATPASE-RXN
ASE10_11210	Unknown	VALINE--TRNA-LIGASE-RXN
ASE10_15090	Unknown	2.1.3.9-RXN
ASE10_12720	Unknown	5.99.1.3-RXN
ASE10_00050	Unknown	ACONITATEDEHYDR-RXN;ACONITATEHYDR-RXN;RXN-14047
ASE10_06470	Unknown	MALIC-NADP-RXN;OXALODECARB-RXN
ASE10_02295	Unknown	PANTEPADENYLYLTRAN-RXN
ASE10_05945	Unknown	GSHTRAN-RXN;GST-RXN;RXN-11663;RXN-13673;RXN-15680;RXN-18405;RXN-18407;RXNQT-4363
ASE10_16695	Unknown	PEPTIDYLPROLYL-ISOMERASE-RXN
ASE10_01170	Unknown	PRAISOM-RXN
ASE10_14635	Unknown	GLUTAMINE--TRNA-LIGASE-RXN
ASE10_08775	Unknown	DNA-DIRECTED-DNA-POLYMERASE-RXN
ASE10_02730	Unknown	DTDPDEHYRHAMREDUCT-RXN
ASE10_14345	Unknown	RXN0-4261
ASE10_06015	Unknown	ASPAMINOTRANS-RXN;RXN-10814;RXN-11737;RXN-13697
ASE10_03495	Unknown	ADENYLYLSULFKIN-RXN;GSADENYLATION-RXN;RXN-12720;SULFATE-ADENYLYLTRANS-RXN
ASE10_15445	Unknown	5-METHYLTHIOADENOSINE-PHOSPHORYLASE-RXN;RXN-14304
ASE10_02380	Unknown	ACYLCOADEHYDROG-RXN;RXN-17775;RXN-17779;RXN-17783;RXN-17784;RXN-17788;RXN-17792;RXN-17796
ASE10_06415	Unknown	GSHTRAN-RXN;GST-RXN;RXN-11663;RXN-13673;RXN-15680;RXN-18405;RXN-18407;RXNQT-4363
ASE10_17215	Unknown	R145-RXN
ASE10_06495	Unknown	LYSOPHOSPHOLIPASE-RXN;RXN-15035;RXN-19312
ASE10_14930	Unknown	2.7.1.148-RXN
ASE10_05680	glmU	2.3.1.157-RXN;NAG1P-URIDYLTRANS-RXN
ASE10_13005	Unknown	CARBODEHYDRAT-RXN;RXN0-5224
ASE10_15630	Unknown	ATPASE-RXN
ASE10_17230	Unknown	DIHYDRODIPICSYN-RXN
ASE10_15810	Unknown	3.4.21.92-RXN
ASE10_01135	Unknown	3.2.2.15-RXN
ASE10_07750	Unknown	ISOCITDEH-RXN;RXN-8642;RXN-9951
ASE10_04735	Unknown	ACETYLORNTRANSAM-RXN;RXN-15007
ASE10_14985	Unknown	ARGINASE-RXN;RXN-34
ASE10_04290	Unknown	RXN0-6726
ASE10_16590	Unknown	2.7.7.60-RXN
ASE10_13430	Unknown	5.99.1.2-RXN
ASE10_02020	leuS	LEUCINE--TRNA-LIGASE-RXN
ASE10_12810	sucA	2-KETO-ADIPATE-DEHYDROG-RXN;2OXOGLUTARATEDEH-RXN;2OXOGLUTDECARB-RXN;RXN-7716;RXN0-1147
ASE10_05310	Unknown	3-DEHYDROQUINATE-DEHYDRATASE-RXN
ASE10_06355	Unknown	3-OXOADIPATE-ENOL-LACTONASE-RXN;RXN-10083
ASE10_05860	Unknown	RXN-11833
ASE10_18390	Unknown	ACETYL-COA-ACETYLTRANSFER-RXN;METHYLACETOACETYLCOATHIOL-RXN;RXN-12561
ASE10_08220	Unknown	DURIDKI-RXN;THYKI-RXN
ASE10_13800	Unknown	RXN0-2023
ASE10_06485	Unknown	RXN0-5462
ASE10_17335	Unknown	HISTIDINE-AMMONIA-LYASE-RXN
ASE10_14510	Unknown	RXN0-20
ASE10_07030	Unknown	PGLUCONDEHYDRAT-RXN
ASE10_18455	Unknown	GLYOXIII-RXN
ASE10_14260	Unknown	RXN0-6575
ASE10_02365	Unknown	2.7.13.3-RXN
ASE10_03820	Unknown	ISOCHORMAT-RXN
ASE10_16385	Unknown	2.7.13.3-RXN
ASE10_03925	Unknown	HOMOSERINE-O-ACETYLTRANSFERASE-RXN
ASE10_07995	Unknown	4.3.1.17-RXN;RXN-15125
ASE10_01890	Unknown	LIPIDADISACCHARIDESYNTH-RXN
ASE10_13350	Unknown	PEPSYNTH-RXN
ASE10_12435	uvrC	RXN0-2621
ASE10_02205	Unknown	MYO-INOSITOL-1OR-4-MONOPHOSPHATASE-RXN;RXN-7253;RXN0-5408
ASE10_04240	Unknown	S-ADENMETSYN-RXN
ASE10_02460	Unknown	THREONINE--TRNA-LIGASE-RXN
ASE10_14365	Unknown	GLUTATHIONE-SYN-RXN
ASE10_11495	Unknown	DALADALALIG-RXN
ASE10_10240	Unknown	RXN0-5268
ASE10_03510	Unknown	NADPH-DEHYDROGENASE-FLAVIN-RXN
ASE10_13745	Unknown	ALANINE-DEHYDROGENASE-RXN
ASE10_06715	Unknown	DEOXYGLUCONOKIN-RXN
ASE10_17995	Unknown	4.2.99.18-RXN;RXN0-2601
ASE10_14675	Unknown	R4-RXN
ASE10_02810	Unknown	2.3.2.13-RXN;RXN-19236
ASE10_12940	Unknown	GLUTAMATE-DEHYDROGENASE-NADP+-RXN;GLUTAMATE-DEHYDROGENASE-RXN;GLUTDEHYD-RXN
ASE10_08190	Unknown	ACID-PHOSPHATASE-RXN;RXN-5822
ASE10_17300	Unknown	HISTIDPHOS-RXN;IMIDPHOSDEHYD-RXN
ASE10_17255	Unknown	2-HALOACID-DEHALOGENASE-RXN
ASE10_05490	Unknown	RXN0-5510
ASE10_10135	Unknown	ATPASE-RXN
ASE10_00865	Unknown	CYSTEINE-DIOXYGENASE-RXN
ASE10_03785	Unknown	AMINOGLYCOSIDE-N6-ACETYLTRANSFERASE-RXN
ASE10_19180	Unknown	2.7.13.3-RXN
ASE10_04830	Unknown	INORGPYROPHOSPHAT-RXN
ASE10_05775	Unknown	3.4.13.9-RXN
ASE10_04730	Unknown	GSAAMINOTRANS-RXN
ASE10_11465	Unknown	UDP-NACMURALGLDAPLIG-RXN
ASE10_15965	Unknown	EXOPOLYPHOSPHATASE-RXN
ASE10_03835	hemE	RXN-10642;UROGENDECARBOX-RXN
ASE10_10275	Unknown	1.17.1.1-RXN
ASE10_01970	Unknown	RXN0-6523
ASE10_16500	Unknown	RXN0-5462
ASE10_18245	Unknown	KYNURENINE-3-MONOOXYGENASE-RXN
ASE10_14320	relA	GDPPYPHOSKIN-RXN;GTPPYPHOSKIN-RXN
ASE10_01930	Unknown	RXN-1961
ASE10_14600	Unknown	OCTAPRENYL-METHYL-METHOXY-BENZOQ-OH-RXN
ASE10_05395	Unknown	GLYRIBONUCSYN-RXN
ASE10_07790	Unknown	AMINOACYLASE-RXN;RXN-13684
ASE10_01350	Unknown	METHIONINE--TRNA-LIGASE-RXN;RXN-16165
ASE10_01050	Unknown	1.6.99.5-RXN;NADH-DEHYDROGENASE-QUINONE-RXN
ASE10_09825	Unknown	3.2.1.17-RXN
ASE10_15385	Unknown	ACETOLACTSYN-RXN;ACETOOHBUTSYN-RXN
ASE10_05675	Unknown	2.7.13.3-RXN
ASE10_15500	Unknown	RXN0-5462
ASE10_08430	Unknown	ORNITHINE--OXO-ACID-AMINOTRANSFERASE-RXN;ORNITHINE-GLU-AMINOTRANSFERASE-RXN
ASE10_01560	Unknown	UDPGLUCEPIM-RXN
ASE10_18060	Unknown	ARGDECARBOX-RXN
ASE10_17415	Unknown	RXN0-5414
ASE10_17180	Unknown	1.1.1.178-RXN
ASE10_15080	Unknown	ACETYLORNDEACET-RXN;RXN-7933
ASE10_09890	Unknown	RXN-13039;RXN-17127;RXN-8654;RXN-8655;RXN0-1141;RXN0-5098
ASE10_17605	Unknown	ISOLEUCINE--TRNA-LIGASE-RXN
ASE10_05355	Unknown	CDPDIGLYSYN-RXN;RXN0-5515
ASE10_12615	Unknown	2.5.1.19-RXN
ASE10_04230	Unknown	LIPIDXSYNTHESIS-RXN
ASE10_17850	asnB	ASNSYNA-RXN;ASNSYNB-RXN;GLUTAMIN-RXN
ASE10_03970	Unknown	2.7.13.3-RXN
ASE10_11130	Unknown	1.5.5.1-RXN;RXN66-550
ASE10_01265	rimO	RXN0-6366
ASE10_12920	Unknown	HOMOCYSMET-RXN;HOMOCYSMETB12-RXN
ASE10_07785	Unknown	GSHTRAN-RXN;GST-RXN;RXN-11663;RXN-13673;RXN-15680;RXN-18405;RXN-18407;RXNQT-4363
ASE10_11380	Unknown	RIBOFLAVINSYNDEAM-RXN;RIBOFLAVINSYNREDUC-RXN
ASE10_10165	Unknown	GLYOXIII-RXN
ASE10_14595	Unknown	2-OCTAPRENYL-6-METHOXYPHENOL-HYDROX-RXN
ASE10_17310	hisD	HISTALDEHYD-RXN;HISTOLDEHYD-RXN;RXN-8001
ASE10_12945	ppnK	NAD-KIN-RXN
ASE10_17520	Unknown	R4-RXN
ASE10_10930	Unknown	UDP-NACMURALGLDAPLIG-RXN
ASE10_14135	Unknown	DMBPPRIBOSYLTRANS-RXN;RXN-19295;RXN-19298;RXN-19299;RXN-19300;RXN-19301;RXN-19306
ASE10_08910	Unknown	2.7.13.3-RXN
ASE10_15555	Unknown	DTMPKI-RXN
ASE10_14295	Unknown	RXN0-4261
ASE10_00290	Unknown	CATAL-RXN;RXN-14189;RXN66-1
ASE10_13155	Unknown	RXN-11832;RXN-12002;RXN-7913
ASE10_04890	Unknown	ASPARTATEKIN-RXN
ASE10_00430	Unknown	DEOXYRIBODIPYRIMIDINE-PHOTOLYASE-RXN;RXN-19025;RXN-19026;RXN-19242;RXN-19243;RXN-19244;RXN-19245;RXN-19246;RXN-19247;RXN-19248
ASE10_00085	Unknown	LYSINE--TRNA-LIGASE-RXN
ASE10_06615	Unknown	S-FORMYLGLUTATHIONE-HYDROLASE-RXN
ASE10_12425	Unknown	CPM-KDOSYNTH-RXN
ASE10_14120	Unknown	4.1.1.81-RXN
ASE10_11415	Unknown	ADOMET-DMK-METHYLTRANSFER-RXN
ASE10_17145	Unknown	ENOYL-COA-HYDRAT-RXN;METHYLACYLYLCOA-HYDROXY-RXN;RXN-10697;RXN-10704;RXN-10705;RXN-11244;RXN-12567;RXN-13616;RXN-14266;RXN-14272;RXN-14273;RXN-16135;RXN-16558;RXN-17114;RXN-17475;RXN-17776;RXN-17780;RXN-17785;RXN-17789;RXN-17793;RXN-17797;RXN-2425;RXN0-5393;TIGLYLCOA-HYDROXY-RXN
ASE10_03535	Unknown	SIROHEME-FERROCHELAT-RXN
ASE10_00065	Unknown	ACYLCOASYN-RXN;LINOLENOYL-RXN;R223-RXN;RXN-12184;RXN-12978;RXN-13290;RXN-13614;RXN-16380;RXN-16389;RXN-16393;RXN-16401;RXN-16402;RXN-16415;RXN-16418;RXN-7904;RXN-9623;RXN-9644;RXN-9673;RXN0-7238;RXN0-7239;RXN0-7248;RXN66-469;RXN66-477;RXN66-480;RXN66-483;RXN66-484;TRANS-RXN0-623
ASE10_12320	Unknown	ACYLCOADEHYDROG-RXN;RXN-17775;RXN-17779;RXN-17783;RXN-17784;RXN-17788;RXN-17792;RXN-17796
ASE10_13235	Unknown	RXN-11586
ASE10_04380	Unknown	ACSERLY-RXN;RXN-12726
ASE10_12880	Unknown	PEPTIDYLPROLYL-ISOMERASE-RXN
ASE10_15100	Unknown	CYSTEINE--TRNA-LIGASE-RXN
ASE10_11215	Unknown	DNA-DIRECTED-DNA-POLYMERASE-RXN
ASE10_04405	Unknown	PEPDEPHOS-RXN;RXN-14117;RXN-14192;RXN-14207
ASE10_04425	Unknown	PHOSGLYPHOS-RXN
ASE10_15930	Unknown	ISOCITRATE-DEHYDROGENASE-NAD+-RXN
ASE10_18725	Unknown	RXN0-2621
ASE10_02960	Unknown	THYM-PHOSPH-RXN
ASE10_14290	Unknown	3.4.11.5-RXN
ASE10_13310	guaA	GLUTAMIN-RXN;GMP-SYN-GLUT-RXN;GMP-SYN-NH3-RXN
ASE10_16680	Unknown	GLUTATHIONE-REDUCT-NADPH-RXN
ASE10_12925	Unknown	HOMOCYSMETB12-RXN
ASE10_02250	Unknown	L-LYSINE-AMINOTRANSFERASE-RXN
ASE10_14480	Unknown	GLYOXIII-RXN
ASE10_18610	Unknown	GAMMA-GLUTAMYLTRANSFERASE-RXN;RXN-18092;RXN-6601;RXN-9157;RXN66-336
ASE10_02010	Unknown	DNA-DIRECTED-DNA-POLYMERASE-RXN
ASE10_11355	glyA	GLYOHMETRANS-RXN;RXN0-5234
ASE10_14975	tuf	RXN0-5462
ASE10_14005	Unknown	GUANYL-KIN-RXN
ASE10_10250	Unknown	GLYOXIII-RXN
ASE10_13750	Unknown	THIOREDOXIN-REDUCT-NADPH-RXN
ASE10_16125	Unknown	CHLORIDE-PEROXIDASE-RXN
ASE10_17600	Unknown	RXN-17362
ASE10_12475	Unknown	2.7.13.3-RXN
ASE10_01315	Unknown	PYROGLUTAMYL-PEPTIDASE-I-RXN
ASE10_08965	Unknown	2-HALOACID-DEHALOGENASE-RXN;3.8.1.11-RXN;RXN-6263;RXN-6264
ASE10_10115	Unknown	1.11.1.15-RXN;RXN0-5468
ASE10_02605	Unknown	1.10.2.2-RXN;RXN-15829
ASE10_00570	Unknown	3.1.26.12-RXN;RXN0-6478;RXN0-6485;RXN0-6521;RXN0-6522;RXN0-6523
ASE10_01185	Unknown	ASPARTATE-SEMIALDEHYDE-DEHYDROGENASE-RXN
ASE10_10785	Unknown	4-HYDROXYPHENYLPYRUVATE-DIOXYGENASE-RXN;RXN-10815
ASE10_17780	Unknown	R4-RXN
ASE10_01415	Unknown	H2PTERIDINEPYROPHOSPHOKIN-RXN;RXN-15733
ASE10_17865	Unknown	RXN-982
ASE10_17610	Unknown	FADSYN-RXN;RIBOFLAVINKIN-RXN;RXN-18510;RXN-18511
ASE10_12805	Unknown	RXN0-1147
ASE10_17800	Unknown	RXN0-7023
ASE10_08755	uvrD	RXN-11135
ASE10_14840	Unknown	ASPARAGHYD-RXN
ASE10_07470	Unknown	PDXJ-RXN
ASE10_06525	Unknown	AMP-NUCLEOSID-RXN
ASE10_14685	Unknown	3.4.11.5-RXN
ASE10_10745	Unknown	RXN-12508;RXN-12583;RXN0-1134
ASE10_03920	Unknown	O-SUCCHOMOSERLYASE-RXN;RXN-18602;RXN-9384
ASE10_02470	Unknown	RXN0-2621
ASE10_17875	Unknown	URITRANS-RXN
ASE10_10285	dnaE2	DNA-DIRECTED-DNA-POLYMERASE-RXN;RXN0-4961
ASE10_01395	Unknown	PGLUCISOM-RXN
ASE10_15335	Unknown	DIHYDROOROTATE-DEHYDROGENASE-RXN;RXN-9929;RXN0-6491;RXN0-6554
ASE10_14105	Unknown	BTUR2-RXN;COBALADENOSYLTRANS-RXN;R344-RXN
ASE10_02300	Unknown	RXN0-6515
ASE10_06640	Unknown	GLUTCYSLIG-RXN
ASE10_16405	Unknown	ATPASE-RXN
ASE10_12260	Unknown	FUMHYDR-RXN
ASE10_06860	Unknown	6.3.5.7-RXN
ASE10_06510	Unknown	PRODISULFREDUCT-RXN;RXN0-7271
ASE10_05145	Unknown	3-ISOPROPYLMALDEHYDROG-RXN;RXN-13158;RXN-14986;RXN-18200;RXN-18202;RXN-18204;RXN-18206;RXN-18208;RXN-18210;RXNQT-4165;RXNQT-4168;RXNQT-4171;RXNQT-4174;RXNQT-4178
ASE10_17075	Unknown	ACETYL-COA-ACETYLTRANSFER-RXN;METHYLACETOACETYLCOATHIOL-RXN;RXN-12561
ASE10_09870	Unknown	3.4.16.4-RXN;3.4.17.8-RXN;RXN-11065;RXN-11302;RXN-11351;RXN-16649;RXN-16659;RXN-19249;RXN-19253;RXN-19256
ASE10_10755	Unknown	RXN-8665
ASE10_03620	Unknown	PHENYLPCARB-RXN
ASE10_09085	Unknown	5.99.1.2-RXN
ASE10_10235	Unknown	RXN0-5268
ASE10_14205	Unknown	3.1.22.4-RXN
ASE10_17510	Unknown	PMPOXI-RXN;PNPOXI-RXN
ASE10_06675	Unknown	MALTODEXGLUCOSID-RXN;RXN-14281;RXN-14282;RXN-14283;RXN-15910;RXN0-5183
ASE10_11820	Unknown	GLUTCYSLIG-RXN
ASE10_09605	Unknown	3.1.1.64-RXN;CARBOXYLESTERASE-RXN;RETINYL-PALMITATE-ESTERASE-RXN;RXN-10711;RXN-10767;RXN-12252;RXN-12575;RXNQT-4366
ASE10_11980	Unknown	ATPASE-RXN
ASE10_17855	Unknown	PENICILLIN-AMIDASE-RXN;RXN-17099
ASE10_12950	Unknown	5-NUCLEOTID-RXN;AMP-DEPHOSPHORYLATION-RXN;RXN-14025;RXN-14026;RXN-14227;RXN-5841;RXN-7607;RXN-7609;XMPXAN-RXN
ASE10_17340	Unknown	HISTIDINE--TRNA-LIGASE-RXN
ASE10_19215	Unknown	2-METHYLCITRATE-SYNTHASE-RXN
ASE10_01390	Unknown	RXN-12104
ASE10_15060	Unknown	ARGSUCCINLYA-RXN;RXN-22
ASE10_18070	Unknown	SPERMIDINESYN-RXN
ASE10_13305	Unknown	IMP-DEHYDROG-RXN
ASE10_03980	Unknown	RXN-16650
ASE10_11250	Unknown	FGAMSYN-RXN
ASE10_05070	Unknown	BRANCHED-CHAINAMINOTRANSFERILEU-RXN;BRANCHED-CHAINAMINOTRANSFERLEU-RXN;BRANCHED-CHAINAMINOTRANSFERVAL-RXN
ASE10_12835	Unknown	AICARSYN-RXN;AMPSYN-RXN
ASE10_15760	Unknown	GLYOXII-RXN;RXN-7919
ASE10_01470	Unknown	OHMETPYRKIN-RXN;PYRIMSYN3-RXN
ASE10_10955	Unknown	SAMDECARB-RXN
ASE10_00950	Unknown	PHOSPHASERSYN-RXN
ASE10_05520	Unknown	DETHIOBIOTIN-SYN-RXN
ASE10_14710	Unknown	PYRNUTRANSHYDROGEN-RXN;TRANS-RXN0-277
ASE10_09195	Unknown	N-ACYLGLUCOSAMINE-2-EPIMERASE-RXN;R381-RXN;RXN-16006
ASE10_08735	Unknown	GSHTRAN-RXN;GST-RXN;RXN-11663;RXN-13673;RXN-15680;RXN-18405;RXN-18407;RXNQT-4363
ASE10_01140	Unknown	RXN-527;RXN1F-93
ASE10_01905	Unknown	DNA-DIRECTED-DNA-POLYMERASE-RXN
ASE10_19210	prpB	METHYLISOCITRATE-LYASE-RXN
ASE10_07945	Unknown	2.8.1.6-RXN;RXN-17472;RXN-17473
ASE10_04900	Unknown	THRESYN-RXN
ASE10_01150	Unknown	RXN0-5055
ASE10_15050	Unknown	GLUTSEMIALDEHYDROG-RXN
ASE10_15570	Unknown	PABASYN-RXN
ASE10_17485	Unknown	GSHTRAN-RXN;GST-RXN;RXN-11663;RXN-13673;RXN-15680;RXN-18405;RXN-18407;RXNQT-4363
ASE10_03910	Unknown	CARBOXYMETHYLENEBUTENOLIDASE-RXN;DIENELACHYDRO-RXN;RXN-9857;RXN-9868;RXN-9887;RXN-9890
ASE10_03290	murD	UDP-NACMURALA-GLU-LIG-RXN
ASE10_07780	Unknown	RXN0-4022
ASE10_18945	Unknown	AKBLIG-RXN
ASE10_07615	Unknown	R4-RXN
ASE10_18145	Unknown	MALSYN-RXN
ASE10_12825	Unknown	GLYOXIII-RXN
ASE10_05220	Unknown	GSADENYLATION-RXN
ASE10_10215	Unknown	2.7.13.3-RXN
ASE10_16480	Unknown	ADENYLOSUCCINATE-SYNTHASE-RXN
ASE10_15220	Unknown	3.1.13.5-RXN;RXN0-6483;RXN0-6484
ASE10_06250	Unknown	1.5.1.9-RXN
ASE10_16855	Unknown	GLYOXIII-RXN
ASE10_13215	Unknown	ACETYL-COA-ACETYLTRANSFER-RXN;METHYLACETOACETYLCOATHIOL-RXN;RXN-12561
ASE10_14110	Unknown	R341-RXN;RXN-14256;RXN-14257;RXN-8769
ASE10_15670	Unknown	DNA-DIRECTED-DNA-POLYMERASE-RXN
ASE10_09775	Unknown	CYTDEAM-RXN;RXN-14129;RXN-14197
ASE10_02115	Unknown	RXN-11109
ASE10_11395	Unknown	DIOHBUTANONEPSYN-RXN
ASE10_02955	Unknown	PRPPSYN-RXN
ASE10_02230	Unknown	RXN0-1342
ASE10_07960	Unknown	RXN-11483
ASE10_16270	Unknown	3.2.2.21-RXN
ASE10_01095	Unknown	1.6.99.5-RXN;NADH-DEHYDROGENASE-QUINONE-RXN
ASE10_07380	Unknown	DNA-DIRECTED-DNA-POLYMERASE-RXN
ASE10_05320	Unknown	BIOTIN-CARBOXYL-RXN
ASE10_06035	Unknown	GSHTRAN-RXN;GST-RXN;RXN-11663;RXN-13673;RXN-15680;RXN-18405;RXN-18407;RXNQT-4363
ASE10_07055	Unknown	3.5.1.80-RXN;NAG6PDEACET-RXN
ASE10_02540	Unknown	PRODISULFREDUCT-RXN;RXN0-7271
ASE10_03615	Unknown	DARAB5PISOM-RXN
ASE10_00440	Unknown	ALARACECAT-RXN
ASE10_12305	Unknown	3.1.21.1-RXN
ASE10_04755	Unknown	PROTEIN-KINASE-RXN
ASE10_00610	Unknown	RXN0-5375
ASE10_07040	Unknown	GLU6PDEHYDROG-RXN
ASE10_00545	Unknown	RXN-13908;RXN-7908
ASE10_04825	Unknown	ADDALT-RXN;ADENODEAMIN-RXN
ASE10_11970	Unknown	PEPTIDYLPROLYL-ISOMERASE-RXN
ASE10_10595	Unknown	RXN0-1281
ASE10_01405	Unknown	PANTOATE-BETA-ALANINE-LIG-RXN
ASE10_01175	Unknown	TRNA-PSEUDOURIDINE-SYNTHASE-I-RXN
ASE10_08865	Unknown	2.7.13.3-RXN
ASE10_10315	Unknown	1.5.1.9-RXN
ASE10_06660	Unknown	2.4.1.19-RXN;RXN-12181
ASE10_11190	Unknown	PHOSPHASERSYN-RXN
ASE10_11695	Unknown	GSHTRAN-RXN;GST-RXN;RXN-11663;RXN-13673;RXN-15680;RXN-18405;RXN-18407;RXNQT-4363
ASE10_11450	Unknown	RXN-11638
ASE10_01125	Unknown	TRIOSEPISOMERIZATION-RXN
ASE10_00860	Unknown	HOMOSERINE-O-ACETYLTRANSFERASE-RXN
ASE10_09960	Unknown	CYTOCHROME-C-OXIDASE-RXN;RXN-15830
ASE10_07525	Unknown	DNA-DIRECTED-DNA-POLYMERASE-RXN
ASE10_13230	Unknown	CDPKIN-RXN;DADPKIN-RXN;DCDPKIN-RXN;DGDPKIN-RXN;DTDPKIN-RXN;DUDPKIN-RXN;GDPKIN-RXN;NUCLEOSIDE-DIP-KIN-RXN;RXN-14120;RXN-14228;UDPKIN-RXN
ASE10_12985	Unknown	AMINO-CARBOXYMUCONATE-SEMIALDEHYDE-RXN
ASE10_14885	Unknown	POLYPHOSPHATE-KINASE-RXN
ASE10_05340	Unknown	RXN0-5419
ASE10_14755	Unknown	PYRNUTRANSHYDROGEN-RXN;TRANS-RXN0-277
ASE10_10695	Unknown	TRYPTOPHAN--TRNA-LIGASE-RXN
ASE10_15710	Unknown	RXN0-5061
ASE10_01215	Unknown	PHOSPHASERDECARB-RXN
ASE10_16930	Unknown	GLYOXIII-RXN
ASE10_10615	Unknown	ATPASE-RXN
ASE10_15705	Unknown	RXN-11328;RXN-16750
ASE10_17860	Unknown	SUCCDIAMINOPIMDESUCC-RXN
ASE10_11390	Unknown	RIBOFLAVIN-SYN-RXN
ASE10_13010	Unknown	1.2.1.32-RXN;RXN-8831;RXN-8837
ASE10_07520	Unknown	RXN0-5100
ASE10_15085	Unknown	ARGSUCCINSYN-RXN;RXN-10
ASE10_04565	Unknown	ATPASE-RXN
ASE10_18870	Unknown	LIPIDXSYNTHESIS-RXN
ASE10_08205	Unknown	RXN0-4261
ASE10_15375	ispG	RXN0-882
ASE10_03810	Unknown	3-DEHYDROQUINATE-SYNTHASE-RXN
ASE10_14420	Unknown	RXN0-1441
ASE10_19260	Unknown	RXN1A0-6303
ASE10_00180	Unknown	RXN-14014
ASE10_04320	Unknown	TRNA-GUANINE-N7--METHYLTRANSFERASE-RXN
ASE10_06505	Unknown	3.1.1.72-RXN
ASE10_05500	Unknown	RXN0-5507
ASE10_09680	Unknown	3.4.21.26-RXN
ASE10_09710	Unknown	RXN0-5100
ASE10_07025	Unknown	2-HALOACID-DEHALOGENASE-RXN;3.8.1.11-RXN;RXN-6263;RXN-6264
ASE10_13765	Unknown	LEUCYLTRANSFERASE-RXN;RXN-17846;RXN-17847;RXN-17848
ASE10_01075	Unknown	1.6.99.5-RXN;NADH-DEHYDROGENASE-QUINONE-RXN
ASE10_12420	Unknown	TETRAACYLDISACC4KIN-RXN
ASE10_03545	Unknown	KANAMYCIN-KINASE-RXN
ASE10_18005	pyrE	OROPRIBTRANS-RXN
ASE10_00940	Unknown	RXN1-42
ASE10_10895	Unknown	ANTHRANSYN-RXN
ASE10_04200	Unknown	RIBOKIN-RXN;RXN-14223
ASE10_07950	Unknown	7KAPSYN-RXN;RXN-11484
ASE10_18820	Unknown	FORMIMINOGLUTAMATE-DEIMINASE-RXN
ASE10_02740	Unknown	DTDPGLUCOSEPP-RXN
ASE10_07915	ubiA	4OHBENZOATE-OCTAPRENYLTRANSFER-RXN
ASE10_13595	Unknown	CHLORIDE-PEROXIDASE-RXN
ASE10_04130	gcvT	GCVT-RXN
ASE10_05430	Unknown	NADPYROPHOSPHAT-RXN;RXN0-4401
ASE10_10490	Unknown	2-HALOACID-DEHALOGENASE-RXN
ASE10_04630	Unknown	RXN0-4261
ASE10_01940	Unknown	FPPSYN-RXN
ASE10_11125	Unknown	UDPGLUCEPIM-RXN
ASE10_12635	Unknown	RXN0-2161;SERINE--TRNA-LIGASE-RXN
ASE10_04440	Unknown	ADPREDUCT-RXN;CDPREDUCT-RXN;GDPREDUCT-RXN;RIBONUCLEOSIDE-DIP-REDUCTI-RXN;RIBONUCLEOSIDE-DIP-REDUCTII-RXN;RXN0-722;RXN0-747;RXN0-748;UDPREDUCT-RXN
ASE10_06740	Unknown	4.2.2.2-RXN
ASE10_08785	Unknown	RXN0-1461
ASE10_14010	Unknown	DNA-DIRECTED-RNA-POLYMERASE-RXN
ASE10_09610	Unknown	2.7.13.3-RXN
ASE10_03285	Unknown	CARBOXYMETHYLENEBUTENOLIDASE-RXN;DIENELACHYDRO-RXN;RXN-9857;RXN-9868;RXN-9887;RXN-9890
ASE10_06890	Unknown	HEMEOSYN-RXN
ASE10_01875	Unknown	3-HYDROXYDECANOYL-ACP-DEHYDR-RXN
ASE10_01530	Unknown	RXN0-5100
ASE10_08870	Unknown	RXN0-2584
ASE10_19280	prpD	2-METHYLCITRATE-DEHYDRATASE-RXN
ASE10_04535	Unknown	1TRANSKETO-RXN;2TRANSKETO-RXN
ASE10_17065	Unknown	LEUCINE-DEHYDROGENASE-RXN
ASE10_12645	Unknown	GLUCOKIN-RXN;HEXOKINASE-RXN
ASE10_18165	Unknown	AMINOCYL-TRNA-HYDROLASE-RXN;RXN-16637
ASE10_17625	obgE	RXN0-5462
ASE10_03710	pyrB	ASPCARBTRANS-RXN
ASE10_03715	Unknown	3.1.22.4-RXN
ASE10_08390	Unknown	RXN-11578
ASE10_16560	Unknown	2.1.1.77-RXN
ASE10_05125	Unknown	RXN-15122;THREDEHYD-RXN
ASE10_10915	Unknown	RXN0-3241
ASE10_04280	Unknown	2.7.13.3-RXN
ASE10_04390	Unknown	F16ALDOLASE-RXN;RXN-8631
ASE10_01500	Unknown	2.7.13.3-RXN
ASE10_03515	Unknown	1.8.4.8-RXN
ASE10_11240	Unknown	RXN0-5100
ASE10_17980	Unknown	RXN0-4621
ASE10_10940	Unknown	2-HALOACID-DEHALOGENASE-RXN
ASE10_18020	Unknown	DUTP-PYROP-RXN
ASE10_07400	Unknown	F16BDEPHOS-RXN
ASE10_15740	Unknown	3.1.3.16-RXN
ASE10_02615	Unknown	RXN-14480;RXN-14481;RXN0-5063
ASE10_08955	Unknown	3.2.1.74-RXN
ASE10_17070	Unknown	RXN-14264;RXN0-2301
ASE10_13085	Unknown	ASPARAGINE--TRNA-LIGASE-RXN
ASE10_02800	Unknown	DIAMINOPIMDECARB-RXN
ASE10_03225	Unknown	PROTEIN-TYROSINE-PHOSPHATASE-RXN
ASE10_02745	Unknown	DTDPGLUCDEHYDRAT-RXN
ASE10_17050	Unknown	METHYLMALONYL-COA-MUT-RXN
ASE10_11470	Unknown	UDP-NACMURALGLDAPAALIG-RXN
ASE10_11410	Unknown	THI-P-KIN-RXN
ASE10_13875	Unknown	5-FORMYL-THF-CYCLO-LIGASE-RXN
ASE10_04275	Unknown	BRANCHED-CHAINAMINOTRANSFERILEU-RXN;BRANCHED-CHAINAMINOTRANSFERLEU-RXN;BRANCHED-CHAINAMINOTRANSFERVAL-RXN
ASE10_10795	Unknown	HOMOGENTISATE-12-DIOXYGENASE-RXN
ASE10_02570	Unknown	QUINOPRIBOTRANS-RXN
ASE10_14670	Unknown	R4-RXN
ASE10_12795	Unknown	LYSDECARBOX-RXN
ASE10_08805	Unknown	RXN0-5268
ASE10_17870	Unknown	TETHYDPICSUCC-RXN
ASE10_11775	Unknown	2-OCTAPRENYL-6-OHPHENOL-METHY-RXN;DHHB-METHYLTRANSFER-RXN
ASE10_15065	Unknown	N-ACETYLGLUTPREDUCT-RXN;RXN-15006
ASE10_06620	Unknown	RXN-17884;RXN-2962
ASE10_12675	Unknown	BETA-PHOSPHOGLUCOMUTASE-RXN;RXN-16995;RXN-16996
ASE10_13325	Unknown	DCMP-DEAMINASE-RXN
ASE10_07890	Unknown	ATPASE-RXN
ASE10_07070	Unknown	1.2.7.8-RXN
ASE10_10055	Unknown	1.14.11.18-RXN;RXN66-470
ASE10_02005	Unknown	NICONUCADENYLYLTRAN-RXN
ASE10_17155	Unknown	METHYLCROTONYL-COA-CARBOXYLASE-RXN
ASE10_02070	Unknown	RXN-11334
ASE10_09115	Unknown	3.5.1.27-RXN;3.5.1.88-RXN
ASE10_03725	Unknown	3.2.2.21-RXN
ASE10_14350	Unknown	GLYOXIII-RXN
ASE10_18035	argS	ARGININE--TRNA-LIGASE-RXN
ASE10_13685	Unknown	ACETATEKIN-RXN
ASE10_17165	Unknown	HYDROXYMETHYLGLUTARYL-COA-LYASE-RXN
ASE10_19225	Unknown	GSHTRAN-RXN;GST-RXN;RXN-11663;RXN-13673;RXN-15680;RXN-18405;RXN-18407;RXNQT-4363
ASE10_04895	Unknown	HOMOSERKIN-RXN
ASE10_10960	Unknown	OCTAPRENYL-METHYL-METHOXY-BENZOQ-OH-RXN
ASE10_04340	Unknown	FUMARYLACETOACETASE-RXN
ASE10_03870	Unknown	4.3.1.17-RXN;RXN-15125
ASE10_00370	Unknown	2-NITROPROPANE-DIOXYGENASE-RXN
ASE10_09380	Unknown	2.7.10.1-RXN
ASE10_07250	Unknown	RXN0-5100
ASE10_17880	Unknown	3.4.11.18-RXN;RXN-17873;RXN-17874;RXN-17875;RXN-17876;RXN-17877;RXN-17878
ASE10_10865	Unknown	RXN0-5223
ASE10_10645	Unknown	PANTOTHENATE-KIN-RXN
ASE10_13910	Unknown	3.4.13.9-RXN
ASE10_06340	Unknown	2.3.1.118-RXN
ASE10_16600	eno	2PGADEHYDRAT-RXN
ASE10_07305	Unknown	ASPARTATE-RACEMASE-RXN
ASE10_01145	glmM	5.4.2.10-RXN;RXN-16424;RXN0-7139
ASE10_12800	Unknown	1.8.1.4-RXN;2OXOGLUTARATEDEH-RXN;2OXOGLUTDECARB-RXN;RXN-7716;RXN-7719;RXN-8629;RXN0-1132;RXN0-1147
ASE10_16055	Unknown	ACYLCOASYN-RXN;LINOLENOYL-RXN;R223-RXN;RXN-12184;RXN-12702;RXN-12746;RXN-12978;RXN-13290;RXN-13614;RXN-16380;RXN-16389;RXN-16393;RXN-16401;RXN-16402;RXN-16415;RXN-16418;RXN-7904;RXN-9623;RXN-9644;RXN-9673;RXN0-7238;RXN0-7239;RXN0-7248;RXN66-469;RXN66-477;RXN66-480;RXN66-483;RXN66-484;TRANS-RXN0-623
ASE10_09965	Unknown	2-HALOACID-DEHALOGENASE-RXN;3.8.1.11-RXN;RXN-6263;RXN-6264
ASE10_19155	Unknown	PEPTIDYLPROLYL-ISOMERASE-RXN
ASE10_17150	Unknown	GLYOXIII-RXN
ASE10_07980	Unknown	2-ISOPROPYLMALATESYN-RXN;CITRAMALATE-LYASE-RXN;HOMOCITRATE-SYNTHASE-RXN
ASE10_05360	Unknown	RXN-9591
ASE10_07140	gltB	GLUTAMATESYN-RXN;GLUTAMIN-RXN;GLUTDEHYD-RXN
ASE10_14515	Unknown	THYMIDYLATESYN-RXN
ASE10_03605	Unknown	UDPNACETYLGLUCOSAMENOLPYRTRANS-RXN
ASE10_04820	hppA	INORGPYROPHOSPHAT-RXN
ASE10_14210	Unknown	RXN0-4261
ASE10_00055	acnA	ACONITATEDEHYDR-RXN;ACONITATEHYDR-RXN;RXN-14047
ASE10_01815	Unknown	RXN66-534
ASE10_05135	Unknown	3-ISOPROPYLMALISOM-RXN;R-2-METHYLMALATE-DEHYDRATASE-RXN;RXN-13163;RXN-7744;RXN-8991
ASE10_04420	Unknown	2-HALOACID-DEHALOGENASE-RXN;3.8.1.11-RXN;RXN-6263;RXN-6264
ASE10_16360	Unknown	GLYOXI-RXN
ASE10_05670	Unknown	2.7.13.3-RXN
ASE10_01200	Unknown	RXN0-1241
ASE10_04255	Unknown	ADENOSYLHOMOCYSTEINASE-RXN
ASE10_09700	Unknown	DIAMINOPIMEPIM-RXN
ASE10_18015	Unknown	PHOSMANMUT-RXN
ASE10_03570	Unknown	AIRS-RXN
ASE10_12230	Unknown	1.18.1.2-RXN
ASE10_15770	Unknown	ENOYL-ACP-REDUCT-NADH-RXN;RXN-10062;RXN-10657;RXN-10661;RXN-11478;RXN-11482;RXN-16620;RXN-16624;RXN-16628;RXN-16632;RXN-9558;RXN-9635;RXN-9657;RXN-9658;RXN-9659;RXN-9660;RXN-9661;RXN-9662;RXN-9663;RXN0-2145;RXN1G-395;RXN1G-488;RXN1G-526
ASE10_12715	Unknown	5.3.1.23-RXN
ASE10_15215	Unknown	PROTEIN-KINASE-RXN
ASE10_01870	Unknown	UDPHYDROXYMYRGLUCOSAMNACETYLTRANS-RXN
ASE10_18940	Unknown	RXN-14249;THREODEHYD-RXN
ASE10_02560	Unknown	RXN0-743
ASE10_09165	Unknown	LAUROYLACYLTRAN-RXN
ASE10_01195	Unknown	CHORISMATE-SYNTHASE-RXN
ASE10_12160	Unknown	2.1.1.79-RXN;RXN-7421;RXN1G-2544;RXN1G-3641
ASE10_10725	Unknown	1.2.4.4-RXN;2.3.1.168-RXN;KETOISOCAPROATE-RXN;METHYLVALERATE-RXN;RXN-7790
ASE10_09400	Unknown	3.5.1.80-RXN;NAG6PDEACET-RXN
ASE10_01935	Unknown	3.1.11.6-RXN
ASE10_14125	Unknown	R345-RXN
ASE10_02790	Unknown	CITRYLY-RXN;RXN-7929
ASE10_08060	Unknown	GLUTAMIN-RXN;GMP-SYN-GLUT-RXN;GMP-SYN-NH3-RXN
ASE10_13125	Unknown	RXN-10837;RXN-9382
ASE10_02545	Unknown	SUPEROX-DISMUT-RXN
ASE10_03790	Unknown	PMPOXI-RXN;PNPOXI-RXN
ASE10_15960	Unknown	POLYPHOSPHATE-KINASE-RXN
ASE10_15775	Unknown	PEPTIDYLPROLYL-ISOMERASE-RXN
ASE10_17695	Unknown	PEPTIDYLPROLYL-ISOMERASE-RXN
ASE10_14070	Unknown	GLYOXI-RXN
ASE10_16770	Unknown	ALKAPHOSPHA-RXN;RXN-5822;RXN-8748
ASE10_00405	Unknown	DNA-LIGASE-NAD+-RXN;RXN-17918;RXN-17919;RXN-17920
ASE10_15160	Unknown	R465-RXN
ASE10_00345	Unknown	3.1.11.2-RXN
ASE10_07580	Unknown	PHENOL-2-MONOOXYGENASE-RXN;RXN-10125;RXN-10127;RXN-10128;RXN-10129
ASE10_06925	Unknown	CYTOCHROME-C-OXIDASE-RXN;RXN-15830
ASE10_06865	Unknown	RXN0-5021
ASE10_15940	Unknown	PRODISULFREDUCT-RXN;RXN0-7271
ASE10_04445	Unknown	ADPREDUCT-RXN;CDPREDUCT-RXN;GDPREDUCT-RXN;RIBONUCLEOSIDE-DIP-REDUCTI-RXN;RIBONUCLEOSIDE-DIP-REDUCTII-RXN;RXN0-722;RXN0-747;RXN0-748;UDPREDUCT-RXN
ASE10_14265	Unknown	RXN-12093
ASE10_12360	Unknown	RXN-14971;RXN-15378;SUCCINATE-DEHYDROGENASE-UBIQUINONE-RXN
ASE10_10230	Unknown	RXN0-5268
ASE10_11515	Unknown	UDPACYLGLCNACDEACETYL-RXN
ASE10_15150	Unknown	GPH-RXN
ASE10_16615	pyrG	CTPSYN-RXN;GLUTAMIN-RXN;RXN-14325
ASE10_10290	Unknown	3.2.2.21-RXN
ASE10_07515	gyrB	5.99.1.3-RXN
ASE10_09795	Unknown	RXN-9235
ASE10_17925	Unknown	RXN-12002
ASE10_06540	Unknown	GLYOXIII-RXN
ASE10_06205	Unknown	1.8.4.12-RXN
ASE10_17305	Unknown	HISTAMINOTRANS-RXN
ASE10_13340	Unknown	3.1.13.3-RXN
ASE10_01450	Unknown	RXN0-5468
ASE10_14475	Unknown	ASPARAGHYD-RXN
ASE10_09500	Unknown	GSHTRAN-RXN;GST-RXN;RXN-11663;RXN-13673;RXN-15680;RXN-18405;RXN-18407;RXNQT-4363
ASE10_12060	Unknown	GLYOXIII-RXN
ASE10_05130	Unknown	2-ISOPROPYLMALATESYN-RXN
ASE10_07795	Unknown	AMINOACYLASE-RXN;RXN-13684
ASE10_17280	Unknown	HISTCYCLOHYD-RXN;HISTPRATPHYD-RXN
ASE10_15585	fabG	3-OXOACYL-ACP-REDUCT-RXN;RXN-10060;RXN-10655;RXN-10659;RXN-11476;RXN-11480;RXN-13008;RXN-16616;RXN-16622;RXN-16626;RXN-16630;RXN-9514;RXN-9518;RXN-9524;RXN-9528;RXN-9532;RXN-9536;RXN-9540;RXN-9552;RXN-9556;RXN-9633;RXN0-2142;RXN1G-157;RXN1G-349;RXN1G-469;RXN1G-508
ASE10_12935	Unknown	ACYLCOADEHYDROG-RXN;RXN-17775;RXN-17779;RXN-17783;RXN-17784;RXN-17788;RXN-17792;RXN-17796
ASE10_02735	Unknown	DTDPDEHYDRHAMEPIM-RXN
ASE10_12355	Unknown	R601-RXN;RXN-14963
ASE10_16510	Unknown	RXN0-6274
ASE10_08620	Unknown	RXN-17155
ASE10_05140	Unknown	3-ISOPROPYLMALISOM-RXN;R-2-METHYLMALATE-DEHYDRATASE-RXN;RXN-13163;RXN-7744;RXN-8991
ASE10_14140	Unknown	3.1.3.46-RXN
ASE10_15505	Unknown	3.1.26.3-RXN
ASE10_19250	Unknown	QOR-RXN
ASE10_12840	aspA	ASPARTASE-RXN
ASE10_18405	Unknown	SUPEROX-DISMUT-RXN
ASE10_16150	Unknown	RXN-8351
ASE10_17315	Unknown	ATPPHOSPHORIBOSYLTRANS-RXN
ASE10_14015	Unknown	GTPPYPHOSKIN-RXN
ASE10_12965	sbcB	3.1.11.1-RXN
ASE10_01190	Unknown	GLYCERATE-DEHYDROGENASE-RXN;HYDROXYPYRUVATE-REDUCTASE-RXN
ASE10_15575	Unknown	2.3.1.179-RXN;2.3.1.41-RXN;3-OXOACYL-ACP-SYNTH-BASE-RXN;3-OXOACYL-ACP-SYNTH-RXN;RXN-10654;RXN-10658;RXN-11474;RXN-11479;RXN-16615;RXN-16621;RXN-16625;RXN-16629;RXN-8391;RXN-9516;RXN-9523;RXN-9527;RXN-9531;RXN-9535;RXN-9539;RXN0-2141;RXN1G-460;RXN3O-1803
ASE10_12330	Unknown	GSHTRAN-RXN;GST-RXN;RXN-11663;RXN-13673;RXN-15680;RXN-18405;RXN-18407;RXNQT-4363
ASE10_14760	Unknown	PYRNUTRANSHYDROGEN-RXN;TRANS-RXN0-277
ASE10_06845	Unknown	H2NEOPTERINALDOL-RXN;RXN-10857
ASE10_06970	Unknown	3PGAREARR-RXN
ASE10_12490	Unknown	1.14.19.1-RXN;RXN-10664
ASE10_12520	Unknown	RXN-982
ASE10_08985	Unknown	TRANSALDOL-RXN
ASE10_08335	Unknown	ATPASE-RXN
ASE10_03655	Unknown	PROTEIN-KINASE-RXN
ASE10_00330	Unknown	1.2.99.7-RXN
ASE10_15560	Unknown	ADCLY-RXN
ASE10_12785	Unknown	NQOR-RXN
ASE10_10640	Unknown	6.3.4.10-RXN;6.3.4.11-RXN;6.3.4.9-RXN;BIOTINLIG-RXN
ASE10_10845	Unknown	SAICARSYN-RXN
ASE10_02555	Unknown	AIRCARBOXY-RXN
ASE10_05110	Unknown	ACETOLACTSYN-RXN;ACETOOHBUTSYN-RXN
ASE10_03275	Unknown	RXN-8992
ASE10_15270	purU	FORMYLTHFDEFORMYL-RXN
ASE10_14130	Unknown	2.7.1.156-RXN;COBINAMIDEKIN-RXN;RXN-14063
ASE10_10935	trpC	IGPSYN-RXN
ASE10_01440	Unknown	DIHYDRODIPICSYN-RXN
ASE10_03500	Unknown	RXN-12720;SULFATE-ADENYLYLTRANS-RXN
ASE10_17290	Unknown	PRIBFAICARPISOM-RXN
ASE10_11490	murC	UDP-NACMUR-ALA-LIG-RXN
ASE10_12150	Unknown	RXN-11843
ASE10_14940	Unknown	PRPPSYN-RXN
ASE10_17970	Unknown	TYROSINE--TRNA-LIGASE-RXN
ASE10_03915	Unknown	HOMOSERDEHYDROG-RXN
ASE10_15125	Unknown	DIHYDROOROT-RXN
ASE10_15340	Unknown	UDPNACETYLMURAMATEDEHYDROG-RXN
ASE10_10990	Unknown	MALEYLACETOACETATE-ISOMERASE-RXN
ASE10_18905	Unknown	DIHYDROFOLATESYNTH-RXN;FOLYLPOLYGLUTAMATESYNTH-RXN;FORMYLTHFGLUSYNTH-RXN;RXN-6341;RXN0-2921
ASE10_12970	Unknown	KYNURENINE-3-MONOOXYGENASE-RXN
ASE10_11535	Unknown	DEPHOSPHOCOAKIN-RXN
ASE10_16750	Unknown	RXN-11396
ASE10_14950	Unknown	AMINOCYL-TRNA-HYDROLASE-RXN;RXN-16637
ASE10_03900	Unknown	3.2.1.14-RXN;RXN-12309
ASE10_13555	Unknown	QUERCETIN-23-DIOXYGENASE-RXN
ASE10_01420	Unknown	POLYNUCLEOTIDE-ADENYLYLTRANSFERASE-RXN
ASE10_05975	Unknown	ISOCHORMAT-RXN
ASE10_16810	Unknown	PEPTIDYLPROLYL-ISOMERASE-RXN
ASE10_17235	Unknown	4-HYDROXYPROLINE-EPIMERASE-RXN
ASE10_09200	Unknown	FRUCTOKINASE-RXN
ASE10_17225	Unknown	25-DIOXOVALERATE-DEHYDROGENASE-RXN
ASE10_08660	fabG	3-OXOACYL-ACP-REDUCT-RXN;RXN-10060;RXN-10655;RXN-10659;RXN-11476;RXN-11480;RXN-13008;RXN-16616;RXN-16622;RXN-16626;RXN-16630;RXN-9514;RXN-9518;RXN-9524;RXN-9528;RXN-9532;RXN-9536;RXN-9540;RXN-9552;RXN-9556;RXN-9633;RXN0-2142;RXN1G-157;RXN1G-349;RXN1G-469;RXN1G-508
ASE10_09875	Unknown	RXN0-5131
ASE10_07965	Unknown	RXN-11475
ASE10_12600	Unknown	PSERTRANSAM-RXN;PSERTRANSAMPYR-RXN
ASE10_16875	Unknown	CHLORAMPHENICOL-O-ACETYLTRANSFERASE-RXN
ASE10_10675	Unknown	ARGINASE-RXN;RXN-34
ASE10_08410	Unknown	3.1.11.2-RXN
ASE10_13140	Unknown	AGMATINE-DEIMINASE-RXN
ASE10_15190	Unknown	3-OXOACYL-ACP-REDUCT-RXN;RXN-12560;RXN-13279;RXN-5901
ASE10_01910	Unknown	RXN0-5055
ASE10_00490	Unknown	RXN0-4261
ASE10_18780	Unknown	UROCANATE-HYDRATASE-RXN
ASE10_15455	Unknown	3.2.1.52-RXN;RXN-12625;RXN-12626;RXN-18082;RXN0-5226
ASE10_12975	Unknown	3-HYDROXY-KYNURENINASE-RXN;KYNURENINASE-RXN
ASE10_01830	Unknown	2.7.13.3-RXN
ASE10_15590	Unknown	MALONYL-COA-ACP-TRANSACYL-RXN
ASE10_18480	Unknown	GLYOXI-RXN
ASE10_11955	Unknown	THRESYN-RXN
ASE10_15935	Unknown	R4-RXN
ASE10_02315	Unknown	RXN0-2661
ASE10_10905	trpD	PRTRANS-RXN
ASE10_19110	Unknown	DNA-DIRECTED-RNA-POLYMERASE-RXN
ASE10_09325	Unknown	3.4.21.19-RXN
ASE10_12995	Unknown	1.13.11.6-RXN
ASE10_03435	Unknown	BENZENE-12-DIOXYGENASE-RXN
ASE10_02750	Unknown	RXN0-1382
ASE10_08555	Unknown	PORPHOBILSYNTH-RXN
ASE10_17950	Unknown	CDPDIGLYSYN-RXN;RXN0-5515
ASE10_15750	Unknown	3.1.26.4-RXN
ASE10_03540	Unknown	ACSERLY-RXN;RXN-12726
ASE10_10715	Unknown	GLYOXIII-RXN
ASE10_02395	Unknown	DXS-RXN
ASE10_04660	Unknown	NAD-SYNTH-GLN-RXN;NAD-SYNTH-NH3-RXN
ASE10_08885	Unknown	RXN-8529
ASE10_12440	Unknown	PHOSPHAGLYPSYN-RXN
ASE10_13865	Unknown	RIB5PISOM-RXN
ASE10_16610	Unknown	KDO-8PSYNTH-RXN
ASE10_01525	Unknown	ALANINE--TRNA-LIGASE-RXN
ASE10_19200	prpE	PROPIONATE--COA-LIGASE-RXN
ASE10_04050	fadE	ACYLCOADEHYDROG-RXN;RXN-17775;RXN-17779;RXN-17783;RXN-17784;RXN-17788;RXN-17792;RXN-17796
ASE10_05175	Unknown	KDOTRANS-RXN
ASE10_13995	rph	RXN0-6481;RXN0-6482;TRNA-NUCLEOTIDYLTRANSFERASE-RXN
ASE10_13900	Unknown	3.4.11.1-RXN
ASE10_15550	Unknown	DNA-DIRECTED-DNA-POLYMERASE-RXN
ASE10_07800	Unknown	RXN1A0-6303
ASE10_12050	Unknown	GSHTRAN-RXN;GST-RXN;RXN-11663;RXN-13673;RXN-15680;RXN-18405;RXN-18407;RXNQT-4363
ASE10_17835	Unknown	5.99.1.2-RXN
ASE10_15200	Unknown	3-OXOACYL-ACP-REDUCT-RXN;RXN-12560;RXN-13279;RXN-5901
ASE10_00340	Unknown	RXN-7682;RXN0-901
ASE10_14865	Unknown	ACYLPHOSPHATASE-RXN
ASE10_12350	Unknown	RXN-14971;RXN-15378;SUCCINATE-DEHYDROGENASE-UBIQUINONE-RXN
ASE10_14645	Unknown	ADENPRIBOSYLTRAN-RXN;RXN-14270
ASE10_14655	Unknown	RXN-8668
ASE10_19170	Unknown	MALATE-DEH-RXN
ASE10_02280	Unknown	GAMMA-GLUTAMYLTRANSFERASE-RXN;RXN-18092;RXN-6601;RXN-9157;RXN66-336
ASE10_15155	Unknown	2-OCTAPRENYL-6-OHPHENOL-METHY-RXN;DHHB-METHYLTRANSFER-RXN
ASE10_17595	ispH	ISPH2-RXN;RXN0-884
ASE10_12120	Unknown	GSHTRAN-RXN;GST-RXN;RXN-11663;RXN-13673;RXN-15680;RXN-18405;RXN-18407;RXNQT-4363
ASE10_14425	Unknown	325-BISPHOSPHATE-NUCLEOTIDASE-RXN
ASE10_07100	Unknown	RXN0-4261
ASE10_08100	Unknown	PROTOHEMEFERROCHELAT-RXN
ASE10_16815	Unknown	DIAMACTRANS-RXN;RXN-0;RXN-12667;RXN-9939;RXN0-7165;SPERMACTRAN-RXN
ASE10_10870	Unknown	ANTHRANSYN-RXN
ASE10_02225	tgt	QUEUOSINE-TRNA-RIBOSYLTRANSFERASE-RXN;RXN0-1321
ASE10_07295	Unknown	ISOCHORMAT-RXN
ASE10_04775	Unknown	RXN0-2361;RXN0-7022
ASE10_03330	Unknown	1.11.1.15-RXN;RXN0-5468
ASE10_11485	Unknown	NACGLCTRANS-RXN;RXN-8976
ASE10_03805	aroK	SHIKIMATE-KINASE-RXN
ASE10_16865	Unknown	RXN1A0-6303
ASE10_11175	Unknown	PROLINE--TRNA-LIGASE-RXN
ASE10_10740	Unknown	1.2.1.25-RXN;1.2.4.4-RXN;2.3.1.168-RXN;2KETO-3METHYLVALERATE-RXN;2KETO-4METHYL-PENTANOATE-DEHYDROG-RXN;ISOVALERYLCOA-DHLIPOAMIDE-RXN;KETOISOCAPROATE-RXN;MBCOA-DHLIPOAMIDE-RXN;METHYLVALERATE-RXN;RXN-7719
ASE10_18825	Unknown	IMIDAZOLONEPROPIONASE-RXN
ASE10_00890	Unknown	5.3.3.10-RXN
ASE10_05385	purH	AICARTRANSFORM-RXN;IMPCYCLOHYDROLASE-RXN
ASE10_04785	Unknown	6PFRUCTPHOS-RXN
ASE10_03755	Unknown	PYRROLINECARBREDUCT-RXN;RXN66-546
ASE10_11115	Unknown	RXNI-2
ASE10_06830	Unknown	1.1.1.253-RXN
ASE10_00375	Unknown	RXN0-4261
ASE10_01325	dcd	DCTP-DEAM-RXN;RXN-14118
ASE10_13260	Unknown	RXN0-5462
ASE10_11120	Unknown	RXNI-2
ASE10_14145	Unknown	COBALAMIN5PSYN-RXN;COBALAMINSYN-RXN;RXN-19296;RXN-19297;RXN-19302;RXN-19303;RXN-19304;RXN-19305;RXN-19307;RXN-19308
ASE10_14915	Unknown	GLUTRNAREDUCT-RXN
ASE10_02595	Unknown	1.10.2.2-RXN
ASE10_04220	Unknown	RXN0-1281
ASE10_16650	Unknown	5.99.1.2-RXN
ASE10_15595	Unknown	2.3.1.180-RXN
ASE10_13295	Unknown	DCTP-DEAM-RXN;RXN-14118
ASE10_03425	Unknown	RXN0-279
ASE10_01000	Unknown	2.7.7.8-RXN
ASE10_06810	cca	CYCPHOSDIESTER-RXN;RXN-14064;RXN-14091;RXN-14112;RXN-14113;TRNA-CYTIDYLYLTRANSFERASE-RXN
ASE10_16290	Unknown	2.7.13.3-RXN
ASE10_18510	glnA	GLUTAMINESYN-RXN
ASE10_16370	Unknown	GCVP-RXN
ASE10_15075	Unknown	ACETYLGLUTKIN-RXN;RXN-15005
ASE10_12770	Unknown	1.11.1.15-RXN;RXN0-5468
ASE10_12890	Unknown	UGD-RXN
ASE10_08160	Unknown	RXN-1381;RXN-15045
ASE10_11015	Unknown	CYSTATHIONINE-BETA-SYNTHASE-RXN;RXN-19038;RXN66-534;RXN66-562
ASE10_12345	Unknown	RXN-14971;RXN-15378;SUCCINATE-DEHYDROGENASE-UBIQUINONE-RXN
ASE10_13000	Unknown	3.5.99.5-RXN;RXN-8840
ASE10_15235	Unknown	GLYOXIII-RXN
ASE10_12605	Unknown	PREPHENATEDEHYDRAT-RXN
ASE10_03395	Unknown	3-HYDROXYBUTYRATE-DEHYDROGENASE-RXN
ASE10_05105	Unknown	ACETOLACTREDUCTOISOM-RXN;ACETOOHBUTREDUCTOISOM-RXN
ASE10_18600	Unknown	ATPASE-RXN
ASE10_09310	Unknown	ALANINE-DEHYDROGENASE-RXN
ASE10_10330	Unknown	GSHTRAN-RXN;GST-RXN;RXN-11663;RXN-13673;RXN-15680;RXN-18405;RXN-18407;RXNQT-4363
ASE10_05635	Unknown	L-GLN-FRUCT-6-P-AMINOTRANS-RXN
ASE10_13190	Unknown	GLUC1PURIDYLTRANS-RXN
ASE10_10985	Unknown	2-OXOPENT-4-ENOATE-HYDRATASE-RXN;RXN-10381
ASE10_03215	Unknown	GLYOXIII-RXN
ASE10_16585	Unknown	2.7.7.60-RXN
ASE10_05745	Unknown	1.8.1.4-RXN;2OXOGLUTARATEDEH-RXN;2OXOGLUTDECARB-RXN;RXN-7716;RXN-7719;RXN-8629;RXN0-1132;RXN0-1147
ASE10_17090	Unknown	METHYLCROTONYL-COA-CARBOXYLASE-RXN
ASE10_01705	Unknown	CATAL-RXN;RXN-8667
ASE10_04610	gltA	CITSYN-RXN
ASE10_07315	Unknown	RXN-13907;RXN-14206;RXN66-569
ASE10_16415	Unknown	GLYOXIII-RXN
ASE10_18605	Unknown	UDP-NACMUR-ALA-LIG-RXN
ASE10_14220	ruvB	RXN0-4261
ASE10_15450	Unknown	GUANPRIBOSYLTRAN-RXN;HYPOXANPRIBOSYLTRAN-RXN
ASE10_17840	Unknown	THIOPURINE-S-METHYLTRANSFERASE-RXN
ASE10_12430	Unknown	PROTEIN-TYROSINE-PHOSPHATASE-RXN
ASE10_18140	Unknown	ISOCIT-CLEAV-RXN
ASE10_09130	Unknown	2.4.1.109-RXN
ASE10_01775	emrB	3.6.3.44-RXN;TRANS-RXN-311
ASE10_11400	Unknown	LUMAZINESYN-RXN
ASE10_06770	Unknown	5.3.1.17-RXN
ASE10_04980	Unknown	2-OCTAPRENYL-6-OHPHENOL-METHY-RXN;DHHB-METHYLTRANSFER-RXN
ASE10_01410	panB	3-CH3-2-OXOBUTANOATE-OH-CH3-XFER-RXN;RXN-15635
ASE10_15745	Unknown	RXN0-4961
ASE10_04505	Unknown	ACETYL-COA-HYDROLASE-RXN
ASE10_10350	Unknown	RXN-12123;RXN-12125;RXN-12126;RXN-12127;RXN-12128;RXN-16975;STEROL-GLUCOSYLTRANSFERASE-RXN
ASE10_17955	Unknown	DXPREDISOM-RXN
ASE10_09895	Unknown	RXN-14950;RXN-14957;RXN-14959;RXN0-949
ASE10_03685	Unknown	2.7.3.9-RXN;RXN-17354;RXN-17355
ASE10_01895	Unknown	3.1.26.4-RXN
ASE10_08315	Unknown	ACETATE--COA-LIGASE-RXN;RXN-18446;RXN-18447;RXN-18448
ASE10_18885	Unknown	PRPPAMIDOTRANS-RXN
ASE10_16015	Unknown	3.5.5.1-RXN;RXN-1404;RXN-17607;RXN-18229
ASE10_07020	Unknown	4OH2OXOGLUTARALDOL-RXN;KDPGALDOL-RXN
ASE10_09120	Unknown	METHIONYL-TRNA-FORMYLTRANSFERASE-RXN
ASE10_01085	Unknown	1.6.99.5-RXN;NADH-DEHYDROGENASE-QUINONE-RXN
ASE10_15055	Unknown	GLUTKIN-RXN
ASE10_01160	Unknown	RXN0-2382;TRYPSYN-RXN
ASE10_04780	Unknown	ADENYL-KIN-RXN
ASE10_04315	Unknown	THIAZOLSYN2-RXN
ASE10_16030	Unknown	2.7.13.3-RXN
