#
#  gca_001424945_1_root1203cyc 1.0 Reactions link table generated on Mon Dec 3, 2018
#
RXN-17473	
RXN-16626	EC-1.1.1.100
GLUCONOLACT-RXN	EC-3.1.1.17
RXN-9532	EC-2.3.1.86	EC-2.3.1.85	EC-1.1.1.100
RXN-8783	EC-3.1.1.17
RXN1G-508	EC-1.1.1.100
RXN-9514	EC-2.3.1.86	EC-2.3.1.85	EC-1.1.1.100
RXN0-5364	EC-1.1.3
RXN-10060	EC-1.1.1.100
RXN-12513	EC-1.2.1
TRANS-RXN0-277	EC-1.6.1.5
RXN-9518	EC-2.3.1.86	EC-2.3.1.85	EC-1.1.1.100
RXN-13036	EC-2.3.1.204
3.11.1.2-RXN	EC-3.11.1.2
RXN-8529	EC-5.3.2.6
RXN1G-157	EC-1.1.1.100
RXN-16622	EC-1.1.1.100
2.6.1.37-RXN	EC-2.6.1.37
RXN-10659	EC-1.1.1.100
RXN-9633	EC-2.3.1.86	EC-1.1.1.100
THIOSULFATE-SULFURTRANSFERASE-RXN	EC-2.8.1.1
RXN-9556	EC-1.1.1.100
RXN0-6385	EC-2.8.1
RXN-11480	EC-1.1.1.100
RXN-19040	EC-2.8.1.1
RXN-9540	EC-2.3.1.86	EC-2.3.1.85	EC-1.1.1.100
RXN-10655	EC-1.1.1.100
RXN0-6359	EC-2.8.1.1
RXN-13008	EC-2.3.1.86	EC-2.3.1.85	EC-1.1.1.100
RXN1G-349	EC-1.1.1.100
RXN1G-469	EC-1.1.1.100
RXN-9552	EC-1.1.1.100
RXN-11476	EC-1.1.1.100
RXN0-2142	EC-1.1.1.100
RXN-16630	EC-1.1.1.100
RXN0-901	EC-1.17.1.4
RXN-9536	EC-2.3.1.86	EC-2.3.1.85	EC-1.1.1.100
RXN-7682	EC-1.17.1.4
PYRROLINECARBDEHYDROG-RXN	
SPONTPRO-RXN	
RXN-14116	EC-1.2.1.88
L-ASPARTATE-OXID-RXN	EC-1.4.3.16
RXN-14903	EC-1.5.5.2
RXN-9772	EC-1.5.99
RXN0-7008	EC-1.5.5.2
DIHYDROFOLATEREDUCT-RXN	EC-1.5.1.3
QUINOLINATE-SYNTHA-RXN	EC-2.5.1.72
RXN0-7005	
RXN-19329	EC-1.5.1.3
DLACTDEHYDROGNAD-RXN	EC-1.1.1.28
RXN-18357	EC-1.5.1.3
3-CH3-2-OXOBUTANOATE-OH-CH3-XFER-RXN	EC-2.1.2.11
ORNITHINE-GLU-AMINOTRANSFERASE-RXN	EC-2.6.1.13
RXN-15635	EC-2.1.2.11
ORNITHINE--OXO-ACID-AMINOTRANSFERASE-RXN	EC-2.6.1.13
5-AMINOLEVULINIC-ACID-SYNTHASE-RXN	EC-2.3.1.37
PANTOATE-BETA-ALANINE-LIG-RXN	EC-6.3.2.1
RXN-8001	EC-1.1.1.23
TAGAALDOL-RXN	EC-4.1.2.40
HISTOLDEHYD-RXN	
HISTALDEHYD-RXN	
R502-RXN	EC-1.5.3
GUANYLCYC-RXN	EC-4.6.1.2
UDP-GLUCURONATE-5-EPIMERASE-RXN	EC-5.1.3.12
MALSYN-RXN	EC-2.3.3.9
TRANS-RXN-298	
PRIBFAICARPISOM-RXN	EC-5.3.1.16
RXN0-5294	
PANTOTHENATE-KIN-RXN	EC-2.7.1.33
3-OCTAPRENYL-4-OHBENZOATE-DECARBOX-RXN	EC-4.1.1.98
ADENOSYLHOMOCYSTEINASE-RXN	EC-3.3.1.1
TRYPSYN-RXN	EC-4.2.1.20
RXN0-2381	EC-4.1.2.8
RXN0-2382	EC-4.2.1.122
RIBITOL-2-DEHYDROGENASE-RXN	EC-1.1.1.56
1.5.1.9-RXN	EC-1.5.1.9
PROPIONATE--COA-LIGASE-RXN	EC-6.2.1.17
1.1.1.274-RXN	EC-1.1.1.274
RXN-18446	EC-6.2.1.1
GLYOXII-RXN	EC-3.1.2.6
MYO-INOSITOL-1-PHOSPHATE-SYNTHASE-RXN	EC-5.5.1.4
RXN-7919	EC-3.1.2.6
RXN-18447	EC-6.2.1.1
D-RIBULOKIN-RXN	EC-2.7.1.47
RXN-18448	EC-6.2.1.1
DIAMINOPIMDECARB-RXN	EC-4.1.1.20
PSEUDOURIDINE-KINASE-RXN	EC-2.7.1.83
ACETATE--COA-LIGASE-RXN	EC-6.2.1.1
AICARTRANSFORM-RXN	EC-2.1.2.3
IMPCYCLOHYDROLASE-RXN	EC-3.5.4.10
RXN-17776	EC-4.2.1.17
RXN-11244	EC-4.2.1.17
RXN-13616	EC-4.2.1.17
N-ACETYLTRANSFER-RXN	EC-2.3.1.1
GLUTAMATE-N-ACETYLTRANSFERASE-RXN	EC-2.3.1.35
RXN-14273	EC-4.2.1.17
RXN0-6948	EC-2.3.1.1
NUCLEOTIDE-PYROPHOSPHATASE-RXN	EC-3.6.1.9
RXN-17780	EC-4.2.1.17
D-AMINO-ACID-OXIDASE-RXN	EC-1.4.3.3
RXN-17475	EC-4.2.1.17
RXN-8163	EC-1.4.3.3
3.5.5.1-RXN	EC-3.5.5.1
RXN-17114	EC-4.2.1.17
RXN-18229	EC-3.5.5.1
ALLANTOINASE-RXN	EC-3.5.2.5
RXN-16135	EC-4.2.1.17
RXN-1404	EC-3.5.5.1
RXN-6201	EC-4.1.1.97
RXN-17607	EC-3.5.5.1
RXN-12567	EC-4.2.1.17
3.5.2.17-RXN	EC-3.5.2.17
RXN-10704	EC-4.2.1.17
RXN4FS-2	EC-2.1.1.71
GUANINE-DEAMINASE-RXN	EC-3.5.4.3
2.1.1.71-RXN	EC-2.1.1.71
RXN-15261	EC-3.5.4.3
RXN0-7167	EC-2.1.1
METHYLACYLYLCOA-HYDROXY-RXN	EC-4.2.1.17
ASPARTATEKIN-RXN	EC-2.7.2.4
R342-RXN	EC-6.6.1.2
RXN-17793	EC-4.2.1.17
RXN-9884	EC-1.13.11
3-DEHYDROQUINATE-SYNTHASE-RXN	EC-4.2.3.4
TIGLYLCOA-HYDROXY-RXN	EC-4.2.1.17
RXN-9886	EC-5.5.1.7
RXN0-5100	EC-5.99.1
3-HYDROXYBUTYRATE-DEHYDROGENASE-RXN	EC-1.1.1.30
RXN-17092	
RXN-17785	EC-4.2.1.17
RXN0-5055	EC-2.1.3.15
ENOYL-COA-HYDRAT-RXN	EC-4.2.1.17
DEOXYGLUCONOKIN-RXN	EC-2.7.1.178	EC-2.7.1.45
RXN-14272	EC-4.2.1.17
3.1.3.16-RXN	EC-3.1.3.16
RXN-9885	EC-1.3.1.32
RXN0-5393	EC-4.2.1.17
RXN-10705	EC-4.2.1.17
THYKI-RXN	EC-2.7.1.145	EC-2.7.1.21
RXN-11135	EC-3.6.4.12
DURIDKI-RXN	EC-2.7.1.145	EC-2.7.1.21
RXN-2425	EC-4.2.1.17
GPPSYN-RXN	EC-2.5.1.1
FORMATETHFLIG-RXN	EC-6.3.4.3
RXN-14266	EC-4.2.1.17
2-ISOPROPYLMALATESYN-RXN	EC-2.3.3.13
RXN-2043	EC-3.2.1.4
RXN0-7010	EC-1.8.5.7
RXN-17797	EC-4.2.1.17
POLYNUCLEOTIDE-ADENYLYLTRANSFERASE-RXN	EC-2.7.7.19
RXN-10697	EC-4.2.1.17
RXN-745	
XYLULOKIN-RXN	EC-2.7.1.17
RXN-17789	EC-4.2.1.17
RXN-10053	EC-2.2.1.11
RXN-16558	EC-4.2.1.17
5-OXOPROLINASE-ATP-HYDROLYSING-RXN	EC-3.5.2.9
GLUTSEMIALDEHYDROG-RXN	EC-1.2.1.41
DIMETHYLARGININASE-RXN	EC-3.5.3.18
PYRUVATE-CARBOXYLASE-RXN	EC-6.4.1.1
RXN0-882	EC-1.17.7.1
RXN0-300	EC-1.1.1
RXN-13163	EC-4.2.1.33
SUCCINATE-SEMIALDEHYDE-DEHYDROGENASE-RXN	EC-1.2.1.24
RXN-8991	
3-ISOPROPYLMALISOM-RXN	
CHORISMATEMUT-RXN	EC-5.4.99.5
3.2.1.55-RXN	EC-3.2.1.55
RXN-14047	EC-4.2.1.3
ACONITATEDEHYDR-RXN	
ACONITATEHYDR-RXN	
ARGSUCCINSYN-RXN	EC-6.3.4.5
RXN-10	EC-6.3.4.5
MHPELY-RXN	EC-4.1.3.39
GLYCEROL-KIN-RXN	EC-2.7.1.30
ACETYLORNDEACET-RXN	EC-3.5.1.16
GMP-SYN-GLUT-RXN	EC-6.3.5.2
2.7.1.156-RXN	EC-2.7.1.156
RXN-7933	EC-3.5.1.16
GMP-SYN-NH3-RXN	
COBINAMIDEKIN-RXN	EC-2.7.1.156
RXN-9870	EC-1.13.11
RXN-14063	EC-2.7.1.156
MALATE-DEH-RXN	EC-1.1.1.37
SUCCCOASYN-RXN	EC-6.2.1.5
RXN-9892	EC-5.5.1.7
RXN-19339	EC-2.5.1.17
2OXOGLUTDECARB-RXN	EC-1.2.4.2
RXN-19344	
R343-RXN	
GLUCOSE-1-DEHYDROGENASE-RXN	EC-1.1.1.47
R344-RXN	
4.2.1.93-RXN	EC-4.2.1.93
FORMIMINOGLUTAMATE-DEIMINASE-RXN	EC-3.5.3.13
RXN-19369	EC-2.5.1.17
RXN0-6480	EC-3.1.26.5
RXN-19364	
RXN-16765	
RXN-12753	
3.1.26.5-RXN	EC-3.1.26.5
IMIDAZOLONEPROPIONASE-RXN	EC-3.5.2.7
RXN-12754	
BTUR2-RXN	EC-2.5.1.17
PYRROLINECARBREDUCT-RXN	EC-1.5.1.2
RXN-19342	
5.3.1.23-RXN	EC-5.3.1.23
RXN-19338	
RXN-11194	EC-1.4.1.25
RXN-19343	
RXN66-546	EC-1.5.1.2
5-METHYLTHIORIBOSE-KINASE-RXN	EC-2.7.1.100
RXN0-7080	
RXN-11217	EC-3.5.2.2
METHELENE-THMPT-OXI-RXN	EC-1.5.98.2
RXN-19335	EC-2.5.1.17
RXN-19340	
DIHYDROPYRIMIDINASE-RXN	EC-3.5.2.2
RXN-19366	
RXN-11211	EC-3.5.2.2
FUMARYLACETOACETASE-RXN	EC-3.7.1.2
RXN-19368	EC-2.5.1.17
RXN-19349	
MANNONDEHYDRAT-RXN	EC-4.2.1.8
RXN-19334	
COBALADENOSYLTRANS-RXN	
RXN-19365	
R341-RXN	EC-6.3.5.9
PYRNUTRANSHYDROGEN-RXN	EC-1.6.1.2	EC-1.6.1.3	EC-1.6.1.1
RXN-8769	EC-6.3.5.11
RXN-14256	
QUINOPRIBOTRANS-RXN	EC-2.4.2.19
RXN-14257	
RXN-12130	EC-1.7.2.4
RXN-3641	EC-2.3.1.174
RXN-10700	EC-2.3.1.16
RXN-15815	
4.1.1.81-RXN	EC-4.1.1.81
RXN-13581	
RIBULPEPIM-RXN	EC-5.1.3.4
RXN-14799	EC-2.3.1.16
LAUROYLACYLTRAN-RXN	EC-2.3.1.241
1.2.1.2-RXN	EC-1.17.1.9
RXN-14788	EC-2.3.1.16
ISOCHORMAT-RXN	EC-3.3.2.1
HISTAMINOTRANS-RXN	EC-2.6.1.9
RXN-14394	EC-2.3.1.16
3.2.1.25-RXN	EC-3.2.1.25
RXN-22	EC-4.3.2.1
RXN-11246	EC-2.3.1.16
RXN0-5410	EC-1.1.1
ARGSUCCINLYA-RXN	EC-4.3.2.1
RXN-17778	EC-2.3.1.16
3.2.1.37-RXN	EC-3.2.1.37
3-HYDROXYBUTYRYL-COA-DEHYDROGENASE-RXN	EC-1.1.1.157
RXN-14793	EC-2.3.1.16
5.3.3.10-RXN	EC-5.3.3.10
SHIKIMATE-KINASE-RXN	EC-2.7.1.71
RXN-17791	EC-2.3.1.16
RXN-14774	EC-2.3.1.16
GLYC3PDEHYDROG-RXN	EC-1.1.5.3
RXN-2	EC-2.1.1.341
RXN-10699	EC-2.3.1.16
RXN0-5260	EC-1.1.5.3
COBALAMINSYN-RXN	EC-2.7.8.26
RXN0-5244	
RXN-15740	EC-1.1.5.3
RXN-14268	EC-2.3.1.16
RXN0-5254	
RXN-19304	EC-2.7.8.26
RXN0-5258-Yeast	EC-1.1.5.3
RXN-13617	EC-2.3.1.16
RXN0-5244-yeast	
RXN-19308	EC-2.7.8.26
RXN-14803	EC-2.3.1.16
RXN-19305	EC-2.7.8.26
RXN-15745	EC-1.1.5.3
RXN0-5257	
RXN-14274	EC-2.3.1.16
RXN-19297	EC-2.7.8.26
RXN-8631	EC-4.1.2.13
RXN-16137	EC-2.3.1.16
RXN-19302	EC-2.7.8.26
F16ALDOLASE-RXN	EC-4.1.2.13
RXN-17116	EC-2.3.1.16
RXN-19303	EC-2.7.8.26
5.3.1.17-RXN	EC-5.3.1.17
RXN-19318	EC-2.7.8.26
RXN-10701	EC-2.3.1.16
RXN-19307	EC-2.7.8.26
DIOHBUTANONEPSYN-RXN	EC-4.1.99.12
RXN-17782	EC-2.3.1.16
RXN-19296	EC-2.7.8.26
RXN-7563	EC-1.4.99.6
RXN-12565	EC-2.3.1.16
RXN-15849	
RXN-15850	
COBALAMIN5PSYN-RXN	EC-2.7.8.26
KETOACYLCOATHIOL-RXN	EC-2.3.1.16
RXN-17799	EC-2.3.1.16
RXN-19301	EC-2.4.2.21
RXN-12710	EC-2.3.1.16
DMBPPRIBOSYLTRANS-RXN	EC-2.4.2.21
RXN-19306	EC-2.4.2.21
RXN-17795	EC-2.3.1.16
RXN-14277	EC-2.3.1.16
RXN-19298	EC-2.4.2.21
RXN-17787	EC-2.3.1.16
RXN-19295	EC-2.4.2.21
RXN-19316	EC-2.4.2.21
3-OXOADIPATE-COA-TRANSFERASE-RXN	EC-2.8.3.6
RXN-19299	EC-2.4.2.21
RXN-10085	EC-2.8.3.6
NANK-RXN	EC-2.7.1.60
RXN-19300	EC-2.4.2.21
N-ACYLMANNOSAMINE-KINASE-RXN	EC-2.7.1.60
3-OXOADIPATE-ENOL-LACTONASE-RXN	EC-3.1.1.24
RXN-10083	EC-3.1.1.24
RXN-16457	
PROTOCATECHUATE-34-DIOXYGENASE-RXN	EC-1.13.11.3
RXN-9731	EC-1.13.11.3
5.5.1.2-RXN	EC-5.5.1.2
ASPARTATE-SEMIALDEHYDE-DEHYDROGENASE-RXN	EC-1.2.1.11
3.2.1.141-RXN	EC-3.2.1.141
RXN0-262	EC-2.7.7.77
RXN-16456	EC-2.7.7.77
RIBULOSE-BISPHOSPHATE-CARBOXYLASE-RXN	EC-4.1.1.39
5.4.99.15-RXN	EC-5.4.99.15
RXN-16427	EC-2.7.7.77
RXN-4301	EC-3.2.1.68
PMPOXI-RXN	EC-1.4.3.5
R125-RXN	EC-2.3.1.247
RXN-9952	EC-1.1.1.44
PNPOXI-RXN	EC-1.4.3.5
RXN-9732	
RXN0-5268	EC-1.10.3.10
RXN0-6973	EC-1.14.14.5
RXN-14452	
RXN-9733	EC-3.1.1.92
2.1.1.133-RXN	EC-2.1.1.133
RXN-13142	EC-5.1.99.6
RXN0-280	EC-1.14.14.5
2.1.1.132-RXN	EC-2.1.1.132
RXN-13418	EC-1.14.14.5
RXN-13824	
RXN-12752	EC-5.1.99.6
RXN-13826	
RXN-15341	EC-1.14.14.5
5.99.1.3-RXN	EC-5.99.1.3
RXN-8765	EC-1.3.1.106
CARBOXYMETHYLENEBUTENOLIDASE-RXN	EC-3.1.1.45
R321-RXN	EC-1.14.13.83
DIENELACHYDRO-RXN	EC-3.1.1.45
FUMHYDR-RXN	EC-4.2.1.2
R322-RXN	EC-2.1.1.152
RXN-9857	EC-3.1.1.45
GLUTAMINESYN-RXN	EC-6.3.1.2
RXN-9868	EC-3.1.1.45
ISOCITDEH-RXN	EC-1.1.1.42
RXN-9951	
RXN-8642	
DTDPGLUCOSEPP-RXN	EC-2.7.7.24
DTDPDEHYRHAMREDUCT-RXN	EC-1.1.1.133
RXN-9890	EC-3.1.1.45
GLUTAMIN-RXN	EC-3.5.1.38	EC-3.5.1.2
RXN-9887	EC-3.1.1.45
GCVP-RXN	EC-1.4.4.2
GCVT-RXN	EC-2.1.2.10
RXN0-947	EC-2.3.1.181
H2PTERIDINEPYROPHOSPHOKIN-RXN	EC-2.7.6.3
2-OXOPENT-4-ENOATE-HYDRATASE-RXN	EC-4.2.1.80
RXN-13037	EC-2.3.1.181
RXN-10381	EC-4.2.1.80
RXN-15733	EC-2.7.6.3
OXALODECARB-RXN	EC-1.1.1.40	EC-4.1.1.3	EC-1.1.1.38
MALIC-NADP-RXN	EC-1.1.1.40
RXN0-5306	EC-5.1.3.32
RXN-17133	EC-3.9.1.3
METHIONINE--TRNA-LIGASE-RXN	EC-6.1.1.10
RXN-17131	EC-3.9.1.3
RXN-16165	EC-6.1.1.10
RXN-17132	EC-3.9.1.3
OHMETPYRKIN-RXN	EC-2.7.1.49
DTMPKI-RXN	EC-2.7.4.12	EC-2.7.4.13	EC-2.7.4.9
RXN0-5398	EC-4.2.1.70
PYRIMSYN3-RXN	EC-2.7.4.7
ALANINE--TRNA-LIGASE-RXN	EC-6.1.1.7
L-GLN-FRUCT-6-P-AMINOTRANS-RXN	EC-2.6.1.16
2.3.1.157-RXN	EC-2.3.1.157
THIAZOLSYN3-RXN	EC-2.7.1.50
D-ALANINE-AMINOTRANSFERASE-RXN	EC-2.6.1.21
2.7.7.60-RXN	EC-2.7.7.60
RXN0-302	EC-4.6.1.12
1.8.1.4-RXN	EC-1.8.1.4
METHYLMALONYL-COA-MUT-RXN	EC-5.4.99.2
GLUTRACE-RXN	EC-5.1.1.3
RXN-8629	EC-1.8.1.4
ALKAPHOSPHA-RXN	EC-3.1.3.1
RXN0-1132	EC-1.8.1.4
RXN-5822	EC-3.1.3.2	EC-3.1.3.1
RXN-7719	EC-1.8.1.4
RXN-8748	EC-3.1.3.1
RXN-7716	EC-1.8.1.4
MYO-INOSITOL-1OR-4-MONOPHOSPHATASE-RXN	EC-3.1.3.25
RXN0-1134	EC-1.2.4.1
RXN-12583	
RXN-12508	
RXN-7253	EC-3.1.3.25
RXN0-5408	EC-3.1.3.25
2PGADEHYDRAT-RXN	EC-4.2.1.11
CITSYN-RXN	EC-2.3.3.16	EC-2.3.3.1
PRODISULFREDUCT-RXN	EC-1.8.4.2
PRODISULFREDUCT-A-RXN	
RXN0-7271	
PEPDEPHOS-RXN	EC-2.7.1.40
RXN-12002	EC-2.7.4.22	EC-2.7.4.14
RXN-14117	EC-2.7.1.40
FGAMSYN-RXN	EC-6.3.5.3
RXN-19560	EC-4.4.1.13
RXN-14207	EC-2.7.1.40
RXN-19559	
SAICARSYN-RXN	EC-6.3.2.6
RXN-14192	EC-2.7.1.40
RXN-15830	EC-1.9.3.1
RXN-19324	EC-3.1.3.73
CYTOCHROME-C-OXIDASE-RXN	EC-1.9.3.1
RXN-19546	
RXN-19547	EC-4.4.1.13
RXN-13519	
RXN-18093	
AICARSYN-RXN	EC-4.3.2.2
RXN-10016	
RXN-11209	EC-1.3.1.2
RXNQT-4321	EC-4.4.1.13
AMPSYN-RXN	EC-4.3.2.2
RXN-11210	EC-3.5.1.6
RXN-8505	EC-1.14.14.9
RXN-17883	
RXN-16475	
RXN-19583	EC-4.4.1.13
RXN-19584	
ALKANE-1-MONOOXYGENASE-RXN	EC-1.14.15.3
RXN-19319	EC-3.1.3.73
RXN-11109	EC-3.6.4.13
RXN-19558	EC-4.4.1.13
RXN-19557	
TYROSINE--TRNA-LIGASE-RXN	EC-6.1.1.1
RXN-14883	
RXN-7594	
RXN0-4621	EC-2.7.1.170
RXN-19586	EC-4.4.1.13
RXN-17882	
1.3.1.2-RXN	EC-1.3.1.2
RXN-8054	EC-4.4.1.13
RXN0-5305	
BETA-UREIDOPROPIONASE-RXN	EC-3.5.1.6
5-FORMYL-THF-CYCLO-LIGASE-RXN	EC-6.3.3.2
RXN-12588	EC-2.8.1.7
RXN-15881	EC-2.8.1.7
3.1.2.23-RXN	EC-3.1.2.23
RXN-15131	
CYSTATHIONINE-BETA-LYASE-RXN	EC-4.4.1.13
RXN-10017	
RXN-8243	
RXN-1961	EC-6.3.4.19
RXN-12587	
RXN-18232	
RXN-7592	
RXN-19320	EC-3.1.3.73
PGLYCDEHYDROG-RXN	EC-1.1.1.95
RXN-19550	EC-4.4.1.13
RXN-15346	
RXN-19548	
RXN-9787	EC-2.8.1.7
RXN-10851	
RXN0-308	
RXN-14382	
R309-RXN	EC-3.5.5.7
RXN-19326	EC-3.1.3.73
RXN-19544	EC-4.4.1.13
RXN-14385	EC-2.8.1.7
3.5.5.7-RXN	EC-3.5.5.7
RXN-19545	
RXN0-2023	EC-2.8.1.13
RXN-19596	EC-4.4.1.13
2.1.3.1-RXN	EC-2.1.3.1
RXNQT-4319	EC-4.4.1.13
S-FORMYLGLUTATHIONE-HYDROLASE-RXN	EC-3.1.2.12
RXN-2962	EC-1.1.1.284
RXN-19556	EC-4.4.1.13
RXN-19555	
RXN-17884	EC-1.1.1.284
RXNQT-4322	EC-4.4.1.13
ADENYL-KIN-RXN	EC-2.7.4.3
RXN-14290	
RXN0-1141	EC-6.3.1.20
RXN-13039	
RXN-19322	EC-3.1.3.73
RXN-12729	EC-4.4.1.13
RXN-15137	
RXN0-5098	EC-6.3.1.20
RXN-12149	
RXN-19310	EC-3.1.3.73
RXN-8052	EC-4.4.1.13
RXN-19323	EC-3.1.3.73
RXN-17127	EC-6.3.1.20
RXN-10015	
RXN-8654	
RXN-8655	
RXN-14503	
1.2.1.67-RXN	EC-1.2.1.67
S-ALKYLCYSTEINE-LYASE-RXN	EC-4.4.1.13
RXN-11410	
RXN-15577	
1.13.11.15-RXN	EC-1.13.11.15
GPH-RXN	EC-3.1.3.18
CHMS-DEHYDROGENASE-RXN	EC-1.2.1.60
RXN-19562	EC-4.4.1.13
4-HYDROXY-2-KETOPIMELATE-LYSIS-RXN	EC-4.1.2.52
RXN-19561	
HYDROXYHEPTA-DIENEDIOATE-HYDROXY-RXN	EC-4.2.1.163
4.1.1.68-RXN	EC-4.1.1.68
RIB5PISOM-RXN	EC-5.3.1.6
CARBOXY-OXOHEPT-ENEDIOATE-DECARBOXY-RXN	
RXN1K-87	EC-5.3.2
GLUTATHIONE-REDUCT-NADPH-RXN	EC-1.8.1.7
RXN-19554	EC-4.4.1.13
RXN-19553	
DAHPSYN-RXN	EC-2.5.1.54
RXN-11811	
RXN-14812	
3.2.1.8-RXN	EC-3.2.1.8
RXN-8771	EC-1.13.11.79
RXNQT-4320	EC-4.4.1.13
MYRISTOYLACYLTRAN-RXN	EC-2.3.1.243
RXN0-5222	
RXN-7282	EC-5.3.2
ISOCHORSYN-RXN	EC-5.4.4.2
DHBDEHYD-RXN	EC-1.3.1.28
LIPIDXSYNTHESIS-RXN	EC-3.6.1.54
RXN-18212	EC-4.4.1.13
RXN-13460	
METHYLMALONYL-COA-EPIM-RXN	EC-5.1.99.1
HYDROXY-MANDELATE-RACEMASE-RXN	EC-5.1.2.2
RXN-19582	
RXN-15582	
RXN-6763	EC-4.4.1.13
RXN-6081	
RXN-16391	EC-5.1.99.1
RXN-8763	EC-3.7.1.12
RXN-8768	EC-5.4.99.60
MANDELATE-RACEMASE-RXN	EC-5.1.2.2
RXN-9922	
RXN-8761	
RXN-8899	
RXN-8762	EC-2.1.1.271
RXN-8764	EC-2.1.1.195
RXN-8766	EC-2.1.1.196
RXN0-7023	EC-3.1.13
PANTEPADENYLYLTRAN-RXN	EC-2.7.7.3
RXNQT-4323	EC-4.4.1.13
RXN-8767	EC-2.1.1.289
RXN-18364	
4.99.1.3-RXN	EC-4.99.1.3
RXN-1381	EC-2.3.1.15
2.1.1.151-RXN	EC-2.1.1.151
RXN-18031	
RXN-14315	
RXN-10462	EC-2.3.1.15
RXN0-1342	EC-2.4.99.17
RXN-19552	EC-4.4.1.13
RXN-9893	
RXN-15045	EC-2.3.1.15
RXN0-1321	EC-2.4.2.29
RXN-19551	
RXN-15127	EC-3.5.99.10
RXN-15124	
QUEUOSINE-TRNA-RIBOSYLTRANSFERASE-RXN	EC-2.4.2.29
RXN-13805	EC-2.3.1.15
RXN-17633	
RXN-14515	
PEPTIDYLPROLYL-ISOMERASE-RXN	EC-5.2.1.8
RXN-17017	EC-2.3.1.15
RXN-19341	
RXN-17018	EC-2.3.1.15
PRTRANS-RXN	EC-2.4.2.18
2.1.1.77-RXN	EC-2.1.1.77
RXN-18157	
RXN0-2161	EC-6.1.1.11
RXN-6423	EC-2.6.1.82
RXN0-5391	EC-5.3.3.8
IGPSYN-RXN	EC-4.1.1.48
RXN-17016	EC-2.3.1.15
RXN0-5390	EC-3.1.2
SERINE--TRNA-LIGASE-RXN	EC-6.1.1.11
RXN-16561	EC-2.3.1.155
RXN-16117	EC-2.3.1.15
RXN-18702	
MERCAPYSTRANS-RXN	EC-2.8.1.2
RXN-8315	
RXN-18032	
COBINPGUANYLYLTRANS-RXN	EC-2.7.7.62
RXN-16024	EC-2.3.1.15
CTPSYN-RXN	EC-6.3.4.2
RXN-18703	
RXN-14325	
PHENYLPYRUVATE-TAUTOMERASE-RXN	EC-5.3.2.1
RXN-16129	EC-1.1.1.330
RXN-7587	
TRIOSEPISOMERIZATION-RXN	EC-5.3.1.1
RXN-14126	EC-3.1.3.6
RXN-14090	EC-3.1.3.6
RXN-16112	EC-1.1.1.330
RXN-12539	
RXN-17109	EC-1.1.1.330
RXN-14882	
3-NUCLEOTID-RXN	EC-3.1.3.6
RXN-14124	EC-3.1.3.6
2.3.1.155-RXN	EC-2.3.1.155
3.1.22.4-RXN	EC-3.1.22.4
RXN-13853	EC-1.7.1
PYROGLUTAMYL-PEPTIDASE-I-RXN	EC-3.4.19.3
RXN-8173	
RXN-14115	EC-3.1.3.6
THREONINE--TRNA-LIGASE-RXN	EC-6.1.1.3
RXN-14113	EC-3.1.4.16
RXN-11409	
RXN-15348	
HISTCYCLOHYD-RXN	EC-3.5.4.19
RXN-17846	EC-2.3.2.6
RXN-19024	EC-4.3.2.7
RXN-14997	
RXN-19146	
RXN-17847	EC-2.3.2.6
RXN-19145	EC-2.3.2.5
RXN-14064	EC-3.1.4.16
RXN-19022	
LEUCYLTRANSFERASE-RXN	EC-2.3.2.6
BIOTIN-CARBOXYL-RXN	EC-6.3.4.14
RXN-17848	EC-2.3.2.6
RXN-19503	EC-1.2.7.7
CYCPHOSDIESTER-RXN	EC-3.1.4.16
4.3.1.17-RXN	EC-4.3.1.17
RXN-14409	
RXN-15125	
RXN-14091	EC-3.1.4.16
RXN-17881	
4.1.99.4-RXN	EC-3.5.99.7
PROPCOASYN-RXN	EC-1.3.8.1
RXN-15149	
NAG1P-URIDYLTRANS-RXN	EC-2.7.7.23
RXN-7101	
BIOTINLIG-RXN	EC-6.3.4.15
RXN-14112	EC-3.1.4.16
NQOR-RXN	EC-1.6.5.2
2-DEHYDROPANTOATE-REDUCT-RXN	EC-1.1.1.169
RXN-16333	
2.7.8.24-RXN	EC-2.7.8.24
1.18.1.2-RXN	EC-1.18.1.2
THREDEHYD-RXN	EC-4.3.1.19
RXN-15122	
2.1.1.17-RXN	EC-2.1.1.17
RXN-15468	
DXPREDISOM-RXN	EC-1.1.1.267
RXN-924	
RIBONUCLEOSIDE-DIP-REDUCTII-RXN	EC-1.17.4.1
2-OCTAPRENYL-6-METHOXYPHENOL-HYDROX-RXN	EC-1.14.13
UDPREDUCT-RXN	EC-1.17.4.1
ALLANTOICASE-RXN	EC-3.5.3.4
CDPREDUCT-RXN	EC-1.17.4.1
DLACTDEHYDROGFAD-RXN	EC-1.1.5.12
SIROHEME-FERROCHELAT-RXN	EC-4.99.1.4
RXN0-5261	
GDPREDUCT-RXN	EC-1.17.4.1
YIAE1-RXN	EC-1.1.1
DIMETHUROPORDEHYDROG-RXN	EC-1.3.1.76
1.1.1.215-RXN	EC-1.1.1.215
RIBONUCLEOSIDE-DIP-REDUCTI-RXN	EC-1.17.4.1
RXN0-7020	EC-1.1.1.346
RXN0-7021	EC-1.1.1
UROPORIIIMETHYLTRANSA-RXN	
ADPREDUCT-RXN	EC-1.17.4.1
RXN0-748	EC-1.17.4.1
R501-RXN	EC-1.14.13
RXN-15941	EC-5.1.1.22
CYTIDEAM2-RXN	EC-3.5.4.5
RXN0-722	EC-1.17.4.1
CYTIDEAM-RXN	EC-3.5.4.5
RXN0-747	EC-1.17.4.1
RXN0-1281	EC-1.1.1
RXN-14957	EC-2.8.1.8
ACETOLACTREDUCTOISOM-RXN	EC-1.1.1.86
RXN-8770	EC-3.1.3.73
1.3.1.54-RXN	EC-1.3.1.54
RXN0-949	EC-2.8.1.8
RXN-8675	
ACETOOHBUTREDUCTOISOM-RXN	EC-1.1.1.86
CPM-KDOSYNTH-RXN	EC-2.7.7.38
RXN-14959	EC-2.8.1.8
ALTRODEHYDRAT-RXN	EC-4.2.1.7
UDP-NACMUR-ALA-LIG-RXN	EC-6.3.2.8
ALTRO-OXIDOREDUCT-RXN	EC-1.1.1.58
RXN-14950	EC-2.8.1.8
NADPYROPHOSPHAT-RXN	EC-3.6.1.22
UDP-NACMURALA-GLU-LIG-RXN	EC-6.3.2.9
RXN0-4401	EC-3.6.1.22
2OXOGLUTARATEDEH-RXN	EC-1.2.1
RXN0-1147	EC-2.3.1.61
RXN-8975	EC-2.7.8.13
3.6.1.41-RXN	EC-3.6.1.41
3.8.1.8-RXN	EC-3.8.1.8
R123-RXN	EC-3.5.4.42
ARYLESTERASE-RXN	EC-3.1.1.2
1.2.4.4-RXN	EC-1.2.4.4
PHOSNACMURPENTATRANS-RXN	EC-2.7.8.13
ASPARTATE-4-DECARBOXYLASE-RXN	EC-4.1.1.12
2.3.1.168-RXN	EC-2.3.1.168
RXN-14693	
TRNA-PSEUDOURIDINE-SYNTHASE-I-RXN	EC-5.4.99.12
KETOISOCAPROATE-RXN	EC-1.2.4.4
R581-RXN	EC-4.99.1.2
RXN-11347	EC-2.7.8.13
METHYLVALERATE-RXN	EC-1.2.4.4
2.7.7.8-RXN	EC-2.7.7.8
RXN-7790	EC-1.2.1
RXN-9655	EC-2.3.1.86	EC-2.3.1.85	EC-4.2.1.59
PHOSPHONOACETALDEHYDE-HYDROLASE-RXN	EC-3.11.1.1
RXN-11832	EC-2.7.4.14	EC-2.7.4.25
2.7.1.90-RXN	EC-2.7.1.90
RXN-7913	EC-2.7.4.25	EC-2.7.4.14	EC-2.7.4.13
KDO-8PSYNTH-RXN	EC-2.5.1.55
RXN-14249	EC-1.1.1.103
THREOSPON-RXN	
THREODEHYD-RXN	EC-1.1.1.103
GLYOXI-RXN	EC-4.4.1.5
GLUCUROISOM-RXN	EC-5.3.1.12
GALACTUROISOM-RXN	EC-5.3.1.12
LIPIDADISACCHARIDESYNTH-RXN	EC-2.4.1.182
AKBLIG-RXN	EC-2.3.1.29
3-HYDROXYDECANOYL-ACP-DEHYDR-RXN	EC-2.3.1.86	EC-2.3.1.85	EC-4.2.1.59
MANNONOXIDOREDUCT-RXN	EC-1.1.1.57
ARABISOM-RXN	EC-5.3.1.4
RXN-8172	
RXN-11737	EC-2.6.1.1
CHOLINE-KINASE-RXN	EC-2.7.1.32
UDPHYDROXYMYRGLUCOSAMNACETYLTRANS-RXN	EC-2.3.1.191
2.6.1.30-RXN	EC-2.6.1.30
PYRIDOXINE-4-OXIDASE-RXN	EC-1.1.3.12
RXN-10814	EC-2.6.1.1
4-PYRIDOXOLACTONASE-RXN	EC-3.1.1.27
RXN-8757	EC-1.1.99
CDPDIGLYSYN-RXN	EC-2.7.7.41
RXN-8756	EC-1.2.1
4.1.1.51-RXN	EC-4.1.1.51
RXN0-5515	EC-2.7.7.41
ASPAMINOTRANS-RXN	EC-2.6.1.1
1.14.12.4-RXN	EC-1.14.13
3.5.1.29-RXN	EC-3.5.1.29
RXN-13697	EC-2.6.1.1
BRANCHED-CHAINAMINOTRANSFERLEU-RXN	EC-2.6.1.6	EC-2.6.1.42
SERINE-O-ACETTRAN-RXN	EC-2.3.1.30
RXN-9553	EC-4.2.1
SALICYLATE-1-MONOOXYGENASE-RXN	EC-1.14.13.1
BRANCHED-CHAINAMINOTRANSFERVAL-RXN	EC-2.6.1.42
RXN-9544	EC-1.1.1
D-PPENTOMUT-RXN	EC-5.4.2.7
RXN66-474	EC-6.2.1
PPENTOMUT-RXN	EC-5.4.2.7
RXN-9914	EC-1.14.13.1
BRANCHED-CHAINAMINOTRANSFERILEU-RXN	EC-2.6.1.42
ORNITHINE-CYCLODEAMINASE-RXN	EC-4.3.1.12
ADDALT-RXN	EC-3.5.4.4
R221-RXN	EC-1.1.99
R222-RXN	EC-1.2.1.3
RXN-10078	EC-1.14.13.1
ADENODEAMIN-RXN	EC-3.5.4.4
RUBREDOXIN--NAD+-REDUCTASE-RXN	EC-1.18.1.1
URACIL-PRIBOSYLTRANS-RXN	EC-2.4.2.9
RXN-9912	EC-1.14.13.1
DAPASYN-RXN	EC-2.6.1.62
THYM-PHOSPH-RXN	EC-2.4.2.2	EC-2.4.2.4
RXN-13034	EC-4.2.2.26
RXN-13040	EC-1.1.1.126
RXN-10079	EC-1.14.13.1
RXN-12877	
4.2.2.11-RXN	EC-4.2.2.11
NICOTINATEPRIBOSYLTRANS-RXN	EC-6.3.4.21
HOMOSERDEHYDROG-RXN	EC-1.1.1.3
UREIDOGLYCOLATE-HYDROLASE-RXN	EC-3.5.1.116
METHGLYSYN-RXN	EC-4.2.3.3
L-LACTATE-DEHYDROGENASE-CYTOCHROME-RXN	EC-1.1.2.3
PUTTRANSAM-RXN	
GLUCOKIN-RXN	EC-2.7.1.1	EC-2.7.1.2
CREATINASE-RXN	EC-3.5.3.3
HEXOKINASE-RXN	EC-2.7.1.1
SARCOSINE-DEHYDROGENASE-RXN	EC-1.5.8.3
3.4.11.18-RXN	EC-3.4.11.18
SARCOX-RXN	EC-1.5.3.1
RXN-17875	EC-3.4.11.18
RXN-14014	EC-1.17.1.8
RXN-17874	EC-3.4.11.18
RIBOSYLHOMOCYSTEINASE-RXN	EC-4.4.1.21
RXN-17877	EC-3.4.11.18
GTP-CYCLOHYDRO-I-RXN	EC-3.5.4.16
RXN-17878	EC-3.4.11.18
RXN-17873	EC-3.4.11.18
RXN0-5507	EC-4.1.2.50
RXN-17876	EC-3.4.11.18
RXN0-366	EC-3.2.2.1
RXN0-6734	EC-4.7.1.1
2.6.1.18-RXN	EC-2.6.1.18
ANTHRANSYN-RXN	EC-4.1.3.27
RXN-17956	EC-4.7.1.1
RXN-12199	EC-3.6.1.5
RXN-12200	EC-3.6.1.5
TRNA-URACIL-5--METHYLTRANSFERASE-RXN	EC-2.1.1.35
RXN-14139	EC-3.6.1.9
RXN-13323	EC-2.5.1.32
RXN-12198	EC-3.6.1.6
RXN-12196	EC-3.6.1.15
RXN-12197	EC-3.6.1.6
RXN0-6732	EC-2.7.8.37
RXNARA-8002	
RXN0-4022	EC-1.7.1.13
TRYPTOPHAN-2-MONOOXYGENASE-RXN	EC-1.13.12.3
2.5.1.32-RXN	
HISTIDINE-AMMONIA-LYASE-RXN	EC-4.3.1.3
RXN-17954	EC-2.7.8.37
RXN-12626	EC-3.2.1.52
UROCANATE-HYDRATASE-RXN	EC-4.2.1.49
RXN-17957	EC-2.7.8.37
RXN0-5226	EC-3.2.1.52
3.6.3.36-RXN	EC-3.6.3.36
ABC-64-RXN	EC-3.6.3.36
RXN-18082	EC-3.2.1.52
ALLANTOATE-DEIMINASE-RXN	EC-3.5.3.9
RXN-12625	EC-3.2.1.52
4-HYDROXYBENZOATE-3-MONOOXYGENASE-RXN	EC-1.14.13.2
MALEYLACETATE-REDUCTASE-RXN	EC-1.3.1.32
RXN-18362	
3.2.1.52-RXN	EC-3.2.1.52
ARGININE--TRNA-LIGASE-RXN	EC-6.1.1.19
DGTPTRIPHYDRO-RXN	EC-3.1.5.1
RXN-9157	EC-2.3.2.2
RXN0-268	EC-2.8.3
3.2.1.14-RXN	EC-3.2.1.14
RXN-18092	EC-2.3.2.2
3.1.11.2-RXN	EC-3.1.11.2
RXN-12623	EC-3.2.1.202
GSAAMINOTRANS-RXN	EC-5.4.3.8
GLUTRNAREDUCT-RXN	EC-1.2.1.70
VALINE--TRNA-LIGASE-RXN	EC-6.1.1.9
TRANS-RXN-323	
1.1.1.178-RXN	EC-1.1.1.178
RXN-19026	EC-4.1.99.3
RXN-6601	EC-2.3.2.2
GALACTONOLACTONASE-RXN	EC-3.1.1.25
RXN-19025	EC-4.1.99.3
DEOXYRIBODIPYRIMIDINE-PHOTOLYASE-RXN	EC-4.1.99.3
GAMMA-GLUTAMYLTRANSFERASE-RXN	EC-2.3.2.2
RXN-19243	EC-4.1.99.3
RXN66-336	EC-2.3.2.2
RXN-19248	EC-4.1.99.3
VALINE-PYRUVATE-AMINOTRANSFER-RXN	EC-2.6.1.66
RXN-19245	EC-4.1.99.3
AIRCARBOXY-RXN	EC-4.1.1.21
RXN0-743	EC-5.4.99.18
RXN-19242	EC-4.1.99.3
THI-P-SYN-RXN	EC-2.5.1.3
GLUCOSE-1-PHOSPHAT-RXN	EC-3.1.3.10
RXN-19247	EC-4.1.99.3
1.2.1.25-RXN	EC-1.2.1.25
RXN-12611	EC-2.5.1.3
RXN-1623	EC-2.3.1.51
RXN-19244	EC-4.1.99.3
PGPPHOSPHA-RXN	EC-3.1.3.27
RXN-12610	EC-2.5.1.3
RXN-19246	EC-4.1.99.3
2KETO-3METHYLVALERATE-RXN	EC-1.2.1.25
MBCOA-DHLIPOAMIDE-RXN	EC-2.3.1.168
RXN-12540	
GLUTATHIONE-PEROXIDASE-RXN	EC-1.11.1.9
2.1.1.79-RXN	EC-2.1.1.79
PHOSGLYPHOS-RXN	EC-2.7.2.3
RXN-7421	EC-2.1.1.79
2KETO-4METHYL-PENTANOATE-DEHYDROG-RXN	EC-1.2.1.25
ISOVALERYLCOA-DHLIPOAMIDE-RXN	EC-2.3.1.168
GAPOXNPHOSPHN-RXN	EC-1.2.1.12
RXN1G-3641	EC-2.1.1.79
RXN1G-2544	EC-2.1.1.79
RXN-12721	EC-1.8.4.9
1TRANSKETO-RXN	EC-2.2.1.1
RXN-12864	
RXN-12867	EC-1.8.1
2TRANSKETO-RXN	EC-2.2.1.1
RXN-12865	EC-1.8.1
RXN-6268	
RXN0-6945	EC-4.4.1
RXN-14904	
ALANINE-DEHYDROGENASE-RXN	EC-1.4.1.1
5.4.2.10-RXN	EC-5.4.2.10
PPPGPPHYDRO-RXN	EC-3.6.1.40
RXN0-5375	EC-1.7.1.f
RXN-16424	
PPGPPSYN-RXN	EC-3.1.7.2
RXN0-7139	
RXN0-6427	EC-3.1.7.2
XANPRIBOSYLTRAN-RXN	EC-2.4.2.22
2-NITROPROPANE-DIOXYGENASE-RXN	EC-1.13.12.16
PSERTRANSAMPYR-RXN	EC-2.6.1.52
HYPOXANPRIBOSYLTRAN-RXN	EC-2.4.2.8
PYRUVFORMLY-RXN	EC-2.3.1.54
FHLMULTI-RXN	
GUANPRIBOSYLTRAN-RXN	EC-2.4.2.8
RXN0-1133	EC-2.3.1.12
PSERTRANSAM-RXN	EC-2.6.1.52
RXN-9384	EC-2.5.1.48
RXN-13779	EC-1.1.1.370
DIHYDROOROTATE-DEHYDROGENASE-RXN	EC-1.3.5.2
RXN-14148	EC-1.1.1.369
ACYLPHOSPHATASE-RXN	EC-3.6.1.7
RXN-14178	EC-5.3.99.11
RXN0-6491	EC-1.3.5.2
RXN0-5462	EC-3.6.5.1	EC-3.6.5.2	EC-3.6.5.3	EC-3.6.5.4	EC-3.6.5.5	EC-3.6.5.6	EC-3.6.1.15
ARYLSULFAT-RXN	EC-3.1.6.1
RXN0-6554	EC-1.3.5.2
RXN0-6490	
OHBUTYRYL-COA-EPIM-RXN	EC-5.1.2.3
DNA-DIRECTED-RNA-POLYMERASE-RXN	EC-2.7.7.6
ENOYL-COA-DELTA-ISOM-RXN	EC-5.3.3.8
RXN0-305	EC-5.3.1.22
DIHYDROXYMETVALDEHYDRAT-RXN	EC-4.2.1.9
RXN-12609	EC-5.3.99.10
RXN-9789	EC-2.7.7.73
ASPARTATE-RACEMASE-RXN	EC-5.1.1.13
DIHYDROXYISOVALDEHYDRAT-RXN	EC-4.2.1.9
RXN-12621	
RXN-9788	EC-2.8.1
RXN-11319	EC-4.1.99.19
PDXJ-RXN	EC-2.6.99.2
RXN-15006	EC-1.2.1.38
N-ACETYLGLUTPREDUCT-RXN	EC-1.2.1.38
AGMATIN-RXN	EC-3.5.3.11
GARTRANSFORMYL2-RXN	EC-2.1.2
GART-RXN	EC-2.1.2.2
3-HYDROXYISOBUTYRYL-COA-HYDROLASE-RXN	EC-3.1.2.4
ACETYLHOMOSER-CYS-RXN	EC-2.5.1.49
RXN-6384	EC-3.1.2.4
RXN0-7014	EC-2.3.1
RXN-17955	EC-3.6.1.63
O-ACETYLHOMOSERINE-THIOL-LYASE-RXN	EC-2.5.1.49
RXN0-6710	EC-3.1.4.55
RXN0-1401	EC-2.7.4.23
RXN-7567	EC-4.2.1.84
RXN-13721	EC-3.1.2.4
RXN-17958	EC-3.6.1.63
RXN-17959	EC-4.7.1.1
R313-RXN	EC-4.2.1.84
3.4.21.92-RXN	EC-3.4.21.92
DTDPGLUCDEHYDRAT-RXN	EC-4.2.1.46
RXN-17753	
2-METHYLACYL-COA-DEHYDROGENASE-RXN	EC-1.3.8.5
RXN-14726	EC-4.2.1.84
RXN-13548	EC-3.5.99
TAGAKIN-RXN	EC-2.7.1.144
RXN-17609	EC-4.2.1.84
GLUCOSAMINE-6-P-DEAMIN-RXN	EC-3.5.99.6
RXN-14725	EC-4.2.1.84
TRANS-RXN-314	EC-3.6.3.40
1.6.99.5-RXN	EC-1.6.5.11
RXN-19190	
RXN-18029	EC-3.6.3.40
NITRILE-HYDRATASE-RXN	EC-4.2.1.84
NADH-DEHYDROGENASE-QUINONE-RXN	EC-1.6.5.11
RXN-19189	
RXN-19188	
R310-RXN	EC-4.2.1.84
RXN0-6733	EC-3.6.1.63
RXN-19187	EC-2.7.1
RXN-19186	EC-1.1.1
RXN-19185	EC-6.2.1.2
PROLINE--TRNA-LIGASE-RXN	EC-6.1.1.15
RXN-19192	EC-6.2.1.2
ACETOLACTSYN-RXN	EC-2.2.1.6
DIHYDROOROT-RXN	EC-3.5.2.3
ACETOOHBUTSYN-RXN	EC-2.2.1.6
ASPCARBTRANS-RXN	EC-2.1.3.2
RXN0-6274	EC-2.5.1.75
CYSTATHIONINE-BETA-SYNTHASE-RXN	EC-4.2.1.22
2.7.7.33-RXN	EC-2.7.7.33
NADH-DEHYDROGENASE-RXN	EC-1.6.99.3
PSERPHOSPHA-RXN	EC-3.1.3.3
RXN-9869	
UREA-CARBOXYLASE-RXN	EC-6.3.4.6
CDP-GLUCOSE-46-DEHYDRATASE-RXN	EC-4.2.1.45
RXN0-5114	EC-3.1.3.3
ACETYL-COA-CARBOXYLTRANSFER-RXN	EC-6.4.1.2
THYMIDYLATESYN-RXN	EC-2.1.1.45
RXN-15345	
CATECHOL-23-DIOXYGENASE-RXN	EC-1.13.11.2
DTDPDEHYDRHAMEPIM-RXN	EC-5.1.3.13
ARYLSULFATE-SULFOTRANSFERASE-RXN	EC-2.8.2.22
3-DEHYDROQUINATE-DEHYDRATASE-RXN	EC-4.2.1.10
IPPISOM-RXN	EC-5.3.3.2
AMONITRO-RXN	EC-1.14.99.39
METHYLENETHFDEHYDROG-NADP-RXN	EC-1.5.1.5
RXN-15863	
PREPHENATEDEHYDRAT-RXN	EC-4.2.1.51
RXN-15862	
METHENYLTHFCYCLOHYDRO-RXN	EC-3.5.4.9
THIOREDOXIN-RXN	
DNA-DIRECTED-DNA-POLYMERASE-RXN	EC-2.7.7.7
NICOTINAMID-RXN	EC-3.5.1.19
RXN-9658	EC-1.3.1.9
RXN-9913	
RXN-11482	EC-1.3.1.9
RXN-7909	EC-1.5.1
PGLUCONDEHYDRAT-RXN	EC-4.2.1.12
3.4.11.1-RXN	EC-3.4.11.9	EC-3.4.11.1
RXN-9661	EC-1.3.1.9
UNSPECIFIC-MONOOXYGENASE-RXN	EC-1.14.14.1
RXN0-5419	
RXN-16620	EC-1.3.1.9
6PGLUCONOLACT-RXN	EC-3.1.1.31
ALDOSE1EPIM-RXN	EC-5.1.3.3
RXN-10657	EC-1.3.1.9
RXN-11478	EC-1.3.1.9
IMIDPHOSDEHYD-RXN	EC-4.2.1.19
UDPACYLGLCNACDEACETYL-RXN	EC-3.5.1.108
RXN-9657	EC-1.3.1.9
RXN0-2145	EC-1.3.1.9
GLUTAMIDOTRANS-RXN	EC-4.3.2
RXN-17900	
DALADALALIG-RXN	EC-6.3.2.4
RXN1G-526	EC-1.3.1.9
ENOYL-ACP-REDUCT-NADH-RXN	EC-1.3.1.9
RXN-9386	EC-6.1.1.24
3.8.1.11-RXN	EC-3.8.1.11
HISTPRATPHYD-RXN	EC-3.6.1.31
RXN-14396	
RXN-16632	EC-1.3.1.9
RXN-6263	EC-3.8.1.11
ISOCIT-CLEAV-RXN	EC-4.1.3.1
RXN-9660	EC-1.3.1.9
RXN-2881	
RXN-6264	EC-3.8.1.9	EC-3.8.1.10
PEPCARBOXYKIN-RXN	EC-4.1.1.49
RXN-15139	
RXN-9663	EC-1.3.1.9
UDPNACETYLMURAMATEDEHYDROG-RXN	EC-1.3.1.98
PROTEIN-KINASE-RXN	EC-2.7.11.21	EC-2.7.11.22	EC-2.7.11.13	EC-2.7.11.1	EC-2.7.11.17	EC-2.7.11.12
RXN1G-395	EC-1.3.1.9
RXN-10018	
OCTAPRENYL-METHYL-METHOXY-BENZOQ-OH-RXN	EC-1.14.99
2-OCTAPRENYL-METHOXY-BENZOQ-METH-RXN	EC-2.1.1.201
RXN-8976	EC-2.4.1.227
RXN-16628	EC-1.3.1.9
2-OCTAPRENYLPHENOL-HYDROX-RXN	EC-1.14.13
RXN-10062	EC-1.3.1.9
RXN-2902	EC-1.2.1.18
NACGLCTRANS-RXN	EC-2.4.1.227
RXN-9659	EC-1.3.1.9
RXN-11213	EC-1.2.1.27
DCTP-PYROPHOSPHATASE-RXN	EC-3.6.1.9	EC-3.6.1.12	EC-3.6.1.65
RXN-14188	EC-3.6.1
TETHYDPICSUCC-RXN	EC-2.3.1.117
RXN-9662	EC-1.3.1.9
1.2.1.27-RXN	EC-1.2.1.27
RXN-16624	EC-1.3.1.9
RXN-10661	EC-1.3.1.9
SUCCDIAMINOPIMDESUCC-RXN	EC-3.5.1.18
FOLYLPOLYGLUTAMATESYNTH-RXN	EC-6.3.2.17
RXN0-5330	EC-1.6.5.9
RXN-9635	EC-1.3.1.9
RXN0-5248	
FORMYLTHFGLUSYNTH-RXN	EC-6.3.2.17
RXN1G-488	EC-1.3.1.9
RXN-982	EC-1.20.4.1
RXN-6341	EC-6.3.2.17
BADH-RXN	EC-1.2.1.8
RXN-9558	EC-1.3.1.9
RXN0-2921	EC-6.3.2.17
UDP-NACMURALGLDAPAALIG-RXN	EC-6.3.2.10
RXN1G-368	EC-2.3.1.41
TREHALOSEPHOSPHA-RXN	EC-3.1.3.12
DIHYDROFOLATESYNTH-RXN	EC-6.3.2.12
KDOTRANS2-RXN	EC-2.4.99.13
UDP-NACMURALGLDAPLIG-RXN	EC-6.3.2.13
RXN-9539	EC-2.3.1.179	EC-2.3.1.41
RXN-10654	EC-2.3.1.179	EC-2.3.1.41
RXN-11474	EC-2.3.1.179	EC-2.3.1.41
RXN-9650	EC-2.3.1.86	EC-2.3.1.85	EC-2.3.1.41
METHIONYL-TRNA-FORMYLTRANSFERASE-RXN	EC-2.1.2.9
GLUCONOKIN-RXN	EC-2.7.1.12
RIBOPHOSPHAT-RXN	EC-3.1.3.104
GTP-CYCLOHYDRO-II-RXN	EC-3.5.4.25
RXN-11638	EC-2.1.1.199
PRAISOM-RXN	EC-5.3.1.24
RXN-9555	EC-3.1.2.14
3.5.1.88-RXN	EC-3.5.1.88
RXN-9653	EC-2.3.1.86	EC-2.3.1.85	EC-2.3.1.41
RXN-9557	EC-4.2.1.59
3.5.1.27-RXN	EC-3.5.1.88
RXN0-2141	EC-2.3.1.179	EC-2.3.1.41
RXN-5721	
RIBOKIN-RXN	EC-2.7.1.15
RXN-16629	EC-2.3.1.179	EC-2.3.1.41
DEPHOSPHOCOAKIN-RXN	EC-2.7.1.24
RXN-9535	EC-2.3.1.179	EC-2.3.1.41	EC-2.3.1.85	EC-2.3.1.86
RXN-16615	EC-2.3.1.179	EC-2.3.1.41
UROGENDECARBOX-RXN	EC-4.1.1.37
RXN-14223	EC-2.7.1.15
RXN-9634	EC-2.3.1.86	EC-4.2.1.59
RXN1G-445	EC-2.3.1.41
RXN-9548	EC-3.1.2.14
RXN-10642	EC-4.1.1.37
3-OXOACYL-ACP-SYNTH-RXN	EC-2.3.1.179	EC-2.3.1.41	EC-2.3.1.85	EC-2.3.1.86
RXN0-6478	EC-3.1.26.12
RXN-12347	
RXN-9523	EC-2.3.1.179	EC-2.3.1.41
RXN0-6479	EC-3.1.13.1
RXN-17362	EC-3.4.23.36
RXN0-4222	EC-3.1.13.1
RXN-11578	EC-2.1.1.170
RXN0-6485	EC-3.1.26.12
RXN3O-1803	EC-2.3.1.179	EC-2.3.1.41	EC-2.3.1.86
LYSOPHOSPHOLIPASE-RXN	EC-3.1.1.5
RXN-16631	EC-4.2.1.59
RXN-9527	EC-2.3.1.179	EC-2.3.1.41
RXN1G-320	EC-4.2.1.59
LEUCINE--TRNA-LIGASE-RXN	EC-6.1.1.4
RXN-19312	EC-3.1.1.5
2.3.1.41-RXN	EC-2.3.1.179	EC-2.3.1.41
RXN1G-517	EC-4.2.1.59
RXN1G-72	EC-1.1.1
RXN-15035	EC-3.1.1.5
RXN-16625	EC-2.3.1.179	EC-2.3.1.41
RXN1G-364	EC-1.1.1
4.2.2.7-RXN	EC-4.2.2.7
RXN1G-240	EC-1.1.1
RXN-9531	EC-2.3.1.179	EC-2.3.1.41
RXN1G-163	EC-1.1.1
RXN-9648	EC-2.3.1.86	EC-2.3.1.85	EC-2.3.1.41
RXN1G-260	EC-1.1.1
RXN1G-358	EC-1.1.1
TRYPTOPHAN--TRNA-LIGASE-RXN	EC-6.1.1.2
RXN1G-881	EC-1.1.1
RXN-9652	EC-2.3.1.86	EC-2.3.1.85	EC-2.3.1.41
RXN1G-1053	EC-1.1.1
RXN1G-287	EC-1.1.1
N-FORMYLGLUTAMATE-DEFORMYLASE-RXN	EC-3.5.1.68
RXN1G-499	EC-2.3.1.41
RXN-10061	EC-4.2.1.59
RXN-10059	EC-2.3.1.41
RXN1G-363	EC-4.2.1.59
GLUTAMATE-DEHYDROGENASE-RXN	EC-1.4.1.2
RXN-9591	EC-2.3.1
RXN-9516	EC-2.3.1.179	EC-2.3.1.41
RXN-9510	EC-1.5.1.42
RXN1G-460	EC-2.3.1.179	EC-2.3.1.41
3-OXOACYL-ACP-SYNTH-BASE-RXN	EC-2.3.1.179	EC-2.3.1.41	EC-2.3.1.85	EC-2.3.1.86
RXN-10660	EC-4.2.1.59
RXN0-5063	EC-2.8.4.3
PYRAMKIN-RXN	EC-2.7.1.35
RXN-14480	
RXN-10656	EC-4.2.1.59
RXN-14481	
RXN-9550	EC-3.1.2.14
CARBODEHYDRAT-RXN	EC-4.2.1.1
RXN-16621	EC-2.3.1.179	EC-2.3.1.41
METHYLGLUTACONYL-COA-HYDRATASE-RXN	EC-4.2.1.18
RXN-10658	EC-2.3.1.179	EC-2.3.1.41
RXN0-5224	EC-4.2.1.1
S-ADENMETSYN-RXN	EC-2.5.1.6
RXN-9632	EC-2.3.1.41
2.1.1.19-RXN	EC-2.1.1.19
1.5.1.15-RXN	EC-1.5.1.15
HOMOCYSMETB12-RXN	EC-2.1.1.13
GLUTCYSLIG-RXN	EC-6.3.2.2
O-SUCCHOMOSERLYASE-RXN	EC-2.5.1.48
RXN-9651	EC-2.3.1.86	EC-2.3.1.85	EC-2.3.1.41
TRNA-GUANINE-N7--METHYLTRANSFERASE-RXN	EC-2.1.1.33
RXN-9654	EC-2.3.1.86	EC-2.3.1.85	EC-2.3.1.41
UDPGLUCEPIM-RXN	EC-5.1.3.2
MANNPISOM-RXN	EC-5.3.1.8
RXN-11479	EC-2.3.1.179	EC-2.3.1.41
NADPH-DEHYDROGENASE-FLAVIN-RXN	EC-1.5.1.30
GABATRANSAM-RXN	EC-2.6.1.19
RXN-12444	EC-1.5.1.38
RXN-7605	EC-2.1.1
RXN-2901	EC-2.6.1.19
FMNREDUCT-RXN	EC-1.5.1.39
RXN-9520	EC-2.3.1.86	EC-2.3.1.85	EC-4.2.1.59
4.2.1.59-RXN	EC-2.3.1.86	EC-2.3.1.85	EC-4.2.1.59
RXN-9387	EC-5.1.99.5
RXN-9533	EC-2.3.1.86	EC-2.3.1.85	EC-4.2.1.59
RXN0-5293	EC-1.2.1.16
RXN-9537	EC-2.3.1.86	EC-2.3.1.85	EC-4.2.1.59
RXN0-2301	EC-1.3.8.4
4.2.1.61-RXN	EC-2.3.1.86	EC-2.3.1.85	EC-4.2.1.59
RXN-9549	EC-3.1.2.14
RXN-9781	EC-5.1.99.5
RXN-14264	EC-1.3.8.4
3.1.2.21-RXN	EC-3.1.2.21
FORMYLTHFDEFORMYL-RXN	EC-3.5.1.10
METHYLCROTONYL-COA-CARBOXYLASE-RXN	EC-6.4.1.4
RXN0-6482	EC-2.7.7.56
DEOXYRIBOSE-P-ALD-RXN	EC-4.1.2.4
GALPMUT-RXN	EC-5.4.99.9
RXN0-6481	EC-2.7.7.56
RXN-14029	EC-2.4.2.1
HISTIDINE--TRNA-LIGASE-RXN	EC-6.1.1.21
TRNA-NUCLEOTIDYLTRANSFERASE-RXN	EC-2.7.7.56
GLYC3PDEHYDROGBIOSYN-RXN	EC-1.1.1.94
HYDROXYMETHYLGLUTARYL-COA-LYASE-RXN	EC-4.1.3.4
1-ACYLGLYCEROL-3-P-ACYLTRANSFER-RXN	EC-2.3.1.51
RXN-11743	EC-2.4.2.1
RXN-9590	EC-2.3.1
DEOXYINOPHOSPHOR-RXN	EC-2.4.2.1
DNA-LIGASE-NAD+-RXN	EC-6.5.1.6	EC-6.5.1.2
SHIKIMATE-5-DEHYDROGENASE-RXN	EC-1.1.1.25
RXN-17920	
RXN-7968	EC-1.1.1.282
RXN-17918	
RXN-17919	
RXN-5061	EC-1.5.7.1
RXN-7001	EC-2.4.2.1
4.2.1.58-RXN	EC-2.3.1.86	EC-2.3.1.85	EC-4.2.1.59
RXN-9235	EC-2.1.1.201
CYSTEINE-AMINOTRANSFERASE-RXN	EC-2.6.1.3
PNKIN-RXN	EC-2.7.1.35
DEOXYGUANPHOSPHOR-RXN	EC-2.4.2.1
PYRIDOXKIN-RXN	EC-2.7.1.35
RXN-11781	EC-6.3.2.36
RXN-11715	EC-2.4.2.1
RXN-17363	EC-2.3.1
RXN0-3201	EC-3.4.21
PNP-RXN	EC-2.4.2.1
INOPHOSPHOR-RXN	EC-2.4.2.1
RXN-12348	EC-2.1.1
TYROSINE-AMINOTRANSFERASE-RXN	EC-2.6.1.57	EC-2.6.1.5
GLUTKIN-RXN	EC-2.7.2.11
PHEAMINOTRANS-RXN	EC-2.6.1.57
NICONUCADENYLYLTRAN-RXN	EC-2.7.7.18
BETA-GLUCURONID-RXN	EC-3.2.1.31
N-SULFOGLUCOSAMINE-SULFOHYDROLASE-RXN	EC-3.10.1.1
2.6.1.57-RXN	EC-2.6.1.57
RXN0-5199	EC-2.4.2.15	EC-2.4.2.1
DISULFOGLUCOSAMINE-6-SULFATASE-RXN	EC-3.1.6.11
RXN-16484	EC-3.2.1.56
RXN-15200	EC-2.6.1.57
RXN-16483	EC-3.1.6.13
XANTHOSINEPHOSPHORY-RXN	EC-2.4.2.1
RIBOFLAVINKIN-RXN	EC-2.7.1.26
GLY-X-CARBOXYPEPTIDASE-RXN	EC-3.4.17.4
RXN-14147	EC-2.6.1.57
RXN-18510	EC-2.7.1.26
GLUTAMINE--TRNA-LIGASE-RXN	EC-6.1.1.18
ADENPHOSPHOR-RXN	EC-2.4.2.1
GLURS-RXN	EC-6.1.1.17
URA-PHOSPH-RXN	EC-2.4.2.3	EC-2.4.2.2
ASPARAGINE--TRNA-LIGASE-RXN	EC-6.1.1.22
FADSYN-RXN	EC-2.7.7.2
ASPARTATE--TRNA-LIGASE-RXN	EC-6.1.1.12
2-HALOACID-DEHALOGENASE-RXN	EC-3.8.1.10	EC-3.8.1.2
RXN-18511	EC-2.7.7.2
DEOXYADENPHOSPHOR-RXN	EC-2.4.2.1
RXN-761	EC-2.4.1.347
PROTOPORGENOXI-RXN	EC-1.3.3.4
RXN0-6515	EC-2.1.1.171
2.4.1.36-RXN	EC-2.4.1.36
ACETYLORNTRANSAM-RXN	EC-2.6.1.11
RXN0-1461	EC-1.3.3.3
RXN0-5510	EC-3.6.1
HEMN-RXN	EC-1.3.98.3
RXN0-6259	EC-1.3.5.3
RXN-16330	
TREHALOSE6PSYN-RXN	EC-2.4.1.15
RXN-15007	EC-2.6.1.11
HOMOSERINE-O-ACETYLTRANSFERASE-RXN	EC-2.3.1.31
CHOLINE-SULFATASE-RXN	EC-3.1.6.6
KDOTRANS-RXN	EC-2.4.99.12
3.6.3.16-RXN	EC-3.6.3.16
RXN0-5266	EC-1.10.3.14
RXN-14118	EC-3.5.4.13
RXN-6883	EC-1.10.3.11
ARGDECARBOX-RXN	EC-4.1.1.19
RXN0-5265	
TETRAACYLDISACC4KIN-RXN	EC-2.7.1.130
DUTP-PYROP-RXN	EC-3.6.1.23	EC-3.6.1.9
DCTP-DEAM-RXN	EC-3.5.4.13
1.1.1.264-RXN	EC-1.1.1.264
ACSERLY-RXN	EC-2.5.1.47
SUCCINYLDIAMINOPIMTRANS-RXN	EC-2.6.1.17
RXN-12726	EC-2.5.1.47
METHIONINE-GAMMA-LYASE-RXN	EC-4.4.1.11
RXN-14301	
ORNCARBAMTRANSFER-RXN	EC-2.1.3.3
RXN-15121	
RXN-15123	EC-3.5.99
H2PTEROATESYNTH-RXN	EC-2.5.1.15
GLUTATHIONE-SYN-RXN	EC-6.3.2.3
RXN-13158	EC-1.1.1.85
3-ISOPROPYLMALDEHYDROG-RXN	
RXN-7800	
DHHB-METHYLTRANSFER-RXN	EC-2.1.1.64
ACETYL-COA-ACETYLTRANSFER-RXN	EC-2.3.1.9
2-OCTAPRENYL-6-OHPHENOL-METHY-RXN	EC-2.1.1.222
RXNQT-4178	EC-1.1.1.85
RXN-18200	
RXN-12561	EC-2.3.1.9
RXN-18201	
MEPROPCOA-FAD-RXN	EC-1.3.8
2.6.1.22-RXN	EC-2.6.1.22
OROTPDECARB-RXN	EC-4.1.1.23
METHYLACETOACETYLCOATHIOL-RXN	EC-2.3.1.9
RXNQT-4174	EC-1.1.1.85
UDPNACETYLGLUCOSAMENOLPYRTRANS-RXN	EC-2.5.1.7
RXN-18202	
4.1.2.29-RXN	EC-4.1.2.29
RXN-18203	
RXN-15977	EC-1.3.3.6
RXN-6383	EC-4.2.1.116
3-HYDROXYPROPIONATE-DEHYDROGENASE-RXN	EC-1.1.1.59
GLU6PDEHYDROG-RXN	EC-1.1.1.49
UDPNACETYLGLUCOSAMACYLTRANS-RXN	EC-2.3.1.129
RXNQT-4171	EC-1.1.1.85
3.4.11.4-RXN	EC-3.4.11.4
RXN-18204	
ERYTH4PDEHYDROG-RXN	EC-1.2.1.72
RXN-18205	
RXN-13459	EC-5.3.2.6
ERYTHRON4PDEHYDROG-RXN	EC-1.1.1.290
3.6.3.12-RXN	EC-3.6.3.12
GALACTOKIN-RXN	EC-2.7.1.6
TRANS-RXN-2	EC-3.6.3.12
RXN-12104	EC-1.17.99.6
IMP-DEHYDROG-RXN	EC-1.1.1.205
GALACTURIDYLYLTRANS-RXN	EC-2.7.7.12
RXNQT-4168	EC-1.1.1.85
OHACYL-COA-DEHYDROG-RXN	EC-1.1.1.35
RXN-18206	
RXN0-5021	EC-2.7.7
RXN-18207	
PEPCARBOX-RXN	EC-4.1.1.31
6.3.5.7-RXN	EC-6.3.5.7
SUCCSEMIALDDEHYDROG-RXN	EC-1.2.1.79
ATPPHOSPHORIBOSYLTRANS-RXN	EC-2.4.2.17
RXNQT-4165	EC-1.1.1.85
NMNNUCLEOSID-RXN	EC-3.2.2.14
RXN-18208	
RXN-18209	
RXN-3482	
RXN-3483	
ISOLEUCINE--TRNA-LIGASE-RXN	EC-6.1.1.5
METHYLTHIOADENOSINE-NUCLEOSIDASE-RXN	EC-3.2.2.16
HISTIDPHOS-RXN	EC-3.1.3.15
DEHYDDEOXPHOSGALACT-ALDOL-RXN	EC-4.1.2.55	EC-4.1.2.21
RXN-14986	EC-1.1.1.85
CARBPSYN-RXN	EC-6.3.5.5
RXN-18210	
RXN-13202	EC-6.3.4.16
RXN-18211	
RXN-16909	
ATPSYN-RXN	EC-3.6.3.14
RXN-16910	
RXN-14196	EC-2.7.2
2.7.1.148-RXN	EC-2.7.1.148
DEHYDDEOXGALACTKIN-RXN	EC-2.7.1.178	EC-2.7.1.58
RXN-11667	EC-4.2.1.150
1.2.1.13-RXN	EC-1.2.1.13
RXN0-4961	EC-3.1.11
DXS-RXN	EC-2.2.1.7
SEDOBISALDOL-RXN	EC-4.1.2
SEDOHEPTULOSE-BISPHOSPHATASE-RXN	EC-3.1.3.37
RXN0-5062	EC-6.5.1
PHOSPHORIBULOKINASE-RXN	EC-2.7.1.19
THIOREDOXIN-REDUCT-NADPH-RXN	EC-1.8.1.9
1.1.1.39-RXN	EC-1.1.1.38	EC-1.1.1.39
ENOYL-ACP-REDUCT-NADPH-RXN	EC-1.3.1.39	EC-1.3.1.104	EC-2.3.1.86	EC-2.3.1.85	EC-1.3.1.10
12-OXOPHYTODIENOATE-REDUCTASE-RXN	EC-1.3.1.42
RXN3O-5293	EC-2.3.1.86	EC-1.3.1.10
3PGAREARR-RXN	EC-5.4.2.12
RXN-9538	EC-1.3.1.10	EC-1.3.1.39	EC-2.3.1.85	EC-2.3.1.86
6PFRUCTPHOS-RXN	EC-2.7.1.11
PEPSYNTH-RXN	EC-2.7.9.2
3.1.11.6-RXN	EC-3.1.11.6
F16BDEPHOS-RXN	EC-3.1.3.11
RXN-9542	EC-1.3.1.10	EC-2.3.1.86	EC-1.3.1.39	EC-2.3.1.85
RIBULP3EPIM-RXN	EC-5.1.3.1
RXN-15513	EC-5.4.2.11
PHENYLALANINE--TRNA-LIGASE-RXN	EC-6.1.1.20
RXN-9534	EC-1.3.1.10	EC-1.3.1.39	EC-2.3.1.85	EC-2.3.1.86
ACETALD-DEHYDROG-RXN	EC-1.2.1.10
RXN-9521	EC-1.3.1.10	EC-1.3.1.39	EC-2.3.1.85	EC-2.3.1.86
ALCOHOL-DEHYDROG-RXN	EC-1.1.1.1
RXN-16992	
L-LACTATE-DEHYDROGENASE-RXN	EC-1.1.1.27
RXN-9526	EC-1.3.1.10	EC-1.3.1.39	EC-2.3.1.85	EC-2.3.1.86
RXN-15509	
RXN-15510	
3.7.1.9-RXN	EC-3.7.1.9
RXN-15511	
RXN-9530	EC-1.3.1.10	EC-1.3.1.39	EC-2.3.1.85	EC-2.3.1.86
RXN-15512	
RXN-9515	EC-1.3.1.10	EC-1.3.1.39	EC-2.3.1.85	EC-2.3.1.86
2.3.2.13-RXN	EC-2.3.2.13
RXN-19236	EC-2.3.2.13
THRESYN-RXN	EC-4.2.3.1
RXN0-20	EC-2.5.1
RXN-12195	EC-3.6.1.15
PYRUVATEORTHOPHOSPHATE-DIKINASE-RXN	EC-2.7.9.1
DEOXYCYTIDINE-KINASE-RXN	EC-2.7.1.74
1.5.1.20-RXN	EC-1.5.1.20
GCVMULTI-RXN	
KANAMYCIN-KINASE-RXN	EC-2.7.1.95
3.4.13.9-RXN	EC-3.4.13.9
PHOSACETYLTRANS-RXN	EC-2.3.1.8
FPPSYN-RXN	EC-2.5.1.10
PRPPSYN-RXN	EC-2.7.6.1
RXN-16650	EC-2.4.1.129
SULFATE-ADENYLYLTRANS-RXN	EC-2.7.7.4
AMINOCYL-TRNA-HYDROLASE-RXN	EC-3.1.1.29
RXN-12720	EC-2.7.7.4
THI-P-KIN-RXN	EC-2.7.4.16
RXNQT-4191	EC-3.1.3.100
RXN-16637	EC-3.1.1.29
ADENPRIBOSYLTRAN-RXN	EC-2.4.2.7
RXN0-7230	EC-1.1.99.1
RXN-14270	EC-2.4.2.7
RXN0-5259	
RXN-17758	
1.10.2.2-RXN	EC-1.10.2.2
RXN66-569	EC-1.14.16.1
CHD-RXN	EC-1.1.99.1
TRANS-RXN-218	
RXN-14206	EC-1.14.16.1
RXN-15829	EC-1.10.2.2
RXN-15831	
BETA-LACTAMASE-RXN	EC-3.5.2.6
RXN-5901	EC-1.1.1.36
RXN-13907	EC-1.14.16.1
RXN0-2441	EC-2.1.1.144
4-HYDROXYPHENYLPYRUVATE-DIOXYGENASE-RXN	EC-1.13.11.27
RXN-13279	EC-1.1.1.36
RXN-10815	EC-1.13.11.27
RXN-12560	EC-1.1.1.36
RXN0-6373	EC-1.1.5.2
MALEYLACETOACETATE-ISOMERASE-RXN	EC-5.2.1.2
GLYCERATE-DEHYDROGENASE-RXN	EC-1.1.1.29
NAG6PDEACET-RXN	EC-3.5.1.25
3.5.1.80-RXN	EC-3.5.1.25
RXN0-6372	
HYDROXYPYRUVATE-REDUCTASE-RXN	EC-1.1.1.81
TRANS-RXN0-237	
325-BISPHOSPHATE-NUCLEOTIDASE-RXN	EC-3.1.3.7
GSADENYLATION-RXN	EC-2.7.7.42
ARGINASE-RXN	EC-3.5.3.1
HOMSUCTRAN-RXN	EC-2.3.1.46
RXN-34	EC-3.5.3.1
THIAMIN-PYROPHOSPHOKINASE-RXN	EC-2.7.6.2
RXN0-2584	EC-3.2.2.27
ALLOPHANATE-HYDROLASE-RXN	EC-3.5.1.54
PHOSMANMUT-RXN	EC-5.4.2.8
2.5.1.19-RXN	EC-2.5.1.19
UGD-RXN	EC-1.1.1.22
GLYRIBONUCSYN-RXN	EC-6.3.4.13
GLUCONATE-5-DEHYDROGENASE-RXN	EC-1.1.1.69
TSA-REDUCT-RXN	EC-1.1.1.60
RXN0-3221	EC-3.4.24
RXN-12541	
RXN0-5289	EC-1.1.1
GLYOXIII-RXN	EC-4.2.1.130
NAD-SYNTH-NH3-RXN	EC-6.3.1.5
2.7.13.3-RXN	EC-2.7.13.3
GLYCINE--TRNA-LIGASE-RXN	EC-6.1.1.14
R4-RXN	EC-1.8.1
CHLORIDE-PEROXIDASE-RXN	EC-1.11.1.10
AMP-NUCLEOSID-RXN	EC-3.2.2.4
4OHBENZOATE-OCTAPRENYLTRANSFER-RXN	EC-2.5.1.39
RXN-14150	EC-5.3.1.30
MYO-INOSOSE-2-DEHYDRATASE-RXN	EC-4.2.1.44
RXN-14149	EC-3.7.1.22
5-DEHYDRO-2-DEOXYGLUCONOKINASE-RXN	EC-2.7.1.92
MYO-INOSITOL-2-DEHYDROGENASE-RXN	EC-1.1.1.18
3.2.1.17-RXN	EC-3.2.1.17
DIHYDRODIPICSYN-RXN	EC-4.3.3.7
RXN-17792	EC-1.3.8
RXN-17784	EC-1.3.8
GTPPYPHOSKIN-RXN	EC-2.7.6.5
RXN-17796	EC-1.3.8
GDPPYPHOSKIN-RXN	EC-2.7.6.5
RXN-17788	EC-1.3.8
RXN-17779	EC-1.3.8
HOLO-ACP-SYNTH-RXN	EC-2.7.8.7
ACYLCOADEHYDROG-RXN	EC-1.3.8
RXN-17783	EC-1.3.8
RXN-8351	EC-2.8.1.9
RXN-17775	EC-1.3.8
SUPEROX-DISMUT-RXN	EC-1.15.1.1
THIAZOLSYN2-RXN	EC-2.8.1.10
1.4.3.19-RXN	EC-1.4.3.19
PROTEIN-TYROSINE-PHOSPHATASE-RXN	EC-3.1.3.48
RXN-12614	
RXN-13329	
PHOSPHASERSYN-RXN	EC-2.7.8.8
RXN-8674	EC-1.4.3.19
PHOSPHASERDECARB-RXN	EC-4.1.1.65
RXN-17951	EC-1.4.3.19
LYSDECARBOX-RXN	EC-4.1.1.18
3.4.11.5-RXN	EC-3.4.11.5
CYSTEINE--TRNA-LIGASE-RXN	EC-6.1.1.16
RXN-8672	EC-1.4.3.19
ALARACECAT-RXN	EC-5.1.1.1
RXN-8673	EC-1.4.3.19
RXN0-4261	
RXN1A0-6303	EC-1.3.1
PYRIMSYN1-RXN	EC-4.1.99.17
MALONYL-COA-ACP-TRANSACYL-RXN	EC-2.3.1.86	EC-2.3.1.85	EC-2.3.1.39
RXN-17155	EC-2.3.1
ADCLY-RXN	EC-4.1.3.38
CHORISMATE-SYNTHASE-RXN	EC-4.2.3.5
GUANYL-KIN-RXN	EC-2.7.4.8
RXN-13179	EC-1.1.1.262
R-2-METHYLMALATE-DEHYDRATASE-RXN	EC-4.2.1.35
GALACTODEHYDROG-RXN	EC-1.1.1.48
RXN-7744	
RXN-18694	EC-2.8.1.12
RXN-8342	EC-2.8.1.12
HEMEOSYN-RXN	EC-2.5.1.141
PHOSPHAGLYPSYN-RXN	EC-2.7.8.5
RXN0-2621	EC-3.1.25
HOMOSERKIN-RXN	EC-2.7.1.39
RXN-4821	EC-3.5.99
GSHTRAN-RXN	EC-2.5.1.18
3.1.26.4-RXN	EC-3.1.26.4
DIAMINOPIMEPIM-RXN	EC-5.1.1.7
GST-RXN	EC-2.5.1.18
RXN-11453	EC-1.2.98.1
R231-RXN	EC-4.1.1.79
RXN-15680	EC-2.5.1.18
RXN-19626	EC-2.5.1.18
RXN-13908	EC-4.2.1.96
RXN-7908	EC-4.2.1.96
RXN-19600	EC-2.5.1.18
RXNQT-4363	EC-2.5.1.18
RXN-11586	EC-2.1.1.192
RXN0-2661	EC-3.2.2.31
RXN-11663	EC-2.5.1.18
UROGENIIISYN-RXN	EC-4.2.1.75
OHMETHYLBILANESYN-RXN	EC-2.5.1.61
RXN-19610	EC-2.5.1.18
ACETATEKIN-RXN	EC-2.7.2.1
RXN-18405	EC-2.5.1.18
RXN-19573	EC-2.5.1.18
PHOSPHOKETOLASE-RXN	EC-4.1.2.9
RXN-13673	EC-2.5.1.18
RXN-14963	EC-1.3.5.4
RXN-19601	EC-2.5.1.18
RXN-14962	
R601-RXN	EC-1.3.5.4
RXN-18407	EC-2.5.1.18
RXN-14971	EC-1.3.5.1
SUCCINATE-DEHYDROGENASE-UBIQUINONE-RXN	EC-1.3.5.1
RXN-15378	EC-1.3.5.1
RXN-19609	
RXN-14451	
RXN-19611	EC-2.5.1.18
RXN-19612	
SUCCINATE-DEHYDROGENASE-UBIQUINONE6-RXN	EC-1.3.5.1
RXN0-5245	
KDUD-RXN	EC-1.1.1.125
RXN0-1441	EC-3.6.1.53	EC-3.6.1.13
URUR-RXN	EC-3.5.3.26
AIRS-RXN	EC-6.3.3.1
POLYPHOSPHATE-KINASE-RXN	EC-2.7.4.1
EXOPOLYPHOSPHATASE-RXN	EC-3.6.1.11
GLYCPDIESTER-RXN	EC-3.1.4.46
2-KETO-ADIPATE-DEHYDROG-RXN	EC-1.2.1
RXN-14160	EC-3.1.4.46	EC-3.1.4.2
2.7.7.46-RXN	EC-2.7.7.46
1.8.4.8-RXN	EC-1.8.4.8
RXN-14073	EC-3.1.4.46
RXN-14136	EC-3.1.4.46
ADENYLATECYC-RXN	EC-4.6.1.1
ASPARAGHYD-RXN	EC-3.5.1.38	EC-3.5.1.1
3.1.13.5-RXN	EC-3.1.13.5
RXN0-6484	EC-3.1.13.5
RXN0-6483	EC-3.1.13.5
5.99.1.2-RXN	EC-5.99.1.2
ATPASE-RXN	EC-3.6.1.15	EC-3.6.1.3
PORPHOBILSYNTH-RXN	EC-4.2.1.24
R311-RXN	EC-3.5.1.4
RXNN-404	EC-3.5.1.4
AMIDASE-RXN	EC-3.5.1.4
RXN-14728	EC-3.5.1.4
RXN-17608	EC-3.5.1.4
4-CARBOXYMUCONOLACTONE-DECARBOXYLASE-RXN	EC-4.1.1.44
PYRAZIN-RXN	EC-3.5.1.4
GUANIDINOBUTANAMIDE-NH3-RXN	EC-3.5.1.4
CARBOXYLESTERASE-RXN	EC-3.1.1.1
RXN-14727	EC-3.5.1.4
RXN-12252	EC-3.1.1.1
RXN0-5234	EC-4.1.2
RIBOFLAVINSYNDEAM-RXN	EC-3.5.4.26
RXN-12575	EC-3.1.1.1
RIBOFLAVINSYNREDUC-RXN	EC-1.1.1.193
3.1.1.64-RXN	EC-3.1.1.1
25-DIOXOVALERATE-DEHYDROGENASE-RXN	EC-1.2.1.26
RXN-14056	
RXN-8775	EC-1.2.1
RXN-10767	EC-3.1.1.1
RIBOFLAVIN-SYN-RXN	EC-2.5.1.9
LUMAZINESYN-RXN	EC-2.5.1.78
RETINYL-PALMITATE-ESTERASE-RXN	EC-3.1.1.1
NAD-KIN-RXN	EC-2.7.1.23
RXNQT-4366	EC-3.1.1.1
GLYCEROL-1-PHOSPHATASE-RXN	EC-3.1.3.21
RXN-13031	EC-3.5.1
RXN-14964	EC-3.1.3.21
RXN-10711	EC-3.1.1.1
RXN-14965	EC-3.1.3.21
HOMOCYSMET-RXN	EC-2.1.1.14
RXN-11791	EC-2.7.8.31
RXN-18399	EC-1.14.18
RXN-18428	
RXN-18430	
RXN-18431	
5-NUCLEOTID-RXN	EC-3.1.3.5
RXN-14025	EC-3.1.3.5
RXN0-5131	EC-2.7.7
RXN-7607	EC-3.1.3.99	EC-3.1.3.5
ACETYLGLUTKIN-RXN	EC-2.7.2.8
AMP-DEPHOSPHORYLATION-RXN	EC-3.1.3.5
CATAL-RXN	EC-1.11.1.6	EC-1.11.1.21
RXN-5841	EC-3.1.3.5
RXN-15005	EC-2.7.2.8
RXN-14189	EC-1.11.1.6
RXN-14227	EC-3.1.3.5
RXN66-1	EC-1.11.1.6
URITRANS-RXN	EC-2.7.7.59
RXN-14026	EC-3.1.3.91	EC-3.1.3.5
RXN-7609	EC-3.1.3.5
ADOMET-DMK-METHYLTRANSFER-RXN	EC-2.1.1.163
XMPXAN-RXN	EC-3.1.3.5
1.8.4.12-RXN	EC-1.8.4.12
RXN0-6575	EC-4.3.99.3
4.2.3.12-RXN	EC-4.2.3.12
RXN-12093	EC-6.3.4.20
GLUC1PURIDYLTRANS-RXN	EC-2.7.7.64	EC-2.7.7.9
P-PANTOCYSDECARB-RXN	EC-4.1.1.36
P-PANTOCYSLIG-RXN	EC-6.3.2.5
ADENOSYLHOMOCYSTEINE-NUCLEOSIDASE-RXN	EC-3.2.2.9
RXN-17886	
RXN0-6565	EC-1.3.1.1
DIHYDROURACIL-DEHYDROGENASE-NAD+-RXN	EC-1.3.1.1
1.5.5.1-RXN	EC-1.5.5.1
RXN-14286	EC-2.4.1.1
UREASE-RXN	EC-3.5.1.5
RXN66-550	EC-1.5.5.1
RXN-14284	EC-2.4.1.1
ADENYLOSUCCINATE-SYNTHASE-RXN	EC-6.3.4.4
RXN66-548	
RXN-12171	EC-2.4.1.1
1.5.5.1-RXN-YEAST	EC-1.5.5.1
2.7.7.13-RXN	EC-2.7.7.13
RXN-14285	EC-2.4.1.1
RXN-9025	EC-2.4.1.1
NAD-SYNTH-GLN-RXN	EC-6.3.5.1
RXN0-5184	EC-2.4.1.1
RXN0-5182	EC-2.4.1.1
3.1.26.3-RXN	EC-3.1.26.3
OROPRIBTRANS-RXN	EC-2.4.2.10
RXN-12392	EC-2.4.1.1
PRPPAMIDOTRANS-RXN	EC-2.4.2.14
RXN-1826	EC-2.4.1.1
PGLUCISOM-RXN	EC-5.3.1.9
GLYCOPHOSPHORYL-RXN	EC-2.4.1.1
RXN-7904	EC-6.2.1.3
GLYMALTOPHOSPHORYL-RXN	EC-2.4.1.1
RXN0-7238	EC-6.2.1.3
RXN-14353	EC-2.4.1.1
GLYCOGEN-BRANCH-RXN	EC-2.4.1.18
RXN-14372	EC-2.4.1.18
2.3.1.179-RXN	EC-2.3.1.179
TRANS-RXN0-623	EC-6.2.1.3
RXN-7669	EC-2.4.1.18
RXN0-7239	EC-6.2.1.3
RXN-7710	EC-2.4.1.18
RXN0-7248	EC-6.2.1.3
RXN-14371	EC-2.4.1.18
RXN-18777	EC-2.4.1.18
RXN-13614	EC-6.2.1.3
GLUC1PADENYLTRANS-RXN	EC-2.7.7.27
RXN-8391	EC-2.3.1.179
ACYLCOASYN-RXN	EC-6.2.1.3
PHOSPHOGLUCMUT-RXN	EC-5.4.2.2
RXN-16997	
RXN-16998	
RXN-16415	EC-6.2.1.3
GDPKIN-RXN	EC-2.7.4.6
RXN66-483	EC-6.2.1.3
CDPKIN-RXN	EC-2.7.4.6
RXN-16402	EC-6.2.1.3
DUDPKIN-RXN	EC-2.7.4.6
RXN-14120	EC-2.7.4.6
RXN66-469	EC-6.2.1.3
RXN-16401	EC-6.2.1.3
UDPKIN-RXN	EC-2.7.4.6
DGDPKIN-RXN	EC-2.7.4.6
RXN66-484	EC-6.2.1.3
DTDPKIN-RXN	EC-2.7.4.6
CREATININASE-RXN	EC-3.5.2.10
RXN-16389	EC-6.2.1.3
NUCLEOSIDE-DIP-KIN-RXN	EC-2.7.4.6
RXN-14228	EC-2.7.4.6
RXN66-480	EC-6.2.1.3
3-HYDROXYISOBUTYRATE-DEHYDROGENASE-RXN	EC-1.1.1.31
DADPKIN-RXN	EC-2.7.4.6
ORNDECARBOX-RXN	EC-4.1.1.17
RXN-12184	EC-6.2.1.3
DCDPKIN-RXN	EC-2.7.4.6
RXN-17889	EC-2.3.2.8
RXN-16380	EC-6.2.1.3
RXN-17888	EC-2.3.2.8
RXN-17891	EC-2.3.2.8
RXN-16393	EC-6.2.1.3
ARGINYLTRANSFERASE-RXN	EC-2.3.2.8
RXN-17890	EC-2.3.2.8
R223-RXN	EC-6.2.1.3
GLYOHMETRANS-RXN	EC-2.1.2.1
RXN66-477	EC-6.2.1.3
INORGPYROPHOSPHAT-RXN	EC-3.6.1.1
RXN-12978	EC-6.2.1.3
2.3.1.180-RXN	EC-2.3.1.180
RXN-13290	EC-6.2.1.3
RXN-9644	EC-6.2.1.3
RXN-16418	EC-6.2.1.3
HOMOGENTISATE-12-DIOXYGENASE-RXN	EC-1.13.11.5
4.2.2.3-RXN	EC-4.2.2.3
RXN-9623	EC-6.2.1.3
RXN-8668	EC-1.8.4.11
LINOLENOYL-RXN	EC-6.2.1.3
3.6.3.17-RXN	EC-3.6.3.17
3.2.1.40-RXN	EC-3.2.1.40
1.11.1.12-RXN	EC-1.11.1.12
TRANS-RXN-320	EC-3.6.3.17
RXN-16250	EC-3.2.1.40
RXN-9673	EC-6.2.1.3
MERCURY-II-REDUCTASE-RXN	EC-1.16.1.1
RXN-16248	EC-3.2.1.40
RXN-13032	EC-2.3.1.200
RXN-17887	
R122-RXN	EC-3.5.4.43
PYRIDOXAL-4-DEHYDROGENASE-RXN	EC-1.1.1.107
QUERCITRINASE-RXN	EC-3.2.1.40	EC-3.2.1.66
RXN-17880	
GALACTONDEHYDRAT-RXN	EC-4.2.1.140	EC-4.2.1.6
RXN-16249	EC-3.2.1.40
1.11.1.15-RXN	EC-1.11.1.15
HYDROXYLAMINE-REDUCTASE-NADH-RXN	EC-1.7.1.10
RXN0-5468	EC-1.11.1.15
4.2.1.41-RXN	EC-4.2.1.41
RXN-14574	EC-3.2.1.40	EC-3.2.1.190
RXN-2961	EC-4.4.1.22
PABASYN-RXN	EC-2.6.1.85
RXN-7593	
RXN-13788	EC-3.2.1.40
QOR-RXN	EC-1.6.5.5
PROTOHEMEFERROCHELAT-RXN	EC-4.99.1.1
PROLINE-RACEMASE-RXN	EC-5.1.1.4
3.4.24.40-RXN	EC-3.4.24.40
RXN-15910	EC-3.2.1.20
GLUTAMATESYN-RXN	EC-1.4.1.13
RXN-14282	EC-3.2.1.20
GLUTDEHYD-RXN	EC-1.4.1.4
RXN0-5183	EC-3.2.1.20
KDPGALDOL-RXN	EC-4.1.2.55	EC-4.1.2.14
RXN-14283	EC-3.2.1.20
4OH2OXOGLUTARALDOL-RXN	EC-4.1.3.16
GLUCISOM-RXN	EC-5.3.1.5
MALTODEXGLUCOSID-RXN	EC-3.2.1.20
XYLISOM-RXN	EC-5.3.1.5
RXN-14281	EC-3.2.1.20
RXN-14381	
LYSINE--TRNA-LIGASE-RXN	EC-6.1.1.6
4.2.99.18-RXN	EC-4.2.99.18
RXN-14384	EC-2.8.1
RXN-12088	EC-3.2.1.22
RXN-14386	EC-2.8.1
AMINOBUTDEHYDROG-RXN	EC-1.2.1.19
RXN-17830	EC-3.2.1.22
RXN0-5116	EC-2.7.1.16
RXN-14387	
TRANSALDOL-RXN	EC-2.2.1.2
RXN-14388	
RIBULOKIN-RXN	EC-2.7.1.16
ALPHAGALACTOSID-RXN	EC-3.2.1.22
2.1.1.131-RXN	EC-2.1.1.131
RXN-14389	
RXN-11502	EC-3.2.1
RXN-14390	
2.1.1.130-RXN	EC-2.1.1.130
RXN-14391	EC-3.6.4
RXN-17754	
5.4.1.2-RXN	EC-5.4.99.61
RXN66-470	EC-1.14.11
RXN-11501	EC-3.2.1.22
1.14.11.18-RXN	EC-1.14.11.18
RXN-14129	EC-3.5.4.1
N-ACETYLGLUCOSAMINE-KINASE-RXN	EC-2.7.1.59
RXN-14197	EC-3.5.4.1
1-PHOSPHATIDYLINOSITOL-KINASE-RXN	EC-2.7.1.67
DETHIOBIOTIN-SYN-RXN	EC-6.3.3.3
CYTDEAM-RXN	EC-3.5.4.1
7KAPSYN-RXN	EC-2.3.1.47
3-OXOACYL-ACP-REDUCT-RXN	EC-2.3.1.86	EC-2.3.1.85	EC-1.1.1.100
RXN-11484	EC-2.3.1.47
RXN-16616	EC-1.1.1.100
RXN-9524	EC-2.3.1.86	EC-2.3.1.85	EC-1.1.1.100
2.8.1.6-RXN	EC-2.8.1.6
RXN-17472	
RXN-9528	EC-2.3.1.86	EC-2.3.1.85	EC-1.1.1.100
