{
    "com_prodtargets": [
        "M_VAL_c",
        "M_GLN_c",
        "M_L__45__ASPARTATE_c"
    ],
    "com_scope": [
        "M_OXALO__45__SUCCINATE_c",
        "M_FE__43__3_c",
        "M_SUC__45__COA_c",
        "M_4__45__CYTIDINE__45__5__45__DIPHOSPHO__45__2__45__C_c",
        "M_ADENINE_c",
        "M_FUM_c",
        "M_3__45__DEOXY__45__D__45__ARABINO__45__HEPTULOSONATE__45__7__45__P_c",
        "M_CAMP_c",
        "M_RIBOSE__45__5P_c",
        "M_PHOSPHORIBULOSYL__45__FORMIMINO__45__AICAR__45__P_c",
        "M_G3P_c",
        "M_2__45__PG_c",
        "M_CIS__45__ACONITATE_c",
        "M_2__45__AMINOACRYLATE_c",
        "M_GDP__45__TP_c",
        "M_CPD__45__302_c",
        "M_L__45__GLUTAMATE__45__5__45__P_c",
        "M_CPD__45__7000_c",
        "M_METHYL__45__MALONYL__45__COA_c",
        "M_ADENYLOSUCC_c",
        "M_CPD__45__15317_c",
        "M_XYLULOSE__45__5__45__PHOSPHATE_c",
        "M_ISOBUTYRYL__45__COA_c",
        "M_PHOSPHO__45__ENOL__45__PYRUVATE_c",
        "M_CPD__45__14443_c",
        "M_NMNH_c",
        "M_L__45__ASPARTATE_c",
        "M_MAL_c",
        "M_D__45__GLUCOSAMINE__45__6__45__P_c",
        "M_CGMP_c",
        "M_GLN_c",
        "M_GUANINE_c",
        "M_3__45__P__45__HYDROXYPYRUVATE_c",
        "M_ERYTHROSE__45__4P_c",
        "M_PROPIONYL__45__COA_c",
        "M_5__45__P__45__BETA__45__D__45__RIBOSYL__45__AMINE_c",
        "M_H2CO3_c",
        "M_DIHYDROXY__45__ACETONE__45__PHOSPHATE_c",
        "M_2__45__KETO__45__ISOVALERATE_c",
        "M_PRPP_c",
        "M_IMINOASPARTATE_c",
        "M_ACET_c",
        "M_GMP_c",
        "M_FRUCTOSE__45__6P_c",
        "M_D__45__METHYL__45__MALONYL__45__COA_c",
        "M_PROTON_e",
        "M_CDP_c",
        "M_HCO3_c",
        "M_RIBULOSE__45__5P_c",
        "M_D__45__6__45__P__45__GLUCONO__45__DELTA__45__LACTONE_c",
        "M_D__45__glucopyranose__45__6__45__phosphate_c",
        "M_GLUCOSAMINE__45__1P_c",
        "M_DIHYDROXY__45__BUTANONE__45__P_c",
        "M_L__45__GLUTAMATE_GAMMA__45__SEMIALDEHYDE_c",
        "M_D__45__ALA__45__D__45__ALA_c",
        "M_UMP_c",
        "M_QUINOLINATE_c",
        "M_DEHYDROQUINATE_c",
        "M_CPD__45__15979_c",
        "M_GAP_c",
        "M_3__45__DEHYDRO__45__SHIKIMATE_c",
        "M_NICOTINAMIDE_NUCLEOTIDE_c",
        "M_D__45__SEDOHEPTULOSE__45__7__45__P_c",
        "M_DIHYDROXYACETONE_c",
        "M_L__45__ASPARTATE__45__SEMIALDEHYDE_c",
        "M_L__45__BETA__45__ASPARTYL__45__P_c",
        "M_GLYOX_c",
        "M_CMP_c",
        "M_PHOSPHORIBOSYL__45__FORMIMINO__45__AICAR__45__P_c",
        "M_OXALACETIC_ACID_c",
        "M_FRUCTOSE__45__16__45__DIPHOSPHATE_c",
        "M_VAL_c",
        "M_GUANOSINE__45__5DP__45__3DP_c",
        "M_2__45__KETOGLUTARATE_c",
        "M_NICOTINATE_NUCLEOTIDE_c",
        "M_DEOXYXYLULOSE__45__5P_c",
        "M_CTP_c",
        "M_PYRUVATE_c",
        "M_CPD__45__13357_c",
        "M_PHOSPHORIBOSYL__45__AMP_c",
        "M_DEAMIDO__45__NAD_c",
        "M_2C__45__METH__45__D__45__ERYTHRITOL__45__CYCLODIPHOSPHATE_c",
        "M_APS_c",
        "M_FORMATE_c",
        "M_2__45__C__45__METHYL__45__D__45__ERYTHRITOL__45__4__45__PHOSPHATE_c",
        "M_PHOSPHORIBOSYL__45__ATP_c",
        "M_2__45__PHOSPHO__45__4__45__CYTIDINE__45__5__45__DIPHOSPHO__45__2__45__C__45__MET_c",
        "M_UTP_c",
        "M_3__45__P__45__SERINE_c",
        "M_D__45__GLT_c",
        "M_2__45__ACETO__45__LACTATE_c",
        "M_D__45__ALANINE_c",
        "M_MANNOSE__45__1P_c",
        "M_DPG_c",
        "M_S__45__CITRAMALATE_c",
        "M_THREO__45__DS__45__ISO__45__CITRATE_c"
    ],
    "com_unprodtargets": [
        "M_PHE_c",
        "M_INDOLE_ACETATE_AUXIN_c",
        "M_ILE_c",
        "M_PYRIDOXINE_c",
        "M_PRO_c",
        "M_HIS_c",
        "M_ASN_c",
        "M_THIAMINE__45__PYROPHOSPHATE_c",
        "M_THF_c",
        "M_RIBOFLAVIN_c",
        "M_CPD__45__693_c",
        "M_BIOTIN_c",
        "M_MET_c",
        "M_ADENOSYLCOBALAMIN_c",
        "M_ARG_c",
        "M_LYS_c",
        "M_NIACINE_c",
        "M_TRP_c",
        "M_CPD__45__110_c",
        "M_PANTOTHENATE_c",
        "M_GLY_c",
        "M_ETHYLENE__45__CMPD_c",
        "M_LEU_c",
        "M_CYS_c",
        "M_THR_c",
        "M_CPD__45__734_c",
        "M_TYR_c"
    ],
    "targets_producers": {
        "M_GLN_c": [
            "Root1497"
        ],
        "M_L__45__ASPARTATE_c": [
            "Root1497"
        ],
        "M_VAL_c": [
            "Root1497"
        ]
    }
}