# 
#
# Authors:
#
# Please see the license agreement regarding the use of and distribution of this file.
# The format of this file is defined at http://bioinformatics.ai.sri.com/ptools/flatfile-format.html .
#
# Species: Phenylobacterium sp. Root1277
# Database: NIL
# Version: 1.0
# File Name: rnas.dat
# Date and time generated: December 3, 2018, 10:47:19
#
# Attributes:
#    UNIQUE-ID
#    TYPES
#    COMMON-NAME
#    ABBREV-NAME
#    ACCESSION-1
#    ANTICODON
#    AROMATIC-RINGS
#    ATOM-CHARGES
#    ATOM-ISOTOPES
#    CHEMICAL-FORMULA
#    CITATIONS
#    CODONS
#    COFACTORS-OF
#    COMMENT
#    COMPONENT-OF
#    CREDITS
#    DATA-SOURCE
#    DBLINKS
#    DOCUMENTATION
#    FAST-EQUILIBRATING-INSTANCES?
#    GENE
#    GO-TERMS
#    HAS-NO-STRUCTURE?
#    HIDE-SLOT?
#    IN-MIXTURE
#    INCHI
#    INCHI-KEY
#    INSTANCE-NAME-TEMPLATE
#    INTERNALS-OF-GROUP
#    LOCATIONS
#    MEMBER-SORT-FN
#    MODIFIED-FORM
#    MOLECULAR-WEIGHT
#    MONOISOTOPIC-MW
#    N+1-NAME
#    N-1-NAME
#    N-NAME
#    NON-STANDARD-INCHI
#    PATHOLOGIC-NAME-MATCHER-EVIDENCE
#    PATHOLOGIC-PWY-EVIDENCE
#    PKA1
#    PKA2
#    PKA3
#    RADICAL-ATOMS
#    REGULATED-BY
#    REGULATES
#    SMILES
#    SPECIES
#    SPLICE-FORM-INTRONS
#    STRUCTURE-BONDS
#    SUPERATOMS
#    SYNONYMS
#    SYSTEMATIC-NAME
#    TAUTOMERS
#    UNMODIFIED-FORM
#
UNIQUE-ID - charged-ASC73_15680-tRNA
TYPES - Charged-ALA-tRNAs
COMMON-NAME - charged tRNA-Ala
NON-STANDARD-INCHI - InChI=1S/C3H7NO/c1-3(4)2-5/h2-3H,4H2,1H3/p+1/t3-/m0/s1
UNMODIFIED-FORM - ASC73_15680-tRNA
//
UNIQUE-ID - ASC73_06070-tRNA
TYPES - GLT-tRNAs
COMMON-NAME - tRNA-Glu
ANTICODON - TTC
GENE - ASC73_06070
MODIFIED-FORM - charged-ASC73_06070-tRNA
NON-STANDARD-INCHI - InChI=1S/C15H29O19P3/c16-7-1-27-10(13(7)19)4-31-36(23,24)34-15-9(18)3-29-12(15)6-32-37(25,26)33-14-8(17)2-28-11(14)5-30-35(20,21)22/h7-19H,1-6H2,(H,23,24)(H,25,26)(H2,20,21,22)/p-3/t7-,8-,9-,10+,11+,12+,13-,14-,15-/m0/s1
//
UNIQUE-ID - charged-ASC73_15025-tRNA
TYPES - Charged-ALA-tRNAs
COMMON-NAME - charged tRNA-Ala
NON-STANDARD-INCHI - InChI=1S/C3H7NO/c1-3(4)2-5/h2-3H,4H2,1H3/p+1/t3-/m0/s1
UNMODIFIED-FORM - ASC73_15025-tRNA
//
UNIQUE-ID - charged-ASC73_12900-tRNA
TYPES - Charged-ALA-tRNAs
COMMON-NAME - charged tRNA-Ala
NON-STANDARD-INCHI - InChI=1S/C3H7NO/c1-3(4)2-5/h2-3H,4H2,1H3/p+1/t3-/m0/s1
UNMODIFIED-FORM - ASC73_12900-tRNA
//
UNIQUE-ID - ASC73_06090-tRNA
TYPES - PRO-tRNAs
COMMON-NAME - tRNA-Pro
ANTICODON - TGG
GENE - ASC73_06090
MODIFIED-FORM - charged-ASC73_06090-tRNA
NON-STANDARD-INCHI - InChI=1S/C15H29O19P3/c16-7-1-27-10(13(7)19)4-31-36(23,24)34-15-9(18)3-29-12(15)6-32-37(25,26)33-14-8(17)2-28-11(14)5-30-35(20,21)22/h7-19H,1-6H2,(H,23,24)(H,25,26)(H2,20,21,22)/p-3/t7-,8-,9-,10+,11+,12+,13-,14-,15-/m0/s1
//
UNIQUE-ID - charged-ASC73_08280-tRNA
TYPES - Charged-VAL-tRNAs
COMMON-NAME - charged tRNA-Val
NON-STANDARD-INCHI - InChI=1S/C5H11NO/c1-4(2)5(6)3-7/h3-5H,6H2,1-2H3/p+1/t5-/m1/s1
UNMODIFIED-FORM - ASC73_08280-tRNA
//
UNIQUE-ID - charged-ASC73_05220-tRNA
TYPES - Charged-VAL-tRNAs
COMMON-NAME - charged tRNA-Val
NON-STANDARD-INCHI - InChI=1S/C5H11NO/c1-4(2)5(6)3-7/h3-5H,6H2,1-2H3/p+1/t5-/m1/s1
UNMODIFIED-FORM - ASC73_05220-tRNA
//
UNIQUE-ID - ASC73_06100-tRNA
TYPES - ARG-tRNAs
COMMON-NAME - tRNA-Arg
ANTICODON - TCT
GENE - ASC73_06100
MODIFIED-FORM - charged-ASC73_06100-tRNA
NON-STANDARD-INCHI - InChI=1S/C15H29O19P3/c16-7-1-27-10(13(7)19)4-31-36(23,24)34-15-9(18)3-29-12(15)6-32-37(25,26)33-14-8(17)2-28-11(14)5-30-35(20,21)22/h7-19H,1-6H2,(H,23,24)(H,25,26)(H2,20,21,22)/p-3/t7-,8-,9-,10+,11+,12+,13-,14-,15-/m0/s1
//
UNIQUE-ID - charged-ASC73_13090-tRNA
TYPES - Charged-VAL-tRNAs
COMMON-NAME - charged tRNA-Val
NON-STANDARD-INCHI - InChI=1S/C5H11NO/c1-4(2)5(6)3-7/h3-5H,6H2,1-2H3/p+1/t5-/m1/s1
UNMODIFIED-FORM - ASC73_13090-tRNA
//
UNIQUE-ID - charged-ASC73_09680-tRNA
TYPES - Charged-LEU-tRNAs
COMMON-NAME - charged tRNA-Leu
NON-STANDARD-INCHI - InChI=1S/C6H13NO/c1-5(2)3-6(7)4-8/h4-6H,3,7H2,1-2H3/p+1
UNMODIFIED-FORM - ASC73_09680-tRNA
//
UNIQUE-ID - ASC73_06370-tRNA
TYPES - SER-tRNAs
COMMON-NAME - tRNA-Ser
ANTICODON - TGA
GENE - ASC73_06370
MODIFIED-FORM - charged-ASC73_06370-tRNA
NON-STANDARD-INCHI - InChI=1S/C15H29O19P3/c16-7-1-27-10(13(7)19)4-31-36(23,24)34-15-9(18)3-29-12(15)6-32-37(25,26)33-14-8(17)2-28-11(14)5-30-35(20,21)22/h7-19H,1-6H2,(H,23,24)(H,25,26)(H2,20,21,22)/p-3/t7-,8-,9-,10+,11+,12+,13-,14-,15-/m0/s1
//
UNIQUE-ID - charged-ASC73_15580-tRNA
TYPES - Charged-LEU-tRNAs
COMMON-NAME - charged tRNA-Leu
NON-STANDARD-INCHI - InChI=1S/C6H13NO/c1-5(2)3-6(7)4-8/h4-6H,3,7H2,1-2H3/p+1
UNMODIFIED-FORM - ASC73_15580-tRNA
//
UNIQUE-ID - charged-ASC73_05140-tRNA
TYPES - Charged-LEU-tRNAs
COMMON-NAME - charged tRNA-Leu
NON-STANDARD-INCHI - InChI=1S/C6H13NO/c1-5(2)3-6(7)4-8/h4-6H,3,7H2,1-2H3/p+1
UNMODIFIED-FORM - ASC73_05140-tRNA
//
UNIQUE-ID - ASC73_07235-tRNA
TYPES - LYS-tRNAs
COMMON-NAME - tRNA-Lys
ANTICODON - TTT
GENE - ASC73_07235
MODIFIED-FORM - charged-ASC73_07235-tRNA
NON-STANDARD-INCHI - InChI=1S/C15H29O19P3/c16-7-1-27-10(13(7)19)4-31-36(23,24)34-15-9(18)3-29-12(15)6-32-37(25,26)33-14-8(17)2-28-11(14)5-30-35(20,21)22/h7-19H,1-6H2,(H,23,24)(H,25,26)(H2,20,21,22)/p-3/t7-,8-,9-,10+,11+,12+,13-,14-,15-/m0/s1
//
UNIQUE-ID - charged-ASC73_04280-tRNA
TYPES - Charged-LEU-tRNAs
COMMON-NAME - charged tRNA-Leu
NON-STANDARD-INCHI - InChI=1S/C6H13NO/c1-5(2)3-6(7)4-8/h4-6H,3,7H2,1-2H3/p+1
UNMODIFIED-FORM - ASC73_04280-tRNA
//
UNIQUE-ID - charged-ASC73_01135-tRNA
TYPES - Charged-LEU-tRNAs
COMMON-NAME - charged tRNA-Leu
NON-STANDARD-INCHI - InChI=1S/C6H13NO/c1-5(2)3-6(7)4-8/h4-6H,3,7H2,1-2H3/p+1
UNMODIFIED-FORM - ASC73_01135-tRNA
//
UNIQUE-ID - ASC73_07725-tRNA
TYPES - CYS-tRNAs
COMMON-NAME - tRNA-Cys
ANTICODON - GCA
GENE - ASC73_07725
MODIFIED-FORM - charged-ASC73_07725-tRNA
NON-STANDARD-INCHI - InChI=1S/C15H29O19P3/c16-7-1-27-10(13(7)19)4-31-36(23,24)34-15-9(18)3-29-12(15)6-32-37(25,26)33-14-8(17)2-28-11(14)5-30-35(20,21)22/h7-19H,1-6H2,(H,23,24)(H,25,26)(H2,20,21,22)/p-3/t7-,8-,9-,10+,11+,12+,13-,14-,15-/m0/s1
//
UNIQUE-ID - charged-ASC73_14980-tRNA
TYPES - Charged-THR-tRNAs
COMMON-NAME - charged tRNA-Thr
NON-STANDARD-INCHI - InChI=1S/C4H9NO2/c1-3(7)4(5)2-6/h2-4,7H,5H2,1H3/p+1/t3-,4+/m0/s1
UNMODIFIED-FORM - ASC73_14980-tRNA
//
UNIQUE-ID - charged-ASC73_19295-tRNA
TYPES - Charged-THR-tRNAs
COMMON-NAME - charged tRNA-Thr
NON-STANDARD-INCHI - InChI=1S/C4H9NO2/c1-3(7)4(5)2-6/h2-4,7H,5H2,1H3/p+1/t3-,4+/m0/s1
UNMODIFIED-FORM - ASC73_19295-tRNA
//
UNIQUE-ID - ASC73_07855-tRNA
TYPES - ASN-tRNAs
COMMON-NAME - tRNA-Asn
ANTICODON - GTT
GENE - ASC73_07855
MODIFIED-FORM - charged-ASC73_07855-tRNA
NON-STANDARD-INCHI - InChI=1S/C15H29O19P3/c16-7-1-27-10(13(7)19)4-31-36(23,24)34-15-9(18)3-29-12(15)6-32-37(25,26)33-14-8(17)2-28-11(14)5-30-35(20,21)22/h7-19H,1-6H2,(H,23,24)(H,25,26)(H2,20,21,22)/p-3/t7-,8-,9-,10+,11+,12+,13-,14-,15-/m0/s1
//
UNIQUE-ID - charged-ASC73_18815-tRNA
TYPES - Charged-THR-tRNAs
COMMON-NAME - charged tRNA-Thr
NON-STANDARD-INCHI - InChI=1S/C4H9NO2/c1-3(7)4(5)2-6/h2-4,7H,5H2,1H3/p+1/t3-,4+/m0/s1
UNMODIFIED-FORM - ASC73_18815-tRNA
//
UNIQUE-ID - charged-ASC73_06370-tRNA
TYPES - Charged-SER-tRNAs
COMMON-NAME - charged tRNA-Ser
NON-STANDARD-INCHI - InChI=1S/C3H7NO2/c4-3(1-5)2-6/h1,3,6H,2,4H2/p+1/t3-/m1/s1
UNMODIFIED-FORM - ASC73_06370-tRNA
//
UNIQUE-ID - ASC73_08280-tRNA
TYPES - VAL-tRNAs
COMMON-NAME - tRNA-Val
ANTICODON - CAC
GENE - ASC73_08280
MODIFIED-FORM - charged-ASC73_08280-tRNA
NON-STANDARD-INCHI - InChI=1S/C15H29O19P3/c16-7-1-27-10(13(7)19)4-31-36(23,24)34-15-9(18)3-29-12(15)6-32-37(25,26)33-14-8(17)2-28-11(14)5-30-35(20,21)22/h7-19H,1-6H2,(H,23,24)(H,25,26)(H2,20,21,22)/p-3/t7-,8-,9-,10+,11+,12+,13-,14-,15-/m0/s1
//
UNIQUE-ID - charged-ASC73_04640-tRNA
TYPES - Charged-SER-tRNAs
COMMON-NAME - charged tRNA-Ser
NON-STANDARD-INCHI - InChI=1S/C3H7NO2/c4-3(1-5)2-6/h1,3,6H,2,4H2/p+1/t3-/m1/s1
UNMODIFIED-FORM - ASC73_04640-tRNA
//
UNIQUE-ID - charged-ASC73_13785-tRNA
TYPES - Charged-SER-tRNAs
COMMON-NAME - charged tRNA-Ser
NON-STANDARD-INCHI - InChI=1S/C3H7NO2/c4-3(1-5)2-6/h1,3,6H,2,4H2/p+1/t3-/m1/s1
UNMODIFIED-FORM - ASC73_13785-tRNA
//
UNIQUE-ID - ASC73_08645-tRNA
TYPES - LYS-tRNAs
COMMON-NAME - tRNA-Lys
ANTICODON - CTT
GENE - ASC73_08645
MODIFIED-FORM - charged-ASC73_08645-tRNA
NON-STANDARD-INCHI - InChI=1S/C15H29O19P3/c16-7-1-27-10(13(7)19)4-31-36(23,24)34-15-9(18)3-29-12(15)6-32-37(25,26)33-14-8(17)2-28-11(14)5-30-35(20,21)22/h7-19H,1-6H2,(H,23,24)(H,25,26)(H2,20,21,22)/p-3/t7-,8-,9-,10+,11+,12+,13-,14-,15-/m0/s1
//
UNIQUE-ID - charged-ASC73_02535-tRNA
TYPES - Charged-SER-tRNAs
COMMON-NAME - charged tRNA-Ser
NON-STANDARD-INCHI - InChI=1S/C3H7NO2/c4-3(1-5)2-6/h1,3,6H,2,4H2/p+1/t3-/m1/s1
UNMODIFIED-FORM - ASC73_02535-tRNA
//
UNIQUE-ID - charged-ASC73_07855-tRNA
TYPES - Charged-ASX-tRNAs
COMMON-NAME - charged tRNA-Asn
NON-STANDARD-INCHI - InChI=1S/C15H29O19P3/c16-7-1-27-10(13(7)19)4-31-36(23,24)34-15-9(18)3-29-12(15)6-32-37(25,26)33-14-8(17)2-28-11(14)5-30-35(20,21)22/h7-19H,1-6H2,(H,23,24)(H,25,26)(H2,20,21,22)/p-3/t7-,8-,9-,10+,11+,12+,13-,14-,15-/m0/s1
UNMODIFIED-FORM - ASC73_07855-tRNA
//
UNIQUE-ID - ASC73_09345-RNA
TYPES - Misc-RNAs
COMMON-NAME - bacterial RNase P
COMMENT - Derived by automated computational analysis using gene prediction method: cmsearch.
GENE - ASC73_09345
//
UNIQUE-ID - charged-ASC73_05295-tRNA
TYPES - Charged-ASX-tRNAs
COMMON-NAME - charged tRNA-Asp
NON-STANDARD-INCHI - InChI=1S/C15H29O19P3/c16-7-1-27-10(13(7)19)4-31-36(23,24)34-15-9(18)3-29-12(15)6-32-37(25,26)33-14-8(17)2-28-11(14)5-30-35(20,21)22/h7-19H,1-6H2,(H,23,24)(H,25,26)(H2,20,21,22)/p-3/t7-,8-,9-,10+,11+,12+,13-,14-,15-/m0/s1
UNMODIFIED-FORM - ASC73_05295-tRNA
//
UNIQUE-ID - ASC73_20595-tRNA
TYPES - TRP-tRNAs
COMMON-NAME - tRNA-Trp
ANTICODON - CCA
GENE - ASC73_20595
MODIFIED-FORM - charged-ASC73_20595-tRNA
NON-STANDARD-INCHI - InChI=1S/C15H29O19P3/c16-7-1-27-10(13(7)19)4-31-36(23,24)34-15-9(18)3-29-12(15)6-32-37(25,26)33-14-8(17)2-28-11(14)5-30-35(20,21)22/h7-19H,1-6H2,(H,23,24)(H,25,26)(H2,20,21,22)/p-3/t7-,8-,9-,10+,11+,12+,13-,14-,15-/m0/s1
//
UNIQUE-ID - charged-ASC73_19380-tRNA
TYPES - Charged-TYR-tRNAs
COMMON-NAME - charged tRNA-Tyr
NON-STANDARD-INCHI - InChI=1S/C9H11NO2/c10-8(6-11)5-7-1-3-9(12)4-2-7/h1-4,6,8,12H,5,10H2/p+1/t8-/m0/s1
UNMODIFIED-FORM - ASC73_19380-tRNA
//
UNIQUE-ID - charged-ASC73_16760-tRNA
TYPES - Charged-MET-tRNAs
COMMON-NAME - charged tRNA-Met
NON-STANDARD-INCHI - InChI=1S/C5H11NOS/c1-8-3-2-5(6)4-7/h4-5H,2-3,6H2,1H3/p+1/t5-/m0/s1
UNMODIFIED-FORM - ASC73_16760-tRNA
//
UNIQUE-ID - ASC73_00660-tRNA
TYPES - GLN-tRNAs
COMMON-NAME - tRNA-Gln
ANTICODON - TTG
GENE - ASC73_00660
MODIFIED-FORM - charged-ASC73_00660-tRNA
NON-STANDARD-INCHI - InChI=1S/C15H29O19P3/c16-7-1-27-10(13(7)19)4-31-36(23,24)34-15-9(18)3-29-12(15)6-32-37(25,26)33-14-8(17)2-28-11(14)5-30-35(20,21)22/h7-19H,1-6H2,(H,23,24)(H,25,26)(H2,20,21,22)/p-3/t7-,8-,9-,10+,11+,12+,13-,14-,15-/m0/s1
//
UNIQUE-ID - charged-ASC73_18340-tRNA
TYPES - Charged-MET-tRNAs
COMMON-NAME - charged tRNA-Met
NON-STANDARD-INCHI - InChI=1S/C5H11NOS/c1-8-3-2-5(6)4-7/h4-5H,2-3,6H2,1H3/p+1/t5-/m0/s1
UNMODIFIED-FORM - ASC73_18340-tRNA
//
UNIQUE-ID - charged-ASC73_00920-tRNA
TYPES - Charged-MET-tRNAs
COMMON-NAME - charged tRNA-Met
NON-STANDARD-INCHI - InChI=1S/C5H11NOS/c1-8-3-2-5(6)4-7/h4-5H,2-3,6H2,1H3/p+1/t5-/m0/s1
UNMODIFIED-FORM - ASC73_00920-tRNA
//
UNIQUE-ID - ASC73_00665-tRNA
TYPES - PRO-tRNAs
COMMON-NAME - tRNA-Pro
ANTICODON - CGG
GENE - ASC73_00665
MODIFIED-FORM - charged-ASC73_00665-tRNA
NON-STANDARD-INCHI - InChI=1S/C15H29O19P3/c16-7-1-27-10(13(7)19)4-31-36(23,24)34-15-9(18)3-29-12(15)6-32-37(25,26)33-14-8(17)2-28-11(14)5-30-35(20,21)22/h7-19H,1-6H2,(H,23,24)(H,25,26)(H2,20,21,22)/p-3/t7-,8-,9-,10+,11+,12+,13-,14-,15-/m0/s1
//
UNIQUE-ID - charged-ASC73_12885-tRNA
TYPES - Charged-MET-tRNAs
COMMON-NAME - charged tRNA-Met
NON-STANDARD-INCHI - InChI=1S/C5H11NOS/c1-8-3-2-5(6)4-7/h4-5H,2-3,6H2,1H3/p+1/t5-/m0/s1
UNMODIFIED-FORM - ASC73_12885-tRNA
//
UNIQUE-ID - charged-ASC73_12880-tRNA
TYPES - Charged-MET-tRNAs
COMMON-NAME - charged tRNA-Met
NON-STANDARD-INCHI - InChI=1S/C5H11NOS/c1-8-3-2-5(6)4-7/h4-5H,2-3,6H2,1H3/p+1/t5-/m0/s1
UNMODIFIED-FORM - ASC73_12880-tRNA
//
UNIQUE-ID - ASC73_00920-tRNA
TYPES - MET-tRNAs
COMMON-NAME - tRNA-Met
ANTICODON - CAT
GENE - ASC73_00920
MODIFIED-FORM - charged-ASC73_00920-tRNA
NON-STANDARD-INCHI - InChI=1S/C15H29O19P3/c16-7-1-27-10(13(7)19)4-31-36(23,24)34-15-9(18)3-29-12(15)6-32-37(25,26)33-14-8(17)2-28-11(14)5-30-35(20,21)22/h7-19H,1-6H2,(H,23,24)(H,25,26)(H2,20,21,22)/p-3/t7-,8-,9-,10+,11+,12+,13-,14-,15-/m0/s1
//
UNIQUE-ID - charged-ASC73_14660-tRNA
TYPES - Charged-GLY-tRNAs
COMMON-NAME - charged tRNA-Gly
NON-STANDARD-INCHI - InChI=1S/C2H5NO/c3-1-2-4/h2H,1,3H2/p+1
UNMODIFIED-FORM - ASC73_14660-tRNA
//
UNIQUE-ID - charged-ASC73_19385-tRNA
TYPES - Charged-GLY-tRNAs
COMMON-NAME - charged tRNA-Gly
NON-STANDARD-INCHI - InChI=1S/C2H5NO/c3-1-2-4/h2H,1,3H2/p+1
UNMODIFIED-FORM - ASC73_19385-tRNA
//
UNIQUE-ID - ASC73_01135-tRNA
TYPES - LEU-tRNAs
COMMON-NAME - tRNA-Leu
ANTICODON - CAA
GENE - ASC73_01135
MODIFIED-FORM - charged-ASC73_01135-tRNA
NON-STANDARD-INCHI - InChI=1S/C15H29O19P3/c16-7-1-27-10(13(7)19)4-31-36(23,24)34-15-9(18)3-29-12(15)6-32-37(25,26)33-14-8(17)2-28-11(14)5-30-35(20,21)22/h7-19H,1-6H2,(H,23,24)(H,25,26)(H2,20,21,22)/p-3/t7-,8-,9-,10+,11+,12+,13-,14-,15-/m0/s1
//
UNIQUE-ID - charged-ASC73_11985-tRNA
TYPES - Charged-GLY-tRNAs
COMMON-NAME - charged tRNA-Gly
NON-STANDARD-INCHI - InChI=1S/C2H5NO/c3-1-2-4/h2H,1,3H2/p+1
UNMODIFIED-FORM - ASC73_11985-tRNA
//
UNIQUE-ID - charged-ASC73_12905-tRNA
TYPES - Charged-ILE-tRNAs
COMMON-NAME - charged tRNA-Ile
NON-STANDARD-INCHI - InChI=1S/C6H13NO/c1-3-5(2)6(7)4-8/h4-6H,3,7H2,1-2H3/p+1/t5-,6?/m0/s1
UNMODIFIED-FORM - ASC73_12905-tRNA
//
UNIQUE-ID - ASC73_02535-tRNA
TYPES - SER-tRNAs
COMMON-NAME - tRNA-Ser
ANTICODON - GGA
GENE - ASC73_02535
MODIFIED-FORM - charged-ASC73_02535-tRNA
NON-STANDARD-INCHI - InChI=1S/C15H29O19P3/c16-7-1-27-10(13(7)19)4-31-36(23,24)34-15-9(18)3-29-12(15)6-32-37(25,26)33-14-8(17)2-28-11(14)5-30-35(20,21)22/h7-19H,1-6H2,(H,23,24)(H,25,26)(H2,20,21,22)/p-3/t7-,8-,9-,10+,11+,12+,13-,14-,15-/m0/s1
//
UNIQUE-ID - charged-ASC73_06100-tRNA
TYPES - Charged-ARG-tRNAs
COMMON-NAME - charged tRNA-Arg
NON-STANDARD-INCHI - InChI=1S/C6H14N4O/c7-5(4-11)2-1-3-10-6(8)9/h4-5H,1-3,7H2,(H4,8,9,10)/p+2
UNMODIFIED-FORM - ASC73_06100-tRNA
//
UNIQUE-ID - charged-ASC73_13905-tRNA
TYPES - Charged-ARG-tRNAs
COMMON-NAME - charged tRNA-Arg
NON-STANDARD-INCHI - InChI=1S/C6H14N4O/c7-5(4-11)2-1-3-10-6(8)9/h4-5H,1-3,7H2,(H4,8,9,10)/p+2
UNMODIFIED-FORM - ASC73_13905-tRNA
//
UNIQUE-ID - charged-ASC73_12295-tRNA
TYPES - Charged-ARG-tRNAs
COMMON-NAME - charged tRNA-Arg
NON-STANDARD-INCHI - InChI=1S/C6H14N4O/c7-5(4-11)2-1-3-10-6(8)9/h4-5H,1-3,7H2,(H4,8,9,10)/p+2
UNMODIFIED-FORM - ASC73_12295-tRNA
//
UNIQUE-ID - charged-ASC73_11435-tRNA
TYPES - Charged-ARG-tRNAs
COMMON-NAME - charged tRNA-Arg
NON-STANDARD-INCHI - InChI=1S/C6H14N4O/c7-5(4-11)2-1-3-10-6(8)9/h4-5H,1-3,7H2,(H4,8,9,10)/p+2
UNMODIFIED-FORM - ASC73_11435-tRNA
//
UNIQUE-ID - charged-ASC73_18900-tRNA
TYPES - Charged-HIS-tRNAs
COMMON-NAME - charged tRNA-His
NON-STANDARD-INCHI - InChI=1S/C6H9N3O/c7-5(3-10)1-6-2-8-4-9-6/h2-5H,1,7H2,(H,8,9)/p+1
UNMODIFIED-FORM - ASC73_18900-tRNA
//
UNIQUE-ID - charged-ASC73_07725-tRNA
TYPES - Charged-CYS-tRNAs
COMMON-NAME - charged tRNA-Cys
NON-STANDARD-INCHI - InChI=1S/C3H7NOS/c4-3(1-5)2-6/h1,3,6H,2,4H2/p+1
UNMODIFIED-FORM - ASC73_07725-tRNA
//
UNIQUE-ID - charged-ASC73_08645-tRNA
TYPES - Charged-LYS-tRNAs
COMMON-NAME - charged tRNA-Lys
NON-STANDARD-INCHI - InChI=1S/C6H14N2O/c7-4-2-1-3-6(8)5-9/h5-6H,1-4,7-8H2/p+2
UNMODIFIED-FORM - ASC73_08645-tRNA
//
UNIQUE-ID - charged-ASC73_07235-tRNA
TYPES - Charged-LYS-tRNAs
COMMON-NAME - charged tRNA-Lys
NON-STANDARD-INCHI - InChI=1S/C6H14N2O/c7-4-2-1-3-6(8)5-9/h5-6H,1-4,7-8H2/p+2
UNMODIFIED-FORM - ASC73_07235-tRNA
//
UNIQUE-ID - charged-ASC73_06090-tRNA
TYPES - Charged-PRO-tRNAs
COMMON-NAME - charged tRNA-Pro
NON-STANDARD-INCHI - InChI=1S/C5H9NO/c7-4-5-2-1-3-6-5/h4-6H,1-3H2/p+1/t5-/m0/s1
UNMODIFIED-FORM - ASC73_06090-tRNA
//
UNIQUE-ID - charged-ASC73_05985-tRNA
TYPES - Charged-PRO-tRNAs
COMMON-NAME - charged tRNA-Pro
NON-STANDARD-INCHI - InChI=1S/C5H9NO/c7-4-5-2-1-3-6-5/h4-6H,1-3H2/p+1/t5-/m0/s1
UNMODIFIED-FORM - ASC73_05985-tRNA
//
UNIQUE-ID - charged-ASC73_00665-tRNA
TYPES - Charged-PRO-tRNAs
COMMON-NAME - charged tRNA-Pro
NON-STANDARD-INCHI - InChI=1S/C5H9NO/c7-4-5-2-1-3-6-5/h4-6H,1-3H2/p+1/t5-/m0/s1
UNMODIFIED-FORM - ASC73_00665-tRNA
//
UNIQUE-ID - charged-ASC73_06070-tRNA
TYPES - Charged-GLX-tRNAs
COMMON-NAME - charged tRNA-Glu
NON-STANDARD-INCHI - InChI=1S/C15H29O19P3/c16-7-1-27-10(13(7)19)4-31-36(23,24)34-15-9(18)3-29-12(15)6-32-37(25,26)33-14-8(17)2-28-11(14)5-30-35(20,21)22/h7-19H,1-6H2,(H,23,24)(H,25,26)(H2,20,21,22)/p-3/t7-,8-,9-,10+,11+,12+,13-,14-,15-/m0/s1
UNMODIFIED-FORM - ASC73_06070-tRNA
//
UNIQUE-ID - charged-ASC73_00660-tRNA
TYPES - Charged-GLX-tRNAs
COMMON-NAME - charged tRNA-Gln
NON-STANDARD-INCHI - InChI=1S/C15H29O19P3/c16-7-1-27-10(13(7)19)4-31-36(23,24)34-15-9(18)3-29-12(15)6-32-37(25,26)33-14-8(17)2-28-11(14)5-30-35(20,21)22/h7-19H,1-6H2,(H,23,24)(H,25,26)(H2,20,21,22)/p-3/t7-,8-,9-,10+,11+,12+,13-,14-,15-/m0/s1
UNMODIFIED-FORM - ASC73_00660-tRNA
//
UNIQUE-ID - charged-ASC73_20595-tRNA
TYPES - Charged-TRP-tRNAs
COMMON-NAME - charged tRNA-Trp
NON-STANDARD-INCHI - InChI=1S/C11H12N2O/c12-9(7-14)5-8-6-13-11-4-2-1-3-10(8)11/h1-4,6-7,9,13H,5,12H2/p+1/t9-/m0/s1
UNMODIFIED-FORM - ASC73_20595-tRNA
//
UNIQUE-ID - ASC73_18340-tRNA
TYPES - MET-tRNAs
COMMON-NAME - tRNA-Met
ANTICODON - CAT
GENE - ASC73_18340
MODIFIED-FORM - charged-ASC73_18340-tRNA
NON-STANDARD-INCHI - InChI=1S/C15H29O19P3/c16-7-1-27-10(13(7)19)4-31-36(23,24)34-15-9(18)3-29-12(15)6-32-37(25,26)33-14-8(17)2-28-11(14)5-30-35(20,21)22/h7-19H,1-6H2,(H,23,24)(H,25,26)(H2,20,21,22)/p-3/t7-,8-,9-,10+,11+,12+,13-,14-,15-/m0/s1
//
UNIQUE-ID - ASC73_18815-tRNA
TYPES - THR-tRNAs
COMMON-NAME - tRNA-Thr
ANTICODON - GGT
GENE - ASC73_18815
MODIFIED-FORM - charged-ASC73_18815-tRNA
NON-STANDARD-INCHI - InChI=1S/C15H29O19P3/c16-7-1-27-10(13(7)19)4-31-36(23,24)34-15-9(18)3-29-12(15)6-32-37(25,26)33-14-8(17)2-28-11(14)5-30-35(20,21)22/h7-19H,1-6H2,(H,23,24)(H,25,26)(H2,20,21,22)/p-3/t7-,8-,9-,10+,11+,12+,13-,14-,15-/m0/s1
//
UNIQUE-ID - ASC73_18870-tRNA
TYPES - PHE-tRNAs
COMMON-NAME - tRNA-Phe
ANTICODON - GAA
GENE - ASC73_18870
MODIFIED-FORM - charged-ASC73_18870-tRNA
NON-STANDARD-INCHI - InChI=1S/C15H29O19P3/c16-7-1-27-10(13(7)19)4-31-36(23,24)34-15-9(18)3-29-12(15)6-32-37(25,26)33-14-8(17)2-28-11(14)5-30-35(20,21)22/h7-19H,1-6H2,(H,23,24)(H,25,26)(H2,20,21,22)/p-3/t7-,8-,9-,10+,11+,12+,13-,14-,15-/m0/s1
//
UNIQUE-ID - ASC73_18900-tRNA
TYPES - HIS-tRNAs
COMMON-NAME - tRNA-His
ANTICODON - GTG
GENE - ASC73_18900
MODIFIED-FORM - charged-ASC73_18900-tRNA
NON-STANDARD-INCHI - InChI=1S/C15H29O19P3/c16-7-1-27-10(13(7)19)4-31-36(23,24)34-15-9(18)3-29-12(15)6-32-37(25,26)33-14-8(17)2-28-11(14)5-30-35(20,21)22/h7-19H,1-6H2,(H,23,24)(H,25,26)(H2,20,21,22)/p-3/t7-,8-,9-,10+,11+,12+,13-,14-,15-/m0/s1
//
UNIQUE-ID - ASC73_19295-tRNA
TYPES - THR-tRNAs
COMMON-NAME - tRNA-Thr
ANTICODON - TGT
GENE - ASC73_19295
MODIFIED-FORM - charged-ASC73_19295-tRNA
NON-STANDARD-INCHI - InChI=1S/C15H29O19P3/c16-7-1-27-10(13(7)19)4-31-36(23,24)34-15-9(18)3-29-12(15)6-32-37(25,26)33-14-8(17)2-28-11(14)5-30-35(20,21)22/h7-19H,1-6H2,(H,23,24)(H,25,26)(H2,20,21,22)/p-3/t7-,8-,9-,10+,11+,12+,13-,14-,15-/m0/s1
//
UNIQUE-ID - ASC73_19380-tRNA
TYPES - TYR-tRNAs
COMMON-NAME - tRNA-Tyr
ANTICODON - GTA
GENE - ASC73_19380
MODIFIED-FORM - charged-ASC73_19380-tRNA
NON-STANDARD-INCHI - InChI=1S/C15H29O19P3/c16-7-1-27-10(13(7)19)4-31-36(23,24)34-15-9(18)3-29-12(15)6-32-37(25,26)33-14-8(17)2-28-11(14)5-30-35(20,21)22/h7-19H,1-6H2,(H,23,24)(H,25,26)(H2,20,21,22)/p-3/t7-,8-,9-,10+,11+,12+,13-,14-,15-/m0/s1
//
UNIQUE-ID - ASC73_19385-tRNA
TYPES - GLY-tRNAs
COMMON-NAME - tRNA-Gly
ANTICODON - TCC
GENE - ASC73_19385
MODIFIED-FORM - charged-ASC73_19385-tRNA
NON-STANDARD-INCHI - InChI=1S/C15H29O19P3/c16-7-1-27-10(13(7)19)4-31-36(23,24)34-15-9(18)3-29-12(15)6-32-37(25,26)33-14-8(17)2-28-11(14)5-30-35(20,21)22/h7-19H,1-6H2,(H,23,24)(H,25,26)(H2,20,21,22)/p-3/t7-,8-,9-,10+,11+,12+,13-,14-,15-/m0/s1
//
UNIQUE-ID - ASC73_16760-tRNA
TYPES - MET-tRNAs
COMMON-NAME - tRNA-Met
ANTICODON - CAT
GENE - ASC73_16760
MODIFIED-FORM - charged-ASC73_16760-tRNA
NON-STANDARD-INCHI - InChI=1S/C15H29O19P3/c16-7-1-27-10(13(7)19)4-31-36(23,24)34-15-9(18)3-29-12(15)6-32-37(25,26)33-14-8(17)2-28-11(14)5-30-35(20,21)22/h7-19H,1-6H2,(H,23,24)(H,25,26)(H2,20,21,22)/p-3/t7-,8-,9-,10+,11+,12+,13-,14-,15-/m0/s1
//
UNIQUE-ID - ASC73_13905-tRNA
TYPES - ARG-tRNAs
COMMON-NAME - tRNA-Arg
ANTICODON - CCG
GENE - ASC73_13905
MODIFIED-FORM - charged-ASC73_13905-tRNA
NON-STANDARD-INCHI - InChI=1S/C15H29O19P3/c16-7-1-27-10(13(7)19)4-31-36(23,24)34-15-9(18)3-29-12(15)6-32-37(25,26)33-14-8(17)2-28-11(14)5-30-35(20,21)22/h7-19H,1-6H2,(H,23,24)(H,25,26)(H2,20,21,22)/p-3/t7-,8-,9-,10+,11+,12+,13-,14-,15-/m0/s1
//
UNIQUE-ID - ASC73_14660-tRNA
TYPES - GLY-tRNAs
COMMON-NAME - tRNA-Gly
ANTICODON - GCC
GENE - ASC73_14660
MODIFIED-FORM - charged-ASC73_14660-tRNA
NON-STANDARD-INCHI - InChI=1S/C15H29O19P3/c16-7-1-27-10(13(7)19)4-31-36(23,24)34-15-9(18)3-29-12(15)6-32-37(25,26)33-14-8(17)2-28-11(14)5-30-35(20,21)22/h7-19H,1-6H2,(H,23,24)(H,25,26)(H2,20,21,22)/p-3/t7-,8-,9-,10+,11+,12+,13-,14-,15-/m0/s1
//
UNIQUE-ID - ASC73_14980-tRNA
TYPES - THR-tRNAs
COMMON-NAME - tRNA-Thr
ANTICODON - CGT
GENE - ASC73_14980
MODIFIED-FORM - charged-ASC73_14980-tRNA
NON-STANDARD-INCHI - InChI=1S/C15H29O19P3/c16-7-1-27-10(13(7)19)4-31-36(23,24)34-15-9(18)3-29-12(15)6-32-37(25,26)33-14-8(17)2-28-11(14)5-30-35(20,21)22/h7-19H,1-6H2,(H,23,24)(H,25,26)(H2,20,21,22)/p-3/t7-,8-,9-,10+,11+,12+,13-,14-,15-/m0/s1
//
UNIQUE-ID - ASC73_15025-tRNA
TYPES - ALA-tRNAs
COMMON-NAME - tRNA-Ala
ANTICODON - CGC
GENE - ASC73_15025
MODIFIED-FORM - charged-ASC73_15025-tRNA
NON-STANDARD-INCHI - InChI=1S/C15H29O19P3/c16-7-1-27-10(13(7)19)4-31-36(23,24)34-15-9(18)3-29-12(15)6-32-37(25,26)33-14-8(17)2-28-11(14)5-30-35(20,21)22/h7-19H,1-6H2,(H,23,24)(H,25,26)(H2,20,21,22)/p-3/t7-,8-,9-,10+,11+,12+,13-,14-,15-/m0/s1
//
UNIQUE-ID - ASC73_15580-tRNA
TYPES - LEU-tRNAs
COMMON-NAME - tRNA-Leu
ANTICODON - CAG
GENE - ASC73_15580
MODIFIED-FORM - charged-ASC73_15580-tRNA
NON-STANDARD-INCHI - InChI=1S/C15H29O19P3/c16-7-1-27-10(13(7)19)4-31-36(23,24)34-15-9(18)3-29-12(15)6-32-37(25,26)33-14-8(17)2-28-11(14)5-30-35(20,21)22/h7-19H,1-6H2,(H,23,24)(H,25,26)(H2,20,21,22)/p-3/t7-,8-,9-,10+,11+,12+,13-,14-,15-/m0/s1
//
UNIQUE-ID - ASC73_15680-tRNA
TYPES - ALA-tRNAs
COMMON-NAME - tRNA-Ala
ANTICODON - GGC
GENE - ASC73_15680
MODIFIED-FORM - charged-ASC73_15680-tRNA
NON-STANDARD-INCHI - InChI=1S/C15H29O19P3/c16-7-1-27-10(13(7)19)4-31-36(23,24)34-15-9(18)3-29-12(15)6-32-37(25,26)33-14-8(17)2-28-11(14)5-30-35(20,21)22/h7-19H,1-6H2,(H,23,24)(H,25,26)(H2,20,21,22)/p-3/t7-,8-,9-,10+,11+,12+,13-,14-,15-/m0/s1
//
UNIQUE-ID - ASC73_09680-tRNA
TYPES - LEU-tRNAs
COMMON-NAME - tRNA-Leu
ANTICODON - TAA
GENE - ASC73_09680
MODIFIED-FORM - charged-ASC73_09680-tRNA
NON-STANDARD-INCHI - InChI=1S/C15H29O19P3/c16-7-1-27-10(13(7)19)4-31-36(23,24)34-15-9(18)3-29-12(15)6-32-37(25,26)33-14-8(17)2-28-11(14)5-30-35(20,21)22/h7-19H,1-6H2,(H,23,24)(H,25,26)(H2,20,21,22)/p-3/t7-,8-,9-,10+,11+,12+,13-,14-,15-/m0/s1
//
UNIQUE-ID - ASC73_11435-tRNA
TYPES - ARG-tRNAs
COMMON-NAME - tRNA-Arg
ANTICODON - CCT
GENE - ASC73_11435
MODIFIED-FORM - charged-ASC73_11435-tRNA
NON-STANDARD-INCHI - InChI=1S/C15H29O19P3/c16-7-1-27-10(13(7)19)4-31-36(23,24)34-15-9(18)3-29-12(15)6-32-37(25,26)33-14-8(17)2-28-11(14)5-30-35(20,21)22/h7-19H,1-6H2,(H,23,24)(H,25,26)(H2,20,21,22)/p-3/t7-,8-,9-,10+,11+,12+,13-,14-,15-/m0/s1
//
UNIQUE-ID - ASC73_11985-tRNA
TYPES - GLY-tRNAs
COMMON-NAME - tRNA-Gly
ANTICODON - CCC
GENE - ASC73_11985
MODIFIED-FORM - charged-ASC73_11985-tRNA
NON-STANDARD-INCHI - InChI=1S/C15H29O19P3/c16-7-1-27-10(13(7)19)4-31-36(23,24)34-15-9(18)3-29-12(15)6-32-37(25,26)33-14-8(17)2-28-11(14)5-30-35(20,21)22/h7-19H,1-6H2,(H,23,24)(H,25,26)(H2,20,21,22)/p-3/t7-,8-,9-,10+,11+,12+,13-,14-,15-/m0/s1
//
UNIQUE-ID - ASC73_12295-tRNA
TYPES - ARG-tRNAs
COMMON-NAME - tRNA-Arg
ANTICODON - ACG
GENE - ASC73_12295
MODIFIED-FORM - charged-ASC73_12295-tRNA
NON-STANDARD-INCHI - InChI=1S/C15H29O19P3/c16-7-1-27-10(13(7)19)4-31-36(23,24)34-15-9(18)3-29-12(15)6-32-37(25,26)33-14-8(17)2-28-11(14)5-30-35(20,21)22/h7-19H,1-6H2,(H,23,24)(H,25,26)(H2,20,21,22)/p-3/t7-,8-,9-,10+,11+,12+,13-,14-,15-/m0/s1
//
UNIQUE-ID - ASC73_12880-tRNA
TYPES - MET-tRNAs
COMMON-NAME - tRNA-Met
ANTICODON - CAT
GENE - ASC73_12880
MODIFIED-FORM - charged-ASC73_12880-tRNA
NON-STANDARD-INCHI - InChI=1S/C15H29O19P3/c16-7-1-27-10(13(7)19)4-31-36(23,24)34-15-9(18)3-29-12(15)6-32-37(25,26)33-14-8(17)2-28-11(14)5-30-35(20,21)22/h7-19H,1-6H2,(H,23,24)(H,25,26)(H2,20,21,22)/p-3/t7-,8-,9-,10+,11+,12+,13-,14-,15-/m0/s1
//
UNIQUE-ID - ASC73_12885-tRNA
TYPES - MET-tRNAs
COMMON-NAME - tRNA-Met
ANTICODON - CAT
GENE - ASC73_12885
MODIFIED-FORM - charged-ASC73_12885-tRNA
NON-STANDARD-INCHI - InChI=1S/C15H29O19P3/c16-7-1-27-10(13(7)19)4-31-36(23,24)34-15-9(18)3-29-12(15)6-32-37(25,26)33-14-8(17)2-28-11(14)5-30-35(20,21)22/h7-19H,1-6H2,(H,23,24)(H,25,26)(H2,20,21,22)/p-3/t7-,8-,9-,10+,11+,12+,13-,14-,15-/m0/s1
//
UNIQUE-ID - ASC73_12890-rRNA
TYPES - rRNAs
COMMON-NAME - 5S ribosomal RNA
COMMENT - Derived by automated computational analysis using gene prediction method: cmsearch.
GENE - ASC73_12890
NON-STANDARD-INCHI - InChI=1S/C15H29O19P3/c16-7-1-27-10(13(7)19)4-31-36(23,24)34-15-9(18)3-29-12(15)6-32-37(25,26)33-14-8(17)2-28-11(14)5-30-35(20,21)22/h7-19H,1-6H2,(H,23,24)(H,25,26)(H2,20,21,22)/p-3/t7-,8-,9-,10+,11+,12+,13-,14-,15-/m0/s1
//
UNIQUE-ID - ASC73_12895-rRNA
TYPES - rRNAs
COMMON-NAME - 23S ribosomal RNA
GENE - ASC73_12895
NON-STANDARD-INCHI - InChI=1S/C15H29O19P3/c16-7-1-27-10(13(7)19)4-31-36(23,24)34-15-9(18)3-29-12(15)6-32-37(25,26)33-14-8(17)2-28-11(14)5-30-35(20,21)22/h7-19H,1-6H2,(H,23,24)(H,25,26)(H2,20,21,22)/p-3/t7-,8-,9-,10+,11+,12+,13-,14-,15-/m0/s1
//
UNIQUE-ID - ASC73_12900-tRNA
TYPES - ALA-tRNAs
COMMON-NAME - tRNA-Ala
ANTICODON - TGC
GENE - ASC73_12900
MODIFIED-FORM - charged-ASC73_12900-tRNA
NON-STANDARD-INCHI - InChI=1S/C15H29O19P3/c16-7-1-27-10(13(7)19)4-31-36(23,24)34-15-9(18)3-29-12(15)6-32-37(25,26)33-14-8(17)2-28-11(14)5-30-35(20,21)22/h7-19H,1-6H2,(H,23,24)(H,25,26)(H2,20,21,22)/p-3/t7-,8-,9-,10+,11+,12+,13-,14-,15-/m0/s1
//
UNIQUE-ID - ASC73_12905-tRNA
TYPES - ILE-tRNAs
COMMON-NAME - tRNA-Ile
ANTICODON - GAT
GENE - ASC73_12905
MODIFIED-FORM - charged-ASC73_12905-tRNA
NON-STANDARD-INCHI - InChI=1S/C15H29O19P3/c16-7-1-27-10(13(7)19)4-31-36(23,24)34-15-9(18)3-29-12(15)6-32-37(25,26)33-14-8(17)2-28-11(14)5-30-35(20,21)22/h7-19H,1-6H2,(H,23,24)(H,25,26)(H2,20,21,22)/p-3/t7-,8-,9-,10+,11+,12+,13-,14-,15-/m0/s1
//
UNIQUE-ID - ASC73_12910-rRNA
TYPES - rRNAs
COMMON-NAME - 16S ribosomal RNA
GENE - ASC73_12910
NON-STANDARD-INCHI - InChI=1S/C15H29O19P3/c16-7-1-27-10(13(7)19)4-31-36(23,24)34-15-9(18)3-29-12(15)6-32-37(25,26)33-14-8(17)2-28-11(14)5-30-35(20,21)22/h7-19H,1-6H2,(H,23,24)(H,25,26)(H2,20,21,22)/p-3/t7-,8-,9-,10+,11+,12+,13-,14-,15-/m0/s1
//
UNIQUE-ID - ASC73_13090-tRNA
TYPES - VAL-tRNAs
COMMON-NAME - tRNA-Val
ANTICODON - GAC
GENE - ASC73_13090
MODIFIED-FORM - charged-ASC73_13090-tRNA
NON-STANDARD-INCHI - InChI=1S/C15H29O19P3/c16-7-1-27-10(13(7)19)4-31-36(23,24)34-15-9(18)3-29-12(15)6-32-37(25,26)33-14-8(17)2-28-11(14)5-30-35(20,21)22/h7-19H,1-6H2,(H,23,24)(H,25,26)(H2,20,21,22)/p-3/t7-,8-,9-,10+,11+,12+,13-,14-,15-/m0/s1
//
UNIQUE-ID - ASC73_13785-tRNA
TYPES - SER-tRNAs
COMMON-NAME - tRNA-Ser
ANTICODON - CGA
GENE - ASC73_13785
MODIFIED-FORM - charged-ASC73_13785-tRNA
NON-STANDARD-INCHI - InChI=1S/C15H29O19P3/c16-7-1-27-10(13(7)19)4-31-36(23,24)34-15-9(18)3-29-12(15)6-32-37(25,26)33-14-8(17)2-28-11(14)5-30-35(20,21)22/h7-19H,1-6H2,(H,23,24)(H,25,26)(H2,20,21,22)/p-3/t7-,8-,9-,10+,11+,12+,13-,14-,15-/m0/s1
//
UNIQUE-ID - ASC73_04280-tRNA
TYPES - LEU-tRNAs
COMMON-NAME - tRNA-Leu
ANTICODON - GAG
GENE - ASC73_04280
MODIFIED-FORM - charged-ASC73_04280-tRNA
NON-STANDARD-INCHI - InChI=1S/C15H29O19P3/c16-7-1-27-10(13(7)19)4-31-36(23,24)34-15-9(18)3-29-12(15)6-32-37(25,26)33-14-8(17)2-28-11(14)5-30-35(20,21)22/h7-19H,1-6H2,(H,23,24)(H,25,26)(H2,20,21,22)/p-3/t7-,8-,9-,10+,11+,12+,13-,14-,15-/m0/s1
//
UNIQUE-ID - ASC73_04640-tRNA
TYPES - SER-tRNAs
COMMON-NAME - tRNA-Ser
ANTICODON - GCT
GENE - ASC73_04640
MODIFIED-FORM - charged-ASC73_04640-tRNA
NON-STANDARD-INCHI - InChI=1S/C15H29O19P3/c16-7-1-27-10(13(7)19)4-31-36(23,24)34-15-9(18)3-29-12(15)6-32-37(25,26)33-14-8(17)2-28-11(14)5-30-35(20,21)22/h7-19H,1-6H2,(H,23,24)(H,25,26)(H2,20,21,22)/p-3/t7-,8-,9-,10+,11+,12+,13-,14-,15-/m0/s1
//
UNIQUE-ID - ASC73_05140-tRNA
TYPES - LEU-tRNAs
COMMON-NAME - tRNA-Leu
ANTICODON - TAG
GENE - ASC73_05140
MODIFIED-FORM - charged-ASC73_05140-tRNA
NON-STANDARD-INCHI - InChI=1S/C15H29O19P3/c16-7-1-27-10(13(7)19)4-31-36(23,24)34-15-9(18)3-29-12(15)6-32-37(25,26)33-14-8(17)2-28-11(14)5-30-35(20,21)22/h7-19H,1-6H2,(H,23,24)(H,25,26)(H2,20,21,22)/p-3/t7-,8-,9-,10+,11+,12+,13-,14-,15-/m0/s1
//
UNIQUE-ID - ASC73_05220-tRNA
TYPES - VAL-tRNAs
COMMON-NAME - tRNA-Val
ANTICODON - TAC
GENE - ASC73_05220
MODIFIED-FORM - charged-ASC73_05220-tRNA
NON-STANDARD-INCHI - InChI=1S/C15H29O19P3/c16-7-1-27-10(13(7)19)4-31-36(23,24)34-15-9(18)3-29-12(15)6-32-37(25,26)33-14-8(17)2-28-11(14)5-30-35(20,21)22/h7-19H,1-6H2,(H,23,24)(H,25,26)(H2,20,21,22)/p-3/t7-,8-,9-,10+,11+,12+,13-,14-,15-/m0/s1
//
UNIQUE-ID - ASC73_05295-tRNA
TYPES - ASP-tRNAs
COMMON-NAME - tRNA-Asp
ANTICODON - GTC
GENE - ASC73_05295
MODIFIED-FORM - charged-ASC73_05295-tRNA
NON-STANDARD-INCHI - InChI=1S/C15H29O19P3/c16-7-1-27-10(13(7)19)4-31-36(23,24)34-15-9(18)3-29-12(15)6-32-37(25,26)33-14-8(17)2-28-11(14)5-30-35(20,21)22/h7-19H,1-6H2,(H,23,24)(H,25,26)(H2,20,21,22)/p-3/t7-,8-,9-,10+,11+,12+,13-,14-,15-/m0/s1
//
UNIQUE-ID - ASC73_05985-tRNA
TYPES - PRO-tRNAs
COMMON-NAME - tRNA-Pro
ANTICODON - GGG
GENE - ASC73_05985
MODIFIED-FORM - charged-ASC73_05985-tRNA
NON-STANDARD-INCHI - InChI=1S/C15H29O19P3/c16-7-1-27-10(13(7)19)4-31-36(23,24)34-15-9(18)3-29-12(15)6-32-37(25,26)33-14-8(17)2-28-11(14)5-30-35(20,21)22/h7-19H,1-6H2,(H,23,24)(H,25,26)(H2,20,21,22)/p-3/t7-,8-,9-,10+,11+,12+,13-,14-,15-/m0/s1
//
UNIQUE-ID - charged-ASC73_18870-tRNA
TYPES - Charged-PHE-tRNAs
COMMON-NAME - charged tRNA-Phe
NON-STANDARD-INCHI - InChI=1S/C9H11NO/c10-9(7-11)6-8-4-2-1-3-5-8/h1-5,7,9H,6,10H2/p+1/t9-/m0/s1
UNMODIFIED-FORM - ASC73_18870-tRNA
//
