{
    "com_prodtargets": [],
    "com_scope": [
        "M_FMNH2_c",
        "M_HYPOXANTHINE_c",
        "M_CTP_c",
        "M_CPD__45__317_c",
        "M_D__45__ALA__45__D__45__ALA_c",
        "M_PHOSPHO__45__ENOL__45__PYRUVATE_c",
        "M_ADENINE_c",
        "M_RIBOSE__45__1P_c",
        "M_MAL_c",
        "M_DIHYDRONEOPTERIN__45__P3_c",
        "M_APS_c",
        "M_AMMONIUM_c",
        "M_FMN_c",
        "M_2__45__PG_c",
        "M_FORMATE_c",
        "M_ADENOSINE_c",
        "M_CHLORITE_c",
        "M_GDP__45__TP_c",
        "M_UTP_c",
        "M_LIPOYL__45__AMP_c",
        "M_PROTON_e",
        "M_HCO3_c",
        "M_D__45__ALANINE_c",
        "M_GUANOSINE__45__5DP__45__3DP_c",
        "M_OXALACETIC_ACID_c",
        "M_INOSINE_c",
        "M_CPD__45__316_c",
        "M_L__45__ALPHA__45__ALANINE_c"
    ],
    "com_unprodtargets": [
        "M_PHE_c",
        "M_INDOLE_ACETATE_AUXIN_c",
        "M_ILE_c",
        "M_PRO_c",
        "M_HIS_c",
        "M_ASN_c",
        "M_L__45__ASPARTATE_c",
        "M_CPD__45__693_c",
        "M_GLN_c",
        "M_MET_c",
        "M_VAL_c",
        "M_ARG_c",
        "M_LYS_c",
        "M_TRP_c",
        "M_CPD__45__110_c",
        "M_GLY_c",
        "M_ETHYLENE__45__CMPD_c",
        "M_LEU_c",
        "M_CYS_c",
        "M_THR_c",
        "M_CPD__45__734_c",
        "M_TYR_c"
    ],
    "targets_producers": {}
}