{
    "com_prodtargets": [],
    "com_scope": [
        "M_D__45__ALA__45__D__45__ALA_c",
        "M_GLC__45__1__45__P_c",
        "M_CARBAMOYL__45__P_c",
        "M_THIAMINE__45__PYROPHOSPHATE_c",
        "M_4__45__P__45__PANTOTHENATE_c",
        "M_D__45__LACTATE_c",
        "M_CAMP_c",
        "M_CPD__45__15979_c",
        "M_GAP_c",
        "M_G3P_c",
        "M_2__45__PG_c",
        "M_AMMONIUM_c",
        "M_METHYL__45__GLYOXAL_c",
        "M_DIHYDROXYACETONE_c",
        "M_CPD__45__10791_c",
        "M_2__45__ALPHA__45__HYDROXYETHYL__45__THPP_c",
        "M_BIO__45__5__45__AMP_c",
        "M_FRUCTOSE__45__16__45__DIPHOSPHATE_c",
        "M_CARBAMATE_c",
        "M_ADP__45__D__45__GLUCOSE_c",
        "M_CPD__45__18238_c",
        "M_INOSINE_c",
        "M_CPD__45__316_c",
        "M_L__45__ALPHA__45__ALANINE_c",
        "M_XYLULOSE__45__5__45__PHOSPHATE_c",
        "M_DEOXYXYLULOSE__45__5P_c",
        "M_CTP_c",
        "M_4__45__AMINO__45__4__45__DEOXYCHORISMATE_c",
        "M_PHOSPHO__45__ENOL__45__PYRUVATE_c",
        "M_CPD__45__13357_c",
        "M_CPD__45__13469_c",
        "M_DIHYDROXY__45__ACETONE__45__PHOSPHATE_c",
        "M_3__45__P__45__HYDROXYPYRUVATE_c",
        "M_ERYTHROSE__45__4P_c",
        "M_2__45__KETO__45__ISOVALERATE_c",
        "M_APS_c",
        "M_ADENOSINE_c",
        "M_UTP_c",
        "M_FRUCTOSE__45__6P_c",
        "M_L__45__RIBULOSE__45__5__45__P_c",
        "M_PROTON_e",
        "M_2__45__ACETO__45__LACTATE_c",
        "M_HCO3_c",
        "M_D__45__ALANINE_c",
        "M_DPG_c",
        "M_PAPS_c",
        "M_D__45__glucopyranose__45__6__45__phosphate_c"
    ],
    "com_unprodtargets": [
        "M_PHE_c",
        "M_INDOLE_ACETATE_AUXIN_c",
        "M_ILE_c",
        "M_PRO_c",
        "M_HIS_c",
        "M_ASN_c",
        "M_L__45__ASPARTATE_c",
        "M_CPD__45__693_c",
        "M_GLN_c",
        "M_MET_c",
        "M_VAL_c",
        "M_ARG_c",
        "M_LYS_c",
        "M_TRP_c",
        "M_CPD__45__110_c",
        "M_GLY_c",
        "M_ETHYLENE__45__CMPD_c",
        "M_LEU_c",
        "M_CYS_c",
        "M_THR_c",
        "M_CPD__45__734_c",
        "M_TYR_c"
    ],
    "targets_producers": {}
}