{
    "com_prodtargets": [
        "M_GLN_c",
        "M_LEU_c",
        "M_VAL_c",
        "M_PRO_c",
        "M_L__45__ASPARTATE_c"
    ],
    "com_scope": [
        "M_CPD__45__650_c",
        "M_OXALO__45__SUCCINATE_c",
        "M_GLYCERATE_c",
        "M_CPD__45__654_c",
        "M_PRO_c",
        "M_CPD__45__15015_c",
        "M_SUC__45__COA_c",
        "M_DIMETHYLBENZIMIDAZOLE_c",
        "M_ADENINE_c",
        "M_FUM_c",
        "M_3__45__DEOXY__45__D__45__ARABINO__45__HEPTULOSONATE__45__7__45__P_c",
        "M_4__45__P__45__PANTOTHENATE_c",
        "M_CAMP_c",
        "M_OROTATE_c",
        "M_FMN_c",
        "M_CIS__45__ACONITATE_c",
        "M_2__45__PG_c",
        "M_GDP__45__TP_c",
        "M_CPD__45__302_c",
        "M_L__45__GLUTAMATE__45__5__45__P_c",
        "M_PTEROATE_c",
        "M_CPD__45__7000_c",
        "M_S__45__3__45__HYDROXYBUTANOYL__45__COA_c",
        "M_2__45__AMINOBENZOYL__45__COA_c",
        "M_CARBAMATE_c",
        "M_3S__45__CITRYL__45__COA_c",
        "M_METHYL__45__MALONYL__45__COA_c",
        "M_INOSINE_c",
        "M_TARTRONATE__45__S__45__ALD_c",
        "M_ADENYLOSUCC_c",
        "M_CPD__45__15317_c",
        "M_SHIKIMATE_c",
        "M_ACETONE_c",
        "M_CPD__45__618_c",
        "M_ISOBUTYRYL__45__COA_c",
        "M_CIT_c",
        "M_CPD__45__14443_c",
        "M_PHOSPHO__45__ENOL__45__PYRUVATE_c",
        "M_L__45__ASPARTATE_c",
        "M_MAL_c",
        "M_GLT_c",
        "M_CGMP_c",
        "M_GLN_c",
        "M_CPD__45__335_c",
        "M_4__45__HYDROXY__45__2__45__KETOVALERATE_c",
        "M_ERYTHROSE__45__4P_c",
        "M_2__45__KETO__45__ISOVALERATE_c",
        "M_ADENOSINE_c",
        "M_ACETALD_c",
        "M_IMINOASPARTATE_c",
        "M_ACET_c",
        "M_GLYCOLLATE_c",
        "M_N__45__ACETYL__45__GLUTAMYL__45__P_c",
        "M_HCO3_c",
        "M_ANTHRANILATE_c",
        "M_ACETOACETYL__45__COA_c",
        "M_2__45__D__45__THREO__45__HYDROXY__45__3__45__CARBOXY__45__ISOCAPROATE_c",
        "M_CPD__45__15999_c",
        "M_FMNH2_c",
        "M_ACETYL__45__COA_c",
        "M_L__45__GLUTAMATE_GAMMA__45__SEMIALDEHYDE_c",
        "M_5__45__KETO__45__4__45__DEOXY__45__D__45__GLUCARATE_c",
        "M_CARBAMOYL__45__P_c",
        "M_SUC_c",
        "M_L__45__ORNITHINE_c",
        "M_3__45__KETOBUTYRATE_c",
        "M_OH__45__PYR_c",
        "M_DEHYDROQUINATE_c",
        "M_CHORISMATE_c",
        "M_3__45__DEHYDRO__45__SHIKIMATE_c",
        "M_Glutamates_c",
        "M_AMMONIUM_c",
        "M_L__45__ASPARTATE__45__SEMIALDEHYDE_c",
        "M_L__45__BETA__45__ASPARTYL__45__P_c",
        "M_BIO__45__5__45__AMP_c",
        "M_CPD__45__7100_c",
        "M_GLYOX_c",
        "M_DI__45__H__45__OROTATE_c",
        "M_OXALACETIC_ACID_c",
        "M_SHIKIMATE__45__5P_c",
        "M_LEU_c",
        "M_VAL_c",
        "M_GUANOSINE__45__5DP__45__3DP_c",
        "M_CPD__45__18238_c",
        "M_2__45__KETOGLUTARATE_c",
        "M_CPD__45__316_c",
        "M_LIPOYL__45__AMP_c",
        "M_CTP_c",
        "M_4__45__AMINO__45__4__45__DEOXYCHORISMATE_c",
        "M_PREPHENATE_c",
        "M_N__45__ALPHA__45__ACETYLORNITHINE_c",
        "M_CPD__45__13357_c",
        "M_3__45__METHYL__45__CROTONYL__45__COA_c",
        "M_FADH2_c",
        "M_MALONYL__45__COA_c",
        "M_ACETYL__45__GLU_c",
        "M_CARBAMYUL__45__L__45__ASPARTATE_c",
        "M_2K__45__4CH3__45__PENTANOATE_c",
        "M_APS_c",
        "M_2__45__KETO__45__3__45__DEOXY__45__D__45__GLUCARATE_c",
        "M_OXOPENTENOATE_c",
        "M_CPD__45__9451_c",
        "M_UTP_c",
        "M_CPD__45__469_c",
        "M_3__45__ENOLPYRUVYL__45__SHIKIMATE__45__5P_c",
        "M_D__45__GLT_c",
        "M_2__45__ACETO__45__LACTATE_c",
        "M_ISOVALERYL__45__COA_c",
        "M_3__45__CARBOXY__45__3__45__HYDROXY__45__ISOCAPROATE_c",
        "M_TRANS__45__3__45__METHYL__45__GLUTACONYL__45__COA_c",
        "M_THREO__45__DS__45__ISO__45__CITRATE_c"
    ],
    "com_unprodtargets": [
        "M_PHE_c",
        "M_INDOLE_ACETATE_AUXIN_c",
        "M_ILE_c",
        "M_HIS_c",
        "M_ASN_c",
        "M_CPD__45__693_c",
        "M_MET_c",
        "M_ARG_c",
        "M_LYS_c",
        "M_TRP_c",
        "M_CPD__45__110_c",
        "M_GLY_c",
        "M_ETHYLENE__45__CMPD_c",
        "M_CYS_c",
        "M_THR_c",
        "M_CPD__45__734_c",
        "M_TYR_c"
    ],
    "targets_producers": {
        "M_GLN_c": [
            "Root434"
        ],
        "M_LEU_c": [
            "Root434"
        ],
        "M_L__45__ASPARTATE_c": [
            "Root434"
        ],
        "M_PRO_c": [
            "Root434"
        ],
        "M_VAL_c": [
            "Root434"
        ]
    }
}