{
    "com_prodtargets": [],
    "com_scope": [
        "M_CPD__45__12575_c",
        "M_CPD__45__8259_c",
        "M_GLC__45__1__45__P_c",
        "M_4__45__CYTIDINE__45__5__45__DIPHOSPHO__45__2__45__C_c",
        "M_ADENINE_c",
        "M_3__45__DEOXY__45__D__45__ARABINO__45__HEPTULOSONATE__45__7__45__P_c",
        "M_CAMP_c",
        "M_RIBOSE__45__5P_c",
        "M_GUANOSINE_c",
        "M_G3P_c",
        "M_2__45__PG_c",
        "M_GDP__45__MANNOSE_c",
        "M_GDP__45__TP_c",
        "M_PTEROATE_c",
        "M_IMP_c",
        "M_CARBAMATE_c",
        "M_INOSINE_c",
        "M_CYTIDINE_c",
        "M_CPD__45__15317_c",
        "M_XYLULOSE__45__5__45__PHOSPHATE_c",
        "M_HYPOXANTHINE_c",
        "M_XANTHOSINE__45__5__45__PHOSPHATE_c",
        "M_PHOSPHO__45__ENOL__45__PYRUVATE_c",
        "M_ISOBUTYRYL__45__COA_c",
        "M_DIHYDROXY__45__ACETONE__45__PHOSPHATE_c",
        "M_3__45__P__45__HYDROXYPYRUVATE_c",
        "M_ERYTHROSE__45__4P_c",
        "M_GUANINE_c",
        "M_2__45__KETO__45__ISOVALERATE_c",
        "M_ADENOSINE_c",
        "M_PRPP_c",
        "M_FRUCTOSE__45__6P_c",
        "M_GMP_c",
        "M_CPD__45__20826_c",
        "M_PROTON_e",
        "M_CDP_c",
        "M_HCO3_c",
        "M_RIBULOSE__45__5P_c",
        "M_D__45__6__45__P__45__GLUCONO__45__DELTA__45__LACTONE_c",
        "M_D__45__glucopyranose__45__6__45__phosphate_c",
        "M_DIHYDROXY__45__BUTANONE__45__P_c",
        "M_XANTHINE_c",
        "M_CPD__45__14553_c",
        "M_CARBAMOYL__45__P_c",
        "M_XANTHOSINE_c",
        "M_URIDINE_c",
        "M_DEHYDROQUINATE_c",
        "M_CPD__45__15979_c",
        "M_UDP__45__GLUCURONATE_c",
        "M_GAP_c",
        "M_3__45__DEHYDRO__45__SHIKIMATE_c",
        "M_Glutamates_c",
        "M_AMMONIUM_c",
        "M_D__45__SEDOHEPTULOSE__45__7__45__P_c",
        "M_UREA_c",
        "M_CMP_c",
        "M_URATE_c",
        "M_GUANOSINE__45__5DP__45__3DP_c",
        "M_FRUCTOSE__45__16__45__DIPHOSPHATE_c",
        "M_CPD__45__578_c",
        "M_CPD__45__18238_c",
        "M_NICOTINATE_NUCLEOTIDE_c",
        "M_CPD__45__316_c",
        "M_LIPOYL__45__AMP_c",
        "M_DEOXYXYLULOSE__45__5P_c",
        "M_CTP_c",
        "M_4__45__AMINO__45__4__45__DEOXYCHORISMATE_c",
        "M_CPD__45__13357_c",
        "M_RIBOSE__45__1P_c",
        "M_CPD__45__13469_c",
        "M_PHOSPHORIBOSYL__45__FORMAMIDO__45__CARBOXAMIDE_c",
        "M_DEAMIDO__45__NAD_c",
        "M_2C__45__METH__45__D__45__ERYTHRITOL__45__CYCLODIPHOSPHATE_c",
        "M_APS_c",
        "M_FORMATE_c",
        "M_UTP_c",
        "M_PHOSPHORIBOSYL__45__ATP_c",
        "M_2__45__C__45__METHYL__45__D__45__ERYTHRITOL__45__4__45__PHOSPHATE_c",
        "M_2__45__PHOSPHO__45__4__45__CYTIDINE__45__5__45__DIPHOSPHO__45__2__45__C__45__MET_c",
        "M_2__45__ACETO__45__LACTATE_c",
        "M_DPG_c",
        "M_MANNOSE__45__1P_c",
        "M_PAPS_c"
    ],
    "com_unprodtargets": [
        "M_PHE_c",
        "M_INDOLE_ACETATE_AUXIN_c",
        "M_ILE_c",
        "M_PRO_c",
        "M_HIS_c",
        "M_ASN_c",
        "M_L__45__ASPARTATE_c",
        "M_CPD__45__693_c",
        "M_GLN_c",
        "M_MET_c",
        "M_VAL_c",
        "M_ARG_c",
        "M_LYS_c",
        "M_TRP_c",
        "M_CPD__45__110_c",
        "M_GLY_c",
        "M_ETHYLENE__45__CMPD_c",
        "M_LEU_c",
        "M_CYS_c",
        "M_THR_c",
        "M_CPD__45__734_c",
        "M_TYR_c"
    ],
    "targets_producers": {}
}