#
#  gca_001425085_1_root4cyc 1.0 Genes link table generated on Mon Dec 3, 2018
#  All columns are separated by tab characters.
#  Columns are: 
#
#  GENE-ID  EG#  b#  y-name  CGSC-ID  UniProt-ID  GENE-NAME  
#
#   GENE-ID      = Pathway Tools unique identifier for the gene
#   UniProt-ID = Swiss-Prot identifier
#   GENE-NAME    = Pathway Tools gene name
#
#
ASC66_00390			
ASC66_00395			
ASC66_06565			
ASC66_02815			
ASC66_06570			
ASC66_02820			
ASC66_00400			
ASC66_02825			
ASC66_06575			
ASC66_00405			
ASC66_00410			
ASC66_06580			
ASC66_02830			
ASC66_06585			
ASC66_02835			
ASC66_00415			
ASC66_00420			
ASC66_06590			
ASC66_02840			
ASC66_17490			
ASC66_00425			
ASC66_06595			
ASC66_02845			
ASC66_00430			
ASC66_06600			
ASC66_02850			
ASC66_00435			
ASC66_06605			
ASC66_02855			
ASC66_00440			
ASC66_06610			
ASC66_02860			
ASC66_00445			
ASC66_06615			
ASC66_02865			
ASC66_02870			
ASC66_17470			
ASC66_06620			
ASC66_00450			
ASC66_00455			
ASC66_02875			
ASC66_02880			
ASC66_06630			
ASC66_00460			
ASC66_00465		tdh	
ASC66_17495			
ASC66_06635			
ASC66_02885			
ASC66_00470			
ASC66_17465			
ASC66_06640			
ASC66_02890			
ASC66_06645			
ASC66_02895			
ASC66_00475			
ASC66_00490			
ASC66_06650			
ASC66_02900			
ASC66_00495			
ASC66_06655			
ASC66_02905			
ASC66_06660			
ASC66_02910			
ASC66_00500			
ASC66_00505			
ASC66_06665			
ASC66_02915			
ASC66_00510			
ASC66_06670			
ASC66_02920			
ASC66_06675			
ASC66_02925			
ASC66_00515			
ASC66_02930			
ASC66_06680			
ASC66_00520			
ASC66_00530			
ASC66_06685			
ASC66_02935			
ASC66_00535			
ASC66_06690			
ASC66_02940			
ASC66_00540			
ASC66_06695			
ASC66_02945			
ASC66_00545			
ASC66_06700			
ASC66_02950			
ASC66_17435			
ASC66_06705			
ASC66_02955			
ASC66_00550			
ASC66_00555			
ASC66_06710			
ASC66_02960			
ASC66_00560			
ASC66_06715			
ASC66_02965		purU	
ASC66_00565			
ASC66_06720			
ASC66_02970			
ASC66_17375			
ASC66_06725			
ASC66_02975			
ASC66_00570			
ASC66_02980			
ASC66_06730			
ASC66_00575			
ASC66_02985			
ASC66_06735			
ASC66_00580			
ASC66_00585			
ASC66_06740			
ASC66_02990			
ASC66_00590			
ASC66_06745			
ASC66_02995			
ASC66_00595			
ASC66_06750			
ASC66_03000			
ASC66_00600			
ASC66_06755			
ASC66_03005			
ASC66_17390			
ASC66_03010			
ASC66_06760			
ASC66_00605			
ASC66_17395			
ASC66_00610			
ASC66_06765			
ASC66_03015			
ASC66_06770			
ASC66_03020			
ASC66_00615			
ASC66_03025			
ASC66_06775			
ASC66_00620			
ASC66_17410			
ASC66_00625			
ASC66_06780			
ASC66_03030			
ASC66_00630			
ASC66_17420			
ASC66_06785			
ASC66_03035			
ASC66_03040			
ASC66_06790			
ASC66_00635			
ASC66_17425			
ASC66_00640			
ASC66_06795			
ASC66_03045			
ASC66_17430			
ASC66_00645			
ASC66_06800			
ASC66_03050			
ASC66_00650		aspA	
ASC66_06805			
ASC66_03055			
ASC66_17440			
ASC66_03060			
ASC66_06810			
ASC66_00655			
ASC66_17445			
ASC66_00660			
ASC66_06815			
ASC66_03065			
ASC66_17450			
ASC66_00665			
ASC66_06820			
ASC66_03070			
ASC66_17455			
ASC66_00670			
ASC66_06825			
ASC66_03075			
ASC66_00675			
ASC66_06830			
ASC66_03080			
ASC66_00680			
ASC66_06835			
ASC66_03085			
ASC66_06840			
ASC66_00685			
ASC66_17475			
ASC66_03095			
ASC66_06845			
ASC66_00690			
ASC66_17480			
ASC66_00695			
ASC66_06850			
ASC66_03100			
ASC66_17485			
ASC66_03105			
ASC66_06855			
ASC66_00700			
ASC66_00705			
ASC66_06860			
ASC66_03110			
ASC66_17500			
ASC66_03115			
ASC66_06865			
ASC66_00710			
ASC66_00715			
ASC66_03120		purH	
ASC66_17505			
ASC66_00720			
ASC66_06875			
ASC66_03125			
ASC66_17510			
ASC66_03130			
ASC66_06880			
ASC66_00725			
ASC66_17515			
ASC66_03135			
ASC66_06885			
ASC66_00730			
ASC66_17520			
ASC66_03140			
ASC66_00735			
ASC66_17525			
ASC66_00740			
ASC66_06895			
ASC66_03145			
ASC66_17530			
ASC66_03150			
ASC66_00745			
ASC66_17535			
ASC66_06905			
ASC66_03155			
ASC66_00750			
ASC66_17540			
ASC66_00755			
ASC66_06910			
ASC66_03160			
ASC66_17545			
ASC66_06915			
ASC66_03165			
ASC66_17550			
ASC66_00765			
ASC66_06920			
ASC66_03170			
ASC66_17555			
ASC66_06925			
ASC66_03175			
ASC66_00770			
ASC66_17565			
ASC66_00775			
ASC66_06930			
ASC66_03180			
ASC66_17575			
ASC66_00780			
ASC66_06935			
ASC66_03185			
ASC66_17580			
ASC66_03190			
ASC66_06940			
ASC66_00785			
ASC66_17665			
ASC66_00790			
ASC66_06945			
ASC66_03195			
ASC66_17590			
ASC66_06950			
ASC66_03200			
ASC66_00795			
ASC66_17595			
ASC66_03205			
ASC66_06955			
ASC66_00800			
ASC66_17600			
ASC66_00805			
ASC66_06960			
ASC66_03210			
ASC66_17605			
ASC66_00810			
ASC66_03215			
ASC66_17610			
ASC66_03220		guaA	
ASC66_06970			
ASC66_00815			
ASC66_17615			
ASC66_00820			
ASC66_06975			
ASC66_03225			
ASC66_17620			
ASC66_06980			
ASC66_03230			
ASC66_00825			
ASC66_17625			
ASC66_00830			
ASC66_06985			
ASC66_03235			
ASC66_17630			
ASC66_06990			
ASC66_03240			
ASC66_00835			
ASC66_17635			
ASC66_03245			
ASC66_06995			
ASC66_00840			
ASC66_17640			
ASC66_00845			
ASC66_07000			
ASC66_03250			
ASC66_17645			
ASC66_00850			
ASC66_07005			
ASC66_03255			
ASC66_00880			
ASC66_00855			
ASC66_07010			
ASC66_03260			
ASC66_17655			
ASC66_00860			
ASC66_07015			
ASC66_03265			
ASC66_17660			
ASC66_00865			
ASC66_07020			
ASC66_03270			
ASC66_17670			
ASC66_03275			
ASC66_07025			
ASC66_00870			
ASC66_17700			
ASC66_03280			
ASC66_07030			
ASC66_00875			
ASC66_17675			
ASC66_07035			
ASC66_17680			
ASC66_03285			
ASC66_00885			
ASC66_07040			
ASC66_03290			
ASC66_17685			
ASC66_00890			
ASC66_07045			
ASC66_03295			
ASC66_17690			
ASC66_00895			
ASC66_07050			
ASC66_03300			
ASC66_17695			
ASC66_00900			
ASC66_07055			
ASC66_03305			
ASC66_00905			
ASC66_07060			
ASC66_03310			
ASC66_17705			
ASC66_00910			
ASC66_07065			
ASC66_03315			
ASC66_17710			
ASC66_07070			
ASC66_03320			
ASC66_00915			
ASC66_00920			
ASC66_07075			
ASC66_03325			
ASC66_00925			
ASC66_07080			
ASC66_03330			
ASC66_00930			
ASC66_07085			
ASC66_03335			
ASC66_00935			
ASC66_07090			
ASC66_03340			
ASC66_00940			
ASC66_07095			
ASC66_03345			
ASC66_03350			
ASC66_07100			
ASC66_00945			
ASC66_03355			
ASC66_07105			
ASC66_00950			
ASC66_07110			
ASC66_03360			
ASC66_00955			
ASC66_03365			
ASC66_07115			
ASC66_00960			
ASC66_03370			
ASC66_07120			
ASC66_00965			
ASC66_07125			
ASC66_03375			
ASC66_00970			
ASC66_00975			
ASC66_07130			
ASC66_03380			
ASC66_07135			
ASC66_03385			
ASC66_00980			
ASC66_00985			
ASC66_07140			
ASC66_03390			
ASC66_00990			
ASC66_07145			
ASC66_03395			
ASC66_00995			
ASC66_07150			
ASC66_03400			
ASC66_07155			
ASC66_03405			
ASC66_01000			
ASC66_01005			
ASC66_03410			
ASC66_03415			
ASC66_07165			
ASC66_01010			
ASC66_07170			
ASC66_03420			
ASC66_01015			
ASC66_03425			
ASC66_07175			
ASC66_01020			
ASC66_01025			
ASC66_07180			
ASC66_03430			
ASC66_07185			
ASC66_03435			
ASC66_01030			
ASC66_03440			
ASC66_07190			
ASC66_01035			
ASC66_07195			
ASC66_03445			
ASC66_01045			
ASC66_07200			
ASC66_03450			
ASC66_01050			
ASC66_07205			
ASC66_03455			
ASC66_01055			
ASC66_03460			
ASC66_07210			
ASC66_01060			
ASC66_03465			
ASC66_07215			
ASC66_01065			
ASC66_03470			
ASC66_07220			
ASC66_01070			
ASC66_07225			
ASC66_03475			
ASC66_01075			
ASC66_07230			
ASC66_03480			
ASC66_01080			
ASC66_03485			
ASC66_07235			
ASC66_01085			
ASC66_07240			
ASC66_03490			
ASC66_01090			
ASC66_07245			
ASC66_03495			
ASC66_01095			
ASC66_03500			
ASC66_07250			
ASC66_01100			
ASC66_07255			
ASC66_03505			
ASC66_01105			
ASC66_07260			
ASC66_03510			
ASC66_01110			
ASC66_03515			
ASC66_07265			
ASC66_01115			
ASC66_03520			
ASC66_07270			
ASC66_01120			
ASC66_03525			
ASC66_07275			
ASC66_01125			
ASC66_07280			
ASC66_03530			
ASC66_01130			
ASC66_03535			
ASC66_07285			
ASC66_01135			
ASC66_03540			
ASC66_07295			
ASC66_01140			
ASC66_03545			
ASC66_07300			
ASC66_01145			
ASC66_07305			
ASC66_03550		fusA	
ASC66_01150			
ASC66_07310			
ASC66_03555			
ASC66_01155			
ASC66_07315			
ASC66_03560			
ASC66_01160			
ASC66_01165			
ASC66_07320			
ASC66_03565			
ASC66_07325			
ASC66_03570			
ASC66_01170			
ASC66_03575			
ASC66_07330			
ASC66_01175			
ASC66_07335			
ASC66_03580			
ASC66_01180			
ASC66_07340			
ASC66_03585			
ASC66_01185			
ASC66_03590			
ASC66_07345			
ASC66_01190			
ASC66_03595			
ASC66_07350			
ASC66_01195			
ASC66_07355			
ASC66_03600			
ASC66_01200			
ASC66_03605			
ASC66_07360			
ASC66_01205			
ASC66_03610			
ASC66_07365			
ASC66_01210			
ASC66_03615			
ASC66_07370			
ASC66_01215			
ASC66_07375			
ASC66_03620			
ASC66_01220			
ASC66_03625			
ASC66_07380			
ASC66_01225			
ASC66_03630			
ASC66_07385			
ASC66_01230			
ASC66_07390			
ASC66_03635			
ASC66_01235			
ASC66_03640			
ASC66_07395			
ASC66_01240			
ASC66_03645			
ASC66_07405			
ASC66_01245			
ASC66_03650			
ASC66_07410			
ASC66_01250			
ASC66_07415			
ASC66_03655			
ASC66_01255			
ASC66_03660			
ASC66_07420			
ASC66_01260			
ASC66_07425			
ASC66_03665			
ASC66_01265			
ASC66_07430			
ASC66_01270			
ASC66_03675			
ASC66_07435			
ASC66_01275			
ASC66_03680			
ASC66_07440			
ASC66_01280			
ASC66_07445			
ASC66_03685			
ASC66_01285			
ASC66_03690			
ASC66_07450			
ASC66_01290			
ASC66_03695			
ASC66_07455			
ASC66_01295			
ASC66_07460			
ASC66_03700			
ASC66_01300			
ASC66_03705			
ASC66_07465			
ASC66_01305			
ASC66_07470			
ASC66_03710			
ASC66_01310			
ASC66_07475			
ASC66_03715			
ASC66_01315			
ASC66_07480			
ASC66_03720			
ASC66_01320			
ASC66_03725			
ASC66_07485			
ASC66_01325			
ASC66_01335			
ASC66_07490			
ASC66_03730			
ASC66_03735			
ASC66_07495			
ASC66_01340			
ASC66_07500			
ASC66_03740			
ASC66_01345			
ASC66_07505		groEL	
ASC66_03745			
ASC66_01350			
ASC66_01355			
ASC66_07510			
ASC66_03750			
ASC66_03755			
ASC66_07515			
ASC66_01360			
ASC66_16915			
ASC66_03760			
ASC66_07520			
ASC66_01365			
ASC66_16920			
ASC66_01370			
ASC66_07525			
ASC66_03765			
ASC66_16925			
ASC66_01375			
ASC66_07530			
ASC66_03770			
ASC66_16930			
ASC66_01380		prfB	
ASC66_07535			
ASC66_03775			
ASC66_16935			
ASC66_03780			
ASC66_07545			
ASC66_01385			
ASC66_16940			
ASC66_07550			
ASC66_03785			
ASC66_01390			
ASC66_16945			
ASC66_07555			
ASC66_03790			
ASC66_01395			
ASC66_16950			
ASC66_01400			
ASC66_07560			
ASC66_03795			
ASC66_16955			
ASC66_01405			
ASC66_07565			
ASC66_03800			
ASC66_16960			
ASC66_07570			
ASC66_03805			
ASC66_01410			
ASC66_16965			
ASC66_01415			
ASC66_07575			
ASC66_03810			
ASC66_16970			
ASC66_07580			
ASC66_03815			
ASC66_01420			
ASC66_16985			
ASC66_03820			
ASC66_07585			
ASC66_01430			
ASC66_16990			
ASC66_07590			
ASC66_03825			
ASC66_01435			
ASC66_16995			
ASC66_03830			
ASC66_07595			
ASC66_01440			
ASC66_17000			
ASC66_07600			
ASC66_03835			
ASC66_01445			
ASC66_17005		clpP	
ASC66_01450			
ASC66_07605			
ASC66_03840			
ASC66_17010			
ASC66_01455			
ASC66_07610			
ASC66_03845			
ASC66_17015			
ASC66_01460		rph	
ASC66_07615			
ASC66_03850			
ASC66_17020			
ASC66_07620			
ASC66_01465			
ASC66_17025			
ASC66_01470			
ASC66_07625			
ASC66_03860			
ASC66_17030			
ASC66_03865			
ASC66_07630			
ASC66_01475			
ASC66_17035			
ASC66_07635			
ASC66_03870			
ASC66_01480			
ASC66_17040			
ASC66_01485			
ASC66_07640			
ASC66_03875			
ASC66_17045			
ASC66_03880			
ASC66_07645			
ASC66_01490			
ASC66_17050		acnA	
ASC66_01495			
ASC66_07650			
ASC66_03885			
ASC66_17055			
ASC66_01500			
ASC66_07655			
ASC66_03890			
ASC66_17060			
ASC66_01505			
ASC66_07660			
ASC66_03895			
ASC66_17065			
ASC66_07665			
ASC66_03900			
ASC66_01510			
ASC66_17070			
ASC66_03905			
ASC66_07670			
ASC66_01515			
ASC66_17075			
ASC66_03910			
ASC66_07675			
ASC66_01520			
ASC66_17080			
ASC66_07680			
ASC66_03915			
ASC66_01525			
ASC66_17085			
ASC66_03920			
ASC66_07685			
ASC66_01530			
ASC66_17090			
ASC66_01535			
ASC66_07690			
ASC66_03925			
ASC66_17095			
ASC66_01540			
ASC66_07695			
ASC66_03930			
ASC66_17100			
ASC66_01545			
ASC66_07705			
ASC66_03935			
ASC66_17105			
ASC66_03940			
ASC66_07710			
ASC66_01550			
ASC66_17110			
ASC66_01555			
ASC66_07715			
ASC66_03945			
ASC66_17115			
ASC66_03950			
ASC66_07720			
ASC66_01560			
ASC66_17120			
ASC66_03955			
ASC66_07725			
ASC66_01565			
ASC66_17125			
ASC66_07730			
ASC66_03960			
ASC66_17130			
ASC66_07735			
ASC66_01585			
ASC66_03965			
ASC66_17135			
ASC66_01590			
ASC66_07740			
ASC66_03970			
ASC66_17140			
ASC66_07745			
ASC66_01595			
ASC66_03975			
ASC66_17145			
ASC66_01600			
ASC66_07750			
ASC66_03980			
ASC66_17150			
ASC66_07755			
ASC66_01605			
ASC66_03985			
ASC66_17155			
ASC66_07760			
ASC66_03990			
ASC66_17160			
ASC66_01615			
ASC66_07765			
ASC66_03995			
ASC66_17165			
ASC66_01620			
ASC66_07770			
ASC66_04000			
ASC66_17170			
ASC66_01625			
ASC66_07775			
ASC66_04005			
ASC66_17175			
ASC66_07780			
ASC66_04010			
ASC66_01630			
ASC66_17205		thrS	
ASC66_01635			
ASC66_07785			
ASC66_04015			
ASC66_17210			
ASC66_07790			
ASC66_04020			
ASC66_01640			
ASC66_17215			
ASC66_01645			
ASC66_04025			
ASC66_17220			
ASC66_01650			
ASC66_07800			
ASC66_04030			
ASC66_17225			
ASC66_01655			
ASC66_07805			
ASC66_04035			
ASC66_17230			
ASC66_07810			
ASC66_04045			
ASC66_01660			
ASC66_17235			
ASC66_01665			
ASC66_07815			
ASC66_04050			
ASC66_17240			
ASC66_07820			
ASC66_04055			
ASC66_01670			
ASC66_17245		ruvB	
ASC66_04060			
ASC66_07825			
ASC66_01675			
ASC66_17250			
ASC66_07830			
ASC66_01680			
ASC66_17255			
ASC66_07835			
ASC66_01685			
ASC66_17260			
ASC66_01690			
ASC66_07840			
ASC66_04075			
ASC66_17265			
ASC66_01695			
ASC66_07845			
ASC66_04080			
ASC66_17270			
ASC66_07850			
ASC66_04085			
ASC66_01700			
ASC66_17275			
ASC66_01705		gabD2	
ASC66_07855			
ASC66_04090			
ASC66_17280			
ASC66_04095			
ASC66_07860			
ASC66_01710			
ASC66_17285			
ASC66_07865			
ASC66_04100			
ASC66_01715			
ASC66_17290			
ASC66_01720			
ASC66_07870			
ASC66_04105			
ASC66_17295			
ASC66_01725			
ASC66_07875			
ASC66_04110			
ASC66_17300			
ASC66_07880			
ASC66_04115			
ASC66_01730			
ASC66_17305			
ASC66_01735			
ASC66_07885			
ASC66_04120			
ASC66_17310			
ASC66_01740			
ASC66_07890			
ASC66_04125			
ASC66_17315			
ASC66_01745			
ASC66_07895			
ASC66_04130			
ASC66_17320			
ASC66_01750			
ASC66_07900			
ASC66_04135			
ASC66_17325			
ASC66_04140			
ASC66_07905			
ASC66_01755			
ASC66_17330			
ASC66_07910			
ASC66_04145			
ASC66_01760			
ASC66_17335			
ASC66_01765			
ASC66_04150			
ASC66_17340			
ASC66_04155			
ASC66_07920			
ASC66_01770			
ASC66_17345			
ASC66_04160			
ASC66_07925			
ASC66_01775			
ASC66_17350			
ASC66_01780			
ASC66_07930			
ASC66_04165			
ASC66_17355			
ASC66_04170			
ASC66_07935			
ASC66_01785			
ASC66_17360			
ASC66_01790			
ASC66_07940			
ASC66_04175			
ASC66_04180			
ASC66_07945			
ASC66_01795			
ASC66_07950			
ASC66_01800			
ASC66_13795			
ASC66_07955			
ASC66_04190			
ASC66_01810			
ASC66_07960			
ASC66_04195			
ASC66_07965			
ASC66_04200			
ASC66_01815			
ASC66_13450			
ASC66_01820			
ASC66_07970			
ASC66_04205			
ASC66_04210			
ASC66_07975			
ASC66_01825			
ASC66_01830			
ASC66_04215			
ASC66_04220			
ASC66_07990			
ASC66_01835			
ASC66_07995			
ASC66_04225			
ASC66_01845			
ASC66_08000			
ASC66_04230			
ASC66_04235			
ASC66_08005			
ASC66_01850			
ASC66_01855			
ASC66_08010			
ASC66_04240			
ASC66_01860			
ASC66_08015			
ASC66_04245			
ASC66_01865			
ASC66_08020			
ASC66_04250			
ASC66_01870			
ASC66_08025			
ASC66_04255			
ASC66_01875			
ASC66_08030			
ASC66_04260			
ASC66_01880			
ASC66_08035			
ASC66_04265			
ASC66_01885			
ASC66_08040			
ASC66_04270			
ASC66_01890			
ASC66_04280			
ASC66_08050			
ASC66_01895			
ASC66_01900			
ASC66_08055			
ASC66_04285			
ASC66_08060			
ASC66_01905			
ASC66_01910			
ASC66_08065			
ASC66_04295			
ASC66_08070			
ASC66_04300			
ASC66_01915			
ASC66_01920			
ASC66_08075			
ASC66_04305			
ASC66_01925			
ASC66_08080			
ASC66_04310			
ASC66_01930			
ASC66_08085			
ASC66_04315			
ASC66_01935			
ASC66_08095			
ASC66_04320			
ASC66_01940			
ASC66_08100			
ASC66_04325			
ASC66_01945			
ASC66_08105			
ASC66_04330			
ASC66_01950			
ASC66_08110			
ASC66_04335			
ASC66_01955			
ASC66_08115			
ASC66_04340			
ASC66_01960			
ASC66_08120			
ASC66_04345			
ASC66_08125			
ASC66_01965			
ASC66_01970			
ASC66_08130			
ASC66_04355			
ASC66_08135			
ASC66_04360			
ASC66_01975			
ASC66_01980			
ASC66_08140			
ASC66_04365			
ASC66_04370			
ASC66_08145			
ASC66_01985			
ASC66_04375			
ASC66_08150			
ASC66_01995			
ASC66_02000			
ASC66_08155			
ASC66_04380			
ASC66_02005			
ASC66_08160			
ASC66_04385			
ASC66_04390			
ASC66_08165			
ASC66_02010			
ASC66_02015			
ASC66_08170			
ASC66_04395			
ASC66_02020			
ASC66_08175			
ASC66_04400			
ASC66_02025			
ASC66_08180			
ASC66_04405			
ASC66_02030			
ASC66_08185			
ASC66_04410			
ASC66_04415			
ASC66_08190			
ASC66_02035			
ASC66_08195			
ASC66_04420			
ASC66_02040			
ASC66_08200			
ASC66_04425			
ASC66_02045			
ASC66_04430			
ASC66_08205			
ASC66_02050			
ASC66_04435			
ASC66_08210			
ASC66_02055			
ASC66_02060			
ASC66_08215			
ASC66_04440			
ASC66_02065			
ASC66_08220			
ASC66_04445			
ASC66_02070			
ASC66_08225			
ASC66_04450			
ASC66_02075			
ASC66_08230			
ASC66_04455			
ASC66_02080			
ASC66_08235			
ASC66_04460			
ASC66_08240			
ASC66_04465			
ASC66_02085			
ASC66_02090			
ASC66_08245			
ASC66_04470			
ASC66_02095			
ASC66_08250			
ASC66_04480			
ASC66_02100		fecE	
ASC66_08255			
ASC66_04485			
ASC66_02105			
ASC66_08260			
ASC66_04490			
ASC66_04495			
ASC66_08265			
ASC66_02110			
ASC66_04500			
ASC66_02120			
ASC66_04505			
ASC66_08280			
ASC66_04510			
ASC66_02125			
ASC66_08285			
ASC66_04515			
ASC66_02130			
ASC66_08290			
ASC66_04520			
ASC66_02135			
ASC66_08295			
ASC66_04525			
ASC66_02140			
ASC66_02145			
ASC66_08300			
ASC66_04530			
ASC66_02150			
ASC66_08305			
ASC66_04535			
ASC66_02155			
ASC66_08310			
ASC66_04540			
ASC66_08315			
ASC66_04545			
ASC66_02160			
ASC66_08320			
ASC66_02165			
ASC66_08325			
ASC66_04555			
ASC66_02170			
ASC66_08330			
ASC66_04560			
ASC66_02175			
ASC66_02180			
ASC66_08335			
ASC66_04565			
ASC66_08340			
ASC66_04570			
ASC66_02185			
ASC66_08345			
ASC66_04575			
ASC66_02190			
ASC66_02195			
ASC66_08350			
ASC66_04580			
ASC66_02200			
ASC66_08355			
ASC66_04585			
ASC66_04590			
ASC66_08360			
ASC66_02205			
ASC66_08365			
ASC66_04595			
ASC66_02210			
ASC66_02215			
ASC66_08370			
ASC66_04600			
ASC66_02220			
ASC66_08375			
ASC66_04605			
ASC66_02225			
ASC66_08380			
ASC66_04610			
ASC66_02230			
ASC66_08385			
ASC66_04615			
ASC66_08390			
ASC66_04635			
ASC66_02235			
ASC66_02240			
ASC66_08395			
ASC66_04640			
ASC66_08400			
ASC66_04645			
ASC66_02245			
ASC66_08405			
ASC66_04650			
ASC66_02255			
ASC66_08410			
ASC66_04655			
ASC66_02260		kgd	
ASC66_08420			
ASC66_04660			
ASC66_04665			
ASC66_08425			
ASC66_02265			
ASC66_04670			
ASC66_08430			
ASC66_02270			
ASC66_02275			
ASC66_08435			
ASC66_04675			
ASC66_08440			
ASC66_04680			
ASC66_02280			
ASC66_02285			
ASC66_08445			
ASC66_04685			
ASC66_02290			
ASC66_08450			
ASC66_04690			
ASC66_08455			
ASC66_02295			
ASC66_08460			
ASC66_04700			
ASC66_02300			
ASC66_02305			
ASC66_08465			
ASC66_04705			
ASC66_08470			
ASC66_04710			
ASC66_02310			
ASC66_04715			
ASC66_08475			
ASC66_02315			
ASC66_04720			
ASC66_08480			
ASC66_02320			
ASC66_08485			
ASC66_04725			
ASC66_02325			
ASC66_08490			
ASC66_04730			
ASC66_02330			
ASC66_08495			
ASC66_04735			
ASC66_02335			
ASC66_08500			
ASC66_04740			
ASC66_02340			
ASC66_08505			
ASC66_04745			
ASC66_08510			
ASC66_04750			
ASC66_08515			
ASC66_08520			
ASC66_04760			
ASC66_08525			
ASC66_04765			
ASC66_08530			
ASC66_04770			
ASC66_08535			
ASC66_04775			
ASC66_08540			
ASC66_04780			
ASC66_08545			
ASC66_04785			
ASC66_08550			
ASC66_04790			
ASC66_08555			
ASC66_04795			
ASC66_08560			
ASC66_04800			
ASC66_08565			
ASC66_04805			
ASC66_08570			
ASC66_04810			
ASC66_08575			
ASC66_04815			
ASC66_08580			
ASC66_04820			
ASC66_08585			
ASC66_04825			
ASC66_08590			
ASC66_04830			
ASC66_08595			
ASC66_04835			
ASC66_08600			
ASC66_04840			
ASC66_08605			
ASC66_04845			
ASC66_08610			
ASC66_04850			
ASC66_08615			
ASC66_04855			
ASC66_08620			
ASC66_04860			
ASC66_08625			
ASC66_04865			
ASC66_08630			
ASC66_04870			
ASC66_08635			
ASC66_04875			
ASC66_08640			
ASC66_04880			
ASC66_08645			
ASC66_04885			
ASC66_08650			
ASC66_04890			
ASC66_08655			
ASC66_04895			
ASC66_08660			
ASC66_04900			
ASC66_08665			
ASC66_04905			
ASC66_08670			
ASC66_04910			
ASC66_08675			
ASC66_04915			
ASC66_08680			
ASC66_04920			
ASC66_08685			
ASC66_04925			
ASC66_08690			
ASC66_04930			
ASC66_08695			
ASC66_04935			
ASC66_08700			
ASC66_04940			
ASC66_08705			
ASC66_04945			
ASC66_04950			
ASC66_08715			
ASC66_04955			
ASC66_08720			
ASC66_04965			
ASC66_08730			
ASC66_04970			
ASC66_08735			
ASC66_04975			
ASC66_08740			
ASC66_04980			
ASC66_08745			
ASC66_04985			
ASC66_08750			
ASC66_04990			
ASC66_08755			
ASC66_04995			
ASC66_08760			
ASC66_05000			
ASC66_08765			
ASC66_05005			
ASC66_08770			
ASC66_05010			
ASC66_08775			
ASC66_05015			
ASC66_08780			
ASC66_08785			
ASC66_05025			
ASC66_08790			
ASC66_05030			
ASC66_08795			
ASC66_05035			
ASC66_08800			
ASC66_05040			
ASC66_08805			
ASC66_05045			
ASC66_08810			
ASC66_05050			
ASC66_08815			
ASC66_05055			
ASC66_08820			
ASC66_05060			
ASC66_08825			
ASC66_05065			
ASC66_08830			
ASC66_05070			
ASC66_08835			
ASC66_05075			
ASC66_08840			
ASC66_05080			
ASC66_08845			
ASC66_05085			
ASC66_08850			
ASC66_05090			
ASC66_05095			
ASC66_08860			
ASC66_05100			
ASC66_08865			
ASC66_05105			
ASC66_08870			
ASC66_05110			
ASC66_08875			
ASC66_05115			
ASC66_08880			
ASC66_05120			
ASC66_08885			
ASC66_05125			
ASC66_08890			
ASC66_05130			
ASC66_08895			
ASC66_05135			
ASC66_08900			
ASC66_05140			
ASC66_08905			
ASC66_05145			
ASC66_09765			
ASC66_08910			
ASC66_05150			
ASC66_09775			
ASC66_09770			
ASC66_08915			
ASC66_05155			
ASC66_09780			
ASC66_08920			
ASC66_05160			
ASC66_09785			
ASC66_08925			
ASC66_05165			
ASC66_09790			
ASC66_08930			
ASC66_05170			
ASC66_09795			
ASC66_08935			
ASC66_05175			
ASC66_09805			
ASC66_09800			
ASC66_08940			
ASC66_05180			
ASC66_09810			
ASC66_08945			
ASC66_05185			
ASC66_09815			
ASC66_08950			
ASC66_05190			
ASC66_08955			
ASC66_05195			
ASC66_09820			
ASC66_08960			
ASC66_09825			
ASC66_05200			
ASC66_09830			
ASC66_08965			
ASC66_05205			
ASC66_09835			
ASC66_08970			
ASC66_05210			
ASC66_08975			
ASC66_09840			
ASC66_05215			
ASC66_09845			
ASC66_09850			
ASC66_08980			
ASC66_05220			
ASC66_09855			
ASC66_08985			
ASC66_05225			
ASC66_05230			
ASC66_09860			
ASC66_08990			
ASC66_09870			
ASC66_05235			
ASC66_08995			
ASC66_09875			
ASC66_05240			
ASC66_09000			
ASC66_09880			
ASC66_09005			
ASC66_09885			
ASC66_05250			
ASC66_09010			
ASC66_09890			
ASC66_05255			
ASC66_09015			
ASC66_09895			
ASC66_05260			
ASC66_09020			
ASC66_09900			
ASC66_09025			
ASC66_05265			
ASC66_09905			
ASC66_09030			
ASC66_09910			
ASC66_05270			
ASC66_09035			
ASC66_09915			
ASC66_05275			
ASC66_09920			
ASC66_09040			
ASC66_05280			
ASC66_05285			
ASC66_09045			
ASC66_09925			
ASC66_09050			
ASC66_05290			
ASC66_09930			
ASC66_09935			
ASC66_09055			
ASC66_05295			
ASC66_09060			
ASC66_05300			
ASC66_09940			
ASC66_09065			
ASC66_05305			
ASC66_09070			
ASC66_09950			
ASC66_05310			
ASC66_09955			
ASC66_09075			
ASC66_05315			
ASC66_09960			
ASC66_09080			
ASC66_09965			
ASC66_05320			
ASC66_15775			
ASC66_09970			
ASC66_09085			
ASC66_05325			
ASC66_15780			
ASC66_09975			
ASC66_09090			
ASC66_05330			
ASC66_15785			
ASC66_09980			
ASC66_09095			
ASC66_05335			
ASC66_15790			
ASC66_09100			
ASC66_05340			
ASC66_15795			
ASC66_09990			
ASC66_09105			
ASC66_05345			
ASC66_15800			
ASC66_09995			
ASC66_09110			
ASC66_05350			
ASC66_15805			
ASC66_10000			
ASC66_09115			
ASC66_05355			
ASC66_15810			
ASC66_10005			
ASC66_09120			
ASC66_05360			
ASC66_15815			
ASC66_10010			
ASC66_09125			
ASC66_05365			
ASC66_15820		eno	
ASC66_10015			
ASC66_09130			
ASC66_05370			
ASC66_15825			
ASC66_10020			
ASC66_09135			
ASC66_05375			
ASC66_15830			
ASC66_10025			
ASC66_09140			
ASC66_05380			
ASC66_15835			
ASC66_10030			
ASC66_09145			
ASC66_05385			
ASC66_15840			
ASC66_10035			
ASC66_09150			
ASC66_15850			
ASC66_10040			
ASC66_09155			
ASC66_10045			
ASC66_09160			
ASC66_05400			
ASC66_15860			
ASC66_10050			
ASC66_09165			
ASC66_05405			
ASC66_15865			
ASC66_10055			
ASC66_09170			
ASC66_05410			
ASC66_15870			
ASC66_10060			
ASC66_09175			
ASC66_05415			
ASC66_15875			
ASC66_10065			
ASC66_09180			
ASC66_05420			
ASC66_15880			
ASC66_10070			
ASC66_09185			
ASC66_05425			
ASC66_15885			
ASC66_10075			
ASC66_09190			
ASC66_05430			
ASC66_15890			
ASC66_10080			
ASC66_09195			
ASC66_05435			
ASC66_15895			
ASC66_10085			
ASC66_09200			
ASC66_05440			
ASC66_15900			
ASC66_10090			
ASC66_09205			
ASC66_05445			
ASC66_15905			
ASC66_10095			
ASC66_09210		nrdI	
ASC66_05450			
ASC66_15910			
ASC66_10100			
ASC66_09215			
ASC66_05455			
ASC66_15915			
ASC66_10105			
ASC66_09220			
ASC66_05460			
ASC66_15920			
ASC66_10110			
ASC66_09225			
ASC66_05465			
ASC66_15925			
ASC66_10115			
ASC66_09230			
ASC66_05470			
ASC66_15930			
ASC66_05475			
ASC66_15935			
ASC66_10125			
ASC66_09240			
ASC66_05480			
ASC66_15940			
ASC66_10130			
ASC66_09245			
ASC66_05485			
ASC66_15945			
ASC66_10135			
ASC66_09250			
ASC66_05490			
ASC66_15950			
ASC66_10140			
ASC66_09255			
ASC66_05495			
ASC66_15955			
ASC66_10145			
ASC66_05500			
ASC66_15960			
ASC66_10150			
ASC66_05505			
ASC66_15965			
ASC66_10155			
ASC66_09270			
ASC66_05510			
ASC66_15970			
ASC66_10160			
ASC66_09275			
ASC66_05515			
ASC66_15975		aspA	
ASC66_10165			
ASC66_09280			
ASC66_09300			
ASC66_15980			
ASC66_10170			
ASC66_09285			
ASC66_05525			
ASC66_15985			
ASC66_10175			
ASC66_09290			
ASC66_05530			
ASC66_15990			
ASC66_10180			
ASC66_09295			
ASC66_05535			
ASC66_15995			
ASC66_10185			
ASC66_05540			
ASC66_10190			
ASC66_16000			
ASC66_10195			
ASC66_09305			
ASC66_05545			
ASC66_16005			
ASC66_10200			
ASC66_09310			
ASC66_05550			
ASC66_16010			
ASC66_10205			
ASC66_09315			
ASC66_05555			
ASC66_16015			
ASC66_09320			
ASC66_05560			
ASC66_10210			
ASC66_16020		glpX	
ASC66_09325			
ASC66_10215			
ASC66_05565			
ASC66_16025			
ASC66_09330			
ASC66_10220			
ASC66_16030			
ASC66_05575			
ASC66_09335			
ASC66_10225			
ASC66_16035			
ASC66_10230			
ASC66_09340			
ASC66_05580			
ASC66_16040			
ASC66_09345			
ASC66_05585			
ASC66_10235			
ASC66_16045			
ASC66_09350			
ASC66_05590			
ASC66_10240			
ASC66_16050			
ASC66_09355			
ASC66_10245			
ASC66_05595			
ASC66_16055			
ASC66_10250			
ASC66_09360			
ASC66_05600			
ASC66_16060			
ASC66_09365			
ASC66_10255			
ASC66_05605			
ASC66_16065			
ASC66_05610			
ASC66_09370			
ASC66_10260			
ASC66_16070			
ASC66_10265			
ASC66_09375			
ASC66_10275			
ASC66_16075			
ASC66_10270			
ASC66_09380			
ASC66_05620			
ASC66_16080			
ASC66_09385			
ASC66_05625			
ASC66_10280			
ASC66_16085			
ASC66_05630			
ASC66_09390			
ASC66_10285			
ASC66_16090			
ASC66_09395			
ASC66_05635			
ASC66_10290			
ASC66_16095			
ASC66_10295			
ASC66_09400			
ASC66_05640			
ASC66_16100			
ASC66_10300			
ASC66_09405			
ASC66_05645			
ASC66_16105			
ASC66_09410			
ASC66_10305			
ASC66_05650			
ASC66_16110			
ASC66_10310			
ASC66_09415			
ASC66_05655			
ASC66_16115			
ASC66_05660			
ASC66_09420			
ASC66_10315			
ASC66_16120			
ASC66_10385			
ASC66_05665			
ASC66_10320			
ASC66_16125			
ASC66_10325			
ASC66_09430			
ASC66_05670			
ASC66_16130			
ASC66_05675			
ASC66_09435			
ASC66_10330			
ASC66_16135			
ASC66_05680			
ASC66_09440			
ASC66_10335			
ASC66_16140			
ASC66_05685			
ASC66_09445			
ASC66_10340			
ASC66_16145			
ASC66_10345			
ASC66_09450			
ASC66_05690			
ASC66_16150			
ASC66_10350			
ASC66_09455			
ASC66_05695			
ASC66_16155			
ASC66_10355			
ASC66_09460			
ASC66_05700			
ASC66_16160			
ASC66_10360			
ASC66_09465			
ASC66_05705			
ASC66_16165			
ASC66_10365			
ASC66_09470			
ASC66_05710			
ASC66_16170			
ASC66_10370			
ASC66_09475			
ASC66_05715			
ASC66_16175			
ASC66_10375			
ASC66_09480			
ASC66_05720			
ASC66_16180			
ASC66_10380			
ASC66_09485			
ASC66_05725			
ASC66_16185			
ASC66_10390			
ASC66_09490			
ASC66_05730			
ASC66_16190			
ASC66_10395			
ASC66_16195			
ASC66_10400			
ASC66_09500			
ASC66_05740			
ASC66_16200			
ASC66_09505			
ASC66_05745			
ASC66_10405			
ASC66_16205			
ASC66_10410			
ASC66_09510			
ASC66_05750			
ASC66_16210			
ASC66_09515			
ASC66_10415			
ASC66_05755			
ASC66_16215			
ASC66_09520			
ASC66_10420			
ASC66_05760			
ASC66_16220			
ASC66_09525			
ASC66_10425			
ASC66_05765			
ASC66_16225			
ASC66_10430			
ASC66_05770			
ASC66_16230			
ASC66_09535			
ASC66_05775			
ASC66_10435			
ASC66_16235			
ASC66_09540			
ASC66_10440			
ASC66_05780			
ASC66_16240			
ASC66_05785			
ASC66_09545			
ASC66_10445			
ASC66_16245			
ASC66_09550			
ASC66_05790			
ASC66_10450			
ASC66_16250			
ASC66_09555			
ASC66_05795			
ASC66_10455			
ASC66_16255			
ASC66_10460			
ASC66_09560			
ASC66_05800			
ASC66_16260			
ASC66_10465			
ASC66_09565			
ASC66_05805			
ASC66_16265			
ASC66_05810			
ASC66_09570			
ASC66_10470			
ASC66_16270			
ASC66_09575			
ASC66_05815			
ASC66_10475			
ASC66_16275			
ASC66_09580			
ASC66_05820			
ASC66_10480			
ASC66_16280			
ASC66_09585			
ASC66_05825			
ASC66_16285			
ASC66_10490			
ASC66_09590			
ASC66_05830			
ASC66_16290			
ASC66_05835			
ASC66_09595			
ASC66_10495			
ASC66_16295			
ASC66_09600			
ASC66_05840			
ASC66_10500			
ASC66_16300			
ASC66_09605			
ASC66_05845			
ASC66_10505			
ASC66_16305			
ASC66_05850			
ASC66_10510			
ASC66_16310			
ASC66_09615			
ASC66_10515			
ASC66_05855			
ASC66_16315			
ASC66_09620			
ASC66_10520		fliQ	
ASC66_05860			
ASC66_16320			
ASC66_09625			
ASC66_10525			
ASC66_05865			
ASC66_16325			
ASC66_10530			
ASC66_09630			
ASC66_05870			
ASC66_16330			
ASC66_10535		flhA	
ASC66_09635			
ASC66_05875			
ASC66_16335			
ASC66_09640			
ASC66_05880			
ASC66_10540			
ASC66_16340			
ASC66_09645			
ASC66_10545			
ASC66_05885			
ASC66_16345			
ASC66_09650			
ASC66_10550			
ASC66_05890			
ASC66_16350			
ASC66_10555			
ASC66_09655			
ASC66_05895			
ASC66_16355			
ASC66_10560			
ASC66_05900			
ASC66_16360			
ASC66_09665			
ASC66_05905			
ASC66_10565			
ASC66_16365			
ASC66_05910			
ASC66_09670			
ASC66_10570			
ASC66_16370			
ASC66_10575			
ASC66_09675			
ASC66_05915			
ASC66_16375			
ASC66_10580			
ASC66_09680			
ASC66_05920			
ASC66_16380			
ASC66_05925			
ASC66_09685			
ASC66_10585			
ASC66_16385			
ASC66_09690			
ASC66_10590			
ASC66_05930			
ASC66_16390			
ASC66_05935			
ASC66_09695			
ASC66_10595			
ASC66_16395			
ASC66_09705			
ASC66_10600			
ASC66_05940			
ASC66_16400			
ASC66_09710			
ASC66_10605			
ASC66_05945			
ASC66_16405			
ASC66_09715			
ASC66_05950			
ASC66_10610			
ASC66_16410			
ASC66_09720			
ASC66_10615			
ASC66_05955			
ASC66_16415			
ASC66_10620			
ASC66_09725			
ASC66_05960			
ASC66_16420			
ASC66_09730			
ASC66_10625			
ASC66_05965			
ASC66_16425			
ASC66_05970			
ASC66_09735			
ASC66_10630			
ASC66_16430			
ASC66_10635			
ASC66_05975			
ASC66_16435			
ASC66_10640			
ASC66_05980			
ASC66_16440			
ASC66_05985			
ASC66_10645			
ASC66_16445			
ASC66_05990			
ASC66_10650			
ASC66_16450			
ASC66_10655			
ASC66_05995			
ASC66_16455			
ASC66_06000			
ASC66_10660			
ASC66_16460			
ASC66_10665			
ASC66_06005			
ASC66_16465			
ASC66_10670			
ASC66_06010			
ASC66_16470			
ASC66_06015			
ASC66_10675			
ASC66_16475			
ASC66_06020			
ASC66_10680			
ASC66_16480			
ASC66_10685			
ASC66_06025			
ASC66_16485			
ASC66_10690			
ASC66_06030			
ASC66_16490			
ASC66_10695			
ASC66_06035			
ASC66_16495			
ASC66_10700		murD	
ASC66_06040			
ASC66_16500			
ASC66_16505			
ASC66_10710			
ASC66_06050			
ASC66_16510			
ASC66_10715			
ASC66_10720			
ASC66_06060			
ASC66_10725			
ASC66_06065			
ASC66_16525			
ASC66_10730			
ASC66_06070			
ASC66_16530			
ASC66_10735			
ASC66_06075			
ASC66_16535			
ASC66_06080			
ASC66_10740			
ASC66_16540			
ASC66_10745			
ASC66_06085			
ASC66_16545			
ASC66_06090			
ASC66_10750			
ASC66_16550			
ASC66_10755			
ASC66_06095			
ASC66_16555			
ASC66_10760			
ASC66_06100			
ASC66_16560			
ASC66_06105			
ASC66_10765			
ASC66_16565			
ASC66_10770			
ASC66_06110			
ASC66_16570			
ASC66_10775			
ASC66_06115			
ASC66_16575			
ASC66_10780			
ASC66_16580			
ASC66_10785			
ASC66_06125			
ASC66_16585			
ASC66_10790			
ASC66_10795			
ASC66_16595			
ASC66_10800			
ASC66_16600			
ASC66_10805			
ASC66_10810			
ASC66_16610			
ASC66_10815			
ASC66_16615			
ASC66_14130			
ASC66_10820			
ASC66_16620			
ASC66_10825			
ASC66_16625			
ASC66_10830			
ASC66_16630			
ASC66_10835			
ASC66_16635			
ASC66_10840			
ASC66_16640			
ASC66_10845			
ASC66_16645			
ASC66_10850			
ASC66_16650			
ASC66_10855			
ASC66_16655			
ASC66_10860			
ASC66_16660			
ASC66_10865			
ASC66_16665			
ASC66_10870			
ASC66_16670			
ASC66_10875			
ASC66_10880			
ASC66_16680			
ASC66_10885			
ASC66_16685			
ASC66_10890			
ASC66_16690			
ASC66_10895			
ASC66_16695			
ASC66_10900			
ASC66_16700			
ASC66_10905			
ASC66_16705			
ASC66_10910			
ASC66_16710			
ASC66_10915			
ASC66_10920			
ASC66_16720			
ASC66_10925			
ASC66_10930			
ASC66_16730			
ASC66_10935			
ASC66_16735			
ASC66_10940			
ASC66_16740			
ASC66_10945			
ASC66_16745			
ASC66_10950			
ASC66_16750			
ASC66_10955			
ASC66_16755			
ASC66_10960			
ASC66_16760			
ASC66_10965			
ASC66_16765			
ASC66_10970			
ASC66_16770			
ASC66_10975			
ASC66_16775			
ASC66_10980			
ASC66_16780			
ASC66_10985			
ASC66_16785			
ASC66_10990			
ASC66_16790			
ASC66_10995			
ASC66_16795			
ASC66_11000			
ASC66_16800			
ASC66_11005			
ASC66_16805			
ASC66_11010			
ASC66_16810			
ASC66_11015			
ASC66_16815			
ASC66_11020			
ASC66_16820			
ASC66_11025			
ASC66_16825			
ASC66_11030			
ASC66_16830			
ASC66_11035			
ASC66_16835			
ASC66_11040			
ASC66_16840			
ASC66_11045			
ASC66_16845			
ASC66_11050			
ASC66_16850			
ASC66_11055			
ASC66_16855			
ASC66_11060			
ASC66_16860			
ASC66_11065			
ASC66_16865			
ASC66_11070			
ASC66_16870			
ASC66_11075			
ASC66_16875			
ASC66_11080			
ASC66_16880			
ASC66_11085			
ASC66_16885			
ASC66_11090			
ASC66_16890			
ASC66_11095			
ASC66_16895			
ASC66_11100			
ASC66_16900			
ASC66_11105			
ASC66_16905			
ASC66_11110			
ASC66_16910			
ASC66_11115			
ASC66_13780			
ASC66_11120			
ASC66_11130			
ASC66_11135			
ASC66_11140			
ASC66_11145			
ASC66_11150			
ASC66_11155			
ASC66_11160			
ASC66_11165			
ASC66_11170			
ASC66_11175			
ASC66_11180			
ASC66_11185			
ASC66_11195			
ASC66_11200			
ASC66_11205			
ASC66_11210			
ASC66_11215			
ASC66_11220			
ASC66_11225			
ASC66_11230			
ASC66_11235			
ASC66_11240			
ASC66_11245			
ASC66_11250			
ASC66_11255			
ASC66_11260			
ASC66_11265			
ASC66_11270			
ASC66_11275			
ASC66_11280			
ASC66_11285			
ASC66_11290			
ASC66_11295			
ASC66_11300			
ASC66_11305			
ASC66_11310			
ASC66_11315			
ASC66_11320			
ASC66_11325			
ASC66_11330			
ASC66_11335			
ASC66_11340			
ASC66_11350			
ASC66_11355			
ASC66_11360			
ASC66_11365			
ASC66_11370			
ASC66_11375			
ASC66_11380			
ASC66_11385			
ASC66_11390			
ASC66_11395			
ASC66_11400			
ASC66_11405			
ASC66_11410			
ASC66_11415			
ASC66_11420			
ASC66_11425			
ASC66_11430			
ASC66_11435			
ASC66_11440			
ASC66_11445			
ASC66_11450			
ASC66_11455			
ASC66_11460			
ASC66_11465			
ASC66_11470			
ASC66_11475			
ASC66_11480			
ASC66_11485			
ASC66_11490			
ASC66_11495			
ASC66_11500			
ASC66_11505			
ASC66_11510			
ASC66_11515			
ASC66_11520			
ASC66_11525			
ASC66_11530			
ASC66_11535			
ASC66_11540			
ASC66_11545			
ASC66_11550			
ASC66_11555			
ASC66_11560			
ASC66_11565			
ASC66_11570			
ASC66_11575			
ASC66_11580			
ASC66_11585			
ASC66_11590			
ASC66_11595			
ASC66_11600			
ASC66_11605			
ASC66_11610			
ASC66_11615			
ASC66_11620			
ASC66_11625			
ASC66_11630			
ASC66_11635			
ASC66_11640			
ASC66_11645			
ASC66_11650			
ASC66_11655			
ASC66_11660			
ASC66_11665			
ASC66_11670			
ASC66_11675			
ASC66_11680			
ASC66_11685			
ASC66_11690			
ASC66_11695			
ASC66_11700			
ASC66_11705			
ASC66_11710			
ASC66_11715			
ASC66_11720			
ASC66_11725			
ASC66_11730			
ASC66_11735			
ASC66_11740			
ASC66_11745			
ASC66_11750			
ASC66_11755			
ASC66_11760			
ASC66_11765			
ASC66_11770			
ASC66_11775			
ASC66_11780			
ASC66_11785			
ASC66_11790			
ASC66_11795			
ASC66_11800			
ASC66_11805			
ASC66_11810			
ASC66_11815			
ASC66_11820			
ASC66_11825			
ASC66_11830			
ASC66_11835			
ASC66_11840			
ASC66_11845			
ASC66_11850			
ASC66_11855			
ASC66_11860			
ASC66_11865			
ASC66_11870			
ASC66_11875			
ASC66_11880			
ASC66_11885			
ASC66_11890			
ASC66_11895			
ASC66_11900			
ASC66_11905			
ASC66_11910			
ASC66_11915			
ASC66_11920			
ASC66_11925			
ASC66_11930			
ASC66_11935			
ASC66_11940			
ASC66_11945			
ASC66_11950			
ASC66_11955			
ASC66_11965			
ASC66_11970			
ASC66_11975			
ASC66_11980			
ASC66_11985			
ASC66_11990			
ASC66_11995			
ASC66_12000			
ASC66_12005			
ASC66_12010			
ASC66_12015			
ASC66_12020			
ASC66_12025			
ASC66_12030			
ASC66_12035			
ASC66_12040			
ASC66_12045			
ASC66_12050			
ASC66_12055			
ASC66_12060			
ASC66_12065			
ASC66_12070			
ASC66_12075			
ASC66_12080			
ASC66_12085			
ASC66_12090			
ASC66_12095			
ASC66_12100			
ASC66_12105			
ASC66_12110			
ASC66_12115			
ASC66_12120			
ASC66_12125			
ASC66_12130			
ASC66_12135			
ASC66_12140			
ASC66_12145			
ASC66_12150			
ASC66_12155			
ASC66_12160			
ASC66_12165			
ASC66_12170			
ASC66_12175			
ASC66_12180			
ASC66_12185			
ASC66_12190			
ASC66_12195			
ASC66_12200			
ASC66_12205			
ASC66_12210			
ASC66_12215			
ASC66_12220			
ASC66_12225			
ASC66_12230			
ASC66_12235		glpK	
ASC66_12240			
ASC66_12245			
ASC66_12250			
ASC66_12255			
ASC66_12260			
ASC66_12265			
ASC66_12270			
ASC66_12275			
ASC66_12280			
ASC66_12285			
ASC66_12290			
ASC66_12295			
ASC66_12300			
ASC66_12305			
ASC66_12310			
ASC66_12315			
ASC66_12320			
ASC66_12325			
ASC66_12330			
ASC66_12335			
ASC66_12340			
ASC66_12345			
ASC66_12350			
ASC66_12355			
ASC66_12360			
ASC66_12365			
ASC66_12370			
ASC66_12375			
ASC66_12380			
ASC66_12385			
ASC66_12390			
ASC66_12395			
ASC66_12400			
ASC66_12405			
ASC66_12410			
ASC66_12415			
ASC66_12420			
ASC66_12425			
ASC66_12430			
ASC66_12435			
ASC66_12440			
ASC66_12445			
ASC66_12455			
ASC66_12460			
ASC66_12465			
ASC66_12470			
ASC66_12475			
ASC66_12480			
ASC66_12485			
ASC66_12490			
ASC66_12495			
ASC66_12500			
ASC66_12505			
ASC66_12515			
ASC66_12520			
ASC66_12525			
ASC66_12530			
ASC66_12535			
ASC66_12540			
ASC66_12545			
ASC66_12550			
ASC66_12555			
ASC66_12560			
ASC66_12565			
ASC66_12570			
ASC66_12575			
ASC66_12580			
ASC66_12585			
ASC66_12590			
ASC66_12595			
ASC66_12600			
ASC66_12605			
ASC66_12610			
ASC66_12615			
ASC66_12620			
ASC66_12625			
ASC66_12630			
ASC66_12635			
ASC66_12640			
ASC66_12645			
ASC66_12650			
ASC66_12655			
ASC66_12660			
ASC66_12665			
ASC66_12670			
ASC66_12675			
ASC66_12680			
ASC66_12685			
ASC66_12690			
ASC66_12700			
ASC66_12705			
ASC66_12710			
ASC66_12715			
ASC66_12720			
ASC66_12725			
ASC66_12730			
ASC66_12735			
ASC66_12740			
ASC66_12745			
ASC66_12750			
ASC66_12755			
ASC66_12760			
ASC66_12765			
ASC66_12770			
ASC66_12775			
ASC66_12780			
ASC66_12785			
ASC66_12790			
ASC66_12805			
ASC66_12810			
ASC66_12815			
ASC66_12820			
ASC66_12825			
ASC66_12830			
ASC66_12835		obgE	
ASC66_12840			
ASC66_12845			
ASC66_12850			
ASC66_12855			
ASC66_12860			
ASC66_12865			
ASC66_12870			
ASC66_12875			
ASC66_12880			
ASC66_12885		ileS	
ASC66_12890			
ASC66_12895			
ASC66_12900			
ASC66_12905			
ASC66_12910			
ASC66_12915			
ASC66_12920			
ASC66_12925		valS	
ASC66_12930			
ASC66_12935			
ASC66_12940			
ASC66_12945			
ASC66_12950		sufC	
ASC66_12955			
ASC66_12960			
ASC66_12965			
ASC66_12970			
ASC66_12975			
ASC66_12980			
ASC66_12985			
ASC66_12990			
ASC66_12995			
ASC66_13000			
ASC66_13005			
ASC66_13010			
ASC66_13015			
ASC66_13020			
ASC66_13025			
ASC66_13030		pgk	
ASC66_13035			
ASC66_13040			
ASC66_13045			
ASC66_13050			
ASC66_13055			
ASC66_13060			
ASC66_13065			
ASC66_13070			
ASC66_13075			
ASC66_13080			
ASC66_13085		rpsA	
ASC66_13090			
ASC66_13095			
ASC66_13100			
ASC66_13105			
ASC66_13110			
ASC66_13115			
ASC66_13125			
ASC66_13130			
ASC66_13135			
ASC66_13140			
ASC66_13145		gltD	
ASC66_13150			
ASC66_13155			
ASC66_13160			
ASC66_13165			
ASC66_13170			
ASC66_13175			
ASC66_13180			
ASC66_13185			
ASC66_13190			
ASC66_13195			
ASC66_13200			
ASC66_13205		hisE	
ASC66_13210			
ASC66_13215			
ASC66_13220			
ASC66_13225			
ASC66_13230			
ASC66_13235			
ASC66_13240			
ASC66_13245			
ASC66_13250			
ASC66_13255			
ASC66_13260		carB	
ASC66_13265			
ASC66_13270			
ASC66_13275			
ASC66_13280			
ASC66_13285			
ASC66_13440			
ASC66_13770			
ASC66_13815			
ASC66_13300			
ASC66_13305			
ASC66_13310			
ASC66_13315			
ASC66_13320			
ASC66_13325			
ASC66_13330			
ASC66_13335			
ASC66_13340			
ASC66_13345			
ASC66_13350			
ASC66_13355			
ASC66_13360			
ASC66_13365			
ASC66_13370			
ASC66_13375			
ASC66_13380			
ASC66_13385			
ASC66_13390			
ASC66_13395			
ASC66_13400			
ASC66_14480			
ASC66_13405			
ASC66_13410			
ASC66_13420			
ASC66_13425			
ASC66_13430			
ASC66_13435			
ASC66_13445			
ASC66_13455			
ASC66_13810			
ASC66_13465			
ASC66_13470			
ASC66_13475			
ASC66_13480			
ASC66_13485			
ASC66_13490			
ASC66_13495			
ASC66_13500			
ASC66_13505			
ASC66_13510			
ASC66_13515			
ASC66_13520			
ASC66_13525			
ASC66_13530			
ASC66_13535			
ASC66_13885			
ASC66_13540			
ASC66_13545			
ASC66_13550			
ASC66_13555			
ASC66_13560			
ASC66_13565			
ASC66_13575			
ASC66_13585			
ASC66_13590			
ASC66_13595			
ASC66_13600			
ASC66_13605			
ASC66_13610			
ASC66_13615			
ASC66_13620			
ASC66_13625			
ASC66_13630			
ASC66_13640			
ASC66_13645			
ASC66_13650			
ASC66_13655			
ASC66_13660			
ASC66_13665			
ASC66_13670			
ASC66_13675			
ASC66_13680			
ASC66_13685			
ASC66_13690			
ASC66_13695			
ASC66_13710			
ASC66_13715			
ASC66_13720			
ASC66_13725			
ASC66_13730			
ASC66_13735			
ASC66_13740			
ASC66_13745			
ASC66_13750			
ASC66_13755			
ASC66_13760			
ASC66_13775			
ASC66_13785			
ASC66_13790			
ASC66_14025			
ASC66_13800			
ASC66_13805			
ASC66_13820			
ASC66_13825			
ASC66_13830			
ASC66_13835			
ASC66_13840			
ASC66_13845			
ASC66_13850			
ASC66_13855			
ASC66_13860			
ASC66_14280			
ASC66_14050			
ASC66_13870			
ASC66_13875			
ASC66_13880			
ASC66_14250			
ASC66_13890			
ASC66_13895			
ASC66_13900			
ASC66_13905			
ASC66_13910			
ASC66_13915			
ASC66_13920			
ASC66_13925			
ASC66_13930			
ASC66_13935			
ASC66_13940			
ASC66_13950			
ASC66_13955			
ASC66_13960			
ASC66_13965			
ASC66_13970			
ASC66_13975			
ASC66_13980			
ASC66_13985			
ASC66_13990			
ASC66_13995			
ASC66_14000			
ASC66_14005			
ASC66_14010			
ASC66_14015			
ASC66_14020			
ASC66_14030			
ASC66_14035			
ASC66_14040			
ASC66_14045			
ASC66_14530			
ASC66_14055			
ASC66_14365			
ASC66_14060			
ASC66_14065			
ASC66_14070			
ASC66_14075			
ASC66_14080			
ASC66_14090			
ASC66_14100			
ASC66_14410			
ASC66_14105			
ASC66_14110			
ASC66_14115			
ASC66_14120			
ASC66_14125			
ASC66_14135			
ASC66_14140			
ASC66_14145			
ASC66_14150			
ASC66_14155			
ASC66_14160			
ASC66_14165			
ASC66_14170			
ASC66_14175			
ASC66_14180			
ASC66_14185			
ASC66_14190			
ASC66_14195			
ASC66_14200			
ASC66_14245			
ASC66_14205			
ASC66_14215			
ASC66_14225			
ASC66_14230			
ASC66_14235			
ASC66_14240			
ASC66_14255			
ASC66_14260			
ASC66_14265			
ASC66_14270			
ASC66_14275			
ASC66_14375			
ASC66_14285			
ASC66_14290			
ASC66_14295			
ASC66_14300			
ASC66_14305			
ASC66_14310			
ASC66_14315			
ASC66_14320			
ASC66_14325			
ASC66_14330			
ASC66_14535			
ASC66_14335			
ASC66_14340			
ASC66_14345			
ASC66_14350			
ASC66_14355			
ASC66_14360			
ASC66_14370			
ASC66_14420			
ASC66_14380			
ASC66_14385			
ASC66_14390			
ASC66_14395			
ASC66_14400			
ASC66_14405			
ASC66_14515			
ASC66_14415			
ASC66_14425			
ASC66_14435			
ASC66_14440			
ASC66_14445			
ASC66_14450			
ASC66_14455			
ASC66_14460			
ASC66_14485			
ASC66_14465			
ASC66_14470			
ASC66_14475			
ASC66_14505			
ASC66_14490		rocD	
ASC66_14495			
ASC66_14500			
ASC66_14510			
ASC66_14565			
ASC66_14525			
ASC66_14520			
ASC66_14540			
ASC66_14545			
ASC66_14550			
ASC66_14555			
ASC66_14560			
ASC66_14570			
ASC66_14575			
ASC66_14580			
ASC66_14585			
ASC66_14590			
ASC66_14595			
ASC66_14600			
ASC66_14605			
ASC66_14610			
ASC66_14615			
ASC66_14620			
ASC66_14625			
ASC66_14630			
ASC66_14635			
ASC66_14640			
ASC66_14645			
ASC66_14650			
ASC66_14655			
ASC66_14660			
ASC66_14665			
ASC66_14670			
ASC66_14675			
ASC66_14680			
ASC66_14685			
ASC66_14690			
ASC66_14695			
ASC66_14700			
ASC66_14705			
ASC66_14715			
ASC66_14720			
ASC66_14725			
ASC66_14730			
ASC66_14735			
ASC66_14745			
ASC66_14750			
ASC66_14755		ubiA	
ASC66_14760			
ASC66_14765			
ASC66_14770			
ASC66_14775			
ASC66_14780			
ASC66_14785			
ASC66_14790			
ASC66_14795			
ASC66_14800			
ASC66_14805			
ASC66_14810			
ASC66_14815			
ASC66_14820			
ASC66_14830			
ASC66_14835			
ASC66_14840			
ASC66_14845			
ASC66_14850			
ASC66_14855			
ASC66_14860			
ASC66_14865			
ASC66_14870			
ASC66_14875			
ASC66_14880			
ASC66_14885			
ASC66_14890			
ASC66_14895			
ASC66_14900			
ASC66_14905			
ASC66_14910			
ASC66_14915			
ASC66_14920			
ASC66_14925			
ASC66_14930			
ASC66_14935			
ASC66_14940			
ASC66_14945			
ASC66_14950			
ASC66_14955			
ASC66_14960			
ASC66_14965			
ASC66_14970			
ASC66_14980			
ASC66_14985			
ASC66_14990			
ASC66_14995			
ASC66_15000			
ASC66_15005			
ASC66_15010			
ASC66_15015			
ASC66_15020			
ASC66_15025			
ASC66_15030			
ASC66_15035			
ASC66_15040			
ASC66_15045			
ASC66_15060			
ASC66_15065			
ASC66_15070			
ASC66_15075			
ASC66_15080			
ASC66_15085			
ASC66_15090			
ASC66_15095			
ASC66_15100			
ASC66_15105			
ASC66_15110			
ASC66_15115			
ASC66_15120			
ASC66_15125			
ASC66_15130			
ASC66_15135			
ASC66_15140			
ASC66_15145			
ASC66_15150			
ASC66_15155			
ASC66_15160			
ASC66_15165			
ASC66_15170			
ASC66_15175			
ASC66_15180			
ASC66_15185			
ASC66_15190			
ASC66_15195			
ASC66_15200			
ASC66_15205			
ASC66_15210			
ASC66_15215			
ASC66_15220			
ASC66_15225			
ASC66_15230			
ASC66_17415			
ASC66_15235			
ASC66_15240			
ASC66_17380			
ASC66_15245			
ASC66_15250			
ASC66_15255			
ASC66_15260			
ASC66_15265			
ASC66_15270			
ASC66_15275			
ASC66_15280			
ASC66_15285			
ASC66_15290			
ASC66_17405			
ASC66_15295			
ASC66_17650			
ASC66_15300			
ASC66_15305			
ASC66_15310			
ASC66_15315			
ASC66_15320			
ASC66_15325			
ASC66_15330			
ASC66_15335			
ASC66_15340			
ASC66_15345			
ASC66_15350			
ASC66_15355			
ASC66_15360			
ASC66_15365			
ASC66_15370			
ASC66_15375			
ASC66_15380			
ASC66_15385			
ASC66_15390			
ASC66_15395			
ASC66_15400			
ASC66_15405			
ASC66_15410			
ASC66_15415			
ASC66_15420			
ASC66_15425			
ASC66_15430			
ASC66_15435			
ASC66_15445			
ASC66_15450			
ASC66_15455			
ASC66_15460			
ASC66_15465			
ASC66_15470			
ASC66_15475			
ASC66_15480			
ASC66_15485			
ASC66_15490			
ASC66_15495			
ASC66_15500			
ASC66_15505			
ASC66_15510			
ASC66_15515			
ASC66_15520			
ASC66_15525			
ASC66_15530			
ASC66_15535			
ASC66_15540			
ASC66_15545			
ASC66_17585			
ASC66_15550			
ASC66_15555			
ASC66_15560			
ASC66_15565			
ASC66_15570			
ASC66_15575			
ASC66_15585			
ASC66_15590			
ASC66_15595			
ASC66_15600			
ASC66_15605			
ASC66_15615			
ASC66_15620			
ASC66_15625			
ASC66_15630			
ASC66_15635			
ASC66_15640			
ASC66_15645			
ASC66_15650			
ASC66_15655			
ASC66_15660			
ASC66_15665			
ASC66_15670			
ASC66_15675			
ASC66_15680			
ASC66_15685			
ASC66_15690			
ASC66_15695			
ASC66_15700			
ASC66_15705		dnaK	
ASC66_15710			
ASC66_15715			
ASC66_15720			
ASC66_15725			
ASC66_15730			
ASC66_15735			
ASC66_15740			
ASC66_15745			
ASC66_15750			
ASC66_15755			
ASC66_15760			
ASC66_15765			
ASC66_17560			
ASC66_17570			
ASC66_16975			
ASC66_16980			
ASC66_17180			
ASC66_17185			
ASC66_17190			
ASC66_17195			
ASC66_17200			
ASC66_15845			
ASC66_13460			
ASC66_13700			
ASC66_13705			
ASC66_13765			
ASC66_14095			
ASC66_14210			
ASC66_14220			
ASC66_14975			
ASC66_15050			
ASC66_15055			
ASC66_17385			
ASC66_15610			
ASC66_09865			
ASC66_11125			
ASC66_11190			
ASC66_11960			
ASC66_02345			
ASC66_02350			
ASC66_13295			
ASC66_02355			
ASC66_02360			
ASC66_12450			
ASC66_02365			
ASC66_02370			
ASC66_12795			
ASC66_02375			
ASC66_02380			
ASC66_12800			
ASC66_02385			
ASC66_06135			
ASC66_02390			
ASC66_13120			
ASC66_06140			
ASC66_02395			
ASC66_06145			
ASC66_02400			
ASC66_06220			
ASC66_06150			
ASC66_02405			
ASC66_06155			
ASC66_02410			
ASC66_07290			
ASC66_06160			
ASC66_02415			
ASC66_06165			
ASC66_02420			
ASC66_07400			
ASC66_02425			
ASC66_06170			
ASC66_00005			
ASC66_06175			
ASC66_02430			
ASC66_00010			
ASC66_07540			
ASC66_00015			
ASC66_06180			
ASC66_02435			
ASC66_17400			
ASC66_02440			
ASC66_06185			
ASC66_00020			
ASC66_07700			
ASC66_00025			
ASC66_06190			
ASC66_02445			
ASC66_00030			
ASC66_06195			
ASC66_02450			
ASC66_07980			
ASC66_02455			
ASC66_06200			
ASC66_00035			
ASC66_00040			
ASC66_06205			
ASC66_02460			
ASC66_08090			
ASC66_06210			
ASC66_00045			
ASC66_00050			
ASC66_06215		glmU	
ASC66_02470			
ASC66_08415			
ASC66_06225			
ASC66_02475			
ASC66_00060			
ASC66_06230			
ASC66_02480			
ASC66_09700			
ASC66_00065			
ASC66_06235			
ASC66_02485			
ASC66_06240			
ASC66_02490			
ASC66_00070			
ASC66_09740			
ASC66_06245			
ASC66_02495			
ASC66_00075			
ASC66_06250			
ASC66_02500			
ASC66_00080			
ASC66_09745			
ASC66_02505			
ASC66_06255			
ASC66_00085			
ASC66_00090			
ASC66_06260			
ASC66_02510			
ASC66_09750			
ASC66_02515			
ASC66_06265			
ASC66_00095			
ASC66_00100			
ASC66_06270			
ASC66_02520			
ASC66_00480			
ASC66_00105			
ASC66_06275			
ASC66_02525			
ASC66_00115		pyrH	
ASC66_00110			
ASC66_06280			
ASC66_02530			
ASC66_00485			
ASC66_04625			
ASC66_06285			
ASC66_02535			
ASC66_00120			
ASC66_06290			
ASC66_02540			
ASC66_00525			
ASC66_00125			
ASC66_02545			
ASC66_06300			
ASC66_02550			
ASC66_00130			
ASC66_01040			
ASC66_00135			
ASC66_06305			
ASC66_02555			
ASC66_00140			
ASC66_06310			
ASC66_02560			
ASC66_01330			
ASC66_06315			
ASC66_02565			
ASC66_00145			
ASC66_06320			
ASC66_02570			
ASC66_00150			
ASC66_01425			
ASC66_06325			
ASC66_02575			
ASC66_00155			
ASC66_00160			
ASC66_06330			
ASC66_02580			
ASC66_01570			
ASC66_06335			
ASC66_02585			
ASC66_00165			
ASC66_06340			
ASC66_02590			
ASC66_00170			
ASC66_01580			
ASC66_06345			
ASC66_02595			
ASC66_00180			
ASC66_06350			
ASC66_02600			
ASC66_01990			
ASC66_00185		rplS	
ASC66_06355			
ASC66_02605			
ASC66_06360			
ASC66_02610			
ASC66_00190			
ASC66_04040			
ASC66_00195			
ASC66_06365			
ASC66_02615			
ASC66_00200			
ASC66_06370			
ASC66_02620			
ASC66_04475			
ASC66_00205			
ASC66_06375			
ASC66_02625			
ASC66_00210			
ASC66_06380			
ASC66_02630			
ASC66_04620			
ASC66_00215			
ASC66_06385			
ASC66_02635			
ASC66_00220			
ASC66_06390			
ASC66_02640			
ASC66_00225			
ASC66_06395			
ASC66_02645			
ASC66_02650			
ASC66_06400			
ASC66_00230			
ASC66_04630			
ASC66_02655			
ASC66_06405			
ASC66_00235			
ASC66_00240			
ASC66_06410			
ASC66_02660			
ASC66_00245			
ASC66_06415			
ASC66_02665			
ASC66_02670			
ASC66_06420			
ASC66_00250			
ASC66_00255			
ASC66_02675			
ASC66_00260			
ASC66_06430			
ASC66_02680			
ASC66_02685			
ASC66_06435			
ASC66_00265			
ASC66_02690			
ASC66_06440			
ASC66_00270			
ASC66_00275			
ASC66_06445			
ASC66_02695			
ASC66_06450			
ASC66_02700			
ASC66_00280			
ASC66_00285			
ASC66_06455			
ASC66_02705			
ASC66_02710			
ASC66_06460			
ASC66_00290			
ASC66_06465			
ASC66_02715			
ASC66_00295			
ASC66_02720			
ASC66_06470			
ASC66_00300			
ASC66_00305			
ASC66_06475			
ASC66_02725			
ASC66_00310			
ASC66_06480			
ASC66_02730			
ASC66_00315			
ASC66_06485			
ASC66_02735			
ASC66_00320			
ASC66_06490			
ASC66_02740			
ASC66_00325			
ASC66_06495			
ASC66_02745			
ASC66_06500			
ASC66_02750			
ASC66_00330			
ASC66_02755			
ASC66_06505			
ASC66_00335			
ASC66_00340			
ASC66_06510			
ASC66_02760			
ASC66_00345			
ASC66_06515			
ASC66_02765			
ASC66_00350			
ASC66_06520			
ASC66_02770			
ASC66_06525			
ASC66_00355			
ASC66_02780			
ASC66_06530			
ASC66_00360			
ASC66_06535			
ASC66_02785			
ASC66_00365			
ASC66_02790			
ASC66_06540			
ASC66_00370			
ASC66_02795			
ASC66_06545			
ASC66_00375			
ASC66_00380			
ASC66_06550			
ASC66_02800		glpK	
ASC66_00385			
ASC66_06555			
ASC66_02805			
ASC66_02810			
ASC66_06560			
