id	Common name	linked reactions
ASC59_06450	Unknown	CITSYN-RXN
ASC59_02210	Unknown	ALKANE-1-MONOOXYGENASE-RXN
ASC59_04030	Unknown	RXN-11109
ASC59_07200	Unknown	3.1.4.17-RXN
ASC59_04360	Unknown	1.11.1.15-RXN;RXN0-5468
ASC59_11770	Unknown	FGAMSYN-RXN
ASC59_06290	Unknown	RXN0-4261
ASC59_02855	Unknown	PEPTIDYLPROLYL-ISOMERASE-RXN
ASC59_14860	Unknown	ASPAMINOTRANS-RXN;RXN-10814;RXN-11737;RXN-13697
ASC59_03165	Unknown	DEPHOSPHOCOAKIN-RXN
ASC59_00680	Unknown	ADENOSYLHOMOCYSTEINASE-RXN
ASC59_01875	Unknown	THYMIDYLATESYN-RXN
ASC59_13285	Unknown	KDUD-RXN
ASC59_08940	Unknown	GALACTOKIN-RXN
ASC59_15440	Unknown	RIBULPEPIM-RXN
ASC59_00375	Unknown	RXN0-743
ASC59_02650	Unknown	RXN1A0-6303
ASC59_00275	Unknown	ADDALT-RXN;ADENODEAMIN-RXN
ASC59_12990	Unknown	TRNA-CYTIDYLYLTRANSFERASE-RXN
ASC59_00420	Unknown	NAG1P-URIDYLTRANS-RXN
ASC59_02695	Unknown	ATPASE-RXN
ASC59_13185	Unknown	2.4.1.230-RXN;RXN-15358
ASC59_07680	Unknown	RXN-12587;RXN-12588;RXN-14382;RXN-14385;RXN-15881;RXN-9787;RXN0-308
ASC59_00200	Unknown	TRYPTOPHAN--TRNA-LIGASE-RXN
ASC59_01810	Unknown	ACYLCOADEHYDROG-RXN;RXN-17775;RXN-17779;RXN-17783;RXN-17784;RXN-17788;RXN-17792;RXN-17796
ASC59_15665	Unknown	2.1.1.79-RXN;RXN-7421;RXN1G-2544;RXN1G-3641
ASC59_05650	Unknown	3.4.11.1-RXN
ASC59_13035	Unknown	RXN-11578
ASC59_00560	Unknown	GDPMANDEHYDRA-RXN
ASC59_00030	Unknown	RXN0-5100
ASC59_05525	Unknown	RXN0-4261
ASC59_13935	Unknown	2.3.2.13-RXN;RXN-19236
ASC59_04805	Unknown	RIB5PISOM-RXN
ASC59_07425	Unknown	GLUC1PURIDYLTRANS-RXN
ASC59_04820	Unknown	3.4.11.2-RXN
ASC59_01065	Unknown	HOMOSERDEHYDROG-RXN
ASC59_00825	Unknown	RXN-7774
ASC59_05735	Unknown	3-ISOPROPYLMALDEHYDROG-RXN;RXN-13158;RXN-14986;RXN-18200;RXN-18202;RXN-18204;RXN-18206;RXN-18208;RXN-18210;RXNQT-4165;RXNQT-4168;RXNQT-4171;RXNQT-4174;RXNQT-4178
ASC59_05870	Unknown	HISTIDPHOS-RXN
ASC59_00935	Unknown	2.7.13.3-RXN
ASC59_12790	Unknown	RXN0-5100
ASC59_03220	Unknown	TRIOSEPISOMERIZATION-RXN
ASC59_12470	Unknown	DCTP-DEAM-RXN;RXN-14118
ASC59_07430	Unknown	5-FORMYL-THF-CYCLO-LIGASE-RXN
ASC59_13070	Unknown	DNA-DIRECTED-DNA-POLYMERASE-RXN
ASC59_10005	Unknown	GLUTAMATE-N-ACETYLTRANSFERASE-RXN;N-ACETYLTRANSFER-RXN;RXN0-6948
ASC59_10055	Unknown	PANTOATE-BETA-ALANINE-LIG-RXN
ASC59_04365	Unknown	2OXOGLUTARATEDEH-RXN;2OXOGLUTDECARB-RXN;RXN-7716;RXN0-1147
ASC59_02345	Unknown	GLUCOKIN-RXN;HEXOKINASE-RXN
ASC59_09155	Unknown	GLUTAMATE-DEHYDROGENASE-NADP+-RXN;GLUTAMATE-DEHYDROGENASE-RXN;GLUTDEHYD-RXN
ASC59_00270	Unknown	THYM-PHOSPH-RXN;URA-PHOSPH-RXN;URPHOS-RXN
ASC59_11545	Unknown	UROCANATE-HYDRATASE-RXN
ASC59_01725	Unknown	METHELENE-THMPT-OXI-RXN
ASC59_02880	Unknown	ALANINE--TRNA-LIGASE-RXN
ASC59_02980	Unknown	P-PANTOCYSDECARB-RXN
ASC59_10605	Unknown	1.8.4.12-RXN
ASC59_02190	Unknown	RXN-12134;RXN-12140;RXN-12141;RXN-12142
ASC59_12415	Unknown	PROTEIN-KINASE-RXN
ASC59_05365	Unknown	UROGENIIISYN-RXN
ASC59_10330	Unknown	RXN0-4261
ASC59_13875	Unknown	RXN0-5306
ASC59_02820	ruvB	RXN0-4261
ASC59_08065	Unknown	4.1.2.20-RXN;KDGALDOL-RXN
ASC59_16315	Unknown	DNA-DIRECTED-DNA-POLYMERASE-RXN
ASC59_02255	Unknown	RXN-11355;RXN-12243;RXN-12244
ASC59_10610	Unknown	RXN-8668
ASC59_01975	Unknown	DIAMINOPIMEPIM-RXN
ASC59_10390	Unknown	UDPGLUCEPIM-RXN
ASC59_10095	Unknown	GTP-CYCLOHYDRO-I-RXN
ASC59_02390	Unknown	RXN-11638
ASC59_00160	Unknown	LUMAZINESYN-RXN
ASC59_06915	Unknown	AMINOCYL-TRNA-HYDROLASE-RXN;RXN-16637
ASC59_09280	Unknown	ASPAMINOTRANS-RXN;RXN-10814;RXN-11737;RXN-13697
ASC59_00060	Unknown	RXN-11832;RXN-12002;RXN-7913
ASC59_03410	Unknown	GLUTSEMIALDEHYDROG-RXN
ASC59_09150	Unknown	DIMETHYLARGININASE-RXN
ASC59_02070	Unknown	2.7.13.3-RXN
ASC59_16715	Unknown	NICOTINAMID-RXN
ASC59_13625	Unknown	UROGENIIISYN-RXN
ASC59_02970	Unknown	GUANYL-KIN-RXN
ASC59_14035	Unknown	PREPHENATEDEHYDRAT-RXN
ASC59_11840	Unknown	GLYRIBONUCSYN-RXN
ASC59_11585	Unknown	CARBOXYMETHYLENEBUTENOLIDASE-RXN;DIENELACHYDRO-RXN;RXN-9857;RXN-9868;RXN-9887;RXN-9890
ASC59_00025	Unknown	RXN0-1441
ASC59_09485	Unknown	ADENYL-KIN-RXN
ASC59_02340	Unknown	ACYLCOASYN-RXN;LINOLENOYL-RXN;R223-RXN;RXN-12184;RXN-12978;RXN-13290;RXN-13614;RXN-16380;RXN-16389;RXN-16393;RXN-16401;RXN-16402;RXN-16415;RXN-16418;RXN-7904;RXN-9623;RXN-9644;RXN-9673;RXN0-7238;RXN0-7239;RXN0-7248;RXN66-469;RXN66-477;RXN66-480;RXN66-483;RXN66-484;TRANS-RXN0-623
ASC59_07140	Unknown	ACYLPHOSPHATASE-RXN
ASC59_01500	Unknown	DEOXYRIBOSE-P-ALD-RXN
ASC59_10740	Unknown	F16ALDOLASE-RXN;RXN-8631
ASC59_09820	Unknown	RXN0-1441
ASC59_14765	Unknown	PUTRESCINE-OXIDASE-RXN
ASC59_13655	Unknown	NQOR-RXN;RXN-12303
ASC59_02480	Unknown	DNA-DIRECTED-DNA-POLYMERASE-RXN
ASC59_08830	Unknown	POLYPHOSPHATE-KINASE-RXN
ASC59_12550	Unknown	RXN-12508;RXN-12583;RXN0-1134
ASC59_10535	Unknown	ACYLCOADEHYDROG-RXN;RXN-17775;RXN-17779;RXN-17783;RXN-17784;RXN-17788;RXN-17792;RXN-17796
ASC59_06755	aspA	ASPARTASE-RXN
ASC59_11425	Unknown	RXN-11135
ASC59_06710	glpX	F16BDEPHOS-RXN
ASC59_15050	Unknown	ISOCIT-CLEAV-RXN
ASC59_10435	Unknown	2.3.2.13-RXN;RXN-19236
ASC59_09985	Unknown	ALANINE-DEHYDROGENASE-RXN
ASC59_04385	Unknown	RXN-17155
ASC59_03795	Unknown	3-OXOACYL-ACP-REDUCT-RXN;RXN-10060;RXN-10655;RXN-10659;RXN-11476;RXN-11480;RXN-13008;RXN-16616;RXN-16622;RXN-16626;RXN-16630;RXN-9514;RXN-9518;RXN-9524;RXN-9528;RXN-9532;RXN-9536;RXN-9540;RXN-9552;RXN-9556;RXN-9633;RXN0-2142;RXN1G-157;RXN1G-349;RXN1G-469;RXN1G-508
ASC59_16290	Unknown	PHOSACETYLTRANS-RXN
ASC59_00785	Unknown	ATPASE-RXN
ASC59_07700	Unknown	CARBOXYMETHYLENEBUTENOLIDASE-RXN;DIENELACHYDRO-RXN;RXN-9857;RXN-9868;RXN-9887;RXN-9890
ASC59_15220	Unknown	QOR-RXN
ASC59_09025	purU	FORMYLTHFDEFORMYL-RXN
ASC59_04150	Unknown	1.10.2.2-RXN;RXN-15829
ASC59_16530	Unknown	UGD-RXN
ASC59_02410	Unknown	UDP-NACMURALGLDAPLIG-RXN
ASC59_16335	Unknown	ASPARTATE-SEMIALDEHYDE-DEHYDROGENASE-RXN
ASC59_09755	Unknown	ALLOPHANATE-HYDROLASE-RXN
ASC59_05135	Unknown	CDPDIGLYSYN-RXN;RXN0-5515
ASC59_07380	Unknown	GLYOXIII-RXN
ASC59_15805	Unknown	2-OCTAPRENYL-6-OHPHENOL-METHY-RXN;DHHB-METHYLTRANSFER-RXN
ASC59_03405	Unknown	GLUTKIN-RXN
ASC59_00225	Unknown	RXN-14971;RXN-15378;SUCCINATE-DEHYDROGENASE-UBIQUINONE-RXN
ASC59_03325	valS	VALINE--TRNA-LIGASE-RXN
ASC59_06650	Unknown	3.2.2.23-RXN;RXN-18435
ASC59_06740	Unknown	3.1.11.6-RXN
ASC59_13280	Unknown	4OH2OXOGLUTARALDOL-RXN;KDPGALDOL-RXN
ASC59_11595	Unknown	ATPASE-RXN
ASC59_15025	Unknown	ISOCHORMAT-RXN
ASC59_14390	Unknown	ISOCHORSYN-RXN
ASC59_10670	Unknown	RXN0-5289;TSA-REDUCT-RXN
ASC59_11525	Unknown	HISTIDINE-AMMONIA-LYASE-RXN
ASC59_05090	Unknown	GLYCOGEN-BRANCH-RXN;RXN-14371;RXN-14372;RXN-18777;RXN-7669;RXN-7710
ASC59_04295	Unknown	3.4.11.18-RXN;RXN-17873;RXN-17874;RXN-17875;RXN-17876;RXN-17877;RXN-17878
ASC59_11670	Unknown	AIRS-RXN
ASC59_07020	Unknown	METHIONINE--TRNA-LIGASE-RXN;RXN-16165
ASC59_04145	Unknown	CYSTATHIONINE-BETA-LYASE-RXN;RXN-15131
ASC59_00090	Unknown	ACETYL-COA-ACETYLTRANSFER-RXN;METHYLACETOACETYLCOATHIOL-RXN;RXN-12561
ASC59_12425	Unknown	3.2.1.21-RXN
ASC59_10890	Unknown	3.2.1.89-RXN
ASC59_02420	murD	UDP-NACMURALA-GLU-LIG-RXN
ASC59_02355	Unknown	DAHPSYN-RXN
ASC59_08860	Unknown	BRANCHED-CHAINAMINOTRANSFERILEU-RXN;BRANCHED-CHAINAMINOTRANSFERLEU-RXN;BRANCHED-CHAINAMINOTRANSFERVAL-RXN
ASC59_12540	Unknown	KETOACYLCOATHIOL-RXN;RXN-10699;RXN-10700;RXN-10701;RXN-11246;RXN-12565;RXN-12710;RXN-13617;RXN-14268;RXN-14274;RXN-14277;RXN-14394;RXN-14774;RXN-14788;RXN-14793;RXN-14799;RXN-14803;RXN-16137;RXN-17116;RXN-17778;RXN-17782;RXN-17787;RXN-17791;RXN-17795;RXN-17799;RXN-3641
ASC59_03215	pgk	PHOSGLYPHOS-RXN
ASC59_05310	Unknown	3.1.26.4-RXN
ASC59_04285	Unknown	GLUTAMINESYN-RXN
ASC59_15950	Unknown	METHELENE-THMPT-OXI-RXN
ASC59_02435	Unknown	UDP-NACMUR-ALA-LIG-RXN
ASC59_06235	Unknown	HISTIDPHOS-RXN
ASC59_04725	Unknown	RXN-6883;RXN0-5266
ASC59_11710	Unknown	GLYRIBONUCSYN-RXN
ASC59_06435	Unknown	PENICILLIN-AMIDASE-RXN;RXN-17099
ASC59_01615	Unknown	GLUTAMINESYN-RXN
ASC59_10645	Unknown	GLUTDECARBOX-RXN
ASC59_05045	Unknown	6.3.5.7-RXN
ASC59_06795	Unknown	RXN-15122;THREDEHYD-RXN
ASC59_04290	Unknown	3-CH3-2-OXOBUTANOATE-OH-CH3-XFER-RXN;RXN-15635
ASC59_08975	Unknown	GLYOHMETRANS-RXN;RXN0-5234
ASC59_13320	Unknown	RXN0-5306
ASC59_13145	Unknown	PABASYN-RXN
ASC59_05555	Unknown	GLYC3PDEHYDROGBIOSYN-RXN
ASC59_03255	Unknown	TRANSALDOL-RXN
ASC59_03070	gltD	GLUTAMATESYN-RXN;GLUTAMIN-RXN;GLUTDEHYD-RXN
ASC59_00295	Unknown	ADENPHOSPHOR-RXN;DEOXYADENPHOSPHOR-RXN;DEOXYGUANPHOSPHOR-RXN;DEOXYINOPHOSPHOR-RXN;INOPHOSPHOR-RXN;PNP-RXN;RXN-11715;RXN-11743;RXN-14029;RXN-7001;RXN0-5199;XANTHOSINEPHOSPHORY-RXN
ASC59_16740	Unknown	HOMOCYSMET-RXN
ASC59_10470	Unknown	CARBOXYMETHYLENEBUTENOLIDASE-RXN;DIENELACHYDRO-RXN;RXN-9857;RXN-9868;RXN-9887;RXN-9890
ASC59_06950	Unknown	PRPPSYN-RXN
ASC59_11590	Unknown	FORMIMINOGLUTAMASE-RXN
ASC59_01890	Unknown	DIHYDRODIPICSYN-RXN
ASC59_00845	Unknown	IMP-DEHYDROG-RXN
ASC59_13585	Unknown	RXN-10642;UROGENDECARBOX-RXN
ASC59_11725	Unknown	GLYOXIII-RXN
ASC59_03075	Unknown	PEPDEPHOS-RXN;RXN-14117;RXN-14192;RXN-14207
ASC59_02775	thrS	THREONINE--TRNA-LIGASE-RXN
ASC59_01270	Unknown	ATPASE-RXN
ASC59_06885	eno	2PGADEHYDRAT-RXN
ASC59_07930	Unknown	ATPASE-RXN
ASC59_13610	Unknown	1.13.11.49-RXN
ASC59_09700	Unknown	3.1.1.72-RXN
ASC59_11950	Unknown	ARGSUCCINSYN-RXN;RXN-10
ASC59_03265	Unknown	HEMEOSYN-RXN
ASC59_16115	Unknown	XYLULOKIN-RXN
ASC59_01090	Unknown	SERINE-O-ACETTRAN-RXN
ASC59_15475	Unknown	GLYOXIII-RXN
ASC59_04275	Unknown	GLUTAMINESYN-RXN
ASC59_14720	Unknown	ALPHAGALACTOSID-RXN;RXN-11501;RXN-11502;RXN-12088;RXN-17754;RXN-17830
ASC59_08090	Unknown	1.10.2.2-RXN;RXN-15829
ASC59_06250	Unknown	RXN0-2584
ASC59_01030	Unknown	ARGINASE-RXN;RXN-34
ASC59_02940	Unknown	ASPCARBTRANS-RXN
ASC59_05565	Unknown	UDPNACETYLGLUCOSAMENOLPYRTRANS-RXN
ASC59_01095	Unknown	ACSERLY-RXN;RXN-12726
ASC59_15380	Unknown	CYSTATHIONINE-BETA-SYNTHASE-RXN;RXN-19038;RXN66-534;RXN66-562
ASC59_03355	ileS	ISOLEUCINE--TRNA-LIGASE-RXN
ASC59_07630	Unknown	ACYLCOASYN-RXN;LINOLENOYL-RXN;R223-RXN;RXN-12184;RXN-12978;RXN-13290;RXN-13614;RXN-16380;RXN-16389;RXN-16393;RXN-16401;RXN-16402;RXN-16415;RXN-16418;RXN-7904;RXN-9623;RXN-9644;RXN-9673;RXN0-7238;RXN0-7239;RXN0-7248;RXN66-469;RXN66-477;RXN66-480;RXN66-483;RXN66-484;TRANS-RXN0-623
ASC59_14455	Unknown	MYO-INOSITOL-1OR-4-MONOPHOSPHATASE-RXN;RXN-7253;RXN0-5408
ASC59_10280	Unknown	MALATE-DEH-RXN
ASC59_02040	Unknown	QOR-RXN
ASC59_14380	Unknown	2.5.1.64-RXN
ASC59_14960	Unknown	ACYLCOADEHYDROG-RXN;RXN-17775;RXN-17779;RXN-17783;RXN-17784;RXN-17788;RXN-17792;RXN-17796
ASC59_13615	Unknown	PROTOHEMEFERROCHELAT-RXN
ASC59_16755	Unknown	ASPAMINOTRANS-RXN;RXN-10814;RXN-11737;RXN-13697
ASC59_00630	Unknown	MANNPISOM-RXN
ASC59_05515	Unknown	ATPASE-RXN
ASC59_00650	Unknown	UDPGLUCEPIM-RXN
ASC59_00695	Unknown	CATAL-RXN;RXN-14189;RXN66-1
ASC59_02145	Unknown	RXN1A0-6303
ASC59_15775	Unknown	QOR-RXN
ASC59_15940	Unknown	DNA-LIGASE-NAD+-RXN;RXN-17918;RXN-17919;RXN-17920
ASC59_10505	Unknown	3-OXOACYL-ACP-REDUCT-RXN;RXN-10060;RXN-10655;RXN-10659;RXN-11476;RXN-11480;RXN-13008;RXN-16616;RXN-16622;RXN-16626;RXN-16630;RXN-9514;RXN-9518;RXN-9524;RXN-9528;RXN-9532;RXN-9536;RXN-9540;RXN-9552;RXN-9556;RXN-9633;RXN0-2142;RXN1G-157;RXN1G-349;RXN1G-469;RXN1G-508
ASC59_04200	Unknown	5.99.1.2-RXN
ASC59_08435	Unknown	3.2.1.3-RXN;RXN-9024
ASC59_02360	Unknown	PROTEIN-KINASE-RXN
ASC59_05540	Unknown	THI-P-KIN-RXN
ASC59_02975	Unknown	DNA-DIRECTED-RNA-POLYMERASE-RXN
ASC59_15695	Unknown	R101-RXN
ASC59_08655	Unknown	RXN0-4261
ASC59_03715	Unknown	ATPASE-RXN
ASC59_06455	Unknown	SUCCINYLDIAMINOPIMTRANS-RXN
ASC59_12555	Unknown	1.2.1.25-RXN;1.2.4.4-RXN;2.3.1.168-RXN;2KETO-3METHYLVALERATE-RXN;2KETO-4METHYL-PENTANOATE-DEHYDROG-RXN;ISOVALERYLCOA-DHLIPOAMIDE-RXN;KETOISOCAPROATE-RXN;MBCOA-DHLIPOAMIDE-RXN;METHYLVALERATE-RXN;RXN-7719
ASC59_06245	Unknown	2.7.13.3-RXN
ASC59_06240	Unknown	BIOTIN-CARBOXYL-RXN;RXN0-5055
ASC59_12560	Unknown	1.2.4.4-RXN;2.3.1.168-RXN;KETOISOCAPROATE-RXN;METHYLVALERATE-RXN;RXN-7790
ASC59_12050	Unknown	1.2.1.27-RXN;RXN-11213;RXN-2902
ASC59_03400	obgE	RXN0-5462
ASC59_16860	Unknown	ACETYLORNTRANSAM-RXN;RXN-15007
ASC59_03805	Unknown	GLUC1PADENYLTRANS-RXN
ASC59_12255	Unknown	ACETATE--COA-LIGASE-RXN;RXN-18446;RXN-18447;RXN-18448
ASC59_14085	Unknown	SPERMIDINESYN-RXN
ASC59_16760	Unknown	IMIDPHOSDEHYD-RXN
ASC59_11805	Unknown	2-HALOACID-DEHALOGENASE-RXN
ASC59_02900	Unknown	CHORISMATE-SYNTHASE-RXN
ASC59_13190	Unknown	2-HALOACID-DEHALOGENASE-RXN
ASC59_04210	Unknown	5.99.1.2-RXN
ASC59_01540	Unknown	RXN0-4261
ASC59_00990	Unknown	AMIDASE-RXN;GUANIDINOBUTANAMIDE-NH3-RXN;PYRAZIN-RXN;R311-RXN;RXN-14727;RXN-14728;RXN-17608;RXNN-404
ASC59_16845	Unknown	N-ACETYLGLUTPREDUCT-RXN;RXN-15006
ASC59_10110	Unknown	GUANPRIBOSYLTRAN-RXN;HYPOXANPRIBOSYLTRAN-RXN
ASC59_10520	Unknown	ACYLCOADEHYDROG-RXN;RXN-17775;RXN-17779;RXN-17783;RXN-17784;RXN-17788;RXN-17792;RXN-17796
ASC59_16770	Unknown	PRAISOM-RXN;PRIBFAICARPISOM-RXN
ASC59_07345	Unknown	RXN1A0-6303
ASC59_02840	Unknown	GDPPYPHOSKIN-RXN;GTPPYPHOSKIN-RXN
ASC59_05480	Unknown	3.2.2.23-RXN;RXN-18435
ASC59_16280	Unknown	ATPASE-RXN
ASC59_01860	Unknown	1.11.1.15-RXN;RXN0-5468
ASC59_02430	Unknown	NACGLCTRANS-RXN;RXN-8976
ASC59_07265	Unknown	PMPOXI-RXN;PNPOXI-RXN
ASC59_07850	Unknown	RXN1A0-6303
ASC59_03650	Unknown	DNA-DIRECTED-DNA-POLYMERASE-RXN
ASC59_07705	Unknown	RXN1A0-6303
ASC59_06690	Unknown	RXN0-4961
ASC59_14760	Unknown	SUCCINATE-SEMIALDEHYDE-DEHYDROGENASE-RXN
ASC59_11750	Unknown	3-HYDROXY-KYNURENINASE-RXN;KYNURENINASE-RXN
ASC59_16460	Unknown	UDPGLUCEPIM-RXN
ASC59_10545	Unknown	ACYLCOASYN-RXN;LINOLENOYL-RXN;R223-RXN;RXN-12184;RXN-12978;RXN-13290;RXN-13614;RXN-16380;RXN-16389;RXN-16393;RXN-16401;RXN-16402;RXN-16415;RXN-16418;RXN-7904;RXN-9623;RXN-9644;RXN-9673;RXN0-7238;RXN0-7239;RXN0-7248;RXN66-469;RXN66-477;RXN66-480;RXN66-483;RXN66-484;TRANS-RXN0-623
ASC59_00970	Unknown	RXN0-2584
ASC59_14405	Unknown	FARNESYLTRANSTRANSFERASE-RXN
ASC59_02270	Unknown	IPPISOM-RXN
ASC59_14755	Unknown	GABATRANSAM-RXN;RXN-2901
ASC59_03020	Unknown	GLUTAMIDOTRANS-RXN;GLUTAMIN-RXN;RXN-17900
ASC59_08760	Unknown	CYSTEINE--TRNA-LIGASE-RXN
ASC59_03260	Unknown	1TRANSKETO-RXN;2TRANSKETO-RXN
ASC59_05060	Unknown	RXN0-2023
ASC59_16415	Unknown	DURIDKI-RXN;THYKI-RXN
ASC59_14545	Unknown	ATPASE-RXN
ASC59_14120	Unknown	MALTODEXGLUCOSID-RXN;RXN-14281;RXN-14282;RXN-14283;RXN-15910;RXN0-5183
ASC59_09480	Unknown	3.4.11.18-RXN;RXN-17873;RXN-17874;RXN-17875;RXN-17876;RXN-17877;RXN-17878
ASC59_10515	Unknown	ACETYL-COA-ACETYLTRANSFER-RXN;METHYLACETOACETYLCOATHIOL-RXN;RXN-12561
ASC59_15770	Unknown	DNA-DIRECTED-DNA-POLYMERASE-RXN;RXN0-4961
ASC59_10275	Unknown	3.4.11.5-RXN
ASC59_13945	Unknown	LYSOPHOSPHOLIPASE-RXN;RXN-15035;RXN-19312
ASC59_14350	Unknown	O-SUCCINYLBENZOATE-COA-SYN-RXN
ASC59_11895	Unknown	2.7.13.3-RXN
ASC59_16890	Unknown	TYROSINE--TRNA-LIGASE-RXN
ASC59_01295	Unknown	ALANINE-DEHYDROGENASE-RXN
ASC59_13685	Unknown	RXN-12587;RXN-12588;RXN-14382;RXN-14385;RXN-15881;RXN-9787;RXN0-308
ASC59_03895	Unknown	RIBOFLAVINSYNREDUC-RXN
ASC59_08765	Unknown	RXN0-302
ASC59_04085	Unknown	RXN0-1342
ASC59_00500	Unknown	DTDPGLUCDEHYDRAT-RXN
ASC59_04375	Unknown	MALONYL-COA-ACP-TRANSACYL-RXN
ASC59_01960	Unknown	RXN0-6274
ASC59_00515	Unknown	DTDPGLUCOSEPP-RXN
ASC59_04450	Unknown	3.5.1.27-RXN;3.5.1.88-RXN
ASC59_01915	Unknown	HISTONE-ACETYLTRANSFERASE-RXN
ASC59_05785	Unknown	DIHYDROXYISOVALDEHYDRAT-RXN;DIHYDROXYMETVALDEHYDRAT-RXN
ASC59_02945	Unknown	DIHYDROOROT-RXN
ASC59_03940	Unknown	DNA-DIRECTED-DNA-POLYMERASE-RXN
ASC59_02785	Unknown	PYRAMKIN-RXN
ASC59_11550	Unknown	IMIDAZOLONEPROPIONASE-RXN
ASC59_03420	Unknown	NICONUCADENYLYLTRAN-RXN
ASC59_04255	Unknown	RXN0-1147
ASC59_04525	Unknown	DGTPTRIPHYDRO-RXN
ASC59_13390	Unknown	3.2.1.61-RXN
ASC59_06975	Unknown	PMPOXI-RXN;PNPOXI-RXN
ASC59_01420	Unknown	PROLINE--TRNA-LIGASE-RXN
ASC59_05330	Unknown	3.4.11.18-RXN;RXN-17873;RXN-17874;RXN-17875;RXN-17876;RXN-17877;RXN-17878
ASC59_00575	Unknown	2-HALOACID-DEHALOGENASE-RXN;3.8.1.11-RXN;RXN-6263;RXN-6264
ASC59_12085	Unknown	RXN0-275
ASC59_01135	Unknown	PHOSNACMURPENTATRANS-RXN
ASC59_06660	Unknown	DNA-DIRECTED-RNA-POLYMERASE-RXN
ASC59_06940	Unknown	ACYLCOASYN-RXN;LINOLENOYL-RXN;R223-RXN;RXN-12184;RXN-12978;RXN-13290;RXN-13614;RXN-16380;RXN-16389;RXN-16393;RXN-16401;RXN-16402;RXN-16415;RXN-16418;RXN-7904;RXN-9623;RXN-9644;RXN-9673;RXN0-7238;RXN0-7239;RXN0-7248;RXN66-469;RXN66-477;RXN66-480;RXN66-483;RXN66-484;TRANS-RXN0-623
ASC59_12135	Unknown	RXN-8078
ASC59_02500	Unknown	HISTALDEHYD-RXN;HISTOLDEHYD-RXN;RXN-8001
ASC59_12335	Unknown	IMP-DEHYDROG-RXN
ASC59_16765	Unknown	GLUTAMIDOTRANS-RXN;GLUTAMIN-RXN;RXN-17900
ASC59_10485	Unknown	2-OCTAPRENYL-6-OHPHENOL-METHY-RXN;DHHB-METHYLTRANSFER-RXN
ASC59_09905	Unknown	GLYOXIII-RXN
ASC59_01330	Unknown	1.11.1.15-RXN;RXN0-5468
ASC59_09035	Unknown	3.5.1.80-RXN;NAG6PDEACET-RXN
ASC59_07005	Unknown	2.7.1.148-RXN
ASC59_13800	rocD	ORNITHINE--OXO-ACID-AMINOTRANSFERASE-RXN;ORNITHINE-GLU-AMINOTRANSFERASE-RXN
ASC59_03015	Unknown	ATPPHOSPHORIBOSYLTRANS-RXN
ASC59_08030	Unknown	PHENOL-2-MONOOXYGENASE-RXN;RXN-10125;RXN-10127;RXN-10128;RXN-10129
ASC59_01655	Unknown	PEPTIDYLPROLYL-ISOMERASE-RXN
ASC59_06355	Unknown	3.4.11.1-RXN
ASC59_10120	Unknown	INORGPYROPHOSPHAT-RXN
ASC59_04325	Unknown	2.7.13.3-RXN
ASC59_05745	Unknown	PGLYCDEHYDROG-RXN
ASC59_13255	Unknown	FUMARYLACETOACETASE-RXN
ASC59_04045	Unknown	GLYCPDIESTER-RXN;RXN-14073;RXN-14136;RXN-14160
ASC59_16685	Unknown	DNA-DIRECTED-DNA-POLYMERASE-RXN
ASC59_03025	Unknown	HISTCYCLOHYD-RXN
ASC59_04680	Unknown	DNA-DIRECTED-DNA-POLYMERASE-RXN
ASC59_01545	Unknown	6PFRUCTPHOS-RXN
ASC59_06845	Unknown	ALARACECAT-RXN
ASC59_02260	Unknown	2.5.1.32-RXN;RXN-13323;RXNARA-8002
ASC59_05730	Unknown	BRANCHED-CHAINAMINOTRANSFERILEU-RXN;BRANCHED-CHAINAMINOTRANSFERLEU-RXN;BRANCHED-CHAINAMINOTRANSFERVAL-RXN
ASC59_09015	Unknown	ALKAPHOSPHA-RXN;RXN-5822;RXN-8748
ASC59_03205	Unknown	SUPEROX-DISMUT-RXN
ASC59_09730	Unknown	SPERMINE-SYNTHASE-RXN
ASC59_02670	Unknown	3.1.13.5-RXN;RXN0-6483;RXN0-6484
ASC59_13955	Unknown	RXN-13039;RXN-17127;RXN-8654;RXN-8655;RXN0-1141;RXN0-5098
ASC59_04870	Unknown	3.1.2.23-RXN
ASC59_08970	Unknown	METHENYLTHFCYCLOHYDRO-RXN;METHYLENETHFDEHYDROG-NADP-RXN
ASC59_06330	Unknown	RXN-11109
ASC59_13565	Unknown	GLYCINE--TRNA-LIGASE-RXN
ASC59_09205	Unknown	RXN0-4261
ASC59_10735	Unknown	ALPHAGALACTOSID-RXN;MALTODEXGLUCOSID-RXN;RXN-11501;RXN-11502;RXN-12088;RXN-14281;RXN-14282;RXN-14283;RXN-15910;RXN-17754;RXN-17830;RXN0-5183
ASC59_03800	Unknown	PSERPHOSPHA-RXN;RXN0-5114
ASC59_07600	Unknown	RXNI-2
ASC59_07330	Unknown	RXN-19040;RXN0-6359;RXN0-6385;THIOSULFATE-SULFURTRANSFERASE-RXN
ASC59_10255	Unknown	GDPPYPHOSKIN-RXN;GTPPYPHOSKIN-RXN
ASC59_04130	glpK	GLYCEROL-KIN-RXN
ASC59_05065	Unknown	RXN-12587;RXN-12588;RXN-14382;RXN-14385;RXN-15881;RXN-9787;RXN0-308
ASC59_12910	Unknown	RXN-12508;RXN-12583;RXN0-1134
ASC59_16385	Unknown	MALATE-DEHYDROGENASE-ACCEPTOR-RXN;RXNI-3
ASC59_13720	Unknown	METHYLISOCITRATE-LYASE-RXN
ASC59_01775	Unknown	1.2.4.4-RXN;2.3.1.168-RXN;KETOISOCAPROATE-RXN;METHYLVALERATE-RXN;RXN-7790
ASC59_01630	aspA	ASPARTASE-RXN
ASC59_02315	Unknown	PYRUVATE-CARBOXYLASE-RXN
ASC59_06120	Unknown	NICOTINATEPRIBOSYLTRANS-RXN
ASC59_16330	Unknown	ASPARTATEKIN-RXN
ASC59_16295	Unknown	ACETATEKIN-RXN
ASC59_13870	Unknown	RHAMNISOM-RXN
ASC59_02885	Unknown	3.1.22.4-RXN
ASC59_05165	Unknown	RXN0-5100
ASC59_14270	Unknown	PYRROLINECARBREDUCT-RXN;RXN66-546
ASC59_10375	Unknown	GLYOXIII-RXN
ASC59_14305	Unknown	ACID-PHOSPHATASE-RXN;RXN-5822
ASC59_08415	Unknown	TRANS-RXN-283
ASC59_10950	Unknown	1.1.1.209-RXN;RXN-11471;RXN-12264;RXN-13688;RXN-710;RXN-9796;RXN-9841;RXN66-567;RXN66-570
ASC59_11835	Unknown	ADENPRIBOSYLTRAN-RXN;RXN-14270
ASC59_01450	Unknown	2-DEHYDROPANTOATE-REDUCT-RXN
ASC59_05040	Unknown	6.3.5.7-RXN
ASC59_13710	Unknown	3-HYDROXYISOBUTYRYL-COA-HYDROLASE-RXN;RXN-13721;RXN-6384
ASC59_08785	Unknown	2.7.13.3-RXN
ASC59_07990	Unknown	CARBODEHYDRAT-RXN;RXN0-5224
ASC59_14975	Unknown	1.2.1.27-RXN;RXN-11213;RXN-2902
ASC59_00810	Unknown	RXN0-5462
ASC59_06540	Unknown	RXN0-1441
ASC59_03380	Unknown	RXN0-6523
ASC59_05550	Unknown	DALADALALIG-RXN
ASC59_01060	Unknown	DIAMINOPIMDECARB-RXN
ASC59_00265	Unknown	CYTIDEAM-RXN;CYTIDEAM2-RXN
ASC59_00290	Unknown	PHOSMANMUT-RXN
ASC59_09210	Unknown	GLYCPDIESTER-RXN;RXN-14073;RXN-14136;RXN-14160
ASC59_01820	Unknown	CITLY-RXN;CITRYLY-RXN;CITTRANS-RXN
ASC59_16225	Unknown	3.2.1.55-RXN
ASC59_09290	Unknown	IMP-DEHYDROG-RXN
ASC59_14620	Unknown	3-HYDROXYBUTYRATE-DEHYDROGENASE-RXN
ASC59_01255	Unknown	3.1.3.16-RXN
ASC59_13630	Unknown	PORPHOBILSYNTH-RXN
ASC59_02910	Unknown	3-DEHYDROQUINATE-SYNTHASE-RXN
ASC59_00305	Unknown	PROPIONYL-COA-CARBOXY-RXN;RXN0-5055;RXN1G-4355
ASC59_01260	Unknown	PROTEIN-KINASE-RXN
ASC59_00735	Unknown	2.7.13.3-RXN
ASC59_14745	Unknown	UDPNACETYLMURAMATEDEHYDROG-RXN
ASC59_13365	Unknown	FMNREDUCT-RXN;NADPH-DEHYDROGENASE-FLAVIN-RXN;RXN-12444
ASC59_00625	Unknown	ACYLCOADEHYDROG-RXN;RXN-17775;RXN-17779;RXN-17783;RXN-17784;RXN-17788;RXN-17792;RXN-17796
ASC59_08050	Unknown	1.2.1.32-RXN;BADH-RXN;RXN-8831;RXN-8837
ASC59_03130	Unknown	DNA-DIRECTED-DNA-POLYMERASE-RXN
ASC59_05625	Unknown	DNA-LIGASE-ATP-RXN;RXN-17917;RXN-17918;RXN-17919
ASC59_13885	Unknown	ATPASE-RXN
ASC59_04520	Unknown	RXN0-5021
ASC59_13055	Unknown	3.1.26.5-RXN
ASC59_08810	Unknown	GCVT-RXN
ASC59_14060	Unknown	2-HALOACID-DEHALOGENASE-RXN
ASC59_00095	Unknown	1.1.1.178-RXN
ASC59_10910	Unknown	RXN0-5131
ASC59_06520	Unknown	GCVP-RXN
ASC59_04595	Unknown	RXN0-5462
ASC59_04565	Unknown	2-ISOPROPYLMALATESYN-RXN
ASC59_04205	Unknown	ATPASE-RXN
ASC59_13730	Unknown	3.1.2.23-RXN
ASC59_04800	Unknown	RXN0-2601
ASC59_15110	Unknown	ATPASE-RXN
ASC59_02935	Unknown	URACIL-PRIBOSYLTRANS-RXN
ASC59_02810	Unknown	3.1.22.4-RXN
ASC59_11500	Unknown	RXN-11109
ASC59_11715	Unknown	SAICARSYN-RXN
ASC59_13095	Unknown	5.99.1.3-RXN
ASC59_14325	Unknown	R4-RXN
ASC59_03275	Unknown	UDPGLUCEPIM-RXN
ASC59_13890	Unknown	ATPASE-RXN
ASC59_09805	Unknown	HISTONE-ACETYLTRANSFERASE-RXN
ASC59_11450	Unknown	AGMATINE-DEIMINASE-RXN
ASC59_10540	Unknown	ACYLCOADEHYDROG-RXN;RXN-17775;RXN-17779;RXN-17783;RXN-17784;RXN-17788;RXN-17792;RXN-17796
ASC59_15450	Unknown	ARABISOM-RXN
ASC59_05570	Unknown	3-ISOPROPYLMALISOM-RXN;R-2-METHYLMALATE-DEHYDRATASE-RXN;RXN-13163;RXN-7744;RXN-8991
ASC59_16785	Unknown	RXN0-2601
ASC59_13620	Unknown	OHMETHYLBILANESYN-RXN
ASC59_02790	Unknown	GLUTAMIN-RXN;RXN-11322;RXN-12590
ASC59_15100	Unknown	PROTEIN-KINASE-RXN
ASC59_06550	Unknown	L-ASPARTATE-OXID-RXN;RXN-9772
ASC59_04390	Unknown	2.3.1.179-RXN;2.3.1.41-RXN;3-OXOACYL-ACP-SYNTH-BASE-RXN;3-OXOACYL-ACP-SYNTH-RXN;RXN-10654;RXN-10658;RXN-11474;RXN-11479;RXN-16615;RXN-16621;RXN-16625;RXN-16629;RXN-8391;RXN-9516;RXN-9523;RXN-9527;RXN-9531;RXN-9535;RXN-9539;RXN0-2141;RXN1G-460;RXN3O-1803
ASC59_00065	Unknown	RXN0-5462
ASC59_13125	Unknown	PEPTIDYLPROLYL-ISOMERASE-RXN
ASC59_11940	Unknown	ADENYLOSUCCINATE-SYNTHASE-RXN
ASC59_13090	Unknown	5.99.1.2-RXN
ASC59_12900	Unknown	1.2.4.4-RXN;2.3.1.168-RXN;KETOISOCAPROATE-RXN;METHYLVALERATE-RXN;RXN-7790
ASC59_00370	Unknown	AIRCARBOXY-RXN
ASC59_13005	Unknown	THIOREDOXIN-REDUCT-NADPH-RXN
ASC59_10625	Unknown	HOMOCYSMET-RXN;HOMOCYSMETB12-RXN
ASC59_02605	Unknown	DUTP-PYROP-RXN
ASC59_00205	Unknown	3.1.11.2-RXN
ASC59_07355	Unknown	ACYLCOADEHYDROG-RXN;RXN-17775;RXN-17779;RXN-17783;RXN-17784;RXN-17788;RXN-17792;RXN-17796
ASC59_00975	Unknown	RXN-10837;RXN-9382
ASC59_01745	Unknown	2.7.7.8-RXN
ASC59_00940	Unknown	HOMOSERINE-O-ACETYLTRANSFERASE-RXN
ASC59_08870	Unknown	DNA-DIRECTED-RNA-POLYMERASE-RXN
ASC59_02630	acnA	ACONITATEDEHYDR-RXN;ACONITATEHYDR-RXN;RXN-14047
ASC59_04815	Unknown	3.4.11.2-RXN
ASC59_00020	Unknown	CTPSYN-RXN;GLUTAMIN-RXN;RXN-14325
ASC59_02690	Unknown	RXN-19040;RXN0-6359;RXN0-6385;THIOSULFATE-SULFURTRANSFERASE-RXN
ASC59_09270	Unknown	IMP-DEHYDROG-RXN
ASC59_04530	Unknown	RXN0-1281
ASC59_00840	kgd	RXN-7774
ASC59_10845	Unknown	RXN1A0-6303
ASC59_06110	rph	RXN0-6481;RXN0-6482;TRNA-NUCLEOTIDYLTRANSFERASE-RXN
ASC59_05770	Unknown	ACETOLACTREDUCTOISOM-RXN;ACETOOHBUTREDUCTOISOM-RXN
ASC59_01350	Unknown	RXN-9591
ASC59_16120	Unknown	GLUCISOM-RXN;XYLISOM-RXN
ASC59_16250	Unknown	O-SUCCINYLBENZOATE-COA-SYN-RXN
ASC59_11680	Unknown	PRPPAMIDOTRANS-RXN
ASC59_06425	Unknown	SUCCDIAMINOPIMDESUCC-RXN
ASC59_07900	Unknown	GLYOXIII-RXN
ASC59_08980	Unknown	3.2.1.52-RXN;RXN-12625;RXN-12626;RXN-18082;RXN0-5226
ASC59_06115	Unknown	GLUTRACE-RXN
ASC59_06750	Unknown	CARBODEHYDRAT-RXN;RXN0-5224
ASC59_00175	Unknown	RIBOFLAVINSYNDEAM-RXN;RIBOFLAVINSYNREDUC-RXN
ASC59_02240	ubiA	FPPSYN-RXN;GPPSYN-RXN
ASC59_07310	Unknown	CYSTATHIONINE-BETA-SYNTHASE-RXN;RXN-19038;RXN66-534;RXN66-562
ASC59_12230	Unknown	3-OXOACYL-ACP-REDUCT-RXN;RXN-10060;RXN-10655;RXN-10659;RXN-11476;RXN-11480;RXN-13008;RXN-16616;RXN-16622;RXN-16626;RXN-16630;RXN-9514;RXN-9518;RXN-9524;RXN-9528;RXN-9532;RXN-9536;RXN-9540;RXN-9552;RXN-9556;RXN-9633;RXN0-2142;RXN1G-157;RXN1G-349;RXN1G-469;RXN1G-508
ASC59_09395	Unknown	5.4.2.10-RXN;RXN-16424;RXN0-7139
ASC59_04155	Unknown	1.10.2.2-RXN;RXN-15829
ASC59_13480	Unknown	2-HALOACID-DEHALOGENASE-RXN
ASC59_01835	Unknown	RXN-17131;RXN-17132;RXN-17133
ASC59_00230	Unknown	RXN-14971;RXN-15378;SUCCINATE-DEHYDROGENASE-UBIQUINONE-RXN
ASC59_02905	Unknown	SHIKIMATE-KINASE-RXN
ASC59_03830	Unknown	RXN0-4961
ASC59_05145	pyrH	RXN-12002
ASC59_03960	Unknown	3.2.1.3-RXN;RXN-9024
ASC59_11765	Unknown	FGAMSYN-RXN
ASC59_08625	Unknown	PSERTRANSAM-RXN;PSERTRANSAMPYR-RXN
ASC59_00815	Unknown	2.5.1.19-RXN
ASC59_05535	Unknown	RXN0-6515
ASC59_00220	Unknown	R601-RXN;RXN-14963
ASC59_06560	Unknown	RXN-12587;RXN-12588;RXN-14382;RXN-14385;RXN-15881;RXN-9787;RXN0-308
ASC59_16680	Unknown	DTMPKI-RXN
ASC59_02325	Unknown	3.5.1.27-RXN;3.5.1.88-RXN
ASC59_00340	Unknown	2.1.3.1-RXN
ASC59_02850	Unknown	ATPASE-RXN
ASC59_16850	Unknown	GLUTAMATE-N-ACETYLTRANSFERASE-RXN;N-ACETYLTRANSFER-RXN;RXN0-6948
ASC59_12030	Unknown	OROPRIBTRANS-RXN
ASC59_04550	Unknown	RXN-8999
ASC59_09750	Unknown	ALLOPHANATE-HYDROLASE-RXN
ASC59_10050	Unknown	LYSINE--TRNA-LIGASE-RXN
ASC59_10600	Unknown	3-OXOACYL-ACP-REDUCT-RXN
ASC59_08680	Unknown	2.7.13.3-RXN
ASC59_07130	Unknown	NARINGENIN-CHALCONE-SYNTHASE-RXN;RXN-11468
ASC59_00980	Unknown	GLYOXIII-RXN
ASC59_01845	Unknown	RXN-14014
ASC59_14055	Unknown	RXN0-2161;SERINE--TRNA-LIGASE-RXN
ASC59_06555	Unknown	QUINOPRIBOTRANS-RXN
ASC59_07605	Unknown	RXNI-2
ASC59_04995	Unknown	DNA-DIRECTED-DNA-POLYMERASE-RXN
ASC59_10290	Unknown	ACYLCOADEHYDROG-RXN;RXN-17775;RXN-17779;RXN-17783;RXN-17784;RXN-17788;RXN-17792;RXN-17796
ASC59_14250	Unknown	URACIL-PRIBOSYLTRANS-RXN
ASC59_04770	Unknown	HOLO-ACP-SYNTH-RXN
ASC59_03360	Unknown	DIHYDROFOLATESYNTH-RXN
ASC59_16870	Unknown	ARGSUCCINLYA-RXN;RXN-22
ASC59_02965	Unknown	OROTPDECARB-RXN
ASC59_03235	Unknown	6PGLUCONOLACT-RXN
ASC59_04890	Unknown	RXN1A0-6303
ASC59_02520	Unknown	DIHYDROOROTATE-DEHYDROGENASE-RXN;RXN0-6491;RXN0-6554
ASC59_05170	Unknown	3.1.4.17-RXN
ASC59_15285	Unknown	2.7.13.3-RXN
ASC59_00525	Unknown	GALPMUT-RXN
ASC59_01050	Unknown	ARGININE--TRNA-LIGASE-RXN
ASC59_13295	Unknown	RXN1A0-6303
ASC59_15445	Unknown	ATPASE-RXN
ASC59_07830	Unknown	2.7.13.3-RXN
ASC59_07260	Unknown	1.1.1.274-RXN
ASC59_15720	Unknown	GLYOXIII-RXN
ASC59_09460	Unknown	2.7.3.9-RXN;RXN-17354;RXN-17355
ASC59_13425	Unknown	3.4.21.83-RXN
ASC59_01075	Unknown	HOMOSERKIN-RXN
ASC59_12960	Unknown	RXN-11355;RXN-12243;RXN-12244
ASC59_03490	Unknown	PMPOXI-RXN;PNPOXI-RXN
ASC59_01880	Unknown	DIHYDROFOLATEREDUCT-RXN;RXN-18357
ASC59_08055	Unknown	1.13.11.15-RXN
ASC59_09445	Unknown	MANNPDEHYDROG-RXN
ASC59_05560	Unknown	RXN-9591
ASC59_03100	Unknown	3-OXOACYL-ACP-REDUCT-RXN;RXN-10060;RXN-10655;RXN-10659;RXN-11476;RXN-11480;RXN-13008;RXN-16616;RXN-16622;RXN-16626;RXN-16630;RXN-9514;RXN-9518;RXN-9524;RXN-9528;RXN-9532;RXN-9536;RXN-9540;RXN-9552;RXN-9556;RXN-9633;RXN0-2142;RXN1G-157;RXN1G-349;RXN1G-469;RXN1G-508
ASC59_12945	Unknown	AICARSYN-RXN;AMPSYN-RXN
ASC59_05520	Unknown	PANTEPADENYLYLTRAN-RXN
ASC59_02375	Unknown	FARNESYLTRANSTRANSFERASE-RXN
ASC59_12810	Unknown	RXN0-4261
ASC59_00215	Unknown	RXN-14971;RXN-15378;SUCCINATE-DEHYDROGENASE-UBIQUINONE-RXN
ASC59_15540	Unknown	DIHYDROFOLATEREDUCT-RXN;RXN-18357
ASC59_15090	Unknown	DEOXYRIBODIPYRIMIDINE-PHOTOLYASE-RXN;RXN-19025;RXN-19026;RXN-19242;RXN-19243;RXN-19244;RXN-19245;RXN-19246;RXN-19247;RXN-19248
ASC59_09375	Unknown	ALARACECAT-RXN
ASC59_00600	Unknown	2.7.7.60-RXN
ASC59_03470	Unknown	RXN-11329
ASC59_04300	Unknown	2.7.1.63-RXN
ASC59_11110	Unknown	IMIDAZOLONEPROPIONASE-RXN
ASC59_01440	Unknown	RXN0-2661
ASC59_00805	Unknown	1.11.1.15-RXN;RXN0-5468
ASC59_07240	Unknown	RXN-12587;RXN-12588;RXN-14382;RXN-14385;RXN-15881;RXN-9787;RXN0-308
ASC59_12935	Unknown	PROTEIN-TYROSINE-PHOSPHATASE-RXN
ASC59_07685	Unknown	2-HALOACID-DEHALOGENASE-RXN;3.8.1.11-RXN;RXN-6263;RXN-6264
ASC59_08620	Unknown	DIHYDROFOLATEREDUCT-RXN;RXN-18357
ASC59_09030	Unknown	RXN0-2001
ASC59_10425	Unknown	5.4.99.15-RXN
ASC59_06140	Unknown	NAG1P-URIDYLTRANS-RXN
ASC59_07075	Unknown	ACETYLHOMOSER-CYS-RXN;O-ACETYLHOMOSERINE-THIOL-LYASE-RXN
ASC59_02815	Unknown	RXN0-4261
ASC59_11160	Unknown	D-AMINO-ACID-OXIDASE-RXN;RXN-8163
ASC59_04250	Unknown	1.8.1.4-RXN;2OXOGLUTARATEDEH-RXN;2OXOGLUTDECARB-RXN;RXN-7716;RXN-7719;RXN-8629;RXN0-1132;RXN0-1147
ASC59_06720	Unknown	F16ALDOLASE-RXN;RXN-8631
ASC59_09080	Unknown	ISOCITDEH-RXN;RXN-8642;RXN-9951
ASC59_05080	Unknown	GLYCOPHOSPHORYL-RXN;GLYMALTOPHOSPHORYL-RXN;RXN-12171;RXN-12392;RXN-14284;RXN-14285;RXN-14286;RXN-14353;RXN-1826;RXN-9025;RXN0-5182;RXN0-5184
ASC59_16190	Unknown	MALTODEXGLUCOSID-RXN;RXN-14281;RXN-14282;RXN-14283;RXN-15910;RXN0-5183
ASC59_02800	Unknown	PMPOXI-RXN;PNPOXI-RXN
ASC59_04910	Unknown	NAD-SYNTH-NH3-RXN
ASC59_11870	Unknown	CHORISMATEMUT-RXN
ASC59_14195	Unknown	RXN-13418;RXN-15341;RXN0-280;RXN0-6973
ASC59_00010	Unknown	NAD-KIN-RXN
ASC59_05490	Unknown	3.1.26.3-RXN
ASC59_06890	Unknown	HISTIDINE--TRNA-LIGASE-RXN
ASC59_09160	purH	AICARTRANSFORM-RXN;IMPCYCLOHYDROLASE-RXN
ASC59_14355	Unknown	NAPHTHOATE-SYN-RXN
ASC59_13170	Unknown	3.1.3.16-RXN
ASC59_02985	Unknown	S-ADENMETSYN-RXN
ASC59_14365	Unknown	DMK-RXN
ASC59_02640	Unknown	DXS-RXN
ASC59_16675	Unknown	5.99.1.2-RXN
ASC59_00115	Unknown	4.1.1.32-RXN;RXN-12481
ASC59_02450	Unknown	ALARACECAT-RXN
ASC59_01035	Unknown	2.1.1.77-RXN
ASC59_16855	Unknown	ACETYLGLUTKIN-RXN;RXN-15005
ASC59_01925	Unknown	PHOSPHAGLYPSYN-RXN
ASC59_01730	Unknown	FMNREDUCT-RXN;NADPH-DEHYDROGENASE-FLAVIN-RXN;RXN-12444
ASC59_06430	Unknown	TETHYDPICSUCC-RXN
ASC59_03045	Unknown	IGPSYN-RXN
ASC59_08460	Unknown	GLYOXIII-RXN
ASC59_00570	Unknown	GDPMANDEHYDRA-RXN
ASC59_01355	Unknown	DXPREDISOM-RXN
ASC59_13725	Unknown	CITSYN-RXN
ASC59_01380	Unknown	RXN0-882
ASC59_16790	Unknown	ATPASE-RXN
ASC59_03010	hisE	HISTPRATPHYD-RXN
ASC59_01210	Unknown	RXN1A0-6303
ASC59_13150	Unknown	PROTEIN-KINASE-RXN
ASC59_11675	Unknown	ALCOHOL-DEHYDROG-GENERIC-RXN;ALCOHOL-DEHYDROGENASE-NADPORNOP+-RXN;RXN-12448
ASC59_03085	Unknown	PHOSPHOKETOLASE-RXN
ASC59_01375	Unknown	ACETYL-COA-ACETYLTRANSFER-RXN;METHYLACETOACETYLCOATHIOL-RXN;RXN-12561
ASC59_03250	Unknown	PGLUCISOM-RXN
ASC59_03370	Unknown	CDPKIN-RXN;DADPKIN-RXN;DCDPKIN-RXN;DGDPKIN-RXN;DTDPKIN-RXN;DUDPKIN-RXN;GDPKIN-RXN;NUCLEOSIDE-DIP-KIN-RXN;RXN-14120;RXN-14228;UDPKIN-RXN
ASC59_10730	Unknown	ALKAPHOSPHA-RXN;RXN-5822;RXN-8748
ASC59_02665	Unknown	ACETYL-COA-ACETYLTRANSFER-RXN;METHYLACETOACETYLCOATHIOL-RXN;RXN-12561
ASC59_07460	Unknown	PMPOXI-RXN;PNPOXI-RXN
ASC59_04940	Unknown	3.1.13.3-RXN
ASC59_02615	Unknown	DUTP-PYROP-RXN
ASC59_04280	Unknown	GLUTAMINESYN-RXN
ASC59_01770	Unknown	1.2.1.25-RXN;1.2.4.4-RXN;2.3.1.168-RXN;2KETO-3METHYLVALERATE-RXN;2KETO-4METHYL-PENTANOATE-DEHYDROG-RXN;ISOVALERYLCOA-DHLIPOAMIDE-RXN;KETOISOCAPROATE-RXN;MBCOA-DHLIPOAMIDE-RXN;METHYLVALERATE-RXN;RXN-7719
ASC59_12965	Unknown	RXN0-4261
ASC59_16745	Unknown	3.4.21.88-RXN
ASC59_06310	Unknown	RXN0-4261
ASC59_01800	Unknown	METHYLCROTONYL-COA-CARBOXYLASE-RXN
ASC59_05035	Unknown	6.3.5.7-RXN
ASC59_06955	glmU	2.3.1.157-RXN;NAG1P-URIDYLTRANS-RXN
ASC59_11260	Unknown	GAMMA-GLUTAMYLTRANSFERASE-RXN;RXN-18092;RXN-6601;RXN-9157;RXN66-336
ASC59_01320	Unknown	ASPARAGHYD-RXN
ASC59_01070	Unknown	THRESYN-RXN
ASC59_08965	Unknown	RXN-9990
ASC59_02915	Unknown	3-DEHYDROQUINATE-DEHYDRATASE-RXN
ASC59_14030	Unknown	PHOSPHOGLUCMUT-RXN;RXN-16997;RXN-16998
ASC59_12005	Unknown	2-HALOACID-DEHALOGENASE-RXN;3.8.1.11-RXN;RXN-6263;RXN-6264
ASC59_12855	Unknown	GLUTDECARBOX-RXN
ASC59_10115	Unknown	RXN-1961
ASC59_09380	Unknown	HOLO-ACP-SYNTH-RXN
ASC59_13980	Unknown	GLYOXIII-RXN
ASC59_11740	Unknown	RXN-8665
ASC59_10585	Unknown	1.1.1.209-RXN;RXN-11471;RXN-12264;RXN-13688;RXN-710;RXN-9796;RXN-9841;RXN66-567;RXN66-570
ASC59_06625	Unknown	CYTIDEAM-RXN;CYTIDEAM2-RXN
ASC59_01480	Unknown	FADSYN-RXN;RIBOFLAVINKIN-RXN;RXN-18510;RXN-18511
ASC59_03060	Unknown	RXN0-20
ASC59_03955	Unknown	PEROXID-RXN;RXN-14240;RXN-15288;RXN-17352;RXN-19129;RXN-8635
ASC59_01465	Unknown	TRNA-PSEUDOURIDINE-SYNTHASE-I-RXN
ASC59_15230	Unknown	RXN0-5100
ASC59_01325	Unknown	GABATRANSAM-RXN;RXN-2901
ASC59_05575	Unknown	3-ISOPROPYLMALISOM-RXN;RXN-13163;RXN-8991
ASC59_02250	Unknown	RXN18HP-6
ASC59_16635	Unknown	ACETATE--COA-LIGASE-RXN;RXN-18446;RXN-18447;RXN-18448
ASC59_09420	Unknown	DNA-DIRECTED-RNA-POLYMERASE-RXN
ASC59_04695	Unknown	LEUCINE--TRNA-LIGASE-RXN
ASC59_02290	Unknown	PHOSPHAGLYPSYN-RXN
ASC59_00510	Unknown	DTDPDEHYDRHAMEPIM-RXN
ASC59_12530	Unknown	3-HYDROXYBUTYRYL-COA-DEHYDROGENASE-RXN
ASC59_08960	Unknown	N-ACETYLNEURAMINATE-SYNTHASE-RXN
ASC59_14310	Unknown	RXN-16226
ASC59_10420	Unknown	3.2.1.141-RXN
ASC59_06615	Unknown	4-CARBOXYMUCONOLACTONE-DECARBOXYLASE-RXN
ASC59_09235	guaA	GLUTAMIN-RXN;GMP-SYN-GLUT-RXN;GMP-SYN-NH3-RXN
ASC59_02995	Unknown	METHIONYL-TRNA-FORMYLTRANSFERASE-RXN
ASC59_05655	Unknown	GLUTAMIN-RXN
ASC59_14400	Unknown	RXN-9235
ASC59_13080	Unknown	RXN0-5100
ASC59_13770	Unknown	PYRROLINECARBDEHYDROG-RXN;RXN-14116
ASC59_03050	Unknown	RXN0-2382;TRYPSYN-RXN
ASC59_04135	Unknown	PRTRANS-RXN
ASC59_13020	Unknown	DALADALALIG-RXN
ASC59_10235	Unknown	RXN-18029;TRANS-RXN-314
