# 
#
# Authors:
#
# Please see the license agreement regarding the use of and distribution of this file.
# The format of this file is defined at http://bioinformatics.ai.sri.com/ptools/flatfile-format.html .
#
# Species: Lysobacter sp. Root667
# Database: NIL
# Version: 1.0
# File Name: rnas.dat
# Date and time generated: December 3, 2018, 13:34:48
#
# Attributes:
#    UNIQUE-ID
#    TYPES
#    COMMON-NAME
#    ABBREV-NAME
#    ACCESSION-1
#    ANTICODON
#    AROMATIC-RINGS
#    ATOM-CHARGES
#    ATOM-ISOTOPES
#    CHEMICAL-FORMULA
#    CITATIONS
#    CODONS
#    COFACTORS-OF
#    COMMENT
#    COMPONENT-OF
#    CREDITS
#    DATA-SOURCE
#    DBLINKS
#    DOCUMENTATION
#    FAST-EQUILIBRATING-INSTANCES?
#    GENE
#    GO-TERMS
#    HAS-NO-STRUCTURE?
#    HIDE-SLOT?
#    IN-MIXTURE
#    INCHI
#    INCHI-KEY
#    INSTANCE-NAME-TEMPLATE
#    INTERNALS-OF-GROUP
#    LOCATIONS
#    MEMBER-SORT-FN
#    MODIFIED-FORM
#    MOLECULAR-WEIGHT
#    MONOISOTOPIC-MW
#    N+1-NAME
#    N-1-NAME
#    N-NAME
#    NON-STANDARD-INCHI
#    PATHOLOGIC-NAME-MATCHER-EVIDENCE
#    PATHOLOGIC-PWY-EVIDENCE
#    PKA1
#    PKA2
#    PKA3
#    RADICAL-ATOMS
#    REGULATED-BY
#    REGULATES
#    SMILES
#    SPECIES
#    SPLICE-FORM-INTRONS
#    STRUCTURE-BONDS
#    SUPERATOMS
#    SYNONYMS
#    SYSTEMATIC-NAME
#    TAUTOMERS
#    UNMODIFIED-FORM
#
UNIQUE-ID - ASD78_19500-tRNA
TYPES - GLN-tRNAs
COMMON-NAME - tRNA-Gln
ANTICODON - TTG
GENE - ASD78_19500
MODIFIED-FORM - charged-ASD78_19500-tRNA
NON-STANDARD-INCHI - InChI=1S/C15H29O19P3/c16-7-1-27-10(13(7)19)4-31-36(23,24)34-15-9(18)3-29-12(15)6-32-37(25,26)33-14-8(17)2-28-11(14)5-30-35(20,21)22/h7-19H,1-6H2,(H,23,24)(H,25,26)(H2,20,21,22)/p-3/t7-,8-,9-,10+,11+,12+,13-,14-,15-/m0/s1
//
UNIQUE-ID - charged-ASD78_15440-tRNA
TYPES - Charged-ARG-tRNAs
COMMON-NAME - charged tRNA-Arg
NON-STANDARD-INCHI - InChI=1S/C6H14N4O/c7-5(4-11)2-1-3-10-6(8)9/h4-5H,1-3,7H2,(H4,8,9,10)/p+2
UNMODIFIED-FORM - ASD78_15440-tRNA
//
UNIQUE-ID - charged-ASD78_07815-tRNA
TYPES - Charged-HIS-tRNAs
COMMON-NAME - charged tRNA-His
NON-STANDARD-INCHI - InChI=1S/C6H9N3O/c7-5(3-10)1-6-2-8-4-9-6/h2-5H,1,7H2,(H,8,9)/p+1
UNMODIFIED-FORM - ASD78_07815-tRNA
//
UNIQUE-ID - ASD78_13250-tRNA
TYPES - GLT-tRNAs
COMMON-NAME - tRNA-Glu
ANTICODON - TTC
GENE - ASD78_13250
MODIFIED-FORM - charged-ASD78_13250-tRNA
NON-STANDARD-INCHI - InChI=1S/C15H29O19P3/c16-7-1-27-10(13(7)19)4-31-36(23,24)34-15-9(18)3-29-12(15)6-32-37(25,26)33-14-8(17)2-28-11(14)5-30-35(20,21)22/h7-19H,1-6H2,(H,23,24)(H,25,26)(H2,20,21,22)/p-3/t7-,8-,9-,10+,11+,12+,13-,14-,15-/m0/s1
//
UNIQUE-ID - ASD78_18620-tRNA
TYPES - SER-tRNAs
COMMON-NAME - tRNA-Ser
ANTICODON - TGA
GENE - ASD78_18620
MODIFIED-FORM - charged-ASD78_18620-tRNA
NON-STANDARD-INCHI - InChI=1S/C15H29O19P3/c16-7-1-27-10(13(7)19)4-31-36(23,24)34-15-9(18)3-29-12(15)6-32-37(25,26)33-14-8(17)2-28-11(14)5-30-35(20,21)22/h7-19H,1-6H2,(H,23,24)(H,25,26)(H2,20,21,22)/p-3/t7-,8-,9-,10+,11+,12+,13-,14-,15-/m0/s1
//
UNIQUE-ID - charged-ASD78_15445-tRNA
TYPES - Charged-HIS-tRNAs
COMMON-NAME - charged tRNA-His
NON-STANDARD-INCHI - InChI=1S/C6H9N3O/c7-5(3-10)1-6-2-8-4-9-6/h2-5H,1,7H2,(H,8,9)/p+1
UNMODIFIED-FORM - ASD78_15445-tRNA
//
UNIQUE-ID - charged-ASD78_16915-tRNA
TYPES - Charged-LYS-tRNAs
COMMON-NAME - charged tRNA-Lys
NON-STANDARD-INCHI - InChI=1S/C6H14N2O/c7-4-2-1-3-6(8)5-9/h5-6H,1-4,7-8H2/p+2
UNMODIFIED-FORM - ASD78_16915-tRNA
//
UNIQUE-ID - charged-ASD78_12060-tRNA
TYPES - Charged-CYS-tRNAs
COMMON-NAME - charged tRNA-Cys
NON-STANDARD-INCHI - InChI=1S/C3H7NOS/c4-3(1-5)2-6/h1,3,6H,2,4H2/p+1
UNMODIFIED-FORM - ASD78_12060-tRNA
//
UNIQUE-ID - ASD78_10360-tRNA
TYPES - LEU-tRNAs
COMMON-NAME - tRNA-Leu
ANTICODON - CAA
GENE - ASD78_10360
MODIFIED-FORM - charged-ASD78_10360-tRNA
NON-STANDARD-INCHI - InChI=1S/C15H29O19P3/c16-7-1-27-10(13(7)19)4-31-36(23,24)34-15-9(18)3-29-12(15)6-32-37(25,26)33-14-8(17)2-28-11(14)5-30-35(20,21)22/h7-19H,1-6H2,(H,23,24)(H,25,26)(H2,20,21,22)/p-3/t7-,8-,9-,10+,11+,12+,13-,14-,15-/m0/s1
//
UNIQUE-ID - ASD78_00070-tRNA
TYPES - ARG-tRNAs
COMMON-NAME - tRNA-Arg
ANTICODON - CCG
GENE - ASD78_00070
MODIFIED-FORM - charged-ASD78_00070-tRNA
NON-STANDARD-INCHI - InChI=1S/C15H29O19P3/c16-7-1-27-10(13(7)19)4-31-36(23,24)34-15-9(18)3-29-12(15)6-32-37(25,26)33-14-8(17)2-28-11(14)5-30-35(20,21)22/h7-19H,1-6H2,(H,23,24)(H,25,26)(H2,20,21,22)/p-3/t7-,8-,9-,10+,11+,12+,13-,14-,15-/m0/s1
//
UNIQUE-ID - charged-ASD78_15450-tRNA
TYPES - Charged-LYS-tRNAs
COMMON-NAME - charged tRNA-Lys
NON-STANDARD-INCHI - InChI=1S/C6H14N2O/c7-4-2-1-3-6(8)5-9/h5-6H,1-4,7-8H2/p+2
UNMODIFIED-FORM - ASD78_15450-tRNA
//
UNIQUE-ID - charged-ASD78_18005-tRNA
TYPES - Charged-PRO-tRNAs
COMMON-NAME - charged tRNA-Pro
NON-STANDARD-INCHI - InChI=1S/C5H9NO/c7-4-5-2-1-3-6-5/h4-6H,1-3H2/p+1/t5-/m0/s1
UNMODIFIED-FORM - ASD78_18005-tRNA
//
UNIQUE-ID - ASD78_10525-tRNA
TYPES - MET-tRNAs
COMMON-NAME - tRNA-Met
ANTICODON - CAT
GENE - ASD78_10525
MODIFIED-FORM - charged-ASD78_10525-tRNA
NON-STANDARD-INCHI - InChI=1S/C15H29O19P3/c16-7-1-27-10(13(7)19)4-31-36(23,24)34-15-9(18)3-29-12(15)6-32-37(25,26)33-14-8(17)2-28-11(14)5-30-35(20,21)22/h7-19H,1-6H2,(H,23,24)(H,25,26)(H2,20,21,22)/p-3/t7-,8-,9-,10+,11+,12+,13-,14-,15-/m0/s1
//
UNIQUE-ID - ASD78_01410-tRNA
TYPES - MET-tRNAs
COMMON-NAME - tRNA-Met
ANTICODON - CAT
GENE - ASD78_01410
MODIFIED-FORM - charged-ASD78_01410-tRNA
NON-STANDARD-INCHI - InChI=1S/C15H29O19P3/c16-7-1-27-10(13(7)19)4-31-36(23,24)34-15-9(18)3-29-12(15)6-32-37(25,26)33-14-8(17)2-28-11(14)5-30-35(20,21)22/h7-19H,1-6H2,(H,23,24)(H,25,26)(H2,20,21,22)/p-3/t7-,8-,9-,10+,11+,12+,13-,14-,15-/m0/s1
//
UNIQUE-ID - charged-ASD78_05995-tRNA
TYPES - Charged-PRO-tRNAs
COMMON-NAME - charged tRNA-Pro
NON-STANDARD-INCHI - InChI=1S/C5H9NO/c7-4-5-2-1-3-6-5/h4-6H,1-3H2/p+1/t5-/m0/s1
UNMODIFIED-FORM - ASD78_05995-tRNA
//
UNIQUE-ID - ASD78_10600-tRNA
TYPES - LEU-tRNAs
COMMON-NAME - tRNA-Leu
ANTICODON - GAG
GENE - ASD78_10600
MODIFIED-FORM - charged-ASD78_10600-tRNA
NON-STANDARD-INCHI - InChI=1S/C15H29O19P3/c16-7-1-27-10(13(7)19)4-31-36(23,24)34-15-9(18)3-29-12(15)6-32-37(25,26)33-14-8(17)2-28-11(14)5-30-35(20,21)22/h7-19H,1-6H2,(H,23,24)(H,25,26)(H2,20,21,22)/p-3/t7-,8-,9-,10+,11+,12+,13-,14-,15-/m0/s1
//
UNIQUE-ID - charged-ASD78_15435-tRNA
TYPES - Charged-PRO-tRNAs
COMMON-NAME - charged tRNA-Pro
NON-STANDARD-INCHI - InChI=1S/C5H9NO/c7-4-5-2-1-3-6-5/h4-6H,1-3H2/p+1/t5-/m0/s1
UNMODIFIED-FORM - ASD78_15435-tRNA
//
UNIQUE-ID - charged-ASD78_10920-tRNA
TYPES - Charged-GLX-tRNAs
COMMON-NAME - charged tRNA-Glu
NON-STANDARD-INCHI - InChI=1S/C15H29O19P3/c16-7-1-27-10(13(7)19)4-31-36(23,24)34-15-9(18)3-29-12(15)6-32-37(25,26)33-14-8(17)2-28-11(14)5-30-35(20,21)22/h7-19H,1-6H2,(H,23,24)(H,25,26)(H2,20,21,22)/p-3/t7-,8-,9-,10+,11+,12+,13-,14-,15-/m0/s1
UNMODIFIED-FORM - ASD78_10920-tRNA
//
UNIQUE-ID - ASD78_10920-tRNA
TYPES - GLT-tRNAs
COMMON-NAME - tRNA-Glu
ANTICODON - CTC
GENE - ASD78_10920
MODIFIED-FORM - charged-ASD78_10920-tRNA
NON-STANDARD-INCHI - InChI=1S/C15H29O19P3/c16-7-1-27-10(13(7)19)4-31-36(23,24)34-15-9(18)3-29-12(15)6-32-37(25,26)33-14-8(17)2-28-11(14)5-30-35(20,21)22/h7-19H,1-6H2,(H,23,24)(H,25,26)(H2,20,21,22)/p-3/t7-,8-,9-,10+,11+,12+,13-,14-,15-/m0/s1
//
UNIQUE-ID - charged-ASD78_19500-tRNA
TYPES - Charged-GLX-tRNAs
COMMON-NAME - charged tRNA-Gln
NON-STANDARD-INCHI - InChI=1S/C15H29O19P3/c16-7-1-27-10(13(7)19)4-31-36(23,24)34-15-9(18)3-29-12(15)6-32-37(25,26)33-14-8(17)2-28-11(14)5-30-35(20,21)22/h7-19H,1-6H2,(H,23,24)(H,25,26)(H2,20,21,22)/p-3/t7-,8-,9-,10+,11+,12+,13-,14-,15-/m0/s1
UNMODIFIED-FORM - ASD78_19500-tRNA
//
UNIQUE-ID - charged-ASD78_13250-tRNA
TYPES - Charged-GLX-tRNAs
COMMON-NAME - charged tRNA-Glu
NON-STANDARD-INCHI - InChI=1S/C15H29O19P3/c16-7-1-27-10(13(7)19)4-31-36(23,24)34-15-9(18)3-29-12(15)6-32-37(25,26)33-14-8(17)2-28-11(14)5-30-35(20,21)22/h7-19H,1-6H2,(H,23,24)(H,25,26)(H2,20,21,22)/p-3/t7-,8-,9-,10+,11+,12+,13-,14-,15-/m0/s1
UNMODIFIED-FORM - ASD78_13250-tRNA
//
UNIQUE-ID - ASD78_11005-tRNA
TYPES - ARG-tRNAs
COMMON-NAME - tRNA-Arg
ANTICODON - ACG
GENE - ASD78_11005
MODIFIED-FORM - charged-ASD78_11005-tRNA
NON-STANDARD-INCHI - InChI=1S/C15H29O19P3/c16-7-1-27-10(13(7)19)4-31-36(23,24)34-15-9(18)3-29-12(15)6-32-37(25,26)33-14-8(17)2-28-11(14)5-30-35(20,21)22/h7-19H,1-6H2,(H,23,24)(H,25,26)(H2,20,21,22)/p-3/t7-,8-,9-,10+,11+,12+,13-,14-,15-/m0/s1
//
UNIQUE-ID - charged-ASD78_03085-tRNA
TYPES - Charged-GLX-tRNAs
COMMON-NAME - charged tRNA-Gln
NON-STANDARD-INCHI - InChI=1S/C15H29O19P3/c16-7-1-27-10(13(7)19)4-31-36(23,24)34-15-9(18)3-29-12(15)6-32-37(25,26)33-14-8(17)2-28-11(14)5-30-35(20,21)22/h7-19H,1-6H2,(H,23,24)(H,25,26)(H2,20,21,22)/p-3/t7-,8-,9-,10+,11+,12+,13-,14-,15-/m0/s1
UNMODIFIED-FORM - ASD78_03085-tRNA
//
UNIQUE-ID - ASD78_11010-tRNA
TYPES - SER-tRNAs
COMMON-NAME - tRNA-Ser
ANTICODON - GCT
GENE - ASD78_11010
MODIFIED-FORM - charged-ASD78_11010-tRNA
NON-STANDARD-INCHI - InChI=1S/C15H29O19P3/c16-7-1-27-10(13(7)19)4-31-36(23,24)34-15-9(18)3-29-12(15)6-32-37(25,26)33-14-8(17)2-28-11(14)5-30-35(20,21)22/h7-19H,1-6H2,(H,23,24)(H,25,26)(H2,20,21,22)/p-3/t7-,8-,9-,10+,11+,12+,13-,14-,15-/m0/s1
//
UNIQUE-ID - charged-ASD78_19630-tRNA
TYPES - Charged-TRP-tRNAs
COMMON-NAME - charged tRNA-Trp
NON-STANDARD-INCHI - InChI=1S/C11H12N2O/c12-9(7-14)5-8-6-13-11-4-2-1-3-10(8)11/h1-4,6-7,9,13H,5,12H2/p+1/t9-/m0/s1
UNMODIFIED-FORM - ASD78_19630-tRNA
//
UNIQUE-ID - ASD78_17520-tRNA
TYPES - LEU-tRNAs
COMMON-NAME - tRNA-Leu
ANTICODON - CAG
GENE - ASD78_17520
MODIFIED-FORM - charged-ASD78_17520-tRNA
NON-STANDARD-INCHI - InChI=1S/C15H29O19P3/c16-7-1-27-10(13(7)19)4-31-36(23,24)34-15-9(18)3-29-12(15)6-32-37(25,26)33-14-8(17)2-28-11(14)5-30-35(20,21)22/h7-19H,1-6H2,(H,23,24)(H,25,26)(H2,20,21,22)/p-3/t7-,8-,9-,10+,11+,12+,13-,14-,15-/m0/s1
//
UNIQUE-ID - ASD78_07365-tRNA
TYPES - MET-tRNAs
COMMON-NAME - tRNA-Met
ANTICODON - CAT
GENE - ASD78_07365
MODIFIED-FORM - charged-ASD78_07365-tRNA
NON-STANDARD-INCHI - InChI=1S/C15H29O19P3/c16-7-1-27-10(13(7)19)4-31-36(23,24)34-15-9(18)3-29-12(15)6-32-37(25,26)33-14-8(17)2-28-11(14)5-30-35(20,21)22/h7-19H,1-6H2,(H,23,24)(H,25,26)(H2,20,21,22)/p-3/t7-,8-,9-,10+,11+,12+,13-,14-,15-/m0/s1
//
UNIQUE-ID - ASD78_17760-tRNA
TYPES - THR-tRNAs
COMMON-NAME - tRNA-Thr
ANTICODON - CGT
GENE - ASD78_17760
MODIFIED-FORM - charged-ASD78_17760-tRNA
NON-STANDARD-INCHI - InChI=1S/C15H29O19P3/c16-7-1-27-10(13(7)19)4-31-36(23,24)34-15-9(18)3-29-12(15)6-32-37(25,26)33-14-8(17)2-28-11(14)5-30-35(20,21)22/h7-19H,1-6H2,(H,23,24)(H,25,26)(H2,20,21,22)/p-3/t7-,8-,9-,10+,11+,12+,13-,14-,15-/m0/s1
//
UNIQUE-ID - ASD78_07815-tRNA
TYPES - HIS-tRNAs
COMMON-NAME - tRNA-His
ANTICODON - ATG
GENE - ASD78_07815
MODIFIED-FORM - charged-ASD78_07815-tRNA
NON-STANDARD-INCHI - InChI=1S/C15H29O19P3/c16-7-1-27-10(13(7)19)4-31-36(23,24)34-15-9(18)3-29-12(15)6-32-37(25,26)33-14-8(17)2-28-11(14)5-30-35(20,21)22/h7-19H,1-6H2,(H,23,24)(H,25,26)(H2,20,21,22)/p-3/t7-,8-,9-,10+,11+,12+,13-,14-,15-/m0/s1
//
UNIQUE-ID - ASD78_18005-tRNA
TYPES - PRO-tRNAs
COMMON-NAME - tRNA-Pro
ANTICODON - CGG
GENE - ASD78_18005
MODIFIED-FORM - charged-ASD78_18005-tRNA
NON-STANDARD-INCHI - InChI=1S/C15H29O19P3/c16-7-1-27-10(13(7)19)4-31-36(23,24)34-15-9(18)3-29-12(15)6-32-37(25,26)33-14-8(17)2-28-11(14)5-30-35(20,21)22/h7-19H,1-6H2,(H,23,24)(H,25,26)(H2,20,21,22)/p-3/t7-,8-,9-,10+,11+,12+,13-,14-,15-/m0/s1
//
UNIQUE-ID - ASD78_07820-tRNA
TYPES - LEU-tRNAs
COMMON-NAME - tRNA-Leu
ANTICODON - CAG
GENE - ASD78_07820
MODIFIED-FORM - charged-ASD78_07820-tRNA
NON-STANDARD-INCHI - InChI=1S/C15H29O19P3/c16-7-1-27-10(13(7)19)4-31-36(23,24)34-15-9(18)3-29-12(15)6-32-37(25,26)33-14-8(17)2-28-11(14)5-30-35(20,21)22/h7-19H,1-6H2,(H,23,24)(H,25,26)(H2,20,21,22)/p-3/t7-,8-,9-,10+,11+,12+,13-,14-,15-/m0/s1
//
UNIQUE-ID - charged-ASD78_00070-tRNA
TYPES - Charged-ARG-tRNAs
COMMON-NAME - charged tRNA-Arg
NON-STANDARD-INCHI - InChI=1S/C6H14N4O/c7-5(4-11)2-1-3-10-6(8)9/h4-5H,1-3,7H2,(H4,8,9,10)/p+2
UNMODIFIED-FORM - ASD78_00070-tRNA
//
UNIQUE-ID - charged-ASD78_06075-tRNA
TYPES - Charged-PHE-tRNAs
COMMON-NAME - charged tRNA-Phe
NON-STANDARD-INCHI - InChI=1S/C9H11NO/c10-9(7-11)6-8-4-2-1-3-5-8/h1-5,7,9H,6,10H2/p+1/t9-/m0/s1
UNMODIFIED-FORM - ASD78_06075-tRNA
//
UNIQUE-ID - ASD78_16915-tRNA
TYPES - LYS-tRNAs
COMMON-NAME - tRNA-Lys
ANTICODON - TTT
GENE - ASD78_16915
MODIFIED-FORM - charged-ASD78_16915-tRNA
NON-STANDARD-INCHI - InChI=1S/C15H29O19P3/c16-7-1-27-10(13(7)19)4-31-36(23,24)34-15-9(18)3-29-12(15)6-32-37(25,26)33-14-8(17)2-28-11(14)5-30-35(20,21)22/h7-19H,1-6H2,(H,23,24)(H,25,26)(H2,20,21,22)/p-3/t7-,8-,9-,10+,11+,12+,13-,14-,15-/m0/s1
//
UNIQUE-ID - ASD78_08850-rRNA
TYPES - rRNAs
COMMON-NAME - 5S ribosomal RNA
COMMENT - Derived by automated computational analysis using gene prediction method: cmsearch.
GENE - ASD78_08850
NON-STANDARD-INCHI - InChI=1S/C15H29O19P3/c16-7-1-27-10(13(7)19)4-31-36(23,24)34-15-9(18)3-29-12(15)6-32-37(25,26)33-14-8(17)2-28-11(14)5-30-35(20,21)22/h7-19H,1-6H2,(H,23,24)(H,25,26)(H2,20,21,22)/p-3/t7-,8-,9-,10+,11+,12+,13-,14-,15-/m0/s1
//
UNIQUE-ID - charged-ASD78_13245-tRNA
TYPES - Charged-ALA-tRNAs
COMMON-NAME - charged tRNA-Ala
NON-STANDARD-INCHI - InChI=1S/C3H7NO/c1-3(4)2-5/h2-3H,4H2,1H3/p+1/t3-/m0/s1
UNMODIFIED-FORM - ASD78_13245-tRNA
//
UNIQUE-ID - charged-ASD78_16130-tRNA
TYPES - Charged-ALA-tRNAs
COMMON-NAME - charged tRNA-Ala
NON-STANDARD-INCHI - InChI=1S/C3H7NO/c1-3(4)2-5/h2-3H,4H2,1H3/p+1/t3-/m0/s1
UNMODIFIED-FORM - ASD78_16130-tRNA
//
UNIQUE-ID - ASD78_15435-tRNA
TYPES - PRO-tRNAs
COMMON-NAME - tRNA-Pro
ANTICODON - TGG
GENE - ASD78_15435
MODIFIED-FORM - charged-ASD78_15435-tRNA
NON-STANDARD-INCHI - InChI=1S/C15H29O19P3/c16-7-1-27-10(13(7)19)4-31-36(23,24)34-15-9(18)3-29-12(15)6-32-37(25,26)33-14-8(17)2-28-11(14)5-30-35(20,21)22/h7-19H,1-6H2,(H,23,24)(H,25,26)(H2,20,21,22)/p-3/t7-,8-,9-,10+,11+,12+,13-,14-,15-/m0/s1
//
UNIQUE-ID - ASD78_08855-rRNA
TYPES - rRNAs
COMMON-NAME - 23S ribosomal RNA
GENE - ASD78_08855
NON-STANDARD-INCHI - InChI=1S/C15H29O19P3/c16-7-1-27-10(13(7)19)4-31-36(23,24)34-15-9(18)3-29-12(15)6-32-37(25,26)33-14-8(17)2-28-11(14)5-30-35(20,21)22/h7-19H,1-6H2,(H,23,24)(H,25,26)(H2,20,21,22)/p-3/t7-,8-,9-,10+,11+,12+,13-,14-,15-/m0/s1
//
UNIQUE-ID - charged-ASD78_08865-tRNA
TYPES - Charged-ALA-tRNAs
COMMON-NAME - charged tRNA-Ala
NON-STANDARD-INCHI - InChI=1S/C3H7NO/c1-3(4)2-5/h2-3H,4H2,1H3/p+1/t3-/m0/s1
UNMODIFIED-FORM - ASD78_08865-tRNA
//
UNIQUE-ID - charged-ASD78_12405-tRNA
TYPES - Charged-VAL-tRNAs
COMMON-NAME - charged tRNA-Val
NON-STANDARD-INCHI - InChI=1S/C5H11NO/c1-4(2)5(6)3-7/h3-5H,6H2,1-2H3/p+1/t5-/m1/s1
UNMODIFIED-FORM - ASD78_12405-tRNA
//
UNIQUE-ID - ASD78_15440-tRNA
TYPES - ARG-tRNAs
COMMON-NAME - tRNA-Arg
ANTICODON - TCT
GENE - ASD78_15440
MODIFIED-FORM - charged-ASD78_15440-tRNA
NON-STANDARD-INCHI - InChI=1S/C15H29O19P3/c16-7-1-27-10(13(7)19)4-31-36(23,24)34-15-9(18)3-29-12(15)6-32-37(25,26)33-14-8(17)2-28-11(14)5-30-35(20,21)22/h7-19H,1-6H2,(H,23,24)(H,25,26)(H2,20,21,22)/p-3/t7-,8-,9-,10+,11+,12+,13-,14-,15-/m0/s1
//
UNIQUE-ID - ASD78_08860-tRNA
TYPES - ILE-tRNAs
COMMON-NAME - tRNA-Ile
ANTICODON - GAT
GENE - ASD78_08860
MODIFIED-FORM - charged-ASD78_08860-tRNA
NON-STANDARD-INCHI - InChI=1S/C15H29O19P3/c16-7-1-27-10(13(7)19)4-31-36(23,24)34-15-9(18)3-29-12(15)6-32-37(25,26)33-14-8(17)2-28-11(14)5-30-35(20,21)22/h7-19H,1-6H2,(H,23,24)(H,25,26)(H2,20,21,22)/p-3/t7-,8-,9-,10+,11+,12+,13-,14-,15-/m0/s1
//
UNIQUE-ID - charged-ASD78_05940-tRNA
TYPES - Charged-VAL-tRNAs
COMMON-NAME - charged tRNA-Val
NON-STANDARD-INCHI - InChI=1S/C5H11NO/c1-4(2)5(6)3-7/h3-5H,6H2,1-2H3/p+1/t5-/m1/s1
UNMODIFIED-FORM - ASD78_05940-tRNA
//
UNIQUE-ID - charged-ASD78_15560-tRNA
TYPES - Charged-VAL-tRNAs
COMMON-NAME - charged tRNA-Val
NON-STANDARD-INCHI - InChI=1S/C5H11NO/c1-4(2)5(6)3-7/h3-5H,6H2,1-2H3/p+1/t5-/m1/s1
UNMODIFIED-FORM - ASD78_15560-tRNA
//
UNIQUE-ID - ASD78_15445-tRNA
TYPES - HIS-tRNAs
COMMON-NAME - tRNA-His
ANTICODON - GTG
GENE - ASD78_15445
MODIFIED-FORM - charged-ASD78_15445-tRNA
NON-STANDARD-INCHI - InChI=1S/C15H29O19P3/c16-7-1-27-10(13(7)19)4-31-36(23,24)34-15-9(18)3-29-12(15)6-32-37(25,26)33-14-8(17)2-28-11(14)5-30-35(20,21)22/h7-19H,1-6H2,(H,23,24)(H,25,26)(H2,20,21,22)/p-3/t7-,8-,9-,10+,11+,12+,13-,14-,15-/m0/s1
//
UNIQUE-ID - ASD78_08865-tRNA
TYPES - ALA-tRNAs
COMMON-NAME - tRNA-Ala
ANTICODON - TGC
GENE - ASD78_08865
MODIFIED-FORM - charged-ASD78_08865-tRNA
NON-STANDARD-INCHI - InChI=1S/C15H29O19P3/c16-7-1-27-10(13(7)19)4-31-36(23,24)34-15-9(18)3-29-12(15)6-32-37(25,26)33-14-8(17)2-28-11(14)5-30-35(20,21)22/h7-19H,1-6H2,(H,23,24)(H,25,26)(H2,20,21,22)/p-3/t7-,8-,9-,10+,11+,12+,13-,14-,15-/m0/s1
//
UNIQUE-ID - charged-ASD78_17520-tRNA
TYPES - Charged-LEU-tRNAs
COMMON-NAME - charged tRNA-Leu
NON-STANDARD-INCHI - InChI=1S/C6H13NO/c1-5(2)3-6(7)4-8/h4-6H,3,7H2,1-2H3/p+1
UNMODIFIED-FORM - ASD78_17520-tRNA
//
UNIQUE-ID - charged-ASD78_10600-tRNA
TYPES - Charged-LEU-tRNAs
COMMON-NAME - charged tRNA-Leu
NON-STANDARD-INCHI - InChI=1S/C6H13NO/c1-5(2)3-6(7)4-8/h4-6H,3,7H2,1-2H3/p+1
UNMODIFIED-FORM - ASD78_10600-tRNA
//
UNIQUE-ID - ASD78_15450-tRNA
TYPES - LYS-tRNAs
COMMON-NAME - tRNA-Lys
ANTICODON - CTT
GENE - ASD78_15450
MODIFIED-FORM - charged-ASD78_15450-tRNA
NON-STANDARD-INCHI - InChI=1S/C15H29O19P3/c16-7-1-27-10(13(7)19)4-31-36(23,24)34-15-9(18)3-29-12(15)6-32-37(25,26)33-14-8(17)2-28-11(14)5-30-35(20,21)22/h7-19H,1-6H2,(H,23,24)(H,25,26)(H2,20,21,22)/p-3/t7-,8-,9-,10+,11+,12+,13-,14-,15-/m0/s1
//
UNIQUE-ID - ASD78_08870-rRNA
TYPES - rRNAs
COMMON-NAME - 16S ribosomal RNA
GENE - ASD78_08870
NON-STANDARD-INCHI - InChI=1S/C15H29O19P3/c16-7-1-27-10(13(7)19)4-31-36(23,24)34-15-9(18)3-29-12(15)6-32-37(25,26)33-14-8(17)2-28-11(14)5-30-35(20,21)22/h7-19H,1-6H2,(H,23,24)(H,25,26)(H2,20,21,22)/p-3/t7-,8-,9-,10+,11+,12+,13-,14-,15-/m0/s1
//
UNIQUE-ID - charged-ASD78_10360-tRNA
TYPES - Charged-LEU-tRNAs
COMMON-NAME - charged tRNA-Leu
NON-STANDARD-INCHI - InChI=1S/C6H13NO/c1-5(2)3-6(7)4-8/h4-6H,3,7H2,1-2H3/p+1
UNMODIFIED-FORM - ASD78_10360-tRNA
//
UNIQUE-ID - charged-ASD78_12065-tRNA
TYPES - Charged-LEU-tRNAs
COMMON-NAME - charged tRNA-Leu
NON-STANDARD-INCHI - InChI=1S/C6H13NO/c1-5(2)3-6(7)4-8/h4-6H,3,7H2,1-2H3/p+1
UNMODIFIED-FORM - ASD78_12065-tRNA
//
UNIQUE-ID - ASD78_15525-tRNA
TYPES - LEU-tRNAs
COMMON-NAME - tRNA-Leu
ANTICODON - TAG
GENE - ASD78_15525
MODIFIED-FORM - charged-ASD78_15525-tRNA
NON-STANDARD-INCHI - InChI=1S/C15H29O19P3/c16-7-1-27-10(13(7)19)4-31-36(23,24)34-15-9(18)3-29-12(15)6-32-37(25,26)33-14-8(17)2-28-11(14)5-30-35(20,21)22/h7-19H,1-6H2,(H,23,24)(H,25,26)(H2,20,21,22)/p-3/t7-,8-,9-,10+,11+,12+,13-,14-,15-/m0/s1
//
UNIQUE-ID - ASD78_02770-tRNA
TYPES - THR-tRNAs
COMMON-NAME - tRNA-Thr
ANTICODON - TGT
GENE - ASD78_02770
MODIFIED-FORM - charged-ASD78_02770-tRNA
NON-STANDARD-INCHI - InChI=1S/C15H29O19P3/c16-7-1-27-10(13(7)19)4-31-36(23,24)34-15-9(18)3-29-12(15)6-32-37(25,26)33-14-8(17)2-28-11(14)5-30-35(20,21)22/h7-19H,1-6H2,(H,23,24)(H,25,26)(H2,20,21,22)/p-3/t7-,8-,9-,10+,11+,12+,13-,14-,15-/m0/s1
//
UNIQUE-ID - charged-ASD78_15525-tRNA
TYPES - Charged-LEU-tRNAs
COMMON-NAME - charged tRNA-Leu
NON-STANDARD-INCHI - InChI=1S/C6H13NO/c1-5(2)3-6(7)4-8/h4-6H,3,7H2,1-2H3/p+1
UNMODIFIED-FORM - ASD78_15525-tRNA
//
UNIQUE-ID - charged-ASD78_07820-tRNA
TYPES - Charged-LEU-tRNAs
COMMON-NAME - charged tRNA-Leu
NON-STANDARD-INCHI - InChI=1S/C6H13NO/c1-5(2)3-6(7)4-8/h4-6H,3,7H2,1-2H3/p+1
UNMODIFIED-FORM - ASD78_07820-tRNA
//
UNIQUE-ID - ASD78_15560-tRNA
TYPES - VAL-tRNAs
COMMON-NAME - tRNA-Val
ANTICODON - TAC
GENE - ASD78_15560
MODIFIED-FORM - charged-ASD78_15560-tRNA
NON-STANDARD-INCHI - InChI=1S/C15H29O19P3/c16-7-1-27-10(13(7)19)4-31-36(23,24)34-15-9(18)3-29-12(15)6-32-37(25,26)33-14-8(17)2-28-11(14)5-30-35(20,21)22/h7-19H,1-6H2,(H,23,24)(H,25,26)(H2,20,21,22)/p-3/t7-,8-,9-,10+,11+,12+,13-,14-,15-/m0/s1
//
UNIQUE-ID - ASD78_03085-tRNA
TYPES - GLN-tRNAs
COMMON-NAME - tRNA-Gln
ANTICODON - CTG
GENE - ASD78_03085
MODIFIED-FORM - charged-ASD78_03085-tRNA
NON-STANDARD-INCHI - InChI=1S/C15H29O19P3/c16-7-1-27-10(13(7)19)4-31-36(23,24)34-15-9(18)3-29-12(15)6-32-37(25,26)33-14-8(17)2-28-11(14)5-30-35(20,21)22/h7-19H,1-6H2,(H,23,24)(H,25,26)(H2,20,21,22)/p-3/t7-,8-,9-,10+,11+,12+,13-,14-,15-/m0/s1
//
UNIQUE-ID - charged-ASD78_17760-tRNA
TYPES - Charged-THR-tRNAs
COMMON-NAME - charged tRNA-Thr
NON-STANDARD-INCHI - InChI=1S/C4H9NO2/c1-3(7)4(5)2-6/h2-4,7H,5H2,1H3/p+1/t3-,4+/m0/s1
UNMODIFIED-FORM - ASD78_17760-tRNA
//
UNIQUE-ID - charged-ASD78_19465-tRNA
TYPES - Charged-THR-tRNAs
COMMON-NAME - charged tRNA-Thr
NON-STANDARD-INCHI - InChI=1S/C4H9NO2/c1-3(7)4(5)2-6/h2-4,7H,5H2,1H3/p+1/t3-,4+/m0/s1
UNMODIFIED-FORM - ASD78_19465-tRNA
//
UNIQUE-ID - ASD78_15565-tRNA
TYPES - ASP-tRNAs
COMMON-NAME - tRNA-Asp
ANTICODON - GTC
GENE - ASD78_15565
MODIFIED-FORM - charged-ASD78_15565-tRNA
NON-STANDARD-INCHI - InChI=1S/C15H29O19P3/c16-7-1-27-10(13(7)19)4-31-36(23,24)34-15-9(18)3-29-12(15)6-32-37(25,26)33-14-8(17)2-28-11(14)5-30-35(20,21)22/h7-19H,1-6H2,(H,23,24)(H,25,26)(H2,20,21,22)/p-3/t7-,8-,9-,10+,11+,12+,13-,14-,15-/m0/s1
//
UNIQUE-ID - ASD78_06540-RNA
TYPES - Misc-RNAs
COMMON-NAME - bacterial RNase P
COMMENT - Derived by automated computational analysis using gene prediction method: cmsearch.
GENE - ASD78_06540
//
UNIQUE-ID - charged-ASD78_02770-tRNA
TYPES - Charged-THR-tRNAs
COMMON-NAME - charged tRNA-Thr
NON-STANDARD-INCHI - InChI=1S/C4H9NO2/c1-3(7)4(5)2-6/h2-4,7H,5H2,1H3/p+1/t3-,4+/m0/s1
UNMODIFIED-FORM - ASD78_02770-tRNA
//
UNIQUE-ID - charged-ASD78_11010-tRNA
TYPES - Charged-SER-tRNAs
COMMON-NAME - charged tRNA-Ser
NON-STANDARD-INCHI - InChI=1S/C3H7NO2/c4-3(1-5)2-6/h1,3,6H,2,4H2/p+1/t3-/m1/s1
UNMODIFIED-FORM - ASD78_11010-tRNA
//
UNIQUE-ID - ASD78_15570-tRNA
TYPES - ASP-tRNAs
COMMON-NAME - tRNA-Asp
ANTICODON - GTC
GENE - ASD78_15570
MODIFIED-FORM - charged-ASD78_15570-tRNA
NON-STANDARD-INCHI - InChI=1S/C15H29O19P3/c16-7-1-27-10(13(7)19)4-31-36(23,24)34-15-9(18)3-29-12(15)6-32-37(25,26)33-14-8(17)2-28-11(14)5-30-35(20,21)22/h7-19H,1-6H2,(H,23,24)(H,25,26)(H2,20,21,22)/p-3/t7-,8-,9-,10+,11+,12+,13-,14-,15-/m0/s1
//
UNIQUE-ID - ASD78_04080-tRNA
TYPES - GLY-tRNAs
COMMON-NAME - tRNA-Gly
ANTICODON - CCC
GENE - ASD78_04080
MODIFIED-FORM - charged-ASD78_04080-tRNA
NON-STANDARD-INCHI - InChI=1S/C15H29O19P3/c16-7-1-27-10(13(7)19)4-31-36(23,24)34-15-9(18)3-29-12(15)6-32-37(25,26)33-14-8(17)2-28-11(14)5-30-35(20,21)22/h7-19H,1-6H2,(H,23,24)(H,25,26)(H2,20,21,22)/p-3/t7-,8-,9-,10+,11+,12+,13-,14-,15-/m0/s1
//
UNIQUE-ID - charged-ASD78_18620-tRNA
TYPES - Charged-SER-tRNAs
COMMON-NAME - charged tRNA-Ser
NON-STANDARD-INCHI - InChI=1S/C3H7NO2/c4-3(1-5)2-6/h1,3,6H,2,4H2/p+1/t3-/m1/s1
UNMODIFIED-FORM - ASD78_18620-tRNA
//
UNIQUE-ID - charged-ASD78_15675-tRNA
TYPES - Charged-SER-tRNAs
COMMON-NAME - charged tRNA-Ser
NON-STANDARD-INCHI - InChI=1S/C3H7NO2/c4-3(1-5)2-6/h1,3,6H,2,4H2/p+1/t3-/m1/s1
UNMODIFIED-FORM - ASD78_15675-tRNA
//
UNIQUE-ID - ASD78_15615-tRNA
TYPES - SER-tRNAs
COMMON-NAME - tRNA-Ser
ANTICODON - CGA
GENE - ASD78_15615
MODIFIED-FORM - charged-ASD78_15615-tRNA
NON-STANDARD-INCHI - InChI=1S/C15H29O19P3/c16-7-1-27-10(13(7)19)4-31-36(23,24)34-15-9(18)3-29-12(15)6-32-37(25,26)33-14-8(17)2-28-11(14)5-30-35(20,21)22/h7-19H,1-6H2,(H,23,24)(H,25,26)(H2,20,21,22)/p-3/t7-,8-,9-,10+,11+,12+,13-,14-,15-/m0/s1
//
UNIQUE-ID - ASD78_05925-tRNA
TYPES - ASN-tRNAs
COMMON-NAME - tRNA-Asn
ANTICODON - GTT
GENE - ASD78_05925
MODIFIED-FORM - charged-ASD78_05925-tRNA
NON-STANDARD-INCHI - InChI=1S/C15H29O19P3/c16-7-1-27-10(13(7)19)4-31-36(23,24)34-15-9(18)3-29-12(15)6-32-37(25,26)33-14-8(17)2-28-11(14)5-30-35(20,21)22/h7-19H,1-6H2,(H,23,24)(H,25,26)(H2,20,21,22)/p-3/t7-,8-,9-,10+,11+,12+,13-,14-,15-/m0/s1
//
UNIQUE-ID - charged-ASD78_15615-tRNA
TYPES - Charged-SER-tRNAs
COMMON-NAME - charged tRNA-Ser
NON-STANDARD-INCHI - InChI=1S/C3H7NO2/c4-3(1-5)2-6/h1,3,6H,2,4H2/p+1/t3-/m1/s1
UNMODIFIED-FORM - ASD78_15615-tRNA
//
UNIQUE-ID - charged-ASD78_05925-tRNA
TYPES - Charged-ASX-tRNAs
COMMON-NAME - charged tRNA-Asn
NON-STANDARD-INCHI - InChI=1S/C15H29O19P3/c16-7-1-27-10(13(7)19)4-31-36(23,24)34-15-9(18)3-29-12(15)6-32-37(25,26)33-14-8(17)2-28-11(14)5-30-35(20,21)22/h7-19H,1-6H2,(H,23,24)(H,25,26)(H2,20,21,22)/p-3/t7-,8-,9-,10+,11+,12+,13-,14-,15-/m0/s1
UNMODIFIED-FORM - ASD78_05925-tRNA
//
UNIQUE-ID - ASD78_15675-tRNA
TYPES - SER-tRNAs
COMMON-NAME - tRNA-Ser
ANTICODON - GGA
GENE - ASD78_15675
MODIFIED-FORM - charged-ASD78_15675-tRNA
NON-STANDARD-INCHI - InChI=1S/C15H29O19P3/c16-7-1-27-10(13(7)19)4-31-36(23,24)34-15-9(18)3-29-12(15)6-32-37(25,26)33-14-8(17)2-28-11(14)5-30-35(20,21)22/h7-19H,1-6H2,(H,23,24)(H,25,26)(H2,20,21,22)/p-3/t7-,8-,9-,10+,11+,12+,13-,14-,15-/m0/s1
//
UNIQUE-ID - ASD78_05940-tRNA
TYPES - VAL-tRNAs
COMMON-NAME - tRNA-Val
ANTICODON - GAC
GENE - ASD78_05940
MODIFIED-FORM - charged-ASD78_05940-tRNA
NON-STANDARD-INCHI - InChI=1S/C15H29O19P3/c16-7-1-27-10(13(7)19)4-31-36(23,24)34-15-9(18)3-29-12(15)6-32-37(25,26)33-14-8(17)2-28-11(14)5-30-35(20,21)22/h7-19H,1-6H2,(H,23,24)(H,25,26)(H2,20,21,22)/p-3/t7-,8-,9-,10+,11+,12+,13-,14-,15-/m0/s1
//
UNIQUE-ID - charged-ASD78_15570-tRNA
TYPES - Charged-ASX-tRNAs
COMMON-NAME - charged tRNA-Asp
NON-STANDARD-INCHI - InChI=1S/C15H29O19P3/c16-7-1-27-10(13(7)19)4-31-36(23,24)34-15-9(18)3-29-12(15)6-32-37(25,26)33-14-8(17)2-28-11(14)5-30-35(20,21)22/h7-19H,1-6H2,(H,23,24)(H,25,26)(H2,20,21,22)/p-3/t7-,8-,9-,10+,11+,12+,13-,14-,15-/m0/s1
UNMODIFIED-FORM - ASD78_15570-tRNA
//
UNIQUE-ID - charged-ASD78_15565-tRNA
TYPES - Charged-ASX-tRNAs
COMMON-NAME - charged tRNA-Asp
NON-STANDARD-INCHI - InChI=1S/C15H29O19P3/c16-7-1-27-10(13(7)19)4-31-36(23,24)34-15-9(18)3-29-12(15)6-32-37(25,26)33-14-8(17)2-28-11(14)5-30-35(20,21)22/h7-19H,1-6H2,(H,23,24)(H,25,26)(H2,20,21,22)/p-3/t7-,8-,9-,10+,11+,12+,13-,14-,15-/m0/s1
UNMODIFIED-FORM - ASD78_15565-tRNA
//
UNIQUE-ID - ASD78_16035-tRNA
TYPES - ARG-tRNAs
COMMON-NAME - tRNA-Arg
ANTICODON - CCT
GENE - ASD78_16035
MODIFIED-FORM - charged-ASD78_16035-tRNA
NON-STANDARD-INCHI - InChI=1S/C15H29O19P3/c16-7-1-27-10(13(7)19)4-31-36(23,24)34-15-9(18)3-29-12(15)6-32-37(25,26)33-14-8(17)2-28-11(14)5-30-35(20,21)22/h7-19H,1-6H2,(H,23,24)(H,25,26)(H2,20,21,22)/p-3/t7-,8-,9-,10+,11+,12+,13-,14-,15-/m0/s1
//
UNIQUE-ID - ASD78_05995-tRNA
TYPES - PRO-tRNAs
COMMON-NAME - tRNA-Pro
ANTICODON - GGG
GENE - ASD78_05995
MODIFIED-FORM - charged-ASD78_05995-tRNA
NON-STANDARD-INCHI - InChI=1S/C15H29O19P3/c16-7-1-27-10(13(7)19)4-31-36(23,24)34-15-9(18)3-29-12(15)6-32-37(25,26)33-14-8(17)2-28-11(14)5-30-35(20,21)22/h7-19H,1-6H2,(H,23,24)(H,25,26)(H2,20,21,22)/p-3/t7-,8-,9-,10+,11+,12+,13-,14-,15-/m0/s1
//
UNIQUE-ID - charged-ASD78_19475-tRNA
TYPES - Charged-TYR-tRNAs
COMMON-NAME - charged tRNA-Tyr
NON-STANDARD-INCHI - InChI=1S/C9H11NO2/c10-8(6-11)5-7-1-3-9(12)4-2-7/h1-4,6,8,12H,5,10H2/p+1/t8-/m0/s1
UNMODIFIED-FORM - ASD78_19475-tRNA
//
UNIQUE-ID - ASD78_16130-tRNA
TYPES - ALA-tRNAs
COMMON-NAME - tRNA-Ala
ANTICODON - CGC
GENE - ASD78_16130
MODIFIED-FORM - charged-ASD78_16130-tRNA
NON-STANDARD-INCHI - InChI=1S/C15H29O19P3/c16-7-1-27-10(13(7)19)4-31-36(23,24)34-15-9(18)3-29-12(15)6-32-37(25,26)33-14-8(17)2-28-11(14)5-30-35(20,21)22/h7-19H,1-6H2,(H,23,24)(H,25,26)(H2,20,21,22)/p-3/t7-,8-,9-,10+,11+,12+,13-,14-,15-/m0/s1
//
UNIQUE-ID - ASD78_06075-tRNA
TYPES - PHE-tRNAs
COMMON-NAME - tRNA-Phe
ANTICODON - GAA
GENE - ASD78_06075
MODIFIED-FORM - charged-ASD78_06075-tRNA
NON-STANDARD-INCHI - InChI=1S/C15H29O19P3/c16-7-1-27-10(13(7)19)4-31-36(23,24)34-15-9(18)3-29-12(15)6-32-37(25,26)33-14-8(17)2-28-11(14)5-30-35(20,21)22/h7-19H,1-6H2,(H,23,24)(H,25,26)(H2,20,21,22)/p-3/t7-,8-,9-,10+,11+,12+,13-,14-,15-/m0/s1
//
UNIQUE-ID - charged-ASD78_07365-tRNA
TYPES - Charged-MET-tRNAs
COMMON-NAME - charged tRNA-Met
NON-STANDARD-INCHI - InChI=1S/C5H11NOS/c1-8-3-2-5(6)4-7/h4-5H,2-3,6H2,1H3/p+1/t5-/m0/s1
UNMODIFIED-FORM - ASD78_07365-tRNA
//
UNIQUE-ID - charged-ASD78_01410-tRNA
TYPES - Charged-MET-tRNAs
COMMON-NAME - charged tRNA-Met
NON-STANDARD-INCHI - InChI=1S/C5H11NOS/c1-8-3-2-5(6)4-7/h4-5H,2-3,6H2,1H3/p+1/t5-/m0/s1
UNMODIFIED-FORM - ASD78_01410-tRNA
//
UNIQUE-ID - ASD78_12055-tRNA
TYPES - GLY-tRNAs
COMMON-NAME - tRNA-Gly
ANTICODON - GCC
GENE - ASD78_12055
MODIFIED-FORM - charged-ASD78_12055-tRNA
NON-STANDARD-INCHI - InChI=1S/C15H29O19P3/c16-7-1-27-10(13(7)19)4-31-36(23,24)34-15-9(18)3-29-12(15)6-32-37(25,26)33-14-8(17)2-28-11(14)5-30-35(20,21)22/h7-19H,1-6H2,(H,23,24)(H,25,26)(H2,20,21,22)/p-3/t7-,8-,9-,10+,11+,12+,13-,14-,15-/m0/s1
//
UNIQUE-ID - ASD78_19630-tRNA
TYPES - TRP-tRNAs
COMMON-NAME - tRNA-Trp
ANTICODON - CCA
GENE - ASD78_19630
MODIFIED-FORM - charged-ASD78_19630-tRNA
NON-STANDARD-INCHI - InChI=1S/C15H29O19P3/c16-7-1-27-10(13(7)19)4-31-36(23,24)34-15-9(18)3-29-12(15)6-32-37(25,26)33-14-8(17)2-28-11(14)5-30-35(20,21)22/h7-19H,1-6H2,(H,23,24)(H,25,26)(H2,20,21,22)/p-3/t7-,8-,9-,10+,11+,12+,13-,14-,15-/m0/s1
//
UNIQUE-ID - charged-ASD78_10525-tRNA
TYPES - Charged-MET-tRNAs
COMMON-NAME - charged tRNA-Met
NON-STANDARD-INCHI - InChI=1S/C5H11NOS/c1-8-3-2-5(6)4-7/h4-5H,2-3,6H2,1H3/p+1/t5-/m0/s1
UNMODIFIED-FORM - ASD78_10525-tRNA
//
UNIQUE-ID - charged-ASD78_19470-tRNA
TYPES - Charged-GLY-tRNAs
COMMON-NAME - charged tRNA-Gly
NON-STANDARD-INCHI - InChI=1S/C2H5NO/c3-1-2-4/h2H,1,3H2/p+1
UNMODIFIED-FORM - ASD78_19470-tRNA
//
UNIQUE-ID - ASD78_12060-tRNA
TYPES - CYS-tRNAs
COMMON-NAME - tRNA-Cys
ANTICODON - GCA
GENE - ASD78_12060
MODIFIED-FORM - charged-ASD78_12060-tRNA
NON-STANDARD-INCHI - InChI=1S/C15H29O19P3/c16-7-1-27-10(13(7)19)4-31-36(23,24)34-15-9(18)3-29-12(15)6-32-37(25,26)33-14-8(17)2-28-11(14)5-30-35(20,21)22/h7-19H,1-6H2,(H,23,24)(H,25,26)(H2,20,21,22)/p-3/t7-,8-,9-,10+,11+,12+,13-,14-,15-/m0/s1
//
UNIQUE-ID - ASD78_19465-tRNA
TYPES - THR-tRNAs
COMMON-NAME - tRNA-Thr
ANTICODON - GGT
GENE - ASD78_19465
MODIFIED-FORM - charged-ASD78_19465-tRNA
NON-STANDARD-INCHI - InChI=1S/C15H29O19P3/c16-7-1-27-10(13(7)19)4-31-36(23,24)34-15-9(18)3-29-12(15)6-32-37(25,26)33-14-8(17)2-28-11(14)5-30-35(20,21)22/h7-19H,1-6H2,(H,23,24)(H,25,26)(H2,20,21,22)/p-3/t7-,8-,9-,10+,11+,12+,13-,14-,15-/m0/s1
//
UNIQUE-ID - charged-ASD78_12055-tRNA
TYPES - Charged-GLY-tRNAs
COMMON-NAME - charged tRNA-Gly
NON-STANDARD-INCHI - InChI=1S/C2H5NO/c3-1-2-4/h2H,1,3H2/p+1
UNMODIFIED-FORM - ASD78_12055-tRNA
//
UNIQUE-ID - charged-ASD78_04080-tRNA
TYPES - Charged-GLY-tRNAs
COMMON-NAME - charged tRNA-Gly
NON-STANDARD-INCHI - InChI=1S/C2H5NO/c3-1-2-4/h2H,1,3H2/p+1
UNMODIFIED-FORM - ASD78_04080-tRNA
//
UNIQUE-ID - ASD78_12065-tRNA
TYPES - LEU-tRNAs
COMMON-NAME - tRNA-Leu
ANTICODON - TAA
GENE - ASD78_12065
MODIFIED-FORM - charged-ASD78_12065-tRNA
NON-STANDARD-INCHI - InChI=1S/C15H29O19P3/c16-7-1-27-10(13(7)19)4-31-36(23,24)34-15-9(18)3-29-12(15)6-32-37(25,26)33-14-8(17)2-28-11(14)5-30-35(20,21)22/h7-19H,1-6H2,(H,23,24)(H,25,26)(H2,20,21,22)/p-3/t7-,8-,9-,10+,11+,12+,13-,14-,15-/m0/s1
//
UNIQUE-ID - ASD78_19470-tRNA
TYPES - GLY-tRNAs
COMMON-NAME - tRNA-Gly
ANTICODON - TCC
GENE - ASD78_19470
MODIFIED-FORM - charged-ASD78_19470-tRNA
NON-STANDARD-INCHI - InChI=1S/C15H29O19P3/c16-7-1-27-10(13(7)19)4-31-36(23,24)34-15-9(18)3-29-12(15)6-32-37(25,26)33-14-8(17)2-28-11(14)5-30-35(20,21)22/h7-19H,1-6H2,(H,23,24)(H,25,26)(H2,20,21,22)/p-3/t7-,8-,9-,10+,11+,12+,13-,14-,15-/m0/s1
//
UNIQUE-ID - charged-ASD78_08860-tRNA
TYPES - Charged-ILE-tRNAs
COMMON-NAME - charged tRNA-Ile
NON-STANDARD-INCHI - InChI=1S/C6H13NO/c1-3-5(2)6(7)4-8/h4-6H,3,7H2,1-2H3/p+1/t5-,6?/m0/s1
UNMODIFIED-FORM - ASD78_08860-tRNA
//
UNIQUE-ID - charged-ASD78_11005-tRNA
TYPES - Charged-ARG-tRNAs
COMMON-NAME - charged tRNA-Arg
NON-STANDARD-INCHI - InChI=1S/C6H14N4O/c7-5(4-11)2-1-3-10-6(8)9/h4-5H,1-3,7H2,(H4,8,9,10)/p+2
UNMODIFIED-FORM - ASD78_11005-tRNA
//
UNIQUE-ID - ASD78_12405-tRNA
TYPES - VAL-tRNAs
COMMON-NAME - tRNA-Val
ANTICODON - CAC
GENE - ASD78_12405
MODIFIED-FORM - charged-ASD78_12405-tRNA
NON-STANDARD-INCHI - InChI=1S/C15H29O19P3/c16-7-1-27-10(13(7)19)4-31-36(23,24)34-15-9(18)3-29-12(15)6-32-37(25,26)33-14-8(17)2-28-11(14)5-30-35(20,21)22/h7-19H,1-6H2,(H,23,24)(H,25,26)(H2,20,21,22)/p-3/t7-,8-,9-,10+,11+,12+,13-,14-,15-/m0/s1
//
UNIQUE-ID - ASD78_19475-tRNA
TYPES - TYR-tRNAs
COMMON-NAME - tRNA-Tyr
ANTICODON - GTA
GENE - ASD78_19475
MODIFIED-FORM - charged-ASD78_19475-tRNA
NON-STANDARD-INCHI - InChI=1S/C15H29O19P3/c16-7-1-27-10(13(7)19)4-31-36(23,24)34-15-9(18)3-29-12(15)6-32-37(25,26)33-14-8(17)2-28-11(14)5-30-35(20,21)22/h7-19H,1-6H2,(H,23,24)(H,25,26)(H2,20,21,22)/p-3/t7-,8-,9-,10+,11+,12+,13-,14-,15-/m0/s1
//
UNIQUE-ID - charged-ASD78_16035-tRNA
TYPES - Charged-ARG-tRNAs
COMMON-NAME - charged tRNA-Arg
NON-STANDARD-INCHI - InChI=1S/C6H14N4O/c7-5(4-11)2-1-3-10-6(8)9/h4-5H,1-3,7H2,(H4,8,9,10)/p+2
UNMODIFIED-FORM - ASD78_16035-tRNA
//
UNIQUE-ID - ASD78_13245-tRNA
TYPES - ALA-tRNAs
COMMON-NAME - tRNA-Ala
ANTICODON - GGC
GENE - ASD78_13245
MODIFIED-FORM - charged-ASD78_13245-tRNA
NON-STANDARD-INCHI - InChI=1S/C15H29O19P3/c16-7-1-27-10(13(7)19)4-31-36(23,24)34-15-9(18)3-29-12(15)6-32-37(25,26)33-14-8(17)2-28-11(14)5-30-35(20,21)22/h7-19H,1-6H2,(H,23,24)(H,25,26)(H2,20,21,22)/p-3/t7-,8-,9-,10+,11+,12+,13-,14-,15-/m0/s1
//
