dbRef_id	Common name	Produced (p), Consumed (c), Both (cp)
OXYGEN-MOLECULE	oxygen	cp
C4	undecaprenyl-diphospho-N-acetylmuramoyl-L-alanyl-&gamma;-D-glutamyl-L-lysyl- D-alanyl-D-alanine	c
CPD-62	2,3-dihydroxybenzoyl adenylate	p
PRISTANATE	pristanate	c
CHOCOLA_A	all-trans-retinyl palmitate	c
CPD-622	(2S,3S)-2-methylcitrate	cp
ISOBUTYRATE	isobutanoate	c
tRNA-Adenosines-37	an adenosine37 in tRNA	c
tRNA-Containing-N7-Methylguanine-46	an N7-methylguanine46 in tRNA	p
tRNA-Dihydrouridines	a 5,6-dihydrouridine in tRNA	p
SELENATE	selenate	c
Deacetylated-Peptidoglycan	a deacetylated peptidoglycan	p
3-HYDROXY-DOCOSAPENTAENOYL-ACP	a (3R)-3-hydroxy-docosapentaenoyl-[acp]	p
Decanoyl-ACPs	a decanoyl-[acp]	p
C5	undecaprenyldiphospho-N-acetylmuramoyl-L-alanyl-&gamma;-D-glutamyl-meso-2,6-diaminopimeloyl-D-alanyl-D-alanine	cp
3-HYDROXY-ISOBUTYRATE	3-hydroxy-isobutanoate	p
3-HYDROXY-ISOBUTYRYL-COA	3-hydroxy-isobutanoyl-CoA	c
PRO	L-proline	cp
2-DEOXYRIBOSE	2'-deoxyribose	c
C6	ditrans,octacis-undecaprenyldiphospho-[(N-acetyl-&beta;-D-glucosaminyl)-(1,4)-]-N-acetyl-&alpha;-D-muramoyl-L-alanyl-&gamma;-D-glutamyl-meso-2,6-diaminopimeloyl-D-alanyl-D-alanine	cp
D-GLT	D-glutamate	cp
ASP-tRNAs	tRNAasp	c
PRO-tRNAs	a tRNAPro	c
Methylated-Ribosomal-Protein-L11s	a methylated ribosomal protein L11	p
3-HYDROXY-ISOVALERYL-COA	3-hydroxyisovaleryl-CoA	cp
DNA-Combined-With-Exogenous-DNA	DNA combined with exogenous DNA to form a recombinational junction	c
DI-H-OROTATE	(S)-dihydroorotate	cp
ISOBUTYRYL-COA	isobutanoyl-CoA	cp
CPD-643	precorrin-3B	c
MESO-DIAMINOPIMELATE	meso-diaminopimelate	cp
PYRUVATE	pyruvate	cp
MET	L-methionine	cp
tRNA-Sec	a tRNAsec	c
CPD-6442	methylsalicylate	c
2-Deoxy-D-Ribosyl-Base	a 2-deoxy-D-ribosyl-base	cp
Demethylmenaquinols	a demethylmenaquinol	c
CADAVERINE	cadaverine	p
GLYOX	glyoxylate	cp
DNA-Cytosines	a cytosine in DNA	c
Deoxy-Ribonucleoside-Diphosphates	a 2'-deoxyribonucleoside 5'-diphosphate	p
tRNA-containing-5Me-uridine54	a 5-methyluracil54 in tRNA	p
Deoxy-Ribonucleoside-Monophosphates	a 2'-deoxyribonucleoside 5'-monophosphate	p
CHOLATE	cholate	p
Deoxy-Ribonucleoside-Triphosphates	a 2'-deoxyribonucleoside 5'-triphosphate	cp
ISOCHORISMATE	isochorismate	cp
2-HYDROXY-3-KETO-5-METHYLTHIO-1-PHOSPHOP	2-hydroxy-5-(methylsulfanyl)-3-oxopent-1-enyl 1-phosphate	cp
3-HYDROXY-L-KYNURENINE	3-hydroxy-L-kynurenine	c
tRNA-fragment	a tRNA fragment	p
tRNA-precursors	a tRNA precursor	c
tRNA-pseudouridine-38-40	a pseudouridine38-40 in tRNA	p
Octadec-2-enoyl-ACPs	a trans-octadec-2-enoyl-[acp]	c
CPD-651	precorrin-4	p
D-GLUCOSAMINE-6-P	D-glucosamine 6-phosphate	cp
SEPO3	selenophosphate	c
tRNA-uridine-38-40	a uridine38-40 in tRNA	c
DIACYLGLYCEROL	a 1,2-diacyl-sn-glycerol	cp
3-HYDROXY-PROPIONATE	3-hydroxypropanoate	p
METHACRYLYL-COA	methylacrylyl-CoA	cp
tRNA-uridine34	a uridine34 in tRNA	c
Octanoyl-ACPs	an octanoyl-[acp]	cp
2-Hexadecenoyl-ACPs	a trans hexadecenoyl-[acp]	c
3-HYDROXY-PROPIONYL-COA	3-hydroxypropanoyl-CoA	c
tRNA-uridines	a uridine in tRNA	c
CHORISMATE	chorismate	cp
Octanoylated-Gcv-H	a [glycine-cleavage complex H protein] N6-octanoyl-L-lysine	cp
Monocarboxylates	a monocarboxylate	p
CAFFEOYL-COA	trans-caffeoyl-CoA	p
CPD-9646	di-trans,octa-cis-undecaprenyl phosphate	p
5-phosphooligonucleotides	a 5'-phosphooligonucleotide	p
CPD-11997	decaprenyl-diphospho-N-acetylmuramoyl-pentapeptide	c
Octanoylated-domains	a [lipoyl-carrier protein] N6-octanoyl-L-lysine	cp
LIPOYL-AMP	lipoyl-adenylate	cp
CPD-10633	5-chloro-trans-dienelactone	c
CPD-11998	decaprenyl-pyrophosphoryl-(N-acetylglucosamine)-N-acetylmuramyl-(pentapeptide)	p
CPD-19155	(S)-3-hydroxy-(9Z)-hexadecenoyl-CoA	p
L-BETA-ASPARTYL-P	L-aspartyl-4-phosphate	cp
CPD-9869	all trans-decaprenyl-2-methoxy-6-1,4-benzoquinol	c
Odd-Saturated-Fatty-Acyl-CoA	an odd numbered straight chain 2,3,4-saturated fatty acyl CoA	p
NAcMur-Peptide-NAcGlc-Undecaprenols	a lipid II	c
CPD-3707	adenosine 2',3'-cyclic monophosphate	c
AGMATHINE	agmatine	c
CPD-10634	5-chloromaleylacetate	p
CPD-19159	(S)-3-hydroxy-(11Z)-octadecenoyl-CoA	p
D-HEXOSE-6-PHOSPHATE	D-hexose 6-phosphate	p
CPD-121	(R)-mandelate	c
Odd-Straight-Chain-234-Sat-FA	an odd numbered straight chain 2,3,4-saturated fatty acid	c
L-CANALINE	L-canaline	p
CPD-12115	demethylmenaquinol-8	cp
CPD-10636	2,5-dichloro-trans-dienelactone	c
SER	L-serine	cp
CPD-9871	6-methoxy-3-methyl-2-all-trans-decaprenyl-1,4-benzoquinol	p
TMP	dTMP	cp
CPD-19161	(2E,7Z)-tetradecenoyl-CoA	cp
NAcMur-Peptide-Undecaprenols	a N-acetylmuramoyl-pentapeptide-diphosphoundecaprenol	p
LL-DIAMINOPIMELATE	L,L-diaminopimelate	cp
CPD-3708	guanosine 3'-monophosphate	cp
GDP	GDP	cp
CPD-10637	2,5-dichloromaleylacetate	p
CPD-12116	demethylmenaquinol-6	c
CPD-19162	(2E,9Z)-hexadecenoyl-CoA	cp
CPD-9923	(1R,6R)-6-hydroxy-2-succinylcyclohexa-2,4-diene-1-carboxylate	cp
TRANS-2-CHLORO-4-CARBOXYMETHYLENEBUT-2-E	2-chloro-trans-dienelactone	c
Oleoyl-lipid	a [glycerolipid]-oleate	c
D-Hexoses	a D-hexose	c
SER-tRNAs	a tRNAser	c
LONG-CHAIN-KETONE	a ketone	cp
L-CARNITINYL-COA	L-carnitinyl-CoA	p
CPD-19163	(2E,11Z)-octadecenoyl-CoA	cp
CPD-12117	demethylmenaquinol-7	c
CPD-9924	2-succinyl-5-enolpyruvoyl-6-hydroxy-3-cyclohexene-1-carboxylate	cp
UROPORPHYRINOGEN-III	uroporphyrinogen-III	cp
D-LACTATE	(R)-lactate	cp
L-CITRULLINE	L-citrulline	cp
CPD-19168	(S)-3-hydroxy-(7Z)-hexadecenoyl-CoA	p
Aromatic-Amino-Acids	an aromatic amino acid	cp
CPD-12118	demethylmenaquinol-9	c
GDP-TP	pppGpp	p
Oligonucleotides	an oligonucleotide	cp
L-CYSTATHIONINE	L-cystathionine	cp
Aromatic-Oxoacids	an aromatic 2-oxo-acid	cp
CPD-3709	guanosine 2',3'-cyclic monophosphate	c
AICAR	5-amino-1-(5-phospho-D-ribosyl)imidazole-4-carboxamide	cp
CPD-9925	1,4-dihydroxy-2-naphthoyl-CoA	p
TRANS-23-DEHYDROADIPYL-COA	trans-2,3-dehydroadipyl-coA	cp
CPD-19170	(2E,7Z)-hexadecenoyl-CoA	cp
LUTEOLIN-7-O-BETA-D-DIGLUCURONIDE	luteolin 7-O-&beta;-D-diglucuronide	c
CPD-10750	UDP-2-acetamido-2,6-dideoxy-&beta;-L-arabino-hex-4-ulose	cp
CPD-12119	demethylmenaquinol-10	c
UTP	UTP	cp
CPD-9956	ubiquinol-8	p
FMN	FMN	p
Aryl-sulfates	an aryl sulfate	c
CPD-3711	cytidine-3'-monophosphate	cp
TRANS-D2-ENOYL-ACP	a trans-2-enoyl-[acyl-carrier protein]	cp
CPD-19171	(S)-3-hydroxy-(9Z)-octadecenoyl-CoA	p
UDP	UDP	cp
UDP-4-AMINO-4-DEOXY-L-ARABINOSE	UDP-4-amino-4-deoxy-&beta;-L-arabinopyranose	cp
CPD-13469	&alpha;-D-glucosamine 6-phosphate	cp
Supercoiled-Duplex-DNAs	a supercoiled duplex DNA	c
D-MANNONATE	D-mannonate	cp
T2-DECENOYL-COA	(2E)-dec-2-enoyl-CoA	c
CPD-13518	N&omega;-hydroxy-L-arginine	cp
DNA-Holder	DNA	p
UDP-AA-GLUTAMATE	UDP-N-acetyl-&alpha;-D-muramoyl-L-alanyl-D-glutamate	cp
CPD-13524	all-trans-retinol	p
NIACINE	nicotinate	c
UDP-AAGM-DIAMINOHEPTANEDIOATE	UDP-N-acetyl-&alpha;-D-muramoyl-L-alanyl-&gamma;-D-glutamyl-meso-2,6-diaminopimelate	cp
UDP-ACETYL-CARBOXYVINYL-GLUCOSAMINE	UDP-N-acetyl-&alpha;-D-glucosamine-enolpyruvate	cp
D-MYO-INOSITOL-1-MONOPHOSPHATE	1D-myo-inositol 1-monophosphate	c
CPD-13534	3-oxopentanoyl-CoA	c
ANTHRANILATE	anthranilate	cp
Pyruvate-dehydrogenase-acetylDHlipoyl	a [pyruvate dehydrogenase E2 protein] N6-S-acetyldihydrolipoyl-L-lysine	p
TDP	dTDP	cp
Palmitoyl-ACPs	a palmitoyl-[acp]	cp
Pyruvate-dehydrogenase-dihydrolipoate	a [pyruvate dehydrogenase E2 protein] N6-dihydrolipoyl-L-lysine	c
CPD-13575	2-[(2R,5Z)-2-carboxy-4-methylthiazol-5(2H)-ylidene]ethyl phosphate	cp
SEROTONIN	serotonin	c
Pyruvate-dehydrogenase-lipoate	a [pyruvate dehydrogenase E2 protein] N6-lipoyl-L-lysine	cp
UDP-GLUCURONATE	UDP-&alpha;-D-glucuronate	p
APS	adenosine 5'-phosphosulfate	cp
Orthophosphoric-Monoesters	a phosphate monoester	c
CPD-13576	2-(2-carboxy-4-methylthiazol-5-yl)ethyl phosphate	c
QUEUINE	queuine	c
HIS	L-histidine	cp
UDP-MANNAC	UDP-N-acetyl-&alpha;-D-mannosamine	c
UDP-MANNACA	UDP-N-acetyl-&alpha;-D-mannosaminuronate	p
5S-RRNA-Precursors	a 5S rRNA precursor	c
HYDROGEN-PEROXIDE	hydrogen peroxide	cp
5S-rRNAs	a 5S rRNA	p
2-KETO-3-DEOXY-6-P-GLUCONATE	2-dehydro-3-deoxy-D-gluconate 6-phosphate	p
4-CYTIDINE-5-DIPHOSPHO-2-C	4-(cytidine 5'-diphospho)-2-C-methyl-D-erythritol	cp
CPD-658	CDP-4-dehydro-6-deoxy-D-glucose	p
Ox-Glutaredoxins	an oxidized glutaredoxin	p
D-PROLINE	D-proline	cp
DNA-Ligase-L-lysine	a [DNA ligase]-L-lysine	cp
2-KETO-3-METHYL-VALERATE	(S)-3-methyl-2-oxopentanoate	cp
NICOTINAMIDE_NUCLEOTIDE	&beta;-nicotinamide D-ribonucleotide	cp
4-FUMARYL-ACETOACETATE	4-fumaryl-acetoacetate	c
CPD-663	UDP-4-dehydro-6-deoxy-&alpha;-D-glucose	cp
HYDROQUINONE	hydroquinone	p
Ox-NADPH-Hemoprotein-Reductases	an oxidized [NADPH-hemoprotein reductase]	p
Ox-Thioredoxin	an oxidized thioredoxin	cp
5Z-3-oxo-tetradec-5-enoyl-ACPs	a (5Z)-3-oxo-tetradec-5-enoyl-[acp]	c
NICOTINAMIDE_RIBOSE	1-(&beta;-D ribofuranosyl)nicotinamide	p
GERANYL-PP	geranyl diphosphate	cp
GLUTARYL-COA	glutaryl-CoA	p
CPD-667	O-acetyl-L-homoserine	cp
DNA-Ligase-L-lysine-adenylate	a [DNA ligase]-N6-(5'-adenylyl)-L-lysine	cp
Oxidized-2Fe-2S-Ferredoxins	an oxidized [2Fe-2S] ferredoxin	p
5Z8Z11Z14Z17Z-EICOSAPENTAENOATE	icosapentaenoate	c
CPD-67	2-phosphoglycolate	c
CPD-6746	1D-myo-inositol 2-monophosphate	c
HYDROXY-METHYL-BUTENYL-DIP	(E)-4-hydroxy-3-methylbut-2-en-1-yl diphosphate	p
Oxidized-NrdH-Proteins	an oxidized NrdH glutaredoxin-like protein	p
6-Acetyl-Beta-D-Galactosides	a 6-acetyl-&beta;-D-galactoside	p
D-SEDOHEPTULOSE-7-P	D-sedoheptulose 7-phosphate	cp
GERANYLGERANYL-PP	geranylgeranyl diphosphate	c
GLUTATHIONE	glutathione	cp
D-SERINE	D-serine	c
CPD-676	trans-caffeate	c
4-GUANIDO-BUTYRAMIDE	4-guanidinobutyramide	c
6-Dimethylallyladenosine37-tRNAs	N6-dimethylallyladenosine37 in tRNA	cp
4-HYDROXY-2-KETOVALERATE	(S)-4-hydroxy-2-oxopentanoate	cp
Oxidized-ferredoxins	an oxidized ferredoxin [iron-sulfur] cluster	cp
HIS-tRNAs	a tRNAHis	c
Monocarboxylic-Acid-Amides	a monocarboxylic acid amide	c
PROPIONAMIDE	propionamide	c
TRANS-D2-ENOYL-COA	a (2E)-alkan-2-enoyl-CoA	cp
LYS	L-lysine	cp
FMNH2	FMNH2	c
LYS-tRNAs	a tRNALys	cp
1-KETO-2-METHYLVALERATE	(R)-2,3-dihydroxy-3-methylpentanoate	p
Oxo-glutarate-dehydro-suc-DH-lipoyl	a [2-oxoglutarate dehydrogenase E2 protein] N6-S-succinyldihydrolipoyl-L-lysine	cp
Oxo-glutarate-dehydrogenase-DH-lipoyl	a [2-oxoglutarate dehydrogenase E2 protein] N6-dihydrolipoyl-L-lysine	cp
PROPIONATE	propanoate	p
CPD-15978	D-cellobiose 6'-phosphate	c
DIAMINO-OH-PHOSPHORIBOSYLAMINO-PYR	2,5-diamino-6-(5-phospho-D-ribosylamino)pyrimidin-4(3H)-one	c
CANAVANINE	L-canavanine	cp
CPD-3713	cytidine 2',3'-cyclic monophosphate	c
CPD-15979	D-mannopyranose 6-phosphate	cp
1-L-MYO-INOSITOL-1-P	1D-myo-inositol 3-monophosphate	c
Oxo-glutarate-dehydrogenase-lipoyl	a [2-oxoglutarate dehydrogenase E2 protein] N6-lipoyl-L-lysine	cp
PROPIONYL-COA	propanoyl-CoA	cp
CPD-9999	N-acetylphosphinothricin	p
RNASE-E-DEGRADATION-SUBSTRATE-MRNA	RNase E degradation substrate mRNA	c
1-PALMITOYLGLYCEROL-3-PHOSPHATE	1-palmitoylglycerol 3-phosphate	p
DIAMINONONANOATE	7,8-diaminopelargonate	cp
CPD-3724	uridine 3'-monophosphate	cp
CANAVANINOSUCCINATE	canavaninosuccinate	cp
Myristoyl-ACPs	a myristoyl-[acp]	cp
NICOTINATE_NUCLEOTIDE	&beta;-nicotinate D-ribonucleotide	cp
P-AMINO-BENZOATE	4-aminobenzoate	cp
N-23-DIHYDROXYBENZOYL-L-SERINE	N-(2,3-dihydroxybenzoyl)-L-serine	p
CPD0-1027	a debranched &alpha;-limit dextrin	c
RNASE-E-MRNA-PROCESSING-SUBSTRATE	RNase E mRNA processing substrate	c
CARBAMATE	carbamate	p
CPD0-1074	aminomethylphosphonate	p
CPD-16549	3-(N-morpholino)propanal	p
P-COUMAROYL-COA	4-coumaroyl-CoA	cp
D-glucopyranose-6-phosphate	D-glucopyranose 6-phosphate	cp
RNASE-E-PROCESSING-PRODUCT-MRNA	RNase E processing product mRNA	p
CPD-3725	uridine 2'3'-cyclic monophosphate	c
6-PYRUVOYL-5678-TETRAHYDROPTERIN	(6R)-6-pyruvoyl-5,6,7,8-tetrahydropterin	p
N-5-PHOSPHORIBOSYL-ANTHRANILATE	N-(5-phosphoribosyl)-anthranilate	cp
RNASE-G-DEGRADATION-SUBSTRATE-MRNA	RNase G degradation substrate mRNA	c
N-ACETYL-D-GALACTOSAMINE-6-PHOSPHATE	N-acetyl-D-galactosamine 6-phosphate	c
FORMALDEHYDE	formaldehyde	p
NITRIC-OXIDE	nitric oxide	p
CPD-3744	1-butanesulfonate	c
RNASE-III-MRNA-PROCESSING-SUBSTRATE	RNase III mRNA processing substrate	c
CPD-16606	UDP-2-acetamido-4-amino-2,4,6-trideoxy-&alpha;-D-galactose	cp
PROT-CYS	a [protein]-L-cysteine	c
CPD-3745	isethionate	c
RNASE-III-PROCESSING-PRODUCT-MRNA	RNase III processing product mRNA	p
DADP	dADP	cp
CARBAMOYL-P	carbamoyl phosphate	cp
CPD-10751	UDP-4-amino-4,6-dideoxy-N-acetyl-&beta;-L-altrosamine	cp
CPDQT-39	3-[(6'-methylthio)hexyl]malate	cp
tRNA-with-7-aminomethyl-7-deazaguanine	a 7-aminomethyl-7-deazaguanosine34 in tRNA	cp
Deoxystreptamine-Antib	a 2-deoxystreptamine antibiotic	c
CIS-2-CHLORO-4-CARBOXYMETHYLENEBUT-2-EN-	2-chloro-cis-dienelactone	c
CPD-12120	demethylmenaquinol-11	c
RNASE-R-DEGRADATION-SUBSTRATE-RNA	RNase R degradation substrate RNA	c
P-HYDROXY-PHENYLPYRUVATE	4-hydroxyphenylpyruvate	cp
CPDQT-40	3-[(7'-methylthio)heptyl]malate	cp
tRNAs	an uncharged tRNA	p
CPD-10752	UDP-2,4-diacetamido-2,4,6-trideoxy-&beta;-L-altropyranose	cp
tRNAs-containing-epoxy-quenosine	an epoxyqueuosine34 in tRNA	cp
CPD-12121	demethylmenaquinol-12	c
B-ALANINE	&beta;-alanine	cp
CIS-ACONITATE	cis-aconitate	cp
tRNAs-with-CCA	a tRNA containing a 3' CCA end	p
CPDQT-41	10-(methylthio)-2-oxodecanoate	p
Ubiquinols	an ubiquinol	cp
Diacylglycerol-Prolipoproteins	an [apolipoprotein]-(S-diacylglyceryl)-L-cysteine	p
SHIKIMATE	shikimate	cp
CPD-10753	2,4-diacetamido-2,4,6-trideoxy-&beta;-L-altropyranose	cp
3-HYDROXYADIPYL-COA	(3S)-hydroxyadipyl-CoA	cp
Dihydro-Lipoyl-Proteins	a [lipoyl-carrier protein] N6-dihydrolipoyl-L-lysine	c
CPD-12122	demethylmenaquinol-13	c
SHIKIMATE-5P	shikimate 3-phosphate	cp
CPDQT-520	phosphatidylglycerophosphate (1-octadecenoyl(9Z), 2-palmitoyl)	c
tRNAs-with-queuine	a queuosine34 in tRNA	p
Ubiquinones	a ubiquinone	cp
DNA-N	DNAn	cp
THF-GLU-N	a tetrahydrofolate	cp
CPD-10754	pseudaminate	p
B-KETOACYL-ACP	a 3-oxoacyl-[acp]	c
Unfolded-Proteins	an unfolded protein	cp
CREATINE	creatine	cp
CIS-D2-ENOYL-COA	a cis-2-enoyl-CoA	cp
CPD-12124	menaquinol-6	p
BCAA-dehydrogenase-2MB-DH-lipoyl	an [apo BCAA dehydrogenase E2 protein] N6-S-[2-methylbutanoyl]dihydrolipoyl-L-lysine	cp
BCAA-dehydrogenase-2MP-DH-lipoyl	an [apo BCAA dehydrogenase E2 protein] N6-S-[2-methylpropanoyl]dihydrolipoyl-L-lysine	cp
Unspecified-Degradation-Products	[unspecified degradation products]	p
Unsulfurated-Sulfur-Acceptors	an unsulfurated [sulfur carrier]	cp
BCAA-dehydrogenase-3MB-DH-lipoyl	a [apo BCAA dehydrogenase E2 protein] N6-S-[3-methylbutanoyl]dihydrolipoyl-L-lysine	p
Unwound-DNA	an unwound double-stranded DNA	p
BCAA-dehydrogenase-DH-lipoyl	an [apo BCAA dehydrogenase E2 protein] N6-dihydrolipoyl-L-lysine	cp
Dipeptides-With-Asp-At-N-Terminal	a dipetide with an N-terminal L-aspartate	c
CPD-12125	menaquinol-7	p
Unwound-RNA	an unwound RNA	p
CIT	citrate	cp
BCAA-dehydrogenase-lipoyl	an [apo BCAA dehydrogenase E2 protein] N6-lipoyl-L-lysine	cp
Dipeptides-With-Proline-Carboxy	a dipeptide with proline at the C-terminal	c
Uracil-54-in-tRNA	a uracil54 in tRNA	c
GLUTATHIONYLSPERMIDINE	glutathionylspermidine	p
Diribonucleotide	a diribonucleotide	p
BCCP-L-lysine	a [biotin carboxyl-carrier protein]-L-lysine	c
CREATININE	creatinine	cp
CPD-12126	menaquinol-9	p
QUINOLINATE	quinolinate	cp
BCCP-biotin-L-lysine	a [biotin carboxyl-carrier protein]-biotin-N6-L-lysine	p
GMP	GMP	cp
CITRATE-LYASE	an acetyl-holo [citrate lyase acyl-carrier protein]	cp
BENZOATE	benzoate	p
CPD-12127	menaquinol-10	p
Dodec-2-enoyl-ACPs	a (2E)-dodec-2-enoyl-[acp]	c
P-RIBOSYL-4-SUCCCARB-AMINOIMIDAZOLE	5'-phosphoribosyl-4-(N-succinocarboxamide)-5-aminoimidazole	cp
Peptides-holder	a peptide	p
CPD-19172	(2E,9Z)-octadecenoyl-CoA	cp
L-CYSTEATE	L-cysteate	cp
Peptides-with-Leader-Sequence	a peptide with a leader sequence	c
NITRITE	nitrite	cp
Peptidoglycan-with-L-lysine-pentapeptide	a peptidoglycan with (L-alanyl-&gamma;-D-glutamyl-L-lysyl-D-alanyl-D-alanine) pentapeptide	cp
HYDROXYMETHYLBILANE	preuroporphyrinogen	cp
L-Cysteine-Desulfurase-persulfide	an [L-cysteine desulfurase]-S-sulfanyl-L-cysteine	cp
CPD-13578	aminomethylpyrimidine	c
Peptidoglycans	a peptidoglycan	cp
CPD-19217	S-(hydroxysulfenamide)-glutathione	p
DNA-Segment-Placeholder	a DNA segment	cp
Persulfurated-L-cysteine-desulfurases	an S-sulfanyl-[L-cysteine desulfurase]	p
DNA-Segment-in-Reverse-Orientations	a DNA segment in reverse orientation	cp
CPD-13644	N5-acetyl-L-ornithine	p
L-Cysteine-Desulfurases	an [L-cysteine desulfurase]	c
L-DELTA1-PYRROLINE_5-CARBOXYLATE	(S)-1-pyrroline-5-carboxylate	cp
DNA-With-GO-A-Mismatch	DNA with adenine:7,8-dihydro-8-oxoguanine mismatch	c
CPD-19487	3-isopropyl-10-(methylthio)-2-oxodecanoate	cp
Phenolic-Donors	a phenolic donor	c
L-GAMMA-GLUTAMYLCYSTEINE	&gamma;-L-glutamyl-L-cysteine	cp
CPD-19488	3-isopropyl-9-(methylthio)-2-oxononanoate	cp
Phenols	a phenol	p
CPD-13689	(25S)-3-oxocholest-4-en-26-oate	c
Phenoxyl-rad-of-phenolic-donors	a phenoxyl radical of a phenolic donor	p
Phenyl-Acetates	a phenyl acetate	c
CPD-19489	3-isopropyl-8-(methylthio)-2-oxooctanoate	cp
Large-branched-glucans	a large-branched glucan	c
DAMP	dAMP	cp
Leader-Sequences	a leader sequence	p
CPD-19490	3-isopropyl-7-(methylthio)-2-oxoheptanoate	cp
CPD-13691	(25S)-3-oxocholest-4-en-26-oyl-CoA	p
CPD-19491	3-isopropyl-6-(methylthio)-2-oxohexanoate	cp
CPD-19492	3-ethyl-2-oxosuccinate	cp
Linear-Malto-Oligosaccharides	a linear malto-oligosaccharide	cp
CPD-13711	3-[(3aS,4S,7aS)-7a-methyl-1,5-dioxo-octahydro-1H-inden-4-yl]propanoate	c
SINAPATE	sinapate	c
CPD-195	octanoate	c
Lipid-dihydrosterculate	a [glycerolipid]-dihydrosterculate	p
HYPOXANTHINE	hypoxanthine	cp
CPD0-1096	glucosamine 1,6-diphosphate	cp
SINAPOYL-COA	sinapoyl-CoA	p
DNA-containing-a-Apyrimidinic-Sites	an apyrimidinic site in DNA	p
CPD-16953	2-amino-6-[1-hydroxyethyl]-7-methyl-7,8-dihydropterin	c
ALA-tRNAs	a tRNAAla	c
CPD-3762	5-amino-4-imidazolecarboxyamide	c
ACETYLSERINE	O-acetyl-L-serine	cp
CPD-16954	[1-(2-amino-7-methyl-4-oxo-7,8-dihydro-3H-pteridin-6-yl)]ethyl diphosphate	p
CPD0-1108	&beta;-D-ribofuranose	cp
4-HYDROXY-L-PROLINE	trans-4-hydroxy-L-proline	p
2-KETO-ISOVALERATE	3-methyl-2-oxobutanoate	cp
TREHALOSE-6P	&alpha;,&alpha;-trehalose 6-phosphate	c
CPD-17063	ferroheme o	cp
DEAMIDO-NAD	nicotinate adenine dinucleotide	cp
2-KETOGLUTARATE	2-oxoglutarate	cp
HISTIDINAL	histidinal	cp
CPD-678	hydrogen selenide	c
CPD0-1110	&beta;-D-ribopyranose	cp
DEHYDROQUINATE	3-dehydroquinate	cp
CPD-173	salicyl alcohol	p
DNA-containing-aPurinic-Sites	an apurinic site within DNA	p
CARBAMYUL-L-ASPARTATE	N-carbamoyl-L-aspartate	cp
UDP-N-ACETYL-D-GLUCOSAMINE	UDP-N-acetyl-&alpha;-D-glucosamine	cp
FORMAMIDE	formamide	cp
CPD-3766	menadione	c
2-METHYL-3-HYDROXY-BUTYRYL-COA	(2S,3S)-3-hydroxy-2-methylbutanoyl-CoA	cp
CPD-17370	18-hydroxyoleoyl-CoA	cp
ARG	L-arginine	cp
CPD0-1133	maltoheptaose	c
DNA-containing-abasic-Sites	a DNA containing an apurinic/apyrimidinic site	cp
CPD-17372	1-[18-hydroxyoleyl]-2-lyso-phosphatidate	p
ISOVALERATE	isovalerate	c
UDP-N-ACETYLMURAMATE	UDP-N-acetyl-&alpha;-D-muramate	cp
DELTA1-PIPERIDEINE-2-6-DICARBOXYLATE	(S)-2,3,4,5-tetrahydrodipicolinate	cp
CPD-17386	(2E,6Z,9Z,12Z,15Z,18Z,21Z)-tetracosaheptaenoyl-CoA	c
2-METHYL-ACETO-ACETYL-COA	2-methylacetoacetyl-CoA	cp
CPD0-1147	methyl red	c
TRIPEPTIDES	a tripeptide	c
FORMATE	formate	cp
CARBON-DIOXIDE	CO2	cp
CPD-380	3-sulfopyruvate	cp
CPD-17387	(3S)-hydroxy-(6Z,9Z,12Z,15Z,18Z,21Z)-tetracosahexaenoyl-CoA	p
CPD0-1148	N,N'-dimethyl-p-phenylenediamine	p
CPD-69	cyanate	c
DELTA3-ISOPENTENYL-PP	isopentenyl diphosphate	cp
CPD-6972	4-(2'-carboxyphenyl)-4-oxobutyryl-CoA	cp
ARG-tRNAs	a tRNAArg	c
4-IMIDAZOLONE-5-PROPIONATE	4-imidazolone-5-propanoate	cp
CPD-6989	hispidin	c
CPD-397	S-methyl-L-methionine	c
SIROHYDROCHLORIN	sirohydrochlorin	p
4-MALEYL-ACETOACETATE	4-maleyl-acetoacetate	p
Dodecanoyl-ACPs	a dodecanoyl-[acp]	p
Donor-H2	a reduced electron acceptor	cp
Double-Stranded-DNAs	a double stranded DNA	cp
Double-helix-DNA	a double-helix DNA	c
23S-rRNA-2-methyladenine2503	a 2-methyladenine2503 in 23S rRNA	p
PROTEIN-L-CITRULLINE	a [protein]-L-citrulline	p
SN-GLYCEROL-1-PHOSPHATE	sn-glycerol 1-phosphate	p
PROTEIN-LIPOYLLYSINE	a [glycine-cleavage complex H protein] N6-lipoyl-L-lysine	cp
EG10823-MONOMER	Unknown	c
3-Hydroxy-Terminated-DNAs	a [DNA]-3'-hydroxyl	c
23S-rRNA-adenine-2503	adenine2503 in 23S rRNA	c
HISTIDINOL	histidinol	cp
23S-rRNA-pseudouridine746	a pseudouridine746 in 23S rRNA	p
3-Hydroxy-octanoyl-ACPs	a (3R)-3-hydroxyoctanoyl-[acp]	p
23S-rRNA-uridine746	uridine746 in 23S rRNA	c
3-Hydroxyglutaryl-ACP-methyl-ester	a (3R)-3-hydroxyglutaryl-[acp] methyl ester	p
SO3	sulfite	cp
PROTOHEME	ferroheme b	cp
DATP	dATP	p
CPD-13713	adenosine 5'-phosphoselenate	p
N-ACETYL-D-GLUCOSAMINE-1-P	N-acetyl-&alpha;-D-glucosamine 1-phosphate	p
Phosphoglucomutase	a phosphoglucomutase	cp
VAL	L-valine	cp
CPD-13734	ferroheme a	p
VAL-tRNAs	a tRNAVal	c
Phosphoglucosamine-Mutase	a phosphoglucosamine mutase	cp
N-ACETYL-D-GLUCOSAMINE-6-P	N-acetyl-D-glucosamine 6-phosphate	cp
DNA-with-Uracils	a uracil in DNA	c
Phospholipid-Cyclopropane-Fatty-Acids	a [phospholipid] cyclopropane fatty acid	p
GLC-1-P	&alpha;-D-glucopyranose 1-phosphate	cp
CPD-13754	3-[(3aS,4S,7aS)-7a-methyl-1,5-dioxo-octahydro-1H-inden-4-yl]propanoyl-CoA	p
Phospholipid-Olefinic-Fatty-Acids	a [phospholipid] olefinic fatty acid	c
DCDP	dCDP	cp
GLC-6-P	&beta;-D-glucose 6-phosphate	p
N-ACETYL-GLUTAMYL-P	N-acetylglutamyl-phosphate	cp
DIGLUCO-DOCOSANOATE	sophorosyloxydocosanoate	p
QXC-ACP	a quinoxaline-2-carboxyl-[acyl-carrier protein]	p
Phosphorylated-Phosphoglucosamine-Mutase	a phosphorylated phosphoglucosamine mutase	cp
CPD-13847	UDP-2-acetamido-2,6-dideoxy-&alpha;-D-xylo-hex-4-ulose	cp
METHIONYL-PEPTIDE	an N-terminal L-methionyl-[protein]	p
Phosphorylated-phosphoglucomutase	a phosphorylated phosphoglucomutase	cp
DIGLUCOACETYL-DOCOSANOATE	13-[O(2')-&beta;-D-glucopyranosyl-&beta;-D-glucopyranosyloxy]docosanoate O(6'')-acetate	cp
N-ACETYL-L-2-AMINO-6-OXO-PIMELATE	L-2-acetamido-6-oxoheptanedioate	p
SPERMIDINE	spermidine	cp
DCMP	dCMP	cp
Pi	phosphate	cp
Quinones	a quinone	c
DIGLUCODIACETYL-DOCOSANOATE	13-sophorosyloxydocosanoate 6',6''-diacetate	c
GLC-D-LACTONE	D-glucono-1,5-lactone	cp
Pimeloyl-ACPs	a pimeloyl-[acp]	c
R-2-Haloacids	an (R)-2-haloacid	c
DCTP	dCTP	p
Negatively-super-coiled-DNAs	a negatively supercoiled DNA	cp
METHYL-GLYOXAL	methylglyoxal	cp
VERY-LONG-CHAIN-FATTY-ACYL-COA	a very long chain fatty acyl-CoA	p
ACP	a holo-[acyl-carrier protein]	cp
R-2-Hydroxyacids	an (R)-2-hydroxyacid	p
DODECANOATE	laurate	c
ACRYLAMIDE	acrylamide	c
R-3-Hydroxypalmitoyl-ACPs	a (3R)-3-hydroxypalmitoyl-[acp]	p
L-GLUTAMATE-5-P	&gamma;-L-glutamyl 5-phosphate	cp
ISOVALERYL-COA	isovaleryl-CoA	cp
CPD-12128	menaquinol-11	p
THIAMINE	thiamine	c
Lipoprotein-signal-peptide	a lipoprotein signal peptide	p
THIAMINE-P	thiamine phosphate	p
THIAMINE-PYROPHOSPHATE	thiamine diphosphate	cp
CARBON-MONOXIDE	carbon monoxide	p
DPG	3-phospho-D-glyceroyl-phosphate	cp
Lipoyl-Protein-L-Lysine	a [lipoyl-carrier protein]-L-lysine	c
BETAINE	glycine betaine	cp
Lipoyl-Protein-N6-lipoyllysine	a [lipoyl-carrier protein]-N6-lipoyl-L-lysine	p
CPD-1078	CDP-4-dehydro-3,6-dideoxy-D-glucose	p
CPD-12129	menaquinol-12	p
CTP	CTP	cp
CPD-10780	VAI-1	c
P3I	PPPi	p
BILIVERDINE	biliverdin-IX-&alpha;	p
CPD-10781	HAI-1	c
Halide-Anions	a halide anion	p
L-GLUTAMATE_GAMMA-SEMIALDEHYDE	L-glutamate-5-semialdehyde	cp
CPD-12130	menaquinol-13	p
FORMYL-L-METHIONYL-PEPTIDE	a [protein] N-terminal-formyl-L-methionine	c
ITP	ITP	cp
Long-Chain-Acyl-CoAs	a long-chain acyl-CoA	p
FORMYL-THF-GLU-N	an N10-formyl-tetrahydrofolate	cp
CPD-12173	(S)-3-hydroxy-isobutanoyl-CoA	cp
BIO-5-AMP	biotinyl-5'-adenylate	p
CPD-10782	AAI-1	c
SPERMINE	spermine	c
CPD-12175	(S)-3-hydroxy-isobutanoate	cp
Long-Chain-Fatty-Acids	a long-chain fatty acid	c
Long-Chain-Polyphosphate	long chain polyphosphate	cp
CPD-10783	PAI-1	c
Initiation-tRNAmet	initiator tRNAMet	c
Hepta-oxo-hexadecanoyl-ACPs	a 3,5,7,9,11,13,15-hepta-oxo-hexadecanoyl-[PKS-acp]	c
FRU1P	&beta;-D-fructofuranose 1-phosphate	c
BIOTIN	biotin	cp
Hex-2-enoyl-ACPs	a trans hex-2-enoyl-[acp]	c
Hexanoyl-ACPs	a hexanoyl-[acyl-carrier-protein]	p
Nitroaromatic-Ox-Compounds	an oxidized nitroaromatic compound	c
ATP	ATP	cp
PHOSPHO-ENOL-PYRUVATE	phosphoenolpyruvate	cp
L-HISTIDINOL-P	L-histidinol phosphate	cp
DEOXY-D-RIBOSE-1-PHOSPHATE	2-deoxy-&alpha;-D-ribose 1-phosphate	cp
Nitroaromatic-Red-Compounds	a reduced nitroaromatic compound	p
CARBOXYPHENYLAMINO-DEOXYRIBULOSE-P	1-(o-carboxyphenylamino)-1'-deoxyribulose 5'-phosphate	cp
ACRYLATE	acrylate	p
L-LACTATE	(S)-lactate	cp
DEOXY-RIBOSE-5P	2-deoxy-D-ribose 5-phosphate	cp
DTDP-D-GLUCOSE	dTDP-&alpha;-D-glucose	cp
DEOXYADENOSINE	2'-deoxyadenosine	cp
SQUALENE	squalene	c
Very-long-chain-fatty-acids	a very-long-chain fatty acid	c
4-PHOSPHONOOXY-THREONINE	4-phosphooxy-L-threonine	cp
PALMITATE	palmitate	cp
WATER	H2O	cp
CMP	CMP	cp
PROTON	H+	cp
DTDP-DEOH-DEOXY-GLUCOSE	dTDP-4-dehydro-6-deoxy-&alpha;-D-glucopyranose	cp
PALMITYL-COA	palmitoyl-CoA	p
2-METHYL-BUTYRYL-COA	2-methylbutanoyl-CoA	cp
ENTEROBACTIN	enterobactin	c
2C-METH-D-ERYTHRITOL-CYCLODIPHOSPHATE	2-C-methyl-D-erythritol-2,4-cyclodiphosphate	cp
CPD-14018	icosapentaenoyl-CoA	p
DTDP-DEOH-DEOXY-MANNOSE	dTDP-4-dehydro-&beta;-L-rhamnose	p
CPD-196	octanoyl-CoA	p
SS-Oligoribonucleotides	a single-stranded oligoribonucleotide	p
7-8-DIHYDROPTEROATE	7,8-dihydropteroate	c
CPD-14053	(6R)-L-erythro-5,6,7,8-tetrahydrobiopterin	c
STEARIC_ACID	stearate	c
Nonmethylated-Ribosomal-Protein-L11s	a non-methylated ribosomal protein L11	c
Histone-Acetyl-Lysine	a [histone]-N6-acetyl-L-lysine	c
CPD0-1162	(2E,5Z)-tetradecenoyl-CoA	cp
3-KETO-ADIPATE	3-oxoadipate	p
Histone-L-lysine	a [histone]-L-lysine	cp
CO-A	coenzyme A	cp
CPD-4211	dimethylallyl diphosphate	cp
CPD-7043	amylopectin	p
CPD-7066	(2R,3S)-3-methylmalate	p
2-METHYLMALEATE	citraconate	cp
CPD-14202	L-erythro-7,8-dihydrobiopterin	p
2K-4CH3-PENTANOATE	4-methyl-2-oxopentanoate	cp
CPD0-1163	(S)-3-hydroxy-(5Z)-tetradecenoyl-CoA	p
CYS	L-cysteine	cp
CPD-7076	2-methylbutanoate	c
CPD-444	S-(methyl-5-thio-&alpha;-D-ribose 1-phosphate	cp
CPD-19695	UDP-4-amino-D-fucose	cp
2K-ADIPATE	2-oxoadipate	c
Hpr-Histidine	an [HPr]-L-histidine	c
N-ALPHA-ACETYLORNITHINE	N-acetyl-L-ornithine	cp
Hpr-pi-phospho-L-histidines	an [HPr protein]-N&pi;-phospho-L-histidine	p
CPD-7100	(2S)-2-isopropyl-3-oxosuccinate	cp
CPD-14268	(15Z)-tetracosenoate	c
METHYLAMINE	methylamine	p
CPD0-1182	peptidoglycan tetrapeptide, glycan chain 1	c
2-Me-Branched-234-Sat-FA	a 2-methyl branched 2,3,4-saturated fatty acid	c
CPD0-1183	peptidoglycan tetrapeptide, glycan chain 2	c
2-Me-Branched-234-Sat-Fatty-Acyl-CoA	a 2-methyl branched 2,3,4-saturated fatty acyl-CoA	p
Nucleoside-Diphosphates	a nucleoside diphosphate	cp
CPD0-1185	peptidoglycan DAP-DAP crosslink	p
7-AMINOMETHYL-7-DEAZAGUANINE	preQ1	cp
CPD0-1189	4-amino-4-deoxy-&alpha;-L-arabinopyranosyl ditrans,octacis-undecaprenyl phosphate	c
N-Acetoxy-Arylamines	an N-acetoxyarylamine	p
STEAROYL-COA	stearoyl-CoA	p
CPD-452	a 6-(N-acetyl-&alpha;-D-glucosaminyl)-1-phosphatidyl-1D-myo-inositol	c
CPD-19719	verdoheme	cp
CPD-14269	(Z)-15-tetracosenoyl-CoA	p
METHYLENE-THF-GLU-N	a 5,10-methylene-tetrahydrofolate	cp
CPD-19720	&alpha;-hydroxyheme	cp
Nucleoside-Monophosphates	a nucleoside 5'-monophosphate	p
CPD-7224	N-acetyl-L-citrulline	c
7-CYANO-7-DEAZAGUANINE	preQ0	cp
2-NUCLEOTIDYLGENTAMICIN	a 2-nucleotidylgentamicin	cp
METHYLENETETRAHYDROMETHANOPTERIN	5,10-methylene-tetrahydromethanopterin	c
CPD0-1308	glyphosate	c
CPD-14298	2,6-dioxo-6-phenylhexa-3-enoate	c
CPD-19721	ferric biliverdine-IX-&alpha;	cp
Nucleoside-Triphosphates	a nucleoside triphosphate	cp
CYS-tRNAs	a tRNACys	cp
N-Acylated-Aliphatic-Amino-Acids	an N-acylated aliphatic-L-amino acid	c
CPD-14310	tetraprenyl-&beta;-curcumene	p
2-OCTAPRENYL-6-HYDROXYPHENOL	3-(all-trans-octaprenyl)benzene-1,2-diol	c
CPD0-1456	UDP-N-acetyl-&alpha;-D-muramoyl-L-alanine	cp
CPD-10784	PAI-1-2	c
PHOSPHORIBOSYL-AMP	1-(5-phospho-&beta;-D-ribosyl)-AMP	cp
PANTETHEINE-P	4'-phosphopantetheine	cp
SUC	succinate	cp
3-KETOBUTYRATE	acetoacetate	cp
Acceptor	an oxidized electron acceptor	cp
PHOSPHORIBOSYL-ATP	1-(5-phospho-&beta;-D-ribosyl)-ATP	cp
FRUCTOSE-16-DIPHOSPHATE	&beta;-D-fructose 1,6-bisphosphate	cp
SUC-COA	succinyl-CoA	cp
ERYTHROSE-4P	D-erythrose 4-phosphate	cp
CPD-10785	VAI-1-2	c
3-Ketoglutaryl-ACP-methyl-ester	a 3-oxo-glutaryl-[acp] methyl ester	c
FRUCTOSE-6P	&beta;-D-fructofuranose 6-phosphate	cp
SUCC-S-ALD	succinate semialdehyde	cp
3-Ketopimeloyl-ACP-methyl-esters	a 3-oxo-pimeloyl-[acp] methyl ester	c
TRP	L-tryptophan	cp
ETF-Oxidized	an oxidized electron-transfer flavoprotein	c
TRP-tRNAs	a tRNATrp	c
CPD-10800	N-(3-oxooctanoyl)-L-homoserine	p
Acetate-esters	an acetyl ester	c
PHOSPHORIBOSYL-CARBOXY-AMINOIMIDAZOLE	5-amino-1-(5-phospho-D-ribosyl)imidazole-4-carboxylate	cp
CPD-10801	N-(3-hydroxybutanoyl)-L-homoserine	p
ETF-Reduced	a reduced electron-transfer flavoprotein	p
Acetoacetyl-ACPs	an acetoacetyl-[acp]	c
3-MERCAPTO-PYRUVATE	3-mercaptopyruvate	c
CPD-10802	N-(3-oxododecanoyl)-L-homoserine	p
ETHANAMINE	ethylamine	p
CPD-10803	N-(butyryl)-L-homoserine	p
FRUCTURONATE	D-fructuronate	cp
O-PHOSPHO-L-HOMOSERINE	O-phospho-L-homoserine	cp
3-Methyl-Saturated-Fatty-Acids	a 3-methyl-branched 2,3,4-saturated fatty acid	c
ALGINATE	alginate	c
PHOSPHORIBOSYL-FORMAMIDO-CARBOXAMIDE	5-formamido-1-(5-phospho-D-ribosyl)-imidazole-4-carboxamide	cp
CPD-10804	N-(3-oxohexanoyl)-L-homoserine	p
PHOSPHORIBOSYL-FORMIMINO-AICAR-P	1-(5-phospho-&beta;-D-ribosyl)-5-[(5-phosphoribosylamino)methylideneamino]imidazole-4-carboxamide	cp
3-Methyl-Saturated-Fatty-Acyl-CoA	a 3-methyl-branched 2,3,4-saturated fatty acyl-CoA	p
CPD-10805	N-(octanoyl)-L-homoserine	p
ETHANOL-AMINE	ethanolamine	p
PROTOPORPHYRINOGEN	protoporphyrinogen IX	cp
10-FORMYL-DIHYDROFOLATE-GLU-N	an N10-formyldihydrofolate	p
R-3-hydroxy-cis-vaccenoyl-ACPs	(R)-3-hydroxy-cis-vacc-11-enoyl-[acp]	p
Long-linear-glucans	a long-linear &alpha;-D-glucan	cp
CPD-17621	16-hydroxypalmitoyl-CoA	p
LysW-L-glutamate	a [2-aminoadipate carrier protein]-L-glutamate	c
LysW-L-glutamate-5-phosphate	a [2-aminoadipate carrier protein]-L-glutamate 5-phosphate	cp
CARNITINE	L-carnitine	c
R-3-hydroxyarachidoyl-ACPs	a (3R)-3-hydroxyarachidoyl-[acp]	p
11Z-3-oxo-icos-11-enoyl-ACPs	an (11Z)-3-oxo-icos-11-enoyl-[acp]	c
LysW-L-glutamate-5-semialdehyde	a [2-aminoadipate carrier protein]-L-glutamate 5-semialdehyde	cp
R-3-hydroxybehenoyl-ACPs	a (3R)-3-hydroxybehenoyl-[acp]	p
CPD-17624	&omega;-carboxy-(9Z)-octadec-9-enoyl-CoA	p
R-3-hydroxycerotoyl-ACPs	a (3R)-3-hydroxycerotoyl-[acp]	p
R-3-hydroxydodecanoyl-ACPs	a (3R)-3-hydroxydodecanoyl-[acp]	p
Acetylated-S18-N-terminal-L-alanine	an N-terminal N-acetyl-L-alanyl-[S18 protein of 30S ribosome]	p
LysW-L-ornithine	a [2-aminoadipate carrier protein]-L-ornithine	cp
ACYL-ACP	an acyl-[acyl-carrier protein]	c
PANTOTHENATE	(R)-pantothenate	p
CPD-17637	7-hydroxylaurate	c
R-3-hydroxyhexanoyl-ACPs	a (3R)-3-hydroxyhexanoyl-[acp]	p
Lysidine-tRNA-Ile2	a lysidine34 in tRNAIle2	p
ACYL-COA	an acyl-CoA	cp
R-3-hydroxylignoceroyl-ACPs	a (3R)-3-hydroxylignoceroyl-[acp]	p
GLN	L-glutamine	cp
R-3-hydroxymyristoyl-ACPs	a (3R)-3-hydroxymyristoyl-[acp]	p
CPD-17638	7-hydroxylauroyl-CoA	p
R-3-hydroxypetroselinoyl-ACPs	a (3R)-3-hydroxypetroselinoyl-[acp]	p
GTP	GTP	cp
HMP	4-amino-2-methyl-5-pyrimidinemethanol	cp
MACROCIN	macrocin	c
ACYL-SN-GLYCEROL-3P	a 1-acyl-sn-glycerol 3-phosphate	p
R-3-hydroxystearoyl-ACPs	a (3R)-3-hydroxystearoyl-[acp]	p
CPD-17640	18-hydroxystearate	c
R-4-PHOSPHOPANTOTHENOYL-L-CYSTEINE	(R)-4'-phosphopantothenoyl-L-cysteine	c
O-SUCCINYL-L-HOMOSERINE	O-succinyl-L-homoserine	cp
GLT	L-glutamate	cp
Actinorhodin-Intermediate-2	9-hydroxy-3,5,7,11,13,15-hexaoxohexadecanoyl-[PKS-acp]	p
CPD-17641	18-hydroxystearoyl-CoA	p
GLT-tRNAs	a tRNAglu	p
16-HYDROXYPALMITATE	16-hydroxypalmitate	c
MAL	(S)-malate	cp
CD-S-SP-Complex	a [cysteine desulfurase]-S-sulfanyl-[disordered-form scaffold protein] complex	c
Acyl-Phosphates	an acyl phosphate	c
CPD-17708	4-deoxy-&alpha;-L-erythro-hex-4-enopyranuronate-&beta;-D-mannuronate	p
PAPS	3'-phosphoadenylyl-sulfate	cp
DIHYDRO-DIOH-BENZOATE	(2S,3S)-2,3-dihydroxy-2,3-dihydrobenzoate	cp
Acyl-homoserine-lactones	an N-acyl-L-homoserine lactone	c
GLY	glycine	cp
CPD-12179	methylmalonate semialdehyde	c
GLY-tRNAs	a tRNAGly	c
N-Acylsphingosine	a sphingosine ceramide	p
CPD-12199	3S-(4-hydroxyphenyl)-3-hydroxy-propanoyl-CoA	p
DEOXYCYTIDINE	2'-deoxycytidine	cp
Acyl-homoserines	an N-acyl-L-homoserine	p
CPD-469	N-acetyl-L-glutamate 5-semialdehyde	cp
Wound-RNA	wound RNA	c
DIHYDRO-NEO-PTERIN	7,8-dihydroneopterin	c
CPD-734	(-)-jasmonate	p
GLYCERALD	D-glyceraldehyde	p
XANTHINE	xanthine	cp
PROTOPORPHYRIN_IX	protoporphyrin IX	cp
N-FORMIMINO-L-GLUTAMATE	N-formimino-L-glutamate	cp
CPD-122	(S)-mandelate	p
O-SUCCINYLBENZOATE	2-succinylbenzoate	cp
CPD-763	arsenite	p
N-FORMYLKYNURENINE	N-formylkynurenine	cp
Isomaltose	isomaltose	c
CPD-479	4-(methylsulfanyl)-2-oxobutanoate	cp
CPD-12259	a peptidoglycan dimer (S. aureus)	p
GLYCERATE	D-glycerate	cp
CPD-7671	methanethiol	cp
Alcohols	an alcohol	p
DIHYDROFOLATE	7,8-dihydrofolate monoglutamate	p
CPD-12279	2-iminoacetate	cp
DIHYDROFOLATE-GLU-N	a 7,8-dihydrofolate	cp
CPD-7695	ditrans,octacis-undecaprenyldiphospho-N-acetyl-(N-acetyl-&beta;-D-glucosaminyl)muramoyl-L-alanyl-&gamma;-D-glutamyl-L-lysyl-D-alanyl-D-alanine	cp
XANTHOSINE	xanthosine	cp
Aldehydes	an aldehyde	cp
XANTHOSINE-5-PHOSPHATE	XMP	cp
DEOXYGUANOSINE	2'-deoxyguanosine	cp
N-Hydroxy-Arylamines	an N-hydroxy-arylamine	c
N-Substituted-Amino-Acids	an N-modified amino acid	p
CPD-12295	ditrans,octacis-undecaprenyldiphospho-N-acetyl-(N-acetylglucosaminyl)muramoyl-L-alanyl-&gamma;-D-isoglutaminyl-N-(&beta;-D-asparaginyl)-L-lysyl-D-alanyl-D-alanine	c
CPD-4841	dipicolinate	p
N-Substituted-Aminoacyl-tRNA	an N-modified aminoacyl-[tRNA]	c
CPD-12297	ditrans,octacis-undecaprenyldiphospho-N-acetyl-(N-acetylglucosaminyl)muramoyl-L-alanyl-&gamma;-D-isoglutaminyl-L-lysyl-(glycyl)5-D-alanyl-D-alanine	c
N-acetyl-D-glucosamine	N-acetyl-D-glucosamine	p
GLYCEROL	glycerol	cp
CPD-12303	undecaprenyl-diphospho-N-acetylmuramoyl-L-alanyl-&gamma;-D-glutamyl-L-lysyl- D-alanine	c
CPD-548	S-formylglutathione	cp
PRPP	5-phospho-&alpha;-D-ribose 1-diphosphate	cp
N-acyl-sphingosylphosphorylcholine	an N-acyl-sphingosylphosphorylcholine	c
GLYCEROL-3P	sn-glycerol 3-phosphate	cp
IDP	IDP	cp
L-Methionylaminoacyl-tRNAs	a L-methionylaminoacyl-tRNA	p
DUDP	dUDP	cp
CPD-19775	ferroheme i	cp
L-ORNITHINE	L-ornithine	cp
O-UREIDOHOMOSERINE	O-ureido-L-homoserine	c
CPD-19776	hydroxyferroheme i	p
7Z-3-oxo-hexadec-7-enoyl-ACPs	a (7Z)-3-oxo-hexadec-7-enoyl-[acp]	c
2-OCTAPRENYL-6-METHOXYPHENOL	2-methoxy-6-(all-trans-octaprenyl)phenol	p
16S-rRNA-N2-methylguanine966	an N2-methylguanine966 in 16S rRNA	p
16S-rRNA-N4-methylcytidine1402	an N4-methylcytidine1402  in 16S rRNA	p
8-AMINO-7-OXONONANOATE	8-amino-7-oxononanoate	cp
METOH	methanol	cp
16S-rRNA-N7-methylguanine527	an N7-methylguanine527 in 16S rRNA	p
16S-rRNA-cytidine1402	a cytidine1402 in 16S rRNA	c
5-10-METHENYL-THF-GLU-N	a 5,10-methenyltetrahydrofolate	cp
CPD0-1699	6-carboxy-5,6,7,8-tetrahydropterin	c
16S-rRNA-guanine-527	a guanine527 in 16S rRNA	c
CPD-20620	3,14'-bihispidinyl	p
16S-rRNA-guanine-966	a guanine966 in 16S rRNA	c
5-AMINO-LEVULINATE	5-aminolevulinate	cp
16S-rRNA-pseudouridine516	a 16S rRNA pseudouridine516	p
ALL-TRANS-HEPTAPRENYL-DIPHOSPHATE	all-trans-heptaprenyl diphosphate	cp
16S-rRNA-uridine516	a uridine516 in 16S rRNA	c
CPD0-181	N5-carboxyaminoimidazole ribonucleotide	c
ILE	L-isoleucine	cp
5-BETA-L-THREO-PENTAPYRANOSYL-4-ULOSE-	UDP-&beta;-L-threo-pentapyranos-4-ulose	cp
ILE-tRNAs	a tRNAIle	c
CPD-209	UDP-N-acetyl-&alpha;-D-muramoyl-L-alanyl-&gamma;-D-glutamyl-L-lysine	c
18-HYDROXYOLEATE	18-hydroxyoleate	c
CPD0-1905	8-oxo-dGTP	c
L-PANTOATE	(R)-pantoate	cp
2-OXOBUTANOATE	2-oxobutanoate	cp
9S-RRNA	a 9S rRNA	c
DUMP	dUMP	cp
CPD0-1958	3-(N-morpholino)propanesulfonate	c
9Z-3-oxo-octadec-9-enoyl-ACPs	a (9Z)-3-oxo-octadec-9-enoyl-[acp]	c
A-5-prime-PP-5-prime-DNA	an adenosine-5'-diphospho-5'-[DNA]	cp
OCTADEC-9-ENE-118-DIOIC-ACID	&alpha;,&omega;-9Z-octadecenedioate	c
A-DOUBLE-STRANDED-DNA-WITH-A-3-OVERHANG	a double stranded DNA with a RecA protein loaded 3' overhang	p
CPD-2183	1-oleoyl-2-palmitoyl-phosphatidylglycerol	p
ALLO-THR	DL-allothreonine	c
ACET	acetate	cp
OCTAPRENYL-DIPHOSPHATE	all-trans-octaprenyl diphosphate	c
BUTANAL	butan-1-al	cp
CPD0-2015	N-acetyl-L-methionine	p
ALLYSINE	(S)-2-amino-6-oxohexanoate	p
CPD-10825	4-methyl-3-oxoadipate-enol-lactone	c
L-PHOSPHATIDATE	a 1,2-diacyl-sn-glycerol 3-phosphate	c
CPD-10826	4-methyl-3-oxoadipate	p
CPD-14443	(2S,4S)-4-hydroxy-2,3,4,5-tetrahydrodipicolinate	cp
L-PHOSPHINOTHRICIN	L-phosphinothricin	c
PHOSPHORIBULOSYL-FORMIMINO-AICAR-P	phosphoribulosylformimino-AICAR-phosphate	cp
CPD-1083	(E)-2-methylcrotonoyl-CoA	cp
FUCULOSE-1P	L-fuculose 1-phosphate	cp
CPD-1086	5-amino-6-(5-phospho-D-ribitylamino)uracil	p
ARSENATE	arsenate	c
L-SELENOCYSTEINE	L-selenocysteine	p
CPD-14553	UDP-&alpha;-D-galactose	cp
PHOSPHORYL-CHOLINE	phosphocholine	p
GUANINE	guanine	cp
DIHYDROLIPOYL-GCVH	a [glycine-cleavage complex H protein] N6-dihydrolipoyl-L-lysine	cp
DIHYDRONEOPTERIN-P3	7,8-dihydroneopterin 3'-triphosphate	cp
THMPT	tetrahydromethanopterin	p
CPD-14675	pristanoyl-CoA	p
FUM	fumarate	cp
CPD-110	salicylate	p
CPD-1106	(2-aminoethyl)phosphonate	cp
L-glutamyl-tRNAGln	an L-glutamyl-[tRNAGln]	c
L-methionyl-L-alanyl-Protein	an N-terminal-L-methionyl-L-alanyl-[protein]	c
CPD-14736	L-kynurenine	cp
GUANOSINE	guanosine	cp
THR	L-threonine	cp
THR-tRNAs	a tRNAThr	c
L-methionyl-L-cysteinyl-Protein	an N-terminal-L-methionyl-L-cysteinyl-[protein]	c
GUANOSINE-5DP-3DP	ppGpp	p
L-methionyl-L-seryl-Protein	an N-terminal-L-methionyl-L-seryl-[protein]	c
L-methionyl-L-threonyl-Protein	an N-terminal-L-methionyl-L-threonyl-[protein]	c
L-methionyl-L-valyl-Protein	an N-terminal-L-methionyl-L-valyl-[protein]	c
CPD-1113	6-(&alpha;-D-glucosaminyl)-1-phosphatidyl-1D-myo-inositol	p
L-methionyl-glycyl-Protein	an N-terminal-L-methionyl-glycyl-[protein]	c
OCTAPRENYL-METHYL-OH-METHOXY-BENZQ	3-demethylubiquinol-8	c
L-methionyl-tRNAfmet	an L-methionyl-[initiator tRNAMet]	cp
CPD-14772	hexadecanedioyl-CoA	cp
CPD-1771	N-acetyl-L,L-2,6-diaminopimelate	c
CDP	CDP	cp
IMIDAZOLE-ACETOL-P	imidazole acetol-phosphate	cp
KDO-8P	3-deoxy-D-manno-octulosonate 8-phosphate	p
CPD-17813	(2E,11Z)-hexadec-2,11-dienoyl-CoA	c
CDP-2-3-4-Saturated-Diacylglycerols	a CDP-2,3,4-saturated-diacylglycerol	p
CDP-ABEQUOSE	CDP-&alpha;-D-abequose	c
2-Octenoyl-ACPs	a trans oct-2-enoyl-[acp]	c
ALPHA-GLUCOSE	&alpha;-D-glucopyranose	p
CPD-17814	(11Z)-(S)-3-hydroxyhexadec-11-enoyl-CoA	p
ALPHA-GLUCOSE-16-BISPHOSPHATE	&alpha;-glucose 1,6-bisphosphate	cp
SULFATE	sulfate	cp
CPD-17926	a nascent peptidoglycan with (L-alanyl-&gamma;-D-glutamyl-meso-2,6-diaminopimeloyl-D-alanine) tetrapeptide	c
CPD-17927	a nascent peptidoglycan with (L-alanyl-&gamma;-D-glutamyl-meso-2,6-diaminopimeloyl-D-alanyl-D-alanine) pentapeptide	cp
CPD-17931	a peptidoglycan with (L-alanyl-&gamma;-D-glutamyl-meso-2,6-diaminopimeloyl-D-alanine) tetrapeptide	c
HOMO-CYS	L-homocysteine	cp
CPD-17947	a nascent peptidoglycan with L,D cross links (meso-diaminopimelate containing)	p
CPD-18	linoleoyl-CoA	p
2-Oxo-carboxylates	a 2-oxo carboxylate	cp
CDP-D-GLUCOSE	CDP-&alpha;-D-glucose	cp
CONIFERYL-ALCOHOL	coniferyl alcohol	c
HOMO-SER	L-homoserine	cp
COPROPORPHYRINOGEN_I	coproporphyrinogen I	p
COPROPORPHYRINOGEN_III	coproporphyrinogen III	cp
CPD-18118	D-arabinofuranose 5-phosphate	c
2-PG	2-phospho-D-glycerate	cp
OH-ACYL-ACP	a (3R)-3-hydroxyacyl-[acyl-carrier protein]	cp
KDO2-LIPID-A	&alpha;-D-Kdo-(2&rarr;4)-&alpha;-D-Kdo-(2&rarr;6)-lipid A	c
2-PHOSPHO-4-CYTIDINE-5-DIPHOSPHO-2-C-MET	2-phospho-4-(cytidine 5'-diphospho)-2-C-methyl-D-erythritol	cp
OH-HEXANOYL-COA	(S)-3-hydroxyhexanoyl-CoA	c
IMINOASPARTATE	2-iminosuccinate	cp
CPD-18346	cis-vaccenoyl-CoA	cp
REDUCED-MENAQUINONE	menaquinol-8	p
CPD-18348	1-cis-vaccenoylglycerol-3-phosphate	p
ACETALD	acetaldehyde	cp
CPD-7737	(2-carboxy-2,5-dihydro-5-oxofuran-2-yl)-acetate	c
3-4-DIHYDROXYBENZOATE	protocatechuate	p
Pre-tRNA-3-prime-half-molecules	a 3'-half-tRNA molecule with a 5'-OH end	cp
Pre-tRNA-5-prime-half-molecules	a 5'-half-tRNA molecule with a 2',3'-cyclic phosphate end	cp
CPD0-2030	glycerophosphoserine	c
CPD-551	phosphonoacetaldehyde	cp
Primary-Alcohols	a primary alcohol	cp
CPD-8122	molybdopterin adenine dinucleotide	c
OH-PYR	hydroxypyruvate	cp
CPD-12304	ditrans,octacis-undecaprenyldiphospho-N-acetyl-(N-acetylglucosaminyl)muramoyl-L-alanyl-&gamma;-D-glutamyl-L-lysyl-D-alanine	p
ADENINE	adenine	cp
BUTANOL	butan-1-ol	cp
ACETAMIDE	acetamide	c
CPD-8123	MoO2-molybdopterin cofactor	cp
Prolipoprotein-Cysteines	a [prolipoprotein]-L-cysteine	c
CPD-12307	ditrans,octacis-undecaprenyldiphospho-N-acetyl-(N-acetylglucosaminyl)muramoyl-L-alanyl-&gamma;-D-isoglutaminyl-N-(&beta;-D-asparaginyl)-L-lysyl-D-alanine	c
MALONATE-S-ALD	3-oxopropanoate	cp
CPD0-2113	1-stearoyl-sn-glycerol 3-phosphate	p
CPD-554	2-ketocyclohexane-1-carbonyl-CoA	c
CDPDIACYLGLYCEROL	a CDP-diacylglycerol	cp
CPD-8180	DNA with lesion	c
DEOXYINOSINE	2'-deoxyinosine	cp
3-5-ADP	adenosine 3',5'-bisphosphate	cp
CPD-8259	&beta;-D-ribosylnicotinate	p
CPD-12308	a peptidoglycan dimer (tetrapeptide)	p
CPD0-2117	trans-hexadec-2-enoyl-CoA	c
CPD-12310	a peptidoglycan dimer (E. faeciums)	p
CPD-558	pimeloyl-CoA	cp
CYTIDINE	cytidine	cp
Protein-Disulfides	a protein disulfide	p
CPD-12365	8-oxo-dGMP	p
BUTYRIC_ACID	butanoate	cp
CPD0-2121	trans-hex-2-enoyl-CoA	p
BUTYRYL-COA	butanoyl-CoA	cp
CPD-85	1,2-dihydroxy-5-(methylsulfanyl)pent-1-en-3-one	p
CPD-8534	DNA without lesion	p
CPD-560	S-methyl-5-thio-D-ribose	cp
Protein-Histidines	a [protein]-L-histidine	c
CPD-8579	a [histone] N6-methyl-L-lysine	p
DEOXYURIDINE	2'-deoxyuridine	cp
Protein-L-Arginines	a [protein]-L-arginine	c
CPD-8624	a [protein]-L-proline (&omega; = 180)	cp
ADENOSINE	adenosine	cp
CPD0-2171	(S)-3-hydroxytetradecanoyl-CoA	p
ADENOSINE_DIPHOSPHATE_RIBOSE	ADP-D-ribose	c
TTP	dTTP	cp
CPD-237	(indol-3-yl)acetamide	c
THREO-DS-ISO-CITRATE	D-threo-isocitrate	cp
MALONYL-ACP	a malonyl-[acp]	cp
N-formyl-L-methionyl-tRNAfmet	an N-formyl-L-methionyl-[initiator tRNAmet]	p
MALONYL-COA	malonyl-CoA	cp
DIHYDROPTERIN-CH2OH-PP	(7,8-dihydropterin-6-yl)methyl diphosphate	p
N-terminal-L-Serine	an N-terminal L-seryl-[protein]	p
2-3-4-Saturated-L-Phosphatidates	a 1,2-diacyl-sn-glycerol 3-phosphate	c
N-terminal-L-alanine	an N-terminal L-alanyl-[protein]	p
GLUCONATE	D-gluconate	c
2-3-DIHYDRODIPICOLINATE	(S)-2,3-dihydrodipicolinate	c
3-OXO-EICOSAPENTAENOYL-ACP	a 3-oxo-docosapentaenoyl [acp]	c
TUM1-L-cysteine	a [3-mercaptopyruvate sulfurtransferase]-L-cysteine	cp
N-terminal-L-cysteine	an N-terminal L-cysteinyl-[protein]	p
TUM1-S-sulfanylcysteine	a [3-mercaptopyruvate sulfurtransferase]-S-sulfanyl-L-cysteine	cp
CPD-294	2-maleylacetate	p
DIHYDROSIROHYDROCHLORIN	precorrin-2	cp
TYLOSIN	tylosin	p
N-terminal-L-valine	an N-terminal L-valyl-[protein]	p
ETOH	ethanol	cp
CPD-2961	D-gluconate 6-phosphate	p
SUPER-OXIDE	superoxide	c
N-terminal-glycine	an N-terminal glycyl-[protein]	p
3-CARBOXY-3-HYDROXY-ISOCAPROATE	(2S)-2-isopropylmalate	cp
N1-ACETYLSPERMINE	N1-acetylspermine	p
TYR	L-tyrosine	cp
2-3-DIHYDROXYBENZOATE	2,3-dihydroxybenzoate	cp
TYR-tRNAs	a tRNATyr	c
ETR-Quinols	an electron-transfer quinol	cp
3-OXOADIPATE-ENOL-LACTONE	(4,5-dihydro-5-oxofuran-2-yl)-acetate	cp
DIHYDROXY-ACETONE-PHOSPHATE	glycerone phosphate	cp
ETR-Quinones	an electron-transfer quinone	cp
Gcv-H	[glycine cleavage system lipoyl-carrier protein]-L-lysine	c
2-ACETO-2-HYDROXY-BUTYRATE	(S)-2-aceto-2-hydroxybutanoate	cp
General-Protein-Substrates	a protein	cp
DIHYDROXY-BUTANONE-P	1-deoxy-L-glycero-tetrulose 4-phosphate	cp
N3-Acetal-deoxystreptamine-antib	an N3-acetyl-2-deoxystreptamine antibiotic	p
N5-Formyl-THF-Glu-N	an (6S)-N5-formyl-tetrahydrofolate	cp
Gentamycins	a gentamicin	cp
OLEATE-CPD	oleate	c
Sophorosyloxy-FAs-O-6-Diacet	a sophorosyloxyfatty acid 6',6''-diacetate	c
Sophorosyloxy-Fatty-Acids	a sophorosyloxyfatty acid	p
Red-Glutaredoxins	a reduced glutaredoxin	c
MALTOHEXAOSE	maltohexaose	cp
MG+2	Mg2+	cp
DEOXYXYLULOSE-5P	1-deoxy-D-xylulose 5-phosphate	cp
Red-NADPH-Hemoprotein-Reductases	a reduced [NADPH-hemoprotein reductase]	c
CPD-1121	D-myo-inositol 1,2-cyclic phosphate	cp
Red-Thioredoxin	a reduced thioredoxin	cp
DEPHOSPHO-COA	3'-dephospho-CoA	cp
MG-PROTOPORPHYRIN	Mg-protoporphyrin	p
IMP	IMP	cp
2-ACETO-LACTATE	(S)-2-acetolactate	cp
XYLULOSE-5-PHOSPHATE	D-xylulose 5-phosphate	cp
Reduced-2Fe-2S-Ferredoxins	a reduced [2Fe-2S] ferredoxin	c
CPD-11281	S-sulfanylglutathione	c
Sphingomyelins	a sphingomyelin	c
ACETOACETYL-COA	acetoacetyl-CoA	cp
SpoIVB-peptidase-precursors	a SpoIVB peptidase Precursor	c
SpoIVB-peptidases	a SpoIVB peptidase	p
2-ALPHA-HYDROXYETHYL-THPP	2-(&alpha;-hydroxyethyl)thiamine diphosphate	cp
Reduced-NrdH-Proteins	a reduced NrdH glutaredoxin-like protein	c
CPD-1130	3-ethylmalate	cp
Starch	starch	p
a-2-oxoglutarate-dehydrogenase-E2-protei	a [2-oxoglutarate-dehydrogenase E2 protein] N6-octanoyl-L-lysine	c
a-double-stranded-DNA-with-a-blunt-end	a Chi-site containing double stranded DNA with a blunt end	c
Carboxylates	a carboxylate	p
CPD-1136	cis-2-methylaconitate	cp
OLEOYL-COA	oleoyl-CoA	cp
DETHIOBIOTIN	dethiobiotin	cp
a-pyruvate-dehydrogenase-E2-protein-Nsup	a [pyruvate dehydrogenase E2 protein] N6-octanoyl-L-lysine	c
Saturated-Fatty-Acyl-ACPs	a 2,3,4-saturated fatty acyl-[acp]	p
Carboxylic-esters	a carboxylic ester	c
a-radical-of-luteolin-7-iOi-diglucuronid	a radical of luteolin-7-O-diglucuronide	p
apo-ACP	an apo-[acyl-carrier protein]	c
ACETOIN	acetoin	c
HOMOGENTISATE	homogentisate	cp
Saturated-Fatty-Acyl-CoA	a 2,3,4-saturated fatty acyl CoA	cp
b-Hydroxy-cis-D5-dodecenoyl-ACPs	a (3R,5Z)-3-hydroxy-dodec-5-enoyl-[acp]	p
Stearoyl-ACPs	a stearoyl-[acp]	cp
CPD-11444	uroporphyrinogen-I	c
2-AMINOACRYLATE	2-aminoprop-2-enoate	p
MONOMER0-4342	a [prolipoprotein]-(S-diacylglyceryl)-L-cysteine	cp
Reduced-ferredoxins	a reduced ferredoxin [iron-sulfur] cluster	cp
b-Keto-cis-D5-dodecenoyl-ACPs	a (5Z)-3-oxo-dodec-5-enoyl-[acp]	c
MALTOPENTAOSE	maltopentaose	cp
GLYCEROPHOSPHOGLYCEROL	glycerophosphoglycerol	c
CPD-564	S-ribosyl-L-homocysteine	cp
Protein-L-glutamine	a [protein]-L-glutamine	c
CPD-14828	1-C16:0-&alpha;,&omega;-dicarboxyl-2-lysophosphatidate	cp
CPD-5662	9-mercaptodethiobiotin	cp
Reduced-flavodoxins	a reduced flavodoxin	c
Protein-L-lysine	a [protein]-L-lysine	c
3-Oxo-octanoyl-ACPs	a 3-oxo-octanoyl-[acp]	c
Protein-L-methionine	a [protein]-L-methionine	p
Protein-L-methionine-S-S-oxides	a protein-L-methionine-(S)-S-oxide	c
GLUCOSAMINE	D-glucosamine	p
3-P-HYDROXYPYRUVATE	3-phosphooxypyruvate	cp
Secondary-Alcohols	a secondary alcohol	cp
5-HYDROXY-FERULIC-ACID	5-hydroxyferulate	c
GLUCOSAMINE-1P	D-glucosamine 1-phosphate	cp
Protein-L-serine-or-L-threonine	a [protein]-(L-serine/L-threonine)	cp
RH-Group	an organic molecule	c
3-P-SERINE	3-phospho-L-serine	cp
CPD-568	N1-acetylspermidine	p
UMP	UMP	cp
Relaxed-DNAs	a relaxed DNA	cp
CPD-14927	phytenate	c
MALTOTETRAOSE	maltotetraose	cp
5-HYDROXY-FERULOYL-COA	5-hydroxy-feruloyl-CoA	p
Kanamycin-3-phosphates	a kanamycin 3'-phosphate	p
POLY-GLUCOSYLATED-GLYCOGENINS	a glucosylated glycogenin	c
Release-factor-L-glutamine	a [release factor]-L-glutamine	c
CPD-14928	phytenoyl-CoA	p
Elongation-tRNAMet	elongator tRNAMet	c
Release-factor-N5-Methyl-L-glutamine	a [release factor]-N5-methyl-L-glutamine	p
ADENOSYL-HOMO-CYS	S-adenosyl-L-homocysteine	cp
RIBOFLAVIN	riboflavin	cp
Protein-N-terminal-5-oxo-prolines	an N-terminal 5-oxo-L-prolyl-[protein]	c
Resolution-of-Recombinational-Junction	resolution of recombinational junction formation of two intact strands	p
Protein-N-terminal-L-threonine	an N-terminal L-threonyl-[protein]	p
CPD-569	N-acetylputrescine	p
Kanamycins	a kanamycin	c
Fatty-Acids	a fatty acid	p
3-Phosphomonucleotides	a ribonucleoside 3'-phosphate	cp
MALTOTRIOSE	maltotriose	p
CPD-14931	a 10-formyltetrahydrofolate-4a-carbinolamine	cp
CPD-15056	(2Z)-2-aminobut-2-enoate	cp
5-METHYL-THF-GLU-N	a 5-methyltetrahydrofolate	c
Protein-N6-5-glutamyl-lysine-crosslinks	a protein with an N6-(&gamma;-glutamyl)-L-lysine crosslink	p
3-PHOSPHATIDYL-3-O-L-LYSYLGLYCEROL	3-O-L-lysyl-1-O-phosphatidylglycerol	p
Protein-N6-5-glutamyl-serotonin	a [protein] N6-[(5-hydroxy-1H-indol-3-yl)ethyl]-L-glutamine	p
Retinols	a retinol	p
L-1-GLYCEROPHOSPHORYLETHANOL-AMINE	sn-glycero-3-phosphoethanolamine	c
5-METHYLTHIOADENOSINE	S-methyl-5'-thioadenosine	cp
CPD-15152	6-methoxy-2-all-trans-octaprenyl-1,4-benzoquinone	c
Protein-Ser-or-Thr-phosphate	a [protein] (L-serine/L-threonine) phosphate	cp
CPD-582	guanylyl molybdenum cofactor	p
5-METHYLTHIOINOSINE	S-methyl-5'-thioinosine	p
Semiquinones	a semiquinone	p
Protein-Tyrosines	a [protein]-L-tyrosine	cp
CPD-15153	3-methyl-6-methoxy-2-octaprenyl-1,4-benzoquinone	p
CPD-5881	(6R)-4a-hydroxy-tetrahydrobiopterin	cp
Ribonucleoside-Diphosphates	a ribonucleoside diphosphate	cp
L-1-LYSOPHOSPHATIDATE	1-oleyl-2-lyso-phosphatidate	p
3-SULFINOALANINE	3-sulfinoalanine	p
Protein-With-N-Terminal-Met	a peptide with an N-terminal L-methionine	c
Protein-With-N-Terminal-Pro	a peptide with an N-terminal L-proline	c
Ribonucleoside-Monophosphates	a ribonucleoside 5'-monophosphate	c
L-1-PHOSPHATIDYL-ETHANOLAMINE	an L-1-phosphatidylethanolamine	p
UNDECAPRENYL-DIPHOSPHATE	di-trans,octa-cis-undecaprenyl diphosphate	cp
3-hydroxy-cis-D7-tetraecenoyl-ACPs	a (3R)-3-hydroxy cis &Delta;7-tetradecenoyl-[acp]	p
CPD-8625	a [protein]-L-proline (&omega; = 0)	cp
L-seryl-SEC-tRNAs	an L-seryl-[tRNAsec]	cp
GlgE-Glycogen	a GlgE-glycogen	p
LACTALD	(S)-lactaldehyde	cp
CPD-8653	betanidin	c
CPD-18379	1-myristoylglycerol 3-phosphate	p
Ribonucleoside-Triphosphates	a ribonucleoside triphosphate	c
CPD0-2231	dIDP	cp
DIHYDROXYACETONE	dihydroxyacetone	cp
Glucopyranose	D-glucopyranose	cp
Ribonucleosides	a ribonucleoside	p
CPD-8742	(3E)-2-oxohex-3-enedioate	cp
NAD	NAD+	cp
LAUROYLCOA-CPD	lauroyl-CoA	p
CPD-18492	(2E,6Z,9Z,12Z,15Z,18Z)-tetracosahexaenoyl-CoA	c
Ceramides	a ceramide	p
CPD0-2232	(S)-3-hydroxyhexadecanoyl-CoA	p
CPD-8890	betanidin quinone	p
Glutamine-synthetase-Tyr	a [glutamine-synthetase]-L-tyrosine	c
Glutamine-synthetase-adenylyl-Tyr	a [glutamine synthetase]-O4-(5'-adenylyl)-L-tyrosine	p
CELLULOSE	cellulose	cp
CPD-8978	ethylphosphate	c
CPD-18493	(3S)-hydroxy-(6Z,9Z,12Z,15Z,18Z)-tetracosapentaenoyl-CoA	p
S-2-Haloacids	an (S)-2-haloacid	c
CPD0-2244	(S)-3-hydroxydecanoyl-CoA	p
DIHYDROXYNAPHTHOATE	2-carboxy-1,4-naphthoquinol	c
CPD-8999	5-(methylsulfanyl)-2,3-dioxopentyl 1-phosphate	cp
Flavodoxins-Semiquinones	a flavodoxin semiquinone	p
Charged-ALA-tRNAs	an L-alanyl-[tRNAAla]	p
S-2-Hydroxyacids1	an (S)-2-hydroxyacid	p
CPD-18532	(R)-&beta;-hydroxy-L-kynurenine	p
Sulfur-Carrier-Proteins-ThiI	a [ThiI sulfur-carrier protein]-L-cysteine	cp
CPD-9011	streptothricin F	cp
NAD-P-OR-NOP	NAD(P)+	cp
Charged-ARG-tRNAs	an L-arginyl-[tRNAArg]	p
S-3-HYDROXYBUTANOYL-COA	(S)-3-hydroxybutanoyl-CoA	p
CH3-MALONATE-S-ALD	(S)-methylmalonate-semialdehyde	cp
CPD-18539	(R)-N-formyl-&beta;-hydroxy-L-kynurenine	c
CPD0-2350	a polycistronic tRNA precursor	cp
Charged-ASN-tRNAs	an L-asparaginyl-[tRNAAsn]	p
CPD0-2351	a tRNA precursor with a 5' extension and a long 3' trailer	p
Glycerophosphodiesters	a glycerophosphodiester	c
DIHYDROXYPENTANEDIONE	autoinducer 2	p
CPD0-2352	a tRNA precursor with a 5' extension and a short 3' extension	cp
Charged-ASP-tRNAs	an L-aspartyl-[tRNAasp]	p
Sulfurated-Sulfur-Acceptors	a sulfurated [sulfur carrier]	cp
CPD-18550	quinoxaline-2-carboxyl adenylate	c
CPD0-2353	a tRNA precursor with a short 3' extension	cp
Folates	a folate	c
LEU	L-leucine	cp
CPD0-2354	a tRNA precursor with a 5' extension	p
Sulfurylated-ThiI	a [ThiI sulfur-carrier protein]-S-sulfanyl-L-cysteine	cp
CPD-9012	N&beta;-acetylstreptothricin F	cp
CPD-18761	coniferyl alcohol radical	p
LEU-tRNAs	a tRNALeu	c
GLYCOCHENODEOXYCHOLIC_ACID	glycochenodeoxycholate	c
Formate-acetyltrans-glycine-radical	a [formate C acetyltransferase]-glycin -2-yl radical	p
CH33ADO	5'-deoxyadenosine	p
Charged-CYS-tRNAs	an L-cysteinyl-[tRNACys]	cp
Formate-acetyltransferase-glycine	a [formate C acetyltransferase]-glycine	c
Glycogens	a glycogen	cp
biotin-L-lysine-in-BCCP-dimers	a [biotin carboxyl-carrier-protein dimer]-N6-biotinyl-L-lysine	cp
COUMARATE	4-coumarate	c
CPD-3	molybdate	c
MYO-INOSITOL	myo-inositol	p
CPD-302	D-aspartate	p
Charged-GLN-tRNAs	an L-glutaminyl-[tRNAGln]	p
carboxybiotin-L-lysine-in-BCCP-dimers	a [carboxyl-carrier protein dimer]-N6-carboxybiotinyl-L-lysine	cp
CPD-10011	demethyl-L-phosphinothricin	c
BUTYRYL-P	butanoyl phosphate	cp
PYRAZINAMIDE	pyrazinamide	c
cis-19-CP-37-Mex-38-Me-C59-ACPs	a cis-methoxy-C59-meroacyl-[acp]	p
Charged-GLT-tRNAs	an L-glutamyl-[tRNAGlu]	c
cis-21-CP-39-keto-40-Me-C60-ACPs	a cis-keto-C60-meroacyl-[acp]	p
cis-D19-37-MOH-38-Me-C57-1-ACPs	a cis-delta19-37-methoxy-38-methyl-C57:1-[acp]	c
cis-D21-39-oxo-40-Me-C59-1-ACPs	a cis-delta21-39-oxo-40-methyl-C59:1-[acp]	c
Charged-GLY-tRNAs	a glycyl-[tRNAGly]	p
CPD-31	(R)-citramalate	cp
S-ADENOSYL-4-METHYLTHIO-2-OXOBUTANOATE	S-adenosyl-4-methylthio-2-oxobutanoate	cp
Bases	a nucleobase	cp
CPD-316	reduced riboflavin	p
Charged-HIS-tRNAs	an L-histidyl-[tRNAHis]	p
CPD-10267	decanoyl-CoA	p
Charged-ILE-tRNAs	an L-isoleucyl-[tRNAIle]	p
PYRAZINOIC-ACID	pyrazine-2-carboxylate	p
Charged-LEU-tRNAs	an L-leucyl-[tRNALeu]	p
Charged-LYS-tRNAs	an L-lysyl-[tRNALys]	cp
PORPHOBILINOGEN	porphobilinogen	cp
CPD-10269	palmitoleoyl-CoA	cp
Charged-MET-tRNAs	an L-methionyl-[elongator tRNAMet]	p
CPD-10330	&alpha;-D-ribofuranose	c
CPD-320	ethylnitronate	c
Beta-3-hydroxybutyryl-ACPs	a (3R)-3-hydroxybutanoyl-[acp]	p
1-4-alpha-D-Glucan	a 1,4-&alpha;-D-glucan	cp
Charged-PRO-tRNAs	an L-prolyl-[tRNAPro]	p
Beta-D-Galactosides	a &beta;-D-galactoside	c
PTS-I-Histidines	a [PTS enzyme I]-L-histidine	cp
Malonyl-acp-methyl-ester	a malonyl-[acp] methyl ester	p
Charged-SEC-tRNAs	an L-selenocysteinyl-[tRNAsec]	p
PTS-I-pi-phospho-L-histidines	a [PTS enzyme I]-N&pi;-phospho-L-histidine	cp
INDOLE	indole	c
INDOLE-3-GLYCEROL-P	(1S,2R)-1-C-(indol-3-yl)glycerol 3-phosphate	cp
CPD-10353	(R)-acetoin	p
Charged-SER-tRNAs	an L-seryl-[tRNAser]	p
PUTRESCINE	putrescine	cp
Maltodextrins	a maltodextrin	cp
CPD-321	3-aci-nitropropanoate	c
INDOLE_ACETATE_AUXIN	(indol-3-yl)acetate	p
Beta-hydroxydecanoyl-ACPs	a (3R)-3-hydroxydecanoyl-[acp]	p
CPD-10490	N-ethylglycine	c
ligated-tRNAs-with-2prime-5prime-linkage	a ligated tRNA with a 2'-5' linkage	cp
mRNA-Fragments	an mRNA fragment	p
3-hydroxy-cis-D9-hexaecenoyl-ACPs	a (3R)-3-hydroxy cis &Delta;9-hexadecenoyl-[acp]	p
Charged-THR-tRNAs	an L-threonyl-[tRNAThr]	p
S-ADENOSYLMETHIONINAMINE	S-adenosyl 3-(methylthio)propylamine	cp
Charged-TRP-tRNAs	an L-tryptophanyl-[tRNATrp]	p
L-1-PHOSPHATIDYL-GLYCEROL	an L-1-phosphatidyl-sn-glycerol	cp
L-1-PHOSPHATIDYL-GLYCEROL-P	1-(3-sn-phosphatidyl)-sn-glycerol 3-phosphate	cp
Charged-TYR-tRNAs	an L-tyrosyl-[tRNATyr]	p
3-DEHYDRO-SHIKIMATE	3-dehydroshikimate	cp
Aliphatic-Alpha-Omega-Diamines	an aliphatic &alpha;,&omega;-diamine	c
L-1-PHOSPHATIDYL-SERINE	a 3-O-sn-phosphatidyl-L-serine	cp
CPD-12575	UDP-&alpha;-D-glucose	cp
AMINO-HYDROXYMETHYL-METHYL-PYR-P	4-amino-2-methyl-5-(phosphooxymethyl)pyrimidine	cp
Charged-VAL-tRNAs	an L-valyl-[tRNAVal]	p
3-hydroxypimeloyl-ACP-methyl-esters	a (3R)-3-hydroxypimeloyl-[acp] methyl ester	p
Charged-fMET-tRNAs	an N-formyl-L-methionylaminoacyl-tRNA	c
3-oxo-arachidoyl-ACPs	a 3-oxo-arachidoyl-[acp]	c
5-Methylcytosine-DNA	a 5-methylcytosine in DNA	p
L-1-phosphatidyl-inositols	a 1-phosphatidyl-1D-myo-inositol	cp
URACIL	uracil	cp
GLYCOCHOLIC_ACID	glycocholate	c
3-oxo-behenoyl-ACPs	a 3-oxo-behenoyl-[acp]	c
Aliphatic-L-Amino-Acids	an aliphatic L-amino acid	p
S-ADENOSYLMETHIONINE	S-adenosyl-L-methionine	cp
L-3-HYDROXYACYL-COA	a (3S)-3-hydroxyacyl-CoA	p
CPD-12676	5'-chloro-5'-deoxyadenosine	c
Aliphatic-N-Acetyl-Diamines	Unknown	p
3-oxo-cerotoyl-ACPs	a 3-oxo-cerotoyl-[acp]	c
5-OXOPROLINE	5-oxo-L-proline	p
AMINO-HYDROXYMETHYL-METHYLPYRIMIDINE-PP	4-amino-2-methyl-5-(diphosphomethyl)pyrimidine	cp
3-oxo-cis-D7-tetradecenoyl-ACPs	a 3-oxo-cis-&Delta;7-tetradecenoyl-[acp]	c
Alkanesulfonates	an alkylsulfonate	c
3-oxo-cis-D9-hexadecenoyl-ACPs	a 3-oxo-cis-&Delta;9-hexadecenoyl-[acp]	c
L-ALPHA-ALANINE	L-alanine	cp
3-oxo-cis-vaccenoyl-ACPs	a 3-oxo-cis-vacc-11-enoyl-[acp]	c
Chitodextrins	a chitodextrin	cp
5-P-BETA-D-RIBOSYL-AMINE	5-phospho-&beta;-D-ribosylamine	cp
CPD-12677	5-chloro-5-deoxyribose 1-phosphate	p
3-oxo-decanoyl-ACPs	a 3-oxo-decanoyl-[acp]	c
AMINO-OH-HYDROXYMETHYL-DIHYDROPTERIDINE	6-(hydroxymethyl)-7,8-dihydropterin	cp
Alkyl-Hydro-Peroxides	an organic hydroperoxide	c
Chitosan	chitosan	c
3-oxo-dodecanoyl-ACPs	a 3-oxo-dodecanoyl-[acp]	c
CPD-12706	5-fluoro-5-deoxy-D-ribose 1-phosphate	p
OROTATE	orotate	cp
3-oxo-hexanoyl-ACPs	a 3-oxo-hexanoyl-[acp]	c
Alkylated-Bases	an alkylated nucleobase	p
Chitosan-fragments	a chitosan fragment	p
CPD-12724	baicalein	c
GLYCOLALDEHYDE	glycolaldehyde	p
S-CD-S-SP-Complex	an S-sulfanyl-[cysteine desulfurase]-S-sulfanyl-[disordered-form scaffold protein] complex	p
3-oxo-lignoceroyl-ACPs	a 3-oxo-lignoceroyl-[acp]	c
Alkylated-DNAs	an alkylated DNA	c
AMINO-RIBOSYLAMINO-1H-3H-PYR-DIONE	5-amino-6-(D-ribitylamino)uracil	cp
3-oxo-myristoyl-ACPs	a 3-oxo-myristoyl-[acp]	c
3-DEOXY-D-ARABINO-HEPTULOSONATE-7-P	3-deoxy-D-arabino-heptulosonate 7-phosphate	cp
GLYCOLLATE	glycolate	p
3-oxo-palmitoyl-ACPs	a 3-oxo-palmitoyl-[acp]	c
Protein-phospho-L-histidines	a [protein]-N-phospho-L-histidine	p
CPD-15159	(6R)-6,7-dihydrobiopterin	p
CPD-11495	(2-hydroxyphenyl)acetate	p
CPD-592	4-guanidinobutanoate	p
3OH-4P-OH-ALPHA-KETOBUTYRATE	(3R)-3-hydroxy-2-oxo-4 phosphooxybutanoate	cp
CPD-5923	5'-deoxy-5'-fluoroadenosine	c
Protein-tyrosine-phosphates	a [protein]-L-tyrosine phosphate	cp
CPD0-2483	(2,3-dihydroxybenzoylserine)3	cp
CHITIN	chitin	c
CPD-15172	6,7-dehydrobaicalein	p
CHITOBIOSE	N,N'-diacetylchitobiose	p
CPD0-2499	methyl &beta;-D-glucoside 6-phosphate	c
CPD-11518	3-oxo-2-(cis-2'-pentenyl)-cyclopentane-1-(E-octa-2-enoyl)-CoA	c
CPD-15189	chenodeoxycholate	p
CPD0-2501	N-monoacetylchitobiose 6'-phosphate	c
CHLORAMPHENICOL	chloramphenicol	cp
CPD-15301	caldariellaquinol	p
CHLORAMPHENICOL-3-ACETATE	chloramphenicol 3-acetate	cp
CPD-597	N-carbamoylputrescine	p
CPD-11519	3-oxo-2-(cis-2'-pentenyl)-cyclopentane-1-(3R-hydroxyoctanoyl)-CoA	p
ADENYLOSUCC	adenylo-succinate	cp
ACETYL-COA	acetyl-CoA	cp
DGDP	dGDP	cp
CPD0-881	N-acetyl-D-muramate 6-phosphate	cp
3R-11Z-3-hydroxy-icos-11-enoyl-ACPs	a (3R,11Z)-3-hydroxy-icos-11-enoyl-[acp]	p
CPD-11522	3-oxo-2-(cis-2'-pentenyl)-cyclopentane-1-(E-hexa-2-enoyl)-CoA	c
Pullulans	pullulan	c
Single-Stranded-DNAs	a single stranded DNA	cp
Purine-Bases	a purine base	cp
CPD-602	5-amino-6-(5-phospho-D-ribosylamino)uracil	cp
3R-5Z-3-hydroxy-tetradec-5-enoyl-ACPs	a (3R,5Z)-3-hydroxy-tetradec-5-enoyl-[acp]	p
CPD-15317	D-ribofuranose 5-phosphate	p
Cis-vaccenoyl-ACPs	a cis-vaccenoyl-[acp]	c
CPD0-882	1,6-anhydro-N-acetyl-&beta;-muramate	c
CPD-11523	3-oxo-2-(cis-2'-pentenyl)-cyclopentane-1-(3R-hydroxyhexanoyl)-CoA	p
THYMIDINE	thymidine	cp
CPD-15318	&alpha;-D-ribose 5-phosphate	p
3R-7Z-3-hydroxy-hexadec-7-enoyl-ACPs	a (3R,7Z)-3-hydroxy-hexadec-7-enoyl-[acp]	p
OROTIDINE-5-PHOSPHATE	orotidine 5'-phosphate	cp
Purine-Deoxyribonucleosides	a purine 2'-deoxyribonucleoside	cp
Citrate-Lyase-Citryl-Form	a citryl-holo [citrate lyase acyl-carrier protein]	cp
CPD-11526	3-oxo-2-(cis-2'-pentenyl)-cyclopentane-1-(E-buta-2-enoyl)-CoA	c
Soluble-Heteroglycans	a plant soluble heteroglycan	cp
CPD-618	(2R,3S)-2-methylisocitrate	cp
3R-9Z-3-hydroxy-octadec-9-enoyl-ACPs	a (3R,9Z)-3-hydroxy-octadec-9-enoyl-[acp]	p
CPD-15358	(2,3-dihydroxybenzoylserine)2	cp
S-HYDROXYMETHYLGLUTATHIONE	S-(hydroxymethyl)glutathione	c
CPD0-971	an &alpha;-limit dextrin	p
DGMP	dGMP	cp
CPD-11527	3-oxo-2-(cis-2'-pentenyl)-cyclopentane-1-(3R-hydroxybutanoyl)-CoA	p
CPD1F-2	(-)-methyl jasmonate	c
Purine-Ribonucleosides	a purine ribonucleoside	cp
CPD-15360	2-sulfanyl-N6-dimethylallyladenosine37 in tRNA	cp
ASN	L-asparagine	cp
ASN-tRNAs	tRNAAsn	c
Sophorosyloxy-FAs-O-6-Acet	a sophorosyloxyfatty acid  O(6'')-acetate	cp
4-AMINO-4-DEOXYCHORISMATE	4-amino-4-deoxychorismate	cp
DGTP	dGTP	cp
CPD-9038	precorrin-1	cp
G3P	3-phospho-D-glycerate	cp
S-LACTOYL-GLUTATHIONE	(R)-S-lactoylglutathione	cp
CPD-9245	palmitoleate	c
INDOLE_PYRUVATE	(indol-3-yl)pyruvate	cp
DIMETHYL-D-RIBITYL-LUMAZINE	6,7-dimethyl-8-(1-D-ribityl)lumazine	cp
CPD-9247	cis-vaccenate	c
CPD-9451	2-isopropylmaleate	cp
UREA	urea	cp
3-ENOLPYRUVYL-SHIKIMATE-5P	5-enolpyruvoyl-shikimate 3-phosphate	cp
DIPEPTIDES	a dipeptide	p
PPI	diphosphate	cp
3-HYDROXY-3-METHYL-GLUTARYL-COA	(S)-3-hydroxy-3-methylglutaryl-CoA	c
Tetradec-2-enoyl-ACPs	a trans tetradec-2-enoyl-[acp]	c
AMINOMETHYLDIHYDROLIPOYL-GCVH	a [glycine-cleavage complex H protein] N6-aminomethyldihydrolipoyl-L-lysine	cp
RIBOSE-1-ARSENATE	ribose-1-arsenate	p
CPD-9610	all-trans-decaprenyl diphosphate	p
THYMINE	thymine	cp
DITP	dITP	cp
S-NITROSOGLUTATHIONE	S-nitrosoglutathione	c
3-HYDROXY-ANTHRANILATE	3-hydroxyanthranilate	p
URIDINE	uridine	cp
CPD-9612	caldariellaquinone	c
RIBOSE-1P	&alpha;-D-ribose-1-phosphate	cp
Thi-S	a ThiS sulfur-carrier protein	p
Crotonyl-ACPs	a crotonyl-[acp]	c
RIBOSE-5P	D-ribose 5-phosphate	cp
Mature-5S-rRNAs	a mature 5S-rRNA	p
mRNAs	an mRNA	cp
NADH	NADH	cp
mature-tRNA	mature tRNA	p
OXALACETIC_ACID	oxaloacetate	cp
Cyclic-2-3-Ribonucleoside-Monophosphates	a ribonucleoside 2',3'-cyclic phosphate	c
Guanine34-in-tRNAs	a guanine34 in tRNA	c
2-C-METHYL-D-ERYTHRITOL-4-PHOSPHATE	2-C-methyl-D-erythritol 4-phosphate	cp
CPD-19014	2-hydroxy-2-methylpropanoate	p
Guanine46-in-tRNA	a guanine46 in tRNA	c
S-Substituted-L-Cysteines	an L-cysteine-S-conjugate	p
CPD-105	(R)-4-hydroxymandelate	c
CPD-10546	methyl (indol-3-yl)acetate	c
PHE	L-phenylalanine	cp
H2CO3	carbonic acid	cp
LINOLEIC_ACID	linoleate	c
CPD-19042	2-hydroxyisobutyramide	c
2-CHLOROMALEYLACETATE	2-chloromaleylacetate	p
LINOLENIC_ACID	&alpha;-linolenate	c
S18-N-terminal-L-alanine	an N-terminal L-alanyl-[S18 protein of 30S ribosome]	c
Butanoyl-ACPs	a butanoyl-[acp]	p
CPD-19144	(7Z)-hexadecenoyl-CoA	c
S2O3	thiosulfate	cp
CPD-19147	(7Z)-tetradecenoyl-CoA	c
2-D-THREO-HYDROXY-3-CARBOXY-ISOCAPROATE	(2R,3S)-3-isopropylmalate	cp
Menaquinols	a menaquinol	p
NADH-P-OR-NOP	NAD(P)H	cp
C1	UDP-N-acetyl-&alpha;-D-muramoyl-L-alanyl-&gamma;-D-glutamyl-meso-2,6-diaminopimeloyl-D-alanyl-D-alanine	p
GLUTAMATE-1-SEMIALDEHYDE	(S)-4-amino-5-oxopentanoate	cp
2-DEHYDRO-3-DEOXY-D-GLUCONATE	2-dehydro-3-deoxy-D-gluconate	c
rRNA-fragments	an rRNA fragment	p
Menaquinones	a menaquinone	c
LINOLENOYL-COA	&alpha;-linolenoyl-CoA	p
CPD-19148	(5Z)-dodecenoyl-CoA	c
CPD-106	(S)-4-hydroxymandelate	p
CPD-10608	trans-dienelactone	c
Mercapturates	a mercapturate	c
HOP-2229-ENE	hop-22(29)-ene	p
CPD-19150	(2E,5Z)-dodecenoyl-CoA	cp
C3	UDP-N-acetyl-&alpha;-D-muramoyl-L-alanyl-&gamma;-D-glutamyl-L-lysyl-D-alanyl-D-alanine	p
2-DEHYDROPANTOATE	2-dehydropantoate	cp
ssDNA-RNA-primer-hybrid	an ssDNA/RNA primer hybrid	p
ssRNAs	a single-stranded RNA	cp
PYRROLINE-HYDROXY-CARBOXYLATE	(3R,5S)-3-hydroxy-1-pyrroline-5-carboxylate	c
Cysteine-Desulfurase-L-cysteine	an [L-cysteine desulfurase]-L-cysteine	cp
HCN	hydrogen cyanide	c
CPD-19151	(S)-3-hydroxy-(5Z)-dodecenoyl-CoA	p
MENADIOL	menadiol	p
Cytidine-34-tRNAIle2	a cytidine34 in tRNAIle2	c
NADP	NADP+	cp
tRNA-2-thiouridine34	a 2-thiouridine34 in tRNA	p
CPD-1063	5-(methylthio)ribulose 1-phosphate	cp
LIPOIC-ACID	(R)-lipoate	c
CPD-19154	(S)-3-hydroxy-(7Z)-tetradecenoyl-CoA	p
SACCHAROPINE	L-saccharopine	c
3-oxo-petroselinoyl-ACPs	a 3-oxo-petroselinoyl-[acp]	c
RIBULOSE-5P	D-ribulose 5-phosphate	cp
Cytochromes-C-Oxidized	an oxidized c-type cytochrome	p
DUTP	dUTP	cp
3-oxo-stearoyl-ACPs	a 3-oxo-stearoyl-[acp]	c
PHENYL-PYRUVATE	keto-phenylpyruvate	cp
OXALATE	oxalate	c
3-terminal-unsaturated-sugars	a 3'-terminal unsaturated sugar	p
CPD-335	(R)-3-hydroxybutanoate	cp
Cytochromes-C-Reduced	a reduced c-type cytochrome	c
CPD-3462	N8-acetylspermidine	p
All-trans-Retinyl-Esters	an all-trans-retinyl ester	c
Alpha-6-alpha-14-glucans	a (1,6)-&alpha;-D-glucosyl-(1,4)-&alpha;-glucan	p
NADPH	NADPH	cp
Alpha-Amyloses	&alpha;-amylose	c
CPD-3617	decanoate	c
D-3-HYDROXYACYL-COA	a (3R)-3-hydroxyacyl-CoA	cp
CPD-3618	2-oxovalerate	p
RNA-DNA-hybrids	a RNA-DNA hybrid	c
D-6-P-GLUCONO-DELTA-LACTONE	6-phospho D-glucono-1,5-lactone	c
RNA-Holder	a ribonucleic acid	cp
Amino-Acids-20	a proteinogenic amino acid	cp
CPD-3706	adenosine 3'-monophosphate	cp
D-ALA-D-ALA	D-alanyl-D-alanine	cp
CPD-11592	2-methylsulfanyl-N6-dimethylallyladenosine37 in tRNA	p
CPD-1301	tetrahydropteroyl tri-L-glutamate	cp
PREPHENATE	prephenate	cp
L-ARA4N-MODIFIED-KDO2-LIPID-A	4'-&alpha;-L-Ara4N-&alpha;-Kdo-(2&rarr;4)-&alpha;-Kdo-(2&rarr;6)-[P4'-&alpha;-L-ara4N]-lipid A	p
5-P-RIBOSYL-N-FORMYLGLYCINEAMIDE	N2-formyl-N1-(5-phospho-&beta;-D-ribosyl)glycinamide	c
CPD-1162	arbutin-6-phosphate	c
FARNESYL-PP	(2E,6E)-farnesyl diphosphate	cp
CPD66-39	a 2,3,4-saturated fatty acid	c
5-PHOSPHO-RIBOSYL-GLYCINEAMIDE	N1-(5-phospho-&beta;-D-ribosyl)glycinamide	p
CPDQT-27	6-(methylthio)-2-oxohexanoate	p
CPD-1302	5-methyltetrahydropteroyl tri-L-glutamate	cp
L-ARGININO-SUCCINATE	L-arginino-succinate	cp
4-AMINO-BUTYRATE	4-aminobutanoate	cp
CPDQT-28	7-(methylthio)-2-oxoheptanoate	p
UROCANATE	urocanate	cp
ADP	ADP	cp
5-PHOSPHORIBOSYL-5-AMINOIMIDAZOLE	5-amino-1-(5-phospho-&beta;-D-ribosyl)imidazole	cp
CPD-13043	7-carboxy-7-deazaguanine	cp
CPD-11746	N-acetyldemethyl-L-phosphinothricin	p
CPDQT-29	8-(methylthio)-2-oxooctanoate	p
L-ASPARTATE	L-aspartate	cp
OXALO-SUCCINATE	oxalosuccinate	cp
ADP-D-GLUCOSE	ADP-&alpha;-D-glucose	p
THZ	5-(2-hydroxyethyl)-4-methylthiazole	cp
ACETYL-GLU	N-acetyl-L-glutamate	cp
CPD-13172	6-hydroxy-2-cyclohexen-one-carboxylate	p
CPDQT-30	9-(methylthio)-2-oxononanoate	p
4-CARBOXYMETHYLENEBUT-2-EN-4-OLIDE	cis-dienelactone	c
THZ-P	4-methyl-5-(2-phosphooxyethyl)thiazole	cp
5-PHOSPHORIBOSYL-N-FORMYLGLYCINEAMIDINE	2-(formamido)-N1-(5-phospho-&beta;-D-ribosyl)acetamidine	cp
D-ALANINE	D-alanine	cp
L-ASPARTATE-SEMIALDEHYDE	L-aspartate-semialdehyde	cp
CPD-13174	salicyl-6-hydroxy-2-cyclohexene-on-oyl	c
FE+2	Fe2+	cp
CPDQT-36	3-[(3'-methylthio)propyl]malate	cp
CPD-11770	7,8-dihydromonapterin	c
ACETYL-P	acetyl phosphate	cp
CPD-13339	(2Z,4E)-2-hydroxyhexa-2,4-dienedioate	cp
CPDQT-37	3-[(4'-methylthio)butyl]malate	cp
CPD-13357	(2R)-2,3-dihydroxy-3-methylbutanoate	p
5-Phospho-terminated-DNAs	a 5'-phospho-[DNA]	cp
CPD-1181	salicin 6-phosphate	c
CPDQT-38	3-[(5'-methylthio)pentyl]malate	cp
SARCOSINE	sarcosine	c
INOSINE	inosine	cp
HS	hydrogen sulfide	cp
CPD-15436	(5Z)-tetradecenoyl-CoA	c
GAP	D-glyceraldehyde 3-phosphate	cp
HSCN	thiocyanate	p
CPD-15568	2E)-tetradec-2-enoyl-CoA	c
AMMONIUM	ammonium	cp
Thiocarboxyadenylated-ThiS-Proteins	a thiocarboxy-[ThiS-Protein]	c
CPD-15776	oxythiamine	c
AMP	AMP	cp
HCO3	hydrogencarbonate	cp
Trans-D2-decenoyl-ACPs	a (2E)-dec-2-enoyl-[acp]	c
OXOPENTENOATE	2-oxopent-4-enoate	p
CPD-15777	pyrithiamine	c
D-ERYTHRO-IMIDAZOLE-GLYCEROL-P	D-erythro-imidazole-glycerol-phosphate	cp
CPD-15778	5-(hydroxymethyl)-2-methyl-4(1H)-pyrimidinone	p
D-GALACTOSAMINE-6-PHOSPHATE	D-galactosamine 6-phosphate	p
CPD-15779	2-(2-methylpyridin-3-yl)ethanol	p
TusE-L-cysteine	a [TusE sulfur carrier protein]-L-cysteine	p
IS30-Insertion-Sequences	an insertion sequence element IS30	cp
TusE-S-sulfanylcysteine	a [TusE sulfur carrier protein]-S-sulfanylcysteine	c
IS30-with-Integrated-Transposon	an insertion sequence IS30 with integrated transposon	cp
