dbRef_id	Common name	Produced (p), Consumed (c), Both (cp)
OXALACETIC_ACID	oxaloacetate	cp
HISTIDINAL	histidinal	cp
CPD-206	phytanoyl-CoA	c
6-HYDROXY-NICOTINATE	6-hydroxynicotinate	c
OXALO-SUCCINATE	oxalosuccinate	cp
CPD-20735	two adjacent 2'-deoxycytidines in DNA	p
CPD-20736	adjacent 2'-deoxycytidine-thymidine in DNA	p
METHYLENE-THF-GLU-N	a 5,10-methylene-tetrahydrofolate	cp
CPD-20737	adjacent thymidine-2'-deoxycytidine in DNA	p
PANTETHEINE-P	4'-phosphopantetheine	cp
CPD-20741	a dimer of adjacent 2'-deoxycytidines in DNA	c
CPD-20742	a dimer of adjacent thymidines in DNA	c
CPD-20743	a dimer of adjacent 2'-deoxycytidine and thymidine in DNA	c
CPD-20744	a dimer of adjacent thymidine and 2'-deoxycytidine in DNA	c
CPD-20746	N&alpha;,N&epsilon;-diacetyl-lysyl-D-alanine	cp
METHYLENETETRAHYDROMETHANOPTERIN	5,10-methylene-tetrahydromethanopterin	cp
DIHYDROXY-ACETONE-PHOSPHATE	glycerone phosphate	cp
CPD-20750	L-alanyl-&gamma;-D-glutamyl-L-lysyl-D-alanine	cp
DIHYDROXY-BUTANONE-P	1-deoxy-L-glycero-tetrulose 4-phosphate	cp
ATP	ATP	cp
CPD-20756	N-acetyl-muramoyl-(L-alanyl-&gamma;-D-glutamyl-L-lysyl-D-alanyl-D-alanine)	cp
TETRACHLOROHYDROQUINONE	2,3,5,6-tetrachlorohydroquinone	c
CPD-20757	N-acetyl-muramoyl-(L-alanyl-&gamma;-D-glutamyl-L-lysyl-D-alanine)	cp
PHOSPHORIBOSYL-AMP	1-(5-phospho-&beta;-D-ribosyl)-AMP	p
CPD-20826	7-(5-phospho-&alpha;-D-ribosyl)adenine	cp
PHOSPHORIBOSYL-ATP	1-(5-phospho-&beta;-D-ribosyl)-ATP	cp
67-DIHYDROPTERIDINE	a 6,7-dihydropteridine	c
ALA-tRNAs	a tRNAAla	c
CPD-20827	phenolyl-Co&beta;-adenosylcobamide 5'-phosphate	cp
7-8-DIHYDROPTEROATE	7,8-dihydropteroate	cp
PHOSPHORIBOSYL-CARBOXY-AMINOIMIDAZOLE	5-amino-1-(5-phospho-D-ribosyl)imidazole-4-carboxylate	cp
PANTOTHENATE	(R)-pantothenate	p
CPD-20828	4-methylphenolyl-Co&beta;-adenosylcobamide 5'-phosphate	cp
CPD-20829	[(2R,3S,4R,5S)-5-(1,3-benzodiazol-1-yl)-3,4-dihydroxyoxolan-2-yl]methyl phosphate	cp
CPD-20830	[(2R,3S,4R,5S)-3,4-dihydroxy-5-(5-hydroxy-1,3-benzodiazol-1-yl)oxolan-2-yl]methyl phosphate	cp
2-AMINOACRYLATE	2-aminoprop-2-enoate	p
CPDQT-413	(E)-N-hydroxy-7-(methylsulfanyl)heptimidothioate	cp
CPD-68	1-aminocyclopropane-1-carboxylate	c
CPD-13757	3-[(3aS,4S,5R,7aS)-5-hydroxy-7a-methyl-1-oxo-octahydro-1H-inden-4-yl]-3-hydroxypropanoyl-CoA	c
2-Acylglycero-Phosphocholines	a 2-acyl 1-lyso-phosphatidylcholine	p
OXIDIZED-GLUTATHIONE	glutathione disulfide	cp
CPDQT-414	(E)-N-hydroxy-8-(methylsulfanyl)octimidothioate	cp
CPD-13758	3-[(3aS,4S,5R,7aS)-5-hydroxy-7a-methyl-1-oxo-octahydro-1H-inden-4-yl]-3-oxopropanoyl-CoA	p
DELTA1-PIPERIDEINE-2-6-DICARBOXYLATE	(S)-2,3,4,5-tetrahydrodipicolinate	cp
CPDQT-415	(E)-N-hydroxy-9-(methylsulfanyl)nonimidothioate	cp
Long-Chain-Acyl-CoAs	a long-chain acyl-CoA	p
CPD-13847	UDP-2-acetamido-2,6-dideoxy-&alpha;-D-xylo-hex-4-ulose	cp
Long-Chain-Fatty-Acids	a long-chain fatty acid	c
CARBON-MONOXIDE	carbon monoxide	p
DATP	dATP	p
2-C-METHYL-D-ERYTHRITOL-4-PHOSPHATE	2-C-methyl-D-erythritol 4-phosphate	cp
Long-Chain-Polyphosphate	long chain polyphosphate	cp
CPDQT-429	indolylmethylisothiocyanate	c
CPDQT-434	indol-3-ylmethylisothiocyanate-glutathione	p
OXYGEN-MOLECULE	oxygen	cp
LysW-L-glutamate	a [2-aminoadipate carrier protein]-L-glutamate	c
CPD-7066	(2R,3S)-3-methylmalate	p
CPDQT-520	phosphatidylglycerophosphate (1-octadecenoyl(9Z), 2-palmitoyl)	c
2-CHLOROMALEYLACETATE	2-chloromaleylacetate	p
CPD-7076	2-methylbutanoate	c
LysW-L-glutamate-5-phosphate	a [2-aminoadipate carrier protein]-L-glutamate 5-phosphate	cp
LysW-L-glutamate-5-semialdehyde	a [2-aminoadipate carrier protein]-L-glutamate 5-semialdehyde	cp
CPD-7100	(2S)-2-isopropyl-3-oxosuccinate	cp
CARBOXYETHYL-3-5-CYCLOHEXADIENE-1-2-DIOL	3-(5,6-dihydroxycyclohexa-1,3-dien-1-yl)propanoate	p
LysW-L-ornithine	a [2-aminoadipate carrier protein]-L-ornithine	cp
DELTA3-ISOPENTENYL-PP	isopentenyl diphosphate	cp
Lysidine-tRNA-Ile2	a lysidine34 in tRNAIle2	p
2-D-THREO-HYDROXY-3-CARBOXY-ISOCAPROATE	(2R,3S)-3-isopropylmalate	cp
CPD-13940	Co&alpha;-[a-(5-methoxybenzimidazolyl)]-Co&beta;-adenosylcobamide 5'-phosphate	p
Octadec-2-enoyl-ACPs	a trans-octadec-2-enoyl-[acp]	c
DCDP	dCDP	cp
2-DEHYDROPANTOATE	2-dehydropantoate	cp
CRPB-11-Cis-Retinol	an 11-cis retinol-[cellular-retinol-binding-protein]	c
Octanoyl-ACPs	an octanoyl-[acp]	cp
CPD-7221	(3Z)-dodec-3-enoyl-CoA	cp
CRPB-all-trans-Retinol	an all-trans retinol-[cellular-retinol-binding-protein]	c
Octanoylated-Gcv-H	a [glycine-cleavage complex H protein] N6-octanoyl-L-lysine	c
CPD-14018	icosapentaenoyl-CoA	p
N-SUCCINYLLL-2-6-DIAMINOPIMELATE	N-succinyl-L,L-2,6-diaminopimelate	cp
S-ADENOSYLMETHIONINE	S-adenosyl-L-methionine	cp
CPD-10750	UDP-2-acetamido-2,6-dideoxy-&beta;-L-arabino-hex-4-ulose	cp
4-IMIDAZOLONE-5-PROPIONATE	4-imidazolone-5-propanoate	cp
CIS-D2-ENOYL-COA	a cis-2-enoyl-CoA	cp
CPD-12173	(S)-3-hydroxy-isobutanoyl-CoA	cp
CPD-10751	UDP-4-amino-4,6-dideoxy-N-acetyl-&beta;-L-altrosamine	cp
PROTOPORPHYRIN_IX	protoporphyrin IX	cp
4-MALEYL-ACETOACETATE	4-maleyl-acetoacetate	c
CIS-DELTA3-ENOYL-COA	a (3Z)-alkan-3-enoyl-CoA	cp
N-Substituted-Amino-Acids	an N-modified amino acid	p
CPD-12175	(S)-3-hydroxy-isobutanoate	c
N-Substituted-Aminoacyl-tRNA	an N-modified aminoacyl-[tRNA]	c
N-acetyl-D-glucosamine	N-acetyl-D-glucosamine	p
CPD-10752	UDP-2,4-diacetamido-2,4,6-trideoxy-&beta;-L-altropyranose	cp
FAD	FAD	p
CPD-3762	5-amino-4-imidazolecarboxyamide	c
CIT	citrate	cp
CPD-10753	2,4-diacetamido-2,4,6-trideoxy-&beta;-L-altropyranose	cp
CPD-3766	menadione	c
N-acetyl-beta-D-hexosamines	an N-acetyl-&beta;-D-hexosamine	p
CARBOXYPHENYLAMINO-DEOXYRIBULOSE-P	1-(o-carboxyphenylamino)-1'-deoxyribulose 5'-phosphate	cp
S-ALLANTOIN	(S)-(+)-allantoin	cp
UDP-OHMYR-ACETYLGLUCOSAMINE	UDP-3-O-[(3R)-3-hydroxymyristoyl]-N-acetyl-&alpha;-D-glucosamine	cp
4-METHYLCATECHOL	4-methylcatechol	p
N-formyl-L-methionyl-tRNAfmet	an N-formyl-L-methionyl-[initiator tRNAmet]	p
CPD-12179	methylmalonate semialdehyde	c
CPD-10754	pseudaminate	cp
Purine-ribonucleosides-5-PP	a purine ribonucleoside 5'-diphosphate	p
CPD-12199	3S-(4-hydroxyphenyl)-3-hydroxy-propanoyl-CoA	cp
DCMP	dCMP	c
N-terminal-L-Serine	an N-terminal L-seryl-[protein]	p
CITRATE-LYASE	an acetyl-holo [citrate lyase acyl-carrier protein]	cp
Purine-ribonucleosides-5-PPP	a purine ribonucleoside 5'-triphosphate	c
CPD-10755	CMP-pseudaminate	p
UDP-OHMYR-GLUCOSAMINE	UDP-3-O-(3-hydroxymyristoyl)-&alpha;-D-glucosamine	cp
N-terminal-L-alanine	an N-terminal L-alanyl-[protein]	p
ACP	a holo-[acyl-carrier protein]	cp
CPD-377	2-keto-D-gluconate	cp
CPD-12230	a peptidoglycan with D,D cross-link (S. aureus)	p
N-terminal-L-cysteine	an N-terminal L-cysteinyl-[protein]	p
DCTP	dCTP	cp
N-terminal-L-cysteine-sulfinate	an N-terminal 3-sulfino-L-alanyl-[protein]	c
ACRYLAMIDE	acrylamide	c
N-terminal-L-cysteine-sulfonate	an N-terminal 3-sulfo-L-alanyl-[protein]	c
S-Alkyl-L-Cysteines	an S-alkyl-L-cysteine	cp
CPD-12231	a peptidoglycan dimer (meso-diaminopimelate containing)	c
N-terminal-L-valine	an N-terminal L-valyl-[protein]	p
CPD-380	3-sulfopyruvate	cp
CPD-15689	(2E,5E)-dodeca-2,5-dienoyl-CoA	p
S-CD-S-SP-Complex	an S-sulfanyl-[cysteine desulfurase]-S-sulfanyl-[disordered-form scaffold protein] complex	p
K-HEXANOYL-COA	3-oxohexanoyl-CoA	cp
PYRIDOXINE-5P	pyridoxine 5'-phosphate	cp
CPD-18550	quinoxaline-2-carboxyl adenylate	c
CPD-15691	(5E)-3-oxo-dodec-5-enoyl-CoA	c
CPD0-1182	peptidoglycan tetrapeptide, glycan chain 1	c
CPD0-1183	peptidoglycan tetrapeptide, glycan chain 2	c
VANILLATE	vanillate	c
L-PHOSPHATIDATE	a 1,2-diacyl-sn-glycerol 3-phosphate	c
SULFATE	sulfate	cp
CPD0-1185	peptidoglycan DAP-DAP crosslink	p
S-HYDROXYMETHYLGLUTATHIONE	S-(hydroxymethyl)glutathione	c
ILE	L-isoleucine	cp
CPD0-1192	poly-&beta;-1,6-N-acetyl-D-glucosamine	c
L-SELENOCYSTEINE	L-selenocysteine	p
CPD-15692	(3E)-dec-3-enoyl-CoA	cp
ILE-tRNAs	a tRNAIle	c
RNA-3-prime-P-cyclase-L-His-adenylate	an [RNA 3'-phosphate cyclase]-N&tau;-(5'-adenylyl)-L-histidine	cp
HISTIDINOL	histidinol	cp
S-LACTOYL-GLUTATHIONE	(R)-S-lactoylglutathione	cp
CPD0-1193	partially N-deacetylated poly-&beta;-1,6-N-acetyl-D-glucosamine	p
CPD0-1306	3-decynoyl-N-acetylcysteamine	cp
ARSENATE	arsenate	c
RNA-3-prime-P-cyclase-L-histidine	an [RNA 3'-phosphate cyclase]-L-histidine	cp
KDO	3-deoxy-&alpha;-D-manno-2-octulosonate	cp
METOH	methanol	c
L-arginyl-3-sulfino-L-alaninyl-Peptides	an N-terminal L-arginiyl-3-sulfino-L-alanyl-[protein]	p
GAP	D-glyceraldehyde 3-phosphate	cp
RNA-DNA-hybrids	a RNA-DNA hybrid	c
CPD0-1456	UDP-N-acetyl-&alpha;-D-muramoyl-L-alanine	cp
L-arginyl-3-sulfo-L-alaninyl-Peptides	an N-terminal L-arginiyl-3-sulfo-L-alanyl-[protein]	p
RNA-Holder	a ribonucleic acid	cp
KDO-8P	3-deoxy-D-manno-octulosonate 8-phosphate	cp
CPD-19014	2-hydroxy-2-methylpropanoate	p
CPD-15776	oxythiamine	c
L-arginyl-L-Glutamyl-Peptides	an N-terminal L-arginiyl-L-glutamyl-[protein]	p
L-arginyl-L-aspartyl-Peptides	an N-terminal L-arginiyl-L-aspartyl-[protein]	p
PYRROLINE-HYDROXY-CARBOXYLATE	(3R,5S)-3-hydroxy-1-pyrroline-5-carboxylate	c
L-glutamyl-tRNAGln	an L-glutamyl-[tRNAGln]	c
3-Hydroxy-Terminated-DNAs	a [DNA]-3'-hydroxyl	c
RNA-with-3-prime-pp-5-prime-A-cap	an [RNA]-3'-ribonucleoside-3'-(5'-diphosphoadenosine)	cp
S-NITROSOGLUTATHIONE	S-nitrosoglutathione	c
CPD-19042	2-hydroxyisobutyramide	c
CPD-15777	pyrithiamine	c
RNASE-E-DEGRADATION-SUBSTRATE-MRNA	RNase E degradation substrate mRNA	c
DEAMIDO-NAD	nicotinate adenine dinucleotide	c
RNASE-E-MRNA-PROCESSING-SUBSTRATE	RNase E mRNA processing substrate	c
RNASE-E-PROCESSING-PRODUCT-MRNA	RNase E processing product mRNA	p
3-Hydroxy-octanoyl-ACPs	a (3R)-3-hydroxyoctanoyl-[acp]	p
L-leucyl-L-arginyl-Protein	a [protein] N-terminal L-leucyl-L-arginine	p
CPD0-1699	6-carboxy-5,6,7,8-tetrahydropterin	cp
CPD-19144	(7Z)-hexadecenoyl-CoA	cp
RNASE-G-DEGRADATION-SUBSTRATE-MRNA	RNase G degradation substrate mRNA	c
IMIDAZOLE-ACETOL-P	imidazole acetol-phosphate	cp
RNASE-III-MRNA-PROCESSING-SUBSTRATE	RNase III mRNA processing substrate	c
L-leucyl-L-lysyl-Protein	a [protein] N-terminal L-leucyl-L-lysine	p
CPD-15778	5-(hydroxymethyl)-2-methyl-4(1H)-pyrimidinone	p
RNASE-III-PROCESSING-PRODUCT-MRNA	RNase III processing product mRNA	p
CPD-19147	(7Z)-tetradecenoyl-CoA	cp
GDP	GDP	cp
RNASE-R-DEGRADATION-SUBSTRATE-RNA	RNase R degradation substrate RNA	c
3-Hydroxyglutaryl-ACP-methyl-ester	a (3R)-3-hydroxyglutaryl-[acp] methyl ester	p
DEHYDROQUINATE	3-dehydroquinate	cp
Nonadjacent-pyrimidine-dimer-in-DNA	a dimer of non-adjacent pyrimidine nucleosides in DNA	c
L-methionyl-L-alanyl-Protein	an N-terminal-L-methionyl-L-alanyl-[protein]	c
S-Substituted-Glutathione	a glutathione-toxin conjugate	p
L-methionyl-L-cysteinyl-Protein	an N-terminal-L-methionyl-L-cysteinyl-[protein]	c
CPD0-1718	7,8-dihydropterin	c
CPD-15779	2-(2-methylpyridin-3-yl)ethanol	p
L-methionyl-L-seryl-Protein	an N-terminal-L-methionyl-L-seryl-[protein]	c
S-Substituted-L-Cysteines	an L-cysteine-S-conjugate	c
Nonmethylated-Ribosomal-Protein-L11s	a non-methylated ribosomal protein L11	c
CPD-19148	(5Z)-dodecenoyl-CoA	cp
L-methionyl-L-threonyl-Protein	an N-terminal-L-methionyl-L-threonyl-[protein]	c
L-methionyl-L-valyl-Protein	an N-terminal-L-methionyl-L-valyl-[protein]	c
GDP-TP	pppGpp	p
PHOSPHORIBOSYL-FORMAMIDO-CARBOXAMIDE	5-formamido-1-(5-phospho-D-ribosyl)-imidazole-4-carboxamide	cp
DEOXYADENOSINE	2'-deoxyadenosine	c
TETRADEHYDROACYL-COA	a (2E,4E)-alkane-2,4-dienoyl-CoA	c
PHOSPHORIBOSYL-FORMIMINO-AICAR-P	1-(5-phospho-&beta;-D-ribosyl)-5-[(5-phosphoribosylamino)methylideneamino]imidazole-4-carboxamide	c
PAPS	3'-phosphoadenylyl-sulfate	cp
THF-GLU-N	a tetrahydrofolate	cp
PRPP	5-phospho-&alpha;-D-ribose 1-diphosphate	cp
ACRYLATE	acrylate	p
DEOXYGUANOSINE	2'-deoxyguanosine	p
BETAINE	glycine betaine	cp
PHOSPHORIBULOSYL-FORMIMINO-AICAR-P	phosphoribulosylformimino-AICAR-phosphate	p
TRP	L-tryptophan	cp
TRP-tRNAs	a tRNATrp	c
IMINOASPARTATE	2-iminosuccinate	cp
DEOXYINOSINE	2'-deoxyinosine	p
PENICILLIN	a penicillin	cp
BETAINE_ALDEHYDE	betaine aldehyde	cp
PENICILLIN-G	penicillin G	cp
PHYTOSPINGOSINE	phytosphingosine	cp
DEOXYXYLULOSE-5P	1-deoxy-D-xylulose 5-phosphate	cp
THIAMINE	thiamine	c
CL-	chloride	cp
VERY-LONG-CHAIN-FATTY-ACYL-COA	a very long chain fatty acyl-CoA	p
CPD-7222	(2E)-dodec-2-enoyl-CoA	cp
GTP	GTP	cp
CPD-7224	N-acetyl-L-citrulline	c
Very-long-chain-fatty-acids	a very-long-chain fatty acid	c
CPD-10791	6-deoxy-5-ketofructose 1-phosphate	p
CPD-4211	dimethylallyl diphosphate	cp
Acceptor	an oxidized electron acceptor	cp
DIMETHYL-D-RIBITYL-LUMAZINE	6,7-dimethyl-8-(1-D-ribityl)lumazine	cp
CPD-7545	S-(phenylacetothiohydroximoyl)-L-cysteine	cp
CPD-7546	S-(4-methylthiobutylhydroximoyl)-L-cysteine	cp
DIMETHYLBENZIMIDAZOLE	5,6-dimethylbenzimidazole	c
WATER	H2O	cp
CPD-763	arsenite	p
GERANYL-PP	geranyl diphosphate	c
GERANYLGERANYL-PP	geranylgeranyl diphosphate	p
Acetoacetyl-ACPs	an acetoacetyl-[acp]	cp
CPD-7671	methanethiol	c
CPD-20831	[(2R,3S,4R,5S)-3,4-dihydroxy-5-(5-methoxy-1,3-benzodiazol-1-yl)oxolan-2-yl]methyl phosphate	cp
N-terminal-glycine	an N-terminal glycyl-[protein]	p
CPD-20832	[(2R,3S,4R,5S)-3,4-dihydroxy-5-(5-methoxy-6-methyl-1,3-benzodiazol-1-yl)oxolan-2-yl]methyl phosphate	cp
THIAMINE-P	thiamine phosphate	cp
7-AMINOMETHYL-7-DEAZAGUANINE	preQ1	cp
4-PHOSPHONOOXY-THREONINE	4-phosphooxy-L-threonine	cp
CPD-20833	Co&alpha;-[a-(benzimidazolyl)]-Co&beta;-adenosylcobamide 5'-phosphate	p
THIAMINE-PYROPHOSPHATE	thiamine diphosphate	p
N5-Formyl-THF-Glu-N	an (6S)-N5-formyl-tetrahydrofolate	cp
CPD-20836	Co&alpha;-[a-(5-methoxy-6-methyl-benzimidazolyl)]-Co&beta;-adenosylcobamide 5'-phosphate	p
Nucleoside-Diphosphates	a nucleoside diphosphate	cp
4-hydroxybenzoate	4-hydroxybenzoate	cp
ACYL-ACP	an acyl-[acyl-carrier protein]	cp
CPD-20838	[(2R,3S,4R,5S)-3,4-dihydroxy-5-(5-methyl-1,3-benzodiazol-1-yl)oxolan-2-yl]methyl phosphate	cp
Nucleoside-Monophosphates	a nucleoside 5'-monophosphate	p
CPD-20839	Co&alpha;-[a-(5-methylbenzimidazolyl)]-Co&beta;-adenosylcobamide 5'-phosphate	p
7-CYANO-7-DEAZAGUANINE	preQ0	cp
MAL	(S)-malate	cp
FARNESYL-PP	(2E,6E)-farnesyl diphosphate	cp
Nucleoside-Triphosphates	a nucleoside triphosphate	cp
ACYL-COA	an acyl-CoA	c
CPD-20840	7-&alpha;-D-ribosyladenine	cp
CTP	CTP	cp
CPD-20841	(2S,3R,4S,5R)-2-(5-hydroxy-1,3-benzodiazol-1-yl)-5-(hydroxymethyl)oxolane-3,4-diol	cp
RX	RX	c
CPD-20842	4-methylphenolyl-Co&beta;-adenosylcobamide	p
CPD-20844	phenolyl-Co&beta;-adenosylcobamide	p
ACYL-SN-GLYCEROL-3P	a 1-acyl-sn-glycerol 3-phosphate	p
3-KETO-ADIPATE	3-oxoadipate	cp
CPD-20849	Co&alpha;-[a-(5-hydroxybenzimidazolyl)]-Co&beta;-adenosylcobamide	p
NAD	NAD+	cp
CPD-209	UDP-N-acetyl-&alpha;-D-muramoyl-L-alanyl-&gamma;-D-glutamyl-L-lysine	c
2-HYDROXYPHYTANOYL-COA	2-hydroxyphytanoyl-CoA	p
CMP	CMP	cp
GLY	glycine	cp
7Z-3-oxo-hexadec-7-enoyl-ACPs	a (7Z)-3-oxo-hexadec-7-enoyl-[acp]	cp
CMP-KDO	CMP-3-deoxy-&beta;-D-manno-octulosonate	p
7Z-hexadec-7-enoyl-ACPs	a (7Z)-hexadec-7-enoyl-[acp]	cp
CPD-2183	1-oleoyl-2-palmitoyl-phosphatidylglycerol	p
GLYCERALD	D-glyceraldehyde	p
O-PHOSPHO-L-HOMOSERINE	O-phospho-L-homoserine	c
8-AMINO-7-OXONONANOATE	8-amino-7-oxononanoate	p
2-Hexadecenoyl-ACPs	a trans hexadecenoyl-[acp]	c
Actinorhodin-Intermediate-2	9-hydroxy-3,5,7,11,13,15-hexaoxohexadecanoyl-[PKS-acp]	p
2-Hydroxy-Fatty-Acids	a 2-hydroxy fatty acid	cp
CPD-219	D-lysine	c
HMP	4-amino-2-methyl-5-pyrimidinemethanol	cp
2-Hydroxy-carboxylates	a 2-hydroxy carboxylate	p
GLYCERATE	D-glycerate	cp
NAD-P-OR-NOP	NAD(P)+	cp
BIOTIN	biotin	p
O-SUCCINYL-L-HOMOSERINE	O-succinyl-L-homoserine	cp
1-CHLORO-24-DINITROBENZENE	1-chloro-2,4-dinitrobenzene	cp
Acyl-Phosphates	an acyl phosphate	c
CPD-14021	UDP-N-acetyl-&alpha;-D-glucosamine 3'-phosphate	p
CPD-12259	a peptidoglycan dimer (S. aureus)	c
MG+2	Mg2+	cp
CPD-19150	(2E,5Z)-dodecenoyl-CoA	cp
MG-PROTOPORPHYRIN	Mg-protoporphyrin	p
CPD-12261	a peptidoglycan with D,D cross-links (meso-diaminopimelate containing)	p
3-KETO-ADIPYL-COA	3-oxoadipyl-CoA	cp
1-KETO-2-METHYLVALERATE	(R)-2,3-dihydroxy-3-methylpentanoate	cp
CPD-19151	(S)-3-hydroxy-(5Z)-dodecenoyl-CoA	cp
CPD-12278	N-formylmaleamate	p
CATECHOL	catechol	cp
CPD-14053	(6R)-L-erythro-5,6,7,8-tetrahydrobiopterin	p
PYRUVATE	pyruvate	cp
KDO2-LAUROYL-LIPID-IVA	&alpha;-Kdo-(2->4)-&alpha;-Kdo-(2->6)-(lauroyl)-lipid IVA	cp
CPD-19153	3-oxo-(5Z)-dodecenoyl-CoA	cp
GUANINE	guanine	cp
CPD-12279	2-iminoacetate	c
1-L-MYO-INOSITOL-1-P	1D-myo-inositol 3-monophosphate	c
CPD-19154	(S)-3-hydroxy-(7Z)-tetradecenoyl-CoA	cp
CPD-14133	(R)-NADPHX	c
KDO2-LIPID-A	&alpha;-D-Kdo-(2&rarr;4)-&alpha;-D-Kdo-(2&rarr;6)-lipid A	p
3-KETOACYL-COA	a 3-oxoacyl-CoA	cp
CPD-12303	undecaprenyl-diphospho-N-acetylmuramoyl-L-alanyl-&gamma;-D-glutamyl-L-lysyl- D-alanine	c
CPD-19155	(S)-3-hydroxy-(9Z)-hexadecenoyl-CoA	cp
CPD-14268	(15Z)-tetracosenoate	c
3-KETOBUTYRATE	acetoacetate	cp
MONOMER0-4342	a [prolipoprotein]-(S-diacylglyceryl)-L-cysteine	cp
CPD-12304	ditrans,octacis-undecaprenyldiphospho-N-acetyl-(N-acetylglucosaminyl)muramoyl-L-alanyl-&gamma;-D-glutamyl-L-lysyl-D-alanine	p
3-Ketoglutaryl-ACP-methyl-ester	a 3-oxo-glutaryl-[acp] methyl ester	cp
Adjacent-pyrimidine-dimer-in-DNA	a dimer of adjacent pyrimidine nucleosides in DNA	c
CPD-19157	3-oxo-(7Z)-tetradecenoyl-CoA	cp
KDO2-LIPID-IVA	&alpha;-Kdo-(2->4)-&alpha;-Kdo-(2->6)-lipid IVA	c
CPD-14269	(Z)-15-tetracosenoyl-CoA	p
CPD-12310	a peptidoglycan dimer (E. faeciums)	c
3-Ketopimeloyl-ACP-methyl-esters	a 3-oxo-pimeloyl-[acp] methyl ester	cp
Alcohols	an alcohol	p
CPD-19158	3-oxo-(9Z)-hexadecenoyl-CoA	cp
CPD-12311	a peptidoglycan with D,D cross-link (E. faecium)	p
Aldehydes	an aldehyde	p
CPD-19159	(S)-3-hydroxy-(11Z)-octadecenoyl-CoA	cp
Palmitoleoyl-ACPs	a palmitoleoyl-[acp]	p
3-METHYL-CROTONYL-COA	3-methylcrotonyl-CoA	c
CPD-14443	(2S,4S)-4-hydroxy-2,3,4,5-tetrahydrodipicolinate	cp
Palmitoyl-ACPs	a palmitoyl-[acp]	cp
Octanoylated-domains	a [lipoyl-carrier protein] N6-octanoyl-L-lysine	cp
L-methionyl-glycyl-Protein	an N-terminal-L-methionyl-glycyl-[protein]	c
L-methionyl-tRNAfmet	an L-methionyl-[initiator tRNAMet]	cp
Odd-Saturated-Fatty-Acyl-CoA	an odd numbered straight chain 2,3,4-saturated fatty acyl CoA	p
Odd-Straight-Chain-234-Sat-FA	an odd numbered straight chain 2,3,4-saturated fatty acid	c
DEPHOSPHO-COA	3'-dephospho-CoA	cp
L-phenylalanyl-L-arginyl-Protein	L-phenylalanyl-L-arginyl-[protein]	p
L-phenylalanyl-L-lysyl-Protein	L-phenylalanyl-L-lysyl-[protein]	p
9S-RRNA	a 9S rRNA	c
Oleoyl-ACPs	an oleoyl-[acp]	cp
L-seryl-SEC-tRNAs	an L-seryl-[tRNAsec]	p
GUANOSINE	guanosine	p
LACTALD	(S)-lactaldehyde	cp
9Z-3-oxo-octadec-9-enoyl-ACPs	a (9Z)-3-oxo-octadec-9-enoyl-[acp]	cp
SUPER-OXIDE	superoxide	c
A-5-prime-PP-5-prime-DNA	an adenosine-5'-diphospho-5'-[DNA]	cp
GUANOSINE-5DP-3DP	ppGpp	cp
Oligonucleotides	an oligonucleotide	c
CPD-15979	D-mannopyranose 6-phosphate	cp
DITP	dITP	cp
ACET	acetate	cp
CPD-16458	7,8-dihydrolumazine	p
ACETALD	acetaldehyde	cp
CPD-16549	3-(N-morpholino)propanal	p
DETHIOBIOTIN	dethiobiotin	cp
HOMO-CYS	L-homocysteine	cp
CPD-16606	UDP-2-acetamido-4-amino-2,4,6-trideoxy-&alpha;-D-galactose	cp
LAUROYLCOA-CPD	lauroyl-CoA	p
CD-S-SP-Complex	a [cysteine desulfurase]-S-sulfanyl-[disordered-form scaffold protein] complex	c
Orthophosphoric-Monoesters	a phosphate monoester	c
Saturated-Fatty-Acyl-ACPs	a 2,3,4-saturated fatty acyl-[acp]	cp
CPD-16953	2-amino-6-[1-hydroxyethyl]-7-methyl-7,8-dihydropterin	c
ACETAMIDE	acetamide	c
Saturated-Fatty-Acyl-CoA	a 2,3,4-saturated fatty acyl CoA	cp
CPD-16954	[1-(2-amino-7-methyl-4-oxo-7,8-dihydro-3H-pteridin-6-yl)]ethyl diphosphate	p
CDP	CDP	cp
FE+2	Fe2+	cp
CPD0-181	N5-carboxyaminoimidazole ribonucleotide	c
IMP	IMP	cp
CDP-2-3-4-Saturated-Diacylglycerols	a CDP-2,3,4-saturated-diacylglycerol	p
ALLANTOATE	allantoate	cp
S2O3	thiosulfate	cp
GLC-1-P	&alpha;-D-glucopyranose 1-phosphate	cp
CO-A	coenzyme A	cp
CYCLOHEXANONE	cyclohexanone	c
CDPDIACYLGLYCEROL	a CDP-diacylglycerol	cp
CPD-7695	ditrans,octacis-undecaprenyldiphospho-N-acetyl-(N-acetyl-&beta;-D-glucosaminyl)muramoyl-L-alanyl-&gamma;-D-glutamyl-L-lysyl-D-alanyl-D-alanine	p
GLC-D-LACTONE	D-glucono-1,5-lactone	cp
236-TRICHLOROHYDROQUINONE	2,3,6-trichlorohydroquinone	c
CPD0-1958	3-(N-morpholino)propanesulfonate	c
CPD-7737	(2-carboxy-2,5-dihydro-5-oxofuran-2-yl)-acetate	cp
CPD0-1965	N&alpha;,N&epsilon;-diacetyl-lysyl-D-alanyl-D-alanine	cp
GLN	L-glutamine	cp
GLN-tRNAs	a tRNAGln	c
CYS	L-cysteine	cp
FERRICYTOCHROME-B5	a ferricytochrome b5	p
CPD0-2015	N-acetyl-L-methionine	p
CPD-784	5-carboxymethyl-2-hydroxymuconate	c
23S-rRNA-2-methyladenine2503	a 2-methyladenine2503 in 23S rRNA	p
CYS-tRNAs	a tRNACys	cp
FERROCYTOCHROME-B5	a ferrocytochrome b5	c
23S-rRNA-adenine-2503	adenine2503 in 23S rRNA	c
FERULIC-ACID	ferulate	p
CPD-785	(3E,5R)-5-carboxy-2-oxohept-3-enedioate	p
25-DIDEHYDRO-D-GLUCONATE	2,5-didehydro-D-gluconate	cp
CPD0-2030	glycerophosphoserine	c
CPD-10806	4-hydroxy-2-nonenal	c
2-KETO-3-METHYL-VALERATE	(S)-3-methyl-2-oxopentanoate	cp
MYO-INOSITOL	myo-inositol	p
CPD-469	N-acetyl-L-glutamate 5-semialdehyde	cp
XANTHINE	xanthine	cp
CPD-470	L-2,4-diaminobutanoate	cp
2-KETO-6-AMINO-CAPROATE	6-amino-2-oxohexanoate	p
BISOHMYR-GLC	lipid A disaccharide	cp
CPD-10824	3-methylmuconolactone	c
BISOHMYR-GLUCOSAMINYL-1P	lipid X	cp
Peptide-3-hydroxy-L-Aspartates	a [protein]-3-hydroxy-L-aspartate	p
CPD-10825	4-methyl-3-oxoadipate-enol-lactone	cp
Peptides-holder	a peptide	p
CPD-10826	4-methyl-3-oxoadipate	cp
XANTHOSINE	xanthosine	p
MALONATE-S-ALD	3-oxopropanoate	cp
Peptides-with-Leader-Sequence	a peptide with a leader sequence	c
XANTHOSINE-5-PHOSPHATE	XMP	cp
NADH	NADH	cp
CPD-1083	(E)-2-methylcrotonoyl-CoA	cp
CPD-10832	4-methyl-3-oxoadipyl-CoA	p
CPD-479	4-(methylsulfanyl)-2-oxobutanoate	cp
NADH-P-OR-NOP	NAD(P)H	cp
Peptidoglycans	a peptidoglycan	c
Persulfurated-L-cysteine-desulfurases	an S-sulfanyl-[L-cysteine desulfurase]	p
CPD-520	quercetin	c
2-KETO-ISOVALERATE	3-methyl-2-oxobutanoate	cp
CPD-1086	5-amino-6-(5-phospho-D-ribitylamino)uracil	p
CPD-10866	2-chlorophenol	c
2-KETOGLUTARATE	2-oxoglutarate	cp
NADP	NADP+	cp
5-10-METHENYL-THF-GLU-N	a 5,10-methenyltetrahydrofolate	cp
2-LYSOPHOSPHATIDYLETHANOLAMINES	a 1-acyl 2-lyso-phosphatidylethanolamine	c
Malonyl-acp-methyl-ester	a malonyl-[acp] methyl ester	cp
5-AMINO-LEVULINATE	5-aminolevulinate	cp
Phenols	a phenol	p
CPD-19160	3-oxo-(11Z)-octadecenoyl-CoA	cp
Ox-Glutaredoxins	an oxidized glutaredoxin	p
HOMO-SER	L-homoserine	cp
Ox-Thioredoxin	an oxidized thioredoxin	cp
CPD-19161	(2E,7Z)-tetradecenoyl-CoA	cp
Oxidized-2Fe-2S-Ferredoxins	an oxidized [2Fe-2S] ferredoxin	p
PORPHOBILINOGEN	porphobilinogen	cp
O-UREIDOHOMOSERINE	O-ureido-L-homoserine	c
Oxidized-Factor-F420	an oxidized coenzyme F420	cp
Pyruvate-dehydrogenase-acetylDHlipoyl	a [pyruvate dehydrogenase E2 protein] N6-S-acetyldihydrolipoyl-L-lysine	c
CPD-19162	(2E,9Z)-hexadecenoyl-CoA	cp
GLYCEROL	glycerol	cp
Pyruvate-dehydrogenase-dihydrolipoate	a [pyruvate dehydrogenase E2 protein] N6-dihydrolipoyl-L-lysine	cp
MALONYL-ACP	a malonyl-[acp]	cp
Pyruvate-dehydrogenase-lipoate	a [pyruvate dehydrogenase E2 protein] N6-lipoyl-L-lysine	p
GLYCEROL-3P	sn-glycerol 3-phosphate	cp
Oxidized-Rubredoxins	an oxidized rubredoxin	cp
CPD-19163	(2E,11Z)-octadecenoyl-CoA	cp
OCTADEC-9-ENE-118-DIOIC-ACID	&alpha;,&omega;-9Z-octadecenedioate	c
Kanamycin-3-phosphates	a kanamycin 3'-phosphate	p
MALONYL-COA	malonyl-CoA	cp
Oxidized-ferredoxins	an oxidized ferredoxin [iron-sulfur] cluster	cp
Kanamycins	a kanamycin	c
DNA-Adjacent-Pyrimidines	two adjacent pyrimidine nucleosides in DNA	p
OCTANOL	1-octanol	p
CPD-19167	3-oxo-(7Z)-hexadecenoyl-CoA	cp
Oxo-glutarate-dehydro-suc-DH-lipoyl	a [2-oxoglutarate dehydrogenase E2 protein] N6-S-succinyldihydrolipoyl-L-lysine	cp
OCTAPRENYL-DIPHOSPHATE	all-trans-octaprenyl diphosphate	c
Oxo-glutarate-dehydrogenase-DH-lipoyl	a [2-oxoglutarate dehydrogenase E2 protein] N6-dihydrolipoyl-L-lysine	cp
Oxo-glutarate-dehydrogenase-lipoyl	a [2-oxoglutarate dehydrogenase E2 protein] N6-lipoyl-L-lysine	cp
ADENINE	adenine	cp
CPD-19168	(S)-3-hydroxy-(7Z)-hexadecenoyl-CoA	cp
QUEUINE	queuine	c
DNA-Combined-With-Exogenous-DNA	DNA combined with exogenous DNA to form a recombinational junction	c
P-AMINO-BENZOATE	4-aminobenzoate	cp
DNA-Cytidines	a 2'-deoxycytidine in DNA	p
L-1-GLYCERO-PHOSPHORYLCHOLINE	sn-glycero-3-phosphocholine	p
CPD-19169	3-oxo-(9Z)-octadecenoyl-CoA	cp
P-COUMAROYL-COA	4-coumaroyl-CoA	c
DNA-Cytosines	a cytosine in DNA	c
TTP	dTTP	p
L-1-GLYCEROPHOSPHORYLETHANOL-AMINE	sn-glycero-3-phosphoethanolamine	cp
CPD-19170	(2E,7Z)-hexadecenoyl-CoA	cp
HOMOGENTISATE	homogentisate	p
CPD-220	D-arginine	c
Diacylglycerol-Prolipoproteins	an [apolipoprotein]-(S-diacylglyceryl)-L-cysteine	p
ALLO-THR	DL-allothreonine	c
Dietary-retinyl-esters	a dietary all-trans-retinyl ester	c
3-METHYLTHIOPROPYLHYDROXAMIC-ACID	(E)-N-hydroxy-4-(methylsulfanyl)butimidothioate	cp
LEU	L-leucine	cp
Dihydro-Lipoyl-Proteins	a [lipoyl-carrier protein] N6-dihydrolipoyl-L-lysine	c
CPD-12575	UDP-&alpha;-D-glucose	cp
LEU-tRNAs	a tRNALeu	cp
SELENATE	selenate	c
CPD-14553	UDP-&alpha;-D-galactose	cp
3-Methyl-Saturated-Fatty-Acids	a 3-methyl-branched 2,3,4-saturated fatty acid	c
CPD-237	(indol-3-yl)acetamide	c
3-Methyl-Saturated-Fatty-Acyl-CoA	a 3-methyl-branched 2,3,4-saturated fatty acyl-CoA	cp
Semiquinones	a semiquinone	p
ALPHA-RIBAZOLE	&alpha;-ribazole	cp
3-OCTAPRENYL-4-HYDROXYBENZOATE	3-octaprenyl-4-hydroxybenzoate	p
ALPHA-RIBAZOLE-5-P	&alpha;-ribazole 5'-phosphate	cp
TYR	L-tyrosine	cp
2C-METH-D-ERYTHRITOL-CYCLODIPHOSPHATE	2-C-methyl-D-erythritol-2,4-cyclodiphosphate	cp
TYR-tRNAs	a tRNATyr	c
CPD-12634	(glutathion-S-yl)(1H-indol-3-yl)acetonitrile	p
DGDP	dGDP	c
FMN	FMN	cp
INDOLE	indole	cp
3-OXO-EICOSAPENTAENOYL-ACP	a 3-oxo-docosapentaenoyl [acp]	c
CPD-14675	pristanoyl-CoA	p
Serines	serine	p
CPD-245	3-carboxy-cis,cis-muconate	c
INDOLE-3-GLYCEROL-P	(1S,2R)-1-C-(indol-3-yl)glycerol 3-phosphate	cp
SELENOHOMOCYSTEINE	seleno-L-homocysteine	cp
2E-11Z-icosa-2-11-dienoyl-ACPs	an (2E,11Z)-icosa-2,11-dienoyl-[acp]	c
2E-5Z-tetradeca-2-5-dienoyl-ACPs	a (2E,5Z)-tetradeca-2,5-dienoyl-[acp]	c
CPD-12932	all-trans-3,4-didehydrolycopene	c
FMNH2	FMNH2	cp
Diribonucleotide	a diribonucleotide	p
2E-7Z-hexadeca-2-7-dienoyl-ACPs	a (2E,7Z)-hexadeca-2,7-dienoyl-[acp]	c
2E-9Z-octadeca-2-9-dienoyl-ACPs	a (2E,9Z)-octadeca-2,9-dienoyl-[acp]	c
INDOLEYL-CPD	(indole-3-yl)acetonitrile	c
CPD-14704	4-hydroxy-2-nonenal-glutathione conjugate	p
SELENOMETHIONINE	seleno-L-methionine	p
CPD-14729	(3Z)-oct-3-enoyl-CoA	cp
2K-4CH3-PENTANOATE	4-methyl-2-oxopentanoate	cp
CPD-12935	4'-apo-&beta;-carotenal	p
Dodec-2-enoyl-ACPs	a (2E)-dodec-2-enoyl-[acp]	c
DGTP	dGTP	cp
INDOLE_ACETATE_AUXIN	(indol-3-yl)acetate	p
2K-ADIPATE	2-oxoadipate	c
Dodecanoyl-ACPs	a dodecanoyl-[acp]	cp
CPD-148	n-octane	c
Donor-H2	a reduced electron acceptor	cp
CONIFERYL-ALDEHYDE	coniferaldehyde	c
SER	L-serine	cp
CPD-12936	apo-4'-lycopenal	p
AMINO-HYDROXYMETHYL-METHYL-PYR-P	4-amino-2-methyl-5-(phosphooxymethyl)pyrimidine	cp
CYTIDINE	cytidine	p
Double-Stranded-DNAs	a double stranded DNA	cp
CPD-1301	tetrahydropteroyl tri-L-glutamate	cp
CPD-17045	3-benzyl-3,6-dihydroxy-6-(hydroxymethyl)-diketopiperazine	c
5-BETA-L-THREO-PENTAPYRANOSYL-4-ULOSE-	UDP-&beta;-L-threo-pentapyranos-4-ulose	cp
XYLULOSE-5-PHOSPHATE	D-xylulose 5-phosphate	cp
NADPH	NADPH	cp
2-Lysophosphatidylcholines	a 1-acyl-sn-glycero-3-phosphocholine	c
Xenobiotic	a xenobiotic	cp
CPD-17046	3-benzyl-3,6 -bis(glutathione)- 6-(hydroxymethyl)-diketopiperazine	p
CPD-535	&beta;-D-fructose 2,6-bisphosphate	c
CPD-17063	ferroheme o	p
BUTANAL	butan-1-al	p
UMP	UMP	cp
Phosphoglucosamine-Mutase	a phosphoglucosamine mutase	cp
2-METHYL-3-HYDROXY-BUTYRYL-COA	(2S,3S)-3-hydroxy-2-methylbutanoyl-CoA	cp
L-1-LYSOPHOSPHATIDATE	1-oleyl-2-lyso-phosphatidate	p
CPD-548	S-formylglutathione	cp
CPD-17095	iminoarginine	p
a-2-oxoglutarate-dehydrogenase-E2-protei	a [2-oxoglutarate-dehydrogenase E2 protein] N6-octanoyl-L-lysine	c
L-1-PHOSPHATIDYL-ETHANOLAMINE	an L-1-phosphatidylethanolamine	cp
2-METHYL-ACETO-ACETYL-COA	2-methylacetoacetyl-CoA	cp
a-pyruvate-dehydrogenase-E2-protein-Nsup	a [pyruvate dehydrogenase E2 protein] N6-octanoyl-L-lysine	c
BUTYRIC_ACID	butanoate	p
CPD-17189	pseudo-adenosyl cobamide	p
apo-ACP	an apo-[acyl-carrier protein]	c
CPD-551	phosphonoacetaldehyde	cp
L-1-PHOSPHATIDYL-GLYCEROL	an L-1-phosphatidyl-sn-glycerol	cp
Menaquinols	a menaquinol	cp
Phosphorylated-Phosphoglucosamine-Mutase	a phosphorylated phosphoglucosamine mutase	cp
UNDECAPRENYL-DIPHOSPHATE	di-trans,octa-cis-undecaprenyl diphosphate	p
L-1-PHOSPHATIDYL-GLYCEROL-P	1-(3-sn-phosphatidyl)-sn-glycerol 3-phosphate	cp
CPD-17312	docosahexaenoyl-CoA	p
b-Hydroxy-cis-D5-dodecenoyl-ACPs	a (3R,5Z)-3-hydroxy-dodec-5-enoyl-[acp]	p
Phosphoserines	L(or D)-O-phosphoserine	c
L-1-PHOSPHATIDYL-SERINE	a 3-O-sn-phosphatidyl-L-serine	cp
b-Keto-cis-D5-dodecenoyl-ACPs	a (5Z)-3-oxo-dodec-5-enoyl-[acp]	cp
Menaquinones	a menaquinone	cp
biotin-L-lysine-in-BCCP-dimers	a [biotin carboxyl-carrier-protein dimer]-N6-biotinyl-L-lysine	cp
CPD-558	pimeloyl-CoA	c
2-METHYL-BUTYRYL-COA	2-methylbutanoyl-CoA	p
BUTYRYL-COA	butanoyl-CoA	c
L-3-HYDROXYACYL-COA	a (3S)-3-hydroxyacyl-CoA	cp
carboxybiotin-L-lysine-in-BCCP-dimers	a [carboxyl-carrier protein dimer]-N6-carboxybiotinyl-L-lysine	cp
CPD-17365	(4Z,7Z,10Z,13Z,16Z)-docosapentaenoyl-CoA	p
5-HYDROXYISOURATE	(S)-5-hydroxyisourate	c
L-ALA-GAMMA-D-GLU-DAP	L-alanyl-&gamma;-D-glutamyl-meso-diaminopimelate	c
URACIL	uracil	cp
Pi	phosphate	cp
CPD-560	S-methyl-5-thio-D-ribose	p
L-ALPHA-ALANINE	L-alanine	cp
CPD-17370	18-hydroxyoleoyl-CoA	p
CPD-7953	torulene	c
CPD-10868	3-chlorophenol	c
P-HYDROXY-PHENYLPYRUVATE	4-hydroxyphenylpyruvate	cp
GLT	L-glutamate	cp
GLT-tRNAs	a tRNAglu	p
Single-Stranded-DNAs	a single stranded DNA	cp
CPD0-2105	3-oxododecanoyl-CoA	cp
CPD0-2106	3-oxooctanoyl-CoA	cp
GLYCEROPHOSPHOGLYCEROL	glycerophosphoglycerol	c
CPD-8122	molybdopterin adenine dinucleotide	c
OCTAPRENYL-METHYL-METHOXY-BENZQ	6-methoxy-3-methyl-2-all-trans-octaprenyl-1,4-benzoquinol	c
CPD-8123	MoO2-molybdopterin cofactor	cp
CPD-10870	4-chlorophenol	c
OCTAPRENYL-METHYL-OH-METHOXY-BENZQ	3-demethylubiquinol-8	cp
Sphingoids	a sphingoid base	p
THMPT	tetrahydromethanopterin	p
CPD-8180	DNA with lesion	c
P-RIBOSYL-4-SUCCCARB-AMINOIMIDAZOLE	5'-phosphoribosyl-4-(N-succinocarboxamide)-5-aminoimidazole	cp
CGMP	cyclic-GMP	p
CPD-1091	(S)-ureidoglycolate	cp
CPD0-2108	(2E)-oct-2-enoyl-CoA	cp
DNA-Holder	DNA	p
PHE	L-phenylalanine	cp
CPD-824	5-guanidino-2-oxopentanoate	p
CH3-MALONATE-S-ALD	(S)-methylmalonate-semialdehyde	cp
GLYCOCHENODEOXYCHOLIC_ACID	glycochenodeoxycholate	c
THR	L-threonine	cp
Stearoyl-ACPs	a stearoyl-[acp]	cp
CPD-8259	&beta;-D-ribosylnicotinate	p
THR-tRNAs	a tRNAThr	c
CPD0-2117	trans-hexadec-2-enoyl-CoA	c
OH-ACYL-ACP	a (3R)-3-hydroxyacyl-[acyl-carrier protein]	cp
OH-HEXANOYL-COA	(S)-3-hydroxyhexanoyl-CoA	cp
PHE-tRNAs	a tRNAPhe	p
CPD-8355	1-18:1-2-lysophosphatidylethanolamine	c
GLYCOCHOLIC_ACID	glycocholate	c
THREO-DS-ISO-CITRATE	D-threo-isocitrate	cp
CH33ADO	5'-deoxyadenosine	p
CPD-110	salicylate	c
CPD0-2121	trans-hex-2-enoyl-CoA	p
CPD-1106	(2-aminoethyl)phosphonate	cp
OH-MYRISTOYL	UDP-2-N,3-O-bis[(3R)-3-hydroxytetradecanoyl]-&alpha;-D-glucosamine	cp
PPI	diphosphate	cp
INDOLE_PYRUVATE	(indol-3-yl)pyruvate	cp
CPD-290	3,5-cyclohexadiene-1,2-diol-1-carboxylate	cp
LINOLEIC_ACID	linoleate	c
CPD-14925	(3Z)-dec-3-enoyl-CoA	p
CPD-294	2-maleylacetate	p
AMINO-HYDROXYMETHYL-METHYLPYRIMIDINE-PP	4-amino-2-methyl-5-(diphosphomethyl)pyrimidine	cp
CPD-14927	phytenate	c
AMINO-OH-HYDROXYMETHYL-DIHYDROPTERIDINE	6-(hydroxymethyl)-7,8-dihydropterin	cp
CPD-14928	phytenoyl-CoA	p
CPD-3	molybdate	c
DNA-Ligase-L-lysine	a [DNA ligase]-L-lysine	cp
CPD-15056	(2Z)-2-aminobut-2-enoate	cp
LINOLENIC_ACID	&alpha;-linolenate	c
CPD-302	D-aspartate	p
PRENAL	3-methyl-2-butenal	p
CPD-15124	(+)-muconolactone	cp
AMINO-RIBOSYLAMINO-1H-3H-PYR-DIONE	5-amino-6-(D-ribitylamino)uracil	cp
DI-H-OROTATE	(S)-dihydroorotate	cp
PREPHENATE	prephenate	cp
CPD-15159	(6R)-6,7-dihydrobiopterin	c
INOSINE	inosine	p
CPD-31	(R)-citramalate	cp
LINOLENOYL-COA	&alpha;-linolenoyl-CoA	p
DIACYLGLYCEROL	a 1,2-diacyl-sn-glycerol	cp
CPD-316	reduced riboflavin	p
DNA-Ligase-L-lysine-adenylate	a [DNA ligase]-N6-(5'-adenylyl)-L-lysine	cp
DIACETYL	diacetyl	c
CPD-15189	chenodeoxycholate	p
AMINOMETHYLDIHYDROLIPOYL-GCVH	a [glycine-cleavage complex H protein] N6-aminomethyldihydrolipoyl-L-lysine	cp
CPD-13014	tributyrin	c
Gcv-H	[glycine cleavage system lipoyl-carrier protein]-L-lysine	c
Double-helix-DNA	a double-helix DNA	c
General-Protein-Substrates	a protein	c
5-METHYL-THF-GLU-N	a 5-methyltetrahydrofolate	cp
ADENOSINE	adenosine	cp
PHENOL	phenol	c
Drugs	a drug	cp
ADENOSINE_DIPHOSPHATE_RIBOSE	ADP-D-ribose	c
5-METHYLTHIOADENOSINE	S-methyl-5'-thioadenosine	c
5-Methylcytosine-DNA	a 5-methylcytosine in DNA	p
Gln-B	a PII protein	c
QUINOLINATE	quinolinate	cp
CPD-1302	5-methyltetrahydropteroyl tri-L-glutamate	cp
cis-vaccen-2-enoyl-ACPs	a (2-trans-11-cis)-vaccen-2-enoyl-[acp]	c
Sulfur-Carrier-Proteins-ThiI	a [ThiI sulfur-carrier protein]-L-cysteine	cp
Glucopyranose	D-glucopyranose	cp
FORMALDEHYDE	formaldehyde	p
ligated-tRNAs-with-2prime-5prime-linkage	a ligated tRNA with a 2'-5' linkage	cp
CPD-13034	(2E)-3-(5,6-dihydroxycyclohexa-1,3-dien-1-yl)prop-2-enoate	p
mRNA-Fragments	an mRNA fragment	p
Sulfurated-Sulfur-Acceptors	a sulfurated [sulfur carrier]	cp
PTS-I-Histidines	a [PTS enzyme I]-L-histidine	cp
PTS-I-pi-phospho-L-histidines	a [PTS enzyme I]-N&pi;-phospho-L-histidine	cp
mRNAs	an mRNA	cp
DNA-N	DNAn	cp
Sulfurylated-ThiI	a [ThiI sulfur-carrier protein]-S-sulfanyl-L-cysteine	cp
mRNAs-with-5-monophosphate	a 5'-phospho-[mRNA]	p
ADENOSYL-HOMO-CYS	S-adenosyl-L-homocysteine	cp
CPD-13040	1,2-dibutyrin	p
Carboxylates	a carboxylate	cp
Glutamine-synthetase-Tyr	a [glutamine-synthetase]-L-tyrosine	c
PUTRESCINE	putrescine	cp
Glutamine-synthetase-adenylyl-Tyr	a [glutamine synthetase]-O4-(5'-adenylyl)-L-tyrosine	p
mRNAs-with-5-triphosphate	a 5' triphospho-[mRNA]	c
CPD-13043	7-carboxy-7-deazaguanine	cp
ADENOSYL-P4	5',5'''-diadenosine tetraphosphate	c
5-P-BETA-D-RIBOSYL-AMINE	5-phospho-&beta;-D-ribosylamine	cp
Glutaryl-ACP-methyl-esters	a glutaryl-[acp] methyl ester	cp
NAcMur-4Peptide-NAcGlc-Undecaprenols	a N-acetylglucosamine--N-acetylmuramyl-(tetrapeptide) pyrophosphoryl-undecaprenol	p
QXC-ACP	a quinoxaline-2-carboxyl-[acyl-carrier protein]	p
PHENYL-PYRUVATE	keto-phenylpyruvate	cp
Alkanesulfonates	an alkylsulfonate	c
Supercoiled-Duplex-DNAs	a supercoiled duplex DNA	c
NAcMur-Peptide-NAcGlc-Undecaprenols	a lipid II	c
FORMAMIDE	formamide	p
NAcMur-Peptide-Undecaprenols	a N-acetylmuramoyl-pentapeptide-diphosphoundecaprenol	p
PHENYLACETALDEHYDE	phenylacetaldehyde	cp
CPD-13227	N,N',N''-triacetylchitotriose	c
T2-C4-DECADIENYL-COA	trans-&Delta;2, cis-&Delta;4-decadienoyl-CoA	c
Pimeloyl-ACP-methyl-esters	a pimeloyl-[acp] methyl ester	p
SER-tRNAs	a tRNAser	c
Pimeloyl-ACPs	a pimeloyl-[acp]	c
CPD-19171	(S)-3-hydroxy-(9Z)-octadecenoyl-CoA	cp
CPD0-2123	3-oxodecanoyl-CoA	cp
T2-DECENOYL-COA	(2E)-dec-2-enoyl-CoA	cp
ACETOACETYL-COA	acetoacetyl-CoA	cp
CPD-5662	9-mercaptodethiobiotin	cp
CPD-19172	(2E,9Z)-octadecenoyl-CoA	cp
Methylated-Ribosomal-Protein-L11s	a methylated ribosomal protein L11	p
Cellular-Retinol-Binding-Proteins	a cellular-retinol-binding protein	p
TARTRATE	L-tartrate	cp
CPD0-2171	(S)-3-hydroxytetradecanoyl-CoA	p
Ceramides	a ceramide	c
Behenoyl-ACPs	a behenoyl-[acp]	cp
CPD-19217	S-(hydroxysulfenamide)-glutathione	p
Cerotoyl-ACPs	a cerotoyl-[acp]	p
3-OXOADIPATE-ENOL-LACTONE	(4,5-dihydro-5-oxofuran-2-yl)-acetate	cp
CPD-57	(R)-10-Hydroxystearate	c
ACETOIN	acetoin	p
GLUCOSAMINE-1P	D-glucosamine 1-phosphate	cp
L-ARGININO-SUCCINATE	L-arginino-succinate	cp
DNA-Segment-Placeholder	a DNA segment	cp
CPD-578	urea-1-carboxylate	cp
Beta-3-hydroxybutyryl-ACPs	a (3R)-3-hydroxybutanoyl-[acp]	p
CPD-19487	3-isopropyl-10-(methylthio)-2-oxodecanoate	cp
DNA-Segment-in-Reverse-Orientations	a DNA segment in reverse orientation	cp
Charged-ALA-tRNAs	an L-alanyl-[tRNAAla]	p
CPD-19488	3-isopropyl-9-(methylthio)-2-oxononanoate	cp
L-ASPARTATE	L-aspartate	cp
Beta-Lactams	a &beta;-lactam	c
SEROTONIN	serotonin	c
Charged-ARG-tRNAs	an L-arginyl-[tRNAArg]	cp
DNA-With-GO-A-Mismatch	DNA with adenine:7,8-dihydro-8-oxoguanine mismatch	c
Beta-hydroxydecanoyl-ACPs	a (3R)-3-hydroxydecanoyl-[acp]	p
CPD-19489	3-isopropyl-8-(methylthio)-2-oxooctanoate	cp
CPD0-2231	dIDP	cp
CPD-19490	3-isopropyl-7-(methylthio)-2-oxoheptanoate	cp
CPD-582	guanylyl molybdenum cofactor	p
L-ASPARTATE-SEMIALDEHYDE	L-aspartate-semialdehyde	cp
CPD-5821	(S)-2-oxo-4-hydroxy-4-carboxy-5-ureidoimidazoline	cp
CPD-19491	3-isopropyl-6-(methylthio)-2-oxohexanoate	cp
TARTRONATE-S-ALD	tartronate semialdehyde	cp
CPD-19492	3-ethyl-2-oxosuccinate	cp
PRISTANATE	pristanate	c
Charged-CYS-tRNAs	an L-cysteinyl-[tRNACys]	cp
3-Oxo-octanoyl-ACPs	a 3-oxo-octanoyl-[acp]	cp
CPD0-2232	(S)-3-hydroxyhexadecanoyl-CoA	p
CPD-8534	DNA without lesion	p
ADENOSYLCOBALAMIN	adenosylcobalamin	cp
MENADIOL	menadiol	p
CPD-17386	(2E,6Z,9Z,12Z,15Z,18Z,21Z)-tetracosaheptaenoyl-CoA	c
UREA	urea	cp
Charged-GLN-tRNAs	an L-glutaminyl-[tRNAGln]	p
COPROPORPHYRINOGEN_I	coproporphyrinogen I	p
CPD-8550	a substituted &beta;-amino acid	p
GLYCOL	ethylene glycol	cp
COPROPORPHYRINOGEN_III	coproporphyrinogen III	p
CPD-8624	a [protein]-L-proline (&omega; = 180)	cp
Charged-GLT-tRNAs	an L-glutamyl-[tRNAGlu]	c
ADENOSYLCOBALAMIN-5-P	adenosylcobalamin 5'-phosphate	cp
Tetradec-2-enoyl-ACPs	a trans tetradec-2-enoyl-[acp]	c
CPD-17387	(3S)-hydroxy-(6Z,9Z,12Z,15Z,18Z,21Z)-tetracosahexaenoyl-CoA	p
CPD-8625	a [protein]-L-proline (&omega; = 0)	cp
GLYCOLALDEHYDE	glycolaldehyde	cp
DNA-containing-a-Apyrimidinic-Sites	an apyrimidinic site in DNA	p
LIPID-IV-A	lipid IVA	p
CPD-8742	(3E)-2-oxohex-3-enedioate	cp
ADENOSYLCOBINAMIDE	adenosylcobinamide	c
3-4-DIHYDROXYBENZOATE	protocatechuate	p
Charged-HIS-tRNAs	an L-histidyl-[tRNAHis]	p
ADENOSYLCOBINAMIDE-GDP	adenosylcobinamide-GDP	cp
HS	hydrogen sulfide	cp
CPD-17388	3-oxo-(6Z,9Z,12Z,15Z,18Z,21Z)-tetracosahexaenoyl-CoA	c
CHITIN	chitin	cp
IS30-Insertion-Sequences	an insertion sequence element IS30	cp
HSCN	thiocyanate	p
Charged-ILE-tRNAs	an L-isoleucyl-[tRNAIle]	p
CHITOBIOSE	N,N'-diacetylchitobiose	cp
CPD-101	&epsilon;-caprolactone	p
IS30-with-Integrated-Transposon	an insertion sequence IS30 with integrated transposon	cp
CPD-8815	2,4-dihydroxybenzoate	c
Charged-LEU-tRNAs	an L-leucyl-[tRNALeu]	cp
Thi-S	a ThiS sulfur-carrier protein	p
CHLORAMPHENICOL	chloramphenicol	cp
ISOBUTYRATE	isobutanoate	c
Charged-LYS-tRNAs	an L-lysyl-[tRNALys]	p
AMMONIUM	ammonium	cp
CHLORAMPHENICOL-3-ACETATE	chloramphenicol 3-acetate	cp
DNA-containing-aPurinic-Sites	an apurinic site within DNA	p
Charged-MET-tRNAs	an L-methionyl-[elongator tRNAMet]	p
MANNOSE-1P	&alpha;-D-mannose 1-phosphate	cp
GLUTAMATE-1-SEMIALDEHYDE	(S)-4-amino-5-oxopentanoate	cp
GLYCOLLATE	glycolate	p
CPD-10267	decanoyl-CoA	cp
ISOBUTYRYL-COA	isobutanoyl-CoA	p
Charged-PHE-tRNAs	an L-phenylalanyl-[tRNAPhe]	c
CPD-17621	16-hydroxypalmitoyl-CoA	p
3-5-ADP	adenosine 3',5'-bisphosphate	cp
CPD-8891	(R)-propane-1,2-diol	p
ADENOSYLCOBINAMIDE-P	adenosyl-cobinamide phosphate	p
MESO-DIAMINOPIMELATE	meso-diaminopimelate	cp
DNA-containing-abasic-Sites	a DNA containing an apurinic/apyrimidinic site	c
Charged-PRO-tRNAs	an L-prolyl-[tRNAPro]	p
MESO-TARTRATE	meso-tartrate	cp
AMP	AMP	cp
CPD-10269	palmitoleoyl-CoA	cp
LIPOIC-ACID	(R)-lipoate	c
Thiocarboxyadenylated-ThiS-Proteins	a thiocarboxy-[ThiS-Protein]	c
Charged-SER-tRNAs	an L-seryl-[tRNAser]	p
CPD-17624	&omega;-carboxy-(9Z)-octadec-9-enoyl-CoA	p
URIDINE	uridine	p
CPD-10284	3-oxo-myristoyl-CoA	c
LIPOYL-AMP	lipoyl-adenylate	cp
CPD-8978	ethylphosphate	c
Thiols	a thiol	p
CPD-17637	7-hydroxylaurate	c
Charged-THR-tRNAs	an L-threonyl-[tRNAThr]	p
DNA-deoxycytidine-dimer	a dimer of non-adjacent 2'-deoxycytidines in DNA	c
MET	L-methionine	cp
Charged-TRP-tRNAs	an L-tryptophanyl-[tRNATrp]	p
Alkyl-Hydro-Peroxides	an organic hydroperoxide	c
2-METHYLMALEATE	citraconate	cp
DIAMINO-OH-PHOSPHORIBOSYLAMINO-PYR	2,5-diamino-6-(5-phospho-D-ribosylamino)pyrimidin-4(3H)-one	c
Charged-TYR-tRNAs	an L-tyrosyl-[tRNATyr]	p
Glycerophosphodiesters	a glycerophosphodiester	c
Alkyl-Thiols	an alkyl-thiol	cp
Charged-VAL-tRNAs	an L-valyl-[tRNAVal]	p
Charged-fMET-tRNAs	an N-formyl-L-methionylaminoacyl-tRNA	c
ISOCHORISMATE	isochorismate	c
Quinones	a quinone	c
CPD-11281	S-sulfanylglutathione	c
2-Me-Branched-234-Sat-FA	a 2-methyl branched 2,3,4-saturated fatty acid	c
R-2-Haloacids	an (R)-2-haloacid	c
2-Me-Branched-234-Sat-Fatty-Acyl-CoA	a 2-methyl branched 2,3,4-saturated fatty acyl-CoA	p
R-2-Hydroxyacids	an (R)-2-hydroxyacid	p
DIAMINONONANOATE	7,8-diaminopelargonate	c
Guanine34-in-tRNAs	a guanine34 in tRNA	c
Guanine46-in-tRNA	a guanine46 in tRNA	c
DNA-deoxycytidine-thymidine-dimer	a dimer of non-adjacent 2'-deoxycytidine and thymidine in DNA	c
R-3-Hydroxypalmitoyl-ACPs	a (3R)-3-hydroxypalmitoyl-[acp]	p
H2CO3	carbonic acid	cp
R-3-hydroxy-cis-vaccenoyl-ACPs	(R)-3-hydroxy-cis-vacc-11-enoyl-[acp]	p
DNA-pyrimidines	a pyrimidine nucleoside in DNA	p
CPD-1130	3-ethylmalate	cp
R-3-hydroxyarachidoyl-ACPs	a (3R)-3-hydroxyarachidoyl-[acp]	p
All-tRNAs	a tRNA	p
2-OCTAPRENYL-6-HYDROXYPHENOL	3-(all-trans-octaprenyl)benzene-1,2-diol	cp
Chlorides	an organochlorine compound	p
R-3-hydroxybehenoyl-ACPs	a (3R)-3-hydroxybehenoyl-[acp]	p
CPD-11444	uroporphyrinogen-I	c
All-trans-Retinyl-Esters	an all-trans-retinyl ester	p
R-3-hydroxycerotoyl-ACPs	a (3R)-3-hydroxycerotoyl-[acp]	p
3OH-4P-OH-ALPHA-KETOBUTYRATE	(3R)-3-hydroxy-2-oxo-4 phosphooxybutanoate	cp
R-3-hydroxydodecanoyl-ACPs	a (3R)-3-hydroxydodecanoyl-[acp]	p
R-3-hydroxyhexanoyl-ACPs	a (3R)-3-hydroxyhexanoyl-[acp]	p
DNA-thymidine-deoxycytidine-dimer	a dimer of non-adjacent thymidine and 2'-deoxycytidine in DNA	c
2-OCTAPRENYL-6-METHOXYPHENOL	2-methoxy-6-(all-trans-octaprenyl)phenol	p
3-CARBOXY-3-HYDROXY-ISOCAPROATE	(2S)-2-isopropylmalate	cp
R-3-hydroxylignoceroyl-ACPs	a (3R)-3-hydroxylignoceroyl-[acp]	p
CPD-11495	(2-hydroxyphenyl)acetate	p
R-3-hydroxymyristoyl-ACPs	a (3R)-3-hydroxymyristoyl-[acp]	cp
Alpha-hydroxyphytoceramides	a (2'R)-2'-hydroxy-phytoceramide	cp
R-3-hydroxypetroselinoyl-ACPs	a (3R)-3-hydroxypetroselinoyl-[acp]	p
DNA-thymidine-dimer	a dimer of non-adjacent thymidines in DNA	c
SHIKIMATE	shikimate	cp
SHIKIMATE-5P	shikimate 3-phosphate	cp
R-3-hydroxystearoyl-ACPs	a (3R)-3-hydroxystearoyl-[acp]	p
3R-11Z-3-hydroxy-icos-11-enoyl-ACPs	a (3R,11Z)-3-hydroxy-icos-11-enoyl-[acp]	p
R-4-PHOSPHOPANTOTHENOYL-L-CYSTEINE	(R)-4'-phosphopantothenoyl-L-cysteine	c
ACETONE	acetone	p
OH-PYR	hydroxypyruvate	cp
CPD-320	ethylnitronate	c
CPD-13339	(2Z,4E)-2-hydroxyhexa-2,4-dienedioate	cp
CPD0-2244	(S)-3-hydroxydecanoyl-CoA	cp
DNA-thymidines	a thymidine in DNA	p
CPD-592	4-guanidinobutanoate	p
CPD-13357	(2R)-2,3-dihydroxy-3-methylbutanoate	cp
FORMATE	formate	p
CPD0-2350	a polycistronic tRNA precursor	cp
CPD0-2351	a tRNA precursor with a 5' extension and a long 3' trailer	p
CPD-602	5-amino-6-(5-phospho-D-ribosylamino)uracil	cp
CPD0-2352	a tRNA precursor with a 5' extension and a short 3' extension	cp
CPD-321	3-aci-nitropropanoate	c
CPD0-2353	a tRNA precursor with a short 3' extension	cp
CPD0-2354	a tRNA precursor with a 5' extension	p
DNA-with-Uracils	a uracil in DNA	c
CPD-13524	all-trans-retinol	p
Cis-Delta5-dodecenoyl-ACPs	a (5Z)-dodec-5-enoyl-[acp]	cp
CPD-618	(2R,3S)-2-methylisocitrate	cp
Cis-Delta7-tetradecenoyl-ACPs	a cis-&Delta;7-tetradecenoyl-[acp]	cp
CPD-13534	3-oxopentanoyl-CoA	c
CPD0-2472	(R)-NADHX	c
CHOLATE	cholate	p
FORMYL-L-METHIONYL-PEPTIDE	a [protein] N-terminal-formyl-L-methionine	c
CPD-335	(R)-3-hydroxybutanoate	cp
Cis-delta-3-decenoyl-ACPs	a (3Z)-dec-3-enoyl-[acp]	c
FORMYL-THF-GLU-N	an N10-formyl-tetrahydrofolate	cp
CPD-622	(2S,3S)-2-methylcitrate	cp
Cis-vaccenoyl-ACPs	a cis-vaccenoyl-[acp]	p
CPD-358	(R)-lactaldehyde	c
CPD0-2474	(S)-NADPHX	p
CPD-13575	2-[(2R,5Z)-2-carboxy-4-methylthiazol-5(2H)-ylidene]ethyl phosphate	cp
CHOLINE	choline	cp
Citrate-Lyase-Citryl-Form	a citryl-holo [citrate lyase acyl-carrier protein]	cp
CPD-650	(3R)-3-hydroxybutanoyl-CoA	cp
CPD0-881	N-acetyl-D-muramate 6-phosphate	p
CPD-13576	2-(2-carboxy-4-methylthiazol-5-yl)ethyl phosphate	c
THZ-P	4-methyl-5-(2-phosphooxyethyl)thiazole	cp
CPD-15244	3-oxo-(5Z)-tetradecenoyl-CoA	c
CPD-17638	7-hydroxylauroyl-CoA	p
DODECANOATE	laurate	c
CPD-10329	&alpha;-L-fucopyranose	cp
CPD-17640	18-hydroxystearate	c
PHENYLACETATE	phenylacetate	cp
HX	HX	p
THZ	5-(2-hydroxyethyl)-4-methylthiazole	cp
PRO	L-proline	cp
5-P-RIBOSYL-N-FORMYLGLYCINEAMIDE	N2-formyl-N1-(5-phospho-&beta;-D-ribosyl)glycinamide	c
rRNA-fragments	an rRNA fragment	p
PRO-tRNAs	a tRNAPro	c
CPD-17641	18-hydroxystearoyl-CoA	p
CPD-15301	caldariellaquinol	p
5-PHOSPHO-RIBOSYL-GLYCINEAMIDE	N1-(5-phospho-&beta;-D-ribosyl)glycinamide	p
NIACINAMIDE	nicotinamide	c
CPD-15317	D-ribofuranose 5-phosphate	p
CPD-1772	2-aminoacetaldehyde	p
CPD-15360	2-sulfanyl-N6-dimethylallyladenosine37 in tRNA	cp
DPG	3-phospho-D-glyceroyl-phosphate	cp
ACETYL-ACP	an acetyl-[acp]	c
HYDROGEN-PEROXIDE	hydrogen peroxide	cp
ssDNA-RNA-primer-hybrid	an ssDNA/RNA primer hybrid	p
5-PHOSPHORIBOSYL-5-AMINOIMIDAZOLE	5-amino-1-(5-phospho-&beta;-D-ribosyl)imidazole	cp
ssRNAs	a single-stranded RNA	cp
CPD-15384	L-alanyl-&gamma;-D-glutamyl-L-lysyl-D-alanyl-D-alanine	cp
CPD-17813	(2E,11Z)-hexadec-2,11-dienoyl-CoA	c
PHENYLACETOTHIOHYDROXIMATE	(Z)-N-hydroxy-2-phenylacetimidothioate	cp
tRNA-2-thiouridine34	a 2-thiouridine34 in tRNA	p
CPD-17814	(11Z)-(S)-3-hydroxyhexadec-11-enoyl-CoA	p
CPD-15435	L-threonylcarbamoyladenylate	cp
10-FORMYL-DIHYDROFOLATE-GLU-N	an N10-formyldihydrofolate	c
NIACINE	nicotinate	cp
PROPANE-1-2-DIOL	(S)-propane-1,2-diol	cp
5-PHOSPHORIBOSYL-N-FORMYLGLYCINEAMIDINE	2-(formamido)-N1-(5-phospho-&beta;-D-ribosyl)acetamidine	cp
CPD-15436	(5Z)-tetradecenoyl-CoA	cp
ACETYL-COA	acetyl-CoA	cp
11-Cis-Retinyl-Esters	an 11-cis-retinyl ester	p
CPD-17926	a nascent peptidoglycan with (L-alanyl-&gamma;-D-glutamyl-meso-2,6-diaminopimeloyl-D-alanine) tetrapeptide	cp
CPD-15539	phenyl 5-phospho-&alpha;-D-ribofuranoside	c
ERYTHRONATE-4P	4-phospho-D-erythronate	cp
CPD-17927	a nascent peptidoglycan with (L-alanyl-&gamma;-D-glutamyl-meso-2,6-diaminopimeloyl-D-alanyl-D-alanine) pentapeptide	cp
tRNA-Adenosines-37	an adenosine37 in tRNA	c
ANTHRANILATE	anthranilate	cp
11Z-3-oxo-icos-11-enoyl-ACPs	an (11Z)-3-oxo-icos-11-enoyl-[acp]	cp
CPD-17931	a peptidoglycan with (L-alanyl-&gamma;-D-glutamyl-meso-2,6-diaminopimeloyl-D-alanine) tetrapeptide	c
CPD-17932	a nascent peptidoglycan with D,D cross-links (meso-diaminopimelate containing)	p
tRNA-Containing-N7-Methylguanine-46	an N7-methylguanine46 in tRNA	p
5-Phospho-terminated-DNAs	a 5'-phospho-[DNA]	cp
ERYTHROSE-4P	D-erythrose 4-phosphate	cp
CPD-19493	S-(mercaptomethyl)-L-cysteine	p
CPD-11518	3-oxo-2-(cis-2'-pentenyl)-cyclopentane-1-(E-octa-2-enoyl)-CoA	c
11Z-icos-11-enoyl-ACPs	a gondoyl-[acp]	p
3-P-HYDROXYPYRUVATE	3-phosphooxypyruvate	cp
Monocarboxylates	a monocarboxylate	p
Butanoyl-ACPs	a butanoyl-[acp]	cp
URIDYLYL-PROTEIN-PII	a uridylylated PII protein	p
Monocarboxylic-Acid-Amides	a monocarboxylic acid amide	c
CPD-195	octanoate	c
3-P-SERINE	3-phospho-L-serine	cp
CPD-9151	3-chlorocatechol	p
Trans-3-enoyl-CoAs	a (3E)-alkan-3-enoyl-CoA	cp
Amino-Acids-20	a proteinogenic amino acid	p
CPD-11519	3-oxo-2-(cis-2'-pentenyl)-cyclopentane-1-(3R-hydroxyoctanoyl)-CoA	cp
Trans-D2-decenoyl-ACPs	a (2E)-dec-2-enoyl-[acp]	c
C1	UDP-N-acetyl-&alpha;-D-muramoyl-L-alanyl-&gamma;-D-glutamyl-meso-2,6-diaminopimeloyl-D-alanyl-D-alanine	cp
UROCANATE	urocanate	cp
CPD-11520	3-oxo-2-(cis-2'-pentenyl)-cyclopentane-1-(3-oxooctanoyl)-CoA	cp
Trans-D2-hexacos-2-enoyl-ACPs	a trans-hexacos-2-enoyl-[acp]	c
CPD-196	octanoyl-CoA	p
Trans-D3-cis-D5-dodecenoyl-ACPs	a (3E,5Z)-dodeca-3,5-dienoyl-[acp]	c
Crotonyl-ACPs	a crotonyl-[acp]	c
CPD-9152	4-chlorocatechol	p
CPD-19695	UDP-4-amino-D-fucose	cp
ETF-Oxidized	an oxidized electron-transfer flavoprotein	cp
Trans-D3-cis-D7-tetradecenoyl-ACPs	a trans-&Delta;3-cis-&Delta;7-tetradecenoyl-[acp]	c
CPD-11521	3-oxo-2-(cis-2'-pentenyl)-cyclopentane-1-hexanoyl-CoA	p
Cyclic-2-3-Ribonucleoside-Monophosphates	a ribonucleoside 2',3'-cyclic phosphate	c
Trans-D3-cis-D9-hexadecenoyl-ACPs	a trans-&Delta;3-cis-&Delta;9-hexadecenoyl-[acp]	c
16-HYDROXYPALMITATE	16-hydroxypalmitate	c
L-BETA-ASPARTYL-P	L-aspartyl-4-phosphate	cp
Pre-tRNA-3-prime-half-molecules	a 3'-half-tRNA molecule with a 5'-OH end	cp
C3	UDP-N-acetyl-&alpha;-D-muramoyl-L-alanyl-&gamma;-D-glutamyl-L-lysyl-D-alanyl-D-alanine	p
Triacylglycerides	a triglyceride	c
Pre-tRNA-5-prime-half-molecules	a 5'-half-tRNA molecule with a 2',3'-cyclic phosphate end	cp
CPD-11522	3-oxo-2-(cis-2'-pentenyl)-cyclopentane-1-(E-hexa-2-enoyl)-CoA	c
3-PHENYLPROPIONATE	3-phenylpropanoate	c
CPD-9245	palmitoleate	c
L-CITRULLINE	L-citrulline	cp
Myristoyl-ACPs	a myristoyl-[acp]	cp
N-5-PHOSPHORIBOSYL-ANTHRANILATE	N-(5-phosphoribosyl)-anthranilate	cp
ETF-Reduced	a reduced electron-transfer flavoprotein	cp
Cyclic-3-5-Nucleoside-Monophosphates	a nucleoside cyclic 3',5'-monophosphate	c
CPD-9247	cis-vaccenate	c
TusE-L-cysteine	a [TusE sulfur carrier protein]-L-cysteine	p
CPD-11523	3-oxo-2-(cis-2'-pentenyl)-cyclopentane-1-(3R-hydroxyhexanoyl)-CoA	cp
TusE-S-sulfanylcysteine	a [TusE sulfur carrier protein]-S-sulfanylcysteine	c
3-Phosphomonucleotides	a ribonucleoside 3'-phosphate	p
Prolipoprotein-Cysteines	a [prolipoprotein]-L-cysteine	c
C4	undecaprenyl-diphospho-N-acetylmuramoyl-L-alanyl-&gamma;-D-glutamyl-L-lysyl- D-alanyl-D-alanine	c
N-ACETYL-D-GLUCOSAMINE	N-acetyl-&beta;-D-glucosamine	p
N-ACETYL-D-GLUCOSAMINE-1-P	N-acetyl-&alpha;-D-glucosamine 1-phosphate	cp
SIROHEME	siroheme	p
CPD-11524	3-oxo-2-(cis-2'-pentenyl)-cyclopentane-1-(3-oxohexanoyl)-CoA	cp
L-CYSTATHIONINE	L-cystathionine	c
16S-rRNA-N2-methylguanine966	an N2-methylguanine966 in 16S rRNA	p
Arachidoyl-ACPs	an arachidoyl-[acp]	cp
16S-rRNA-N4-methylcytidine1402	an N4-methylcytidine1402  in 16S rRNA	p
UDP	UDP	cp
GLYOX	glyoxylate	cp
16S-rRNA-N7-methylguanine527	an N7-methylguanine527 in 16S rRNA	p
CPD-9451	2-isopropylmaleate	cp
ETHANOL-AMINE	ethanolamine	cp
RH-Group	an organic molecule	c
UDP-4-AMINO-4-DEOXY-L-ARABINOSE	UDP-4-amino-4-deoxy-&beta;-L-arabinopyranose	cp
16S-rRNA-cytidine1402	a cytidine1402 in 16S rRNA	c
CPD-11525	3-oxo-2-(cis-2'-pentenyl)-cyclopentane-1-butanoyl-CoA	p
Aromatic-Amino-Acids	an aromatic amino acid	cp
16S-rRNA-guanine-527	a guanine527 in 16S rRNA	c
Cyclic-Phosphate-Terminated-RNAs	an [RNA]-3'-ribunucleoside-2',3'-cyclophosphate	p
3-Prime-Phosphate-Terminated-RNAs	an [RNA]-3'-ribonucleoside-3'-phosphate	c
16S-rRNA-guanine-966	a guanine966 in 16S rRNA	c
Protein-Disulfides	a protein disulfide	cp
Aromatic-Oxoacids	an aromatic 2-oxo-acid	cp
16S-rRNA-pseudouridine516	a 16S rRNA pseudouridine516	p
C5	undecaprenyldiphospho-N-acetylmuramoyl-L-alanyl-&gamma;-D-glutamyl-meso-2,6-diaminopimeloyl-D-alanyl-D-alanine	cp
3-hydroxy-cis-D7-tetraecenoyl-ACPs	a (3R)-3-hydroxy cis &Delta;7-tetradecenoyl-[acp]	p
Protein-Dithiols	a protein dithiol	p
16S-rRNA-uridine516	a uridine516 in 16S rRNA	c
3-hydroxy-cis-D9-hexaecenoyl-ACPs	a (3R)-3-hydroxy cis &Delta;9-hexadecenoyl-[acp]	p
CPD-11526	3-oxo-2-(cis-2'-pentenyl)-cyclopentane-1-(E-buta-2-enoyl)-CoA	c
SIROHYDROCHLORIN	sirohydrochlorin	c
C6	ditrans,octacis-undecaprenyldiphospho-[(N-acetyl-&beta;-D-glucosaminyl)-(1,4)-]-N-acetyl-&alpha;-D-muramoyl-L-alanyl-&gamma;-D-glutamyl-meso-2,6-diaminopimeloyl-D-alanyl-D-alanine	cp
3-hydroxypimeloyl-ACP-methyl-esters	a (3R)-3-hydroxypimeloyl-[acp] methyl ester	p
N-ACETYL-GLUTAMYL-P	N-acetylglutamyl-phosphate	cp
CPD-3617	decanoate	c
CPD0-882	1,6-anhydro-N-acetyl-&beta;-muramate	cp
ASN	L-asparagine	c
3-DEHYDRO-SHIKIMATE	3-dehydroshikimate	cp
CPD-3618	2-oxovalerate	p
TMP	dTMP	cp
PROPIONAMIDE	propionamide	c
FRU1P	&beta;-D-fructofuranose 1-phosphate	c
Cysteine-Desulfurase-L-cysteine	an [L-cysteine desulfurase]-L-cysteine	cp
METHACRYLYL-COA	methylacrylyl-CoA	cp
CPD3DJ-82	a dihydroceramide	cp
Cytidine-34-tRNAIle2	a cytidine34 in tRNAIle2	c
PROPIONATE	propanoate	p
DIHYDRO-DIOH-BENZOATE	(2S,3S)-2,3-dihydroxy-2,3-dihydrobenzoate	p
CPD-3706	adenosine 3'-monophosphate	p
CPD66-39	a 2,3,4-saturated fatty acid	c
CPDQT-27	6-(methylthio)-2-oxohexanoate	p
DIHYDRO-NEO-PTERIN	7,8-dihydroneopterin	c
PROPIONYL-COA	propanoyl-CoA	cp
FRUCTOSE-16-DIPHOSPHATE	&beta;-D-fructose 1,6-bisphosphate	cp
CPDQT-28	7-(methylthio)-2-oxoheptanoate	p
CPD-3707	adenosine 2',3'-cyclic monophosphate	c
TRANS-2-CHLORO-4-CARBOXYMETHYLENEBUT-2-E	2-chloro-trans-dienelactone	c
CPDQT-29	8-(methylthio)-2-oxooctanoate	p
FRUCTOSE-6P	&beta;-D-fructofuranose 6-phosphate	cp
OLEATE-CPD	oleate	cp
CPDQT-30	9-(methylthio)-2-oxononanoate	p
CPD-3708	guanosine 3'-monophosphate	p
TRANS-23-DEHYDROADIPYL-COA	trans-2,3-dehydroadipyl-coA	cp
HCN	hydrogen cyanide	c
CPDQT-36	3-[(3'-methylthio)propyl]malate	cp
Cytochromes-C-Oxidized	an oxidized c-type cytochrome	cp
3-DEOXY-D-ARABINO-HEPTULOSONATE-7-P	3-deoxy-D-arabino-heptulosonate 7-phosphate	cp
3R-5Z-3-hydroxy-tetradec-5-enoyl-ACPs	a (3R,5Z)-3-hydroxy-tetradec-5-enoyl-[acp]	p
HYDROXY-METHYL-BUTENYL-DIP	(E)-4-hydroxy-3-methylbut-2-en-1-yl diphosphate	cp
DUDP	dUDP	c
2-OCTAPRENYLPHENOL	2-octaprenylphenol	c
3R-7Z-3-hydroxy-hexadec-7-enoyl-ACPs	a (3R,7Z)-3-hydroxy-hexadec-7-enoyl-[acp]	p
Cytochromes-C-Reduced	a reduced c-type cytochrome	cp
LL-DIAMINOPIMELATE	L,L-diaminopimelate	cp
3R-9Z-3-hydroxy-octadec-9-enoyl-ACPs	a (3R,9Z)-3-hydroxy-octadec-9-enoyl-[acp]	p
CPD-13578	aminomethylpyrimidine	c
2-OH-3-Methyl-Saturated-Fatty-Acyl-CoA	a 2-hydroxy-3-methyl-branched 2,3,4-saturated fatty acyl-CoA	p
CHORISMATE	chorismate	cp
3Z-dodec-3-enoyl-ACPs	a (3Z)-dodec-3-enoyl-[acp]	c
2-OXOBUTANOATE	2-oxobutanoate	cp
CPD-13612	D-erythro-sphinganine	cp
HYDROXYMETHYLBILANE	preuroporphyrinogen	cp
2-Octenoyl-ACPs	a trans oct-2-enoyl-[acp]	c
CPD-13689	(25S)-3-oxocholest-4-en-26-oate	c
P3I	PPPi	p
D-3-HYDROXYACYL-COA	a (3R)-3-hydroxyacyl-CoA	cp
LYS	L-lysine	cp
4-AMINO-4-DEOXYCHORISMATE	4-amino-4-deoxychorismate	cp
LYS-tRNAs	a tRNALys	c
D-ALA-D-ALA	D-alanyl-D-alanine	cp
CPD-13691	(25S)-3-oxocholest-4-en-26-oyl-CoA	p
2-Oxo-carboxylates	a 2-oxo carboxylate	p
2-PG	2-phospho-D-glycerate	cp
CPD-13694	24-hydroxy-3-oxocholest-4-en-26-oyl-CoA	c
4-AMINO-BUTYRATE	4-aminobutanoate	cp
HYPOXANTHINE	hypoxanthine	c
2-PHOSPHO-4-CYTIDINE-5-DIPHOSPHO-2-C-MET	2-phospho-4-(cytidine 5'-diphospho)-2-C-methyl-D-erythritol	cp
Protein-Histidines	a [protein]-L-histidine	cp
tRNA-Dihydrouridines	a 5,6-dihydrouridine in tRNA	p
CPD-653	(S)-NADHX	p
UDP-AA-GLUTAMATE	UDP-N-acetyl-&alpha;-D-muramoyl-L-alanyl-D-glutamate	cp
D-ALANINE	D-alanine	cp
SN-GLYCEROL-1-PHOSPHATE	sn-glycerol 1-phosphate	p
Protein-L-Aspartates	a [protein]-L-aspartate	c
UDP-AAGM-DIAMINOHEPTANEDIOATE	UDP-N-acetyl-&alpha;-D-muramoyl-L-alanyl-&gamma;-D-glutamyl-meso-2,6-diaminopimelate	cp
APS	adenosine 5'-phosphosulfate	cp
NICOTINAMIDE_NUCLEOTIDE	&beta;-nicotinamide D-ribonucleotide	cp
CPD-10437	dimethyl sulfone	c
tRNA-Sec	a tRNAsec	c
UDP-ACETYL-CARBOXYVINYL-GLUCOSAMINE	UDP-N-acetyl-&alpha;-D-glucosamine-enolpyruvate	cp
OLEOYL-COA	oleoyl-CoA	cp
ARABINOSE-5P	aldehydo-D-arabinose 5-phosphate	cp
NICOTINAMIDE_RIBOSE	1-(&beta;-D ribofuranosyl)nicotinamide	p
CPD-654	2,5-dioxopentanoate	c
DUMP	dUMP	cp
Protein-L-glutamine	a [protein]-L-glutamine	c
SO3	sulfite	cp
tRNA-containing-5Me-uridine54	a 5-methyluracil54 in tRNA	p
ADENYLOSUCC	adenylo-succinate	cp
Protein-L-lysine	a [protein]-L-lysine	c
CPD-10576	4-chlorosalicylate	c
CPD-66	2-hydroxy-3-oxosuccinate	cp
tRNA-fragment	a tRNA fragment	p
OLIGOPEPTIDES	an oligopeptide	c
Protein-L-methionine	a [protein]-L-methionine	cp
CPD-10598	4-hydroxyacetophenone	c
DUTP	dUTP	cp
CAMP	cyclic-AMP	p
CPD-663	UDP-4-dehydro-6-deoxy-&alpha;-D-glucose	cp
Protein-L-methionine-R-S-oxides	a protein-L-methionine-(R)-S-oxide	cp
tRNA-precursors	a tRNA precursor	c
tRNA-uridine34	a uridine34 in tRNA	c
CANAVANINE	L-canavanine	p
UDP-GLUCURONATE	UDP-&alpha;-D-glucuronate	p
Protein-L-methionine-S-S-oxides	a protein-L-methionine-(S)-S-oxide	c
tRNA-uridines	a uridine in tRNA	c
ARG	L-arginine	cp
tRNA-with-7-aminomethyl-7-deazaguanine	a 7-aminomethyl-7-deazaguanosine34 in tRNA	cp
UDP-MURNAC-TETRAPEPTIDE	UDP-N-acetylmuramoyl-L-alanyl-&gamma;-D-glutamyl-meso-2,6-diaminopimeloyl-D-alanine	cp
CPD-10600	4-hydroxybenzoyl-acetyl-CoA	cp
SPERMIDINE	spermidine	cp
CPD-667	O-acetyl-L-homoserine	cp
Protein-L-serine-or-L-threonine	a [protein]-(L-serine/L-threonine)	c
NICOTINATE_NUCLEOTIDE	&beta;-nicotinate D-ribonucleotide	cp
tRNAs	an uncharged tRNA	p
CPD-10608	trans-dienelactone	c
tRNAs-containing-epoxy-quenosine	an epoxyqueuosine34 in tRNA	cp
ARG-tRNAs	a tRNAArg	cp
tRNAs-with-CCA	a tRNA containing a 3' CCA end	p
OROTATE	orotate	cp
Protein-N-terminal-L-Arginine	an N-terminal arginyl-[protein]	cp
CANAVANINOSUCCINATE	canavaninosuccinate	cp
GLUTARYL-COA	glutaryl-CoA	p
SPHINGOSINE	sphingosine	p
UDP-N-ACETYL-D-GLUCOSAMINE	UDP-N-acetyl-&alpha;-D-glucosamine	cp
tRNAs-with-queuine	a queuosine34 in tRNA	p
CPD-67	2-phosphoglycolate	c
Protein-N-terminal-L-Lysine	an N-terminal L-lysyl-[protein]	c
RIBOFLAVIN	riboflavin	cp
CPD-17947	a nascent peptidoglycan with L,D cross links (meso-diaminopimelate containing)	p
CPD-11527	3-oxo-2-(cis-2'-pentenyl)-cyclopentane-1-(3R-hydroxybutanoyl)-CoA	cp
DIHYDROFOLATE	7,8-dihydrofolate monoglutamate	p
D-Amino-Acids	a D-amino acid	c
DIHYDROFOLATE-GLU-N	a 7,8-dihydrofolate	cp
Red-Glutaredoxins	a reduced glutaredoxin	c
CPD-15551	methanesulfinate	p
4-CARBOXYMETHYLENEBUT-2-EN-4-OLIDE	cis-dienelactone	c
L-CYSTEATE	L-cysteate	cp
CPD-19761	2,6-dichloro-3-(glutathione-S-yl)-hydroquinone	p
CPD-11528	3-oxo-2-(cis-2'-pentenyl)-cyclopentane-1-(3-oxobutanoyl)-CoA	cp
Red-Thioredoxin	a reduced thioredoxin	cp
L-Cysteine-Desulfurase-persulfide	an [L-cysteine desulfurase]-S-sulfanyl-L-cysteine	cp
CPD-19763	2,3,5-trichloro-6-(glutathione-S-yl)-hydroquinone	p
CPD-15566	(2E,4E)-tetradecadienoyl-CoA	c
Reduced-2Fe-2S-Ferredoxins	a reduced [2Fe-2S] ferredoxin	c
CPD-11529	(+)-7-epi-jasmonoyl-CoA	p
Reduced-Factor-F420	a reduced coenzyme F420	cp
D-ERYTHRO-IMIDAZOLE-GLYCEROL-P	D-erythro-imidazole-glycerol-phosphate	c
ACETYL-GLU	N-acetyl-L-glutamate	cp
CPD-15567	(3E)-tetradec-3-enoyl-CoA	cp
CPD-11592	2-methylsulfanyl-N6-dimethylallyladenosine37 in tRNA	p
L-Cysteine-Desulfurases	an [L-cysteine desulfurase]	c
HCO3	hydrogencarbonate	cp
L-DELTA1-PYRROLINE_5-CARBOXYLATE	(S)-1-pyrroline-5-carboxylate	cp
CPD-19833	roseoflavin	c
CPD-18	linoleoyl-CoA	p
D-GLT	D-glutamate	cp
Reduced-Rubredoxins	a reduced rubredoxin	cp
CPD-15568	2E)-tetradec-2-enoyl-CoA	cp
CPD-11643	two adjacent thymidines in DNA	p
FUM	fumarate	cp
CPD-19839	roseoflavin 5'-phosphate	cp
4-CYTIDINE-5-DIPHOSPHO-2-C	4-(cytidine 5'-diphospho)-2-C-methyl-D-erythritol	cp
ACETYL-P	acetyl phosphate	cp
Reduced-ferredoxins	a reduced ferredoxin [iron-sulfur] cluster	cp
CPD-18105	4-methylphenyl 5-phospho-&alpha;-D-ribofuranoside	c
CPD-15654	2-trans, 4-cis-undecadienoyl-CoA	c
L-GAMMA-GLUTAMYLCYSTEINE	&gamma;-L-glutamyl-L-cysteine	cp
CPD-19840	roseoflavin adenine dinucleotide	p
4-FUMARYL-ACETOACETATE	4-fumaryl-acetoacetate	cp
CPD-18118	D-arabinofuranose 5-phosphate	c
CPD-11770	7,8-dihydromonapterin	c
Relaxed-DNAs	a relaxed DNA	cp
CPD-20047	(2Z,3Z)-deca-2,3-dienoyl-N-acetylcysteamine	cp
Resolution-of-Recombinational-Junction	resolution of recombinational junction formation of two intact strands	p
CPD-15655	(3E)-undec-3-enoyl-CoA	cp
ISOVALERATE	isovalerate	c
CPD-201	4-hydroxybenzoyl-CoA	cp
CPD-18238	carboxyphosphate	cp
N-ALPHA-ACETYLORNITHINE	N-acetyl-L-ornithine	cp
CPD-15656	(3E)-undec-2-enoyl-CoA	cp
CPD-11997	decaprenyl-diphospho-N-acetylmuramoyl-pentapeptide	c
DIHYDROLIPOYL-GCVH	a [glycine-cleavage complex H protein] N6-dihydrolipoyl-L-lysine	cp
Rhodoquinols	a rhodoquinol	c
CPD-18320	5-methylbenzimidazole	c
CPD-11998	decaprenyl-pyrophosphoryl-(N-acetylglucosamine)-N-acetylmuramyl-(pentapeptide)	p
Rhodoquinones	a rhodoquinone	p
DIHYDRONEOPTERIN-P3	7,8-dihydroneopterin 3'-triphosphate	cp
4-GUANIDO-BUTYRAMIDE	4-guanidinobutyramide	c
3-oxo-arachidoyl-ACPs	a 3-oxo-arachidoyl-[acp]	cp
CPD-9612	caldariellaquinone	c
UROPORPHYRINOGEN-III	uroporphyrinogen-III	cp
TRANS-3-METHYL-GLUTACONYL-COA	3-methylglutaconyl-CoA	p
CPDQT-37	3-[(4'-methylthio)butyl]malate	cp
Aryl-sulfates	an aryl sulfate	c
18-HYDROXYOLEATE	18-hydroxyoleate	c
3-oxo-behenoyl-ACPs	a 3-oxo-behenoyl-[acp]	cp
3-oxo-cerotoyl-ACPs	a 3-oxo-cerotoyl-[acp]	cp
CPDQT-38	3-[(5'-methylthio)pentyl]malate	cp
3-oxo-cis-D7-tetradecenoyl-ACPs	a 3-oxo-cis-&Delta;7-tetradecenoyl-[acp]	cp
TRANS-D2-ENOYL-ACP	a trans-2-enoyl-[acyl-carrier protein]	cp
D-GLUCOSAMINE-6-P	D-glucosamine 6-phosphate	cp
3-oxo-cis-D9-hexadecenoyl-ACPs	a 3-oxo-cis-&Delta;9-hexadecenoyl-[acp]	cp
CPD-3709	guanosine 2',3'-cyclic monophosphate	c
TRANS-D2-ENOYL-COA	a (2E)-alkan-2-enoyl-CoA	cp
CPDQT-39	3-[(6'-methylthio)hexyl]malate	cp
ISOVALERYL-COA	isovaleryl-CoA	p
3-oxo-cis-vaccenoyl-ACPs	a 3-oxo-cis-vacc-11-enoyl-[acp]	c
B-ALANINE	&beta;-alanine	cp
3-oxo-decanoyl-ACPs	a 3-oxo-decanoyl-[acp]	cp
CPD-9956	ubiquinol-8	p
CPDQT-40	3-[(7'-methylthio)heptyl]malate	cp
CPDQT-406	S-5-methylthiopentylhydroximoyl-L-cysteine	cp
3-oxo-dodecanoyl-ACPs	a 3-oxo-dodecanoyl-[acp]	cp
UTP	UTP	cp
ETOH	ethanol	cp
2-3-4-Saturated-L-Phosphatidates	a 1,2-diacyl-sn-glycerol 3-phosphate	c
CPD-3711	cytidine-3'-monophosphate	p
CPDQT-407	S-6-methylthiohexylhydroximoyl-L-cysteine	cp
3-oxo-hexanoyl-ACPs	a 3-oxo-hexanoyl-[acp]	cp
METHIONYL-PEPTIDE	an N-terminal L-methionyl-[protein]	p
CPDQT-408	S-7-methylthioheptylhydroximoyl-L-cysteine	cp
CPD-9965	icosanoyl-CoA	cp
B-KETOACYL-ACP	a 3-oxoacyl-[acp]	cp
3-oxo-lignoceroyl-ACPs	a 3-oxo-lignoceroyl-[acp]	cp
CPDQT-409	S-8-methylthiooctylhydroximoyl-L-cysteine	cp
ETR-Quinols	an electron-transfer quinol	cp
3-oxo-myristoyl-ACPs	a 3-oxo-myristoyl-[acp]	cp
1-2-Diglycerides	a 1,2-diglyceride	p
ETR-Quinones	an electron-transfer quinone	cp
3-oxo-palmitoyl-ACPs	a 3-oxo-palmitoyl-[acp]	cp
1-AMINO-PROPAN-2-ONE-3-PHOSPHATE	3-amino-1-hydroxyacetone 1-phosphate	cp
Ubiquinols	an ubiquinol	cp
CPD0-1080	GlcNAc-1,6-anhMurNAc-L-Ala-&gamma;-D-Glu-DAP-D-Ala	c
CPD-3713	cytidine 2',3'-cyclic monophosphate	c
3-oxo-petroselinoyl-ACPs	a 3-oxo-petroselinoyl-[acp]	c
ITP	ITP	cp
CPDQT-41	10-(methylthio)-2-oxodecanoate	p
BCAA-dehydrogenase-DH-lipoyl	an [apo BCAA dehydrogenase E2 protein] N6-dihydrolipoyl-L-lysine	cp
CPDQT-410	S-9-methylthiononylhydroximoyl-L-cysteine	cp
CPD0-1081	N-acetyl-&beta;-D-glucosamine-1,6-anhydro-N-acetyl-&beta;-D-muramate	cp
Ubiquinones	a ubiquinone	cp
D-LACTATE	(R)-lactate	p
Damaged-DNA-Pyrimidine	a damaged DNA pyrimidine	c
3-oxo-stearoyl-ACPs	a 3-oxo-stearoyl-[acp]	cp
BCAA-dehydrogenase-lipoyl	an [apo BCAA dehydrogenase E2 protein] N6-lipoyl-L-lysine	cp
CPDQT-411	(E)-N-hydroxy-5-(methylsulfanyl)pentimidothioate	cp
PYRAZINAMIDE	pyrazinamide	c
3-phosphooligoribonucleotides	a 3' phosphooligo-ribonucleotide RNA	p
3-terminal-unsaturated-sugars	a 3'-terminal unsaturated sugar	p
CPDQT-412	(E)-N-hydroxy-6-(methylsulfanyl)heximidothioate	cp
CPD0-1082	L-alanyl-&gamma;-D-glutamyl-meso-2,6-diaminopimeloyl-D-alanine	cp
METHYL-GLYOXAL	methylglyoxal	cp
Decanoyl-ACPs	a decanoyl-[acp]	cp
trans-2-cis-5-dienoyl-CoA	a (2E,5Z)-alkan-2,5-dienoyl-CoA	cp
CPD-13695	3,24-dioxocholest-4-en-26-oyl-CoA	p
trans-3-cis-5-dienoyl-CoA	a (3E,5Z)-alkan-3,5-dienoyl-CoA	cp
trans-delta2-arachidoyl-ACPs	a trans-eicos-2-enoyl-[acp]	c
CPD-13699	3,22-dioxochol-4-en-24-oyl-CoA	c
2-PROTOCATECHUOYLPHLOROGLUCINOLCARBOXYLA	2-protocatechuoylphloroglucinolcarboxylate	p
trans-delta2-behenoyl-ACPs	a trans-docos-2-enoyl-[acp]	c
trans-delta2-lignoceroyl-ACPs	a trans-tetracos-2-enoyl-[acp]	c
TAURINE	taurine	cp
METHYL-THMPT	N5-methyltetrahydromethanopterin	cp
CPD-13700	3-oxo-4-pregnene-20-carboxyl-CoA	p
CPD-13711	3-[(3aS,4S,7aS)-7a-methyl-1,5-dioxo-octahydro-1H-inden-4-yl]propanoate	c
NITRITE	nitrite	p
D-MYO-INOSITOL-1-MONOPHOSPHATE	1D-myo-inositol 1-monophosphate	c
CIS-2-CHLORO-4-CARBOXYMETHYLENEBUT-2-EN-	2-chloro-cis-dienelactone	c
Halide-Anions	a halide anion	p
PALMITALDEHYDE	palmitaldehyde	p
3-ENOLPYRUVYL-SHIKIMATE-5P	5-enolpyruvoyl-shikimate 3-phosphate	cp
2-hydroxyacyl-glutathiones	S-(2-hydroxyacyl)glutathione	c
CPD-13713	adenosine 5'-phosphoselenate	p
2-trans-4-cis-dienoyl-CoAs	a 2-trans-4-cis-dienoyl-CoA	c
Deoxy-Ribonucleoside-Triphosphates	a 2'-deoxyribonucleoside 5'-triphosphate	c
CPD-13717	L-selenocystathionine	c
D-SEDOHEPTULOSE-7-P	D-sedoheptulose 7-phosphate	cp
NMNH	reduced &beta;-nicotinamide D-ribonucleotide	p
CIS-ACONITATE	cis-aconitate	cp
PALMITATE	palmitate	c
PHOSPHATIDYLCHOLINE	a phosphatidylcholine	c
PALMITYL-COA	palmitoyl-CoA	cp
TDP	dTDP	cp
Hepta-oxo-hexadecanoyl-ACPs	a 3,5,7,9,11,13,15-hepta-oxo-hexadecanoyl-[PKS-acp]	c
PHOSPHO-ENOL-PYRUVATE	phosphoenolpyruvate	cp
CIS-CIS-MUCONATE	cis,cis-muconate	cp
CPD-13754	3-[(3aS,4S,7aS)-7a-methyl-1,5-dioxo-octahydro-1H-inden-4-yl]propanoyl-CoA	p
Hex-2-enoyl-ACPs	a trans hex-2-enoyl-[acp]	c
Hexanoyl-ACPs	a hexanoyl-[acyl-carrier-protein]	cp
D-SERINE	D-serine	c
SS-Oligodeoxyribonucleotides	a single-stranded oligodeoxyribonucleotide	p
UDP-N-ACETYLMURAMATE	UDP-N-acetyl-&alpha;-D-muramate	cp
PROT-CYS	a [protein]-L-cysteine	c
Protein-N-terminal-L-threonine	an N-terminal L-threonyl-[protein]	p
ADP	ADP	cp
HEXANOYL-COA	hexanoyl-CoA	cp
Protein-N6-5-glutamyl-lysine-crosslinks	a protein with an N6-(&gamma;-glutamyl)-L-lysine crosslink	p
Protein-N6-5-glutamyl-serotonin	a [protein] N6-[(5-hydroxy-1H-indol-3-yl)ethyl]-L-glutamine	p
N-Acetyl-beta-D-Hexosaminides	an N-acetyl-&beta;-D-hexosaminide	c
STEARIC_ACID	stearate	c
CPD-10633	5-chloro-trans-dienelactone	c
PROTEIN-LIPOYLLYSINE	a [glycine-cleavage complex H protein] N6-lipoyl-L-lysine	cp
Leader-Sequences	a leader sequence	p
Protein-Ser-or-Thr-phosphate	a [protein] (L-serine/L-threonine) phosphate	p
Protein-Tyrosines	a [protein]-L-tyrosine	cp
GLUTATHIONE	glutathione	cp
CPD-10634	5-chloromaleylacetate	p
Light	h&nu;	c
N-Acylsphingosine	a sphingosine ceramide	c
Lignoceroyl-ACPs	a lignoceroyl-[acp]	cp
Protein-With-N-Terminal-Met	a peptide with an N-terminal L-methionine	c
CPD-10636	2,5-dichloro-trans-dienelactone	c
Protein-With-N-Terminal-Pro	a peptide with an N-terminal L-proline	p
STEAROYL-COA	stearoyl-CoA	cp
Protein-With-N-Terminal-X-Pro	a peptide with an N-terminal X-L-proline	c
HIS	L-histidine	cp
AICAR	5-amino-1-(5-phospho-D-ribosyl)imidazole-4-carboxamide	cp
HIS-tRNAs	a tRNAHis	c
Lipid-A	a lipid A	cp
CPD-10637	2,5-dichloromaleylacetate	p
Lipid-A-1-2-aminoethyl-PP	a lipid A 1-(2-aminoethyl diphosphate)	cp
Lipid-A-1-4prime-2-aminoethyl-PP	a lipid A 1,4'-bis(2-aminoethyl diphosphate)	cp
Lipid-A-4prime-2-aminoethyl-PP	a lipid A 4'-(2-aminoethyl diphosphate)	cp
Protein-phospho-L-histidines	a [protein]-N-phospho-L-histidine	cp
Fatty-Acids	a fatty acid	p
N-FORMIMINO-L-GLUTAMATE	N-formimino-L-glutamate	cp
RIBOSE-5P	D-ribose 5-phosphate	cp
Protein-pi-phospho-L-histidines	a [protein]-N&pi;-phospho-L-histidine	c
SUC	succinate	cp
N-SUCCINYL-2-AMINO-6-KETOPIMELATE	N-succinyl-2-amino-6-ketopimelate	cp
SUC-COA	succinyl-CoA	cp
Protein-tauphospho-L-histidines	a [protein]-N&tau;-phospho-L-histidine	c
PROTOHEME	ferroheme b	cp
Protein-tyrosine-phosphates	a [protein]-L-tyrosine phosphate	cp
D-glucopyranose-6-phosphate	D-glucopyranose 6-phosphate	cp
SUCC-S-ALD	succinate semialdehyde	cp
Lipoprotein-signal-peptide	a lipoprotein signal peptide	p
CPD-10663	5-chlorosalicylate	c
Proteins-With-N-Terminal-Asp	an N-terminal L-aspartyl-[protein]	c
Lipoyl-Protein-L-Lysine	a [lipoyl-carrier protein]-L-lysine	c
Lipoyl-Protein-N6-lipoyllysine	a [lipoyl-carrier protein]-N6-lipoyl-L-lysine	p
CPD-10664	5-methylsalicylate	c
RIBULOSE-5P	D-ribulose 5-phosphate	cp
Ribonucleoside-Diphosphates	a ribonucleoside diphosphate	p
CPD-3724	uridine 3'-monophosphate	p
CARBAMATE	carbamate	cp
L-GLUTAMATE-5-P	&gamma;-L-glutamyl 5-phosphate	cp
CPD-674	trans-cinnamate	c
CPD-6746	1D-myo-inositol 2-monophosphate	c
Ribonucleoside-Monophosphates	a ribonucleoside 5'-monophosphate	cp
4-HYDROXY-L-PROLINE	trans-4-hydroxy-L-proline	p
5678-TETRAHYDROPTERIDINE	a 5,6,7,8-tetrahydropteridine	p
DADP	dADP	c
Ribonucleoside-Triphosphates	a ribonucleoside triphosphate	c
Ribonucleosides	a ribonucleoside	p
CARBAMOYL-P	carbamoyl phosphate	cp
2-5-DIHYDROXYPYRIDINE	2,5-dihydroxypyridine	cp
Elongation-tRNAMet	elongator tRNAMet	c
5S-rRNAs	a 5S rRNA	p
Ribosomal-protein-L3-L-glutamine	a [ribosomal protein L3]-L-glutamine	c
OROTIDINE-5-PHOSPHATE	orotidine 5'-phosphate	cp
Ribosomal-protein-L3-N5M-L-glutamine	a [ribosomal protein L3]-N5-methyl-L-glutamine	p
CPD-3725	uridine 2'3'-cyclic monophosphate	c
Ribosomal-protein-S12-3-methylthio-Asp89	a [ribosomal protein S12]-3-methylsulfanyl-L-aspartate89	p
L-GLUTAMATE_GAMMA-SEMIALDEHYDE	L-glutamate-5-semialdehyde	cp
Ribosomal-protein-S12-Asp89	a [ribosomal protein S12] L-aspartate89	c
Enoylglutaryl-ACP-methyl-esters	an enoylglutaryl-[acp] methyl ester	c
CARBAMYUL-L-ASPARTATE	N-carbamoyl-L-aspartate	cp
Enoylpimeloyl-ACP-methyl-esters	an enoylpimeloyl-[acp] methyl ester	c
S-2-Haloacids	an (S)-2-haloacid	c
CPD-678	hydrogen selenide	c
S-2-Hydroxyacids1	an (S)-2-hydroxyacid	p
S-24-DINITROPHENYLGLUTATHIONE	2,4-dinitrophenyl-S-glutathione	cp
CPD-3740	djenkolate	c
4-HYDROXYPHENYLACETATE	4-hydroxyphenylacetate	p
5Z-3-oxo-tetradec-5-enoyl-ACPs	a (5Z)-3-oxo-tetradec-5-enoyl-[acp]	cp
2-ACETO-2-HYDROXY-BUTYRATE	(S)-2-aceto-2-hydroxybutanoate	cp
CPD-3744	1-butanesulfonate	c
Folates	a folate	c
S-3-HYDROXYBUTANOYL-COA	(S)-3-hydroxybutanoyl-CoA	cp
CPD-3745	isethionate	c
L-Glutamyl-Peptides	an N-terminal L-glutamyl-[protein]	c
CARBON-DIOXIDE	CO2	cp
2-ACETO-LACTATE	(S)-2-acetolactate	cp
G3P	3-phospho-D-glycerate	cp
DIHYDROPTERIN-CH2OH-PP	(7,8-dihydropterin-6-yl)methyl diphosphate	cp
5Z-tetradec-5-enoyl-ACPs	a (5Z)-tetradec-5-enoyl-[acp]	cp
L-HISTIDINOL-P	L-histidinol phosphate	cp
5Z8Z11Z14Z17Z-EICOSAPENTAENOATE	icosapentaenoate	c
CPD-15661	2-trans, 4-trans-undecadienoyl-CoA	c
Unspecified-Degradation-Products	[unspecified degradation products]	p
CPD0-1096	glucosamine 1,6-diphosphate	cp
Unsulfurated-Sulfur-Acceptors	an unsulfurated [sulfur carrier]	cp
3-HYDROXY-DOCOSAPENTAENOYL-ACP	a (3R)-3-hydroxy-docosapentaenoyl-[acp]	p
6-AMINOPENICILLANATE	6-aminopenicillanate	cp
BENZALDEHYDE	benzaldehyde	cp
Unwound-DNA	an unwound double-stranded DNA	p
CPD-15663	2-trans-nonenoyl-CoA	p
CPD-18321	5-methoxybenzimidazole	c
PYRAZINOIC-ACID	pyrazine-2-carboxylate	p
Uracil-54-in-tRNA	a uracil54 in tRNA	c
Initiation-tRNAmet	initiator tRNAMet	c
Histone-Acetyl-Lysine	a [histone]-N6-acetyl-L-lysine	cp
CPD0-1107	&beta;-L-fucopyranose	cp
Histone-L-lysine	a [histone]-L-lysine	cp
L-LACTATE	(S)-lactate	c
3-HYDROXY-ISOVALERYL-COA	3-hydroxyisovaleryl-CoA	cp
CPD-18346	cis-vaccenoyl-CoA	cp
CPD-15667	6-cis, 3-oxo-tridecenoyl-CoA	c
GMP	GMP	cp
Hpr-Histidine	an [HPr]-L-histidine	c
Hpr-pi-phospho-L-histidines	an [HPr protein]-N&pi;-phospho-L-histidine	p
CPD-15668	4-cis-undecenoyl-CoA	p
3-HYDROXYADIPYL-COA	(3S)-hydroxyadipyl-CoA	cp
CPD-18492	(2E,6Z,9Z,12Z,15Z,18Z)-tetracosahexaenoyl-CoA	c
CPD-15676	6-trans-3-oxo-tridecenoyl-CoA	c
BENZIMIDAZOLE	benzimidazole	c
VAL	L-valine	cp
VAL-tRNAs	a tRNAVal	c
CPD0-1158	3E,5Z-tetradecadienoyl-CoA	cp
CPD-15677	4-trans-undecenoyl-CoA	p
CPD-18493	(3S)-hydroxy-(6Z,9Z,12Z,15Z,18Z)-tetracosapentaenoyl-CoA	p
PYRIDOXAL_PHOSPHATE	pyridoxal 5'-phosphate	p
BENZOATE	benzoate	cp
L-Methionylaminoacyl-tRNAs	a L-methionylaminoacyl-tRNA	p
Negatively-super-coiled-DNAs	a negatively supercoiled DNA	cp
CPD-15678	4-trans-3-oxo-undecenoyl-CoA	c
L-ORNITHINE	L-ornithine	cp
PYRIDOXAMINE-5P	pyridoxamine 5'-phosphate	c
CPD-18494	3-oxo-(6Z,9Z,12Z,15Z,18Z)-tetracosapentaenoyl-CoA	c
ACETYLSERINE	O-acetyl-L-serine	cp
CPD-15687	5-cis, 7-trans-3-oxo-tetradecadienoyl-CoA	c
IDP	IDP	cp
CPD0-1162	(2E,5Z)-tetradecenoyl-CoA	cp
PROTON	H+	cp
CPD-18495	5-methoxy-6-methylbenzimidazole	c
CPD-15688	(3Z,5E)-dodeca-3,5-dienoyl-CoA	cp
6-Dimethylallyladenosine37-tRNAs	N6-dimethylallyladenosine37 in tRNA	cp
CPD-18497	5-hydroxy-benzimidazole	c
L-PANTOATE	(R)-pantoate	cp
CPD0-1163	(S)-3-hydroxy-(5Z)-tetradecenoyl-CoA	p
