dbRef_id	Common name	Number of reaction found	Total number of reaction	Ratio (Reaction found / Total)
PWY-7798	protein S-nitrosylation and denitrosylation	1	5	0.20
P241-PWY	coenzyme B biosynthesis	1	16	0.06
PWY-6902	chitin degradation II (Vibrio)	3	5	0.60
P3-PWY	gallate degradation III (anaerobic)	1	11	0.09
PWY-7003	glycerol degradation to butanol	5	6	0.83
PWY-6906	chitin derivatives degradation	1	8	0.12
PWY-7799	Arg/N-end rule pathway (eukaryotic)	1	14	0.07
PWY-6167	flavin biosynthesis II (archaea)	4	10	0.40
PWY-7800	Ac/N-end rule pathway	6	21	0.29
PWY-7006	4-amino-3-hydroxybenzoate degradation	1	6	0.17
PWY-6168	flavin biosynthesis III (fungi)	5	9	0.56
PANTO-PWY	phosphopantothenate biosynthesis I	3	4	0.75
PWY-6174	mevalonate pathway II (archaea)	1	7	0.14
PWY-7007	methyl ketone biosynthesis (engineered)	1	6	0.17
PYRUVDEHYD-PWY	pyruvate decarboxylation to acetyl CoA	2	3	0.67
P341-PWY	glycolysis V (Pyrococcus)	6	9	0.67
PWY-7801	N-end rule pathway I (prokaryotic)	2	2	1.00
PWY0-1296	purine ribonucleosides degradation	1	6	0.17
TYRFUMCAT-PWY	L-tyrosine degradation I	4	5	0.80
PWY-6910	hydroxymethylpyrimidine salvage	2	2	1.00
LEU-DEG2-PWY	L-leucine degradation I	5	6	0.83
PWY-7805	aminomethylphosphonate degradation	2	8	0.25
ENTNER-DOUDOROFF-PWY	Entner-Doudoroff pathway I	2	2	1.00
PWY-5123	trans, trans-farnesyl diphosphate biosynthesis	1	3	0.33
HOMOSER-METSYN-PWY	L-methionine biosynthesis I	4	7	0.57
PWY-702	L-methionine biosynthesis II	3	8	0.38
PWY-6185	4-methylcatechol degradation (ortho cleavage)	1	7	0.14
PWY-7807	glyphosate degradation III	2	7	0.29
PWY-6193	3-chlorocatechol degradation II (ortho)	1	5	0.20
PWY-6920	6-gingerol analog biosynthesis (engineered)	1	6	0.17
PWY-6922	L-N&delta;-acetylornithine biosynthesis	5	7	0.71
P101-PWY	ectoine biosynthesis	2	5	0.40
PWY-7814	dTDP-L-daunosamine biosynthesis	3	6	0.50
HOMOSER-THRESYN-PWY	L-threonine biosynthesis	2	2	1.00
PWY0-1299	arginine dependent acid resistance	1	1	1.00
PWY-5130	2-oxobutanoate degradation I	1	1	1.00
PWY-7817	type I lipoteichoic acid biosynthesis (S. aureus)	3	16	0.19
ARGSYN-PWY	L-arginine biosynthesis I (via L-ornithine)	2	4	0.50
PWY-7820	teichuronic acid biosynthesis (B. subtilis 168)	1	9	0.11
PWY-5132	lupulone and humulone biosynthesis	1	6	0.17
PWY-6197	chlorinated phenols degradation	4	4	1.00
PWY-7033	alkane biosynthesis II	1	3	0.33
PWY0-1303	aminopropylcadaverine biosynthesis	1	2	0.50
PWY-7821	tunicamycin biosynthesis	1	9	0.11
PWY-7046	4-coumarate degradation (anaerobic)	1	6	0.17
PWY-5133	colupulone and cohumulone biosynthesis	1	6	0.17
PWY-7822	chitin degradation III (Serratia)	3	7	0.43
P105-PWY	TCA cycle IV (2-oxoglutarate decarboxylase)	9	11	0.82
PWY-6932	selenate reduction	1	5	0.20
HEMESYN2-PWY	heme b biosynthesis II (anaerobic)	2	4	0.50
PWY-7851	coenzyme A biosynthesis II (eukaryotic)	2	4	0.50
PWY0-1312	acetate formation from acetyl-CoA I	1	2	0.50
PWY-7049	icosapentaenoate biosynthesis II (6-desaturase, mammals)	1	7	0.14
P108-PWY	pyruvate fermentation to propanoate I	4	7	0.57
PWY-5136	fatty acid &beta;-oxidation II (peroxisome)	2	5	0.40
PEPTIDOGLYCANSYN-PWY	peptidoglycan biosynthesis I (meso-diaminopimelate containing)	1	2	0.50
SO4ASSIM-PWY	sulfate reduction I (assimilatory)	1	2	0.50
PWY-7852	6-hydroxymethyl-dihydropterin diphosphate biosynthesis IV (Plasmodium)	1	3	0.33
PWY-621	sucrose degradation III (sucrose invertase)	3	4	0.75
PWY-7052	cyanophycin metabolism	1	5	0.20
PWY-7853	6-hydroxymethyl-dihydropterin diphosphate biosynthesis V (Pyrococcus)	1	4	0.25
RUMP-PWY	formaldehyde oxidation I	2	6	0.33
PWY-6936	seleno-amino acid biosynthesis	1	5	0.20
P121-PWY	adenine and adenosine salvage I	1	2	0.50
PWY-6210	2-aminophenol degradation	2	4	0.50
PWY-7077	N-acetyl-D-galactosamine degradation	2	5	0.40
PWY-7854	crotonyl-CoA/ethylmalonyl-CoA/hydroxybutyryl-CoA cycle (engineered)	2	14	0.14
DISSULFRED-PWY	sulfate reduction IV (dissimilatory, to hydrogen sufide))	1	4	0.25
PWY0-1313	acetate conversion to acetyl-CoA	1	1	1.00
GLUTDEG-PWY	L-glutamate degradation II	2	2	1.00
ARGSYNBSUB-PWY	L-arginine biosynthesis II (acetyl cycle)	5	9	0.56
PWY-6214	3-chlorocatechol degradation III (meta pathway)	1	4	0.25
PWY-7856	heme a biosynthesis	1	4	0.25
P122-PWY	heterolactic fermentation	7	18	0.39
PHENOLDEG-PWY	phenol degradation II (anaerobic)	1	4	0.25
PWY-7857	adlupulone and adhumulone biosynthesis	1	6	0.17
PWY-5138	unsaturated, even numbered fatty acid &beta;-oxidation	1	5	0.20
PWY0-1319	CDP-diacylglycerol biosynthesis II	2	4	0.50
P124-PWY	Bifidobacterium shunt	10	15	0.67
PWY-7082	ammonia oxidation IV (autotrophic ammonia oxidizers)	1	2	0.50
PWY-622	starch biosynthesis	1	10	0.10
PWY-6942	dTDP-D-desosamine biosynthesis	2	6	0.33
P42-PWY	incomplete reductive TCA cycle	3	7	0.43
PWY-5143	long-chain fatty acid activation	1	1	1.00
PWY-7858	(5Z)-dodec-5-enoate biosynthesis II	3	6	0.50
TCA	TCA cycle I (prokaryotic)	8	10	0.80
PWY-6944	androstenedione degradation	1	15	0.07
PWY-7094	fatty acid salvage	2	6	0.33
PWY-7863	roseoflavin biosynthesis	1	7	0.14
PWY-7102	bisabolene biosynthesis (engineered)	1	6	0.17
PWY-6945	cholesterol degradation to androstenedione I (cholesterol oxidase)	1	17	0.06
PWY-7177	UTP and CTP dephosphorylation II	1	3	0.33
PWY4FS-8	phosphatidylglycerol biosynthesis II (non-plastidic)	1	2	0.50
PWY-5653	NAD biosynthesis from 2-amino-3-carboxymuconate semialdehyde	3	4	0.75
PWY-5994	palmitate biosynthesis I (animals and fungi)	7	31	0.23
PWY-6309	L-tryptophan degradation XI (mammalian, via kynurenine)	5	11	0.45
THRDLCTCAT-PWY	L-threonine degradation III (to methylglyoxal)	1	3	0.33
PWY4LZ-257	superpathway of fermentation (Chlamydomonas reinhardtii)	1	7	0.14
PWY-5654	2-amino-3-carboxymuconate semialdehyde degradation to 2-oxopentenoate	3	4	0.75
PWY-5996	oleate biosynthesis II (animals and fungi)	1	2	0.50
PWY-2721	trehalose degradation III	1	2	0.50
PWY-6317	D-galactose degradation I (Leloir pathway)	1	5	0.20
PWY66-161	ethanol degradation III	1	3	0.33
PWY-7179	purine deoxyribonucleosides degradation I	1	4	0.25
PWY-7179-1	purine deoxyribonucleosides degradation II	1	3	0.33
PWY-2722	trehalose degradation IV	2	3	0.67
PWY-6000	&gamma;-linolenate biosynthesis II (animals)	1	2	0.50
PWY66-162	ethanol degradation IV	2	3	0.67
FAO-PWY	fatty acid &beta;-oxidation I	3	7	0.43
PWY-2723	trehalose degradation V	1	3	0.33
PWY-6001	linoleate biosynthesis II (animals)	1	2	0.50
PWY-5659	GDP-mannose biosynthesis	2	4	0.50
PWY-2781	cis-zeatin biosynthesis	1	5	0.20
PWY66-21	ethanol degradation II	1	3	0.33
PWY-6318	L-phenylalanine degradation IV (mammalian, via side chain)	2	9	0.22
PWY-6038	citrate degradation	1	2	0.50
PWY66-366	flavin biosynthesis IV (mammalian)	2	2	1.00
NAD-BIOSYNTHESIS-II	NAD salvage pathway III	3	3	1.00
PWY-5661	GDP-glucose biosynthesis	1	3	0.33
PWY-6322	phosphinothricin tripeptide biosynthesis	1	25	0.04
PWY66-367	ketogenesis	3	5	0.60
PWY-6328	L-lysine degradation X	1	6	0.17
MANNOSYL-CHITO-DOLICHOL-BIOSYNTHESIS	protein N-glycosylation initial phase (eukaryotic)	1	19	0.05
PWY-2941	L-lysine biosynthesis II	6	9	0.67
PWY-7181	pyrimidine deoxyribonucleosides degradation	1	3	0.33
PWY66-368	ketolysis	3	3	1.00
FASYN-ELONG-PWY	fatty acid elongation -- saturated	4	5	0.80
PWY-5667	CDP-diacylglycerol biosynthesis I	3	4	0.75
PWY-2942	L-lysine biosynthesis III	5	7	0.71
GLYOXDEG-PWY	glycolate and glyoxylate degradation II	1	2	0.50
PWY-6336	protocatechuate degradation III (para-cleavage pathway)	1	5	0.20
PWY66-373	sucrose degradation V (sucrose &alpha;-glucosidase)	2	5	0.40
PWY-7184	pyrimidine deoxyribonucleotides de novo biosynthesis I	8	9	0.89
PWY-6084	3,5-dichlorocatechol degradation	1	8	0.12
PWY-3081	L-lysine biosynthesis V	1	10	0.10
PWY-6087	4-chlorocatechol degradation	1	5	0.20
PWY66-375	leukotriene biosynthesis	1	6	0.17
PWY-31	canavanine degradation	1	2	0.50
PWY-5668	cardiolipin biosynthesis I	1	3	0.33
PWY66-387	fatty acid &alpha;-oxidation II	3	6	0.50
PWY-6089	3-chlorocatechol degradation I (ortho)	1	5	0.20
PWY-3101	flavonol biosynthesis	2	7	0.29
PWY-7185	UTP and CTP dephosphorylation I	3	5	0.60
PWY66-388	fatty acid &alpha;-oxidation III	1	7	0.14
PWY66-389	phytol degradation	1	4	0.25
PWY-6339	syringate degradation	1	9	0.11
PWY-6093	4,5-dichlorocatechol degradation	1	8	0.12
PWY-5669	phosphatidylethanolamine biosynthesis I	2	2	1.00
PWY-3161	indole-3-acetate biosynthesis III (bacteria)	1	2	0.50
PWY66-391	fatty acid &beta;-oxidation VI (peroxisome)	2	7	0.29
PWY-6344	L-ornithine degradation II (Stickland reaction)	2	9	0.22
PWY-7187	pyrimidine deoxyribonucleotides de novo biosynthesis II	5	7	0.71
ARG-GLU-PWY	L-arginine degradation VII (arginase 3 pathway)	1	2	0.50
PWY-6094	3,4,6-trichlorocatechol degradation	1	10	0.10
FASYN-INITIAL-PWY	superpathway of fatty acid biosynthesis initiation (E. coli)	1	2	0.50
PWY66-398	TCA cycle III (animals)	9	11	0.82
TRPCAT-PWY	L-tryptophan degradation I (via anthranilate)	2	3	0.67
PWY-6348	phosphate acquisition	1	1	1.00
PWY-321	cutin biosynthesis	1	16	0.06
ARG-PRO-PWY	L-arginine degradation VI (arginase 2 pathway)	3	4	0.75
PWY66-399	gluconeogenesis III	7	12	0.58
PWY-5675	nitrate reduction V (assimilatory)	2	4	0.50
PWY-6113	superpathway of mycolate biosynthesis	2	4	0.50
PWY-7194	pyrimidine nucleobases salvage II	1	1	1.00
TRPSYN-PWY	L-tryptophan biosynthesis	5	6	0.83
2ASDEG-PWY	orthanilate degradation	1	5	0.20
PWY-5676	acetyl-CoA fermentation to butanoate II	2	5	0.40
GLNSYN-PWY	L-glutamine biosynthesis I	1	1	1.00
PWY66-422	D-galactose degradation V (Leloir pathway)	1	5	0.20
PWY-6117	spermine and spermidine degradation I	2	5	0.40
MENAQUINONESYN-PWY	menaquinol-8 biosynthesis	1	1	1.00
PWY-5686	UMP biosynthesis I	4	6	0.67
PWY-3221	dTDP-L-rhamnose biosynthesis II	2	3	0.67
PWY66-423	fructose 2,6-bisphosphate biosynthesis	1	2	0.50
PWY-7195	pyrimidine ribonucleosides salvage III	1	2	0.50
PWY-6375	desferrioxamine E biosynthesis	1	5	0.20
PWY66-425	L-lysine degradation II (L-pipecolate pathway)	1	8	0.12
PWY-6121	5-aminoimidazole ribonucleotide biosynthesis I	4	5	0.80
PWY66-426	hydrogen sulfide biosynthesis II (mammalian)	3	6	0.50
PWY66-428	L-threonine degradation V	2	2	1.00
PWY-6376	desferrioxamine B biosynthesis	1	5	0.20
PWY-5690	TCA cycle II (plants and fungi)	8	9	0.89
3-HYDROXYPHENYLACETATE-DEGRADATION-PWY	4-hydroxyphenylacetate degradation	1	8	0.12
METHYLGALLATE-DEGRADATION-PWY	methylgallate degradation	1	6	0.17
ARGASEDEG-PWY	L-arginine degradation I (arginase pathway)	2	3	0.67
MALATE-ASPARTATE-SHUTTLE-PWY	L-aspartate degradation II	2	2	1.00
PWY-5695	inosine 5'-phosphate degradation	3	4	0.75
PWYG-321	mycolate biosynthesis	10	182	0.05
PWY-7197	pyrimidine deoxyribonucleotide phosphorylation	4	4	1.00
PWY-3341	L-proline biosynthesis III	4	5	0.80
PWY-6122	5-aminoimidazole ribonucleotide biosynthesis II	4	5	0.80
PWYQT-4429	CO2 fixation into oxaloacetate (anaplerotic)	1	2	0.50
PWY-6381	bisucaberin biosynthesis	1	5	0.20
ETHYL-PWY	ethylene biosynthesis I (plants)	1	3	0.33
PHENYLALANINE-DEG1-PWY	L-phenylalanine degradation I (aerobic)	2	3	0.67
PYRIDNUCSYN-PWY	NAD biosynthesis I (from aspartate)	4	6	0.67
PWY0-166	superpathway of pyrimidine deoxyribonucleotides de novo biosynthesis (E. coli)	11	13	0.85
PWY-6499	D-glucarate degradation II	1	3	0.33
PWY-4202	arsenate detoxification I (glutaredoxin)	1	7	0.14
PWY-5833	CDP-4-dehydro-3,6-dideoxy-D-glucose biosynthesis	1	3	0.33
PWY-5443	aminopropanol phosphate biosynthesis I	1	2	0.50
PWY-7224	purine deoxyribonucleosides salvage	2	6	0.33
PWY-6501	D-glucuronate degradation II	1	5	0.20
SERSYN-PWY	L-serine biosynthesis	1	3	0.33
PWY-5450	benzene degradation	1	2	0.50
PWY-6502	oxidized GTP and dGTP detoxification	1	4	0.25
PWY-7226	guanosine deoxyribonucleotides de novo biosynthesis I	2	2	1.00
PWY-6683	sulfate reduction III (assimilatory)	1	3	0.33
PWY0-321	phenylacetate degradation I (aerobic)	1	9	0.11
PWY-7227	adenosine deoxyribonucleotides de novo biosynthesis	2	2	1.00
PWY-7346	UDP-&alpha;-D-glucuronate biosynthesis (from UDP-glucose)	1	1	1.00
PWY-6692	Fe(II) oxidation	2	6	0.33
PWY-43	putrescine biosynthesis II	2	3	0.67
COBALSYN-PWY	adenosylcobalamin salvage from cobinamide I	4	6	0.67
PWY-4302	aerobic respiration III (alternative oxidase pathway)	1	3	0.33
PWY0-42	2-methylcitrate cycle I	4	5	0.80
PWY-6505	L-tryptophan degradation XII (Geobacillus)	1	1	1.00
PWY-5468	lupanine biosynthesis	1	5	0.20
PWY-6507	4-deoxy-L-threo-hex-4-enopyranuronate degradation	3	5	0.60
PWY-723	alkylnitronates degradation	1	2	0.50
ARGDEG-III-PWY	L-arginine degradation IV (arginine decarboxylase/agmatine deiminase pathway)	2	3	0.67
PWY-7347	sucrose biosynthesis III	1	3	0.33
PWY-6695	oxalate degradation II	1	3	0.33
PWY-7234	inosine-5'-phosphate biosynthesis III	4	6	0.67
PWY0-43	conversion of succinate to propanoate	1	3	0.33
PWY-735	jasmonic acid biosynthesis	3	19	0.16
PWY-4361	S-methyl-5-thio-&alpha;-D-ribose 1-phosphate degradation	2	7	0.29
PWY-6700	queuosine biosynthesis	4	4	1.00
PWY-7356	thiamine salvage IV (yeast)	2	7	0.29
PWY-4381	fatty acid biosynthesis initiation I	3	3	1.00
CYANCAT-PWY	cyanate degradation	1	3	0.33
HYDROXYPRODEG-PWY	trans-4-hydroxy-L-proline degradation I	1	5	0.20
PWY-7238	sucrose biosynthesis II	3	8	0.38
PWY-5482	pyruvate fermentation to acetate II	1	3	0.33
PWY-7357	thiamine formation from pyrithiamine and oxythiamine (yeast)	2	6	0.33
PWY-5484	glycolysis II (from fructose 6-phosphate)	9	11	0.82
PWY0-461	L-lysine degradation I	1	1	1.00
PWY-6703	preQ0 biosynthesis	3	4	0.75
PWY-6519	8-amino-7-oxononanoate biosynthesis I	9	11	0.82
ADENOSYLHOMOCYSCAT-PWY	L-methionine salvage from L-homocysteine	1	3	0.33
LEUSYN-PWY	L-leucine biosynthesis	5	6	0.83
PWY0-501	lipoate biosynthesis and incorporation I	1	2	0.50
PWY-5485	pyruvate fermentation to acetate IV	1	3	0.33
PWY-5857	ubiquinol-10 biosynthesis (prokaryotic)	1	8	0.12
PWY-4521	arsenite oxidation I (respiratory)	1	2	0.50
PWY-6527	stachyose degradation	2	7	0.29
PWY-6707	gallate biosynthesis	1	3	0.33
PWY-7376	cob(II)yrinate a,c-diamide biosynthesis II (late cobalt incorporation)	1	13	0.08
KDOSYN-PWY	Kdo transfer to lipid IVA I	1	2	0.50
PWY-7242	D-fructuronate degradation	2	4	0.50
PWY-6531	mannitol cycle	1	5	0.20
PWY-4621	arsenate detoxification II (glutaredoxin)	1	2	0.50
PWY0-522	lipoate salvage I	2	2	1.00
PWY-7377	cob(II)yrinate a,c-diamide biosynthesis I (early cobalt insertion)	1	15	0.07
PWY-6708	ubiquinol-8 biosynthesis (prokaryotic)	5	8	0.62
PWY-7378	aminopropanol phosphate biosynthesis II	1	4	0.25
DTDPRHAMSYN-PWY	dTDP-L-rhamnose biosynthesis I	4	4	1.00
PWY-6538	caffeine degradation III (bacteria, via demethylation)	1	7	0.14
GLUCONEO-PWY	gluconeogenesis I	10	13	0.77
CODH-PWY	reductive acetyl coenzyme A pathway I (homoacetogenic bacteria)	2	9	0.22
PWY0-541	cyclopropane fatty acid (CFA) biosynthesis	1	1	1.00
ARGDEG-V-PWY	L-arginine degradation X (arginine monooxygenase pathway)	1	3	0.33
PYRIDOXSYN-PWY	pyridoxal 5'-phosphate biosynthesis I	4	8	0.50
PWY-4702	phytate degradation I	2	14	0.14
PWY-6722	candicidin biosynthesis	1	6	0.17
COLANSYN-PWY	colanic acid building blocks biosynthesis	1	1	1.00
PWY-7380	biotin biosynthesis from 8-amino-7-oxononanoate II	2	3	0.67
PWY-7254	TCA cycle VII (acetate-producers)	7	9	0.78
PWY-6728	methylaspartate cycle	9	19	0.47
PWY0-662	PRPP biosynthesis I	1	1	1.00
PWY-6731	starch degradation III	1	4	0.25
PWY-7382	lipoate biosynthesis and incorporation (yeast)	3	7	0.43
PWY-7255	ergothioneine biosynthesis I (bacteria)	1	7	0.14
PWY-6733	sporopollenin precursors biosynthesis	4	18	0.22
PWY-7268	NAD/NADP-NADH/NADPH cytosolic interconversion (yeast)	3	5	0.60
PWY-6543	4-aminobenzoate biosynthesis	2	2	1.00
PWY-7383	anaerobic energy metabolism (invertebrates, cytosol)	4	7	0.57
PWY-5491	diethylphosphate degradation	1	2	0.50
PWY-7384	anaerobic energy metabolism (invertebrates, mitochondrial)	3	10	0.30
PWY-5497	purine nucleobases degradation II (anaerobic)	7	24	0.29
PWY-6735	starch degradation IV	1	3	0.33
PWY-4942	sterculate biosynthesis	1	2	0.50
PWY-7269	NAD/NADP-NADH/NADPH mitochondrial interconversion (yeast)	1	5	0.20
PWY-7385	1,3-propanediol biosynthesis (engineered)	4	9	0.44
PWY-6749	CMP-legionaminate biosynthesis I	2	10	0.20
PWY-4981	L-proline biosynthesis II (from arginine)	2	6	0.33
PWY-6545	pyrimidine deoxyribonucleotides de novo biosynthesis III	7	9	0.78
PWY-7388	octanoyl-[acyl-carrier protein] biosynthesis (mitochondria, yeast)	4	9	0.44
PWY-6756	S-methyl-5'-thioadenosine degradation II	1	1	1.00
PWY-4983	nitric oxide biosynthesis II (mammals)	2	3	0.67
PWY-5506	methanol oxidation to formaldehyde IV	1	2	0.50
PWY-7279	aerobic respiration II (cytochrome c) (yeast)	3	4	0.75
PWY-6549	L-glutamine biosynthesis III	6	9	0.67
PWY0-823	L-arginine degradation III (arginine decarboxylase/agmatinase pathway)	1	2	0.50
PWY0-1329	succinate to cytochrome bo oxidase electron transfer	2	2	1.00
PWY-7726	(4Z,7Z,10Z,13Z,16Z)-docosa-4,7,10,13,16-pentaenoate biosynthesis (6-desaturase)	1	13	0.08
SUCSYN-PWY	sucrose biosynthesis I (from photosynthesis)	4	7	0.57
OXIDATIVEPENT-PWY	pentose phosphate pathway (oxidative branch) I	1	3	0.33
PWY-6599	guanine and guanosine salvage II	1	2	0.50
SALVADEHYPOX-PWY	adenosine nucleotides degradation II	4	5	0.80
PWY-5147	oleate biosynthesis I (plants)	1	3	0.33
PWY-842	starch degradation I	1	3	0.33
PWY-7524	mevalonate pathway III (archaea)	1	8	0.12
PWY-5921	glutaminyl-tRNAgln biosynthesis via transamidation	1	2	0.50
UDPNACETYLGALSYN-PWY	UDP-N-acetyl-D-glucosamine biosynthesis II	2	4	0.50
PWY-6605	adenine and adenosine salvage II	1	2	0.50
SUCUTIL-PWY	sucrose degradation I (sucrose phosphotransferase)	1	3	0.33
PWY-5938	pyruvate fermentation to (R)-acetoin I	1	3	0.33
PLPSAL-PWY	pyridoxal 5'-phosphate salvage I	2	5	0.40
BSUBPOLYAMSYN-PWY	spermidine biosynthesis I	2	2	1.00
PWY-5939	pyruvate fermentation to  (R)-acetoin II	1	2	0.50
PWY-7735	echinomycin and triostin A biosynthesis	1	6	0.17
PWY0-1335	NADH to cytochrome bo oxidase electron transfer I	1	2	0.50
PWY-882	L-ascorbate biosynthesis I (L-galactose pathway)	1	8	0.12
PWY-7736	stellatic acid biosynthesis	1	8	0.12
PWY-7533	gliotoxin biosynthesis	1	9	0.11
PWY-6606	guanosine nucleotides degradation II	2	4	0.50
PWY-5154	L-arginine biosynthesis III (via N-acetyl-L-citrulline)	7	9	0.78
PWY-5958	acridone alkaloid biosynthesis	1	4	0.25
PWY-6607	guanosine nucleotides degradation I	2	4	0.50
PWY-7761	NAD salvage pathway II	3	4	0.75
PWY0-1336	NADH to fumarate electron transfer	1	2	0.50
PWY-7539	6-hydroxymethyl-dihydropterin diphosphate biosynthesis III (Chlamydia)	2	5	0.40
PWY-6608	guanosine nucleotides degradation III	2	4	0.50
PWY-5963	thio-molybdenum cofactor biosynthesis	1	1	1.00
PWY-7544	pyruvate to cytochrome bo oxidase electron transfer	1	2	0.50
PWY-5159	trans-4-hydroxy-L-proline degradation II	2	4	0.50
PWY-922	mevalonate pathway I	1	7	0.14
PWY0-1337	oleate &beta;-oxidation	1	3	0.33
GLUCOSE1PMETAB-PWY	glucose and glucose-1-phosphate degradation	1	5	0.20
PWY-6609	adenine and adenosine salvage III	2	4	0.50
PWY-7765	3-hydroxy-4-methyl-anthranilate biosynthesis II	2	5	0.40
PWY-5965	fatty acid biosynthesis initiation III	1	2	0.50
PWY-5162	2-oxopentenoate degradation	1	3	0.33
PWY0-1353	succinate to cytochrome bd oxidase electron transfer	1	2	0.50
METHIONINE-DEG1-PWY	L-methionine degradation I (to L-homocysteine)	2	3	0.67
PWY-7766	heme b biosynthesis IV (Gram-positive bacteria)	1	4	0.25
PWY-5966	fatty acid biosynthesis initiation II	1	2	0.50
SAM-PWY	S-adenosyl-L-methionine biosynthesis	1	1	1.00
PWY-I9	L-cysteine biosynthesis VI (from L-methionine)	2	5	0.40
PWY-6610	adenine salvage	2	3	0.67
PWY-7767	leucine degradation IV	1	5	0.20
PWY0-1415	superpathway of heme b biosynthesis from uroporphyrinogen-III	3	4	0.75
PWY-7769	phosalacine biosynthesis	1	25	0.04
PWY-6611	adenine and adenosine salvage V	1	3	0.33
ASPARTATESYN-PWY	L-aspartate biosynthesis	1	1	1.00
PWY-5971	palmitate biosynthesis II (bacteria and plants)	22	31	0.71
PWY-7560	methylerythritol phosphate pathway II	7	9	0.78
GLUDEG-I-PWY	GABA shunt	1	4	0.25
PWY-5177	glutaryl-CoA degradation	1	5	0.20
PWY-7562	3,6-anhydro-&alpha;-L-galactopyranose degradation	2	7	0.29
PWY0-1182	trehalose degradation II (trehalase)	1	2	0.50
PWY-5972	stearate biosynthesis I (animals and fungi)	1	6	0.17
GLYOXYLATE-BYPASS	glyoxylate cycle	6	6	1.00
VALDEG-PWY	L-valine degradation I	3	8	0.38
GLYCINE-SYN2-PWY	glycine biosynthesis II	1	1	1.00
GALACTITOLCAT-PWY	galactitol degradation	1	5	0.20
GLUT-REDOX-PWY	glutathione-glutaredoxin redox reactions	2	3	0.67
PWY0-1261	anhydromuropeptides recycling I	9	12	0.75
GLYCLEAV-PWY	glycine cleavage	3	3	1.00
PWY-5973	cis-vaccenate biosynthesis	3	5	0.60
PWY0-1479	tRNA processing	6	10	0.60
PWY-7581	N-acetylneuraminate and N-acetylmannosamine degradation II	1	2	0.50
THIOREDOX-PWY	thioredoxin pathway	1	2	0.50
PWY-7778	2-methylpropene degradation	1	8	0.12
PWY-6613	tetrahydrofolate salvage from 5,10-methenyltetrahydrofolate	1	2	0.50
PWY-7586	&beta;-1,4-D-mannosyl-N-acetyl-D-glucosamine degradation	1	3	0.33
PWY-7779	methyl tert-butyl ether degradation	1	10	0.10
PWY-5188	tetrapyrrole biosynthesis I (from glutamate)	4	6	0.67
PWY-6614	tetrahydrofolate biosynthesis	1	3	0.33
UDPNAGSYN-PWY	UDP-N-acetyl-D-glucosamine biosynthesis I	5	5	1.00
PWY0-1507	biotin biosynthesis from 8-amino-7-oxononanoate I	2	3	0.67
RIBOKIN-PWY	ribose phosphorylation	1	3	0.33
GALACTUROCAT-PWY	D-galacturonate degradation I	2	5	0.40
CALVIN-PWY	Calvin-Benson-Bassham cycle	7	13	0.54
PWY0-1264	biotin-carboxyl carrier protein assembly	3	4	0.75
HISTSYN-PWY	L-histidine biosynthesis	9	10	0.90
GLYCOCAT-PWY	glycogen degradation I	2	8	0.25
PWY-5189	tetrapyrrole biosynthesis II (from glycine)	2	4	0.50
PWY-5981	CDP-diacylglycerol biosynthesis III	3	5	0.60
PWY-7606	docosahexaenoate biosynthesis III (6-desaturase, mammals)	1	14	0.07
PWY-7790	UMP biosynthesis II	4	6	0.67
PWY-5987	sorgoleone biosynthesis	1	8	0.12
PWY-5194	siroheme biosynthesis	1	4	0.25
CAMALEXIN-SYN	camalexin biosynthesis	1	9	0.11
PWY-7791	UMP biosynthesis III	3	6	0.50
PWY-5989	stearate biosynthesis II (bacteria and plants)	3	6	0.50
ANAGLYCOLYSIS-PWY	glycolysis III (from glucose)	8	10	0.80
PWY0-1275	lipoate biosynthesis and incorporation II	2	2	1.00
PWY-6617	adenosine nucleotides degradation III	1	1	1.00
PWY-6876	isopropanol biosynthesis (engineered)	1	5	0.20
PWY-6123	inosine-5'-phosphate biosynthesis I	5	6	0.83
PWY-6946	cholesterol degradation to androstenedione II (cholesterol dehydrogenase)	1	22	0.05
14DICHLORBENZDEG-PWY	1,4-dichlorobenzene degradation	1	9	0.11
PWY-7104	dTDP-L-megosamine biosynthesis	2	8	0.25
PWY-1361	benzoyl-CoA degradation I (aerobic)	1	7	0.14
PWY-6883	pyruvate fermentation to butanol II (engineered)	1	6	0.17
PWY-5074	mevalonate degradation	1	2	0.50
PWY-1422	vitamin E biosynthesis (tocopherols)	1	7	0.14
P161-PWY	acetylene degradation	1	5	0.20
PWY-6886	1-butanol autotrophic biosynthesis (engineered)	4	5	0.80
PWY-5076	L-leucine degradation III	1	3	0.33
PWY-7111	pyruvate fermentation to isobutanol (engineered)	3	5	0.60
HOMOCYSDEGR-PWY	L-cysteine biosynthesis III (from L-homocysteine)	1	4	0.25
PWY-6124	inosine-5'-phosphate biosynthesis II	5	5	1.00
PWY-6953	dTDP-3-acetamido-&alpha;-D-fucose biosynthesis	2	5	0.40
PWY-6268	adenosylcobalamin salvage from cobalamin	1	1	1.00
PWY-7112	4-hydroxy-2-nonenal detoxification	1	4	0.25
PWY-6890	4-amino-2-methyl-5-diphosphomethylpyrimidine biosynthesis	1	2	0.50
PWY-5078	L-isoleucine degradation II	1	3	0.33
PCPDEG-PWY	pentachlorophenol degradation	2	12	0.17
PWY-7115	C4 photosynthetic carbon assimilation cycle, NAD-ME type	4	9	0.44
PWY-1581	plastoquinol-9 biosynthesis I	1	3	0.33
GLUTAMINDEG-PWY	L-glutamine degradation I	1	1	1.00
PWY-5083	NAD/NADH phosphorylation and dephosphorylation	3	6	0.50
P162-PWY	L-glutamate degradation V (via hydroxyglutarate)	2	11	0.18
PWY-7117	C4 photosynthetic carbon assimilation cycle, PEPCK type	4	10	0.40
PWY-6269	adenosylcobalamin salvage from cobinamide II	3	7	0.43
HISDEG-PWY	L-histidine degradation I	3	4	0.75
ILEUDEG-PWY	L-isoleucine degradation I	5	6	0.83
PWY-6891	thiazole biosynthesis II (aerobic bacteria)	2	7	0.29
PWY-5084	2-oxoglutarate decarboxylation to succinyl-CoA	3	3	1.00
PWY-1622	formaldehyde assimilation I (serine pathway)	4	13	0.31
HISHP-PWY	L-histidine degradation VI	3	8	0.38
HOMOSERSYN-PWY	L-homoserine biosynthesis	3	3	1.00
PWY-7118	chitin degradation to ethanol	2	6	0.33
P163-PWY	L-lysine fermentation to acetate and butanoate	2	10	0.20
PWY-6963	ammonia assimilation cycle I	1	2	0.50
PROPIONMET-PWY	propanoyl CoA degradation I	1	3	0.33
PWY-6134	L-tyrosine biosynthesis IV	1	1	1.00
PWY-1722	formate assimilation into 5,10-methylenetetrahydrofolate	2	3	0.67
ILEUSYN-PWY	L-isoleucine biosynthesis I (from threonine)	5	7	0.71
P164-PWY	purine nucleobases degradation I (anaerobic)	5	17	0.29
PWY-6277	superpathway of 5-aminoimidazole ribonucleotide biosynthesis	4	5	0.80
PWY-7124	ethylene biosynthesis V (engineered)	6	8	0.75
PWY-6892	thiazole biosynthesis I (facultative anaerobic bacteria)	2	7	0.29
PWY-6142	gluconeogenesis II (Methanobacterium thermoautotrophicum)	8	13	0.62
PWY-1801	formaldehyde oxidation II (glutathione-dependent)	2	3	0.67
PWY-7126	ethylene biosynthesis IV (engineered)	1	3	0.33
NAGLIPASYN-PWY	lipid IVA biosynthesis	5	6	0.83
THREONINE-DEG2-PWY	L-threonine degradation II	2	2	1.00
PWY-6964	ammonia assimilation cycle II	1	2	0.50
GLUTORN-PWY	L-ornithine biosynthesis I	4	5	0.80
PWY-5087	L-glutamate degradation VI (to pyruvate)	1	4	0.25
PWY-6281	L-selenocysteine biosynthesis II (archaea and eukaryotes)	1	4	0.25
PWY-7147	8-amino-7-oxononanoate biosynthesis II	1	2	0.50
PWY-6969	TCA cycle V (2-oxoglutarate:ferredoxin oxidoreductase)	9	12	0.75
PWY-6147	6-hydroxymethyl-dihydropterin diphosphate biosynthesis I	2	5	0.40
PWY-6893	thiamine diphosphate biosynthesis II (Bacillus)	1	2	0.50
PWY-6282	palmitoleate biosynthesis I (from (5Z)-dodec-5-enoate)	6	9	0.67
PWY-181	photorespiration	3	9	0.33
PWY-6973	dTDP-D-olivose, dTDP-D-oliose and dTDP-D-mycarose biosynthesis	2	9	0.22
PWY-6894	thiamine diphosphate biosynthesis I (E. coli)	1	2	0.50
PWY-5097	L-lysine biosynthesis VI	6	7	0.86
P184-PWY	protocatechuate degradation I (meta-cleavage pathway)	1	8	0.12
PWY-1861	formaldehyde assimilation II (assimilatory RuMP Cycle)	6	9	0.67
PWY-6148	tetrahydromethanopterin biosynthesis	2	14	0.14
PWY-7153	grixazone biosynthesis	2	8	0.25
P185-PWY	formaldehyde assimilation III (dihydroxyacetone cycle)	8	12	0.67
LACTOSECAT-PWY	lactose and galactose degradation I	1	4	0.25
PWY-6974	dTDP-L-olivose biosynthesis	2	7	0.29
PWY-6151	S-adenosyl-L-methionine cycle I	1	4	0.25
PWY-6976	dTDP-L-mycarose biosynthesis	2	7	0.29
P21-PWY	pentose phosphate pathway (partial)	2	3	0.67
GLUTAMINEFUM-PWY	L-glutamine degradation II	1	1	1.00
DAPLYSINESYN-PWY	L-lysine biosynthesis I	8	9	0.89
PWY-7158	L-phenylalanine degradation V	2	3	0.67
PROSYN-PWY	L-proline biosynthesis I	3	4	0.75
HSERMETANA-PWY	L-methionine biosynthesis III	2	2	1.00
DETOX1-PWY	superoxide radicals degradation	2	2	1.00
PWY-7159	3,8-divinyl-chlorophyllide a biosynthesis III (aerobic, light independent)	2	9	0.22
PWY-6981	chitin biosynthesis	1	2	0.50
PWY-2161	folate polyglutamylation	4	5	0.80
PWY-6896	thiamine salvage I	1	2	0.50
PWY-5101	L-isoleucine biosynthesis II	5	8	0.62
DETOX1-PWY-1	reactive oxygen species degradation	2	4	0.50
PWY-6984	lipoate salvage II	2	4	0.50
PWY-5103	L-isoleucine biosynthesis III	4	7	0.57
P221-PWY	octane oxidation	1	5	0.20
PWY-6303	methyl indole-3-acetate interconversion	1	2	0.50
PWY-2201	folate transformations I	6	12	0.50
REDCITCYC	TCA cycle VIII (helicobacter)	7	9	0.78
PWY-5104	L-isoleucine biosynthesis IV	4	6	0.67
PWY-6986	alginate degradation	1	6	0.17
PWY-2221	Entner-Doudoroff pathway III (semi-phosphorylative)	5	9	0.56
SULFMETII-PWY	sulfate reduction II (assimilatory)	1	3	0.33
NADPHOS-DEPHOS-PWY	NAD phosphorylation and dephosphorylation	3	3	1.00
PWY-6305	putrescine biosynthesis IV	2	4	0.50
PWY-6897	thiamine salvage II	1	3	0.33
PWY-5108	L-isoleucine biosynthesis V	2	3	0.67
P224-PWY	sulfate reduction V (dissimilatory, to thiosulfate)	1	5	0.20
PWY-7174	S-methyl-5-thio-&alpha;-D-ribose 1-phosphate degradation II	1	4	0.25
PWY-6987	lipoate biosynthesis and incorporation III (Bacillus)	1	3	0.33
PWY-6163	chorismate biosynthesis from 3-dehydroquinate	4	6	0.67
PWY-5109	fermentation to 2-methylbutanoate	3	6	0.50
PWY-7176	UTP and CTP de novo biosynthesis	3	3	1.00
PWY-2301	myo-inositol biosynthesis	1	2	0.50
PWY-6992	1,5-anhydrofructose degradation	1	5	0.20
PWY-6308	L-cysteine biosynthesis II (tRNA-dependent)	1	3	0.33
P23-PWY	reductive TCA cycle I	7	12	0.58
PWY-241	C4 photosynthetic carbon assimilation cycle, NADP-ME type	2	5	0.40
PWY-6999	theophylline degradation	1	9	0.11
NADPHOS-DEPHOS-PWY-1	NAD phosphorylation and transhydrogenation	2	2	1.00
PWY-6901	superpathway of glucose and xylose degradation	5	8	0.62
PWY-6164	3-dehydroquinate biosynthesis I	2	2	1.00
PWY-5870	ubiquinol-8 biosynthesis (eukaryotic)	4	9	0.44
ASPASN-PWY	superpathway of L-aspartate and L-asparagine biosynthesis	1	1	1.00
PWYQT-4450	aliphatic glucosinolate biosynthesis, side chain elongation cycle	5	30	0.17
PWY-6386	UDP-N-acetylmuramoyl-pentapeptide biosynthesis II (lysine-containing)	5	8	0.62
PWY-5509	adenosylcobalamin biosynthesis from adenosylcobinamide-GDP	2	3	0.67
PWY-6387	UDP-N-acetylmuramoyl-pentapeptide biosynthesis I (meso-diaminopimelate containing)	7	8	0.88
PWY-5872	ubiquinol-10 biosynthesis (eukaryotic)	1	9	0.11
PWY-5885	wax esters biosynthesis II	1	4	0.25
PWYQT-4476	indole glucosinolate activation (herbivore attack)	1	13	0.08
PWY-5514	UDP-N-acetyl-D-galactosamine biosynthesis II	3	7	0.43
PWY-5367	petroselinate biosynthesis	2	6	0.33
PWYQT-4477	indole glucosinolate activation (intact plant cell)	1	10	0.10
PWY-5519	D-arabinose degradation III	1	6	0.17
PWY-6389	pyruvate fermentation to (S)-acetoin	1	3	0.33
PWY-5523	5,6-dimethylbenzimidazole biosynthesis I (aerobic)	1	3	0.33
PWY0-862	(5Z)-dodec-5-enoate biosynthesis I	3	6	0.50
PWY-5381	pyridine nucleotide cycling (plants)	4	11	0.36
PWY-5384	sucrose degradation IV (sucrose phosphorylase)	2	4	0.50
TREDEGLOW-PWY	trehalose degradation I (low osmolarity)	1	2	0.50
PWY-5386	methylglyoxal degradation I	2	3	0.67
PWY-5531	3,8-divinyl-chlorophyllide a biosynthesis II (anaerobic)	1	9	0.11
PWY-5390	rutin biosynthesis	1	3	0.33
PWY-5392	reductive TCA cycle II	6	12	0.50
PWY-6397	mycolyl-arabinogalactan-peptidoglycan complex biosynthesis	1	17	0.06
PWY0-901	L-selenocysteine biosynthesis I (bacteria)	1	3	0.33
TRIGLSYN-PWY	diacylglycerol and triacylglycerol biosynthesis	1	7	0.14
ALACAT2-PWY	L-alanine degradation II (to D-lactate)	1	3	0.33
PWY1-2	L-alanine degradation IV	1	1	1.00
PWY1-3	polyhydroxybutanoate biosynthesis	3	3	1.00
ALADEG-PWY	L-alanine degradation I	1	2	0.50
PWY-5418	phenol degradation I (aerobic)	1	1	1.00
PWY-561	superpathway of glyoxylate cycle and fatty acid degradation	3	4	0.75
PWY1A0-6325	actinorhodin biosynthesis	1	12	0.08
PWY-5419	catechol degradation to 2-oxopent-4-enoate II	1	4	0.25
PWY-5901	2,3-dihydroxybenzoate biosynthesis	1	3	0.33
PWY-5644	4-nitrotoluene degradation II	2	9	0.22
PWY-6416	quinate degradation II	1	3	0.33
PWY-5645	4-chloronitrobenzene degradation	2	9	0.22
QUINATEDEG-PWY	quinate degradation I	1	3	0.33
PWY-6435	4-hydroxybenzoate biosynthesis V	1	5	0.20
PWY-5647	2-nitrobenzoate degradation I	3	6	0.50
PWY3O-355	stearate biosynthesis III (fungi)	2	6	0.33
CYSTEINE-DEG-PWY	L-cysteine degradation I	1	3	0.33
PWY-6471	peptidoglycan biosynthesis IV (Enterococcus faecium)	2	6	0.33
PWY-5912	2'-deoxymugineic acid phytosiderophore biosynthesis	1	4	0.25
PWY490-3	nitrate reduction VI (assimilatory)	2	4	0.50
PYRIDNUCSAL-PWY	NAD salvage pathway I	3	6	0.50
PWY-5913	partial TCA cycle (obligate autotrophs)	8	11	0.73
PWY-6486	D-galacturonate degradation II	1	5	0.20
1CMET2-PWY	N10-formyl-tetrahydrofolate biosynthesis	6	9	0.67
TRNA-CHARGING-PWY	tRNA charging	17	21	0.81
PWY-5651	L-tryptophan degradation to 2-amino-3-carboxymuconate semialdehyde	4	5	0.80
PWY-5437	L-threonine degradation I	1	6	0.17
PWY4FS-7	phosphatidylglycerol biosynthesis I (plastidic)	1	2	0.50
HEME-BIOSYNTHESIS-II	heme b biosynthesis I (aerobic)	3	4	0.75
PWY-5652	2-amino-3-carboxymuconate semialdehyde degradation to glutaryl-CoA	4	5	0.80
PWY-6497	D-galactarate degradation II	1	3	0.33
PWY-7198	pyrimidine deoxyribonucleotides de novo biosynthesis IV	5	7	0.71
PWY-7282	4-amino-2-methyl-5-diphosphomethylpyrimidine biosynthesis (yeast)	3	9	0.33
PWY0-1544	proline to cytochrome bo oxidase electron transfer	1	2	0.50
PWY-7199	pyrimidine deoxyribonucleosides salvage	3	5	0.60
ASPARAGINE-BIOSYNTHESIS	L-asparagine biosynthesis I	1	1	1.00
PWY-7288	fatty acid &beta;-oxidation (peroxisome, yeast)	1	5	0.20
PWY-3661	glycine betaine degradation I	2	7	0.29
PWY-7391	isoprene biosynthesis II (engineered)	1	8	0.12
PWY-7883	anhydromuropeptides recycling II	3	8	0.38
PWY-7204	pyridoxal 5'-phosphate salvage II (plants)	2	9	0.22
FERMENTATION-PWY	mixed acid fermentation	9	16	0.56
PWY0-1545	cardiolipin biosynthesis III	1	3	0.33
PWY-3661-1	glycine betaine degradation II (mammalian)	1	4	0.25
PWY-7294	xylose degradation IV	1	7	0.14
PWY-6559	spermidine biosynthesis II	2	4	0.50
PWY-7884	lipoprotein posttranslational modification	2	4	0.50
PWY-3781	aerobic respiration I (cytochrome c)	3	4	0.75
PWY-7295	L-arabinose degradation IV	1	8	0.12
PWY-5723	Rubisco shunt	7	10	0.70
PHESYN	L-phenylalanine biosynthesis I	1	3	0.33
PWY0-1561	glycerol-3-phosphate to cytochrome bo oxidase electron transfer	1	2	0.50
PWY-7205	CMP phosphorylation	2	2	1.00
PWY-7395	D-galactosamine and N-acetyl-D-galactosamine degradation	2	4	0.50
PWY-7301	dTDP-4-O-demethyl-&beta;-L-noviose biosynthesis	3	5	0.60
PWY-6562	norspermidine biosynthesis	2	6	0.33
PWY-7308	acrylonitrile degradation I	1	2	0.50
PWY-5726	deethylsimazine degradation	1	2	0.50
PWY-3801	sucrose degradation II (sucrose synthase)	3	5	0.60
PWY-7396	butanol and isobutanol biosynthesis (engineered)	1	8	0.12
PWY-7310	D-glucosaminate degradation	1	3	0.33
PWY-5741	ethylmalonyl-CoA pathway	2	11	0.18
PWY0-1565	D-lactate to cytochrome bo oxidase electron transfer	1	2	0.50
PWY-7206	pyrimidine deoxyribonucleotides dephosphorylation	1	3	0.33
PWY-7400	L-arginine biosynthesis IV (archaebacteria)	5	9	0.56
PWY-7312	dTDP-D-&beta;-fucofuranose biosynthesis	2	4	0.50
PWY-6578	8-amino-7-oxononanoate biosynthesis III	1	2	0.50
PWY-381	nitrate reduction II (assimilatory)	1	3	0.33
PWY-7892	tRNA-uridine 2-thiolation (bacteria)	1	8	0.12
PWY-7401	crotonate fermentation (to acetate and cyclohexane carboxylate)	1	15	0.07
PWY-5743	3-hydroxypropanoate cycle	4	13	0.31
PWY-7315	dTDP-N-acetylthomosamine biosynthesis	2	4	0.50
KDO-LIPASYN-PWY	(Kdo)2-lipid A biosynthesis I	1	2	0.50
PWY0-1567	NADH to cytochrome bo oxidase electron transfer II	1	2	0.50
PWY-5744	glyoxylate assimilation	3	13	0.23
MALTOSECAT-PWY	maltose degradation	1	2	0.50
PWY-3821	D-galactose detoxification	1	3	0.33
PWY-7902	glucosylglycerol biosynthesis	1	5	0.20
PWY-7909	formaldehyde oxidation VII (THF pathway)	3	4	0.75
PWY-7210	pyrimidine deoxyribonucleotides biosynthesis from CTP	6	8	0.75
PWY-5747	2-methylcitrate cycle II	3	6	0.50
METH-ACETATE-PWY	methanogenesis from acetate	1	6	0.17
PWY-7921	protein O-mannosylation I (yeast)	2	7	0.29
PWY-3841	folate transformations II	6	11	0.55
PWY-7316	dTDP-N-acetylviosamine biosynthesis	2	4	0.50
PWY-5750	itaconate biosynthesis	2	4	0.50
LYSINE-AMINOAD-PWY	L-lysine biosynthesis IV	1	9	0.11
PWY-7409	phospholipid remodeling (phosphatidylethanolamine, yeast)	1	4	0.25
PWY-7922	protein O-mannosylation II (mammals)	2	5	0.40
PWY-7942	5-oxo-L-proline metabolism	1	6	0.17
GLUAMCAT-PWY	N-acetylglucosamine degradation I	1	2	0.50
PWY-3941	&beta;-alanine biosynthesis II	1	6	0.17
PWY-7411	phosphatidate biosynthesis (yeast)	1	5	0.20
PWY-7216	(R)- and (S)-3-hydroxybutanoate biosynthesis (engineered)	2	5	0.40
PWY-6583	pyruvate fermentation to butanol I	1	8	0.12
ARGININE-SYN4-PWY	L-ornithine biosynthesis II	4	4	1.00
LYSINE-DEG1-PWY	L-lysine degradation XI (mammalian)	2	5	0.40
SERDEG-PWY	L-serine degradation	1	3	0.33
PWY-5766	L-glutamate degradation X	1	1	1.00
PWY-7413	dTDP-6-deoxy-&alpha;-D-allose biosynthesis	2	4	0.50
GLYCOLYSIS	glycolysis I (from glucose 6-phosphate)	10	12	0.83
PWY-7318	dTDP-3-acetamido-3,6-dideoxy-&alpha;-D-glucose biosynthesis	2	5	0.40
PWY-7948	levulinate degradation	2	9	0.22
PWY-3961	phosphopantothenate biosynthesis II	1	3	0.33
PWY-7414	dTDP-&alpha;-D-mycaminose biosynthesis	2	5	0.40
PWY-5783	octaprenyl diphosphate biosynthesis	1	1	1.00
PWY-7218	photosynthetic 3-hydroxybutanoate biosynthesis (engineered)	3	4	0.75
GLYCOLYSIS-E-D	superpathway of glycolysis and the Entner-Doudoroff pathway	1	2	0.50
PWY0-1576	hydrogen to fumarate electron transfer	1	2	0.50
PWY-40	putrescine biosynthesis I	1	2	0.50
PWY-7432	L-phenylalanine biosynthesis III (cytosolic, plants)	2	4	0.50
PWY-5789	3-hydroxypropanoate/4-hydroxybutanate cycle	5	18	0.28
PWY-7953	UDP-N-acetylmuramoyl-pentapeptide biosynthesis III (meso-diaminopimelate containing)	6	8	0.75
KDO-NAGLIPASYN-PWY	superpathway of (Kdo)2-lipid A biosynthesis	1	4	0.25
PWY-4041	&gamma;-glutamyl cycle	1	4	0.25
PWY-7328	superpathway of UDP-glucose-derived O-antigen building blocks biosynthesis	1	2	0.50
PWY-6588	pyruvate fermentation to acetone	1	5	0.20
PWY-7219	adenosine ribonucleotides de novo biosynthesis	3	4	0.75
CHLOROPHYLL-SYN	3,8-divinyl-chlorophyllide a biosynthesis I (aerobic, light-dependent)	2	9	0.22
PWY0-1582	glycerol-3-phosphate to fumarate electron transfer	1	2	0.50
PWY-581	indole-3-acetate biosynthesis II	2	13	0.15
PWY-7961	phenolyl cobamide biosynthesis	1	3	0.33
PWY-7440	dTDP-&beta;-L-4-epi-vancosamine biosynthesis	2	8	0.25
PWY-4061	glutathione-mediated detoxification I	1	5	0.20
PWY-7342	superpathway of nicotine biosynthesis	1	9	0.11
PWY-7962	adenosylcobinamide-GDP biosynthesis from cobyrinate a,c-diamide	2	5	0.40
PHOSLIPSYN2-PWY	superpathway of phospholipid biosynthesis II (plants)	1	3	0.33
ARGSPECAT-PWY	spermine biosynthesis	1	2	0.50
PWY-7220	adenosine deoxyribonucleotides de novo biosynthesis II	3	4	0.75
PWY-4081	glutathione-peroxide redox reactions	1	3	0.33
PWY0-1586	peptidoglycan maturation (meso-diaminopimelate containing)	3	12	0.25
PWY-7456	&beta;-(1,4)-mannan degradation	1	7	0.14
PWY-801	homocysteine and cysteine interconversion	3	4	0.75
PWY-7343	UDP-&alpha;-D-glucose biosynthesis I	1	2	0.50
PWY-7221	guanosine ribonucleotides de novo biosynthesis	4	4	1.00
PWY-7459	kojibiose degradation	1	2	0.50
PWY-4101	D-sorbitol degradation I	1	3	0.33
PWY-7480	2,3-dihydroxybenzoate degradation	1	5	0.20
PWY-7344	UDP-&alpha;-D-galactose biosynthesis	1	1	1.00
PWY-6596	adenosine nucleotides degradation I	5	8	0.62
ASPARAGINE-DEG1-PWY	L-asparagine degradation I	1	1	1.00
SUCROSEUTIL2-PWY	sucrose degradation VII (sucrose 3-dehydrogenase)	1	4	0.25
PWY-7222	guanosine deoxyribonucleotides de novo biosynthesis II	3	4	0.75
PWY-5826	hypoglycin biosynthesis	2	14	0.14
VALSYN-PWY	L-valine biosynthesis	4	4	1.00
PWY-4984	urea cycle	3	5	0.60
PWY-7654	(8E,10E)-dodeca-8,10-dienol biosynthesis	2	11	0.18
GLUTAMATE-DEG1-PWY	L-glutamate degradation I	1	1	1.00
PWY-7656	Spodoptera littoralis pheromone biosynthesis	2	22	0.09
ASPARAGINE-DEG1-PWY-1	L-asparagine degradation III (mammalian)	2	3	0.67
PWY-6760	xylose degradation III	1	5	0.20
PWY-5	canavanine biosynthesis	2	4	0.50
PWY-5265	peptidoglycan biosynthesis II (staphylococci)	2	6	0.33
GLUTSYN-PWY	L-glutamate biosynthesis I	1	1	1.00
PWY-6620	guanine and guanosine salvage	1	2	0.50
PWY-6787	flavonoid biosynthesis (in equisetum)	2	10	0.20
GLYSYN-PWY	glycine biosynthesis I	1	1	1.00
GLUTATHIONESYN-PWY	glutathione biosynthesis	2	2	1.00
PWY-7657	dTDP-&beta;-L-digitoxose biosynthesis	2	7	0.29
PWY-5269	cardiolipin biosynthesis II	1	3	0.33
RIBOSYN2-PWY	flavin biosynthesis I (bacteria and plants)	7	9	0.78
PWY-6797	6-hydroxymethyl-dihydropterin diphosphate biosynthesis II (Methanocaldococcus)	2	7	0.29
ALANINE-VALINESYN-PWY	L-alanine biosynthesis I	2	3	0.67
PWY-7661	protein N-glycosylation (Haloferax volcanii)	1	11	0.09
CENTFERM-PWY	pyruvate fermentation to butanoate	1	7	0.14
PWY-6799	fatty acid biosynthesis (plant mitochondria)	1	4	0.25
PWY-6803	phosphatidylcholine acyl editing	1	4	0.25
PWY-7663	gondoate biosynthesis (anaerobic)	3	4	0.75
NONMEVIPP-PWY	methylerythritol phosphate pathway I	6	9	0.67
PWY-6808	dTDP-D-forosamine biosynthesis	2	9	0.22
PWY-5278	sulfite oxidation III	1	2	0.50
PWY-7664	oleate biosynthesis IV (anaerobic)	9	14	0.64
GLUTSYNIII-PWY	L-glutamate biosynthesis III	1	1	1.00
COA-PWY	coenzyme A biosynthesis I (prokaryotic)	2	4	0.50
CITRULBIO-PWY	L-citrulline biosynthesis	5	8	0.62
PWY-7674	CMP-8-amino-3,8-dideoxy-D-manno-octulosonate biosynthesis	2	7	0.29
PWY-5022	4-aminobutanoate degradation V	1	7	0.14
NONOXIPENT-PWY	pentose phosphate pathway (non-oxidative branch)	4	5	0.80
PROTOCATECHUATE-ORTHO-CLEAVAGE-PWY	protocatechuate degradation II (ortho-cleavage pathway)	1	4	0.25
COA-PWY-1	superpathway of coenzyme A biosynthesis III (mammals)	1	1	1.00
PWY-5025	indole-3-acetate biosynthesis IV (bacteria)	1	2	0.50
CYSTSYN-PWY	L-cysteine biosynthesis I	1	2	0.50
PWY-6834	spermidine biosynthesis III	2	4	0.50
PWY-6638	sulfolactate degradation III	1	3	0.33
PWY-6840	homoglutathione biosynthesis	1	2	0.50
PWY-5026	indole-3-acetate biosynthesis V (bacteria and fungi)	1	1	1.00
PWY-5298	L-lysine degradation VI	1	3	0.33
NPGLUCAT-PWY	Entner-Doudoroff pathway II (non-phosphorylative)	2	9	0.22
PWY-6842	glutathione-mediated detoxification II	1	8	0.12
PWY-7675	Kdo transfer to lipid IVA II	2	2	1.00
PWY-6848	rutin degradation	1	3	0.33
ASPARAGINESYN-PWY	L-asparagine biosynthesis II	1	1	1.00
PWY-5028	L-histidine degradation II	5	5	1.00
PWY-7676	Kdo8N transfer to lipid IVA	1	2	0.50
PWY-6642	(R)-cysteate degradation	1	3	0.33
PWY-5030	L-histidine degradation III	4	6	0.67
PWY-5316	nicotine biosynthesis	1	9	0.11
ACETOACETATE-DEG-PWY	acetoacetate degradation (to acetyl CoA)	1	2	0.50
PWY-6643	coenzyme M biosynthesis II	1	6	0.17
LIPA-CORESYN-PWY	Lipid A-core biosynthesis	1	10	0.10
PWY-5041	S-adenosyl-L-methionine cycle II	3	4	0.75
PWY-6854	ethylene biosynthesis III (microbes)	1	7	0.14
GLUTAMATE-SYN2-PWY	L-glutamate biosynthesis II	1	1	1.00
PWY-7688	dTDP-D-ravidosamine and dTDP-4-acetyl-D-ravidosamine biosynthesis	2	6	0.33
PWY-0	putrescine degradation III	1	4	0.25
PWY-6855	chitin degradation I (archaea)	2	7	0.29
PWY-6654	phosphopantothenate biosynthesis III (archaebacteria)	1	4	0.25
PWY-6660	2-heptyl-3-hydroxy-4(1H)-quinolone biosynthesis	1	9	0.11
PWY-101	photosynthesis light reactions	1	4	0.25
PWY-7698	2,5-xylenol and 3,5-xylenol degradation	1	13	0.08
PWY-5331	taurine biosynthesis I	1	5	0.20
PWY-6857	retinol biosynthesis	1	7	0.14
PWY-6661	4-hydroxy-2(1H)-quinolone biosynthesis	1	5	0.20
PWY-6859	all-trans-farnesol biosynthesis	1	4	0.25
PWY-1042	glycolysis IV (plant cytosol)	7	10	0.70
CATECHOL-ORTHO-CLEAVAGE-PWY	catechol degradation to &beta;-ketoadipate	1	4	0.25
PPGPPMET-PWY	ppGpp biosynthesis	3	6	0.50
PWY-7710	FeMo cofactor biosynthesis	1	6	0.17
PWY-5340	sulfate activation for sulfonation	2	2	1.00
ASPARTATE-DEG1-PWY	L-aspartate degradation I	1	1	1.00
PWY-5046	2-oxoisovalerate decarboxylation to isobutanoyl-CoA	3	3	1.00
PWY-7717	3-hydroxy-4-methyl-anthranilate biosynthesis I	2	6	0.33
PWY-6863	pyruvate fermentation to hexanol (engineered)	2	11	0.18
PWY-1121	suberin monomers biosynthesis	2	19	0.11
PWY-5054	sorbitol biosynthesis I	1	3	0.33
PWY-6672	cis-genanyl-CoA degradation	1	9	0.11
PWY-6871	3-methylbutanol biosynthesis (engineered)	4	7	0.57
PWY-1269	CMP-3-deoxy-D-manno-octulosonate biosynthesis	3	5	0.60
PWY-7721	methyl phomopsenoate biosynthesis	1	4	0.25
PWY-5344	L-homocysteine biosynthesis	1	2	0.50
PWY-7724	icosapentaenoate biosynthesis III (8-desaturase, mammals)	1	7	0.14
PWY-5057	L-valine degradation II	1	3	0.33
PWY-6873	long chain fatty acid ester synthesis (engineered)	1	4	0.25
