dbRef_id	Common name	Produced (p), Consumed (c), Both (cp)
4-HYDROXY-BUTYRATE	4-hydroxybutanoate	p
2C-METH-D-ERYTHRITOL-CYCLODIPHOSPHATE	2-C-methyl-D-erythritol-2,4-cyclodiphosphate	c
CARBON-MONOXIDE	carbon monoxide	p
Oxidized-2Fe-2S-Ferredoxins	an oxidized [2Fe-2S] ferredoxin	p
L-HISTIDINOL-P	L-histidinol phosphate	cp
CPD-17189	pseudo-adenosyl cobamide	p
S-HYDROXYMETHYLGLUTATHIONE	S-(hydroxymethyl)glutathione	c
4-HYDROXY-L-PROLINE	trans-4-hydroxy-L-proline	p
Oxidized-CycA1-cytochromes	an oxidized CycA1 cytochrome	p
CPD-9385	&gamma;-glutamyl-p-nitroanilide	c
PYRIDOXAL_PHOSPHATE	pyridoxal 5'-phosphate	p
Oxidized-Factor-F420	an oxidized coenzyme F420	cp
2-METHYLMALEATE	citraconate	cp
CPD-173	salicyl alcohol	p
2CH2-3CH3-SUCC	(R)-3-methylitaconate	c
CPD-380	3-sulfopyruvate	cp
CPD-17312	docosahexaenoyl-CoA	p
PYRIDOXAMINE-5P	pyridoxamine 5'-phosphate	c
CPD-3801	melibionate	c
INDOLE	indole	cp
S-LACTOYL-GLUTATHIONE	(R)-S-lactoylglutathione	cp
INDOLE-3-GLYCEROL-P	(1S,2R)-1-C-(indol-3-yl)glycerol 3-phosphate	cp
CPD-9406	(2S)-ethylmalonyl-CoA	c
INDOLEYL-CPD	(indole-3-yl)acetonitrile	c
Oxidized-NrdH-Proteins	an oxidized NrdH glutaredoxin-like protein	p
2-Me-Branched-234-Sat-FA	a 2-methyl branched 2,3,4-saturated fatty acid	c
2-Me-Branched-234-Sat-Fatty-Acyl-CoA	a 2-methyl branched 2,3,4-saturated fatty acyl-CoA	p
CPD-9451	2-isopropylmaleate	cp
PROPIONAMIDE	propionamide	c
2K-4CH3-PENTANOATE	4-methyl-2-oxopentanoate	cp
L-LACTATE	(S)-lactate	c
NALPHANALPHA-DIMETHYL-L-HISTIDINE	N&alpha;,N&alpha;-dimethyl-L-histidine	cp
2K-ADIPATE	2-oxoadipate	cp
INDOLE_ACETATE_AUXIN	(indol-3-yl)acetate	p
CPD-4211	dimethylallyl diphosphate	cp
PROPIONATE	propanoate	cp
PYRIDOXINE-5P	pyridoxine 5'-phosphate	cp
CPD-9612	caldariellaquinone	c
Oxidized-ferredoxins	an oxidized ferredoxin [iron-sulfur] cluster	cp
2-OCTAPRENYL-6-HYDROXYPHENOL	3-(all-trans-octaprenyl)benzene-1,2-diol	c
INDOLE_PYRUVATE	(indol-3-yl)pyruvate	cp
CPD-17365	(4Z,7Z,10Z,13Z,16Z)-docosapentaenoyl-CoA	p
Oxidized-flavodoxins	an oxidized flavodoxin	cp
2-OCTAPRENYL-6-METHOXYPHENOL	2-methoxy-6-(all-trans-octaprenyl)phenol	cp
S-NITROSOGLUTATHIONE	S-nitrosoglutathione	c
L-Methionylaminoacyl-tRNAs	a L-methionylaminoacyl-tRNA	p
Protein-Ser-or-Thr-phosphate	a [protein] (L-serine/L-threonine) phosphate	cp
CPD-19150	(2E,5Z)-dodecenoyl-CoA	cp
ssDNA-RNA-primer-hybrid	an ssDNA/RNA primer hybrid	p
Protein-Tyrosines	a [protein]-L-tyrosine	c
ssRNAs	a single-stranded RNA	cp
Oxo-glutarate-dehydro-suc-DH-lipoyl	a [2-oxoglutarate dehydrogenase E2 protein] N6-S-succinyldihydrolipoyl-L-lysine	cp
Single-Stranded-DNAs	a single stranded DNA	cp
Protein-With-N-Terminal-Met	a peptide with an N-terminal L-methionine	c
Oxo-glutarate-dehydrogenase-DH-lipoyl	a [2-oxoglutarate dehydrogenase E2 protein] N6-dihydrolipoyl-L-lysine	cp
CPD-19151	(S)-3-hydroxy-(5Z)-dodecenoyl-CoA	p
Protein-With-N-Terminal-Pro	a peptide with an N-terminal L-proline	p
tRNA-2-thiouridine34	a 2-thiouridine34 in tRNA	p
PHENYLACETOTHIOHYDROXIMATE	(Z)-N-hydroxy-2-phenylacetimidothioate	cp
CPD-12452	3-dehydrocholate	cp
Protein-With-N-Terminal-X-Pro	a peptide with an N-terminal X-L-proline	c
Lipoprotein-signal-peptide	a lipoprotein signal peptide	p
NAPHTHALENE	naphthalene	c
CPD-19153	3-oxo-(5Z)-dodecenoyl-CoA	c
CARBOXYPHENYLAMINO-DEOXYRIBULOSE-P	1-(o-carboxyphenylamino)-1'-deoxyribulose 5'-phosphate	cp
Oxo-glutarate-dehydrogenase-lipoyl	a [2-oxoglutarate dehydrogenase E2 protein] N6-lipoyl-L-lysine	cp
Lipoyl-Protein-L-Lysine	a [lipoyl-carrier protein]-L-lysine	c
tRNA-Adenosines-37	an adenosine37 in tRNA	c
CPD-12575	UDP-&alpha;-D-glucose	cp
Lipoyl-Protein-N6-lipoyllysine	a [lipoyl-carrier protein]-N6-lipoyl-L-lysine	p
Protein-formylglycine	a [sulfatase]-3-oxo-L-alanine	p
CPD-19154	(S)-3-hydroxy-(7Z)-tetradecenoyl-CoA	p
tRNA-Containing-5MeAminoMe-2-ThioU	a 5-methylaminomethyl-2-thiouridine34 in tRNA	c
GLYCEROL	glycerol	cp
S-Substituted-Glutathione	a glutathione-toxin conjugate	p
tRNA-Dihydrouridines	a 5,6-dihydrouridine in tRNA	p
Protein-phospho-L-histidines	a [protein]-N-phospho-L-histidine	cp
S-Substituted-L-Cysteines	an L-cysteine-S-conjugate	c
CPD-19155	(S)-3-hydroxy-(9Z)-hexadecenoyl-CoA	p
CPD-12634	(glutathion-S-yl)(1H-indol-3-yl)acetonitrile	p
Protein-pi-phospho-L-histidines	a [protein]-N&pi;-phospho-L-histidine	c
P-AMINO-BENZOATE	4-aminobenzoate	cp
Protein-tauphospho-L-histidines	a [protein]-N&tau;-phospho-L-histidine	c
CPD-19157	3-oxo-(7Z)-tetradecenoyl-CoA	c
GLYCEROL-3P	sn-glycerol 3-phosphate	cp
Protein-tyrosine-phosphates	a [protein]-L-tyrosine phosphate	p
Long-Chain-Acyl-CoAs	a long-chain acyl-CoA	p
CPD-12760	(R)-4-phosphopantoate	c
P-COUMAROYL-COA	4-coumaroyl-CoA	cp
CPD-19158	3-oxo-(9Z)-hexadecenoyl-CoA	c
Long-Chain-Fatty-Acids	a long-chain fatty acid	c
AMINO-HYDROXYMETHYL-METHYL-PYR-P	4-amino-2-methyl-5-(phosphooxymethyl)pyrimidine	cp
Proteins-With-N-Terminal-Asp	an N-terminal L-aspartyl-[protein]	c
tRNA-Sec	a tRNAsec	c
S2O3	thiosulfate	cp
Long-Chain-Polyphosphate	long chain polyphosphate	cp
CPD-19159	(S)-3-hydroxy-(11Z)-octadecenoyl-CoA	p
Proteins-with-correct-disulfides	a protein with correct disulfide bonds	cp
CYTIDINE	cytidine	p
Proteins-with-incorrect-disulfides	a protein with incorrect disulfide bonds	cp
CPD-12826	folate	c
tRNA-pseudouridine-38-40	a pseudouridine38-40 in tRNA	p
Stearoyl-ACPs	a stearoyl-[acp]	c
CPD-19160	3-oxo-(11Z)-octadecenoyl-CoA	c
tRNA-uridine-38-40	a uridine38-40 in tRNA	c
3-MERCAPTO-PYRUVATE	3-mercaptopyruvate	c
BIO-5-AMP	biotinyl-5'-adenylate	p
CPD0-2350	a polycistronic tRNA precursor	cp
CPD0-2351	a tRNA precursor with a 5' extension and a long 3' trailer	p
CPD-7003	tetrahydrogeranylgeranyl diphosphate	cp
CPD0-2352	a tRNA precursor with a 5' extension and a short 3' extension	cp
TAURINE	taurine	c
CPD0-2353	a tRNA precursor with a short 3' extension	c
3-METHYL-CROTONYL-COA	3-methylcrotonyl-CoA	cp
UDP-AA-GLUTAMATE	UDP-N-acetyl-&alpha;-D-muramoyl-L-alanyl-D-glutamate	cp
CPD0-2354	a tRNA precursor with a 5' extension	p
CPD-7004	dihydrogeranylgeranyl chlorophyll a	cp
5-OXOPROLINE	5-oxo-L-proline	c
BIOTIN	biotin	cp
P-HYDROXY-PHENYLPYRUVATE	4-hydroxyphenylpyruvate	cp
DEHYDRO-DEOXY-GALACTONATE-PHOSPHATE	2-dehydro-3-deoxy-D-galactonate 6-phosphate	cp
UDP-AAGM-DIAMINOHEPTANEDIOATE	UDP-N-acetyl-&alpha;-D-muramoyl-L-alanyl-&gamma;-D-glutamyl-meso-2,6-diaminopimelate	cp
5-P-BETA-D-RIBOSYL-AMINE	5-phospho-&beta;-D-ribosylamine	cp
Ubiquinols	an ubiquinol	cp
CPD-7005	geranylgeranyl chlorophyll a	c
GLUCONATE	D-gluconate	cp
UDP-ACETYL-CARBOXYVINYL-GLUCOSAMINE	UDP-N-acetyl-&alpha;-D-glucosamine-enolpyruvate	cp
TREHALOSE	&alpha;,&alpha;-trehalose	p
SACCHAROPINE	L-saccharopine	c
Ubiquinones	a ubiquinone	cp
TREHALOSE-6P	&alpha;,&alpha;-trehalose 6-phosphate	cp
DEHYDROQUINATE	3-dehydroquinate	cp
CPD-7006	tetrahydrogeranylgeranyl chlorophyll a	cp
3-METHYLTHIOPROPYLHYDROXAMIC-ACID	(E)-N-hydroxy-4-(methylsulfanyl)butimidothioate	cp
Unfolded-Proteins	an unfolded protein	cp
DELTA1-PIPERIDEINE-2-6-DICARBOXYLATE	(S)-2,3,4,5-tetrahydrodipicolinate	cp
CPD0-2500	p-nitrophenyl-&alpha;-D-galactopyranoside	c
CPD-7066	(2R,3S)-3-methylmalate	p
P-NITROPHENOL	4-nitrophenol	p
3-Methyl-Saturated-Fatty-Acids	a 3-methyl-branched 2,3,4-saturated fatty acid	c
Unspecified-Degradation-Products	[unspecified degradation products]	p
CPD0-881	N-acetyl-D-muramate 6-phosphate	p
Unsulfurated-Sulfur-Acceptors	an unsulfurated [sulfur carrier]	cp
3-Methyl-Saturated-Fatty-Acyl-CoA	a 3-methyl-branched 2,3,4-saturated fatty acyl-CoA	p
CPD-7076	2-methylbutanoate	c
Unwound-DNA	an unwound double-stranded DNA	p
5-P-RIBOSYL-N-FORMYLGLYCINEAMIDE	N2-formyl-N1-(5-phospho-&beta;-D-ribosyl)glycinamide	c
Unwound-RNA	an unwound RNA	p
TDP	dTDP	cp
NAcMur-Peptide-Undecaprenols	a N-acetylmuramoyl-pentapeptide-diphosphoundecaprenol	p
5-PHOSPHO-RIBOSYL-GLYCINEAMIDE	N1-(5-phospho-&beta;-D-ribosyl)glycinamide	p
COB-I-ALAMIN	cob(I)alamin	c
CPD-708	campest-4-en-3&beta;-ol	c
3-OCTAPRENYL-4-HYDROXYBENZOATE	3-octaprenyl-4-hydroxybenzoate	cp
HOMOGENTISATE	homogentisate	cp
UDP-MURNAC-TETRAPEPTIDE	UDP-N-acetylmuramoyl-L-alanyl-&gamma;-D-glutamyl-meso-2,6-diaminopimeloyl-D-alanine	p
CPD0-882	1,6-anhydro-N-acetyl-&beta;-muramate	cp
5-PHOSPHORIBOSYL-5-AMINOIMIDAZOLE	5-amino-1-(5-phospho-&beta;-D-ribosyl)imidazole	cp
CPD-7100	(2S)-2-isopropyl-3-oxosuccinate	cp
Acceptor	an oxidized electron acceptor	cp
VAL	L-valine	cp
P-RIBOSYL-4-SUCCCARB-AMINOIMIDAZOLE	5'-phosphoribosyl-4-(N-succinocarboxamide)-5-aminoimidazole	cp
Elongation-tRNAMet	elongator tRNAMet	c
CPD-10826	4-methyl-3-oxoadipate	c
CPD-465	presqualene diphosphate	cp
METHIONYL-PEPTIDE	an N-terminal L-methionyl-[protein]	p
CPD-1083	(E)-2-methylcrotonoyl-CoA	cp
AMINO-HYDROXYMETHYL-METHYLPYRIMIDINE-PP	4-amino-2-methyl-5-(diphosphomethyl)pyrimidine	p
CPD-10832	4-methyl-3-oxoadipyl-CoA	p
CATECHOL	catechol	p
N-ACETYL-GLUTAMYL-P	N-acetylglutamyl-phosphate	cp
Acetoacetyl-ACPs	an acetoacetyl-[acp]	cp
AMINO-OH-HYDROXYMETHYL-DIHYDROPTERIDINE	6-(hydroxymethyl)-7,8-dihydropterin	c
CPD-468	L-2-aminoadipate	cp
CPD-469	N-acetyl-L-glutamate 5-semialdehyde	cp
DIMETHYL-D-RIBITYL-LUMAZINE	6,7-dimethyl-8-(1-D-ribityl)lumazine	cp
METHYL-GLYOXAL	methylglyoxal	cp
AMINO-RIBOSYLAMINO-1H-3H-PYR-DIONE	5-amino-6-(D-ribitylamino)uracil	cp
DIMETHYLBENZIMIDAZOLE	5,6-dimethylbenzimidazole	c
CPD-1091	(S)-ureidoglycolate	c
METHYL-MALONYL-COA	(R)-methylmalonyl-CoA	cp
FAD	FAD	cp
CD-S-SP-Complex	a [cysteine desulfurase]-S-sulfanyl-[disordered-form scaffold protein] complex	c
AMINOMETHYLDIHYDROLIPOYL-GCVH	a [glycine-cleavage complex H protein] N6-aminomethyldihydrolipoyl-L-lysine	cp
CPD-1099	raffinose	cp
L-ORNITHINE	L-ornithine	cp
CPD-9699	hypoglycin A	c
CPD-219	D-lysine	c
tRNA-uridine34	a uridine34 in tRNA	c
CPD-9700	hypoglycin B	p
tRNA-uridines	a uridine in tRNA	c
LysW-L-glutamate	a [2-aminoadipate carrier protein]-L-glutamate	c
CPD-15184	N-acetyl-&alpha;-D-muramoyl-L-alanine(1-)	c
LysW-L-glutamate-5-phosphate	a [2-aminoadipate carrier protein]-L-glutamate 5-phosphate	cp
tRNA-with-7-aminomethyl-7-deazaguanine	a 7-aminomethyl-7-deazaguanosine34 in tRNA	cp
LysW-L-glutamate-5-semialdehyde	a [2-aminoadipate carrier protein]-L-glutamate 5-semialdehyde	cp
NIACINE	nicotinate	cp
Actinorhodin-Intermediate-2	9-hydroxy-3,5,7,11,13,15-hexaoxohexadecanoyl-[PKS-acp]	p
CPD-9869	all trans-decaprenyl-2-methoxy-6-1,4-benzoquinol	c
CPD-220	D-arginine	c
CPD-15244	3-oxo-(5Z)-tetradecenoyl-CoA	c
tRNAs	an uncharged tRNA	p
L-PANTOATE	(R)-pantoate	cp
tRNAs-containing-epoxy-quenosine	an epoxyqueuosine34 in tRNA	cp
LysW-L-ornithine	a [2-aminoadipate carrier protein]-L-ornithine	cp
CYTOSINE	cytosine	c
Lysidine-tRNA-Ile2	a lysidine34 in tRNAIle2	p
PYRROLINE-HYDROXY-CARBOXYLATE	(3R,5S)-3-hydroxy-1-pyrroline-5-carboxylate	c
PROPIONYL-COA	propanoyl-CoA	cp
tRNAs-with-queuine	a queuosine34 in tRNA	p
2-OCTAPRENYLPHENOL	2-octaprenylphenol	p
ACETYL-ACP	an acetyl-[acp]	c
CPD-15280	hercynine	p
CPD-9871	6-methoxy-3-methyl-2-all-trans-decaprenyl-1,4-benzoquinol	p
Acyl-Phosphates	an acyl phosphate	c
ACETYL-COA	acetyl-CoA	cp
CPD-235	3-phosphonopyruvate	c
L-PHOSPHATIDATE	a 1,2-diacyl-sn-glycerol 3-phosphate	c
MACROCIN	macrocin	c
4-MALEYL-ACETOACETATE	4-maleyl-acetoacetate	cp
CPD-9956	ubiquinol-8	p
L-RIBULOSE	L-ribulose	c
2-OXOBUTANOATE	2-oxobutanoate	p
CPD-15285	N&alpha;-methyl-L-histidine	cp
L-RIBULOSE-5-P	L-ribulose 5-phosphate	p
CPD-237	(indol-3-yl)acetamide	c
PROT-CYS	a [protein]-L-cysteine	c
NICOTINAMIDE_NUCLEOTIDE	&beta;-nicotinamide D-ribonucleotide	cp
CPD-15301	caldariellaquinol	p
CPD-9965	icosanoyl-CoA	cp
MAL	(S)-malate	cp
CPD-15317	D-ribofuranose 5-phosphate	p
PROTEIN-L-BETA-ISOASPARTATES	a [protein]-L-&beta;-isoaspartate	c
CPD-242	2,4'-dihydroxyacetophenone	c
4-METHYLCATECHOL	4-methylcatechol	p
CPD-15360	2-sulfanyl-N6-dimethylallyladenosine37 in tRNA	cp
Sulfatase-L-cysteine	a [sulfatase]-L-cysteine	c
PROTEIN-L-BETA-ISOSPARTATE-METHYL-ESTERS	a protein L-&beta;-isoaspartate &alpha;-methyl ester	p
CPD0-1027	a debranched &alpha;-limit dextrin	c
ADENYLOSUCC	adenylo-succinate	cp
L-SELENOCYSTEINE	L-selenocysteine	p
CPD0-1080	GlcNAc-1,6-anhMurNAc-L-Ala-&gamma;-D-Glu-DAP-D-Ala	c
PROTEIN-LIPOYLLYSINE	a [glycine-cleavage complex H protein] N6-lipoyl-L-lysine	cp
SE-2	selenide	c
CPD-12849	(1E,3E)-4-hydroxybuta-1,3-diene-1,2,4-tricarboxylate	cp
CPD-19161	(2E,7Z)-tetradecenoyl-CoA	cp
CPD-17370	18-hydroxyoleoyl-CoA	cp
FADH2	FADH2	cp
CPD-19162	(2E,9Z)-hexadecenoyl-CoA	cp
CPD-12932	all-trans-3,4-didehydrolycopene	c
CPD-17372	1-[18-hydroxyoleyl]-2-lyso-phosphatidate	p
NICOTINAMIDE_RIBOSE	1-(&beta;-D ribofuranosyl)nicotinamide	p
METHYL-THMPT	N5-methyltetrahydromethanopterin	cp
CPD-19163	(2E,11Z)-octadecenoyl-CoA	cp
CPD-12935	4'-apo-&beta;-carotenal	p
CPD-17386	(2E,6Z,9Z,12Z,15Z,18Z,21Z)-tetracosaheptaenoyl-CoA	c
CPD-19167	3-oxo-(7Z)-hexadecenoyl-CoA	c
TETRACHLOROHYDROQUINONE	2,3,5,6-tetrachlorohydroquinone	c
GLYCEROPHOSPHOGLYCEROL	glycerophosphoglycerol	c
CPD-12936	apo-4'-lycopenal	p
CPD-17387	(3S)-hydroxy-(6Z,9Z,12Z,15Z,18Z,21Z)-tetracosahexaenoyl-CoA	p
CPD-1301	tetrahydropteroyl tri-L-glutamate	cp
CPD-19168	(S)-3-hydroxy-(7Z)-hexadecenoyl-CoA	p
CPD-17388	3-oxo-(6Z,9Z,12Z,15Z,18Z,21Z)-tetracosahexaenoyl-CoA	c
CPD-19169	3-oxo-(9Z)-octadecenoyl-CoA	c
CPD-1302	5-methyltetrahydropteroyl tri-L-glutamate	cp
GALACTOSE	&beta;-D-galactose	cp
CPD-19170	(2E,7Z)-hexadecenoyl-CoA	cp
CPD-13035	adenylyl molybdenum cofactor	p
3-4-DIHYDROXYBENZOATE	protocatechuate	cp
Sulfur-Carrier-Proteins-ThiI	a [ThiI sulfur-carrier protein]-L-cysteine	cp
UDP-N-ACETYL-D-GLUCOSAMINE	UDP-N-acetyl-&alpha;-D-glucosamine	cp
VAL-tRNAs	a tRNAVal	c
CPD1F-2	(-)-methyl jasmonate	c
CDP	CDP	cp
UDP-N-ACETYLMURAMATE	UDP-N-acetyl-&alpha;-D-muramate	cp
DELTA3-ISOPENTENYL-PP	isopentenyl diphosphate	cp
CDP-2-3-4-Saturated-Diacylglycerols	a CDP-2,3,4-saturated-diacylglycerol	p
BISOHMYR-GLC	lipid A disaccharide	cp
CPD-110	salicylate	cp
NICOTINATE_NUCLEOTIDE	&beta;-nicotinate D-ribonucleotide	cp
ACETYL-GLU	N-acetyl-L-glutamate	cp
CPD1G-1344	&alpha;, &alpha;'-trehalose 6-&alpha;-mycolate	p
SELENATE	selenate	c
CPD-11020	5-chloro-4-hydroxy-2-oxopentanoate	p
BISOHMYR-GLUCOSAMINYL-1P	lipid X	cp
Sulfurated-Sulfur-Acceptors	a sulfurated [sulfur carrier]	cp
DUDP	dUDP	cp
Carboxylates	a carboxylate	cp
PYRUVATE	pyruvate	cp
CPD1G-1345	trehalose-cis-methoxy-mono-mycolate	p
Carboxylic-esters	a carboxylic ester	c
N-ALPHA-ACETYLORNITHINE	N-acetyl-L-ornithine	cp
DEOXYADENOSINE	2'-deoxyadenosine	c
CDPDIACYLGLYCEROL	a CDP-diacylglycerol	cp
CPD1G-1346	trehalose-trans-methoxy-mono-mycolate	p
Sulfurylated-ThiI	a [ThiI sulfur-carrier protein]-S-sulfanyl-L-cysteine	cp
N-Acetoxy-Arylamines	an N-acetoxyarylamine	p
COBINAMIDE	cobinamide	c
CPD-1108	a 1-phosphatidyl-1D-myo-inositol 4-phosphate	p
CPD1G-1353	trehalose-cis-keto-mono-mycolate	p
CPD-1109	an N-acyl-D-mannosamine	cp
INOSINE	inosine	p
CPD1G-1354	trehalose-trans-keto-mono-mycolate	p
CPD1G-768	6-O-&alpha;-mycolyl-trehalose 6-phosphate	c
GLUCOSAMINE-1P	D-glucosamine 1-phosphate	cp
VANILLATE	vanillate	c
CPD-11222	5-chloroprotocatechuate	c
CPD1G-771	6-O-cis-methoxy-mycolyl-trehalose 6-phosphate	c
N-Acetyl-beta-D-Hexosaminides	an N-acetyl-&beta;-D-hexosaminide	c
CPD1G-772	6-O-trans-methoxy-mycolyl-trehalose 6-phosphate	c
Kanamycin-3-phosphates	a kanamycin 3'-phosphate	p
FARNESYL-PP	(2E,6E)-farnesyl diphosphate	c
SELENOHOMOCYSTEINE	seleno-L-homocysteine	p
Supercoiled-Duplex-DNAs	a supercoiled duplex DNA	c
DEOXYGUANOSINE	2'-deoxyguanosine	p
Kanamycins	a kanamycin	c
T2-C4-DECADIENYL-COA	trans-&Delta;2, cis-&Delta;4-decadienoyl-CoA	c
CPD1G-773	6-O-cis-keto-mycolyl-trehalose 6-phosphate	c
DUMP	dUMP	cp
CPD1G-774	6-O-trans-keto-mycolyl-trehalose 6-phosphate	c
CPD-11223	6-chloro-2-hydroxy-4-carboxymuconate-6-semialdehyde	p
Cellodextrins	a cellodextrin	c
CPD-479	4-(methylsulfanyl)-2-oxobutanoate	cp
DIMETHYLMAL-CPD	dimethylmaleate	p
PHOSPHO-ENOL-PYRUVATE	phosphoenolpyruvate	cp
Glucopyranose	D-glucopyranose	cp
CPD0-1081	N-acetyl-&beta;-D-glucosamine-1,6-anhydro-N-acetyl-&beta;-D-muramate	cp
4-NITROANILINE	4-nitroaniline	p
CPD-245	3-carboxy-cis,cis-muconate	cp
5-PHOSPHORIBOSYL-N-FORMYLGLYCINEAMIDINE	2-(formamido)-N1-(5-phospho-&beta;-D-ribosyl)acetamidine	cp
CPD-520	quercetin	c
SEPO3	selenophosphate	cp
CPD0-1082	L-alanyl-&gamma;-D-glutamyl-meso-2,6-diaminopimeloyl-D-alanine	cp
Charged-ALA-tRNAs	an L-alanyl-[tRNAAla]	p
Glutamates	glutamate	p
Charged-ARG-tRNAs	an L-arginyl-[tRNAArg]	cp
Glutamine-synthetase-Tyr	a [glutamine-synthetase]-L-tyrosine	c
CPD0-1085	L-alanyl-&gamma;-D-glutamyl-meso-2,6-diaminopimeloyl-D-alanyl-D-alanine	p
L-1-GLYCEROPHOSPHORYLETHANOL-AMINE	sn-glycero-3-phosphoethanolamine	c
Glutamine-synthetase-adenylyl-Tyr	a [glutamine synthetase]-O4-(5'-adenylyl)-L-tyrosine	p
4-OH-4-ACETYL-2-OXOGLUTARATE	2-hydroxy-4-oxobutane-1,2,4-tricarboxylate	cp
L-arginyl-3-sulfino-L-alaninyl-Peptides	an N-terminal L-arginiyl-3-sulfino-L-alanyl-[protein]	p
5-Phospho-terminated-DNAs	a 5'-phospho-[DNA]	cp
L-arginyl-3-sulfo-L-alaninyl-Peptides	an N-terminal L-arginiyl-3-sulfo-L-alanyl-[protein]	p
Glutaryl-ACP-methyl-esters	a glutaryl-[acp] methyl ester	c
4-OXALOMESACONATE	(1E)-4-oxobut-1-ene-1,2,4-tricarboxylate	p
L-arginyl-L-Glutamyl-Peptides	an N-terminal L-arginiyl-L-glutamyl-[protein]	p
NITRITE	nitrite	p
L-arginyl-L-aspartyl-Peptides	an N-terminal L-arginiyl-L-aspartyl-[protein]	p
L-glutamyl-tRNAGln	an L-glutamyl-[tRNAGln]	c
CPD-270	an N-acyl-D-glucosamine	cp
AMMONIUM	ammonium	cp
CPD0-1096	glucosamine 1,6-diphosphate	cp
5-phosphooligonucleotides	a 5'-phosphooligonucleotide	p
Charged-CYS-tRNAs	an L-cysteinyl-[tRNACys]	cp
Glycerol-1-phosphate	glycerol 1-phosphate	c
L-leucyl-L-arginyl-Protein	a [protein] N-terminal L-leucyl-L-arginine	p
CPD0-1112	&beta;-L-rhamnopyranose	p
Glycerophosphodiesters	a glycerophosphodiester	c
L-1-LYSOPHOSPHATIDATE	1-oleyl-2-lyso-phosphatidate	p
L-leucyl-L-lysyl-Protein	a [protein] N-terminal L-leucyl-L-lysine	p
SER	L-serine	cp
CPD-548	S-formylglutathione	cp
Charged-GLN-tRNAs	an L-glutaminyl-[tRNAGln]	p
L-1-PHOSPHATIDYL-ETHANOLAMINE	an L-1-phosphatidylethanolamine	p
L-methionyl-L-alanyl-Protein	an N-terminal-L-methionyl-L-alanyl-[protein]	c
DITP	dITP	cp
CPD0-1123	N-acetyl-&beta;-neuraminate	cp
CPD-293	5-&alpha;-pregnane-3,20-dione	cp
L-methionyl-L-cysteinyl-Protein	an N-terminal-L-methionyl-L-cysteinyl-[protein]	c
L-methionyl-L-seryl-Protein	an N-terminal-L-methionyl-L-seryl-[protein]	c
CELLOBIOSE	&beta;-D-cellobiose	p
Charged-GLT-tRNAs	an L-glutamyl-[tRNAGlu]	c
L-methionyl-L-threonyl-Protein	an N-terminal-L-methionyl-L-threonyl-[protein]	c
AMP	AMP	cp
4-P-PANTOTHENATE	(R)-4'-phosphopantothenate	p
Glycogens	a glycogen	cp
L-1-PHOSPHATIDYL-GLYCEROL	an L-1-phosphatidyl-sn-glycerol	cp
L-methionyl-L-valyl-Protein	an N-terminal-L-methionyl-L-valyl-[protein]	c
CPD-551	phosphonoacetaldehyde	p
L-1-PHOSPHATIDYL-GLYCEROL-P	1-(3-sn-phosphatidyl)-sn-glycerol 3-phosphate	cp
L-methionyl-glycyl-Protein	an N-terminal-L-methionyl-glycyl-[protein]	c
L-methionyl-tRNAfmet	an L-methionyl-[initiator tRNAMet]	cp
RIBOSE-5P	D-ribose 5-phosphate	cp
CPD0-1133	maltoheptaose	c
L-1-PHOSPHATIDYL-SERINE	a 3-O-sn-phosphatidyl-L-serine	cp
P3I	PPPi	p
SER-tRNAs	a tRNAser	c
PHOSPHORIBOSYL-AMP	1-(5-phospho-&beta;-D-ribosyl)-AMP	cp
Charged-HIS-tRNAs	an L-histidyl-[tRNAHis]	p
CPD-294	2-maleylacetate	p
L-phenylalanyl-L-arginyl-Protein	L-phenylalanyl-L-arginyl-[protein]	p
L-1-phosphatidyl-inositols	a 1-phosphatidyl-1D-myo-inositol	c
4-PHOSPHONOOXY-THREONINE	4-phosphooxy-L-threonine	cp
L-phenylalanyl-L-lysyl-Protein	L-phenylalanyl-L-lysyl-[protein]	p
Charged-ILE-tRNAs	an L-isoleucyl-[tRNAIle]	p
CPD-558	pimeloyl-CoA	c
CPD0-1147	methyl red	c
PROTOHEME	ferroheme b	cp
Guanine34-in-tRNAs	a guanine34 in tRNA	c
CH3-MALONATE-S-ALD	(S)-methylmalonate-semialdehyde	cp
Charged-LEU-tRNAs	an L-leucyl-[tRNALeu]	cp
METHYLENE-THF-GLU-N	a 5,10-methylene-tetrahydrofolate	cp
3-OXO-EICOSAPENTAENOYL-ACP	a 3-oxo-docosapentaenoyl [acp]	c
Charged-LYS-tRNAs	an L-lysyl-[tRNALys]	p
TETRADEHYDROACYL-COA	a (2E,4E)-alkane-2,4-dienoyl-CoA	c
IS30-Insertion-Sequences	an insertion sequence element IS30	cp
CPD-7221	(3Z)-dodec-3-enoyl-CoA	p
Charged-MET-tRNAs	an L-methionyl-[elongator tRNAMet]	p
IS30-with-Integrated-Transposon	an insertion sequence IS30 with integrated transposon	cp
CPD-7238	5&beta;-cholestane-3&alpha;,7&alpha;-diol	p
Charged-PHE-tRNAs	an L-phenylalanyl-[tRNAPhe]	c
METHYLENETETRAHYDROMETHANOPTERIN	5,10-methylene-tetrahydromethanopterin	cp
THF-GLU-N	a tetrahydrofolate	cp
ISOBUTYRATE	isobutanoate	c
3-5-ADP	adenosine 3',5'-bisphosphate	cp
Charged-PRO-tRNAs	an L-prolyl-[tRNAPro]	p
Palmitoleoyl-ACPs	a palmitoleoyl-[acp]	c
Charged-SER-tRNAs	an L-seryl-[tRNAser]	p
ISOBUTYRYL-COA	isobutanoyl-CoA	p
Palmitoyl-ACPs	a palmitoyl-[acp]	c
THIAMINE-P	thiamine phosphate	c
CPD-729	12-oxo-cis-10,15-phytodienoate	c
RIBULOSE-5P	D-ribulose 5-phosphate	cp
THIAMINE-PYROPHOSPHATE	thiamine diphosphate	p
VERY-LONG-CHAIN-FATTY-ACYL-COA	a very long chain fatty acyl-CoA	p
Charged-THR-tRNAs	an L-threonyl-[tRNAThr]	p
CPD-730	3-oxo-2-(cis-2'-pentenyl)-cyclopentane-1-octanoate	p
Charged-TRP-tRNAs	an L-tryptophanyl-[tRNATrp]	p
Charged-TYR-tRNAs	an L-tyrosyl-[tRNATyr]	p
Charged-VAL-tRNAs	an L-valyl-[tRNAVal]	p
Charged-fMET-tRNAs	an N-formyl-L-methionylaminoacyl-tRNA	c
TRP	L-tryptophan	cp
Peptides-holder	a peptide	p
Very-long-chain-fatty-acids	a very-long-chain fatty acid	c
TRP-tRNAs	a tRNATrp	c
ISOCHORISMATE	isochorismate	c
PROTON	H+	cp
DUTP	dUTP	cp
Adjacent-pyrimidine-dimer-in-DNA	a dimer of adjacent pyrimidine nucleosides in DNA	c
CPD-19171	(S)-3-hydroxy-(9Z)-octadecenoyl-CoA	p
COPROPORPHYRINOGEN_I	coproporphyrinogen I	p
Alcohols	an alcohol	p
COPROPORPHYRINOGEN_III	coproporphyrinogen III	cp
SEROTONIN	serotonin	c
CPD-19172	(2E,9Z)-octadecenoyl-CoA	cp
CPD-15382	keto-D-fructose	cp
Chitodextrins	a chitodextrin	cp
GLYCOLALDEHYDE	glycolaldehyde	p
RNA-3-prime-P-cyclase-L-His-adenylate	an [RNA 3'-phosphate cyclase]-N&tau;-(5'-adenylyl)-L-histidine	cp
Aldehydes	an aldehyde	cp
FE+2	Fe2+	cp
CPD-15436	(5Z)-tetradecenoyl-CoA	cp
CPD-19202	L-4-hydroxyphenylglycine-L-arginyl-D-4-hydroxyphenylglycine-L-seryl-L 4-hydroxyphenylglycine	c
PALMITATE	palmitate	cp
CPD-15539	phenyl 5-phospho-&alpha;-D-ribofuranoside	c
COUMARATE	4-coumarate	c
RNA-3-prime-P-cyclase-L-histidine	an [RNA 3'-phosphate cyclase]-L-histidine	cp
CPD-19203	D-4-hydroxyphenylglycine-L-seryl-L 4-hydroxyphenylglycine	p
3-BETA-HYDROXY-5-ALPHA-PREGNANE-20-ONE	allopregnanolone	cp
HS	hydrogen sulfide	cp
CPD-10019	(5S)-5-benzyl-hydantoin	cp
CPD-19205	L-4-hydroxyphenylglycine-L-arginine	p
RNA-DNA-hybrids	a RNA-DNA hybrid	c
HSCN	thiocyanate	p
PALMITYL-COA	palmitoyl-CoA	p
ACETYLSERINE	O-acetyl-L-serine	cp
CPD-15566	(2E,4E)-tetradecadienoyl-CoA	c
GLYCOLLATE	glycolate	p
RNA-Holder	a ribonucleic acid	cp
CPD-19217	S-(hydroxysulfenamide)-glutathione	p
BUTANAL	butan-1-al	p
3-CARBOXY-3-HYDROXY-ISOCAPROATE	(2S)-2-isopropylmalate	cp
CPD-15567	(3E)-tetradec-3-enoyl-CoA	p
CPD-10020	(5R)-5-benzyl-hydantoin	cp
CPD-19395	&gamma;-L-glutamyl-glycylglycine	p
PROTOPORPHYRINOGEN	protoporphyrinogen IX	p
RNA-with-3-prime-pp-5-prime-A-cap	an [RNA]-3'-ribonucleoside-3'-(5'-diphosphoadenosine)	cp
Negatively-super-coiled-DNAs	a negatively supercoiled DNA	cp
CPD-15568	2E)-tetradec-2-enoyl-CoA	c
RNASE-E-DEGRADATION-SUBSTRATE-MRNA	RNase E degradation substrate mRNA	c
RNASE-E-MRNA-PROCESSING-SUBSTRATE	RNase E mRNA processing substrate	c
GAP	D-glyceraldehyde 3-phosphate	cp
FERULIC-ACID	ferulate	cp
CPD-19487	3-isopropyl-10-(methylthio)-2-oxodecanoate	cp
CPD-13043	7-carboxy-7-deazaguanine	cp
ADP	ADP	cp
H2CO3	carbonic acid	cp
2-Oxo-carboxylates	a 2-oxo carboxylate	p
ADP-D-GLUCOSE	ADP-&alpha;-D-glucose	c
2-ACETO-2-HYDROXY-BUTYRATE	(S)-2-aceto-2-hydroxybutanoate	c
CPD-13171	15,9'-di-cis-phytofluene	cp
CPD-17583	a peptidoglycan pentapeptide	p
CPD-17621	16-hydroxypalmitoyl-CoA	p
PROTOPORPHYRIN_IX	protoporphyrin IX	cp
CPD-5662	9-mercaptodethiobiotin	cp
2-PG	2-phospho-D-glycerate	cp
CPD-13172	6-hydroxy-2-cyclohexen-one-carboxylate	p
ADP-D-GLYCERO-D-MANNO-HEPTOSE	ADP-D-glycero-&beta;-D-manno-heptose	c
2-ACETO-LACTATE	(S)-2-acetolactate	c
Cis-Delta5-dodecenoyl-ACPs	a (5Z)-dodec-5-enoyl-[acp]	c
2-PHOSPHO-4-CYTIDINE-5-DIPHOSPHO-2-C-MET	2-phospho-4-(cytidine 5'-diphospho)-2-C-methyl-D-erythritol	p
CPD-17624	&omega;-carboxy-(9Z)-octadec-9-enoyl-CoA	p
CPD-13174	salicyl-6-hydroxy-2-cyclohexene-on-oyl	c
HCN	hydrogen cyanide	c
3-OXOADIPATE-ENOL-LACTONE	(4,5-dihydro-5-oxofuran-2-yl)-acetate	p
Cis-Delta7-tetradecenoyl-ACPs	a cis-&Delta;7-tetradecenoyl-[acp]	c
CPD-17635	(2R)-ethylmalonyl-CoA	p
CPD-582	guanylyl molybdenum cofactor	p
ADP-L-GLYCERO-D-MANNO-HEPTOSE	ADP-L-glycero-&beta;-D-manno-heptose	p
CPD-5821	(S)-2-oxo-4-hydroxy-4-carboxy-5-ureidoimidazoline	p
Cis-delta-3-decenoyl-ACPs	a (3Z)-dec-3-enoyl-[acp]	c
CPD-13179	5-&alpha;-androstan-3&alpha;,17&beta;-diol	cp
2-PROTOCATECHUOYLPHLOROGLUCINOLCARBOXYLA	2-protocatechuoylphloroglucinolcarboxylate	p
UDP-OHMYR-ACETYLGLUCOSAMINE	UDP-3-O-[(3R)-3-hydroxymyristoyl]-N-acetyl-&alpha;-D-glucosamine	c
2-AMINOACRYLATE	2-aminoprop-2-enoate	p
Cis-vaccenoyl-ACPs	a cis-vaccenoyl-[acp]	c
PANTETHEINE-P	4'-phosphopantetheine	cp
CPD-17637	7-hydroxylaurate	c
CPD-13205	cellotetraose	c
GLUTAMATE-1-SEMIALDEHYDE	(S)-4-amino-5-oxopentanoate	cp
UDP-OHMYR-GLUCOSAMINE	UDP-3-O-(3-hydroxymyristoyl)-&alpha;-D-glucosamine	cp
CPD-17638	7-hydroxylauroyl-CoA	p
CPD-13227	N,N',N''-triacetylchitotriose	c
CPD-592	4-guanidinobutanoate	p
2-hydroxyacyl-glutathiones	S-(2-hydroxyacyl)glutathione	c
CPD-17640	18-hydroxystearate	c
2-trans-4-cis-dienoyl-CoAs	a 2-trans-4-cis-dienoyl-CoA	c
PRPP	5-phospho-&alpha;-D-ribose 1-diphosphate	cp
HCO3	hydrogencarbonate	cp
CPD-13339	(2Z,4E)-2-hydroxyhexa-2,4-dienedioate	cp
CPD-11244	an unsaturated pectate oligosaccharide	cp
CPD-734	(-)-jasmonate	p
DNA-Adjacent-Pyrimidines	two adjacent pyrimidine nucleosides in DNA	p
CPD-11281	S-sulfanylglutathione	c
DEOXYINOSINE	2'-deoxyinosine	p
CPD-2961	D-gluconate 6-phosphate	cp
DNA-Combined-With-Exogenous-DNA	DNA combined with exogenous DNA to form a recombinational junction	c
DNA-Cytidines	a 2'-deoxycytidine in DNA	p
CPD-1130	3-ethylmalate	cp
CPD-31	(R)-citramalate	cp
METOH	methanol	cp
CPD-1133	3D-(3,5/4)-trihydroxycyclohexane-1,2-dione	cp
CPD-316	reduced riboflavin	p
CPD-7535	9,15,9'-tri-cis-&zeta;-carotene	p
DEOXYXYLULOSE-5P	1-deoxy-D-xylulose 5-phosphate	cp
CPD-11444	uroporphyrinogen-I	c
CPD-7545	S-(phenylacetothiohydroximoyl)-L-cysteine	cp
SHIKIMATE	shikimate	cp
DEPHOSPHO-COA	3'-dephospho-CoA	cp
DNA-Holder	DNA	p
CPD-7546	S-(4-methylthiobutylhydroximoyl)-L-cysteine	cp
CPD-320	ethylnitronate	c
CPD-763	arsenite	p
CPD-11495	(2-hydroxyphenyl)acetate	p
GDP	GDP	cp
MALONATE-S-ALD	3-oxopropanoate	cp
CPD-7671	methanethiol	c
GDP-4-DEHYDRO-6-DEOXY-D-MANNOSE	GDP-4-dehydro-&alpha;-D-rhamnose	p
PANTOTHENATE	(R)-pantothenate	cp
SHIKIMATE-5P	shikimate 3-phosphate	cp
CPD-7695	ditrans,octacis-undecaprenyldiphospho-N-acetyl-(N-acetyl-&beta;-D-glucosaminyl)muramoyl-L-alanyl-&gamma;-D-glutamyl-L-lysyl-D-alanyl-D-alanine	p
GDP-D-GLUCOSE	GDP-&alpha;-D-glucose	c
CPD-11518	3-oxo-2-(cis-2'-pentenyl)-cyclopentane-1-(E-octa-2-enoyl)-CoA	c
Non-Galactosylated-Galactose-Acceptors	a non galactosylated galactose acceptor	p
Peptidoglycans	a peptidoglycan	c
PHOSPHORIBOSYL-ATP	1-(5-phospho-&beta;-D-ribosyl)-ATP	cp
BUTYRYL-COA	butanoyl-CoA	c
Persulfurated-L-cysteine-desulfurases	an S-sulfanyl-[L-cysteine desulfurase]	p
L-3-HYDROXYACYL-COA	a (3S)-3-hydroxyacyl-CoA	p
L-5-Monosubstituted-Hydantoins	an L-5-monosubstituted hydantoin	cp
L-ALA-GAMMA-D-GLU-DAP	L-alanyl-&gamma;-D-glutamyl-meso-diaminopimelate	c
Decanoyl-ACPs	a decanoyl-[acp]	c
L-ALPHA-ALANINE	L-alanine	cp
Phenols	a phenol	cp
Delta4-hexadecenoyl-ACPs	a (4Z)-hexadec-4-enoyl-[acp]	c
Phenyl-Acetates	a phenyl acetate	c
GLYCYLGLYCINE	glycyl-glycine	c
ANDROSTERONE	androsterone	c
HX	HX	p
PHOSPHORIBOSYL-CARBOXY-AMINOIMIDAZOLE	5-amino-1-(5-phospho-D-ribosyl)imidazole-4-carboxylate	cp
3-Oxo-octanoyl-ACPs	a 3-oxo-octanoyl-[acp]	cp
HYDROGEN-PEROXIDE	hydrogen peroxide	cp
N-Hydroxy-Arylamines	an N-hydroxy-arylamine	c
Nonadjacent-pyrimidine-dimer-in-DNA	a dimer of non-adjacent pyrimidine nucleosides in DNA	c
Cyclic-2-3-Ribonucleoside-Monophosphates	a ribonucleoside 2',3'-cyclic phosphate	c
3-Oxosteroids	a 3-oxosteroid	cp
N-SUCCINYL-2-AMINO-6-KETOPIMELATE	N-succinyl-2-amino-6-ketopimelate	cp
3-P-HYDROXYPYRUVATE	3-phosphooxypyruvate	cp
ANTHRANILATE	anthranilate	cp
Behenoyl-ACPs	a behenoyl-[acp]	c
5S-rRNAs	a 5S rRNA	p
Deoxy-Ribonucleoside-Diphosphates	a 2'-deoxyribonucleoside 5'-diphosphate	p
ACP	a holo-[acyl-carrier protein]	cp
Cyclic-3-5-Nucleoside-Monophosphates	a nucleoside cyclic 3',5'-monophosphate	c
3-P-SERINE	3-phospho-L-serine	cp
Deoxy-Ribonucleoside-Monophosphates	a 2'-deoxyribonucleoside 5'-monophosphate	p
Nonmethylated-Ribosomal-Protein-L11s	a non-methylated ribosomal protein L11	c
Deoxy-Ribonucleoside-Triphosphates	a 2'-deoxyribonucleoside 5'-triphosphate	c
3-Phosphomonucleotides	a ribonucleoside 3'-phosphate	cp
ACRYLAMIDE	acrylamide	c
Phosphoglucomutase	a phosphoglucomutase	cp
GLYOX	glyoxylate	cp
Phosphoglucosamine-Mutase	a phosphoglucosamine mutase	cp
N-SUCCINYLLL-2-6-DIAMINOPIMELATE	N-succinyl-L,L-2,6-diaminopimelate	cp
Beta-3-hydroxybutyryl-ACPs	a (3R)-3-hydroxybutanoyl-[acp]	p
HYDROXY-METHYL-BUTENYL-DIP	(E)-4-hydroxy-3-methylbut-2-en-1-yl diphosphate	cp
L-ARGININO-SUCCINATE	L-arginino-succinate	cp
5Z-3-oxo-tetradec-5-enoyl-ACPs	a (5Z)-3-oxo-tetradec-5-enoyl-[acp]	cp
PHOSPHORIBOSYL-FORMAMIDO-CARBOXAMIDE	5-formamido-1-(5-phospho-D-ribosyl)-imidazole-4-carboxamide	cp
Cyclic-Phosphate-Terminated-RNAs	an [RNA]-3'-ribunucleoside-2',3'-cyclophosphate	p
PAPS	3'-phosphoadenylyl-sulfate	cp
Phospholipid-Cyclopropane-Fatty-Acids	a [phospholipid] cyclopropane fatty acid	p
Phospholipid-Olefinic-Fatty-Acids	a [phospholipid] olefinic fatty acid	c
PHOSPHORIBOSYL-FORMIMINO-AICAR-P	1-(5-phospho-&beta;-D-ribosyl)-5-[(5-phosphoribosylamino)methylideneamino]imidazole-4-carboxamide	cp
DNA-Ligase-L-lysine	a [DNA ligase]-L-lysine	cp
N-Substituted-Amino-Acids	an N-modified amino acid	p
CPD66-21	leukotriene-D4	p
4-hydroxybenzoate	4-hydroxybenzoate	cp
FERULOYL-COA	feruloyl-CoA	p
Nucleoside-Diphosphates	a nucleoside diphosphate	cp
L-seryl-SEC-tRNAs	an L-seryl-[tRNAsec]	p
1-AMINO-PROPAN-2-ONE-3-PHOSPHATE	3-amino-1-hydroxyacetone 1-phosphate	cp
CPD66-39	a 2,3,4-saturated fatty acid	c
MALONYL-ACP	a malonyl-[acp]	cp
3-DEHYDRO-SHIKIMATE	3-dehydroshikimate	cp
CPD-15654	2-trans, 4-cis-undecadienoyl-CoA	c
LAUROYLCOA-CPD	lauroyl-CoA	p
WATER	H2O	cp
Alkanesulfonates	an alkylsulfonate	c
Nucleoside-Monophosphates	a nucleoside 5'-monophosphate	p
MALONYL-COA	malonyl-CoA	cp
AICAR	5-amino-1-(5-phospho-D-ribosyl)imidazole-4-carboxamide	cp
CPD-15655	(3E)-undec-3-enoyl-CoA	p
Nucleoside-Triphosphates	a nucleoside triphosphate	cp
Alkyl-Hydro-Peroxides	an organic hydroperoxide	c
1-CHLORO-24-DINITROBENZENE	1-chloro-2,4-dinitrobenzene	cp
Alkyl-Thiols	an alkyl-thiol	cp
CPD-15661	2-trans, 4-trans-undecadienoyl-CoA	c
DNA-Ligase-L-lysine-adenylate	a [DNA ligase]-N6-(5'-adenylyl)-L-lysine	cp
Alkylated-Bases	an alkylated nucleobase	p
Cysteine-Desulfurase-L-cysteine	an [L-cysteine desulfurase]-L-cysteine	cp
Wound-RNA	wound RNA	c
XANTHINE	xanthine	cp
Alkylated-DNAs	an alkylated DNA	c
CPD-15663	2-trans-nonenoyl-CoA	p
Cytidine-34-tRNAIle2	a cytidine34 in tRNAIle2	c
CPDQT-27	6-(methylthio)-2-oxohexanoate	p
1-KETO-2-METHYLVALERATE	(R)-2,3-dihydroxy-3-methylpentanoate	cp
LEU	L-leucine	cp
CPDQT-28	7-(methylthio)-2-oxoheptanoate	p
CPD-15667	6-cis, 3-oxo-tridecenoyl-CoA	c
LEU-tRNAs	a tRNALeu	cp
FMN	FMN	cp
HEXANOYL-COA	hexanoyl-CoA	cp
1-L-MYO-INOSITOL-1-P	1D-myo-inositol 3-monophosphate	c
Cytochromes-C-Oxidized	an oxidized c-type cytochrome	cp
SINAPATE	sinapate	c
CPDQT-29	8-(methylthio)-2-oxooctanoate	p
CPD-15668	4-cis-undecenoyl-CoA	p
XANTHOSINE	xanthosine	p
FMNH2	FMNH2	cp
PECTATE	a pectate	cp
XANTHOSINE-5-PHOSPHATE	XMP	cp
1-PALMITOYLGLYCEROL-3-PHOSPHATE	1-palmitoylglycerol 3-phosphate	p
CPDQT-30	9-(methylthio)-2-oxononanoate	p
3-DEOXY-D-ARABINO-HEPTULOSONATE-7-P	3-deoxy-D-arabino-heptulosonate 7-phosphate	cp
Cytochromes-C-Reduced	a reduced c-type cytochrome	cp
CPD-15676	6-trans-3-oxo-tridecenoyl-CoA	c
SINAPOYL-COA	sinapoyl-CoA	p
PENICILLIN	a penicillin	cp
CPDQT-36	3-[(3'-methylthio)propyl]malate	cp
CPD-15677	4-trans-undecenoyl-CoA	p
CPD-600	N-formyl-L-glutamate	c
CPD-13357	(2R)-2,3-dihydroxy-3-methylbutanoate	cp
CPD-19488	3-isopropyl-9-(methylthio)-2-oxononanoate	cp
CPD0-1148	N,N'-dimethyl-p-phenylenediamine	p
CPD-19489	3-isopropyl-8-(methylthio)-2-oxooctanoate	cp
ACRYLATE	acrylate	p
Pyruvate-dehydrogenase-acetylDHlipoyl	a [pyruvate dehydrogenase E2 protein] N6-S-acetyldihydrolipoyl-L-lysine	c
CPD-19490	3-isopropyl-7-(methylthio)-2-oxoheptanoate	cp
CH33ADO	5'-deoxyadenosine	p
DETHIOBIOTIN	dethiobiotin	c
CPD-602	5-amino-6-(5-phospho-D-ribosylamino)uracil	p
PENICILLIN-G	penicillin G	cp
O-PHOSPHO-L-HOMOSERINE	O-phospho-L-homoserine	cp
CPD-10267	decanoyl-CoA	cp
Pyruvate-dehydrogenase-dihydrolipoate	a [pyruvate dehydrogenase E2 protein] N6-dihydrolipoyl-L-lysine	cp
CPD-19491	3-isopropyl-6-(methylthio)-2-oxohexanoate	cp
Pyruvate-dehydrogenase-lipoate	a [pyruvate dehydrogenase E2 protein] N6-lipoyl-L-lysine	p
PHOSPHORIBULOSYL-FORMIMINO-AICAR-P	phosphoribulosylformimino-AICAR-phosphate	p
CPD-13524	all-trans-retinol	p
CPD-19492	3-ethyl-2-oxosuccinate	cp
D-3-HYDROXYACYL-COA	a (3R)-3-hydroxyacyl-CoA	cp
MALTOHEXAOSE	maltohexaose	cp
THMPT	tetrahydromethanopterin	p
CPD-19493	S-(mercaptomethyl)-L-cysteine	p
CPD-618	(2R,3S)-2-methylisocitrate	cp
CPD-7737	(2-carboxy-2,5-dihydro-5-oxofuran-2-yl)-acetate	cp
CPD-10269	palmitoleoyl-CoA	cp
D-5-Monosubstituted-Hydantoins	a D-5-monosubstituted hydantoin	cp
CPD-10284	3-oxo-myristoyl-CoA	c
CPD-195	octanoate	c
D-6-P-GLUCONO-DELTA-LACTONE	6-phospho D-glucono-1,5-lactone	cp
SN-GLYCEROL-1-PHOSPHATE	sn-glycerol 1-phosphate	cp
CHITIN	chitin	cp
CPD-13533	(3R)-3-hydroxypentanoyl-CoA	c
CHITOBIOSE	N,N'-diacetylchitobiose	cp
CPD-784	5-carboxymethyl-2-hydroxymuconate	c
THR	L-threonine	cp
CPD-622	(2S,3S)-2-methylcitrate	cp
CPD0-1162	(2E,5Z)-tetradecenoyl-CoA	cp
THR-tRNAs	a tRNAThr	c
QUEUINE	queuine	c
CHLOROPHYLL-A	chlorophyll a	p
CPD-196	octanoyl-CoA	p
D-ALA-D-ALA	D-alanyl-D-alanine	cp
DGDP	dGDP	cp
CPD-19695	UDP-4-amino-D-fucose	cp
CPD-13534	3-oxopentanoyl-CoA	cp
PHYTYL-PYROPHOSPHATE	phytyl diphosphate	cp
TTP	dTTP	cp
CPD-785	(3E,5R)-5-carboxy-2-oxohept-3-enedioate	p
CPD0-1163	(S)-3-hydroxy-(5Z)-tetradecenoyl-CoA	p
CPD-10418	4-sulfocatechol	c
CPD-6321	a [procollagen] trans 4-hyroxy-L-proline	p
O-SUCCINYL-L-HOMOSERINE	O-succinyl-L-homoserine	cp
MALTOPENTAOSE	maltopentaose	cp
DNA-N	DNAn	cp
THREO-DS-ISO-CITRATE	D-threo-isocitrate	cp
CPD-13575	2-[(2R,5Z)-2-carboxy-4-methylthiazol-5(2H)-ylidene]ethyl phosphate	p
CPD-6442	methylsalicylate	c
CPD-7953	torulene	c
PLASTOQUINONE	a plastoquinone	cp
SO3	sulfite	cp
CPD0-1327	5-fluorouracil	p
CHOCOLA_A	all-trans-retinyl palmitate	c
CPD-10419	3-sulfomuconate	p
MG+2	Mg2+	c
CPD-17641	18-hydroxystearoyl-CoA	p
CPD-335	(R)-3-hydroxybutanoate	cp
MG-PROTOPORPHYRIN	Mg-protoporphyrin	p
CPD-1772	2-aminoacetaldehyde	p
CPD-342	5&alpha;-androstane-3,17-dione	p
5Z-tetradec-5-enoyl-ACPs	a (5Z)-tetradec-5-enoyl-[acp]	c
O-UREIDOHOMOSERINE	O-ureido-L-homoserine	c
5Z8Z11Z14Z17Z-EICOSAPENTAENOATE	icosapentaenoate	c
HYDROXYMETHYLBILANE	preuroporphyrinogen	cp
D-ALANINE	D-alanine	cp
CPD-17813	(2E,11Z)-hexadec-2,11-dienoyl-CoA	c
6-AMINOPENICILLANATE	6-aminopenicillanate	cp
GDP-MANNOSE	GDP-&alpha;-D-mannose	cp
CPD-17814	(11Z)-(S)-3-hydroxyhexadec-11-enoyl-CoA	p
3-ENOLPYRUVYL-SHIKIMATE-5P	5-enolpyruvoyl-shikimate 3-phosphate	cp
3-HYDROXY-3-METHYL-GLUTARYL-COA	(S)-3-hydroxy-3-methylglutaryl-CoA	c
MONOMER0-4342	a [prolipoprotein]-(S-diacylglyceryl)-L-cysteine	cp
CPD-355	D-arabinitol	c
CPD-17927	a nascent peptidoglycan with (L-alanyl-&gamma;-D-glutamyl-meso-2,6-diaminopimeloyl-D-alanyl-D-alanine) pentapeptide	cp
CPD-3617	decanoate	c
SPERMIDINE	spermidine	cp
OCTADEC-9-ENE-118-DIOIC-ACID	&alpha;,&omega;-9Z-octadecenedioate	c
CPD-18	linoleoyl-CoA	p
DNA-Segment-Placeholder	a DNA segment	cp
3-HYDROXY-ANTHRANILATE	3-hydroxyanthranilate	p
D-ALPHABETA-D-HEPTOSE-7-PHOSPHATE	D-glycero-D-manno-heptose 7-phosphate	p
MYO-INOSITOL	myo-inositol	cp
OCTAPRENYL-DIPHOSPHATE	all-trans-octaprenyl diphosphate	cp
DNA-Segment-in-Reverse-Orientations	a DNA segment in reverse orientation	cp
CPD-18105	4-methylphenyl 5-phospho-&alpha;-D-ribofuranoside	c
GDP-TP	pppGpp	p
CPD-3618	2-oxovalerate	p
DNA-With-GO	a 7,8-dihydro-8-oxoguanine in DNA	c
HYPOXANTHINE	hypoxanthine	cp
CPD-18118	D-arabinofuranose 5-phosphate	c
DNA-With-GO-A-Mismatch	DNA with adenine:7,8-dihydro-8-oxoguanine mismatch	c
OCTAPRENYL-METHOXY-BENZOQUINONE	2-methoxy-6-all trans-octaprenyl-1,4-benzoquinol	p
ISOVALERATE	isovalerate	c
RNASE-E-PROCESSING-PRODUCT-MRNA	RNase E processing product mRNA	p
APS	adenosine 5'-phosphosulfate	cp
L-ASPARTATE	L-aspartate	cp
Beta-hydroxydecanoyl-ACPs	a (3R)-3-hydroxydecanoyl-[acp]	p
RNASE-G-DEGRADATION-SUBSTRATE-MRNA	RNase G degradation substrate mRNA	c
CPD-11519	3-oxo-2-(cis-2'-pentenyl)-cyclopentane-1-(3R-hydroxyoctanoyl)-CoA	p
N-Substituted-Aminoacyl-tRNA	an N-modified aminoacyl-[tRNA]	c
N-acetyl-D-glucosamine	N-acetyl-D-glucosamine	cp
RNASE-III-MRNA-PROCESSING-SUBSTRATE	RNase III mRNA processing substrate	c
3-Prime-Phosphate-Terminated-RNAs	an [RNA]-3'-ribonucleoside-3'-phosphate	c
RNASE-III-PROCESSING-PRODUCT-MRNA	RNase III processing product mRNA	p
CPD-11520	3-oxo-2-(cis-2'-pentenyl)-cyclopentane-1-(3-oxooctanoyl)-CoA	c
N-acetyl-D-mannosamine	N-acetyl-D-mannosamine	cp
3-alpha-Hydroxysteroids	a 3&alpha;-hydroxysteroid	cp
L-ASPARTATE-SEMIALDEHYDE	L-aspartate-semialdehyde	cp
RNASE-R-DEGRADATION-SUBSTRATE-RNA	RNase R degradation substrate RNA	c
HIS	L-histidine	cp
DNA-With-Hypoxanthines	a DNA with hypoxanthine	c
N-acetyl-beta-D-hexosamines	an N-acetyl-&beta;-D-hexosamine	p
LEUKOTRIENE-C4	leukotriene-C4	c
CPD-11521	3-oxo-2-(cis-2'-pentenyl)-cyclopentane-1-hexanoyl-CoA	p
3-hydroxy-cis-D7-tetraecenoyl-ACPs	a (3R)-3-hydroxy cis &Delta;7-tetradecenoyl-[acp]	p
HIS-tRNAs	a tRNAHis	c
ISOVALERYL-COA	isovaleryl-CoA	cp
3-hydroxy-cis-D9-hexaecenoyl-ACPs	a (3R)-3-hydroxy cis &Delta;9-hexadecenoyl-[acp]	p
3-hydroxypimeloyl-ACP-methyl-esters	a (3R)-3-hydroxypimeloyl-[acp] methyl ester	p
N-formyl-L-methionyl-tRNAfmet	an N-formyl-L-methionyl-[initiator tRNAmet]	p
3-oxo-arachidoyl-ACPs	a 3-oxo-arachidoyl-[acp]	cp
CPD-11522	3-oxo-2-(cis-2'-pentenyl)-cyclopentane-1-(E-hexa-2-enoyl)-CoA	c
3-oxo-behenoyl-ACPs	a 3-oxo-behenoyl-[acp]	cp
Butanoyl-ACPs	a butanoyl-[acp]	c
N-terminal-L-Serine	an N-terminal L-seryl-[protein]	p
6-Dimethylallyladenosine37-tRNAs	N6-dimethylallyladenosine37 in tRNA	cp
CPD-11523	3-oxo-2-(cis-2'-pentenyl)-cyclopentane-1-(3R-hydroxyhexanoyl)-CoA	p
ALA-tRNAs	a tRNAAla	c
SQUALENE	squalene	p
3-oxo-cerotoyl-ACPs	a 3-oxo-cerotoyl-[acp]	cp
N-terminal-L-alanine	an N-terminal L-alanyl-[protein]	p
CPD-11524	3-oxo-2-(cis-2'-pentenyl)-cyclopentane-1-(3-oxohexanoyl)-CoA	c
C1	UDP-N-acetyl-&alpha;-D-muramoyl-L-alanyl-&gamma;-D-glutamyl-meso-2,6-diaminopimeloyl-D-alanyl-D-alanine	p
3-oxo-cis-D7-tetradecenoyl-ACPs	a 3-oxo-cis-&Delta;7-tetradecenoyl-[acp]	cp
DNA-containing-a-Apyrimidinic-Sites	an apyrimidinic site in DNA	p
3-oxo-cis-D9-hexadecenoyl-ACPs	a 3-oxo-cis-&Delta;9-hexadecenoyl-[acp]	cp
N-terminal-L-cysteine	an N-terminal L-cysteinyl-[protein]	p
D-Amino-Acids	a D-amino acid	c
ITP	ITP	cp
N-terminal-L-cysteine-sulfinate	an N-terminal 3-sulfino-L-alanyl-[protein]	c
ARABINOSE-5P	aldehydo-D-arabinose 5-phosphate	cp
N-terminal-L-cysteine-sulfonate	an N-terminal 3-sulfo-L-alanyl-[protein]	c
3-oxo-cis-vaccenoyl-ACPs	a 3-oxo-cis-vacc-11-enoyl-[acp]	cp
6-PYRUVOYL-5678-TETRAHYDROPTERIN	(6R)-6-pyruvoyl-5,6,7,8-tetrahydropterin	p
FORMALDEHYDE	formaldehyde	p
CPD-11525	3-oxo-2-(cis-2'-pentenyl)-cyclopentane-1-butanoyl-CoA	p
3-oxo-decanoyl-ACPs	a 3-oxo-decanoyl-[acp]	cp
N-terminal-L-valine	an N-terminal L-valyl-[protein]	p
L-BETA-ASPARTYL-P	L-aspartyl-4-phosphate	cp
3-oxo-dodecanoyl-ACPs	a 3-oxo-dodecanoyl-[acp]	cp
CPD-11526	3-oxo-2-(cis-2'-pentenyl)-cyclopentane-1-(E-buta-2-enoyl)-CoA	c
N-terminal-glycine	an N-terminal glycyl-[protein]	p
LINOLEIC_ACID	linoleate	c
SS-Oligodeoxyribonucleotides	a single-stranded oligodeoxyribonucleotide	p
C4	undecaprenyl-diphospho-N-acetylmuramoyl-L-alanyl-&gamma;-D-glutamyl-L-lysyl- D-alanyl-D-alanine	c
L-CANALINE	L-canaline	p
3-oxo-hexanoyl-ACPs	a 3-oxo-hexanoyl-[acp]	cp
RX	RX	c
OCTAPRENYL-METHYL-METHOXY-BENZQ	6-methoxy-3-methyl-2-all-trans-octaprenyl-1,4-benzoquinol	c
DNA-containing-aPurinic-Sites	an apurinic site within DNA	p
STEARIC_ACID	stearate	c
XYLULOSE-5-PHOSPHATE	D-xylulose 5-phosphate	cp
CPD-11527	3-oxo-2-(cis-2'-pentenyl)-cyclopentane-1-(3R-hydroxybutanoyl)-CoA	p
N2-SUCCINYLGLUTAMATE	N2-succinylglutamate	c
3-oxo-lignoceroyl-ACPs	a 3-oxo-lignoceroyl-[acp]	cp
All-trans-Retinyl-Esters	an all-trans-retinyl ester	c
QUINOLINATE	quinolinate	cp
2-C-METHYL-D-ERYTHRITOL-4-PHOSPHATE	2-C-methyl-D-erythritol 4-phosphate	cp
OCTAPRENYL-METHYL-OH-METHOXY-BENZQ	3-demethylubiquinol-8	cp
DGTP	dGTP	cp
DNA-containing-abasic-Sites	a DNA containing an apurinic/apyrimidinic site	cp
Alpha-D-Galactosides	an &alpha;-D-galactoside	c
Diacylglycerol-Prolipoproteins	an [apolipoprotein]-(S-diacylglyceryl)-L-cysteine	p
ARG	L-arginine	cp
Dihydro-Lipoyl-Proteins	a [lipoyl-carrier protein] N6-dihydrolipoyl-L-lysine	c
2-CHLOROMALEYLACETATE	2-chloromaleylacetate	p
DNA-containing-diamino-hydro-formamidops	a ring-opened 7-methylguanine in DNA	c
STEAROYL-COA	stearoyl-CoA	p
Amino-Acids	an amino acid	c
Amino-Acids-20	a proteinogenic amino acid	cp
D-ERYTHRO-IMIDAZOLE-GLYCEROL-P	D-erythro-imidazole-glycerol-phosphate	c
2-D-THREO-HYDROXY-3-CARBOXY-ISOCAPROATE	(2R,3S)-3-isopropylmalate	cp
Diribonucleotide	a diribonucleotide	p
ARG-tRNAs	a tRNAArg	cp
DNA-deoxycytidine-dimer	a dimer of non-adjacent 2'-deoxycytidines in DNA	c
2-DEHYDRO-3-DEOXY-D-GALACTONATE	2-dehydro-3-deoxy-D-galactonate	p
Disulfides	a disulfide	p
D-GALACTARATE	D-galactarate	c
QXC-ACP	a quinoxaline-2-carboxyl-[acyl-carrier protein]	p
DI-H-OROTATE	(S)-dihydroorotate	cp
OH-ACYL-ACP	a (3R)-3-hydroxyacyl-[acyl-carrier protein]	cp
Dodecanoyl-ACPs	a dodecanoyl-[acp]	c
OH-HEXANOYL-COA	(S)-3-hydroxyhexanoyl-CoA	c
DNA-deoxycytidine-thymidine-dimer	a dimer of non-adjacent 2'-deoxycytidine and thymidine in DNA	c
SUC	succinate	cp
Donor-H2	a reduced electron acceptor	cp
2-DEHYDRO-3-DEOXY-D-GLUCONATE	2-dehydro-3-deoxy-D-gluconate	c
DNA-pyrimidines	a pyrimidine nucleoside in DNA	p
DIAMINO-OH-PHOSPHORIBOSYLAMINO-PYR	2,5-diamino-6-(5-phospho-D-ribosylamino)pyrimidin-4(3H)-one	c
Quinones	a quinone	c
Double-Stranded-DNAs	a double stranded DNA	cp
SUC-COA	succinyl-CoA	cp
TUM1-L-cysteine	a [3-mercaptopyruvate sulfurtransferase]-L-cysteine	cp
TUM1-S-sulfanylcysteine	a [3-mercaptopyruvate sulfurtransferase]-S-sulfanyl-L-cysteine	cp
Phosphorylated-Phosphoglucosamine-Mutase	a phosphorylated phosphoglucosamine mutase	cp
CPD-15678	4-trans-3-oxo-undecenoyl-CoA	c
Phosphorylated-phosphoglucomutase	a phosphorylated phosphoglucomutase	cp
TYLOSIN	tylosin	p
CPD0-1456	UDP-N-acetyl-&alpha;-D-muramoyl-L-alanine	cp
CPDQT-37	3-[(4'-methylthio)butyl]malate	cp
Halide-Anions	a halide anion	p
D-GALACTONATE	D-galactonate	c
CPD-13699	3,22-dioxochol-4-en-24-oyl-CoA	c
SUCC-S-ALD	succinate semialdehyde	cp
Phosphoserines	L(or D)-O-phosphoserine	c
LINOLENIC_ACID	&alpha;-linolenate	c
ACYL-ACP	an acyl-[acyl-carrier protein]	cp
CPD-15687	5-cis, 7-trans-3-oxo-tetradecadienoyl-CoA	c
Xenobiotic	a xenobiotic	cp
CPD-13700	3-oxo-4-pregnene-20-carboxyl-CoA	p
CPDQT-38	3-[(5'-methylthio)pentyl]malate	cp
CPD-645	5-dehydro-2-deoxy-D-gluconate 6-phosphate	p
ACYL-COA	an acyl-CoA	c
OH-MYRISTOYL	UDP-2-N,3-O-bis[(3R)-3-hydroxytetradecanoyl]-&alpha;-D-glucosamine	cp
CPD-105	(R)-4-hydroxymandelate	c
CPD-13713	adenosine 5'-phosphoselenate	p
CPD-15688	(3Z,5E)-dodeca-3,5-dienoyl-CoA	p
CPD-10503	7&alpha;,12&alpha;-dihydroxy-5&beta;-cholestan-3-one	c
CPDQT-39	3-[(6'-methylthio)hexyl]malate	cp
CPD0-1699	6-carboxy-5,6,7,8-tetrahydropterin	c
TYR	L-tyrosine	cp
CPD-650	(3R)-3-hydroxybutanoyl-CoA	cp
LINOLENOYL-COA	&alpha;-linolenoyl-CoA	p
ACYL-SN-GLYCEROL-3P	a 1-acyl-sn-glycerol 3-phosphate	p
CPD-3706	adenosine 3'-monophosphate	cp
TYR-tRNAs	a tRNATyr	c
Pi	phosphate	cp
CPD-15691	(5E)-3-oxo-dodec-5-enoyl-CoA	c
CPD-13717	L-selenocystathionine	c
CPDQT-40	3-[(7'-methylthio)heptyl]malate	cp
OH-PYR	hydroxypyruvate	cp
CPDQT-406	S-5-methylthiopentylhydroximoyl-L-cysteine	cp
CPD-3707	adenosine 2',3'-cyclic monophosphate	c
Hepta-oxo-hexadecanoyl-ACPs	a 3,5,7,9,11,13,15-hepta-oxo-hexadecanoyl-[PKS-acp]	c
CPD-10546	methyl (indol-3-yl)acetate	c
Pimeloyl-ACPs	a pimeloyl-[acp]	c
CPD0-1718	7,8-dihydropterin	c
CPD-15692	(3E)-dec-3-enoyl-CoA	p
CPDQT-407	S-6-methylthiohexylhydroximoyl-L-cysteine	cp
Hexanoyl-ACPs	a hexanoyl-[acyl-carrier-protein]	c
CPD-10548	7&alpha;-hydroxy-5&beta;-cholestan-3-one	c
CPDQT-408	S-7-methylthioheptylhydroximoyl-L-cysteine	cp
CPD0-181	N5-carboxyaminoimidazole ribonucleotide	c
CPDQT-409	S-8-methylthiooctylhydroximoyl-L-cysteine	cp
CPD-3708	guanosine 3'-monophosphate	cp
a-2-oxoglutarate-dehydrogenase-E2-protei	a [2-oxoglutarate-dehydrogenase E2 protein] N6-octanoyl-L-lysine	c
CPD-15797	ditrans,octacis-undecaprenyldiphospho-N-acetyl-(N-acetylglucosaminyl)muramate	p
CPD-13847	UDP-2-acetamido-2,6-dideoxy-&alpha;-D-xylo-hex-4-ulose	cp
LIPID-IV-A	lipid IVA	cp
CPD-654	2,5-dioxopentanoate	p
Plant-Arabinogalactans-I	a plant arabinogalactan type I	c
CPD-15873	bis(guanylyl molybdopterin cofactor)	p
a-galctotetrose	a galactotetraose	p
CPDQT-41	10-(methylthio)-2-oxodecanoate	p
D-GALACTONO-1-4-LACTONE	D-galactono-1,4-lactone	p
CPDQT-410	S-9-methylthiononylhydroximoyl-L-cysteine	cp
CPD0-1905	8-oxo-dGTP	c
CPD-10576	4-chlorosalicylate	c
CPD-15874	bis(molybdenum cofactor)	c
a-pyruvate-dehydrogenase-E2-protein-Nsup	a [pyruvate dehydrogenase E2 protein] N6-octanoyl-L-lysine	c
Histone-L-lysine	a [histone]-L-lysine	c
Plastoquinols	a plastoquinol	cp
CPDQT-411	(E)-N-hydroxy-5-(methylsulfanyl)pentimidothioate	cp
apo-ACP	an apo-[acyl-carrier protein]	cp
CPD-658	CDP-4-dehydro-6-deoxy-D-glucose	c
D-GLT	D-glutamate	cp
T2-DECENOYL-COA	(2E)-dec-2-enoyl-CoA	cp
DNA-thymidine-deoxycytidine-dimer	a dimer of non-adjacent thymidine and 2'-deoxycytidine in DNA	c
DNA-thymidine-dimer	a dimer of non-adjacent thymidines in DNA	c
TARTRATE	L-tartrate	cp
CHOLATE	cholate	cp
DNA-thymidines	a thymidine in DNA	p
CPD-8123	MoO2-molybdopterin cofactor	c
DNA-with-Uracils	a uracil in DNA	c
CHORISMATE	chorismate	cp
CPD-8180	DNA with lesion	c
CPD-19761	2,6-dichloro-3-(glutathione-S-yl)-hydroquinone	p
CPD-19763	2,3,5-trichloro-6-(glutathione-S-yl)-hydroquinone	p
3OH-4P-OH-ALPHA-KETOBUTYRATE	(3R)-3-hydroxy-2-oxo-4 phosphooxybutanoate	cp
TARTRONATE-S-ALD	tartronate semialdehyde	cp
DODECANOATE	laurate	c
D-GLUCARATE	D-glucarate	c
CPD-824	5-guanidino-2-oxopentanoate	p
CPD-19782	(3E)-5-chloro-2-oxopent-3-enoate	c
3R-11Z-3-hydroxy-icos-11-enoyl-ACPs	a (3R,11Z)-3-hydroxy-icos-11-enoyl-[acp]	p
Malonyl-acp-methyl-ester	a malonyl-[acp] methyl ester	c
GERANYL-PP	geranyl diphosphate	cp
3R-5Z-3-hydroxy-tetradec-5-enoyl-ACPs	a (3R,5Z)-3-hydroxy-tetradec-5-enoyl-[acp]	p
CPD-8259	&beta;-D-ribosylnicotinate	p
CPD-19833	roseoflavin	c
3R-7Z-3-hydroxy-hexadec-7-enoyl-ACPs	a (3R,7Z)-3-hydroxy-hexadec-7-enoyl-[acp]	p
D-GLUCOSAMINE-6-P	D-glucosamine 6-phosphate	cp
GERANYLGERANYL-PP	geranylgeranyl diphosphate	cp
3R-9Z-3-hydroxy-octadec-9-enoyl-ACPs	a (3R,9Z)-3-hydroxy-octadec-9-enoyl-[acp]	p
DPG	3-phospho-D-glyceroyl-phosphate	cp
THYMINE	thymine	p
MALTOSE	maltose	cp
2-DEHYDROPANTOATE	2-dehydropantoate	cp
MALTOTETRAOSE	maltotetraose	p
3-oxo-myristoyl-ACPs	a 3-oxo-myristoyl-[acp]	cp
3-oxo-palmitoyl-ACPs	a 3-oxo-palmitoyl-[acp]	cp
CPD-18259	a peptidoglycan dimer with pentapeptide stem (meso-diaminopimelate containing)	p
C5	undecaprenyldiphospho-N-acetylmuramoyl-L-alanyl-&gamma;-D-glutamyl-meso-2,6-diaminopimeloyl-D-alanyl-D-alanine	cp
3-HYDROXY-DOCOSAPENTAENOYL-ACP	a (3R)-3-hydroxy-docosapentaenoyl-[acp]	p
3-oxo-petroselinoyl-ACPs	a 3-oxo-petroselinoyl-[acp]	cp
CPD-1828	GDP-&alpha;-D-mannuronate	p
C6	ditrans,octacis-undecaprenyldiphospho-[(N-acetyl-&beta;-D-glucosaminyl)-(1,4)-]-N-acetyl-&alpha;-D-muramoyl-L-alanyl-&gamma;-D-glutamyl-meso-2,6-diaminopimeloyl-D-alanyl-D-alanine	cp
3-oxo-stearoyl-ACPs	a 3-oxo-stearoyl-[acp]	cp
MALTOTRIOSE	maltotriose	c
3-HYDROXY-ISOVALERYL-COA	3-hydroxyisovaleryl-CoA	cp
3-terminal-unsaturated-sugars	a 3'-terminal unsaturated sugar	p
CPD-18320	5-methylbenzimidazole	c
N5-Formyl-THF-Glu-N	an (6S)-N5-formyl-tetrahydrofolate	cp
OLEATE-CPD	oleate	c
CADAVERINE	cadaverine	p
CPD-18321	5-methoxybenzimidazole	c
7-8-DIHYDROPTEROATE	7,8-dihydropteroate	c
DTDP-D-GLUCOSE	dTDP-&alpha;-D-glucose	cp
CPD-18346	cis-vaccenoyl-CoA	cp
CPD-18348	1-cis-vaccenoylglycerol-3-phosphate	p
NACMUR	N-acetyl-D-muramate	p
7-AMINOMETHYL-7-DEAZAGUANINE	preQ1	cp
NAD	NAD+	cp
CPD-18379	1-myristoylglycerol 3-phosphate	p
D-HEXOSE-6-PHOSPHATE	D-hexose 6-phosphate	p
2-Hydroxy-carboxylates	a 2-hydroxy carboxylate	p
3-HYDROXYADIPYL-COA	(3S)-hydroxyadipyl-CoA	cp
CAFFEOYL-COA	trans-caffeoyl-CoA	p
7-CYANO-7-DEAZAGUANINE	preQ0	cp
Hpr-Histidine	an [HPr]-L-histidine	c
CPD-11528	3-oxo-2-(cis-2'-pentenyl)-cyclopentane-1-(3-oxobutanoyl)-CoA	c
R-1-AMINOPROPAN-2-YL-PHOSPHATE	(R)-1-amino-2-propanol O-2-phosphate	c
Hpr-pi-phospho-L-histidines	an [HPr protein]-N&pi;-phospho-L-histidine	p
GLUTARYL-COA	glutaryl-CoA	p
Poly-Hydroxybutyrate	poly-3-hydroxybutanoate	cp
GMP	GMP	cp
OLEOYL-COA	oleoyl-CoA	cp
D-Hexoses	a D-hexose	c
CPD-106	(S)-4-hydroxymandelate	p
FORMATE	formate	p
Arachidoyl-ACPs	an arachidoyl-[acp]	c
Initiation-tRNAmet	initiator tRNAMet	c
L-CITRULLINE	L-citrulline	c
CPD-11529	(+)-7-epi-jasmonoyl-CoA	p
CPD-10600	4-hydroxybenzoyl-acetyl-CoA	c
R-2-Haloacids	an (R)-2-haloacid	c
L-CYSTATHIONINE	L-cystathionine	c
R-2-Hydroxyacids	an (R)-2-hydroxyacid	p
CPD-10608	trans-dienelactone	c
OLIGOPEPTIDES	an oligopeptide	c
Aromatic-Amino-Acids	an aromatic amino acid	cp
CPD-11592	2-methylsulfanyl-N6-dimethylallyladenosine37 in tRNA	p
Aromatic-Oxoacids	an aromatic 2-oxo-acid	cp
DTDP-DEOH-DEOXY-GLUCOSE	dTDP-4-dehydro-6-deoxy-&alpha;-D-glucopyranose	cp
D-LACTATE	(R)-lactate	p
R-3-Hydroxypalmitoyl-ACPs	a (3R)-3-hydroxypalmitoyl-[acp]	p
CPD-11643	two adjacent thymidines in DNA	p
GLUTATHIONE	glutathione	cp
R-3-hydroxy-cis-vaccenoyl-ACPs	(R)-3-hydroxy-cis-vacc-11-enoyl-[acp]	p
DTDP-DEOH-DEOXY-MANNOSE	dTDP-4-dehydro-&beta;-L-rhamnose	cp
R-3-hydroxyarachidoyl-ACPs	a (3R)-3-hydroxyarachidoyl-[acp]	p
FORMYL-L-METHIONYL-PEPTIDE	a [protein] N-terminal-formyl-L-methionine	c
HISTIDINAL	histidinal	cp
R-3-hydroxybehenoyl-ACPs	a (3R)-3-hydroxybehenoyl-[acp]	p
FORMYL-THF-GLU-N	an N10-formyl-tetrahydrofolate	cp
R-3-hydroxycerotoyl-ACPs	a (3R)-3-hydroxycerotoyl-[acp]	p
Aryl-sulfates	an aryl sulfate	cp
R-3-hydroxydodecanoyl-ACPs	a (3R)-3-hydroxydodecanoyl-[acp]	p
CPD-11855	(R)-4-hydroxy-4-methyl-2-oxoglutarate	cp
L-CYSTEATE	L-cysteate	cp
R-3-hydroxyhexanoyl-ACPs	a (3R)-3-hydroxyhexanoyl-[acp]	p
IDP	IDP	cp
CPD-10633	5-chloro-trans-dienelactone	c
L-Cysteine-Desulfurase-persulfide	an [L-cysteine desulfurase]-S-sulfanyl-L-cysteine	cp
CPD-12045	&alpha;-L-arabinofuranose	p
R-3-hydroxylignoceroyl-ACPs	a (3R)-3-hydroxylignoceroyl-[acp]	p
R-3-hydroxymyristoyl-ACPs	a (3R)-3-hydroxymyristoyl-[acp]	cp
R-3-hydroxypetroselinoyl-ACPs	a (3R)-3-hydroxypetroselinoyl-[acp]	p
CPD-10634	5-chloromaleylacetate	p
DTDP-RHAMNOSE	dTDP-&beta;-L-rhamnose	p
D-MANNONATE	D-mannonate	cp
R-3-hydroxystearoyl-ACPs	a (3R)-3-hydroxystearoyl-[acp]	p
B-ALANINE	&beta;-alanine	cp
CPD-10636	2,5-dichloro-trans-dienelactone	c
K+	K+	cp
L-Cysteine-Desulfurases	an [L-cysteine desulfurase]	c
L-DELTA1-PYRROLINE_5-CARBOXYLATE	(S)-1-pyrroline-5-carboxylate	cp
CPD-121	(R)-mandelate	c
Polysaccharides	a polysaccharide	p
CPD-12115	demethylmenaquinol-8	c
CPD0-1958	3-(N-morpholino)propanesulfonate	c
Double-helix-DNA	a double-helix DNA	c
5-10-METHENYL-THF-GLU-N	a 5,10-methenyltetrahydrofolate	cp
CPD-3709	guanosine 2',3'-cyclic monophosphate	c
SUCROSE	sucrose	cp
Drugs	a drug	cp
5-AMINO-LEVULINATE	5-aminolevulinate	cp
UMP	UMP	cp
CPD-15979	D-mannopyranose 6-phosphate	cp
CPD0-2015	N-acetyl-L-methionine	p
D-METHYL-MALONYL-COA	(S)-methylmalonyl-CoA	cp
UNDECAPRENYL-DIPHOSPHATE	di-trans,octa-cis-undecaprenyl diphosphate	p
PORPHOBILINOGEN	porphobilinogen	cp
5-BETA-CHOLESTANE-3-ALPHA7-ALPHA12-ALP	5&beta;-cholestane-3&alpha;,7&alpha;,12&alpha;-triol	p
D-MYO-INOSITOL-1-MONOPHOSPHATE	1D-myo-inositol 1-monophosphate	c
CPD-3711	cytidine-3'-monophosphate	cp
CIS-12-DIHYDRONAPHTHALENE-12-DIOL	(1R,2S)-1,2-dihydronaphthalene-1,2-diol	p
CPD-13940	Co&alpha;-[a-(5-methoxybenzimidazolyl)]-Co&beta;-adenosylcobamide 5'-phosphate	p
CPD0-2018	5-methylcytosine	c
CIS-2-CHLORO-4-CARBOXYMETHYLENEBUT-2-EN-	2-chloro-cis-dienelactone	c
CPD-14018	icosapentaenoyl-CoA	p
CPD-16458	7,8-dihydrolumazine	p
CPD-14268	(15Z)-tetracosenoate	c
CPD-16491	2,6-diamino-4-hydroxy-5-(N-methyl)formamidopyrimidine	p
CPD0-2030	glycerophosphoserine	c
ADENINE	adenine	cp
CPD-3713	cytidine 2',3'-cyclic monophosphate	c
5-BETA-L-THREO-PENTAPYRANOSYL-4-ULOSE-	UDP-&beta;-L-threo-pentapyranos-4-ulose	cp
URACIL	uracil	cp
CIS-ACONITATE	cis-aconitate	cp
CPD0-2105	3-oxododecanoyl-CoA	cp
CPD-14269	(Z)-15-tetracosenoyl-CoA	p
CPD-16549	3-(N-morpholino)propanal	p
CPD-3724	uridine 3'-monophosphate	cp
CPD0-2106	3-oxooctanoyl-CoA	cp
CPD-16606	UDP-2-acetamido-4-amino-2,4,6-trideoxy-&alpha;-D-galactose	cp
CPDQT-412	(E)-N-hydroxy-6-(methylsulfanyl)heximidothioate	cp
CPD-184	2-pyrone-4,6-dicarboxylate	c
OROTATE	orotate	cp
CPDQT-413	(E)-N-hydroxy-7-(methylsulfanyl)heptimidothioate	cp
CPDQT-414	(E)-N-hydroxy-8-(methylsulfanyl)octimidothioate	cp
CPDQT-415	(E)-N-hydroxy-9-(methylsulfanyl)nonimidothioate	cp
CPD-18492	(2E,6Z,9Z,12Z,15Z,18Z)-tetracosahexaenoyl-CoA	c
LIPOIC-ACID	(R)-lipoate	c
11Z-3-oxo-icos-11-enoyl-ACPs	an (11Z)-3-oxo-icos-11-enoyl-[acp]	cp
LIPOYL-AMP	lipoyl-adenylate	cp
CPDQT-429	indolylmethylisothiocyanate	c
CPD-18493	(3S)-hydroxy-(6Z,9Z,12Z,15Z,18Z)-tetracosapentaenoyl-CoA	p
Menaquinols	a menaquinol	cp
CPDQT-434	indol-3-ylmethylisothiocyanate-glutathione	p
Menaquinones	a menaquinone	cp
CPD-18494	3-oxo-(6Z,9Z,12Z,15Z,18Z)-tetracosapentaenoyl-CoA	c
CPDQT-520	phosphatidylglycerophosphate (1-octadecenoyl(9Z), 2-palmitoyl)	c
D-SEDOHEPTULOSE-7-P	D-sedoheptulose 7-phosphate	cp
LL-DIAMINOPIMELATE	L,L-diaminopimelate	cp
CPD-18495	5-methoxy-6-methylbenzimidazole	c
D-XYLULOSE	D-xylulose	cp
PTEROATE	pteroate	p
CPD-18497	5-hydroxy-benzimidazole	c
HISTIDINOL	histidinol	cp
PTS-I-Histidines	a [PTS enzyme I]-L-histidine	cp
PTS-I-pi-phospho-L-histidines	a [PTS enzyme I]-N&pi;-phospho-L-histidine	cp
CPD-18550	quinoxaline-2-carboxyl adenylate	c
OROTIDINE-5-PHOSPHATE	orotidine 5'-phosphate	cp
2-KETO-3-DEOXY-6-P-GLUCONATE	2-dehydro-3-deoxy-D-gluconate 6-phosphate	cp
CPD-19839	roseoflavin 5'-phosphate	cp
b-Hydroxy-cis-D5-dodecenoyl-ACPs	a (3R,5Z)-3-hydroxy-dodec-5-enoyl-[acp]	p
FRU1P	&beta;-D-fructofuranose 1-phosphate	c
ALLANTOATE	allantoate	cp
b-Keto-cis-D5-dodecenoyl-ACPs	a (5Z)-3-oxo-dodec-5-enoyl-[acp]	cp
CPD-19840	roseoflavin adenine dinucleotide	p
biotin-L-lysine-in-BCCP-dimers	a [biotin carboxyl-carrier-protein dimer]-N6-biotinyl-L-lysine	cp
2-KETO-3-DEOXY-D-GLUCARATE	(2S,3S)-2,3-dihydroxy-5-oxohexanedioate	cp
GLC-1-P	&alpha;-D-glucopyranose 1-phosphate	cp
K-HEXANOYL-COA	3-oxohexanoyl-CoA	p
CPD-201	4-hydroxybenzoyl-CoA	cp
MANNOSE-1P	&alpha;-D-mannose 1-phosphate	cp
D-Xylopyranose	D-xylopyranose	cp
carboxybiotin-L-lysine-in-BCCP-dimers	a [carboxyl-carrier protein dimer]-N6-carboxybiotinyl-L-lysine	cp
CAMP	cyclic-AMP	p
DIHYDRO-DIOH-BENZOATE	(2S,3S)-2,3-dihydroxy-2,3-dihydrobenzoate	p
Prolipoprotein-Cysteines	a [prolipoprotein]-L-cysteine	c
FRUCTOSE-16-DIPHOSPHATE	&beta;-D-fructose 1,6-bisphosphate	cp
CANAVANINE	L-canavanine	cp
cis-19-CP-37-Mex-38-Me-C59-ACPs	a cis-methoxy-C59-meroacyl-[acp]	p
MELIBIOSE	melibiose	c
cis-21-CP-39-keto-40-Me-C60-ACPs	a cis-keto-C60-meroacyl-[acp]	p
GLC-D-LACTONE	D-glucono-1,5-lactone	cp
cis-D19-37-MOH-38-Me-C57-1-ACPs	a cis-delta19-37-methoxy-38-methyl-C57:1-[acp]	c
cis-D21-39-oxo-40-Me-C59-1-ACPs	a cis-delta21-39-oxo-40-methyl-C59:1-[acp]	c
FRUCTOSE-6P	&beta;-D-fructofuranose 6-phosphate	cp
D-galactopyranose	D-galactopyranose	cp
Thi-S	a ThiS sulfur-carrier protein	p
D-glucopyranose-6-phosphate	D-glucopyranose 6-phosphate	cp
2-KETO-3-METHYL-VALERATE	(S)-3-methyl-2-oxopentanoate	cp
DIHYDROFOLATE	7,8-dihydrofolate monoglutamate	p
MENADIOL	menadiol	p
DIHYDROFOLATE-GLU-N	a 7,8-dihydrofolate	p
Protein-Disulfides	a protein disulfide	cp
2-KETO-6-AMINO-CAPROATE	6-amino-2-oxohexanoate	p
GLN	L-glutamine	cp
Protein-Dithiols	a protein dithiol	p
3-Hydroxy-Terminated-DNAs	a [DNA]-3'-hydroxyl	c
GLN-tRNAs	a tRNAGln	c
DADP	dADP	cp
CANAVANINOSUCCINATE	canavaninosuccinate	cp
CPD-207	phenylacetyl-CoA	p
Red-Glutaredoxins	a reduced glutaredoxin	c
Protein-Histidines	a [protein]-L-histidine	cp
3-Hydroxy-octanoyl-ACPs	a (3R)-3-hydroxyoctanoyl-[acp]	p
CARBAMATE	carbamate	p
ERYTHROSE-4P	D-erythrose 4-phosphate	cp
CPD-20735	two adjacent 2'-deoxycytidines in DNA	p
Thiocarboxyadenylated-ThiS-Proteins	a thiocarboxy-[ThiS-Protein]	c
CPD-20736	adjacent 2'-deoxycytidine-thymidine in DNA	p
FRUCTURONATE	D-fructuronate	cp
KDO	3-deoxy-&alpha;-D-manno-2-octulosonate	cp
CPD-20737	adjacent thymidine-2'-deoxycytidine in DNA	p
3-Hydroxyglutaryl-ACP-methyl-ester	a (3R)-3-hydroxyglutaryl-[acp] methyl ester	p
KDO-8P	3-deoxy-D-manno-octulosonate 8-phosphate	cp
Red-NADPH-Hemoprotein-Reductases	a reduced [NADPH-hemoprotein reductase]	c
CPD-20741	a dimer of adjacent 2'-deoxycytidines in DNA	c
16-HYDROXYPALMITATE	16-hydroxypalmitate	c
CPD-20742	a dimer of adjacent thymidines in DNA	c
Thiols	a thiol	cp
Red-Thioredoxin	a reduced thioredoxin	cp
CPD-20743	a dimer of adjacent 2'-deoxycytidine and thymidine in DNA	c
CARBAMOYL-P	carbamoyl phosphate	cp
CPD-20744	a dimer of adjacent thymidine and 2'-deoxycytidine in DNA	c
CIS-D2-ENOYL-COA	a cis-2-enoyl-CoA	cp
5-DEHYDROGLUCONATE	5-dehydro-D-gluconate	c
3Z-dodec-3-enoyl-ACPs	a (3Z)-dodec-3-enoyl-[acp]	c
PPI	diphosphate	cp
Reduced-2Fe-2S-Ferredoxins	a reduced [2Fe-2S] ferredoxin	c
ILE	L-isoleucine	cp
CPD-66	2-hydroxy-3-oxosuccinate	cp
B-KETOACYL-ACP	a 3-oxoacyl-[acp]	cp
CPD-663	UDP-4-dehydro-6-deoxy-&alpha;-D-glucose	cp
4-AMINO-4-DEOXYCHORISMATE	4-amino-4-deoxychorismate	cp
CPD-12173	(S)-3-hydroxy-isobutanoyl-CoA	cp
NAD-P-OR-NOP	NAD(P)+	cp
Reduced-CycA1-cytochromes	a reduced CycA1 cytochrome	c
ILE-tRNAs	a tRNAIle	c
CPD0-2113	1-stearoyl-sn-glycerol 3-phosphate	p
CPD-12175	(S)-3-hydroxy-isobutanoate	c
Reduced-Factor-F420	a reduced coenzyme F420	cp
7Z-3-oxo-hexadec-7-enoyl-ACPs	a (7Z)-3-oxo-hexadec-7-enoyl-[acp]	cp
4-AMINO-BUTYRATE	4-aminobutanoate	cp
SULFATE	sulfate	cp
7Z-hexadec-7-enoyl-ACPs	a (7Z)-hexadec-7-enoyl-[acp]	c
CPD0-2117	trans-hexadec-2-enoyl-CoA	c
CPD-667	O-acetyl-L-homoserine	cp
CIT	citrate	cp
BCAA-dehydrogenase-DH-lipoyl	an [apo BCAA dehydrogenase E2 protein] N6-dihydrolipoyl-L-lysine	cp
OXALACETIC_ACID	oxaloacetate	cp
8-AMINO-7-OXONONANOATE	8-amino-7-oxononanoate	p
BCAA-dehydrogenase-lipoyl	an [apo BCAA dehydrogenase E2 protein] N6-lipoyl-L-lysine	cp
4-CARBOXYMETHYLENEBUT-2-EN-4-OLIDE	cis-dienelactone	c
Reduced-NrdH-Proteins	a reduced NrdH glutaredoxin-like protein	c
BCCP-L-lysine	a [biotin carboxyl-carrier protein]-L-lysine	c
5-HYDROXY-FERULIC-ACID	5-hydroxyferulate	c
CPD0-2121	trans-hex-2-enoyl-CoA	p
16S-rRNA-N2-methylguanine966	an N2-methylguanine966 in 16S rRNA	p
BCCP-biotin-L-lysine	a [biotin carboxyl-carrier protein]-biotin-N6-L-lysine	p
TMP	dTMP	cp
CPD-12179	methylmalonate semialdehyde	c
16S-rRNA-N4-methylcytidine1402	an N4-methylcytidine1402  in 16S rRNA	p
5-HYDROXY-FERULOYL-COA	5-hydroxy-feruloyl-CoA	p
CPD-67	2-phosphoglycolate	c
BENZALDEHYDE	benzaldehyde	cp
PRENAL	3-methyl-2-butenal	p
CPD-12199	3S-(4-hydroxyphenyl)-3-hydroxy-propanoyl-CoA	p
OXALO-SUCCINATE	oxalosuccinate	cp
CPD-6746	1D-myo-inositol 2-monophosphate	c
URATE	urate	cp
IMIDAZOLE-ACETOL-P	imidazole acetol-phosphate	cp
16S-rRNA-N7-methylguanine527	an N7-methylguanine527 in 16S rRNA	p
16S-rRNA-cytidine1402	a cytidine1402 in 16S rRNA	c
5-HYDROXYISOURATE	(S)-5-hydroxyisourate	c
CPD0-2123	3-oxodecanoyl-CoA	c
NADH	NADH	cp
16S-rRNA-guanine-527	a guanine527 in 16S rRNA	c
CPD-676	trans-caffeate	c
16S-rRNA-guanine-966	a guanine966 in 16S rRNA	c
9S-RRNA	a 9S rRNA	c
CPD-122	(S)-mandelate	p
5-KETO-4-DEOXY-D-GLUCARATE	5-dehydro-4-deoxy-D-glucarate	cp
Reduced-ferredoxins	a reduced ferredoxin [iron-sulfur] cluster	cp
16S-rRNA-pseudouridine516	a 16S rRNA pseudouridine516	p
9Z-3-oxo-octadec-9-enoyl-ACPs	a (9Z)-3-oxo-octadec-9-enoyl-[acp]	cp
CPD0-2171	(S)-3-hydroxytetradecanoyl-CoA	p
REDUCED-MENAQUINONE	menaquinol-8	p
A-5-prime-PP-5-prime-DNA	an adenosine-5'-diphospho-5'-[DNA]	cp
16S-rRNA-uridine516	a uridine516 in 16S rRNA	c
5-L-GLUTAMYL-AMINO-ACID	an &alpha;-(5-L-glutamyl)-amino acid	p
TRANS-2-CHLORO-4-CARBOXYMETHYLENEBUT-2-E	2-chloro-trans-dienelactone	c
CTP	CTP	cp
PUTRESCINE	putrescine	cp
CPD-10637	2,5-dichloromaleylacetate	p
Reduced-flavodoxins	a reduced flavodoxin	cp
CPD-3725	uridine 2'3'-cyclic monophosphate	c
CPD-827	5-dehydro-2-deoxy-D-gluconate	cp
Methylated-Ribosomal-Protein-L11s	a methylated ribosomal protein L11	p
CPD-8534	DNA without lesion	p
Relaxed-DNAs	a relaxed DNA	cp
CPD-3734	thiophosphate	p
CPD-10663	5-chlorosalicylate	c
DATP	dATP	p
Resolution-of-Recombinational-Junction	resolution of recombinational junction formation of two intact strands	p
CPD-8579	a [histone] N6-methyl-L-lysine	p
CPD-8624	a [protein]-L-proline (&omega; = 180)	cp
17-BETA-HYDROXY-5ALPHA-ANDROSTAN-3-O	17-&beta;-hydroxy-5-&alpha;-androstan-3-one	cp
CPD-3740	djenkolate	c
Mnm5Se2U-containing-tRNAs	a 5-methylaminomethyl-2-selenouridine in tRNA	p
CPD-8625	a [protein]-L-proline (&omega; = 0)	cp
CPD-10664	5-methylsalicylate	c
CPD-3744	1-butanesulfonate	c
Retinols	a retinol	p
CPD-87	4-carboxy-2-hydroxymuconate-6-semialdehyde	p
CPD-8742	(3E)-2-oxohex-3-enedioate	cp
DCDP	dCDP	cp
CPD-3745	isethionate	c
CPD-10750	UDP-2-acetamido-2,6-dideoxy-&beta;-L-arabino-hex-4-ulose	cp
CPD-8815	2,4-dihydroxybenzoate	c
Rhodoquinols	a rhodoquinol	c
GTP	GTP	cp
Rhodoquinones	a rhodoquinone	p
CPD-3766	menadione	c
CPD-10751	UDP-4-amino-4,6-dideoxy-N-acetyl-&beta;-L-altrosamine	cp
Ribonucleoside-Diphosphates	a ribonucleoside diphosphate	cp
18-HYDROXYOLEATE	18-hydroxyoleate	c
Ribonucleoside-Monophosphates	a ribonucleoside 5'-monophosphate	cp
DCMP	dCMP	c
L-GAMMA-GLUTAMYLCYSTEINE	&gamma;-L-glutamyl-L-cysteine	cp
ETF-Oxidized	an oxidized electron-transfer flavoprotein	cp
2-KETO-ISOVALERATE	3-methyl-2-oxobutanoate	cp
CPD-14443	(2S,4S)-4-hydroxy-2,3,4,5-tetrahydrodipicolinate	cp
ALLO-THR	DL-allothreonine	c
ADENOSINE	adenosine	cp
ALLYSINE	(S)-2-amino-6-oxohexanoate	p
LYS	L-lysine	cp
2-KETOGLUTARATE	2-oxoglutarate	cp
ADENOSINE_DIPHOSPHATE_RIBOSE	ADP-D-ribose	c
Ribonucleoside-Triphosphates	a ribonucleoside triphosphate	c
MESO-DIAMINOPIMELATE	meso-diaminopimelate	cp
LYS-tRNAs	a tRNALys	c
CL-	chloride	cp
PREPHENATE	prephenate	cp
ALPHA-D-GALACTOSE	&alpha;-D-galactose	cp
FUM	fumarate	cp
MESO-TARTRATE	meso-tartrate	cp
Ribonucleosides	a ribonucleoside	p
2-METHYL-3-HYDROXY-BUTYRYL-COA	(2S,3S)-3-hydroxy-2-methylbutanoyl-CoA	cp
ETF-Reduced	a reduced electron-transfer flavoprotein	cp
CPD-14553	UDP-&alpha;-D-galactose	cp
DIHYDROLIPOYL-GCVH	a [glycine-cleavage complex H protein] N6-dihydrolipoyl-L-lysine	cp
DIHYDRONEOPTERIN-P3	7,8-dihydroneopterin 3'-triphosphate	c
IMINOASPARTATE	2-iminosuccinate	cp
SUPER-OXIDE	superoxide	c
MET	L-methionine	cp
3-KETO-ADIPATE	3-oxoadipate	c
2-METHYL-ACETO-ACETYL-COA	2-methylacetoacetyl-CoA	cp
PYRAZINAMIDE	pyrazinamide	c
ETHANOL-AMINE	ethanolamine	cp
L-GLUTAMATE-5-P	&gamma;-L-glutamyl 5-phosphate	cp
Ribosomal-protein-L3-L-glutamine	a [ribosomal protein L3]-L-glutamine	c
ALPHA-GLC-6-P	&alpha;-D-glucose 6-phosphate	c
CPD-14675	pristanoyl-CoA	p
PHE	L-phenylalanine	cp
PRISTANATE	pristanate	c
Ribosomal-protein-L3-N5M-L-glutamine	a [ribosomal protein L3]-N5-methyl-L-glutamine	p
Ribosomal-protein-S12-3-methylthio-Asp89	a [ribosomal protein S12]-3-methylsulfanyl-L-aspartate89	p
PHE-tRNAs	a tRNAPhe	p
ADENOSYL-HOMO-CYS	S-adenosyl-L-homocysteine	cp
CPD-14704	4-hydroxy-2-nonenal-glutathione conjugate	p
ALPHA-GLUCOSE-16-BISPHOSPHATE	&alpha;-glucose 1,6-bisphosphate	cp
Ribosomal-protein-S12-Asp89	a [ribosomal protein S12] L-aspartate89	c
PYRAZINOIC-ACID	pyrazine-2-carboxylate	p
2-3-4-Saturated-L-Phosphatidates	a 1,2-diacyl-sn-glycerol 3-phosphate	c
CPD-14772	hexadecanedioyl-CoA	cp
CMP	CMP	cp
Ribulose-phosphates	L(or D)-ribulose 5-phosphate	cp
ADENOSYL-P4	5',5'''-diadenosine tetraphosphate	c
OXIDIZED-GLUTATHIONE	glutathione disulfide	cp
METHACRYLYL-COA	methylacrylyl-CoA	cp
CPD-14808	scyllo-inosose	cp
IMP	IMP	cp
Ribuloses	ribulose	cp
CMP-KDO	CMP-3-deoxy-&beta;-D-manno-octulosonate	cp
ALPHA-RIBAZOLE	&alpha;-ribazole	cp
S-2-Haloacids	an (S)-2-haloacid	c
PRO	L-proline	cp
ALPHA-RIBAZOLE-5-P	&alpha;-ribazole 5'-phosphate	cp
L-GLUTAMATE_GAMMA-SEMIALDEHYDE	L-glutamate-5-semialdehyde	cp
PRO-tRNAs	a tRNAPro	c
S-2-Hydroxyacids1	an (S)-2-hydroxyacid	p
2-METHYL-BUTYRYL-COA	2-methylbutanoyl-CoA	p
CPD-14828	1-C16:0-&alpha;,&omega;-dicarboxyl-2-lysophosphatidate	cp
OXOPENTENOATE	2-oxopent-4-enoate	cp
S-2-INDOL-3-YLACETYL-COA	S-2-(indol-3 yl)acetyl-CoA	cp
PROCOLLAGEN-L-PROLINE	a [procollagen]-L-proline	c
CPD-678	hydrogen selenide	c
UREA	urea	cp
Protein-L-glutamine	a [protein]-L-glutamine	c
mRNA-Fragments	an mRNA fragment	p
ACET	acetate	cp
236-TRICHLOROHYDROQUINONE	2,3,6-trichlorohydroquinone	c
ACETALD	acetaldehyde	p
CPD-16953	2-amino-6-[1-hydroxyethyl]-7-methyl-7,8-dihydropterin	c
2-5-TRIPHOSPHORIBOSYL-3-DEPHOSPHO-	2'-(5''-triphospho-&alpha;-D-ribosyl)-3'-dephospho-CoA	p
Protein-L-lysine	a [protein]-L-lysine	c
mRNAs	an mRNA	cp
TRANS-23-DEHYDROADIPYL-COA	trans-2,3-dehydroadipyl-coA	cp
mRNAs-with-5-monophosphate	a 5'-phospho-[mRNA]	p
CARBAMYUL-L-ASPARTATE	N-carbamoyl-L-aspartate	cp
Protein-L-methionine	a [protein]-L-methionine	cp
mRNAs-with-5-triphosphate	a 5' triphospho-[mRNA]	c
Protein-L-methionine-R-S-oxides	a protein-L-methionine-(R)-S-oxide	cp
S-24-DINITROPHENYLGLUTATHIONE	2,4-dinitrophenyl-S-glutathione	cp
CPD-16954	[1-(2-amino-7-methyl-4-oxo-7,8-dihydro-3H-pteridin-6-yl)]ethyl diphosphate	p
TRANS-3-METHYL-GLUTACONYL-COA	3-methylglutaconyl-CoA	p
CPD-170	stachyose	c
Protein-L-serine-or-L-threonine	a [protein]-(L-serine/L-threonine)	cp
CPD-17045	3-benzyl-3,6-dihydroxy-6-(hydroxymethyl)-diketopiperazine	c
OXYGEN-MOLECULE	oxygen	cp
PHENYL-PYRUVATE	keto-phenylpyruvate	cp
ACETAMIDE	acetamide	c
CMP-N-ACETYL-NEURAMINATE	CMP-N-acetyl-&beta;-neuraminate	p
URIDINE	uridine	p
KDO-LIPID-IVA	&alpha;-Kdo-(2&rarr;6)-lipid IVA	p
CPD-687	hydrogenobyrinate	c
23S-rRNA-2-methyladenine2503	a 2-methyladenine2503 in 23S rRNA	p
CPD-17046	3-benzyl-3,6 -bis(glutathione)- 6-(hydroxymethyl)-diketopiperazine	p
TRANS-D2-ENOYL-ACP	a trans-2-enoyl-[acyl-carrier protein]	p
TRANS-D2-ENOYL-COA	a (2E)-alkan-2-enoyl-CoA	cp
CARBON-DIOXIDE	CO2	cp
HMP	4-amino-2-methyl-5-pyrimidinemethanol	c
CPD-17063	ferroheme o	p
Protein-N-terminal-L-Arginine	an N-terminal arginyl-[protein]	cp
CPD-688	hydrogenobyrinate a,c-diamide	p
Saturated-Fatty-Acyl-ACPs	a 2,3,4-saturated fatty acyl-[acp]	c
23S-rRNA-adenine-2503	adenine2503 in 23S rRNA	c
PHENYLACETATE	phenylacetate	cp
23S-rRNA-pseudouridine955-2504-2580	a pseudouridine955/2504/2580 in 23S rRNA	p
CPD-17095	iminoarginine	p
ARSENATE	arsenate	c
URIDYLYL-PROTEIN-PII	a uridylylated PII protein	p
Protein-N-terminal-L-Lysine	an N-terminal L-lysyl-[protein]	c
KDO2-LAUROYL-LIPID-IVA	&alpha;-Kdo-(2->4)-&alpha;-Kdo-(2->6)-(lauroyl)-lipid IVA	c
CO-A	coenzyme A	cp
23S-rRNA-uridine955-2504-2580	uridine955/2504/2580 in 23S rRNA	c
Saturated-Fatty-Acyl-CoA	a 2,3,4-saturated fatty acyl CoA	cp
Protein-N-terminal-L-threonine	an N-terminal L-threonyl-[protein]	p
rRNA-fragments	an rRNA fragment	p
CPD-689	cob(II)yrinate a,c-diamide	p
UROCANATE	urocanate	p
Protein-N6-5-glutamyl-lysine-crosslinks	a protein with an N6-(&gamma;-glutamyl)-L-lysine crosslink	p
KDO2-LIPID-A	&alpha;-D-Kdo-(2&rarr;4)-&alpha;-D-Kdo-(2&rarr;6)-lipid A	p
Protein-N6-5-glutamyl-serotonin	a [protein] N6-[(5-hydroxy-1H-indol-3-yl)ethyl]-L-glutamine	p
ATP	ATP	cp
CPD-12279	2-iminoacetate	c
CPD-8978	ethylphosphate	c
GLT	L-glutamate	cp
GUANINE	guanine	cp
CPD-187	4-hydroxy-4-methyl-2-oxoglutarate	p
GLT-tRNAs	a tRNAglu	p
Trans-3-enoyl-CoAs	a (3E)-alkan-3-enoyl-CoA	p
NADH-P-OR-NOP	NAD(P)H	cp
CPD-9000	4-(&gamma;-L-glutamylamino)butanoate	c
CPD0-2231	dIDP	cp
CPD-12321	15-cis-phytoene	c
S-ADENOSYLMETHIONINAMINE	S-adenosyl 3-(methylthio)propylamine	cp
3-KETO-ADIPYL-COA	3-oxoadipyl-CoA	cp
CYS	L-cysteine	cp
CPD-9049	cobyrinate	c
L-GLYCERALDEHYDE-3-PHOSPHATE	L-glyceraldehyde 3-phosphate	c
CYS-GLY	L-cysteinyl-glycine	p
Octanoyl-ACPs	an octanoyl-[acp]	c
CPD0-2232	(S)-3-hydroxyhexadecanoyl-CoA	p
Octanoylated-Gcv-H	a [glycine-cleavage complex H protein] N6-octanoyl-L-lysine	cp
CPD-19014	2-hydroxy-2-methylpropanoate	p
Octanoylated-domains	a [lipoyl-carrier protein] N6-octanoyl-L-lysine	cp
CPD-12365	8-oxo-dGMP	p
CPD-9152	4-chlorocatechol	p
S-ADENOSYLMETHIONINE	S-adenosyl-L-methionine	cp
Semiquinones	a semiquinone	p
L-GULONATE	L-gulonate	p
NADP	NADP+	cp
3-KETOACYL-COA	a 3-oxoacyl-CoA	cp
CPD0-2244	(S)-3-hydroxydecanoyl-CoA	p
Odd-Saturated-Fatty-Acyl-CoA	an odd numbered straight chain 2,3,4-saturated fatty acyl CoA	p
CPD-19042	2-hydroxyisobutyramide	c
3-KETOBUTYRATE	acetoacetate	cp
TusE-L-cysteine	a [TusE sulfur carrier protein]-L-cysteine	p
Odd-Straight-Chain-234-Sat-FA	an odd numbered straight chain 2,3,4-saturated fatty acid	c
TusE-S-sulfanylcysteine	a [TusE sulfur carrier protein]-S-sulfanylcysteine	c
CYS-tRNAs	a tRNACys	cp
3-Ketoglutaryl-ACP-methyl-ester	a 3-oxo-glutaryl-[acp] methyl ester	cp
CPD-19144	(7Z)-hexadecenoyl-CoA	cp
CPD-9169	2-hydroxylaminobenzoate	c
L-GULONO-1-4-LACTONE	L-gulono-1,4-lactone	c
CPD0-2283	a peptidoglycan dimer with pentapeptide stems (meso-diaminopimelate containing)	c
3-Ketopimeloyl-ACP-methyl-esters	a 3-oxo-pimeloyl-[acp] methyl ester	cp
Light	h&nu;	c
CPD-19147	(7Z)-tetradecenoyl-CoA	cp
Lignoceroyl-ACPs	a lignoceroyl-[acp]	c
UDP	UDP	cp
CPD-9245	palmitoleate	c
Oleoyl-ACPs	an oleoyl-[acp]	c
UDP-4-AMINO-4-DEOXY-L-ARABINOSE	UDP-4-amino-4-deoxy-&beta;-L-arabinopyranose	cp
CPD0-2298	(S)-ureidoglycine	p
CPD-19148	(5Z)-dodecenoyl-CoA	cp
CPD-9247	cis-vaccenate	c
GUANOSINE	guanosine	p
Oleoyl-lipid	a [glycerolipid]-oleate	c
Serines	serine	p
L-Glutamyl-Peptides	an N-terminal L-glutamyl-[protein]	c
Lipid-dihydrosterculate	a [glycerolipid]-dihydrosterculate	p
CPD-12427	7,8-dihydro-8-oxoguanine	p
GUANOSINE-5DP-3DP	ppGpp	cp
BENZIMIDAZOLE	benzimidazole	c
Monocarboxylates	a monocarboxylate	p
Monocarboxylic-Acid-Amides	a monocarboxylic acid amide	c
5-L-GLUTAMYL-L-AMINO-ACID	an &alpha;-(&gamma;-L-glutamyl)-L-amino acid	p
DCTP	dCTP	p
4-CYTIDINE-5-DIPHOSPHO-2-C	4-(cytidine 5'-diphospho)-2-C-methyl-D-erythritol	cp
NADPH	NADPH	cp
BENZOATE	benzoate	cp
Oligonucleotides	an oligonucleotide	c
4-FUMARYL-ACETOACETATE	4-fumaryl-acetoacetate	cp
Fatty-Acids	a fatty acid	p
5-L-GLUTAMYL-PEPTIDE	a 5-L-glutamyl-[peptide]	c
5-METHYL-THF-GLU-N	a 5-methyltetrahydrofolate	cp
5-METHYLTHIOADENOSINE	S-methyl-5'-thioadenosine	cp
Myristoyl-ACPs	a myristoyl-[acp]	c
N-5-PHOSPHORIBOSYL-ANTHRANILATE	N-(5-phosphoribosyl)-anthranilate	cp
DE-O-GLUCONATE	2-deoxygluconate	c
HOMO-CYS	L-homocysteine	cp
CPD-1078	CDP-4-dehydro-3,6-dideoxy-D-glucose	p
N-ACETYL-D-GLUCOSAMINE	N-acetyl-&beta;-D-glucosamine	cp
DE-O-K-GLUCONATE	3-dehydro-2-deoxy-D-gluconate	p
N-ACETYL-D-GLUCOSAMINE-1-P	N-acetyl-&alpha;-D-glucosamine 1-phosphate	p
BETA-D-FRUCTOSE	&beta;-D-fructofuranose	cp
CPD-10791	6-deoxy-5-ketofructose 1-phosphate	p
BETA-D-XYLOSE	&beta;-D-xylopyranose	p
GLY	glycine	cp
DEAMIDO-NAD	nicotinate adenine dinucleotide	cp
4-GUANIDO-BUTYRAMIDE	4-guanidinobutyramide	c
GLYCERALD	D-glyceraldehyde	p
4-HYDROXY-2-KETOVALERATE	(S)-4-hydroxy-2-oxopentanoate	cp
GLYCERATE	D-glycerate	cp
HOMO-SER	L-homoserine	cp
CPD-10806	4-hydroxy-2-nonenal	c
N-ACETYL-D-MANNOSAMINE	N-acetyl-&beta;-D-mannosamine	cp
CPD-69	cyanate	c
ADENOSYLCOBALAMIN	adenosylcobalamin	cp
CPD-690	adenosyl-cobyrinate a,c-diamide	p
S-ALLANTOIN	(S)-(+)-allantoin	c
CPD-14925	(3Z)-dec-3-enoyl-CoA	p
DIHYDROPTERIN-CH2OH-PP	(7,8-dihydropterin-6-yl)methyl diphosphate	p
Feruloyl-polysaccharides	a feruloyl-polysaccharide	c
ADENOSYLCOBALAMIN-5-P	adenosylcobalamin 5'-phosphate	p
CPD-20826	7-(5-phospho-&alpha;-D-ribosyl)adenine	p
ETOH	ethanol	cp
CPD-14927	phytenate	c
CPD-691	adenosylcobyrate	c
RH-Group	an organic molecule	c
ADENOSYLCOBINAMIDE	adenosylcobinamide	p
CPD-20827	phenolyl-Co&beta;-adenosylcobamide 5'-phosphate	p
CPD-14928	phytenoyl-CoA	p
ADENOSYLCOBINAMIDE-GDP	adenosylcobinamide-GDP	cp
CPD-20828	4-methylphenolyl-Co&beta;-adenosylcobamide 5'-phosphate	p
CPD-694	cob(I)yrinate a,c-diamide	c
ETR-Quinols	an electron-transfer quinol	cp
CPD-20829	[(2R,3S,4R,5S)-5-(1,3-benzodiazol-1-yl)-3,4-dihydroxyoxolan-2-yl]methyl phosphate	cp
DIHYDROXY-ACETONE-PHOSPHATE	glycerone phosphate	cp
ACETOACETYL-COA	acetoacetyl-CoA	cp
Orthophosphoric-Monoesters	a phosphate monoester	c
ETR-Quinones	an electron-transfer quinone	cp
RHAMNOSE	&alpha;-L-rhamnopyranose	c
CPD-20830	[(2R,3S,4R,5S)-3,4-dihydroxy-5-(5-hydroxy-1,3-benzodiazol-1-yl)oxolan-2-yl]methyl phosphate	p
CPD-15015	4-hydroxy-2-oxoglutarate	cp
CPD-20831	[(2R,3S,4R,5S)-3,4-dihydroxy-5-(5-methoxy-1,3-benzodiazol-1-yl)oxolan-2-yl]methyl phosphate	cp
DIHYDROXY-BUTANONE-P	1-deoxy-L-glycero-tetrulose 4-phosphate	cp
CPD-15056	(2Z)-2-aminobut-2-enoate	cp
CPD-20832	[(2R,3S,4R,5S)-3,4-dihydroxy-5-(5-methoxy-6-methyl-1,3-benzodiazol-1-yl)oxolan-2-yl]methyl phosphate	cp
UROPORPHYRINOGEN-III	uroporphyrinogen-III	cp
CPD-20833	Co&alpha;-[a-(benzimidazolyl)]-Co&beta;-adenosylcobamide 5'-phosphate	p
CPD-698	campest-4-en-3-one	p
G3P	3-phospho-D-glycerate	cp
S-Alkyl-L-Cysteines	an S-alkyl-L-cysteine	cp
CPD-20836	Co&alpha;-[a-(5-methoxy-6-methyl-benzimidazolyl)]-Co&beta;-adenosylcobamide 5'-phosphate	p
CPD-15121	5-fluorocytosine	c
ADENOSYLCOBINAMIDE-P	adenosyl-cobinamide phosphate	cp
1-4-D-xylooligosaccharides	a (1->4)-&beta;-D-xylan oligosaccharide	c
CPD-20838	[(2R,3S,4R,5S)-3,4-dihydroxy-5-(5-methyl-1,3-benzodiazol-1-yl)oxolan-2-yl]methyl phosphate	cp
1-4-alpha-D-Glucan	a 1,4-&alpha;-D-glucan	cp
S-CD-S-SP-Complex	an S-sulfanyl-[cysteine desulfurase]-S-sulfanyl-[disordered-form scaffold protein] complex	p
CPD-20839	Co&alpha;-[a-(5-methylbenzimidazolyl)]-Co&beta;-adenosylcobamide 5'-phosphate	p
Ox-Glutaredoxins	an oxidized glutaredoxin	p
CPD-15127	5-deoxy-D-glucuronate	cp
CPD-20840	7-&alpha;-D-ribosyladenine	c
ACETONE	acetone	p
CPD-20841	(2S,3R,4S,5R)-2-(5-hydroxy-1,3-benzodiazol-1-yl)-5-(hydroxymethyl)oxolane-3,4-diol	c
1-5-L-Arabinooligosaccharides	a (1->5)-&alpha;-L-arabinan oligosaccharide	c
Gcv-H	[glycine cleavage system lipoyl-carrier protein]-L-lysine	c
CPD-20849	Co&alpha;-[a-(5-hydroxybenzimidazolyl)]-Co&beta;-adenosylcobamide	p
General-Protein-Substrates	a protein	cp
CPD-2183	1-oleoyl-2-palmitoyl-phosphatidylglycerol	p
Ox-NADPH-Hemoprotein-Reductases	an oxidized [NADPH-hemoprotein reductase]	p
1-AMINO-PROPAN-2-OL	(R)-1-aminopropan-2-ol	c
Ox-Thioredoxin	an oxidized thioredoxin	cp
CPD-7002	dihydrogeranylgeranyl diphosphate	cp
UTP	UTP	cp
Gln-B	a PII protein	c
RIBOFLAVIN	riboflavin	cp
CPD-15182	cob(II)yrinate c-monoamide	cp
