id	Common name	linked reactions
ASE17_10035	Unknown	METHYLCROTONYL-COA-CARBOXYLASE-RXN
ASE17_10835	Unknown	3-HYDROXYBUTYRYL-COA-DEHYDROGENASE-RXN
ASE17_03840	Unknown	GSHTRAN-RXN;GST-RXN;RXN-11663;RXN-13673;RXN-15680;RXN-18405;RXN-18407;RXNQT-4363
ASE17_12520	lysK	LYSINE--TRNA-LIGASE-RXN
ASE17_01795	Unknown	N-ACETYLGLUTPREDUCT-RXN;RXN-15006
ASE17_00275	pyrB	ASPCARBTRANS-RXN
ASE17_11415	Unknown	325-BISPHOSPHATE-NUCLEOTIDASE-RXN
ASE17_12430	Unknown	RXN-10002
ASE17_13320	Unknown	LEUCINE--TRNA-LIGASE-RXN
ASE17_03025	Unknown	RXN0-1342
ASE17_11375	Unknown	GSHTRAN-RXN;GST-RXN;RXN-11663;RXN-13673;RXN-15680;RXN-18405;RXN-18407;RXNQT-4363
ASE17_17030	Unknown	RXN-8351
ASE17_15475	Unknown	IMP-DEHYDROG-RXN
ASE17_03800	Unknown	1.14.11.2-RXN
ASE17_05750	Unknown	RIB5PISOM-RXN
ASE17_13430	Unknown	2-HALOACID-DEHALOGENASE-RXN
ASE17_14850	Unknown	4.2.1.107-RXN;RXN-9847
ASE17_02500	Unknown	RXN-13179
ASE17_00725	Unknown	THIAZOLSYN2-RXN
ASE17_17245	Unknown	RXN-12134;RXN-12140;RXN-12141;RXN-12142
ASE17_12790	Unknown	3.4.24.11-RXN
ASE17_10145	Unknown	2-NITROPROPANE-DIOXYGENASE-RXN
ASE17_09620	Unknown	DCTP-DEAM-RXN;RXN-14118
ASE17_08785	Unknown	2.7.13.3-RXN
ASE17_02225	Unknown	2-OCTAPRENYL-6-OHPHENOL-METHY-RXN;DHHB-METHYLTRANSFER-RXN
ASE17_17900	Unknown	ACYLCOADEHYDROG-RXN;RXN-17775;RXN-17779;RXN-17783;RXN-17784;RXN-17788;RXN-17792;RXN-17796
ASE17_01280	gltA	CITSYN-RXN
ASE17_09065	Unknown	RXN0-5061
ASE17_13005	Unknown	2-OCTAPRENYL-6-METHOXYPHENOL-HYDROX-RXN
ASE17_14330	Unknown	GLYOXIII-RXN
ASE17_01195	Unknown	DNA-DIRECTED-DNA-POLYMERASE-RXN
ASE17_18450	Unknown	DIHYDROOROTATE-DEHYDROGENASE-RXN;RXN0-6491;RXN0-6554
ASE17_19525	Unknown	ADENYL-KIN-RXN
ASE17_13295	Unknown	RXN-11578
ASE17_09625	Unknown	RXN-9384
ASE17_05870	Unknown	3.5.1.80-RXN;NAG6PDEACET-RXN
ASE17_01225	Unknown	CDPDIGLYSYN-RXN;RXN0-5515
ASE17_13630	Unknown	P-PANTOCYSDECARB-RXN;P-PANTOCYSLIG-RXN;RXN-11781
ASE17_12560	Unknown	ACETATE--COA-LIGASE-RXN;RXN-18446;RXN-18447;RXN-18448
ASE17_09690	Unknown	MYRISTOYLACYLTRAN-RXN
ASE17_01085	Unknown	1.6.99.5-RXN;NADH-DEHYDROGENASE-QUINONE-RXN
ASE17_06755	Unknown	ARYLSULFAT-RXN
ASE17_07245	Unknown	ACETOLACTREDUCTOISOM-RXN;ACETOOHBUTREDUCTOISOM-RXN
ASE17_18045	Unknown	6.3.1.10-RXN;RXN-6261
ASE17_07605	Unknown	5.3.4.1-RXN;DISULISOM-RXN
ASE17_10455	Unknown	THREONINE--TRNA-LIGASE-RXN
ASE17_08245	Unknown	GLYOXIII-RXN
ASE17_01375	Unknown	RXN-12508;RXN-12583;RXN0-1134
ASE17_03495	Unknown	2.1.1.77-RXN
ASE17_18035	Unknown	DMBPPRIBOSYLTRANS-RXN;RXN-19295;RXN-19298;RXN-19299;RXN-19300;RXN-19301;RXN-19306
ASE17_02070	Unknown	CYTOCHROME-C-OXIDASE-RXN;RXN-15830
ASE17_00885	glnA	GLUTAMINESYN-RXN
ASE17_10600	Unknown	3.4.11.18-RXN;RXN-17873;RXN-17874;RXN-17875;RXN-17876;RXN-17877;RXN-17878
ASE17_13230	Unknown	DEPHOSPHOCOAKIN-RXN
ASE17_01565	Unknown	ENOYL-COA-HYDRAT-RXN;METHYLACYLYLCOA-HYDROXY-RXN;RXN-10697;RXN-10704;RXN-10705;RXN-11244;RXN-12567;RXN-13616;RXN-14266;RXN-14272;RXN-14273;RXN-16135;RXN-16558;RXN-17114;RXN-17475;RXN-17776;RXN-17780;RXN-17785;RXN-17789;RXN-17793;RXN-17797;RXN-2425;RXN0-5393;TIGLYLCOA-HYDROXY-RXN
ASE17_01775	Unknown	RXN-18399;RXN-18428;RXN-18430
ASE17_12740	Unknown	GLUTATHIONE-SYN-RXN
ASE17_17230	Unknown	RXN-11989;RXN-11999
ASE17_12345	Unknown	DNA-DIRECTED-DNA-POLYMERASE-RXN
ASE17_19555	Unknown	GLYOXIII-RXN
ASE17_14990	Unknown	GSHTRAN-RXN;GST-RXN;RXN-11663;RXN-13673;RXN-15680;RXN-18405;RXN-18407;RXNQT-4363
ASE17_04795	Unknown	NACGLCTRANS-RXN;RXN-8976
ASE17_10525	Unknown	GLYOXIII-RXN
ASE17_05375	Unknown	NAD-KIN-RXN
ASE17_14380	Unknown	OHMETPYRKIN-RXN;PYRIMSYN3-RXN
ASE17_10040	Unknown	RXN-14264;RXN0-2301
ASE17_10385	Unknown	1.3.99.16-RXN
ASE17_13105	Unknown	4.2.99.18-RXN
ASE17_02465	Unknown	DNA-DIRECTED-DNA-POLYMERASE-RXN
ASE17_05795	Unknown	HISTALDEHYD-RXN;HISTOLDEHYD-RXN;RXN-8001
ASE17_17105	Unknown	PRODISULFREDUCT-RXN;RXN0-7271
ASE17_09330	Unknown	R4-RXN
ASE17_19150	Unknown	METHELENE-THMPT-OXI-RXN
ASE17_11995	Unknown	ASPARTATE-SEMIALDEHYDE-DEHYDROGENASE-RXN
ASE17_11010	Unknown	1TRANSKETO-RXN;2TRANSKETO-RXN
ASE17_02855	Unknown	3-CH3-2-OXOBUTANOATE-OH-CH3-XFER-RXN;RXN-15635
ASE17_02360	Unknown	GSAAMINOTRANS-RXN
ASE17_03060	Unknown	PANTEPADENYLYLTRAN-RXN
ASE17_10405	Unknown	RXN-12560;RXN-13279;RXN-5901
ASE17_07825	Unknown	ACYLCOADEHYDROG-RXN;RXN-17775;RXN-17779;RXN-17783;RXN-17784;RXN-17788;RXN-17792;RXN-17796
ASE17_14270	Unknown	RXN0-1147
ASE17_11385	Unknown	RXN0-299
ASE17_10325	Unknown	KANAMYCIN-KINASE-RXN
ASE17_01830	Unknown	HOMOSERDEHYDROG-RXN
ASE17_01665	Unknown	3-HYDROXYISOBUTYRATE-DEHYDROGENASE-RXN
ASE17_19200	Unknown	ACETYLHOMOSER-CYS-RXN;O-ACETYLHOMOSERINE-THIOL-LYASE-RXN
ASE17_17675	Unknown	UDPGLUCEPIM-RXN
ASE17_18835	Unknown	ACYLCOADEHYDROG-RXN;RXN-17775;RXN-17779;RXN-17783;RXN-17784;RXN-17788;RXN-17792;RXN-17796
ASE17_10845	Unknown	2-HALOACID-DEHALOGENASE-RXN;3.8.1.11-RXN;RXN-6263;RXN-6264
ASE17_13790	Unknown	RXN-15376;RXN-18319;RXN-9999;RXN0-1863
ASE17_00925	clpP	3.4.21.92-RXN
ASE17_13915	Unknown	3-ISOPROPYLMALDEHYDROG-RXN;RXN-13158;RXN-14986;RXN-18200;RXN-18202;RXN-18204;RXN-18206;RXN-18208;RXN-18210;RXNQT-4165;RXNQT-4168;RXNQT-4171;RXNQT-4174;RXNQT-4178
ASE17_00265	Unknown	DIHYDROOROT-RXN
ASE17_00880	Unknown	5.99.1.2-RXN
ASE17_08915	Unknown	POLYNUCLEOTIDE-ADENYLYLTRANSFERASE-RXN
ASE17_12505	Unknown	ACYLCOADEHYDROG-RXN;RXN-17775;RXN-17779;RXN-17783;RXN-17784;RXN-17788;RXN-17792;RXN-17796
ASE17_08420	Unknown	ACYLCOASYN-RXN;LINOLENOYL-RXN;R223-RXN;RXN-12184;RXN-12978;RXN-13290;RXN-13614;RXN-16380;RXN-16389;RXN-16393;RXN-16401;RXN-16402;RXN-16415;RXN-16418;RXN-7904;RXN-9623;RXN-9644;RXN-9673;RXN0-7238;RXN0-7239;RXN0-7248;RXN66-469;RXN66-477;RXN66-480;RXN66-483;RXN66-484;TRANS-RXN0-623
ASE17_01380	Unknown	RXN-12508;RXN-12583;RXN0-1134
ASE17_09250	Unknown	2-NITROPROPANE-DIOXYGENASE-RXN
ASE17_09700	Unknown	MYO-INOSITOL-1OR-4-MONOPHOSPHATASE-RXN;RXN-7253;RXN0-5408
ASE17_11825	Unknown	RXN-14971;RXN-15378;SUCCINATE-DEHYDROGENASE-UBIQUINONE-RXN
ASE17_02605	Unknown	GUANYL-KIN-RXN
ASE17_15030	Unknown	AMP-NUCLEOSID-RXN
ASE17_08980	Unknown	RXN-8529
ASE17_03945	Unknown	DGTPTRIPHYDRO-RXN
ASE17_00650	Unknown	RXN0-5462
ASE17_07425	Unknown	ACETYL-COA-ACETYLTRANSFER-RXN;METHYLACETOACETYLCOATHIOL-RXN;RXN-12561
ASE17_12675	Unknown	OHMETHYLBILANESYN-RXN
ASE17_19035	Unknown	GPH-RXN
ASE17_13520	Unknown	S-ADENMETSYN-RXN
ASE17_01805	Unknown	1.8.4.12-RXN
ASE17_03615	Unknown	ACYLCOADEHYDROG-RXN;RXN-17775;RXN-17779;RXN-17783;RXN-17784;RXN-17788;RXN-17792;RXN-17796
ASE17_12235	Unknown	ATPASE-RXN
ASE17_15060	Unknown	ALANINE--GLYOXYLATE-AMINOTRANSFERASE-RXN
ASE17_12780	Unknown	2.7.13.3-RXN
ASE17_13585	Unknown	2.7.7.8-RXN
ASE17_08770	Unknown	BRANCHED-CHAINAMINOTRANSFERILEU-RXN;BRANCHED-CHAINAMINOTRANSFERLEU-RXN;BRANCHED-CHAINAMINOTRANSFERVAL-RXN
ASE17_17905	Unknown	ACYLCOADEHYDROG-RXN;RXN-17775;RXN-17779;RXN-17783;RXN-17784;RXN-17788;RXN-17792;RXN-17796
ASE17_01330	Unknown	TRIOSEPISOMERIZATION-RXN
ASE17_12190	Unknown	ACETYLORNDEACET-RXN;RXN-7933
ASE17_14915	Unknown	ATPPHOSPHORIBOSYLTRANS-RXN
ASE17_03480	Unknown	VALINE--TRNA-LIGASE-RXN
ASE17_02455	Unknown	RXN0-262
ASE17_00295	gatA	6.3.5.7-RXN
ASE17_11520	Unknown	RXN-7682;RXN0-901
ASE17_05805	Unknown	UDPNACETYLGLUCOSAMENOLPYRTRANS-RXN
ASE17_05430	Unknown	ACYLCOADEHYDROG-RXN;RXN-17775;RXN-17779;RXN-17783;RXN-17784;RXN-17788;RXN-17792;RXN-17796
ASE17_16945	Unknown	ASPARTATEKIN-RXN
ASE17_14495	Unknown	3.2.1.3-RXN;RXN-9024
ASE17_19045	Unknown	2.7.13.3-RXN
ASE17_07650	Unknown	GLYOXIII-RXN
ASE17_08060	Unknown	PROLINE--TRNA-LIGASE-RXN
ASE17_11535	Unknown	RXN-16650
ASE17_15425	Unknown	LIPIDXSYNTHESIS-RXN
ASE17_13360	Unknown	3.1.11.2-RXN
ASE17_14450	Unknown	DNA-DIRECTED-DNA-POLYMERASE-RXN;RXN0-4961
ASE17_18440	Unknown	GAMMA-GLUTAMYLTRANSFERASE-RXN;RXN-18092;RXN-6601;RXN-9157;RXN66-336
ASE17_04385	Unknown	NADPH-DEHYDROGENASE-FLAVIN-RXN
ASE17_01435	Unknown	RXN0-1281
ASE17_07265	Unknown	DIHYDROFOLATEREDUCT-RXN;RXN-18357
ASE17_17740	Unknown	ARGSUCCINLYA-RXN;RXN-22
ASE17_03475	Unknown	ACYLCOASYN-RXN;LINOLENOYL-RXN;R223-RXN;RXN-12184;RXN-12978;RXN-13290;RXN-13614;RXN-16380;RXN-16389;RXN-16393;RXN-16401;RXN-16402;RXN-16415;RXN-16418;RXN-7904;RXN-9623;RXN-9644;RXN-9673;RXN0-7238;RXN0-7239;RXN0-7248;RXN66-469;RXN66-477;RXN66-480;RXN66-483;RXN66-484;TRANS-RXN0-623
ASE17_10485	Unknown	HISTCYCLOHYD-RXN
ASE17_08385	Unknown	1.2.7.8-RXN
ASE17_09475	Unknown	3-OXOACYL-ACP-REDUCT-RXN;RXN-10060;RXN-10655;RXN-10659;RXN-11476;RXN-11480;RXN-13008;RXN-16616;RXN-16622;RXN-16626;RXN-16630;RXN-9514;RXN-9518;RXN-9524;RXN-9528;RXN-9532;RXN-9536;RXN-9540;RXN-9552;RXN-9556;RXN-9633;RXN0-2142;RXN1G-157;RXN1G-349;RXN1G-469;RXN1G-508
ASE17_09775	Unknown	PHOSPHOGLUCMUT-RXN;RXN-16997;RXN-16998
ASE17_17920	Unknown	ACYLCOADEHYDROG-RXN;RXN-17775;RXN-17779;RXN-17783;RXN-17784;RXN-17788;RXN-17792;RXN-17796
ASE17_14830	Unknown	N-CARBAMOYLPUTRESCINE-AMIDASE-RXN
ASE17_15750	Unknown	DTDPGLUCDEHYDRAT-RXN
ASE17_08895	Unknown	1.10.2.2-RXN;RXN-15829
ASE17_01900	Unknown	ACSERLY-RXN;RXN-12726
ASE17_12110	Unknown	2.7.13.3-RXN
ASE17_11530	Unknown	ALANINE-DEHYDROGENASE-RXN
ASE17_05625	Unknown	GSHTRAN-RXN;GST-RXN;RXN-11663;RXN-13673;RXN-15680;RXN-18405;RXN-18407;RXNQT-4363
ASE17_01190	Unknown	GLYOXIII-RXN
ASE17_01835	glpX	F16BDEPHOS-RXN
ASE17_17365	Unknown	RXN-7682;RXN0-901
ASE17_11595	Unknown	NICONUCADENYLYLTRAN-RXN
ASE17_09355	Unknown	THRESYN-RXN
ASE17_11585	Unknown	GLUTKIN-RXN
ASE17_03265	Unknown	RXN3O-218
ASE17_04825	Unknown	UDP-NACMURALGLDAPLIG-RXN
ASE17_13140	Unknown	PRIBFAICARPISOM-RXN
ASE17_17150	Unknown	NUCLEOTIDE-PYROPHOSPHATASE-RXN
ASE17_01570	Unknown	AIRS-RXN
ASE17_09095	Unknown	3.1.26.4-RXN
ASE17_00625	Unknown	PDXJ-RXN
ASE17_13450	Unknown	TRYPTOPHAN--TRNA-LIGASE-RXN
ASE17_18065	Unknown	BTUR2-RXN;COBALADENOSYLTRANS-RXN;R344-RXN
ASE17_10075	Unknown	CARBOXYMETHYLENEBUTENOLIDASE-RXN;DIENELACHYDRO-RXN;RXN-9857;RXN-9868;RXN-9887;RXN-9890
ASE17_14485	Unknown	GLU6PDEHYDROG-RXN
ASE17_01700	Unknown	LUMAZINESYN-RXN
ASE17_00530	emrB	3.6.3.44-RXN;TRANS-RXN-311
ASE17_09745	Unknown	ENOYL-COA-HYDRAT-RXN;METHYLACYLYLCOA-HYDROXY-RXN;RXN-10697;RXN-10704;RXN-10705;RXN-11244;RXN-12567;RXN-13616;RXN-14266;RXN-14272;RXN-14273;RXN-16135;RXN-16558;RXN-17114;RXN-17475;RXN-17776;RXN-17780;RXN-17785;RXN-17789;RXN-17793;RXN-17797;RXN-2425;RXN0-5393;TIGLYLCOA-HYDROXY-RXN
ASE17_09820	Unknown	GLUC1PURIDYLTRANS-RXN
ASE17_13770	Unknown	2-HALOACID-DEHALOGENASE-RXN;3.8.1.11-RXN;RXN-6263;RXN-6264
ASE17_01335	Unknown	GLYOXI-RXN
ASE17_12125	Unknown	RXN-12104
ASE17_17165	Unknown	GLUTAMATE-N-ACETYLTRANSFERASE-RXN;N-ACETYLTRANSFER-RXN;RXN0-6948
ASE17_15740	Unknown	DTDPGLUCOSEPP-RXN
ASE17_04820	Unknown	UDP-NACMURALGLDAPAALIG-RXN
ASE17_08850	Unknown	AMINOCYL-TRNA-HYDROLASE-RXN;RXN-16637
ASE17_12855	Unknown	GLUTAMATE-DEHYDROGENASE-NADP+-RXN;GLUTAMATE-DEHYDROGENASE-RXN;GLUTDEHYD-RXN
ASE17_14190	Unknown	ACONITATEDEHYDR-RXN;ACONITATEHYDR-RXN;RXN-14047
ASE17_00775	Unknown	R229-RXN
ASE17_07025	Unknown	RXN-10001
ASE17_11035	Unknown	F16ALDOLASE-RXN;RXN-10053;RXN-8631
ASE17_17555	Unknown	2.7.13.3-RXN
ASE17_14415	Unknown	PGLYCDEHYDROG-RXN
ASE17_14570	Unknown	ACETYL-COA-ACETYLTRANSFER-RXN;METHYLACETOACETYLCOATHIOL-RXN;RXN-12561
ASE17_18695	Unknown	RXN0-4261
ASE17_02105	Unknown	ACYLCOASYN-RXN;LINOLENOYL-RXN;R223-RXN;RXN-12184;RXN-12702;RXN-12746;RXN-12978;RXN-13290;RXN-13614;RXN-16380;RXN-16389;RXN-16393;RXN-16401;RXN-16402;RXN-16415;RXN-16418;RXN-7904;RXN-9623;RXN-9644;RXN-9673;RXN0-7238;RXN0-7239;RXN0-7248;RXN66-469;RXN66-477;RXN66-480;RXN66-483;RXN66-484;TRANS-RXN0-623
ASE17_04035	Unknown	GLUTATHIONE-REDUCT-NADPH-RXN
ASE17_00135	Unknown	ACYLCOASYN-RXN;LINOLENOYL-RXN;R223-RXN;RXN-12184;RXN-12702;RXN-12746;RXN-12978;RXN-13290;RXN-13614;RXN-16380;RXN-16389;RXN-16393;RXN-16401;RXN-16402;RXN-16415;RXN-16418;RXN-7904;RXN-9623;RXN-9644;RXN-9673;RXN0-7238;RXN0-7239;RXN0-7248;RXN66-469;RXN66-477;RXN66-480;RXN66-483;RXN66-484;TRANS-RXN0-623
ASE17_09060	Unknown	DIHYDROOROT-RXN
ASE17_03385	Unknown	PYRUVATEORTHOPHOSPHATE-DIKINASE-RXN
ASE17_05705	Unknown	ACETYLORNDEACET-RXN;RXN-7933
ASE17_19680	Unknown	ISOCHORMAT-RXN
ASE17_14100	Unknown	RXN0-1001
ASE17_15075	Unknown	PABASYN-RXN
ASE17_12810	Unknown	RXN-9235
ASE17_05875	Unknown	ATPASE-RXN
ASE17_01300	Unknown	IGPSYN-RXN
ASE17_14905	Unknown	GSHTRAN-RXN;GST-RXN;RXN-11663;RXN-13673;RXN-15680;RXN-18405;RXN-18407;RXNQT-4363
ASE17_03515	Unknown	CATAL-RXN;RXN-14189;RXN66-1
ASE17_07035	Unknown	UDPNACETYLGLUCOSAMENOLPYRTRANS-RXN
ASE17_14920	Unknown	ATPPHOSPHORIBOSYLTRANS-RXN
ASE17_09260	Unknown	GSHTRAN-RXN;GST-RXN;RXN-11663;RXN-13673;RXN-15680;RXN-18405;RXN-18407;RXNQT-4363
ASE17_01920	Unknown	5.1.3.20-RXN
ASE17_17750	Unknown	DIAMINOPIMDECARB-RXN
ASE17_19540	Unknown	DNA-DIRECTED-RNA-POLYMERASE-RXN
ASE17_14215	Unknown	RXN0-5062
ASE17_09515	Unknown	GAMMA-GLUTAMYLTRANSFERASE-RXN;RXN-18092;RXN-6601;RXN-9157;RXN66-336
ASE17_05655	Unknown	GLYOXIII-RXN
ASE17_11190	Unknown	2-NITROPROPANE-DIOXYGENASE-RXN;RXN-16322
ASE17_09800	Unknown	ADDALT-RXN;ADENODEAMIN-RXN
ASE17_15605	Unknown	RXN-13853
ASE17_16610	Unknown	RXN0-2584
ASE17_19860	Unknown	KANAMYCIN-KINASE-RXN
ASE17_01525	Unknown	2-OXOGLUTARATE-SYNTHASE-RXN
ASE17_04885	Unknown	GLYOXIII-RXN
ASE17_12105	Unknown	ENOYL-COA-HYDRAT-RXN;METHYLACYLYLCOA-HYDROXY-RXN;RXN-10697;RXN-10704;RXN-10705;RXN-11244;RXN-12567;RXN-13616;RXN-14266;RXN-14272;RXN-14273;RXN-16135;RXN-16558;RXN-17114;RXN-17475;RXN-17776;RXN-17780;RXN-17785;RXN-17789;RXN-17793;RXN-17797;RXN-2425;RXN0-5393;TIGLYLCOA-HYDROXY-RXN
ASE17_12250	Unknown	PEPTIDYLPROLYL-ISOMERASE-RXN
ASE17_01910	Unknown	KDO-8PSYNTH-RXN
ASE17_02940	Unknown	EXOPOLYPHOSPHATASE-RXN
ASE17_16555	Unknown	DNA-DIRECTED-DNA-POLYMERASE-RXN;RXN0-4961
ASE17_06650	Unknown	RXN0-6373
ASE17_02695	Unknown	SAICARSYN-RXN
ASE17_17160	Unknown	RXN-11109
ASE17_11840	Unknown	ATPASE-RXN
ASE17_17430	Unknown	RXN0-299
ASE17_10375	Unknown	CARBPSYN-RXN;GLUTAMIN-RXN;RXN-13202;RXN-14196;RXN-16909;RXN-16910
ASE17_12700	Unknown	AMIDASE-RXN;GUANIDINOBUTANAMIDE-NH3-RXN;PYRAZIN-RXN;R311-RXN;RXN-14727;RXN-14728;RXN-17608;RXNN-404
ASE17_15280	Unknown	N-FORMYLGLUTAMATE-DEFORMYLASE-RXN
ASE17_06100	Unknown	HYDROXY-MANDELATE-RACEMASE-RXN;MANDELATE-RACEMASE-RXN
ASE17_01350	Unknown	CTPSYN-RXN;GLUTAMIN-RXN;RXN-14325
ASE17_12485	Unknown	ACSERLY-RXN;RXN-12726
ASE17_03055	Unknown	PEPTIDYLPROLYL-ISOMERASE-RXN
ASE17_07875	Unknown	2.7.13.3-RXN
ASE17_08045	Unknown	ACYLCOASYN-RXN;LINOLENOYL-RXN;R223-RXN;RXN-12184;RXN-12702;RXN-12746;RXN-12978;RXN-13290;RXN-13614;RXN-16380;RXN-16389;RXN-16393;RXN-16401;RXN-16402;RXN-16415;RXN-16418;RXN-7904;RXN-9623;RXN-9644;RXN-9673;RXN0-7238;RXN0-7239;RXN0-7248;RXN66-469;RXN66-477;RXN66-480;RXN66-483;RXN66-484;TRANS-RXN0-623
ASE17_17815	Unknown	HISTAMINOTRANS-RXN
ASE17_01035	Unknown	DCMP-DEAMINASE-RXN
ASE17_01390	Unknown	1.8.1.4-RXN;2OXOGLUTARATEDEH-RXN;2OXOGLUTDECARB-RXN;RXN-7716;RXN-7719;RXN-8629;RXN0-1132;RXN0-1147
ASE17_11910	Unknown	ACETYL-COA-CARBOXYLTRANSFER-RXN;RXN0-5055
ASE17_11030	pgk	PHOSGLYPHOS-RXN
ASE17_13530	Unknown	INORGPYROPHOSPHAT-RXN
ASE17_00600	Unknown	IMP-DEHYDROG-RXN
ASE17_00590	Unknown	DNA-DIRECTED-RNA-POLYMERASE-RXN
ASE17_02920	Unknown	IMP-DEHYDROG-RXN
ASE17_10805	Unknown	BTUR2-RXN;COBALADENOSYLTRANS-RXN;R344-RXN
ASE17_18210	Unknown	CDP-GLUCOSE-46-DEHYDRATASE-RXN
ASE17_09605	Unknown	KANAMYCIN-KINASE-RXN
ASE17_06750	Unknown	DHLAXANAU-RXN;HALOALKANE-DEHALOGENASE-RXN;LINB1-RXN;LINB2-RXN
ASE17_00100	Unknown	ATPASE-RXN
ASE17_10680	Unknown	3.5.1.27-RXN;3.5.1.88-RXN
ASE17_19615	Unknown	ATPASE-RXN
ASE17_14735	Unknown	ACETYL-COA-ACETYLTRANSFER-RXN;METHYLACETOACETYLCOATHIOL-RXN;RXN-12561
ASE17_01680	glyA	GLYOHMETRANS-RXN;RXN0-5234
ASE17_07165	Unknown	RXN0-2023
ASE17_04675	Unknown	ARYLSULFATE-SULFOTRANSFERASE-RXN
ASE17_00245	Unknown	RXN0-7023
ASE17_02110	Unknown	ACYLCOADEHYDROG-RXN;RXN-17775;RXN-17779;RXN-17783;RXN-17784;RXN-17788;RXN-17792;RXN-17796
ASE17_13255	Unknown	PROTOHEMEFERROCHELAT-RXN
ASE17_14395	Unknown	2.7.13.3-RXN
ASE17_17175	Unknown	ACETYL-COA-ACETYLTRANSFER-RXN;METHYLACETOACETYLCOATHIOL-RXN;RXN-12561
ASE17_11240	Unknown	FUMARYLACETOACETASE-RXN
ASE17_01425	Unknown	SPERMIDINESYN-RXN
ASE17_19800	Unknown	CATAL-RXN;RXN-14189;RXN66-1
ASE17_18080	Unknown	2.7.1.156-RXN;COBINAMIDEKIN-RXN;RXN-14063
ASE17_06150	Unknown	GSHTRAN-RXN;GST-RXN;RXN-11663;RXN-13673;RXN-15680;RXN-18405;RXN-18407;RXNQT-4363
ASE17_05060	Unknown	2.8.1.6-RXN;RXN-17472;RXN-17473
ASE17_09675	Unknown	3.1.11.6-RXN
ASE17_10775	Unknown	GSHTRAN-RXN;GST-RXN;RXN-11663;RXN-13673;RXN-15680;RXN-18405;RXN-18407;RXNQT-4363
ASE17_06920	Unknown	RXN0-5021
ASE17_17170	Unknown	PEPTIDYLPROLYL-ISOMERASE-RXN
ASE17_07205	fumC	FUMHYDR-RXN
ASE17_12120	Unknown	GSHTRAN-RXN;GST-RXN;RXN-11663;RXN-13673;RXN-15680;RXN-18405;RXN-18407;RXNQT-4363
ASE17_03935	Unknown	3.2.1.52-RXN;RXN-12625;RXN-12626;RXN-18082;RXN0-5226
ASE17_05365	Unknown	GLYCEROL-KIN-RXN
ASE17_07625	Unknown	CARBOXYMETHYLENEBUTENOLIDASE-RXN;DIENELACHYDRO-RXN;RXN-9857;RXN-9868;RXN-9887;RXN-9890
ASE17_04570	Unknown	3.4.11.5-RXN
ASE17_04065	Unknown	PEPTIDYLPROLYL-ISOMERASE-RXN
ASE17_01480	Unknown	RXN0-5462
ASE17_11230	Unknown	CARBODEHYDRAT-RXN;RXN0-5224
ASE17_15180	Unknown	RXN0-299
ASE17_15460	Unknown	FMNREDUCT-RXN;NADPH-DEHYDROGENASE-FLAVIN-RXN;RXN-12444
ASE17_10520	Unknown	ADENYLOSUCCINATE-SYNTHASE-RXN
ASE17_11355	Unknown	2.7.13.3-RXN
ASE17_05905	Unknown	HOMOGENTISATE-12-DIOXYGENASE-RXN
ASE17_05745	Unknown	3.2.2.15-RXN
ASE17_12140	Unknown	ENOYL-COA-HYDRAT-RXN;METHYLACYLYLCOA-HYDROXY-RXN;RXN-10697;RXN-10704;RXN-10705;RXN-11244;RXN-12567;RXN-13616;RXN-14266;RXN-14272;RXN-14273;RXN-16135;RXN-16558;RXN-17114;RXN-17475;RXN-17776;RXN-17780;RXN-17785;RXN-17789;RXN-17793;RXN-17797;RXN-2425;RXN0-5393;TIGLYLCOA-HYDROXY-RXN
ASE17_14300	Unknown	RXN0-5100
ASE17_14255	sucC	SUCCCOASYN-RXN
ASE17_05535	Unknown	3-OXOACYL-ACP-REDUCT-RXN
ASE17_11815	Unknown	RXN-14971;RXN-15378;SUCCINATE-DEHYDROGENASE-UBIQUINONE-RXN
ASE17_14550	Unknown	ACYLCOADEHYDROG-RXN;RXN-17775;RXN-17779;RXN-17783;RXN-17784;RXN-17788;RXN-17792;RXN-17796
ASE17_12155	Unknown	1.5.1.9-RXN
ASE17_02450	Unknown	2.7.13.3-RXN
ASE17_04045	glmU	2.3.1.157-RXN;NAG1P-URIDYLTRANS-RXN
ASE17_16930	Unknown	ACYLCOASYN-RXN;LINOLENOYL-RXN;R223-RXN;RXN-12184;RXN-12978;RXN-13290;RXN-13614;RXN-16380;RXN-16389;RXN-16393;RXN-16401;RXN-16402;RXN-16415;RXN-16418;RXN-7904;RXN-9623;RXN-9644;RXN-9673;RXN0-7238;RXN0-7239;RXN0-7248;RXN66-469;RXN66-477;RXN66-480;RXN66-483;RXN66-484;TRANS-RXN0-623
ASE17_08590	Unknown	2-OXOPENT-4-ENOATE-HYDRATASE-RXN;RXN-10381
ASE17_10490	Unknown	ALKAPHOSPHA-RXN;RXN-5822;RXN-8748
ASE17_04785	Unknown	UDPNACETYLMURAMATEDEHYDROG-RXN
ASE17_05980	Unknown	HISTIDINE-AMMONIA-LYASE-RXN
ASE17_14745	Unknown	3-OXOACYL-ACP-REDUCT-RXN;RXN-10060;RXN-10655;RXN-10659;RXN-11476;RXN-11480;RXN-13008;RXN-16616;RXN-16622;RXN-16626;RXN-16630;RXN-9514;RXN-9518;RXN-9524;RXN-9528;RXN-9532;RXN-9536;RXN-9540;RXN-9552;RXN-9556;RXN-9633;RXN0-2142;RXN1G-157;RXN1G-349;RXN1G-469;RXN1G-508
ASE17_09595	Unknown	TETRAACYLDISACC4KIN-RXN
ASE17_13060	Unknown	RXN-9655
ASE17_16510	Unknown	3.1.11.6-RXN
ASE17_13130	Unknown	IMIDPHOSDEHYD-RXN
ASE17_13600	Unknown	1.1.1.178-RXN
ASE17_14110	Unknown	3.4.21.26-RXN
ASE17_07325	Unknown	HOMOCYSMET-RXN
ASE17_11460	Unknown	DIMETHUROPORDEHYDROG-RXN;SIROHEME-FERROCHELAT-RXN;UROPORIIIMETHYLTRANSA-RXN
ASE17_20125	Unknown	3.1.11.2-RXN
ASE17_04550	lldD	L-LACTATE-DEHYDROGENASE-CYTOCHROME-RXN
ASE17_12500	Unknown	1.11.1.15-RXN;RXN0-5468
ASE17_01075	Unknown	1.6.99.5-RXN;NADH-DEHYDROGENASE-QUINONE-RXN
ASE17_19115	Unknown	RXN-2841
ASE17_00870	Unknown	RXN-11109
ASE17_16235	Unknown	2-NITROPROPANE-DIOXYGENASE-RXN;RXN-16322
ASE17_12360	Unknown	5.99.1.3-RXN
ASE17_02630	Unknown	RXN-17155
ASE17_10685	Unknown	RXN0-5100
ASE17_01440	Unknown	ATPASE-RXN
ASE17_02155	Unknown	DTMPKI-RXN
ASE17_08040	Unknown	ENOYL-COA-HYDRAT-RXN;METHYLACYLYLCOA-HYDROXY-RXN;RXN-10697;RXN-10704;RXN-10705;RXN-11244;RXN-12567;RXN-13616;RXN-14266;RXN-14272;RXN-14273;RXN-16135;RXN-16558;RXN-17114;RXN-17475;RXN-17776;RXN-17780;RXN-17785;RXN-17789;RXN-17793;RXN-17797;RXN-2425;RXN0-5393;TIGLYLCOA-HYDROXY-RXN
ASE17_06080	Unknown	METHYLMALONYL-COA-MUT-RXN
ASE17_09325	Unknown	ACYLCOADEHYDROG-RXN;RXN-17775;RXN-17779;RXN-17783;RXN-17784;RXN-17788;RXN-17792;RXN-17796
ASE17_02770	Unknown	RXN1F-20
ASE17_03020	Unknown	QUEUOSINE-TRNA-RIBOSYLTRANSFERASE-RXN;RXN0-1321
ASE17_04095	Unknown	1.14.13.8-RXN;RXN66-81
ASE17_10750	Unknown	3.4.21.92-RXN
ASE17_04285	Unknown	2.7.13.3-RXN
ASE17_08295	Unknown	RXN-12093
ASE17_17200	Unknown	NAD-SYNTH-NH3-RXN
ASE17_14115	Unknown	DIAMINOPIMEPIM-RXN
ASE17_09430	Unknown	POLYPHOSPHATE-KINASE-RXN
ASE17_09560	Unknown	MYO-INOSITOL-1OR-4-MONOPHOSPHATASE-RXN;RXN-7253;RXN0-5408
ASE17_00290	Unknown	6.3.5.7-RXN
ASE17_12180	Unknown	DTDPDEHYDRHAMEPIM-RXN
ASE17_00630	Unknown	HOLO-ACP-SYNTH-RXN
ASE17_06170	Unknown	GSAAMINOTRANS-RXN
ASE17_11625	Unknown	RXN0-5510
ASE17_16500	Unknown	DXS-RXN
ASE17_17695	Unknown	PHOSPHASERDECARB-RXN
ASE17_02585	Unknown	NICOTINATEPRIBOSYLTRANS-RXN
ASE17_07070	Unknown	QUINOPRIBOTRANS-RXN
ASE17_01620	Unknown	ARGINYLTRANSFERASE-RXN;RXN-17888;RXN-17889;RXN-17890;RXN-17891
ASE17_02160	Unknown	DNA-DIRECTED-DNA-POLYMERASE-RXN
ASE17_01055	Unknown	FMNREDUCT-RXN;NADPH-DEHYDROGENASE-FLAVIN-RXN;RXN-12444
ASE17_14010	Unknown	3.3.2.8-RXN;RXN-9412;RXN-9413;RXN-9464
ASE17_07740	Unknown	PEPTIDYLPROLYL-ISOMERASE-RXN
ASE17_17280	Unknown	RXN0-5100
ASE17_10865	ileS	ISOLEUCINE--TRNA-LIGASE-RXN
ASE17_02620	Unknown	ADCLY-RXN
ASE17_01730	Unknown	1.10.2.2-RXN;RXN-15829
ASE17_06125	Unknown	RXN-12720;SULFATE-ADENYLYLTRANS-RXN
ASE17_18590	Unknown	2.1.1.79-RXN;RXN-7421;RXN1G-2544;RXN1G-3641
ASE17_15255	Unknown	NADPYROPHOSPHAT-RXN;RXN0-4401
ASE17_15380	Unknown	RXN-19040;RXN0-6359;THIOSULFATE-SULFURTRANSFERASE-RXN
ASE17_01250	Unknown	UDPHYDROXYMYRGLUCOSAMNACETYLTRANS-RXN
ASE17_06235	Unknown	RXN1A0-6303
ASE17_11185	Unknown	ENOYL-COA-HYDRAT-RXN;METHYLACYLYLCOA-HYDROXY-RXN;RXN-10697;RXN-10704;RXN-10705;RXN-11244;RXN-12567;RXN-13616;RXN-14266;RXN-14272;RXN-14273;RXN-16135;RXN-16558;RXN-17114;RXN-17475;RXN-17776;RXN-17780;RXN-17785;RXN-17789;RXN-17793;RXN-17797;RXN-2425;RXN0-5393;TIGLYLCOA-HYDROXY-RXN
ASE17_01885	Unknown	CYSTATHIONINE-BETA-LYASE-RXN;RXN-15131
ASE17_17295	Unknown	3-DEHYDROQUINATE-SYNTHASE-RXN
ASE17_12195	purU	FORMYLTHFDEFORMYL-RXN
ASE17_01455	Unknown	DAHPSYN-RXN
ASE17_08660	Unknown	GLYOXIII-RXN
ASE17_07225	Unknown	GLYOXIII-RXN
ASE17_15190	Unknown	THIOREDOXIN-REDUCT-NADPH-RXN
ASE17_04230	Unknown	KETOACYLCOATHIOL-RXN
ASE17_08315	Unknown	2.1.1.71-RXN;RXN4FS-2
ASE17_06740	Unknown	GSHTRAN-RXN;GST-RXN;RXN-11663;RXN-13673;RXN-15680;RXN-18405;RXN-18407;RXNQT-4363
ASE17_17980	Unknown	1.14.13.8-RXN;RXN66-81
ASE17_03050	Unknown	PEPTIDYLPROLYL-ISOMERASE-RXN
ASE17_17390	Unknown	ACYLCOADEHYDROG-RXN;RXN-17775;RXN-17779;RXN-17783;RXN-17784;RXN-17788;RXN-17792;RXN-17796
ASE17_11065	Unknown	MYO-INOSITOL-1OR-4-MONOPHOSPHATASE-RXN;RXN-7253;RXN0-5408
ASE17_08400	Unknown	GSHTRAN-RXN;GST-RXN;RXN-11663;RXN-13673;RXN-15680;RXN-18405;RXN-18407;RXNQT-4363
ASE17_08290	Unknown	RXN0-6575
ASE17_14480	Unknown	2-HALOACID-DEHALOGENASE-RXN
ASE17_16710	Unknown	3-OXOACYL-ACP-REDUCT-RXN;RXN-10060;RXN-10655;RXN-10659;RXN-11476;RXN-11480;RXN-13008;RXN-16616;RXN-16622;RXN-16626;RXN-16630;RXN-9514;RXN-9518;RXN-9524;RXN-9528;RXN-9532;RXN-9536;RXN-9540;RXN-9552;RXN-9556;RXN-9633;RXN0-2142;RXN1G-157;RXN1G-349;RXN1G-469;RXN1G-508
ASE17_00715	Unknown	3-DEHYDROQUINATE-DEHYDRATASE-RXN
ASE17_13375	Unknown	4.1.1.32-RXN;RXN-12481
ASE17_16395	Unknown	ATPASE-RXN
ASE17_09255	Unknown	KDUD-RXN
ASE17_00705	Unknown	BIOTIN-CARBOXYL-RXN
ASE17_11070	Unknown	GLYCPDIESTER-RXN;RXN-14073;RXN-14136;RXN-14160
ASE17_16765	Unknown	PSERPHOSPHA-RXN;RXN0-5114
ASE17_13050	Unknown	ENOYL-ACP-REDUCT-NADPH-RXN;RXN-9515;RXN-9521;RXN-9526;RXN-9530;RXN-9534;RXN-9538;RXN-9542;RXN3O-5293
ASE17_02950	Unknown	RXN-13907;RXN-14206;RXN66-569
ASE17_20010	Unknown	GLYOXIII-RXN
ASE17_14665	Unknown	CYSTATHIONINE-BETA-SYNTHASE-RXN;RXN-19038;RXN66-534;RXN66-562
ASE17_20140	Unknown	1-PHOSPHATIDYLINOSITOL-KINASE-RXN
ASE17_18925	Unknown	2-HALOACID-DEHALOGENASE-RXN;3.8.1.11-RXN;RXN-6263;RXN-6264
ASE17_15360	Unknown	2.5.1.46-RXN;RXN-13414;RXN-13415;RXN-13416;RXN-13417
ASE17_03960	Unknown	3.1.11.2-RXN
ASE17_04340	Unknown	GSHTRAN-RXN;GST-RXN;RXN-11663;RXN-13673;RXN-15680;RXN-18405;RXN-18407;RXNQT-4363
ASE17_14540	Unknown	4OH2OXOGLUTARALDOL-RXN;KDPGALDOL-RXN
ASE17_04745	Unknown	UDPACYLGLCNACDEACETYL-RXN
ASE17_09980	Unknown	4.3.1.17-RXN;RXN-15125
ASE17_00845	Unknown	RXN-12587;RXN-12588;RXN-14382;RXN-14385;RXN-15881;RXN-9787;RXN0-308
ASE17_03680	Unknown	GLYOXIII-RXN
ASE17_04025	Unknown	DAHPSYN-RXN
ASE17_11580	obgE	RXN0-5462
ASE17_07315	Unknown	3.1.1.64-RXN;CARBOXYLESTERASE-RXN;RETINYL-PALMITATE-ESTERASE-RXN;RXN-10711;RXN-10767;RXN-12252;RXN-12575;RXNQT-4366
ASE17_14500	Unknown	PEPDEPHOS-RXN;RXN-14117;RXN-14192;RXN-14207
ASE17_11790	Unknown	2.7.13.3-RXN
ASE17_09460	Unknown	4OHBENZOATE-OCTAPRENYLTRANSFER-RXN
ASE17_09185	Unknown	ARGININE--TRNA-LIGASE-RXN
ASE17_04405	Unknown	CHORISMATEMUT-RXN
ASE17_07160	Unknown	ACETYL-COA-ACETYLTRANSFER-RXN;METHYLACETOACETYLCOATHIOL-RXN;RXN-12561
ASE17_01470	Unknown	D-ALANINE-AMINOTRANSFERASE-RXN
ASE17_16640	Unknown	KETOACYLCOATHIOL-RXN;RXN-10699;RXN-10700;RXN-10701;RXN-11246;RXN-12565;RXN-12710;RXN-13617;RXN-14268;RXN-14274;RXN-14277;RXN-14394;RXN-14774;RXN-14788;RXN-14793;RXN-14799;RXN-14803;RXN-16137;RXN-17116;RXN-17778;RXN-17782;RXN-17787;RXN-17791;RXN-17795;RXN-17799;RXN-3641
ASE17_10065	Unknown	S-FORMYLGLUTATHIONE-HYDROLASE-RXN
ASE17_01385	Unknown	1.2.4.4-RXN;2.3.1.168-RXN;KETOISOCAPROATE-RXN;METHYLVALERATE-RXN;RXN-7790
ASE17_08835	Unknown	PRPPSYN-RXN
ASE17_03905	Unknown	RXN0-2161;SERINE--TRNA-LIGASE-RXN
ASE17_11060	Unknown	RXN-12610;RXN-12611;THI-P-SYN-RXN
ASE17_14075	Unknown	R4-RXN
ASE17_10955	Unknown	ACYLCOADEHYDROG-RXN;RXN-17775;RXN-17779;RXN-17783;RXN-17784;RXN-17788;RXN-17792;RXN-17796
ASE17_03430	Unknown	DNA-DIRECTED-DNA-POLYMERASE-RXN;RXN0-4961
ASE17_11925	Unknown	PRAISOM-RXN
ASE17_06700	Unknown	ORNITHINE-CYCLODEAMINASE-RXN
ASE17_01605	Unknown	POLYPHOSPHATE-KINASE-RXN
ASE17_03590	Unknown	RXN-8665
ASE17_11235	Unknown	MALEYLACETOACETATE-ISOMERASE-RXN
ASE17_03895	Unknown	2.1.1.77-RXN
ASE17_20025	Unknown	CATAL-RXN;RXN-8667
ASE17_19565	Unknown	ATPASE-RXN
ASE17_14530	Unknown	PGLUCONDEHYDRAT-RXN
ASE17_04855	Unknown	3-OXOACYL-ACP-REDUCT-RXN;RXN-10060;RXN-10655;RXN-10659;RXN-11476;RXN-11480;RXN-13008;RXN-16616;RXN-16622;RXN-16626;RXN-16630;RXN-9514;RXN-9518;RXN-9524;RXN-9528;RXN-9532;RXN-9536;RXN-9540;RXN-9552;RXN-9556;RXN-9633;RXN0-2142;RXN1G-157;RXN1G-349;RXN1G-469;RXN1G-508
ASE17_04645	Unknown	ASPAMINOTRANS-RXN;RXN-10814;RXN-11737;RXN-13697
ASE17_01650	Unknown	ACYLCOADEHYDROG-RXN;RXN-17775;RXN-17779;RXN-17783;RXN-17784;RXN-17788;RXN-17792;RXN-17796
ASE17_08025	Unknown	2.7.13.3-RXN
ASE17_10210	Unknown	ACYLCOADEHYDROG-RXN;RXN-17775;RXN-17779;RXN-17783;RXN-17784;RXN-17788;RXN-17792;RXN-17796
ASE17_11855	Unknown	1.2.1.27-RXN;RXN-11213;RXN-2902
ASE17_20110	Unknown	CYTOCHROME-C-OXIDASE-RXN;RXN-15830
ASE17_04815	mraY	PHOSNACMURPENTATRANS-RXN;RXN-11347;RXN-8975
ASE17_01720	hppA	INORGPYROPHOSPHAT-RXN
ASE17_04890	Unknown	RXN0-4961
ASE17_11985	Unknown	PRPPSYN-RXN
ASE17_05975	Unknown	IMIDAZOLONEPROPIONASE-RXN
ASE17_17910	Unknown	ACYLCOADEHYDROG-RXN;RXN-17775;RXN-17779;RXN-17783;RXN-17784;RXN-17788;RXN-17792;RXN-17796
ASE17_05915	Unknown	2.6.1.57-RXN;PHEAMINOTRANS-RXN;RXN-14147;RXN-15200;TRYPTOPHAN-AMINOTRANSFERASE-RXN;TYROSINE-AMINOTRANSFERASE-RXN
ASE17_19645	Unknown	DTDPDEHYRHAMREDUCT-RXN
ASE17_10655	Unknown	SUCCDIAMINOPIMDESUCC-RXN
ASE17_01935	Unknown	RXN0-4261
ASE17_09420	Unknown	GLUTCYSLIG-RXN
ASE17_18505	Unknown	GLYOXII-RXN;RXN-7919
ASE17_17315	Unknown	RXN-7682;RXN0-901
ASE17_01090	Unknown	1.6.99.5-RXN;NADH-DEHYDROGENASE-QUINONE-RXN
ASE17_17270	Unknown	ACETYL-COA-CARBOXYLTRANSFER-RXN;RXN0-5055
ASE17_04840	Unknown	RXN-11638
ASE17_10440	Unknown	RXN0-2001
ASE17_04770	Unknown	DALADALALIG-RXN
ASE17_08890	Unknown	1.10.2.2-RXN
ASE17_14805	Unknown	RXNI-2
ASE17_00660	Unknown	5.99.1.2-RXN
ASE17_07065	Unknown	L-ASPARTATE-OXID-RXN;RXN-9772
ASE17_08705	Unknown	7KAPSYN-RXN;RXN-11484
ASE17_08680	Unknown	RXN0-5422
ASE17_12225	Unknown	4-CARBOXYMUCONOLACTONE-DECARBOXYLASE-RXN
ASE17_18825	Unknown	RXN1A0-6303
ASE17_11945	Unknown	RXN-11832;RXN-12002;RXN-7913
ASE17_16665	Unknown	GSHTRAN-RXN;GST-RXN;RXN-11663;RXN-13673;RXN-15680;RXN-18405;RXN-18407;RXNQT-4363
ASE17_13700	Unknown	MALIC-NADP-RXN;OXALODECARB-RXN
ASE17_04220	Unknown	ACETYL-COA-ACETYLTRANSFER-RXN;METHYLACETOACETYLCOATHIOL-RXN;RXN-12561
ASE17_08285	Unknown	4.2.3.12-RXN
ASE17_09200	Unknown	HOMOSERKIN-RXN
ASE17_01550	ndk	CDPKIN-RXN;DADPKIN-RXN;DCDPKIN-RXN;DGDPKIN-RXN;DTDPKIN-RXN;DUDPKIN-RXN;GDPKIN-RXN;NUCLEOSIDE-DIP-KIN-RXN;RXN-14120;RXN-14228;UDPKIN-RXN
ASE17_14310	Unknown	RXN0-313;TRANSALDOL-RXN
ASE17_00360	Unknown	2-HALOACID-DEHALOGENASE-RXN;3.8.1.11-RXN;RXN-6263;RXN-6264
ASE17_01995	Unknown	PMPOXI-RXN;PNPOXI-RXN
ASE17_20015	Unknown	PMPOXI-RXN;PNPOXI-RXN
ASE17_00860	Unknown	ENOYL-COA-HYDRAT-RXN;METHYLACYLYLCOA-HYDROXY-RXN;RXN-10697;RXN-10704;RXN-10705;RXN-11244;RXN-12567;RXN-13616;RXN-14266;RXN-14272;RXN-14273;RXN-16135;RXN-16558;RXN-17114;RXN-17475;RXN-17776;RXN-17780;RXN-17785;RXN-17789;RXN-17793;RXN-17797;RXN-2425;RXN0-5393;TIGLYLCOA-HYDROXY-RXN
ASE17_14875	Unknown	R4-RXN
ASE17_01640	Unknown	PORPHOBILSYNTH-RXN
ASE17_18965	Unknown	GLYOXIII-RXN
ASE17_06130	Unknown	ADENYLYLSULFKIN-RXN;GSADENYLATION-RXN;RXN-12720;SULFATE-ADENYLYLTRANS-RXN
ASE17_00305	gatB	6.3.5.7-RXN
ASE17_14815	Unknown	RXN0-2001
ASE17_14600	Unknown	GSHTRAN-RXN;GST-RXN;RXN-11663;RXN-13673;RXN-15680;RXN-18405;RXN-18407;RXNQT-4363
ASE17_11820	Unknown	R601-RXN;RXN-14963
ASE17_05600	astD	SUCCGLUALDDEHYD-RXN
ASE17_17755	Unknown	2.7.13.3-RXN
ASE17_00900	Unknown	PHOSGLYPHOS-RXN
ASE17_04275	Unknown	3.6.3.12-RXN;TRANS-RXN-2
ASE17_10130	Unknown	GLYOXI-RXN
ASE17_01255	Unknown	3-HYDROXYDECANOYL-ACP-DEHYDR-RXN
ASE17_15080	Unknown	ADCLY-RXN
ASE17_00605	Unknown	AMINOACYLASE-RXN;RXN-13684
ASE17_00250	Unknown	5.99.1.2-RXN
ASE17_08860	Unknown	CARBOXYMETHYLENEBUTENOLIDASE-RXN;DIENELACHYDRO-RXN;RXN-9857;RXN-9868;RXN-9887;RXN-9890
ASE17_00155	Unknown	DNA-DIRECTED-DNA-POLYMERASE-RXN
ASE17_04685	Unknown	RXN-11135
ASE17_03760	Unknown	RIBOFLAVIN-SYN-RXN
ASE17_07820	Unknown	ACYLCOADEHYDROG-RXN;RXN-17775;RXN-17779;RXN-17783;RXN-17784;RXN-17788;RXN-17792;RXN-17796
ASE17_05850	Unknown	3.2.1.52-RXN;RXN-12625;RXN-12626;RXN-18082;RXN0-5226
ASE17_14825	Unknown	AGMATINE-DEIMINASE-RXN
ASE17_06835	Unknown	GLUTAMIN-RXN
ASE17_07570	Unknown	5-OXOPROLINASE-ATP-HYDROLYSING-RXN
ASE17_05395	Unknown	2.7.13.3-RXN
ASE17_01895	sseA	MERCAPYSTRANS-RXN;RXN-18702;RXN-18703;RXN0-6945
ASE17_11905	Unknown	DIHYDROFOLATESYNTH-RXN;FOLYLPOLYGLUTAMATESYNTH-RXN;FORMYLTHFGLUSYNTH-RXN;RXN-6341;RXN0-2921
ASE17_06345	Unknown	3.1.1.64-RXN;CARBOXYLESTERASE-RXN;RETINYL-PALMITATE-ESTERASE-RXN;RXN-10711;RXN-10767;RXN-12252;RXN-12575;RXNQT-4366
ASE17_16165	Unknown	FGAMSYN-RXN
ASE17_00620	Unknown	OROPRIBTRANS-RXN
ASE17_01270	Unknown	LIPIDADISACCHARIDESYNTH-RXN
ASE17_09610	Unknown	GLYRIBONUCSYN-RXN
ASE17_01115	Unknown	1.6.99.5-RXN;NADH-DEHYDROGENASE-QUINONE-RXN
ASE17_16770	Unknown	RXN0-6274
ASE17_17835	Unknown	GSHTRAN-RXN;GST-RXN;RXN-11663;RXN-13673;RXN-15680;RXN-18405;RXN-18407;RXNQT-4363
ASE17_09645	Unknown	ACETYLORNTRANSAM-RXN;RXN-15007
ASE17_13785	Unknown	RXN-9998
ASE17_03415	Unknown	2.7.1.148-RXN
ASE17_13810	Unknown	ADENOSYLHOMOCYSTEINASE-RXN
ASE17_04270	Unknown	ATPASE-RXN
ASE17_02640	Unknown	MALONYL-COA-ACP-TRANSACYL-RXN
ASE17_15465	Unknown	DIOHBUTANONEPSYN-RXN
ASE17_01555	Unknown	ACYLCOADEHYDROG-RXN;RXN-17775;RXN-17779;RXN-17783;RXN-17784;RXN-17788;RXN-17792;RXN-17796
ASE17_12450	Unknown	RXN0-4261
ASE17_16995	Unknown	3-ISOPROPYLMALDEHYDROG-RXN;RXN-13158;RXN-14986;RXN-18200;RXN-18202;RXN-18204;RXN-18206;RXN-18208;RXN-18210;RXNQT-4165;RXNQT-4168;RXNQT-4171;RXNQT-4174;RXNQT-4178
ASE17_19550	Unknown	GLYOXIII-RXN
ASE17_02035	Unknown	HYDROXY-MANDELATE-RACEMASE-RXN;MANDELATE-RACEMASE-RXN
ASE17_11285	Unknown	2.7.13.3-RXN
ASE17_10015	Unknown	RXN-17884;RXN-2962
ASE17_02260	Unknown	GLYOXIII-RXN
ASE17_19335	Unknown	IMP-DEHYDROG-RXN
ASE17_10630	Unknown	ACETYLGLUTKIN-RXN;RXN-15005
ASE17_01600	Unknown	EXOPOLYPHOSPHATASE-RXN
ASE17_03425	Unknown	1.5.5.1-RXN;RXN66-550
ASE17_18705	Unknown	DIHYDROXYISOVALDEHYDRAT-RXN;DIHYDROXYMETVALDEHYDRAT-RXN
ASE17_10610	Unknown	3.1.26.5-RXN
ASE17_07230	Unknown	2.4.1.36-RXN;RXN-761;TREHALOSE6PSYN-RXN
ASE17_00585	Unknown	2-HALOACID-DEHALOGENASE-RXN;3.8.1.11-RXN;RXN-6263;RXN-6264
ASE17_03605	Unknown	2.7.10.1-RXN
ASE17_08515	Unknown	ATPASE-RXN
ASE17_01695	Unknown	RIBOFLAVIN-SYN-RXN
ASE17_03070	Unknown	SUPEROX-DISMUT-RXN
ASE17_09590	Unknown	KDOTRANS-RXN
ASE17_18200	Unknown	DTDPDEHYDRHAMEPIM-RXN
ASE17_04050	Unknown	GPH-RXN
ASE17_04540	gltD	GLUTAMATESYN-RXN;GLUTAMIN-RXN;GLUTDEHYD-RXN
ASE17_19825	Unknown	3.4.15.6-RXN
ASE17_02000	Unknown	RXN-11833
ASE17_13840	Unknown	PROTEIN-KINASE-RXN
ASE17_13870	Unknown	ASPARTATE-SEMIALDEHYDE-DEHYDROGENASE-RXN
ASE17_10215	Unknown	ACYLCOADEHYDROG-RXN;RXN-17775;RXN-17779;RXN-17783;RXN-17784;RXN-17788;RXN-17792;RXN-17796
ASE17_12095	Unknown	CITSYN-RXN
ASE17_05955	Unknown	DEOXYRIBODIPYRIMIDINE-PHOTOLYASE-RXN;RXN-19025;RXN-19026;RXN-19242;RXN-19243;RXN-19244;RXN-19245;RXN-19246;RXN-19247;RXN-19248
ASE17_01905	Unknown	2.1.1.79-RXN;RXN-7421;RXN1G-2544;RXN1G-3641
ASE17_05990	Unknown	UROCANATE-HYDRATASE-RXN
ASE17_02495	Unknown	PEPTIDYLPROLYL-ISOMERASE-RXN
ASE17_16900	Unknown	RXN-982
ASE17_09165	Unknown	GCVP-RXN
ASE17_11740	Unknown	2.7.13.3-RXN
ASE17_02075	Unknown	CYTOCHROME-C-OXIDASE-RXN;RXN-15830
ASE17_02905	guaA	GLUTAMIN-RXN;GMP-SYN-GLUT-RXN;GMP-SYN-NH3-RXN
ASE17_01745	Unknown	2.3.1.180-RXN
ASE17_01305	Unknown	PRTRANS-RXN
ASE17_09195	ispH	ISPH2-RXN;RXN0-884
ASE17_12355	Unknown	RXN0-5100
ASE17_13275	Unknown	CARBOXYMETHYLENEBUTENOLIDASE-RXN;DIENELACHYDRO-RXN;RXN-9857;RXN-9868;RXN-9887;RXN-9890
ASE17_08600	Unknown	ASPARAGHYD-RXN
ASE17_16105	Unknown	ARYLSULFAT-RXN
ASE17_00895	Unknown	ACETYL-COA-ACETYLTRANSFER-RXN;METHYLACETOACETYLCOATHIOL-RXN;RXN-12561
ASE17_04730	Unknown	DNA-LIGASE-NAD+-RXN;RXN-17918;RXN-17919;RXN-17920
ASE17_03595	Unknown	3-HYDROXY-KYNURENINASE-RXN;KYNURENINASE-RXN
ASE17_16195	Unknown	GLYOXIII-RXN
ASE17_15995	Unknown	SAICARSYN-RXN
ASE17_14375	Unknown	3-OXOACYL-ACP-REDUCT-RXN;RXN-10060;RXN-10655;RXN-10659;RXN-11476;RXN-11480;RXN-13008;RXN-16616;RXN-16622;RXN-16626;RXN-16630;RXN-9514;RXN-9518;RXN-9524;RXN-9528;RXN-9532;RXN-9536;RXN-9540;RXN-9552;RXN-9556;RXN-9633;RXN0-2142;RXN1G-157;RXN1G-349;RXN1G-469;RXN1G-508
ASE17_05970	Unknown	FORMIMINOGLUTAMATE-DEIMINASE-RXN
ASE17_08015	Unknown	2.7.13.3-RXN
ASE17_00755	Unknown	3.1.26.12-RXN;RXN0-6478;RXN0-6485;RXN0-6521;RXN0-6522;RXN0-6523
ASE17_16015	Unknown	FGAMSYN-RXN
ASE17_17760	Unknown	GUANPRIBOSYLTRAN-RXN;HYPOXANPRIBOSYLTRAN-RXN
ASE17_01265	Unknown	LIPIDXSYNTHESIS-RXN
ASE17_09110	Unknown	RXN0-2661
ASE17_08720	Unknown	ACYLCOASYN-RXN;LINOLENOYL-RXN;R223-RXN;RXN-12184;RXN-12702;RXN-12746;RXN-12978;RXN-13290;RXN-13614;RXN-16380;RXN-16389;RXN-16393;RXN-16401;RXN-16402;RXN-16415;RXN-16418;RXN-7904;RXN-9623;RXN-9644;RXN-9673;RXN0-7238;RXN0-7239;RXN0-7248;RXN66-469;RXN66-477;RXN66-480;RXN66-483;RXN66-484;TRANS-RXN0-623
ASE17_09050	Unknown	6.2.1.34-RXN
ASE17_09180	gcvT	GCVT-RXN
ASE17_06215	Unknown	5.99.1.2-RXN
ASE17_10030	Unknown	METHYLCROTONYL-COA-CARBOXYLASE-RXN
ASE17_02980	Unknown	2.3.2.13-RXN;RXN-19236
ASE17_19175	Unknown	FMNREDUCT-RXN;NADPH-DEHYDROGENASE-FLAVIN-RXN;RXN-12444
ASE17_07275	Unknown	12-OXOPHYTODIENOATE-REDUCTASE-RXN
ASE17_15810	Unknown	GSHTRAN-RXN;GST-RXN;RXN-11663;RXN-13673;RXN-15680;RXN-18405;RXN-18407;RXNQT-4363
ASE17_14050	Unknown	GLUTRACE-RXN
ASE17_05910	Unknown	4-HYDROXYPHENYLPYRUVATE-DIOXYGENASE-RXN;RXN-10815
ASE17_18790	Unknown	CYTOCHROME-C-OXIDASE-RXN;RXN-15830
ASE17_13775	Unknown	RXN-13908;RXN-7908
ASE17_13150	Unknown	HISTPRATPHYD-RXN
ASE17_13250	Unknown	RXN-10642;UROGENDECARBOX-RXN
ASE17_09805	Unknown	5.4.2.10-RXN;RXN-16424;RXN0-7139
ASE17_07595	Unknown	RXN0-5375
ASE17_05560	Unknown	RXN1A0-6303
ASE17_09470	Unknown	3-OXOACYL-ACP-REDUCT-RXN;RXN-10060;RXN-10655;RXN-10659;RXN-11476;RXN-11480;RXN-13008;RXN-16616;RXN-16622;RXN-16626;RXN-16630;RXN-9514;RXN-9518;RXN-9524;RXN-9528;RXN-9532;RXN-9536;RXN-9540;RXN-9552;RXN-9556;RXN-9633;RXN0-2142;RXN1G-157;RXN1G-349;RXN1G-469;RXN1G-508
ASE17_07485	Unknown	RXN1A0-6303
ASE17_07140	Unknown	RXN0-2621
ASE17_16085	Unknown	ACID-PHOSPHATASE-RXN;RXN-5822
ASE17_15610	Unknown	RXN0-4022
ASE17_17410	Unknown	PHOSPHAGLYPSYN-RXN
ASE17_14800	Unknown	RXNI-2
ASE17_00805	Unknown	AMINOACYLASE-RXN;RXN-13684
ASE17_15595	Unknown	SERINE-O-ACETTRAN-RXN
ASE17_00285	Unknown	3.1.22.4-RXN
ASE17_13335	Unknown	THI-P-SYN-RXN
ASE17_20535	Unknown	RXN0-2621
ASE17_03520	Unknown	ACYLCOADEHYDROG-RXN;RXN-17775;RXN-17779;RXN-17783;RXN-17784;RXN-17788;RXN-17792;RXN-17796
ASE17_16450	Unknown	RXN-2043
ASE17_07870	Unknown	GSADENYLATION-RXN
ASE17_15965	Unknown	ACETYL-COA-ACETYLTRANSFER-RXN;METHYLACETOACETYLCOATHIOL-RXN;RXN-12561
ASE17_08425	Unknown	GPH-RXN
ASE17_12130	Unknown	CATAL-RXN;RXN-8667
ASE17_04790	murC	UDP-NACMUR-ALA-LIG-RXN
ASE17_15245	Unknown	PREPHENATEDEHYDRAT-RXN
ASE17_07030	Unknown	THIOREDOXIN-REDUCT-NADPH-RXN
ASE17_11395	Unknown	3.4.13.9-RXN
ASE17_10635	Unknown	2-HALOACID-DEHALOGENASE-RXN;3.8.1.11-RXN;RXN-6263;RXN-6264
ASE17_14340	Unknown	AMIDASE-RXN;GUANIDINOBUTANAMIDE-NH3-RXN;PYRAZIN-RXN;R311-RXN;RXN-14727;RXN-14728;RXN-17608;RXNN-404
ASE17_03850	Unknown	TRNA-URACIL-5--METHYLTRANSFERASE-RXN
ASE17_12900	Unknown	OROTPDECARB-RXN
ASE17_08865	Unknown	CARBOXYMETHYLENEBUTENOLIDASE-RXN;DIENELACHYDRO-RXN;RXN-9857;RXN-9868;RXN-9887;RXN-9890
ASE17_01365	eno	2PGADEHYDRAT-RXN
ASE17_04810	murD	UDP-NACMURALA-GLU-LIG-RXN
ASE17_18345	tauD	RXN0-299
ASE17_16605	Unknown	LYSOPHOSPHOLIPASE-RXN;RXN-15035;RXN-19312
ASE17_14885	Unknown	PGLUCISOM-RXN
ASE17_10730	Unknown	RXN-12134;RXN-12140;RXN-12141;RXN-12142
ASE17_17215	Unknown	2-ISOPROPYLMALATESYN-RXN
ASE17_11140	gabD	RXN0-5293;SUCCINATE-SEMIALDEHYDE-DEHYDROGENASE-RXN
ASE17_15455	Unknown	ACYLCOASYN-RXN;LINOLENOYL-RXN;R223-RXN;RXN-12184;RXN-12978;RXN-13290;RXN-13614;RXN-16380;RXN-16389;RXN-16393;RXN-16401;RXN-16402;RXN-16415;RXN-16418;RXN-7904;RXN-9623;RXN-9644;RXN-9673;RXN0-7238;RXN0-7239;RXN0-7248;RXN66-469;RXN66-477;RXN66-480;RXN66-483;RXN66-484;TRANS-RXN0-623
ASE17_12800	Unknown	RXN-11586
ASE17_06810	Unknown	1.5.1.9-RXN
ASE17_10640	Unknown	TETHYDPICSUCC-RXN
ASE17_01710	Unknown	THI-P-KIN-RXN
ASE17_09545	Unknown	GSHTRAN-RXN;GST-RXN;RXN-11663;RXN-13673;RXN-15680;RXN-18405;RXN-18407;RXNQT-4363
ASE17_15935	Unknown	AICARSYN-RXN;AMPSYN-RXN
ASE17_04170	Unknown	2-NITROPROPANE-DIOXYGENASE-RXN
ASE17_11255	Unknown	PHOSGLYPHOS-RXN
ASE17_00555	Unknown	DIHYDRODIPICSYN-RXN
ASE17_05890	Unknown	ACETYLHOMOSER-CYS-RXN;O-ACETYLHOMOSERINE-THIOL-LYASE-RXN
ASE17_12255	Unknown	RXN-15122;THREDEHYD-RXN
ASE17_11590	Unknown	GLUTSEMIALDEHYDROG-RXN
ASE17_00045	Unknown	RXN-13039;RXN-17127;RXN-8654;RXN-8655;RXN0-1141;RXN0-5098
ASE17_13615	Unknown	LINC-RXN
ASE17_09555	Unknown	325-BISPHOSPHATE-NUCLEOTIDASE-RXN
ASE17_15260	Unknown	DNA-DIRECTED-DNA-POLYMERASE-RXN
ASE17_10340	Unknown	ATPASE-RXN
ASE17_00580	Unknown	H2PTERIDINEPYROPHOSPHOKIN-RXN;RXN-15733
ASE17_16785	Unknown	ACETOLACTSYN-RXN;ACETOOHBUTSYN-RXN
ASE17_00260	Unknown	RXN-10462;RXN-13805;RXN-1381;RXN-15045;RXN-16024;RXN-16117;RXN-17016;RXN-17017;RXN-17018
ASE17_09275	Unknown	3-HYDROXYBUTYRATE-DEHYDROGENASE-RXN
ASE17_19090	Unknown	ISOCHORMAT-RXN
ASE17_18550	Unknown	2.3.1.179-RXN;2.3.1.41-RXN;3-OXOACYL-ACP-SYNTH-BASE-RXN;3-OXOACYL-ACP-SYNTH-RXN;RXN-10654;RXN-10658;RXN-11474;RXN-11479;RXN-16615;RXN-16621;RXN-16625;RXN-16629;RXN-8391;RXN-9516;RXN-9523;RXN-9527;RXN-9531;RXN-9535;RXN-9539;RXN0-2141;RXN1G-460;RXN3O-1803
ASE17_16760	Unknown	2-HALOACID-DEHALOGENASE-RXN;3.8.1.11-RXN;RXN-6263;RXN-6264
ASE17_15450	Unknown	ACYLCOADEHYDROG-RXN;RXN-17775;RXN-17779;RXN-17783;RXN-17784;RXN-17788;RXN-17792;RXN-17796
ASE17_02810	Unknown	PRPPAMIDOTRANS-RXN
ASE17_17465	Unknown	R342-RXN
ASE17_19020	Unknown	RXN0-5268
ASE17_07915	Unknown	2.7.13.3-RXN
ASE17_04280	Unknown	ATPASE-RXN
ASE17_16940	Unknown	2-OCTAPRENYL-6-OHPHENOL-METHY-RXN;DHHB-METHYLTRANSFER-RXN
ASE17_02420	Unknown	DIMETHUROPORDEHYDROG-RXN;SIROHEME-FERROCHELAT-RXN;UROPORIIIMETHYLTRANSA-RXN
ASE17_01105	Unknown	1.6.99.5-RXN;NADH-DEHYDROGENASE-QUINONE-RXN
ASE17_00800	Unknown	RXN0-4621
ASE17_11475	Unknown	1.3.99.16-RXN
ASE17_00570	Unknown	DNA-DIRECTED-DNA-POLYMERASE-RXN;RXN0-4961
ASE17_01500	Unknown	ALKANE-1-MONOOXYGENASE-RXN
ASE17_04565	Unknown	RXN-12134;RXN-12140;RXN-12141;RXN-12142
ASE17_16265	Unknown	ALANINE--TRNA-LIGASE-RXN
ASE17_04725	Unknown	1.10.2.2-RXN;RXN-15829
ASE17_00795	Unknown	TYROSINE--TRNA-LIGASE-RXN
ASE17_09380	Unknown	HEMEOSYN-RXN
ASE17_03065	Unknown	5.99.1.3-RXN
ASE17_04335	Unknown	3.1.30.1-RXN
ASE17_11830	Unknown	RXN-14971;RXN-15378;SUCCINATE-DEHYDROGENASE-UBIQUINONE-RXN
ASE17_10780	Unknown	ACYLCOADEHYDROG-RXN;RXN-17775;RXN-17779;RXN-17783;RXN-17784;RXN-17788;RXN-17792;RXN-17796
ASE17_16120	Unknown	3.4.11.5-RXN
ASE17_17640	Unknown	ISOCIT-CLEAV-RXN
ASE17_18465	metX	HOMOSERINE-O-ACETYLTRANSFERASE-RXN
ASE17_00595	Unknown	GDPPYPHOSKIN-RXN;GTPPYPHOSKIN-RXN
ASE17_15550	Unknown	SELENOCYSTEINE-LYASE-RXN
ASE17_14265	sucA	2-KETO-ADIPATE-DEHYDROG-RXN;2OXOGLUTARATEDEH-RXN;2OXOGLUTDECARB-RXN;RXN-7716;RXN0-1147
ASE17_12100	Unknown	CITSYN-RXN
ASE17_07355	Unknown	2.7.13.3-RXN
ASE17_15830	Unknown	RIBOKIN-RXN;RXN-14223
ASE17_06070	Unknown	2-NITROPROPANE-DIOXYGENASE-RXN
ASE17_08405	Unknown	PHOSPHAGLYPSYN-RXN
ASE17_03720	Unknown	NAD-SYNTH-GLN-RXN;NAD-SYNTH-NH3-RXN
ASE17_07850	Unknown	ATPASE-RXN
ASE17_00460	Unknown	2.7.13.3-RXN
ASE17_10410	Unknown	ACETYL-COA-ACETYLTRANSFER-RXN;METHYLACETOACETYLCOATHIOL-RXN;RXN-12561
ASE17_17850	Unknown	RXN0-4261
ASE17_08465	Unknown	ASPARTATE-RACEMASE-RXN
ASE17_04625	Unknown	2-ISOPROPYLMALATESYN-RXN
ASE17_02670	Unknown	3.4.21.26-RXN
ASE17_00700	Unknown	LEUCYLTRANSFERASE-RXN;RXN-17846;RXN-17847;RXN-17848
ASE17_13070	Unknown	GLYCERATE-DEHYDROGENASE-RXN;HYDROXYPYRUVATE-REDUCTASE-RXN
ASE17_18765	Unknown	NAD-SYNTH-GLN-RXN;NAD-SYNTH-NH3-RXN
ASE17_04235	Unknown	R223-RXN
ASE17_13690	Unknown	RXN-14014
ASE17_14785	Unknown	RXN-527;RXN1F-93
ASE17_13270	Unknown	NQOR-RXN
ASE17_13675	Unknown	DUTP-PYROP-RXN
ASE17_02890	Unknown	ALARACECAT-RXN
ASE17_02885	Unknown	RXN-15849;RXN-7563
ASE17_15240	Unknown	CPM-KDOSYNTH-RXN
ASE17_05925	Unknown	2.7.13.3-RXN
ASE17_06075	Unknown	METHYLMALONYL-COA-MUT-RXN
ASE17_14930	Unknown	ACYLCOASYN-RXN;LINOLENOYL-RXN;R223-RXN;RXN-12184;RXN-12702;RXN-12746;RXN-12978;RXN-13290;RXN-13614;RXN-16380;RXN-16389;RXN-16393;RXN-16401;RXN-16402;RXN-16415;RXN-16418;RXN-7904;RXN-9623;RXN-9644;RXN-9673;RXN0-7238;RXN0-7239;RXN0-7248;RXN66-469;RXN66-477;RXN66-480;RXN66-483;RXN66-484;TRANS-RXN0-623
ASE17_15565	Unknown	CARBODEHYDRAT-RXN;RXN0-5224
ASE17_14410	Unknown	PSERTRANSAM-RXN;PSERTRANSAMPYR-RXN
ASE17_08380	Unknown	PEPTIDYLPROLYL-ISOMERASE-RXN
ASE17_12285	Unknown	RXN0-4361
ASE17_18815	Unknown	IMIDAZOLONEPROPIONASE-RXN
ASE17_14660	Unknown	CYSTATHIONINE-BETA-LYASE-RXN;RXN-15131
ASE17_09500	Unknown	GLYOXIII-RXN
ASE17_01170	Unknown	METHYLMALONYL-COA-EPIM-RXN;RXN-16391
ASE17_08450	Unknown	PYRIMSYN1-RXN
ASE17_14275	Unknown	1.8.1.4-RXN;2OXOGLUTARATEDEH-RXN;2OXOGLUTDECARB-RXN;RXN-7716;RXN-7719;RXN-8629;RXN0-1132;RXN0-1147
ASE17_07210	Unknown	FARNESYLTRANSTRANSFERASE-RXN
ASE17_13565	Unknown	CARBOXYMETHYLENEBUTENOLIDASE-RXN;DIENELACHYDRO-RXN;RXN-9857;RXN-9868;RXN-9887;RXN-9890
ASE17_06690	Unknown	ORNITHINE-CYCLODEAMINASE-RXN
ASE17_01210	pyrH	RXN-12002
ASE17_04935	Unknown	RXN0-1281
ASE17_04040	Unknown	RIB5PISOM-RXN
ASE17_14080	Unknown	R4-RXN
ASE17_04720	Unknown	3.4.11.1-RXN
ASE17_01670	Unknown	5-AMINOLEVULINIC-ACID-SYNTHASE-RXN
ASE17_18690	Unknown	RXN0-4261
ASE17_13525	Unknown	TRNA-GUANINE-N7--METHYLTRANSFERASE-RXN
ASE17_10665	Unknown	METHIONYL-TRNA-FORMYLTRANSFERASE-RXN
ASE17_18955	purE	RXN0-743
ASE17_16595	Unknown	R4-RXN
ASE17_01320	Unknown	ANTHRANSYN-RXN
ASE17_11180	Unknown	FMNREDUCT-RXN;NADPH-DEHYDROGENASE-FLAVIN-RXN;RXN-12444
ASE17_04630	Unknown	GSHTRAN-RXN;GST-RXN;RXN-11663;RXN-13673;RXN-15680;RXN-18405;RXN-18407;RXNQT-4363
ASE17_06365	Unknown	ACETYL-COA-ACETYLTRANSFER-RXN;METHYLACETOACETYLCOATHIOL-RXN;RXN-12561
ASE17_10870	Unknown	RXN-17362
ASE17_19640	Unknown	UDPGLUCEPIM-RXN
ASE17_18070	Unknown	4.1.1.81-RXN
ASE17_13440	Unknown	URITRANS-RXN
ASE17_09960	Unknown	RXN-8668
ASE17_18445	Unknown	2.7.13.3-RXN
ASE17_17810	Unknown	CHORISMATEMUT-RXN
ASE17_04375	Unknown	1.8.4.8-RXN
ASE17_06990	Unknown	GLYOXIII-RXN
ASE17_09205	rnhA	3.1.26.4-RXN
ASE17_16775	Unknown	ACETOLACTSYN-RXN;ACETOOHBUTSYN-RXN
ASE17_18950	Unknown	AIRCARBOXY-RXN
ASE17_15785	Unknown	3.4.11.18-RXN;RXN-17873;RXN-17874;RXN-17875;RXN-17876;RXN-17877;RXN-17878
ASE17_09090	Unknown	3.2.2.21-RXN
ASE17_18215	Unknown	2.7.7.33-RXN
ASE17_10910	Unknown	RXN0-6515
ASE17_09780	Unknown	UGD-RXN
ASE17_05900	Unknown	FUMARYLACETOACETASE-RXN
ASE17_17290	Unknown	SHIKIMATE-KINASE-RXN
ASE17_13855	Unknown	2.7.13.3-RXN
ASE17_01230	Unknown	DXPREDISOM-RXN
ASE17_17630	Unknown	MALSYN-RXN
ASE17_08255	Unknown	GLUCONOKIN-RXN
ASE17_00085	Unknown	ENOYL-COA-HYDRAT-RXN;METHYLACYLYLCOA-HYDROXY-RXN;RXN-10697;RXN-10704;RXN-10705;RXN-11244;RXN-12567;RXN-13616;RXN-14266;RXN-14272;RXN-14273;RXN-16135;RXN-16558;RXN-17114;RXN-17475;RXN-17776;RXN-17780;RXN-17785;RXN-17789;RXN-17793;RXN-17797;RXN-2425;RXN0-5393;TIGLYLCOA-HYDROXY-RXN
ASE17_02985	Unknown	2.7.7.46-RXN
ASE17_18980	Unknown	3-OCTAPRENYL-4-OHBENZOATE-DECARBOX-RXN
ASE17_13740	Unknown	1.11.1.15-RXN;RXN0-5468
ASE17_13925	Unknown	3-ISOPROPYLMALISOM-RXN;RXN-13163;RXN-8991
ASE17_07545	Unknown	1.3.1.62-RXN
ASE17_00095	Unknown	PANTOATE-BETA-ALANINE-LIG-RXN
ASE17_12890	Unknown	RXN-14014
ASE17_17265	Unknown	2-NITROPROPANE-DIOXYGENASE-RXN;RXN-16322
ASE17_11300	Unknown	SUPEROX-DISMUT-RXN
ASE17_03635	Unknown	PEPTIDYLPROLYL-ISOMERASE-RXN
ASE17_10625	Unknown	ACYLCOADEHYDROG-RXN;RXN-17775;RXN-17779;RXN-17783;RXN-17784;RXN-17788;RXN-17792;RXN-17796
ASE17_08270	Unknown	CHORISMATE-SYNTHASE-RXN
ASE17_16360	Unknown	ACYLCOASYN-RXN;LINOLENOYL-RXN;R223-RXN;RXN-12184;RXN-12702;RXN-12746;RXN-12978;RXN-13290;RXN-13614;RXN-16380;RXN-16389;RXN-16393;RXN-16401;RXN-16402;RXN-16415;RXN-16418;RXN-7904;RXN-9623;RXN-9644;RXN-9673;RXN0-7238;RXN0-7239;RXN0-7248;RXN66-469;RXN66-477;RXN66-480;RXN66-483;RXN66-484;TRANS-RXN0-623
ASE17_01430	Unknown	RXN0-302
ASE17_06610	Unknown	GLUCISOM-RXN;XYLISOM-RXN
ASE17_18165	Unknown	ATPASE-RXN
ASE17_00030	Unknown	1.8.4.12-RXN
ASE17_09565	Unknown	PROTEIN-TYROSINE-PHOSPHATASE-RXN
ASE17_17915	Unknown	ACYLCOADEHYDROG-RXN;RXN-17775;RXN-17779;RXN-17783;RXN-17784;RXN-17788;RXN-17792;RXN-17796
ASE17_04700	Unknown	RXN0-5419
ASE17_17445	Unknown	LYSOPHOSPHOLIPASE-RXN;RXN-15035;RXN-19312
ASE17_02625	Unknown	2.3.1.179-RXN;2.3.1.41-RXN;3-OXOACYL-ACP-SYNTH-BASE-RXN;3-OXOACYL-ACP-SYNTH-RXN;RXN-10654;RXN-10658;RXN-11474;RXN-11479;RXN-16615;RXN-16621;RXN-16625;RXN-16629;RXN-8391;RXN-9516;RXN-9523;RXN-9527;RXN-9531;RXN-9535;RXN-9539;RXN0-2141;RXN1G-460;RXN3O-1803
ASE17_11950	Unknown	2.5.1.19-RXN
ASE17_02265	Unknown	5.3.3.10-RXN
ASE17_13055	Unknown	2.3.1.41-RXN;3-OXOACYL-ACP-SYNTH-BASE-RXN;3-OXOACYL-ACP-SYNTH-RXN;RXN-10059;RXN-10654;RXN-10658;RXN-11474;RXN-11479;RXN-16615;RXN-16621;RXN-16625;RXN-16629;RXN-9516;RXN-9523;RXN-9527;RXN-9531;RXN-9535;RXN-9539;RXN-9632;RXN-9648;RXN-9650;RXN-9651;RXN-9652;RXN-9653;RXN-9654;RXN0-2141;RXN1G-368;RXN1G-445;RXN1G-460;RXN1G-499;RXN3O-1803
ASE17_07060	Unknown	QUINOLINATE-SYNTHA-RXN
ASE17_07760	Unknown	HOMOCYSMETB12-RXN
ASE17_12030	Unknown	GSHTRAN-RXN;GST-RXN;RXN-11663;RXN-13673;RXN-15680;RXN-18405;RXN-18407;RXNQT-4363
ASE17_08810	Unknown	RXN0-20
ASE17_10960	Unknown	GLYOXIII-RXN
ASE17_11870	Unknown	KANAMYCIN-KINASE-RXN
ASE17_11025	gapA	GAPOXNPHOSPHN-RXN
ASE17_00470	Unknown	GLYOXIII-RXN
ASE17_18685	Unknown	3.1.22.4-RXN
ASE17_02825	Unknown	RXN0-5462
ASE17_19085	Unknown	AMIDASE-RXN;GUANIDINOBUTANAMIDE-NH3-RXN;PYRAZIN-RXN;R311-RXN;RXN-14727;RXN-14728;RXN-17608;RXNN-404
ASE17_11900	Unknown	SPERMIDINESYN-RXN
ASE17_12300	Unknown	RXN0-6481;RXN0-6482;TRNA-NUCLEOTIDYLTRANSFERASE-RXN
ASE17_08415	Unknown	RXN0-2621
ASE17_01575	Unknown	3.1.13.5-RXN;RXN0-6483;RXN0-6484
ASE17_00125	Unknown	GLYCPDIESTER-RXN;RXN-14073;RXN-14136;RXN-14160
ASE17_05985	Unknown	N-FORMYLGLUTAMATE-DEFORMYLASE-RXN
ASE17_16000	Unknown	FGAMSYN-RXN
ASE17_17000	Unknown	RXN0-882
ASE17_13710	Unknown	DNA-DIRECTED-DNA-POLYMERASE-RXN
ASE17_13310	Unknown	DNA-DIRECTED-DNA-POLYMERASE-RXN
ASE17_19635	Unknown	GALPMUT-RXN
ASE17_14235	Unknown	3.6.1.41-RXN
ASE17_04370	Unknown	1.18.1.2-RXN
ASE17_10470	Unknown	CYSTEINE--TRNA-LIGASE-RXN
ASE17_18845	Unknown	FMNREDUCT-RXN;NADPH-DEHYDROGENASE-FLAVIN-RXN;RXN-12444
ASE17_06400	Unknown	3.4.13.9-RXN
ASE17_04325	Unknown	METHENYLTHFCYCLOHYDRO-RXN;METHYLENETHFDEHYDROG-NADP-RXN
ASE17_18600	Unknown	ACYLCOASYN-RXN;LINOLENOYL-RXN;R223-RXN;RXN-12184;RXN-12702;RXN-12746;RXN-12978;RXN-13290;RXN-13614;RXN-16380;RXN-16389;RXN-16393;RXN-16401;RXN-16402;RXN-16415;RXN-16418;RXN-7904;RXN-9623;RXN-9644;RXN-9673;RXN0-7238;RXN0-7239;RXN0-7248;RXN66-469;RXN66-477;RXN66-480;RXN66-483;RXN66-484;TRANS-RXN0-623
ASE17_16245	Unknown	ISOCITDEH-RXN;RXN-8642;RXN-9951
ASE17_01410	Unknown	RXN-14950;RXN-14957;RXN-14959;RXN0-949
ASE17_08755	Unknown	H2NEOPTERINALDOL-RXN;RXN-10857
ASE17_10445	Unknown	HYDROXYMETHYLGLUTARYL-COA-LYASE-RXN
ASE17_16210	Unknown	PRODISULFREDUCT-RXN;RXN0-7271
ASE17_09855	Unknown	HOMSUCTRAN-RXN
ASE17_12135	Unknown	GSHTRAN-RXN;GST-RXN;RXN-11663;RXN-13673;RXN-15680;RXN-18405;RXN-18407;RXNQT-4363
ASE17_13805	Unknown	PNKIN-RXN;PYRAMKIN-RXN;PYRIDOXKIN-RXN
ASE17_04430	Unknown	MALIC-NADP-RXN;OXALODECARB-RXN
ASE17_05280	Unknown	METHIONINE--TRNA-LIGASE-RXN;RXN-16165
ASE17_12860	purH	AICARTRANSFORM-RXN;IMPCYCLOHYDROLASE-RXN
ASE17_06805	Unknown	RXN-9380
ASE17_09810	Unknown	L-GLN-FRUCT-6-P-AMINOTRANS-RXN
ASE17_13945	Unknown	3-ISOPROPYLMALISOM-RXN;R-2-METHYLMALATE-DEHYDRATASE-RXN;RXN-13163;RXN-7744;RXN-8991
ASE17_02785	Unknown	RXN0-4261
ASE17_08795	Unknown	PYRROLINECARBREDUCT-RXN;RXN66-546
ASE17_01110	Unknown	1.6.99.5-RXN;NADH-DEHYDROGENASE-QUINONE-RXN
ASE17_06950	Unknown	2-HALOACID-DEHALOGENASE-RXN;3.8.1.11-RXN;RXN-6263;RXN-6264
ASE17_17785	Unknown	RXN-9591
ASE17_14910	Unknown	HISTIDINE--TRNA-LIGASE-RXN
ASE17_13225	Unknown	RXN0-4961
ASE17_07260	Unknown	THYMIDYLATESYN-RXN
ASE17_16505	Unknown	FPPSYN-RXN;GPPSYN-RXN
ASE17_01155	Unknown	6.3.4.10-RXN;6.3.4.11-RXN;6.3.4.9-RXN;BIOTINLIG-RXN
ASE17_19840	Unknown	RXN0-4961
ASE17_12930	Unknown	ARGSUCCINSYN-RXN;RXN-10
ASE17_08260	Unknown	PMPOXI-RXN;PNPOXI-RXN
