{
    "com_prodtargets": [],
    "com_scope": [
        "M_XANTHINE_c",
        "M_DCTP_c",
        "M_7__45__CYANO__45__7__45__DEAZAGUANINE_c",
        "M_CARBAMOYL__45__P_c",
        "M_ADENINE_c",
        "M_DATP_c",
        "M_CAMP_c",
        "M_DUTP_c",
        "M_NICOTINAMIDE_NUCLEOTIDE_c",
        "M_DGTP_c",
        "M_GDP__45__TP_c",
        "M_URATE_c",
        "M_GUANOSINE__45__5DP__45__3DP_c",
        "M_CARBAMATE_c",
        "M_DEOXYGUANOSINE_c",
        "M_CPD__45__551_c",
        "M_CPD__45__18238_c",
        "M_CPD__45__15317_c",
        "M_HYPOXANTHINE_c",
        "M_CTP_c",
        "M_DEOXYINOSINE_c",
        "M_DUMP_c",
        "M_NMNH_c",
        "M_GUANINE_c",
        "M_H2CO3_c",
        "M_P3I_c",
        "M_DEOXYADENOSINE_c",
        "M_DIHYDRONEOPTERIN__45__P3_c",
        "M_APS_c",
        "M_FORMATE_c",
        "M_ACETALD_c",
        "M_UTP_c",
        "M_7__45__AMINOMETHYL__45__7__45__DEAZAGUANINE_c",
        "M_PROTON_e",
        "M_HCO3_c",
        "M_HYDROXYLAMINE_c",
        "M_DEOXY__45__D__45__RIBOSE__45__1__45__PHOSPHATE_c",
        "M_CPD0__45__1699_c",
        "M_CPD__45__13043_c"
    ],
    "com_unprodtargets": [
        "M_PHE_c",
        "M_INDOLE_ACETATE_AUXIN_c",
        "M_ILE_c",
        "M_PYRIDOXINE_c",
        "M_PRO_c",
        "M_HIS_c",
        "M_ASN_c",
        "M_L__45__ASPARTATE_c",
        "M_THIAMINE__45__PYROPHOSPHATE_c",
        "M_THF_c",
        "M_RIBOFLAVIN_c",
        "M_CPD__45__693_c",
        "M_GLN_c",
        "M_BIOTIN_c",
        "M_MET_c",
        "M_VAL_c",
        "M_ADENOSYLCOBALAMIN_c",
        "M_ARG_c",
        "M_LYS_c",
        "M_NIACINE_c",
        "M_TRP_c",
        "M_CPD__45__110_c",
        "M_PANTOTHENATE_c",
        "M_GLY_c",
        "M_ETHYLENE__45__CMPD_c",
        "M_LEU_c",
        "M_CYS_c",
        "M_THR_c",
        "M_CPD__45__734_c",
        "M_TYR_c"
    ],
    "targets_producers": {}
}