dbRef_id	Common name	Produced (p), Consumed (c), Both (cp)
CPD-8624	a [protein]-L-proline (&omega; = 180)	cp
CPD-302	D-aspartate	p
CPD-13734	ferroheme a	p
DEOXYCYTIDINE	2'-deoxycytidine	c
Crotonyl-ACPs	a crotonyl-[acp]	c
QUINOLINATE	quinolinate	cp
DIPEPTIDES	a dipeptide	c
AMINO-HYDROXYMETHYL-METHYL-PYR-P	4-amino-2-methyl-5-(phosphooxymethyl)pyrimidine	cp
CPD-8625	a [protein]-L-proline (&omega; = 0)	cp
HMP	4-amino-2-methyl-5-pyrimidinemethanol	c
DNA-thymidines	a thymidine in DNA	p
CPD-18493	(3S)-hydroxy-(6Z,9Z,12Z,15Z,18Z)-tetracosapentaenoyl-CoA	p
3OH-4P-OH-ALPHA-KETOBUTYRATE	(3R)-3-hydroxy-2-oxo-4 phosphooxybutanoate	cp
CPD-8978	ethylphosphate	c
CYTIDINE	cytidine	c
DADP	dADP	c
DITP	dITP	cp
Deoxy-Ribonucleoside-Monophosphates	a 2'-deoxyribonucleoside 5'-monophosphate	p
FRU1P	&beta;-D-fructofuranose 1-phosphate	c
FAD	FAD	cp
TREHALOSE-6P	&alpha;,&alpha;-trehalose 6-phosphate	p
ADENYLOSUCC	adenylo-succinate	cp
GLY	glycine	cp
DIHYDROPTERIN-CH2OH-PP	(7,8-dihydropterin-6-yl)methyl diphosphate	p
Deoxy-Ribonucleoside-Triphosphates	a 2'-deoxyribonucleoside 5'-triphosphate	c
CPD-18550	quinoxaline-2-carboxyl adenylate	c
METHIONYL-PEPTIDE	an N-terminal L-methionyl-[protein]	p
5Z-tetradec-5-enoyl-ACPs	a (5Z)-tetradec-5-enoyl-[acp]	c
CPD-313	propane-1,3-diamine	p
AMINO-HYDROXYMETHYL-METHYLPYRIMIDINE-PP	4-amino-2-methyl-5-(diphosphomethyl)pyrimidine	cp
CPD-377	2-keto-D-gluconate	cp
CPD-14018	icosapentaenoyl-CoA	p
COPROPORPHYRINOGEN_I	coproporphyrinogen I	p
4-IMIDAZOLONE-5-PROPIONATE	4-imidazolone-5-propanoate	cp
ITP	ITP	cp
DEOXYGUANOSINE	2'-deoxyguanosine	p
CPD-13043	7-carboxy-7-deazaguanine	cp
5Z8Z11Z14Z17Z-EICOSAPENTAENOATE	icosapentaenoate	c
COPROPORPHYRINOGEN_III	coproporphyrinogen III	p
S-NITROSOGLUTATHIONE	S-nitrosoglutathione	c
CPD-14053	(6R)-L-erythro-5,6,7,8-tetrahydrobiopterin	c
3R-11Z-3-hydroxy-icos-11-enoyl-ACPs	a (3R,11Z)-3-hydroxy-icos-11-enoyl-[acp]	p
3R-5Z-3-hydroxy-tetradec-5-enoyl-ACPs	a (3R,5Z)-3-hydroxy-tetradec-5-enoyl-[acp]	p
CPD-9245	palmitoleate	c
DNA-with-Uracils	a uracil in DNA	c
CPD-520	quercetin	p
3R-7Z-3-hydroxy-hexadec-7-enoyl-ACPs	a (3R,7Z)-3-hydroxy-hexadec-7-enoyl-[acp]	p
PYRAZINAMIDE	pyrazinamide	c
FADH2	FADH2	cp
CARBON-MONOXIDE	carbon monoxide	p
DNA-Adjacent-Pyrimidines	two adjacent pyrimidine nucleosides in DNA	p
Deoxyhypusine-Synthase-Lysine	a [deoxyhypusine synthase]-L-lysine	cp
CPD-9247	cis-vaccenate	c
6-Dimethylallyladenosine37-tRNAs	N6-dimethylallyladenosine37 in tRNA	cp
4-MALEYL-ACETOACETATE	4-maleyl-acetoacetate	cp
3R-9Z-3-hydroxy-octadec-9-enoyl-ACPs	a (3R,9Z)-3-hydroxy-octadec-9-enoyl-[acp]	p
PRENAL	3-methyl-2-butenal	p
LYS	L-lysine	cp
CPD-13171	15,9'-di-cis-phytofluene	cp
Fatty-Acids	a fatty acid	p
HCO3	hydrogencarbonate	cp
DNA-Combined-With-Exogenous-DNA	DNA combined with exogenous DNA to form a recombinational junction	c
CPD-19014	2-hydroxy-2-methylpropanoate	p
CPD-316	reduced riboflavin	p
LYS-tRNAs	a tRNALys	c
AMINO-OH-HYDROXYMETHYL-DIHYDROPTERIDINE	6-(hydroxymethyl)-7,8-dihydropterin	cp
GLYCERALD	D-glyceraldehyde	p
DNA-Cytidines	a 2'-deoxycytidine in DNA	p
S-Substituted-Glutathione	a glutathione-toxin conjugate	p
CPD-380	3-sulfopyruvate	cp
DEOXYINOSINE	2'-deoxyinosine	p
3Z-dodec-3-enoyl-ACPs	a (3Z)-dodec-3-enoyl-[acp]	c
MALONYL-ACP	a malonyl-[acp]	cp
CPD-14202	L-erythro-7,8-dihydrobiopterin	p
CPD-101	&epsilon;-caprolactone	p
S-Substituted-L-Cysteines	an L-cysteine-S-conjugate	p
GTP	GTP	cp
METHYL-GLYOXAL	methylglyoxal	c
2-ACETO-LACTATE	(S)-2-acetolactate	c
Cysteine-Desulfurase-L-cysteine	an [L-cysteine desulfurase]-L-cysteine	cp
CPD-548	S-formylglutathione	cp
PREPHENATE	prephenate	cp
METOH	methanol	p
CPD-13172	6-hydroxy-2-cyclohexen-one-carboxylate	p
CPD-9406	(2S)-ethylmalonyl-CoA	c
CPD-19042	2-hydroxyisobutyramide	c
ATP	ATP	cp
PYRAZINOIC-ACID	pyrazine-2-carboxylate	p
4-AMINO-4-DEOXYCHORISMATE	4-amino-4-deoxychorismate	cp
AMINO-OXOBUT	L-2-amino-3-oxobutanoate	cp
Diacylglycerol-Prolipoproteins	an [apolipoprotein]-(S-diacylglyceryl)-L-cysteine	p
PROTOPORPHYRIN_IX	protoporphyrin IX	cp
CPD-320	ethylnitronate	c
S18-N-terminal-L-alanine	an N-terminal L-alanyl-[S18 protein of 30S ribosome]	c
MALONYL-COA	malonyl-CoA	cp
Initiation-tRNAmet	initiator tRNAMet	c
GLYCERATE	D-glycerate	cp
DIHYDROXY-ACETONE-PHOSPHATE	glycerone phosphate	cp
CPD-14268	(15Z)-tetracosenoate	c
CPD-19144	(7Z)-hexadecenoyl-CoA	c
AMINO-RIBOSYLAMINO-1H-3H-PYR-DIONE	5-amino-6-(D-ribitylamino)uracil	cp
QXC-ACP	a quinoxaline-2-carboxyl-[acyl-carrier protein]	p
CPD-560	S-methyl-5-thio-D-ribose	p
CPD-13174	salicyl-6-hydroxy-2-cyclohexene-on-oyl	c
Dihydro-Lipoyl-Proteins	a [lipoyl-carrier protein] N6-dihydrolipoyl-L-lysine	c
ALLO-THR	DL-allothreonine	c
Cytochromes-C-Oxidized	an oxidized c-type cytochrome	cp
FRUCTOSE-16-DIPHOSPHATE	&beta;-D-fructose 1,6-bisphosphate	cp
CPD-19147	(7Z)-tetradecenoyl-CoA	c
DIHYDROXY-BUTANONE-P	1-deoxy-L-glycero-tetrulose 4-phosphate	cp
CPD-421	N2-succinyl-L-arginine	p
ALPHA-GLC-6-P	&alpha;-D-glucose 6-phosphate	c
4-P-PANTOTHENATE	(R)-4'-phosphopantothenate	cp
CPD-4211	dimethylallyl diphosphate	cp
4-CARBOXYMETHYLENEBUT-2-EN-4-OLIDE	cis-dienelactone	c
CPD-9612	caldariellaquinone	c
CPD-14269	(Z)-15-tetracosenoyl-CoA	p
METHYL-MALONYL-COA	(R)-methylmalonyl-CoA	cp
CPD-13227	N,N',N''-triacetylchitotriose	c
DEOXYURIDINE	2'-deoxyuridine	p
6-PYRUVOYL-5678-TETRAHYDROPTERIN	(6R)-6-pyruvoyl-5,6,7,8-tetrahydropterin	p
FRUCTOSE-6P	&beta;-D-fructofuranose 6-phosphate	cp
Cytochromes-C-Reduced	a reduced c-type cytochrome	cp
DNA-Holder	DNA	p
CPD-19148	(5Z)-dodecenoyl-CoA	c
OCTADEC-9-ENE-118-DIOIC-ACID	&alpha;,&omega;-9Z-octadecenedioate	c
L-leucyl-L-arginyl-Protein	a [protein] N-terminal L-leucyl-L-arginine	p
P3I	PPPi	p
2K-4CH3-PENTANOATE	4-methyl-2-oxopentanoate	cp
CPD0-2244	(S)-3-hydroxydecanoyl-CoA	p
OCTAPRENYL-DIPHOSPHATE	all-trans-octaprenyl diphosphate	c
carboxybiotin-L-lysine-in-BCCP-dimers	a [carboxyl-carrier protein dimer]-N6-carboxybiotinyl-L-lysine	cp
L-leucyl-L-lysyl-Protein	a [protein] N-terminal L-leucyl-L-lysine	p
DIHYDROFOLATE	7,8-dihydrofolate monoglutamate	p
DODECANOATE	laurate	c
Saturated-Fatty-Acyl-ACPs	a 2,3,4-saturated fatty acyl-[acp]	cp
ARSENATE	arsenate	c
2K-ADIPATE	2-oxoadipate	c
ADENOSYL-HOMO-CYS	S-adenosyl-L-homocysteine	cp
DIHYDROFOLATE-GLU-N	a 7,8-dihydrofolate	cp
Saturated-Fatty-Acyl-CoA	a 2,3,4-saturated fatty acyl CoA	cp
N-SUCCINYL-2-AMINO-6-KETOPIMELATE	N-succinyl-2-amino-6-ketopimelate	p
CIS-ACONITATE	cis-aconitate	cp
L-methionyl-L-alanyl-Protein	an N-terminal-L-methionyl-L-alanyl-[protein]	c
cis-19-CP-37-Mex-38-Me-C59-ACPs	a cis-methoxy-C59-meroacyl-[acp]	p
HISTIDINAL	histidinal	cp
L-methionyl-L-cysteinyl-Protein	an N-terminal-L-methionyl-L-cysteinyl-[protein]	c
OCTAPRENYL-METHOXY-BENZOQUINONE	2-methoxy-6-all trans-octaprenyl-1,4-benzoquinol	p
cis-21-CP-39-keto-40-Me-C60-ACPs	a cis-keto-C60-meroacyl-[acp]	p
B-KETOACYL-ACP	a 3-oxoacyl-[acp]	cp
N5-Formyl-THF-Glu-N	an (6S)-N5-formyl-tetrahydrofolate	cp
CYCLOHEXANONE	cyclohexanone	c
L-methionyl-L-seryl-Protein	an N-terminal-L-methionyl-L-seryl-[protein]	c
cis-D19-37-MOH-38-Me-C57-1-ACPs	a cis-delta19-37-methoxy-38-methyl-C57:1-[acp]	c
ADENOSYL-P4	5',5'''-diadenosine tetraphosphate	c
L-methionyl-L-threonyl-Protein	an N-terminal-L-methionyl-L-threonyl-[protein]	c
OLEATE-CPD	oleate	cp
CPD0-2350	a polycistronic tRNA precursor	cp
L-methionyl-L-valyl-Protein	an N-terminal-L-methionyl-L-valyl-[protein]	c
cis-D21-39-oxo-40-Me-C59-1-ACPs	a cis-delta21-39-oxo-40-methyl-C59:1-[acp]	c
ANTHRANILATE	anthranilate	cp
BCAA-dehydrogenase-2MB-DH-lipoyl	an [apo BCAA dehydrogenase E2 protein] N6-S-[2-methylbutanoyl]dihydrolipoyl-L-lysine	cp
CPD0-2351	a tRNA precursor with a 5' extension and a long 3' trailer	p
IMINOASPARTATE	2-iminosuccinate	cp
SQUALENE	squalene	p
CPD0-2352	a tRNA precursor with a 5' extension and a short 3' extension	cp
BCAA-dehydrogenase-2MP-DH-lipoyl	an [apo BCAA dehydrogenase E2 protein] N6-S-[2-methylpropanoyl]dihydrolipoyl-L-lysine	cp
L-methionyl-glycyl-Protein	an N-terminal-L-methionyl-glycyl-[protein]	c
DPG	3-phospho-D-glyceroyl-phosphate	cp
L-methionyl-tRNAfmet	an L-methionyl-[initiator tRNAMet]	cp
CPD0-2353	a tRNA precursor with a short 3' extension	cp
PROPIONYL-COA	propanoyl-CoA	cp
3-DEHYDRO-SHIKIMATE	3-dehydroshikimate	cp
CPD0-2354	a tRNA precursor with a 5' extension	p
3-Hydroxy-Terminated-DNAs	a [DNA]-3'-hydroxyl	c
All-tRNAs	a tRNA	p
BCAA-dehydrogenase-3MB-DH-lipoyl	a [apo BCAA dehydrogenase E2 protein] N6-S-[3-methylbutanoyl]dihydrolipoyl-L-lysine	p
2-ALPHA-HYDROXYETHYL-THPP	2-(&alpha;-hydroxyethyl)thiamine diphosphate	cp
D-3-HYDROXYACYL-COA	a (3R)-3-hydroxyacyl-CoA	cp
CIS-D2-ENOYL-COA	a cis-2-enoyl-CoA	cp
L-phenylalanyl-L-arginyl-Protein	L-phenylalanyl-L-arginyl-[protein]	p
N-SUCCINYLLL-2-6-DIAMINOPIMELATE	N-succinyl-L,L-2,6-diaminopimelate	c
BCAA-dehydrogenase-DH-lipoyl	an [apo BCAA dehydrogenase E2 protein] N6-dihydrolipoyl-L-lysine	cp
Very-long-chain-fatty-acids	a very-long-chain fatty acid	c
L-phenylalanyl-L-lysyl-Protein	L-phenylalanyl-L-lysyl-[protein]	p
All-trans-Retinyl-Esters	an all-trans-retinyl ester	c
SS-Oligodeoxyribonucleotides	a single-stranded oligodeoxyribonucleotide	p
3-Hydroxy-octanoyl-ACPs	a (3R)-3-hydroxyoctanoyl-[acp]	p
L-seryl-SEC-tRNAs	an L-seryl-[tRNAsec]	p
D-6-P-GLUCONO-DELTA-LACTONE	6-phospho D-glucono-1,5-lactone	cp
STEARIC_ACID	stearate	c
BCAA-dehydrogenase-lipoyl	an [apo BCAA dehydrogenase E2 protein] N6-lipoyl-L-lysine	cp
LAUROYLCOA-CPD	lauroyl-CoA	p
MENADIOL	menadiol	p
ADENOSYLCOBALAMIN	adenosylcobalamin	p
Orthophosphoric-Monoesters	a phosphate monoester	c
OCTAPRENYL-METHYL-OH-METHOXY-BENZQ	3-demethylubiquinol-8	c
BCCP-L-lysine	a [biotin carboxyl-carrier protein]-L-lysine	c
3-Hydroxyglutaryl-ACP-methyl-ester	a (3R)-3-hydroxyglutaryl-[acp] methyl ester	p
Serines	serine	p
CYS	L-cysteine	cp
N-Substituted-Amino-Acids	an N-modified amino acid	p
CARBOXYPHENYLAMINO-DEOXYRIBULOSE-P	1-(o-carboxyphenylamino)-1'-deoxyribulose 5'-phosphate	cp
OLEOYL-COA	oleoyl-CoA	cp
BCCP-biotin-L-lysine	a [biotin carboxyl-carrier protein]-biotin-N6-L-lysine	p
NAD	NAD+	cp
CYS-GLY	L-cysteinyl-glycine	p
PROT-CYS	a [protein]-L-cysteine	c
Palmitoleoyl-ACPs	a palmitoleoyl-[acp]	c
ACETYLSERINE	O-acetyl-L-serine	cp
Ox-Glutaredoxins	an oxidized glutaredoxin	p
PALMITATE	palmitate	cp
D-ALA-D-ALA	D-alanyl-D-alanine	cp
OXIDIZED-GLUTATHIONE	glutathione disulfide	cp
ADENOSYLCOBINAMIDE	adenosylcobinamide	p
N-Substituted-Aminoacyl-tRNA	an N-modified aminoacyl-[tRNA]	c
PROTEIN-C-TERMINAL-S-ETC-CYSTEINE	a [protein] C-terminal S-farnesyl-L-cysteine	c
N-acetyl-D-glucosamine	N-acetyl-D-glucosamine	p
Palmitoyl-ACPs	a palmitoyl-[acp]	cp
UREA	urea	cp
CIT	citrate	cp
PROTEIN-C-TERMINAL-S-FARNESYL-L-CYSTEINE	a [protein] C-terminal S-farnesyl-L-cysteine methyl ester	p
CPD0-882	1,6-anhydro-N-acetyl-&beta;-muramate	p
ARG	L-arginine	cp
IMP	IMP	cp
STEAROYL-COA	stearoyl-CoA	p
WATER	H2O	cp
Ox-Thioredoxin	an oxidized thioredoxin	cp
TMP	dTMP	cp
OXOPENTENOATE	2-oxopent-4-enoate	cp
PALMITYL-COA	palmitoyl-CoA	p
BETA-D-FRUCTOSE	&beta;-D-fructofuranose	c
Folates	a folate	c
N-acetyl-D-mannosamine	N-acetyl-D-mannosamine	c
Amino-Acids	an amino acid	cp
MESO-DIAMINOPIMELATE	meso-diaminopimelate	cp
2-AMINOACRYLATE	2-aminoprop-2-enoate	p
Amino-Acids-20	a proteinogenic amino acid	cp
Oxidized-2Fe-2S-Ferredoxins	an oxidized [2Fe-2S] ferredoxin	p
holo-Transcarboxylases	a holo-[methylmalonyl-CoA:pyruvate carboxytransferase]	p
SHIKIMATE	shikimate	cp
Oxidized-CycA1-cytochromes	an oxidized CycA1 cytochrome	p
Stearoyl-ACPs	a stearoyl-[acp]	cp
PROTEIN-L-BETA-ISOASPARTATES	a [protein]-L-&beta;-isoaspartate	c
LEU	L-leucine	cp
N-acetyl-beta-D-hexosamines	an N-acetyl-&beta;-D-hexosamine	p
SHIKIMATE-5P	shikimate 3-phosphate	cp
MET	L-methionine	cp
CYS-tRNAs	a tRNACys	cp
CPD1F-2	(-)-methyl jasmonate	c
TRANS-2-CHLORO-4-CARBOXYMETHYLENEBUT-2-E	2-chloro-trans-dienelactone	c
PRPP	5-phospho-&alpha;-D-ribose 1-diphosphate	cp
OH-ACYL-ACP	a (3R)-3-hydroxyacyl-[acyl-carrier protein]	cp
ligated-tRNAs-with-2prime-5prime-linkage	a ligated tRNA with a 2'-5' linkage	cp
PROTEIN-L-BETA-ISOSPARTATE-METHYL-ESTERS	a protein L-&beta;-isoaspartate &alpha;-methyl ester	p
Beta-3-hydroxybutyryl-ACPs	a (3R)-3-hydroxybutanoyl-[acp]	p
mRNA-Fragments	an mRNA fragment	p
Tetradec-2-enoyl-ACPs	a trans tetradec-2-enoyl-[acp]	c
G3P	3-phospho-D-glycerate	cp
SUC	succinate	cp
OH-HEXANOYL-COA	(S)-3-hydroxyhexanoyl-CoA	c
LEU-tRNAs	a tRNALeu	cp
PROTEIN-LIPOYLLYSINE	a [glycine-cleavage complex H protein] N6-lipoyl-L-lysine	cp
NAD-P-OR-NOP	NAD(P)+	cp
FARNESYL-PP	(2E,6E)-farnesyl diphosphate	cp
N-formyl-L-methionyl-tRNAfmet	an N-formyl-L-methionyl-[initiator tRNAmet]	p
GLC-1-P	&alpha;-D-glucopyranose 1-phosphate	cp
ETF-Reduced	a reduced electron-transfer flavoprotein	cp
CPDQT-37	3-[(4'-methylthio)butyl]malate	cp
CO+2	Co2+	c
Long-Chain-Fatty-Acids	a long-chain fatty acid	c
L-BETA-ASPARTYL-P	L-aspartyl-4-phosphate	cp
Ribonucleoside-Triphosphates	a ribonucleoside triphosphate	c
tRNA-2-thiouridine34	a 2-thiouridine34 in tRNA	p
2-Octenoyl-ACPs	a trans oct-2-enoyl-[acp]	c
HX	HX	p
ETHANOL-AMINE	ethanolamine	p
BISOHMYR-GLC	lipid A disaccharide	cp
Long-Chain-Polyphosphate	long chain polyphosphate	cp
L-CANALINE	L-canaline	p
CPD-110	salicylate	p
HYDROGEN-PEROXIDE	hydrogen peroxide	cp
CPDQT-38	3-[(5'-methylthio)pentyl]malate	cp
Beta-hydroxydecanoyl-ACPs	a (3R)-3-hydroxydecanoyl-[acp]	cp
CPD-20735	two adjacent 2'-deoxycytidines in DNA	p
CPD-11020	5-chloro-4-hydroxy-2-oxopentanoate	p
ACYL-ACP	an acyl-[acyl-carrier protein]	cp
CPD-12634	(glutathion-S-yl)(1H-indol-3-yl)acetonitrile	p
2-DEOXYRIBOSE	2'-deoxyribose	c
CPD-694	cob(I)yrinate a,c-diamide	c
BISOHMYR-GLUCOSAMINYL-1P	lipid X	cp
CPD-20736	adjacent 2'-deoxycytidine-thymidine in DNA	p
GDP	GDP	cp
5-PHOSPHORIBOSYL-N-FORMYLGLYCINEAMIDINE	2-(formamido)-N1-(5-phospho-&beta;-D-ribosyl)acetamidine	cp
tRNA-Adenosines-37	an adenosine37 in tRNA	c
ACETYL-ACP	an acetyl-[acp]	c
ADP	ADP	cp
GLN	L-glutamine	cp
CPD-20737	adjacent thymidine-2'-deoxycytidine in DNA	p
ACYL-COA	an acyl-CoA	c
Ubiquinols	an ubiquinol	cp
THIAMINE-P	thiamine phosphate	cp
CPDQT-39	3-[(6'-methylthio)hexyl]malate	cp
GLN-tRNAs	a tRNAGln	c
CPD-20741	a dimer of adjacent 2'-deoxycytidines in DNA	c
P-RIBOSYL-4-SUCCCARB-AMINOIMIDAZOLE	5'-phosphoribosyl-4-(N-succinocarboxamide)-5-aminoimidazole	cp
Biotin-EC6-4-1-4	a [methylcrotonoyl-CoA carboxylase]-biotin-N6-L-lysine	p
S-2-Haloacids	an (S)-2-haloacid	c
CPD-20742	a dimer of adjacent thymidines in DNA	c
NITRITE	nitrite	p
THIAMINE-PYROPHOSPHATE	thiamine diphosphate	cp
tRNA-Containing-5MeAminoMe-2-ThioU	a 5-methylaminomethyl-2-thiouridine34 in tRNA	c
S-2-Hydroxyacids1	an (S)-2-hydroxyacid	p
CPD-10633	5-chloro-trans-dienelactone	c
CPD-20743	a dimer of adjacent 2'-deoxycytidine and thymidine in DNA	c
GDP-D-GLUCOSE	GDP-&alpha;-D-glucose	c
S-24-DINITROPHENYLGLUTATHIONE	2,4-dinitrophenyl-S-glutathione	cp
D-ALANINE	D-alanine	cp
CPD-12703	gentisyl-CoA	p
CPD-20744	a dimer of adjacent thymidine and 2'-deoxycytidine in DNA	c
ADP-D-GLUCOSE	ADP-&alpha;-D-glucose	c
CDP-2-3-4-Saturated-Diacylglycerols	a CDP-2,3,4-saturated-diacylglycerol	p
Ubiquinones	a ubiquinone	cp
CPDQT-40	3-[(7'-methylthio)heptyl]malate	cp
ACYL-SN-GLYCEROL-3P	a 1-acyl-sn-glycerol 3-phosphate	p
tRNA-Containing-N7-Methylguanine-46	an N7-methylguanine46 in tRNA	p
FUM	fumarate	cp
CPD-237	(indol-3-yl)acetamide	c
LysW-L-glutamate	a [2-aminoadipate carrier protein]-L-glutamate	c
2-PG	2-phospho-D-glycerate	cp
tRNA-Dihydrouridines	a 5,6-dihydrouridine in tRNA	p
ACETYL-COA	acetyl-CoA	cp
DI-H-OROTATE	(S)-dihydroorotate	cp
HYDROXY-METHYL-BUTENYL-DIP	(E)-4-hydroxy-3-methylbut-2-en-1-yl diphosphate	cp
LysW-L-glutamate-5-phosphate	a [2-aminoadipate carrier protein]-L-glutamate 5-phosphate	cp
CPD-10634	5-chloromaleylacetate	p
L-CITRULLINE	L-citrulline	cp
HOMOGENTISATE	homogentisate	cp
5-Phospho-terminated-DNAs	a 5'-phospho-[DNA]	cp
LysW-L-glutamate-5-semialdehyde	a [2-aminoadipate carrier protein]-L-glutamate 5-semialdehyde	cp
CPD-12760	(R)-4-phosphopantoate	c
Butanoyl-ACPs	a butanoyl-[acp]	cp
2-Hexadecenoyl-ACPs	a trans hexadecenoyl-[acp]	c
L-CYSTATHIONINE	L-cystathionine	cp
3-HYDROXY-DOCOSAPENTAENOYL-ACP	a (3R)-3-hydroxy-docosapentaenoyl-[acp]	p
2-PHOSPHO-4-CYTIDINE-5-DIPHOSPHO-2-C-MET	2-phospho-4-(cytidine 5'-diphospho)-2-C-methyl-D-erythritol	cp
S-3-HYDROXYBUTANOYL-COA	(S)-3-hydroxybutanoyl-CoA	p
CPD-10636	2,5-dichloro-trans-dienelactone	c
CPDQT-41	10-(methylthio)-2-oxodecanoate	p
CO-A	coenzyme A	cp
Unspecified-Degradation-Products	[unspecified degradation products]	p
HISTIDINOL	histidinol	cp
CPD-734	(-)-jasmonate	p
ETOH	ethanol	p
Unsulfurated-Sulfur-Acceptors	an unsulfurated [sulfur carrier]	cp
CPD-7076	2-methylbutanoate	c
CPD-7100	(2S)-2-isopropyl-3-oxosuccinate	cp
CPDQT-429	indolylmethylisothiocyanate	c
Unwound-DNA	an unwound double-stranded DNA	p
LysW-L-ornithine	a [2-aminoadipate carrier protein]-L-ornithine	cp
NMNH	reduced &beta;-nicotinamide D-ribonucleotide	p
CPD-12932	all-trans-3,4-didehydrolycopene	c
C1	UDP-N-acetyl-&alpha;-D-muramoyl-L-alanyl-&gamma;-D-glutamyl-meso-2,6-diaminopimeloyl-D-alanyl-D-alanine	cp
5-Phosphomononucleotides	a 5'-phosphomononucleotide	p
CPD-10637	2,5-dichloromaleylacetate	p
tRNA-Sec	a tRNAsec	c
3-HYDROXY-ISOVALERYL-COA	3-hydroxyisovaleryl-CoA	cp
CPD-294	2-maleylacetate	p
PRISTANATE	pristanate	c
Unwound-RNA	an unwound RNA	p
Uracil-54-in-tRNA	a uracil54 in tRNA	c
5-phosphooligonucleotides	a 5'-phosphooligonucleotide	p
GLT	L-glutamate	cp
CPD-1130	3-ethylmalate	cp
3-Oxo-octanoyl-ACPs	a 3-oxo-octanoyl-[acp]	cp
CPDQT-434	indol-3-ylmethylisothiocyanate-glutathione	p
2-Hydroxy-carboxylates	a 2-hydroxy carboxylate	p
2-KETO-3-DEOXY-6-P-GLUCONATE	2-dehydro-3-deoxy-D-gluconate 6-phosphate	cp
tRNA-containing-5Me-uridine54	a 5-methyluracil54 in tRNA	p
GLT-tRNAs	a tRNAglu	c
ETR-Quinols	an electron-transfer quinol	cp
Carboxylates	a carboxylate	p
DATP	dATP	p
CPD-12935	4'-apo-&beta;-carotenal	p
MALTOHEXAOSE	maltohexaose	cp
ETR-Quinones	an electron-transfer quinone	cp
GLYCYLGLYCINE	glycyl-glycine	c
S-ADENOSYLMETHIONINAMINE	S-adenosyl 3-(methylthio)propylamine	cp
CPD-11444	uroporphyrinogen-I	c
ADP-D-GLYCERO-D-MANNO-HEPTOSE	ADP-D-glycero-&beta;-D-manno-heptose	c
2-KETO-3-METHYL-VALERATE	(S)-3-methyl-2-oxopentanoate	cp
2-hydroxyacyl-glutathiones	S-(2-hydroxyacyl)glutathione	c
CPD-2961	D-gluconate 6-phosphate	cp
Carboxylic-esters	a carboxylic ester	c
tRNA-fragment	a tRNA fragment	p
CPD-7224	N-acetyl-L-citrulline	c
C3	UDP-N-acetyl-&alpha;-D-muramoyl-L-alanyl-&gamma;-D-glutamyl-L-lysyl-D-alanyl-D-alanine	cp
236-TRICHLOROHYDROQUINONE	2,3,6-trichlorohydroquinone	c
tRNA-precursors	a tRNA precursor	c
HYDROXYMETHYLBILANE	preuroporphyrinogen	p
tRNA-uridine34	a uridine34 in tRNA	c
L-CYSTEATE	L-cysteate	cp
CPD-12936	apo-4'-lycopenal	p
3-HYDROXY-L-KYNURENINE	3-hydroxy-L-kynurenine	c
S-ADENOSYLMETHIONINE	S-adenosyl-L-methionine	cp
TTP	dTTP	p
tRNA-uridines	a uridine in tRNA	c
3-P-HYDROXYPYRUVATE	3-phosphooxypyruvate	cp
L-Cysteine-Desulfurase-persulfide	an [L-cysteine desulfurase]-S-sulfanyl-L-cysteine	cp
MAL	(S)-malate	cp
CPD-11495	(2-hydroxyphenyl)acetate	p
PRO	L-proline	cp
tRNA-with-7-aminomethyl-7-deazaguanine	a 7-aminomethyl-7-deazaguanosine34 in tRNA	cp
Single-Stranded-DNAs	a single stranded DNA	cp
ADP-L-GLYCERO-D-MANNO-HEPTOSE	ADP-L-glycero-&beta;-D-manno-heptose	p
CH33ADO	5'-deoxyadenosine	p
Menaquinols	a menaquinol	cp
CPD-564	S-ribosyl-L-homocysteine	p
HOMO-CYS	L-homocysteine	cp
CPD-17372	1-[18-hydroxyoleyl]-2-lyso-phosphatidate	p
CPD-335	(R)-3-hydroxybutanoate	cp
5-AMINO-LEVULINATE	5-aminolevulinate	c
Menaquinones	a menaquinone	cp
DIHYDROKAEMPFEROL-CMPD	(+)-dihydrokaempferol	c
UDP-N-ACETYL-D-GLUCOSAMINE	UDP-N-acetyl-&alpha;-D-glucosamine	cp
CANAVANINOSUCCINATE	canavaninosuccinate	cp
CPD-19168	(S)-3-hydroxy-(7Z)-hexadecenoyl-CoA	p
LIPID-IV-A	lipid IVA	cp
CPD-9646	di-trans,octa-cis-undecaprenyl phosphate	cp
CPD-3617	decanoate	c
CPD-5662	9-mercaptodethiobiotin	cp
L-1-LYSOPHOSPHATIDATE	1-oleyl-2-lyso-phosphatidate	p
CPD-18118	D-arabinofuranose 5-phosphate	c
R-2-Haloacids	an (R)-2-haloacid	c
PHOSPHORIBOSYL-ATP	1-(5-phospho-&beta;-D-ribosyl)-ATP	cp
CPD0-181	N5-carboxyaminoimidazole ribonucleotide	c
Mercapturates	a mercapturate	c
GLYCEROL	glycerol	cp
R-2-Hydroxyacids	an (R)-2-hydroxyacid	p
UDP-N-ACETYLMURAMATE	UDP-N-acetyl-&alpha;-D-muramate	cp
7Z-3-oxo-hexadec-7-enoyl-ACPs	a (7Z)-3-oxo-hexadec-7-enoyl-[acp]	cp
Nucleoside-Diphosphates	a nucleoside diphosphate	cp
R-3-Hydroxypalmitoyl-ACPs	a (3R)-3-hydroxypalmitoyl-[acp]	p
RNA-DNA-hybrids	a RNA-DNA hybrid	c
CPD-14927	phytenate	c
7Z-hexadec-7-enoyl-ACPs	a (7Z)-hexadec-7-enoyl-[acp]	c
N-Acetyl-beta-D-Hexosaminides	an N-acetyl-&beta;-D-hexosaminide	c
Protein-Disulfides	a protein disulfide	cp
RNA-Holder	a ribonucleic acid	cp
CPD-19170	(2E,7Z)-hexadecenoyl-CoA	cp
R-3-hydroxy-cis-vaccenoyl-ACPs	(R)-3-hydroxy-cis-vacc-11-enoyl-[acp]	p
9S-RRNA	a 9S rRNA	c
GLYCEROL-3P	sn-glycerol 3-phosphate	cp
Protein-Dithiols	a protein dithiol	p
Thi-S	a ThiS sulfur-carrier protein	p
ALPHA-GLUCOSE-16-BISPHOSPHATE	&alpha;-glucose 1,6-bisphosphate	cp
N-Acylated-Aliphatic-Amino-Acids	an N-acylated aliphatic-L-amino acid	c
URIDYLYL-PROTEIN-PII	a uridylylated PII protein	p
Nucleoside-Monophosphates	a nucleoside 5'-monophosphate	p
CPD-17386	(2E,6Z,9Z,12Z,15Z,18Z,21Z)-tetracosaheptaenoyl-CoA	c
CPD-14928	phytenoyl-CoA	p
CPD-9699	hypoglycin A	c
CPD-19171	(S)-3-hydroxy-(9Z)-octadecenoyl-CoA	p
CPD-11770	7,8-dihydromonapterin	c
R-3-hydroxyarachidoyl-ACPs	a (3R)-3-hydroxyarachidoyl-[acp]	p
Pi	phosphate	cp
Nucleoside-Triphosphates	a nucleoside triphosphate	cp
INOSINE	inosine	p
9Z-3-oxo-octadec-9-enoyl-ACPs	a (9Z)-3-oxo-octadec-9-enoyl-[acp]	cp
L-1-PHOSPHATIDYL-GLYCEROL	an L-1-phosphatidyl-sn-glycerol	c
A-5-prime-PP-5-prime-DNA	an adenosine-5'-diphospho-5'-[DNA]	cp
CPD-3618	2-oxovalerate	p
CPD-67	2-phosphoglycolate	c
CPD-9700	hypoglycin B	p
CHITIN	chitin	cp
L-1-PHOSPHATIDYL-GLYCEROL-P	1-(3-sn-phosphatidyl)-sn-glycerol 3-phosphate	p
R-3-hydroxybehenoyl-ACPs	a (3R)-3-hydroxybehenoyl-[acp]	p
CARBAMOYL-P	carbamoyl phosphate	cp
CPD-5881	(6R)-4a-hydroxy-tetrahydrobiopterin	cp
RNASE-E-DEGRADATION-SUBSTRATE-MRNA	RNase E degradation substrate mRNA	c
CPD-6746	1D-myo-inositol 2-monophosphate	c
RNASE-E-MRNA-PROCESSING-SUBSTRATE	RNase E mRNA processing substrate	c
CPD-18346	cis-vaccenoyl-CoA	cp
Protein-Histidines	a [protein]-L-histidine	cp
CHITOBIOSE	N,N'-diacetylchitobiose	cp
L-3-HYDROXYACYL-COA	a (3S)-3-hydroxyacyl-CoA	p
GDP-TP	pppGpp	p
R-3-hydroxycerotoyl-ACPs	a (3R)-3-hydroxycerotoyl-[acp]	p
R-3-hydroxydodecanoyl-ACPs	a (3R)-3-hydroxydodecanoyl-[acp]	p
RNASE-E-PROCESSING-PRODUCT-MRNA	RNase E processing product mRNA	p
CPD-17387	(3S)-hydroxy-(6Z,9Z,12Z,15Z,18Z,21Z)-tetracosahexaenoyl-CoA	p
DIHYDRONEOPTERIN-P3	7,8-dihydroneopterin 3'-triphosphate	c
RNASE-G-DEGRADATION-SUBSTRATE-MRNA	RNase G degradation substrate mRNA	c
CPD-12112	salicyloyl-CoA	c
CPD-14931	a 10-formyltetrahydrofolate-4a-carbinolamine	cp
CPD-19761	2,6-dichloro-3-(glutathione-S-yl)-hydroquinone	p
CPD-18348	1-cis-vaccenoylglycerol-3-phosphate	p
ACET	acetate	cp
RNASE-R-DEGRADATION-SUBSTRATE-RNA	RNase R degradation substrate RNA	c
CPD-15015	4-hydroxy-2-oxoglutarate	cp
CPD-9869	all trans-decaprenyl-2-methoxy-6-1,4-benzoquinol	c
R-3-hydroxyhexanoyl-ACPs	a (3R)-3-hydroxyhexanoyl-[acp]	p
CPD0-2015	N-acetyl-L-methionine	p
CPD-19172	(2E,9Z)-octadecenoyl-CoA	cp
CPD-12173	(S)-3-hydroxy-isobutanoyl-CoA	cp
CPD-15056	(2Z)-2-aminobut-2-enoate	cp
L-ALPHA-ALANINE	L-alanine	cp
GMP	GMP	cp
DNA-Ligase-L-lysine	a [DNA ligase]-L-lysine	cp
CPD-19763	2,3,5-trichloro-6-(glutathione-S-yl)-hydroquinone	p
IDP	IDP	cp
CPD-592	4-guanidinobutanoate	p
URIDINE	uridine	cp
ACETALD	acetaldehyde	p
D-BETA-D-HEPTOSE-1-P	D-glycero-&beta;-D-manno-heptose 1-phosphate	p
R-3-hydroxylignoceroyl-ACPs	a (3R)-3-hydroxylignoceroyl-[acp]	p
PHOSPHORIBOSYL-CARBOXY-AMINOIMIDAZOLE	5-amino-1-(5-phospho-D-ribosyl)imidazole-4-carboxylate	cp
CPD-16953	2-amino-6-[1-hydroxyethyl]-7-methyl-7,8-dihydropterin	c
SUPER-OXIDE	superoxide	c
R-3-hydroxymyristoyl-ACPs	a (3R)-3-hydroxymyristoyl-[acp]	cp
Charged-ALA-tRNAs	an L-alanyl-[tRNAAla]	p
Thiocarboxyadenylated-ThiS-Proteins	a thiocarboxy-[ThiS-Protein]	c
CPD-19775	ferroheme i	cp
CPD-18379	1-myristoylglycerol 3-phosphate	p
DCDP	dCDP	cp
CARBAMYUL-L-ASPARTATE	N-carbamoyl-L-aspartate	cp
10-FORMYL-DIHYDROFOLATE-GLU-N	an N10-formyldihydrofolate	p
5-L-GLUTAMYL-AMINO-ACID	an &alpha;-(5-L-glutamyl)-amino acid	p
L-Glutamyl-Peptides	an N-terminal L-glutamyl-[protein]	c
R-3-hydroxypetroselinoyl-ACPs	a (3R)-3-hydroxypetroselinoyl-[acp]	p
Charged-ARG-tRNAs	an L-arginyl-[tRNAArg]	cp
LIPOIC-ACID	(R)-lipoate	c
CPD-19202	L-4-hydroxyphenylglycine-L-arginyl-D-4-hydroxyphenylglycine-L-seryl-L 4-hydroxyphenylglycine	c
Plastoquinols	a plastoquinol	p
5-L-GLUTAMYL-L-AMINO-ACID	an &alpha;-(&gamma;-L-glutamyl)-L-amino acid	p
CPD-12175	(S)-3-hydroxy-isobutanoate	c
Methylated-Ribosomal-Protein-L11s	a methylated ribosomal protein L11	p
CPD-19776	hydroxyferroheme i	p
DUDP	dUDP	c
R-3-hydroxystearoyl-ACPs	a (3R)-3-hydroxystearoyl-[acp]	p
Protein-L-glutamine	a [protein]-L-glutamine	c
N-FORMIMINO-L-GLUTAMATE	N-formimino-L-glutamate	p
CPD-9871	6-methoxy-3-methyl-2-all-trans-decaprenyl-1,4-benzoquinol	p
LIPOYL-AMP	lipoyl-adenylate	cp
CPD-16954	[1-(2-amino-7-methyl-4-oxo-7,8-dihydro-3H-pteridin-6-yl)]ethyl diphosphate	p
CPD-597	N-carbamoylputrescine	cp
CPD-678	hydrogen selenide	c
11Z-3-oxo-icos-11-enoyl-ACPs	an (11Z)-3-oxo-icos-11-enoyl-[acp]	cp
CPD-19782	(3E)-5-chloro-2-oxopent-3-enoate	c
CPD0-2030	glycerophosphoserine	c
5-L-GLUTAMYL-PEPTIDE	a 5-L-glutamyl-[peptide]	c
DNA-Ligase-L-lysine-adenylate	a [DNA ligase]-N6-(5'-adenylyl)-L-lysine	cp
CPD-17621	16-hydroxypalmitoyl-CoA	p
CPD-15159	(6R)-6,7-dihydrobiopterin	p
CPD-3734	thiophosphate	p
CPD-19203	D-4-hydroxyphenylglycine-L-seryl-L 4-hydroxyphenylglycine	p
R-4-PHOSPHOPANTOTHENOYL-L-CYSTEINE	(R)-4'-phosphopantothenoyl-L-cysteine	cp
CD-S-SP-Complex	a [cysteine desulfurase]-S-sulfanyl-[disordered-form scaffold protein] complex	c
Protein-L-lysine	a [protein]-L-lysine	c
CPD-17045	3-benzyl-3,6-dihydroxy-6-(hydroxymethyl)-diketopiperazine	c
5-METHYL-THF-GLU-N	a 5-methyltetrahydrofolate	c
CHOCOLA_A	all-trans-retinyl palmitate	c
RX	RX	c
AMINO-ACETONE	aminoacetone	p
ACETAMIDE	acetamide	c
CPD-9956	ubiquinol-8	p
L-HISTIDINOL-P	L-histidinol phosphate	cp
Protein-L-methionine	a [protein]-L-methionine	cp
O-UREIDOHOMOSERINE	O-ureido-L-homoserine	c
UROCANATE	urocanate	cp
5-METHYLTHIOADENOSINE	S-methyl-5'-thioadenosine	cp
D-BETA-D-HEPTOSE-17-DIPHOSPHATE	D-glycero-&beta;-D-manno-heptose 1,7-bisphosphate	c
CPD-19205	L-4-hydroxyphenylglycine-L-arginine	p
CPD0-2113	1-stearoyl-sn-glycerol 3-phosphate	p
Trans-D2-decenoyl-ACPs	a (2E)-dec-2-enoyl-[acp]	cp
Protein-L-methionine-R-S-oxides	a protein-L-methionine-(R)-S-oxide	cp
CHORISMATE	chorismate	cp
CPD-600	N-formyl-L-glutamate	c
CPD-17624	&omega;-carboxy-(9Z)-octadec-9-enoyl-CoA	p
Charged-CYS-tRNAs	an L-cysteinyl-[tRNACys]	cp
CPD-17046	3-benzyl-3,6 -bis(glutathione)- 6-(hydroxymethyl)-diketopiperazine	p
CPD-3736	lanthionine	p
CDP	CDP	cp
CPD-15301	caldariellaquinol	p
ILE	L-isoleucine	cp
Protein-L-methionine-S-S-oxides	a protein-L-methionine-(S)-S-oxide	c
CPD-19217	S-(hydroxysulfenamide)-glutathione	p
CARBON-DIOXIDE	CO2	cp
CPD-3766	menadione	c
METHYLENE-THF-GLU-N	a 5,10-methylene-tetrahydrofolate	cp
ILE-tRNAs	a tRNAIle	c
L-ARA4N-MODIFIED-KDO2-LIPID-A	4'-&alpha;-L-Ara4N-&alpha;-Kdo-(2&rarr;4)-&alpha;-Kdo-(2&rarr;6)-[P4'-&alpha;-L-ara4N]-lipid A	p
Lipoyl-Protein-L-Lysine	a [lipoyl-carrier protein]-L-lysine	c
CPD-17635	(2R)-ethylmalonyl-CoA	p
GUANINE	guanine	cp
CPD-18492	(2E,6Z,9Z,12Z,15Z,18Z)-tetracosahexaenoyl-CoA	c
CPD-17047	3-benzyl-3,6 -bis(cysteinylglycine)- 6-(hydroxymethyl)-diketopiperazine	c
CPD-9965	icosanoyl-CoA	cp
Mnm5Se2U-containing-tRNAs	a 5-methylaminomethyl-2-selenouridine in tRNA	p
N-FORMYLKYNURENINE	N-formylkynurenine	p
Charged-GLN-tRNAs	an L-glutaminyl-[tRNAGln]	p
LL-DIAMINOPIMELATE	L,L-diaminopimelate	cp
CPD-12179	methylmalonate semialdehyde	c
LINOLENOYL-COA	&alpha;-linolenoyl-CoA	p
CPD0-2117	trans-hexadec-2-enoyl-CoA	c
Glutamine-synthetase-Tyr	a [glutamine-synthetase]-L-tyrosine	c
Protein-phospho-L-histidines	a [protein]-N-phospho-L-histidine	cp
3-oxo-palmitoyl-ACPs	a 3-oxo-palmitoyl-[acp]	cp
N-4-aminobutylidene-enzyme-lysine	a [deoxyhypusine synthase]-N-(4-aminobutylidene)-lysine	cp
2-METHYL-ACETO-ACETYL-COA	2-methylacetoacetyl-CoA	cp
DELTA1-PIPERIDEINE-2-6-DICARBOXYLATE	(S)-2,3,4,5-tetrahydrodipicolinate	cp
PHOSPHORIBOSYL-FORMAMIDO-CARBOXAMIDE	5-formamido-1-(5-phospho-D-ribosyl)-imidazole-4-carboxamide	cp
CPD-14378	dehydrospermidine	cp
ISOVALERATE	isovalerate	c
Glutamine-synthetase-adenylyl-Tyr	a [glutamine synthetase]-O4-(5'-adenylyl)-L-tyrosine	p
Protein-pi-phospho-L-histidines	a [protein]-N&pi;-phospho-L-histidine	c
Charged-GLT-tRNAs	an L-glutamyl-[tRNAGlu]	p
4-PHOSPHONOOXY-THREONINE	4-phosphooxy-L-threonine	cp
3-oxo-petroselinoyl-ACPs	a 3-oxo-petroselinoyl-[acp]	cp
N-5-PHOSPHORIBOSYL-ANTHRANILATE	N-(5-phosphoribosyl)-anthranilate	cp
DIHYDROXYACETONE	dihydroxyacetone	cp
Glutaryl-ACP-methyl-esters	a glutaryl-[acp] methyl ester	c
1-KETO-2-METHYLVALERATE	(R)-2,3-dihydroxy-3-methylpentanoate	p
CPD-763	arsenite	p
Protein-tauphospho-L-histidines	a [protein]-N&tau;-phospho-L-histidine	c
PHOSPHORIBOSYL-FORMIMINO-AICAR-P	1-(5-phospho-&beta;-D-ribosyl)-5-[(5-phosphoribosylamino)methylideneamino]imidazole-4-carboxamide	cp
PYRIDOXAL_PHOSPHATE	pyridoxal 5'-phosphate	p
Protein-tyrosine-phosphates	a [protein]-L-tyrosine phosphate	c
4-hydroxybenzoate	4-hydroxybenzoate	c
D-ERYTHRO-IMIDAZOLE-GLYCEROL-P	D-erythro-imidazole-glycerol-phosphate	cp
N-ACETYL-BETA-GLUCOSAMINYLAMINE	N-acetyl-&beta;-glucosaminylamine	p
CPD-10267	decanoyl-CoA	p
CPD-690	adenosyl-cobyrinate a,c-diamide	p
3-oxo-stearoyl-ACPs	a 3-oxo-stearoyl-[acp]	cp
CPD-7695	ditrans,octacis-undecaprenyldiphospho-N-acetyl-(N-acetyl-&beta;-D-glucosaminyl)muramoyl-L-alanyl-&gamma;-D-glutamyl-L-lysyl-D-alanyl-D-alanine	p
CPD-14443	(2S,4S)-4-hydroxy-2,3,4,5-tetrahydrodipicolinate	cp
PYRIDOXAMINE-5P	pyridoxamine 5'-phosphate	c
3-terminal-unsaturated-sugars	a 3'-terminal unsaturated sugar	p
3-P-SERINE	3-phospho-L-serine	cp
Charged-HIS-tRNAs	an L-histidyl-[tRNAHis]	p
23S-rRNA-2-methyladenine2503	a 2-methyladenine2503 in 23S rRNA	p
PROTOHEME	ferroheme b	cp
Proteins-With-N-Terminal-Asp	an N-terminal L-aspartyl-[protein]	c
DELTA3-ISOPENTENYL-PP	isopentenyl diphosphate	cp
1-L-MYO-INOSITOL-1-P	1D-myo-inositol 3-monophosphate	c
Charged-ILE-tRNAs	an L-isoleucyl-[tRNAIle]	p
Glycerophosphodiesters	a glycerophosphodiester	c
CPD-7953	torulene	c
2-METHYL-BUTYRYL-COA	2-methylbutanoyl-CoA	cp
D-GLT	D-glutamate	cp
CPD-10269	palmitoleoyl-CoA	cp
PANTETHEINE-P	4'-phosphopantetheine	cp
Apo-Propionyl-CoA-CO2-ligases	apo-[propionyl-CoA:carbon-dioxide ligase (ADP-forming)]	c
CPD-464	prephytoene diphosphate	cp
Charged-LEU-tRNAs	an L-leucyl-[tRNALeu]	cp
23S-rRNA-adenine-2503	adenine2503 in 23S rRNA	c
DCMP	dCMP	c
Elongation-tRNAMet	elongator tRNAMet	c
SE-2	selenide	c
CPD-14675	pristanoyl-CoA	p
2-Me-Branched-234-Sat-FA	a 2-methyl branched 2,3,4-saturated fatty acid	c
1-PALMITOYLGLYCEROL-3-PHOSPHATE	1-palmitoylglycerol 3-phosphate	p
DEOXYXYLULOSE-5P	1-deoxy-D-xylulose 5-phosphate	cp
CPD-10330	&alpha;-D-ribofuranose	c
Charged-LYS-tRNAs	an L-lysyl-[tRNALys]	p
PHOSPHORIBULOSYL-FORMIMINO-AICAR-P	phosphoribulosylformimino-AICAR-phosphate	cp
N-ACETYL-D-GLUCOSAMINE	N-acetyl-&beta;-D-glucosamine	p
ERYTHROSE-4P	D-erythrose 4-phosphate	cp
Arachidoyl-ACPs	an arachidoyl-[acp]	c
25-DIDEHYDRO-D-GLUCONATE	2,5-didehydro-D-gluconate	cp
N-ACETYL-D-GLUCOSAMINE-1-P	N-acetyl-&alpha;-D-glucosamine 1-phosphate	cp
Glycogens	a glycogen	cp
Charged-MET-tRNAs	an L-methionyl-[elongator tRNAMet]	p
DNA-N	DNAn	cp
DEPHOSPHO-COA	3'-dephospho-CoA	cp
CPD-465	presqualene diphosphate	cp
2-Me-Branched-234-Sat-Fatty-Acyl-CoA	a 2-methyl branched 2,3,4-saturated fatty acyl-CoA	p
Pyruvate-dehydrogenase-acetylDHlipoyl	a [pyruvate dehydrogenase E2 protein] N6-S-acetyldihydrolipoyl-L-lysine	p
CPD-14704	4-hydroxy-2-nonenal-glutathione conjugate	p
Charged-PHE-tRNAs	an L-phenylalanyl-[tRNAPhe]	c
HEPARIN	heparin	c
DCTP	dCTP	cp
AMINOMETHYLDIHYDROLIPOYL-GCVH	a [glycine-cleavage complex H protein] N6-aminomethyldihydrolipoyl-L-lysine	cp
NADH	NADH	cp
MONOMER0-4342	a [prolipoprotein]-(S-diacylglyceryl)-L-cysteine	cp
PYRIDOXINE-5P	pyridoxine 5'-phosphate	cp
Pyruvate-dehydrogenase-dihydrolipoate	a [pyruvate dehydrogenase E2 protein] N6-dihydrolipoyl-L-lysine	c
CPD-14736	L-kynurenine	c
KDO	3-deoxy-&alpha;-D-manno-2-octulosonate	c
SN-GLYCEROL-1-PHOSPHATE	sn-glycerol 1-phosphate	p
CPD-8180	DNA with lesion	c
GUANOSINE-5DP-3DP	ppGpp	p
Pyruvate-dehydrogenase-lipoate	a [pyruvate dehydrogenase E2 protein] N6-lipoyl-L-lysine	cp
SEPO3	selenophosphate	cp
Charged-PRO-tRNAs	an L-prolyl-[tRNAPro]	p
CPD-822	N2-succinyl-L-glutamate 5-semialdehyde	c
ISOVALERYL-COA	isovaleryl-CoA	cp
GERANYL-PP	geranyl diphosphate	cp
CPD-10546	methyl (indol-3-yl)acetate	c
ALA-tRNAs	a tRNAAla	c
N-ACETYL-GLUTAMYL-P	N-acetylglutamyl-phosphate	cp
KDO-8P	3-deoxy-D-manno-octulosonate 8-phosphate	p
QUEUINE	queuine	c
DIMETHYL-D-RIBITYL-LUMAZINE	6,7-dimethyl-8-(1-D-ribityl)lumazine	cp
MYO-INOSITOL	myo-inositol	p
Sulfur-Carrier-Proteins-ThiI	a [ThiI sulfur-carrier protein]-L-cysteine	cp
Charged-SER-tRNAs	an L-seryl-[tRNAser]	p
Acceptor	an oxidized electron acceptor	cp
NADH-P-OR-NOP	NAD(P)H	cp
CPD-10608	trans-dienelactone	c
GERANYLGERANYL-PP	geranylgeranyl diphosphate	cp
2C-METH-D-ERYTHRITOL-CYCLODIPHOSPHATE	2-C-methyl-D-erythritol-2,4-cyclodiphosphate	cp
DEOXY-RIBOSE-5P	2-deoxy-D-ribose 5-phosphate	p
Guanine34-in-tRNAs	a guanine34 in tRNA	c
FE+2	Fe2+	cp
ETF-Oxidized	an oxidized electron-transfer flavoprotein	cp
DEOXYADENOSINE	2'-deoxyadenosine	c
Guanine46-in-tRNA	a guanine46 in tRNA	c
SPERMIDINE	spermidine	cp
Sulfurated-Sulfur-Acceptors	a sulfurated [sulfur carrier]	cp
CPD-14772	hexadecanedioyl-CoA	cp
2-OCTAPRENYL-6-HYDROXYPHENOL	3-(all-trans-octaprenyl)benzene-1,2-diol	c
CPD-8355	1-18:1-2-lysophosphatidylethanolamine	c
Charged-THR-tRNAs	an L-threonyl-[tRNAThr]	p
CPD-469	N-acetyl-L-glutamate 5-semialdehyde	cp
SER	L-serine	cp
3-hydroxy-cis-D7-tetraecenoyl-ACPs	a (3R)-3-hydroxy cis &Delta;7-tetradecenoyl-[acp]	p
CPD-14828	1-C16:0-&alpha;,&omega;-dicarboxyl-2-lysophosphatidate	cp
PANTOTHENATE	(R)-pantothenate	p
PLASTOQUINONE	a plastoquinone	c
Sulfurylated-ThiI	a [ThiI sulfur-carrier protein]-S-sulfanyl-L-cysteine	cp
H2CO3	carbonic acid	cp
Charged-TRP-tRNAs	an L-tryptophanyl-[tRNATrp]	p
CPD-8534	DNA without lesion	p
HIS	L-histidine	cp
DUMP	dUMP	cp
NADP	NADP+	cp
Charged-TYR-tRNAs	an L-tyrosyl-[tRNATyr]	p
CPD-474	(+)-taxifolin	c
B-ALANINE	&beta;-alanine	c
DETHIOBIOTIN	dethiobiotin	c
HIS-tRNAs	a tRNAHis	c
SER-tRNAs	a tRNAser	c
OXYGEN-MOLECULE	oxygen	cp
SUC-COA	succinyl-CoA	cp
PRO-tRNAs	a tRNAPro	c
L-Methionylaminoacyl-tRNAs	a L-methionylaminoacyl-tRNA	p
Charged-VAL-tRNAs	an L-valyl-[tRNAVal]	p
C4	undecaprenyl-diphospho-N-acetylmuramoyl-L-alanyl-&gamma;-D-glutamyl-L-lysyl- D-alanyl-D-alanine	cp
Wound-RNA	wound RNA	c
BIOTIN	biotin	cp
L-ORNITHINE	L-ornithine	cp
Double-helix-DNA	a double-helix DNA	c
CPD-13357	(2R)-2,3-dihydroxy-3-methylbutanoate	p
XANTHOSINE-5-PHOSPHATE	XMP	cp
Acetoacetyl-ACPs	an acetoacetyl-[acp]	cp
Charged-fMET-tRNAs	an N-formyl-L-methionylaminoacyl-tRNA	c
RIBOFLAVIN	riboflavin	cp
IS30-Insertion-Sequences	an insertion sequence element IS30	cp
4-CYTIDINE-5-DIPHOSPHO-2-C	4-(cytidine 5'-diphospho)-2-C-methyl-D-erythritol	c
tRNAs	an uncharged tRNA	p
3-HYDROXY-PROPIONATE	3-hydroxypropanoate	p
3-DEOXY-D-ARABINO-HEPTULOSONATE-7-P	3-deoxy-D-arabino-heptulosonate 7-phosphate	cp
16-HYDROXYPALMITATE	16-hydroxypalmitate	c
DUTP	dUTP	cp
D-GLUCOSAMINE-6-P	D-glucosamine 6-phosphate	cp
XYLULOSE-5-PHOSPHATE	D-xylulose 5-phosphate	cp
SUCC-S-ALD	succinate semialdehyde	c
tRNAs-Asp-with-queuosine	queuosine at position 34 of a tRNAAsp	c
Supercoiled-Duplex-DNAs	a supercoiled duplex DNA	c
4-FUMARYL-ACETOACETATE	4-fumaryl-acetoacetate	cp
S-CD-S-SP-Complex	an S-sulfanyl-[cysteine desulfurase]-S-sulfanyl-[disordered-form scaffold protein] complex	p
ADENINE	adenine	p
N-terminal-L-Serine	an N-terminal L-seryl-[protein]	p
tRNAs-containing-epoxy-quenosine	an epoxyqueuosine34 in tRNA	cp
3-HYDROXYADIPYL-COA	(3S)-hydroxyadipyl-CoA	cp
3-KETOACYL-COA	a 3-oxoacyl-CoA	cp
IS30-with-Integrated-Transposon	an insertion sequence IS30 with integrated transposon	cp
T2-DECENOYL-COA	(2E)-dec-2-enoyl-CoA	c
CPD-13524	all-trans-retinol	p
METHACRYLYL-COA	methylacrylyl-CoA	cp
COB-I-ALAMIN	cob(I)alamin	c
N-terminal-L-alanine	an N-terminal L-alanyl-[protein]	p
DIHYDROLIPOYL-GCVH	a [glycine-cleavage complex H protein] N6-dihydrolipoyl-L-lysine	cp
OROTATE	orotate	cp
3-KETOBUTYRATE	acetoacetate	cp
C5	undecaprenyldiphospho-N-acetylmuramoyl-L-alanyl-&gamma;-D-glutamyl-meso-2,6-diaminopimeloyl-D-alanyl-D-alanine	cp
PORPHOBILINOGEN	porphobilinogen	cp
TRANS-23-DEHYDROADIPYL-COA	trans-2,3-dehydroadipyl-coA	cp
L-PANTOATE	(R)-pantoate	c
ISOBUTYRATE	isobutanoate	c
GLUTARYL-COA	glutaryl-CoA	p
CPD-10791	6-deoxy-5-ketofructose 1-phosphate	p
DNA-Segment-Placeholder	a DNA segment	cp
tRNAs-with-glutamylated-queuosine	glutamyl-queuosine at position 34 of a tRNAAsp	p
N-terminal-L-cysteine	an N-terminal L-cysteinyl-[protein]	p
FORMATE	formate	p
N-terminal-L-cysteine-sulfinate	an N-terminal 3-sulfino-L-alanyl-[protein]	c
tRNAs-with-queuine	a queuosine34 in tRNA	p
C6	ditrans,octacis-undecaprenyldiphospho-[(N-acetyl-&beta;-D-glucosaminyl)-(1,4)-]-N-acetyl-&alpha;-D-muramoyl-L-alanyl-&gamma;-D-glutamyl-meso-2,6-diaminopimeloyl-D-alanyl-D-alanine	cp
N-terminal-L-cysteine-sulfonate	an N-terminal 3-sulfo-L-alanyl-[protein]	c
Octadec-2-enoyl-ACPs	a trans-octadec-2-enoyl-[acp]	c
3-Ketoglutaryl-ACP-methyl-ester	a 3-oxo-glutaryl-[acp] methyl ester	cp
DNA-Segment-in-Reverse-Orientations	a DNA segment in reverse orientation	cp
TRANS-3-METHYL-GLUTACONYL-COA	3-methylglutaconyl-CoA	p
TUM1-L-cysteine	a [3-mercaptopyruvate sulfurtransferase]-L-cysteine	cp
4-GUANIDO-BUTYRAMIDE	4-guanidinobutyramide	c
N-terminal-L-valine	an N-terminal L-valyl-[protein]	p
Octanoyl-ACPs	an octanoyl-[acp]	cp
CPD-13533	(3R)-3-hydroxypentanoyl-CoA	c
Octanoylated-Gcv-H	a [glycine-cleavage complex H protein] N6-octanoyl-L-lysine	c
DEAMIDO-NAD	nicotinate adenine dinucleotide	cp
Chlorides	an organochlorine compound	p
CPD-10806	4-hydroxy-2-nonenal	c
Octanoylated-domains	a [lipoyl-carrier protein] N6-octanoyl-L-lysine	cp
TUM1-S-sulfanylcysteine	a [3-mercaptopyruvate sulfurtransferase]-S-sulfanyl-L-cysteine	cp
4-HYDROXY-2-KETOVALERATE	(S)-4-hydroxy-2-oxopentanoate	cp
D-HEXOSE-6-PHOSPHATE	D-hexose 6-phosphate	p
L-PHOSPHATIDATE	a 1,2-diacyl-sn-glycerol 3-phosphate	c
DNA-With-GO-A-Mismatch	DNA with adenine:7,8-dihydro-8-oxoguanine mismatch	c
PROPIONAMIDE	propionamide	c
3-Ketopimeloyl-ACP-methyl-esters	a 3-oxo-pimeloyl-[acp] methyl ester	cp
TYR	L-tyrosine	cp
LEUKOTRIENE-C4	leukotriene-C4	c
L-SELENOCYSTEINE	L-selenocysteine	p
HYPOXANTHINE	hypoxanthine	cp
Odd-Saturated-Fatty-Acyl-CoA	an odd numbered straight chain 2,3,4-saturated fatty acyl CoA	p
Acetylated-S18-N-terminal-L-alanine	an N-terminal N-acetyl-L-alanyl-[S18 protein of 30S ribosome]	p
a-2-oxoglutarate-dehydrogenase-E2-protei	a [2-oxoglutarate-dehydrogenase E2 protein] N6-octanoyl-L-lysine	c
TRANS-D2-ENOYL-ACP	a trans-2-enoyl-[acyl-carrier protein]	cp
CPD-13534	3-oxopentanoyl-CoA	cp
Odd-Straight-Chain-234-Sat-FA	an odd numbered straight chain 2,3,4-saturated fatty acid	c
TYR-tRNAs	a tRNATyr	c
DIHYDRO-NEO-PTERIN	7,8-dihydroneopterin	c
GLUTATHIONE	glutathione	cp
TRANS-D2-ENOYL-COA	a (2E)-alkan-2-enoyl-CoA	cp
DEHYDROQUINATE	3-dehydroquinate	cp
N-terminal-glycine	an N-terminal glycyl-[protein]	p
a-pyruvate-dehydrogenase-E2-protein-Nsup	a [pyruvate dehydrogenase E2 protein] N6-octanoyl-L-lysine	c
ISOBUTYRYL-COA	isobutanoyl-CoA	cp
3-ENOLPYRUVYL-SHIKIMATE-5P	5-enolpyruvoyl-shikimate 3-phosphate	cp
FORMYL-L-METHIONYL-PEPTIDE	a [protein] N-terminal-formyl-L-methionine	c
CPD-1083	(E)-2-methylcrotonoyl-CoA	cp
4-HYDROXY-L-PROLINE	trans-4-hydroxy-L-proline	p
PROPIONATE	propanoate	p
1-4-alpha-D-Glucan	a 1,4-&alpha;-D-glucan	cp
Negatively-super-coiled-DNAs	a negatively supercoiled DNA	cp
ACP	a holo-[acyl-carrier protein]	cp
CPD-13575	2-[(2R,5Z)-2-carboxy-4-methylthiazol-5(2H)-ylidene]ethyl phosphate	cp
GAP	D-glyceraldehyde 3-phosphate	cp
Oleoyl-ACPs	an oleoyl-[acp]	c
OROTIDINE-5-PHOSPHATE	orotidine 5'-phosphate	cp
apo-ACP	an apo-[acyl-carrier protein]	c
ADENOSINE	adenosine	cp
FORMYL-THF-GLU-N	an N10-formyl-tetrahydrofolate	cp
3-HYDROXY-3-METHYL-GLUTARYL-COA	(S)-3-hydroxy-3-methylglutaryl-CoA	c
COBINAMIDE	cobinamide	c
N2-SUCCINYLGLUTAMATE	N2-succinylglutamate	p
Oleoyl-lipid	a [glycerolipid]-oleate	c
L-arginyl-3-sulfino-L-alaninyl-Peptides	an N-terminal L-arginiyl-3-sulfino-L-alanyl-[protein]	p
apo-Transcarboxylases	an apo-[methylmalonyl-CoA:pyruvate carboxytransferase]	c
3-5-ADP	adenosine 3',5'-bisphosphate	cp
ACRYLAMIDE	acrylamide	c
DNA-With-Hypoxanthines	a DNA with hypoxanthine	c
D-Hexoses	a D-hexose	c
L-arginyl-3-sulfo-L-alaninyl-Peptides	an N-terminal L-arginiyl-3-sulfo-L-alanyl-[protein]	p
PPI	diphosphate	cp
L-arginyl-L-Glutamyl-Peptides	an N-terminal L-arginiyl-L-glutamyl-[protein]	p
CANAVANINE	L-canavanine	cp
S-HYDROXYMETHYLGLUTATHIONE	S-(hydroxymethyl)glutathione	c
b-Hydroxy-cis-D5-dodecenoyl-ACPs	a (3R,5Z)-3-hydroxy-dodec-5-enoyl-[acp]	p
L-arginyl-L-aspartyl-Peptides	an N-terminal L-arginiyl-L-aspartyl-[protein]	p
CPD-13576	2-(2-carboxy-4-methylthiazol-5-yl)ethyl phosphate	c
L-glutamyl-tRNAGln	an L-glutamyl-[tRNAGln]	c
b-Keto-cis-D5-dodecenoyl-ACPs	a (5Z)-3-oxo-dodec-5-enoyl-[acp]	cp
16S-rRNA-N2-methylguanine966	an N2-methylguanine966 in 16S rRNA	p
3-HYDROXY-ANTHRANILATE	3-hydroxyanthranilate	p
D-LACTATE	(R)-lactate	p
S-LACTOYL-GLUTATHIONE	(R)-S-lactoylglutathione	c
16S-rRNA-N4-methylcytidine1402	an N4-methylcytidine1402  in 16S rRNA	p
3-MERCAPTO-PYRUVATE	3-mercaptopyruvate	c
Actinorhodin-Intermediate-2	9-hydroxy-3,5,7,11,13,15-hexaoxohexadecanoyl-[PKS-acp]	p
biotin-L-lysine-in-BCCP-dimers	a [biotin carboxyl-carrier-protein dimer]-N6-biotinyl-L-lysine	cp
N2-SUCCINYLORNITHINE	N2-succinyl-L-ornithine	p
16S-rRNA-N7-methylguanine527	an N7-methylguanine527 in 16S rRNA	p
Protein-L-serine-or-L-threonine	a [protein]-(L-serine/L-threonine)	c
Oxidized-ferredoxins	an oxidized ferredoxin [iron-sulfur] cluster	cp
CPD-17048	3-benzyl-3,6 -bis(cysteinyl)- 6-(hydroxymethyl)-diketopiperazine	p
AMMONIUM	ammonium	cp
16S-rRNA-cytidine1402	a cytidine1402 in 16S rRNA	c
CPD1F-90	kaempferol	p
GLYCEROPHOSPHOGLYCEROL	glycerophosphoglycerol	c
3-hydroxy-cis-D9-hexaecenoyl-ACPs	a (3R)-3-hydroxy cis &Delta;9-hexadecenoyl-[acp]	p
ARG-tRNAs	a tRNAArg	cp
16S-rRNA-guanine-527	a guanine527 in 16S rRNA	c
L-Cysteine-Desulfurases	an [L-cysteine desulfurase]	c
METHYLENETETRAHYDROMETHANOPTERIN	5,10-methylene-tetrahydromethanopterin	c
L-DELTA1-PYRROLINE_5-CARBOXYLATE	(S)-1-pyrroline-5-carboxylate	c
Oxo-glutarate-dehydro-suc-DH-lipoyl	a [2-oxoglutarate dehydrogenase E2 protein] N6-S-succinyldihydrolipoyl-L-lysine	cp
CPD0-2121	trans-hex-2-enoyl-CoA	p
CDPDIACYLGLYCEROL	a CDP-diacylglycerol	cp
CPD-17063	ferroheme o	cp
OH-MYRISTOYL	UDP-2-N,3-O-bis[(3R)-3-hydroxytetradecanoyl]-&alpha;-D-glucosamine	cp
CPD-11518	3-oxo-2-(cis-2'-pentenyl)-cyclopentane-1-(E-octa-2-enoyl)-CoA	c
16S-rRNA-guanine-966	a guanine966 in 16S rRNA	c
Oxo-glutarate-dehydrogenase-DH-lipoyl	a [2-oxoglutarate dehydrogenase E2 protein] N6-dihydrolipoyl-L-lysine	cp
DNA-containing-a-Apyrimidinic-Sites	an apyrimidinic site in DNA	p
GLYOX	glyoxylate	cp
MALTOPENTAOSE	maltopentaose	cp
3-hydroxypimeloyl-ACP-methyl-esters	a (3R)-3-hydroxypimeloyl-[acp] methyl ester	p
Acyl-Phosphates	an acyl phosphate	c
TusE-L-cysteine	a [TusE sulfur carrier protein]-L-cysteine	p
CPD0-1162	(2E,5Z)-tetradecenoyl-CoA	cp
L-GAMMA-GLUTAMYLCYSTEINE	&gamma;-L-glutamyl-L-cysteine	cp
PROTON	H+	cp
3-methylcrotonoyl-CoA-carboxylase-lysine	a [3-methylcrotonoyl-CoA-carboxylase]-L-lysine	c
16S-rRNA-pseudouridine516	a 16S rRNA pseudouridine516	p
OH-PYR	hydroxypyruvate	cp
Oxo-glutarate-dehydrogenase-lipoyl	a [2-oxoglutarate dehydrogenase E2 protein] N6-lipoyl-L-lysine	cp
CPD66-21	leukotriene-D4	cp
TDP	dTDP	cp
Kanamycin-3-phosphates	a kanamycin 3'-phosphate	p
TusE-S-sulfanylcysteine	a [TusE sulfur carrier protein]-S-sulfanylcysteine	c
Cis-Delta5-dodecenoyl-ACPs	a (5Z)-dodec-5-enoyl-[acp]	c
CPD-173	salicyl alcohol	p
CPD-11519	3-oxo-2-(cis-2'-pentenyl)-cyclopentane-1-(3R-hydroxyoctanoyl)-CoA	p
Protein-N-terminal-L-Arginine	an N-terminal arginyl-[protein]	cp
16S-rRNA-uridine516	a uridine516 in 16S rRNA	c
2-KETO-ISOVALERATE	3-methyl-2-oxobutanoate	cp
3-oxo-arachidoyl-ACPs	a 3-oxo-arachidoyl-[acp]	cp
PHE	L-phenylalanine	cp
P-AMINO-BENZOATE	4-aminobenzoate	cp
AMP	AMP	cp
CPD0-1163	(S)-3-hydroxy-(5Z)-tetradecenoyl-CoA	p
2-KETOGLUTARATE	2-oxoglutarate	cp
3-oxo-behenoyl-ACPs	a 3-oxo-behenoyl-[acp]	cp
Protein-N-terminal-L-Lysine	an N-terminal L-lysyl-[protein]	c
CPD0-2171	(S)-3-hydroxytetradecanoyl-CoA	p
CPD66-39	a 2,3,4-saturated fatty acid	c
PUTRESCINE	putrescine	cp
ASN	L-asparagine	c
CPD-11522	3-oxo-2-(cis-2'-pentenyl)-cyclopentane-1-(E-hexa-2-enoyl)-CoA	c
P-COUMAROYL-COA	4-coumaroyl-CoA	c
D-METHYL-MALONYL-COA	(S)-methylmalonyl-CoA	cp
CPDQT-27	6-(methylthio)-2-oxohexanoate	p
Cis-Delta7-tetradecenoyl-ACPs	a cis-&Delta;7-tetradecenoyl-[acp]	c
IMIDAZOLE-ACETOL-P	imidazole acetol-phosphate	cp
UMP	UMP	cp
UDP	UDP	cp
Monocarboxylates	a monocarboxylate	p
2-LYSOPHOSPHATIDYLETHANOLAMINES	a 1-acyl 2-lyso-phosphatidylethanolamine	c
ACETYL-ETCETERA-L-ASPARAGINE	N4-(&beta;-N-acetyl-D-glucosaminyl)-L-asparagine	c
3-oxo-cerotoyl-ACPs	a 3-oxo-cerotoyl-[acp]	cp
UDP-AA-GLUTAMATE	UDP-N-acetyl-&alpha;-D-muramoyl-L-alanyl-D-glutamate	cp
Monocarboxylic-Acid-Amides	a monocarboxylic acid amide	c
Protein-N-terminal-L-threonine	an N-terminal L-threonyl-[protein]	p
Kanamycins	a kanamycin	c
Gcv-H	[glycine cleavage system lipoyl-carrier protein]-L-lysine	c
Cis-delta-3-decenoyl-ACPs	a (3Z)-dec-3-enoyl-[acp]	c
DNA-containing-aPurinic-Sites	an apurinic site within DNA	p
CPD0-1189	4-amino-4-deoxy-&alpha;-L-arabinopyranosyl ditrans,octacis-undecaprenyl phosphate	c
NICOTINAMIDE_NUCLEOTIDE	&beta;-nicotinamide D-ribonucleotide	p
3-oxo-cis-D7-tetradecenoyl-ACPs	a 3-oxo-cis-&Delta;7-tetradecenoyl-[acp]	cp
CPD-11523	3-oxo-2-(cis-2'-pentenyl)-cyclopentane-1-(3R-hydroxyhexanoyl)-CoA	p
Protein-N6-5-glutamyl-lysine-crosslinks	a protein with an N6-(&gamma;-glutamyl)-L-lysine crosslink	p
CL-	chloride	cp
CPDQT-28	7-(methylthio)-2-oxoheptanoate	p
PHE-tRNAs	a tRNAPhe	p
Protein-N6-5-glutamyl-serotonin	a [protein] N6-[(5-hydroxy-1H-indol-3-yl)ethyl]-L-glutamine	p
UNDECAPRENYL-DIPHOSPHATE	di-trans,octa-cis-undecaprenyl diphosphate	p
Pre-tRNA-3-prime-half-molecules	a 3'-half-tRNA molecule with a 5'-OH end	cp
3-oxo-cis-D9-hexadecenoyl-ACPs	a 3-oxo-cis-&Delta;9-hexadecenoyl-[acp]	cp
Cis-vaccenoyl-ACPs	a cis-vaccenoyl-[acp]	c
D-MYO-INOSITOL-1-MONOPHOSPHATE	1D-myo-inositol 1-monophosphate	c
General-Protein-Substrates	a protein	c
NICOTINATE_NUCLEOTIDE	&beta;-nicotinate D-ribonucleotide	cp
UDP-AAGM-DIAMINOHEPTANEDIOATE	UDP-N-acetyl-&alpha;-D-muramoyl-L-alanyl-&gamma;-D-glutamyl-meso-2,6-diaminopimelate	cp
3-oxo-cis-vaccenoyl-ACPs	a 3-oxo-cis-vacc-11-enoyl-[acp]	cp
TRP	L-tryptophan	c
RIBOSE-5P	D-ribose 5-phosphate	cp
ACETOACETYL-COA	acetoacetyl-CoA	cp
MALTOSE	maltose	cp
Protein-Ser-or-Thr-phosphate	a [protein] (L-serine/L-threonine) phosphate	p
CPD-11526	3-oxo-2-(cis-2'-pentenyl)-cyclopentane-1-(E-buta-2-enoyl)-CoA	c
CPDQT-29	8-(methylthio)-2-oxooctanoate	p
DNA-containing-abasic-Sites	a DNA containing an apurinic/apyrimidinic site	cp
Gln-B	a PII protein	c
3-oxo-decanoyl-ACPs	a 3-oxo-decanoyl-[acp]	cp
CPD0-2231	dIDP	cp
P-HYDROXY-PHENYLPYRUVATE	4-hydroxyphenylpyruvate	c
UDP-ACETYL-CARBOXYVINYL-GLUCOSAMINE	UDP-N-acetyl-&alpha;-D-glucosamine-enolpyruvate	cp
L-1-GLYCERO-PHOSPHORYLCHOLINE	sn-glycero-3-phosphocholine	p
MALTOTETRAOSE	maltotetraose	p
5S-rRNAs	a 5S rRNA	p
Protein-Tyrosines	a [protein]-L-tyrosine	p
CPD0-1456	UDP-N-acetyl-&alpha;-D-muramoyl-L-alanine	cp
Aliphatic-L-Amino-Acids	an aliphatic L-amino acid	p
2-Lysophosphatidylcholines	a 1-acyl-sn-glycero-3-phosphocholine	c
3-oxo-dodecanoyl-ACPs	a 3-oxo-dodecanoyl-[acp]	cp
18-HYDROXYOLEATE	18-hydroxyoleate	c
TRP-tRNAs	a tRNATrp	c
Glucopyranose	D-glucopyranose	cp
L-1-GLYCEROPHOSPHORYLETHANOL-AMINE	sn-glycero-3-phosphoethanolamine	cp
THMPT	tetrahydromethanopterin	p
CPD-11527	3-oxo-2-(cis-2'-pentenyl)-cyclopentane-1-(3R-hydroxybutanoyl)-CoA	p
CPDQT-30	9-(methylthio)-2-oxononanoate	p
ACETYL-GLU	N-acetyl-L-glutamate	cp
Alkyl-Hydro-Peroxides	an organic hydroperoxide	c
Protein-With-N-Terminal-Met	a peptide with an N-terminal L-methionine	c
3-oxo-hexanoyl-ACPs	a 3-oxo-hexanoyl-[acp]	cp
Adjacent-pyrimidine-dimer-in-DNA	a dimer of adjacent pyrimidine nucleosides in DNA	c
PHOSPHO-ENOL-PYRUVATE	phosphoenolpyruvate	cp
Protein-With-N-Terminal-Pro	a peptide with an N-terminal L-proline	cp
GLYCOLALDEHYDE	glycolaldehyde	p
Alkylated-Bases	an alkylated nucleobase	p
Protein-With-N-Terminal-X-Pro	a peptide with an N-terminal X-L-proline	c
URACIL	uracil	cp
CPD-11592	2-methylsulfanyl-N6-dimethylallyladenosine37 in tRNA	p
Myristoyl-ACPs	a myristoyl-[acp]	cp
CPDQT-36	3-[(3'-methylthio)propyl]malate	cp
CPD0-2232	(S)-3-hydroxyhexadecanoyl-CoA	p
CPD-17370	18-hydroxyoleoyl-CoA	cp
GLYCOLLATE	glycolate	p
RIBULOSE-5P	D-ribulose 5-phosphate	cp
3-oxo-lignoceroyl-ACPs	a 3-oxo-lignoceroyl-[acp]	cp
RH-Group	an organic molecule	c
Alcohols	an alcohol	p
N-4-aminobutylidene-eIF5A-lysine	an [eIF5A-precursor]-N-(4-aminobutylidene)-lysine	cp
2-METHYL-3-HYDROXY-BUTYRYL-COA	(2S,3S)-3-hydroxy-2-methylbutanoyl-CoA	cp
DNA-deoxycytidine-dimer	a dimer of non-adjacent 2'-deoxycytidines in DNA	c
CIS-2-CHLORO-4-CARBOXYMETHYLENEBUT-2-EN-	2-chloro-cis-dienelactone	c
CPD0-1699	6-carboxy-5,6,7,8-tetrahydropterin	c
Alkylated-DNAs	an alkylated DNA	c
MALTOTRIOSE	maltotriose	c
3-oxo-myristoyl-ACPs	a 3-oxo-myristoyl-[acp]	cp
5Z-3-oxo-tetradec-5-enoyl-ACPs	a (5Z)-3-oxo-tetradec-5-enoyl-[acp]	cp
CPD-11643	two adjacent thymidines in DNA	p
Phosphoserines	L(or D)-O-phosphoserine	c
Peptide-with-C-terminal-Glycine	a peptide with a C-terminal glycine	p
CPD-15317	D-ribofuranose 5-phosphate	p
Red-Glutaredoxins	a reduced glutaredoxin	c
CPD-729	12-oxo-cis-10,15-phytodienoate	c
Peptide-with-penultimate-Glycine	a peptide with a penultimate glycine	c
VAL	L-valine	cp
CPD-15318	&alpha;-D-ribose 5-phosphate	p
CPD-12199	3S-(4-hydroxyphenyl)-3-hydroxy-propanoyl-CoA	p
Light	h&nu;	c
2-OCTAPRENYL-6-METHOXYPHENOL	2-methoxy-6-(all-trans-octaprenyl)phenol	cp
CPD-19395	&gamma;-L-glutamyl-glycylglycine	p
CTP	CTP	cp
VAL-tRNAs	a tRNAVal	c
CPD-19150	(2E,5Z)-dodecenoyl-CoA	cp
CMP	CMP	cp
mRNAs	an mRNA	cp
Halide-Anions	a halide anion	p
3-METHYL-CROTONYL-COA	3-methylcrotonyl-CoA	cp
Peptides-holder	a peptide	p
2-AMINOBENZOYL-COA	anthraniloyl-CoA	p
L-ARGININO-SUCCINATE	L-arginino-succinate	cp
CPD-17637	7-hydroxylaurate	c
D-SEDOHEPTULOSE-7-P	D-sedoheptulose 7-phosphate	cp
CPD-730	3-oxo-2-(cis-2'-pentenyl)-cyclopentane-1-octanoate	p
Red-Thioredoxin	a reduced thioredoxin	cp
Lignoceroyl-ACPs	a lignoceroyl-[acp]	c
mRNAs-with-5-monophosphate	a 5'-phospho-[mRNA]	p
LINOLEIC_ACID	linoleate	c
PHENYL-PYRUVATE	keto-phenylpyruvate	cp
CMP-KDO	CMP-3-deoxy-&beta;-D-manno-octulosonate	cp
CPD-9973	an [eIF5A-precursor]-deoxyhypusine	p
THR	L-threonine	cp
mRNAs-with-5-triphosphate	a 5' triphospho-[mRNA]	c
CPD-15360	2-sulfanyl-N6-dimethylallyladenosine37 in tRNA	cp
Reduced-2Fe-2S-Ferredoxins	a reduced [2Fe-2S] ferredoxin	c
CPD0-1027	a debranched &alpha;-limit dextrin	c
CPD-12258	UDP-N-acetyl-&alpha;-D-muramoyl-L-alanyl-&gamma;-D-glutamyl-L-lysyl-D-alanine	c
CPD-19151	(S)-3-hydroxy-(5Z)-dodecenoyl-CoA	p
NADPH	NADPH	cp
Reduced-CycA1-cytochromes	a reduced CycA1 cytochrome	c
Persulfurated-L-cysteine-desulfurases	an S-sulfanyl-[L-cysteine desulfurase]	p
CPD-17638	7-hydroxylauroyl-CoA	p
PYRROLINE-HYDROXY-CARBOXYLATE	(3R,5S)-3-hydroxy-1-pyrroline-5-carboxylate	c
Polynucleotide-Holder	a generic polynucleotide substrate	c
Lipid-dihydrosterculate	a [glycerolipid]-dihydrosterculate	p
Dipeptides-With-Proline-Carboxy	a dipeptide with proline at the C-terminal	c
CPD0-1081	N-acetyl-&beta;-D-glucosamine-1,6-anhydro-N-acetyl-&beta;-D-muramate	c
L-ASPARTATE	L-aspartate	cp
CPD-19487	3-isopropyl-10-(methylthio)-2-oxodecanoate	cp
7-8-DIHYDROPTEROATE	7,8-dihydropteroate	c
THR-tRNAs	a tRNAThr	c
INDOLE-3-GLYCEROL-P	(1S,2R)-1-C-(indol-3-yl)glycerol 3-phosphate	p
ACRYLATE	acrylate	p
5-OXOPROLINE	5-oxo-L-proline	c
CPD-15436	(5Z)-tetradecenoyl-CoA	c
Diribonucleotide	a diribonucleotide	p
CPD-12279	2-iminoacetate	c
TETRACHLOROHYDROQUINONE	2,3,5,6-tetrachlorohydroquinone	c
5-P-BETA-D-RIBOSYL-AMINE	5-phospho-&beta;-D-ribosylamine	cp
Nitroaromatic-Ox-Compounds	an oxidized nitroaromatic compound	c
CPD-19154	(S)-3-hydroxy-(7Z)-tetradecenoyl-CoA	p
DNA-deoxycytidine-thymidine-dimer	a dimer of non-adjacent 2'-deoxycytidine and thymidine in DNA	c
CPD-19488	3-isopropyl-9-(methylthio)-2-oxononanoate	cp
CPD-17640	18-hydroxystearate	c
KDO-LIPID-IVA	&alpha;-Kdo-(2&rarr;6)-lipid IVA	p
CPD-15568	2E)-tetradec-2-enoyl-CoA	c
INDOLEYL-CPD	(indole-3-yl)acetonitrile	c
CPD-19489	3-isopropyl-8-(methylthio)-2-oxooctanoate	cp
2-C-METHYL-D-ERYTHRITOL-4-PHOSPHATE	2-C-methyl-D-erythritol 4-phosphate	cp
3-Methyl-Saturated-Fatty-Acids	a 3-methyl-branched 2,3,4-saturated fatty acid	c
CPD0-1096	glucosamine 1,6-diphosphate	cp
DNA-pyrimidines	a pyrimidine nucleoside in DNA	p
CPD-19155	(S)-3-hydroxy-(9Z)-hexadecenoyl-CoA	p
DGDP	dGDP	c
OXALACETIC_ACID	oxaloacetate	cp
3-Methyl-Saturated-Fatty-Acyl-CoA	a 3-methyl-branched 2,3,4-saturated fatty acyl-CoA	p
LINOLENIC_ACID	&alpha;-linolenate	c
L-ASPARTATE-SEMIALDEHYDE	L-aspartate-semialdehyde	cp
UROPORPHYRINOGEN-III	uroporphyrinogen-III	c
3-OCTAPRENYL-4-HYDROXYBENZOATE	3-octaprenyl-4-hydroxybenzoate	cp
CPD-12303	undecaprenyl-diphospho-N-acetylmuramoyl-L-alanyl-&gamma;-D-glutamyl-L-lysyl- D-alanine	p
CPD-19490	3-isopropyl-7-(methylthio)-2-oxoheptanoate	cp
CPD-17641	18-hydroxystearoyl-CoA	p
CPD-6442	methylsalicylate	c
Hepta-oxo-hexadecanoyl-ACPs	a 3,5,7,9,11,13,15-hepta-oxo-hexadecanoyl-[PKS-acp]	c
Nitroaromatic-Red-Compounds	a reduced nitroaromatic compound	p
Malonyl-acp-methyl-ester	a malonyl-[acp] methyl ester	c
Reduced-ferredoxins	a reduced ferredoxin [iron-sulfur] cluster	cp
2-OCTAPRENYLPHENOL	2-octaprenylphenol	p
Lipoprotein-signal-peptide	a lipoprotein signal peptide	p
7-AMINOMETHYL-7-DEAZAGUANINE	preQ1	cp
AGMATHINE	agmatine	c
2-3-4-Saturated-L-Phosphatidates	a 1,2-diacyl-sn-glycerol 3-phosphate	c
THREO-DS-ISO-CITRATE	D-threo-isocitrate	cp
CPD-19159	(S)-3-hydroxy-(11Z)-octadecenoyl-CoA	p
Dodec-2-enoyl-ACPs	a (2E)-dodec-2-enoyl-[acp]	c
CPD-19491	3-isopropyl-6-(methylthio)-2-oxohexanoate	cp
Hex-2-enoyl-ACPs	a trans hex-2-enoyl-[acp]	c
CPD-12321	15-cis-phytoene	cp
SEROTONIN	serotonin	c
OXALO-SUCCINATE	oxalosuccinate	cp
INDOLE_ACETATE_AUXIN	(indol-3-yl)acetate	p
Decanoyl-ACPs	a decanoyl-[acp]	cp
Dodecanoyl-ACPs	a dodecanoyl-[acp]	cp
PYRUVATE	pyruvate	cp
2-CHLOROMALEYLACETATE	2-chloromaleylacetate	p
Hexanoyl-ACPs	a hexanoyl-[acyl-carrier-protein]	cp
Lipoyl-Protein-N6-lipoyllysine	a [lipoyl-carrier protein]-N6-lipoyl-L-lysine	p
CPD-688	hydrogenobyrinate a,c-diamide	c
CPD-19492	3-ethyl-2-oxosuccinate	cp
KDO2-LAUROYL-LIPID-IVA	&alpha;-Kdo-(2->4)-&alpha;-Kdo-(2->6)-(lauroyl)-lipid IVA	c
CPD-17701	4-deoxy-2-O-sulfo-&beta;-L-erythro-hex-4-enopyranuronosyl-(1,4)-D-N-sulfoglucosamine 6-O-sulfate	p
Relaxed-DNAs	a relaxed DNA	cp
CPD0-1123	N-acetyl-&beta;-neuraminate	p
CH3-MALONATE-S-ALD	(S)-methylmalonate-semialdehyde	cp
CPD-19161	(2E,7Z)-tetradecenoyl-CoA	cp
Donor-H2	a reduced electron acceptor	cp
Phosphoglucomutase	a phosphoglucomutase	cp
Resolution-of-Recombinational-Junction	resolution of recombinational junction formation of two intact strands	p
UDP-OHMYR-ACETYLGLUCOSAMINE	UDP-3-O-[(3R)-3-hydroxymyristoyl]-N-acetyl-&alpha;-D-glucosamine	c
2-ACETO-2-HYDROXY-BUTYRATE	(S)-2-aceto-2-hydroxybutanoate	c
CPD-650	(3R)-3-hydroxybutanoyl-CoA	p
Phosphorylated-phosphoglucomutase	a phosphorylated phosphoglucomutase	cp
rRNA-fragments	an rRNA fragment	p
HS	hydrogen sulfide	cp
Phosphoglucosamine-Mutase	a phosphoglucosamine mutase	cp
7-CYANO-7-DEAZAGUANINE	preQ0	cp
2-OXOBUTANOATE	2-oxobutanoate	cp
DNA-thymidine-deoxycytidine-dimer	a dimer of non-adjacent thymidine and 2'-deoxycytidine in DNA	c
CPD-195	octanoate	c
1-AMINO-PROPAN-2-ONE-3-PHOSPHATE	3-amino-1-hydroxyacetone 1-phosphate	cp
THZ-P	4-methyl-5-(2-phosphooxyethyl)thiazole	c
VERY-LONG-CHAIN-FATTY-ACYL-COA	a very long chain fatty acyl-CoA	p
5-P-RIBOSYL-N-FORMYLGLYCINEAMIDE	N2-formyl-N1-(5-phospho-&beta;-D-ribosyl)glycinamide	c
Double-Stranded-DNAs	a double stranded DNA	cp
2-D-THREO-HYDROXY-3-CARBOXY-ISOCAPROATE	(2R,3S)-3-isopropylmalate	cp
CPD-17813	(2E,11Z)-hexadec-2,11-dienoyl-CoA	c
MALONATE-S-ALD	3-oxopropanoate	c
Retinols	a retinol	p
Pre-tRNA-5-prime-half-molecules	a 5'-half-tRNA molecule with a 2',3'-cyclic phosphate end	cp
Delta4-hexadecenoyl-ACPs	a (4Z)-hexadec-4-enoyl-[acp]	c
CPD-689	cob(II)yrinate a,c-diamide	p
CPD-19162	(2E,9Z)-hexadecenoyl-CoA	cp
5-PHOSPHO-RIBOSYL-GLYCINEAMIDE	N1-(5-phospho-&beta;-D-ribosyl)glycinamide	p
KDO2-LIPID-A	&alpha;-D-Kdo-(2&rarr;4)-&alpha;-D-Kdo-(2&rarr;6)-lipid A	cp
Behenoyl-ACPs	a behenoyl-[acp]	c
CPD-196	octanoyl-CoA	p
N-ALPHA-ACETYLORNITHINE	N-acetyl-L-ornithine	cp
2-DEHYDROPANTOATE	2-dehydropantoate	cp
FMN	FMN	c
CPD-17814	(11Z)-(S)-3-hydroxyhexadec-11-enoyl-CoA	p
D-glucopyranose-6-phosphate	D-glucopyranose 6-phosphate	cp
THF-GLU-N	a tetrahydrofolate	cp
DNA-thymidine-dimer	a dimer of non-adjacent thymidines in DNA	c
3-OXO-EICOSAPENTAENOYL-ACP	a 3-oxo-docosapentaenoyl [acp]	c
EIF5A-LYSINE	an [eIF5A-precursor]-lysine	c
Phospholipid-Cyclopropane-Fatty-Acids	a [phospholipid] cyclopropane fatty acid	p
Rhodoquinols	a rhodoquinol	c
DGTP	dGTP	cp
GLUCOSAMINE-1P	D-glucosamine 1-phosphate	cp
Nonadjacent-pyrimidine-dimer-in-DNA	a dimer of non-adjacent pyrimidine nucleosides in DNA	c
UDP-OHMYR-GLUCOSAMINE	UDP-3-O-(3-hydroxymyristoyl)-&alpha;-D-glucosamine	cp
Phospholipid-Olefinic-Fatty-Acids	a [phospholipid] olefinic fatty acid	c
Rhodoquinones	a rhodoquinone	p
CPD-17927	a nascent peptidoglycan with (L-alanyl-&gamma;-D-glutamyl-meso-2,6-diaminopimeloyl-D-alanyl-D-alanine) pentapeptide	cp
AICAR	5-amino-1-(5-phospho-D-ribosyl)imidazole-4-carboxamide	cp
Prolipoprotein-Cysteines	a [prolipoprotein]-L-cysteine	c
Histone-Acetyl-Lysine	a [histone]-N6-acetyl-L-lysine	p
1-CHLORO-24-DINITROBENZENE	1-chloro-2,4-dinitrobenzene	cp
ssDNA-RNA-primer-hybrid	an ssDNA/RNA primer hybrid	p
CPD-19163	(2E,11Z)-octadecenoyl-CoA	cp
FMNH2	FMNH2	p
CPD-18	linoleoyl-CoA	p
Histone-L-lysine	a [histone]-L-lysine	c
Ribonucleoside-Diphosphates	a ribonucleoside diphosphate	p
UTP	UTP	cp
CPD-7535	9,15,9'-tri-cis-&zeta;-carotene	p
Propionyl-CoA-CO2-ligases	[propionyl-CoA:carbon-dioxide ligase (ADP-forming)]	p
5-10-METHENYL-THF-GLU-N	a 5,10-methenyltetrahydrofolate	cp
ssRNAs	a single-stranded RNA	cp
7E9E11Z14Z-5S6R-6-CYSTEIN-S-YL	leukotriene-E4	p
Ribonucleoside-Monophosphates	a ribonucleoside 5'-monophosphate	p
CPD-12575	UDP-&alpha;-D-glucose	cp
Phosphorylated-Phosphoglucosamine-Mutase	a phosphorylated phosphoglucosamine mutase	cp
Long-Chain-Acyl-CoAs	a long-chain acyl-CoA	p
PHOSPHORIBOSYL-AMP	1-(5-phospho-&beta;-D-ribosyl)-AMP	cp
Nonmethylated-Ribosomal-Protein-L11s	a non-methylated ribosomal protein L11	c
CPD0-1133	maltoheptaose	c
5-PHOSPHORIBOSYL-5-AMINOIMIDAZOLE	5-amino-1-(5-phospho-&beta;-D-ribosyl)imidazole	cp
