# 
#
# Authors:
#
# Please see the license agreement regarding the use of and distribution of this file.
# The format of this file is defined at http://bioinformatics.ai.sri.com/ptools/flatfile-format.html .
#
# Species: Streptomyces sp. Root431
# Database: NIL
# Version: 1.0
# File Name: species.dat
# Date and time generated: December 3, 2018, 12:03:28
#
# Attributes:
#    UNIQUE-ID
#    TYPES
#    COMMON-NAME
#    BIOMASS-TEMPLATES
#    CCO-INSTANCES
#    CITATIONS
#    COMMENT
#    CONTACT-EMAIL
#    CREDITS
#    DATA-SOURCE
#    DBLINKS
#    DOCUMENTATION
#    GENETIC-CODE
#    GENOME
#    GENOME-UPDATE-DATE
#    HIDDEN-NAMES
#    HIDE-SLOT?
#    INFERENCE-STATS
#    INSTANCE-NAME-TEMPLATE
#    MEMBER-SORT-FN
#    MITOCHONDRIAL-GENETIC-CODE
#    PATHOLOGIC-NAME-MATCHER-EVIDENCE
#    PATHOLOGIC-PWY-EVIDENCE
#    PGDB-AUTHORS
#    PGDB-COPYRIGHT
#    PGDB-FOOTER-CITATION
#    PGDB-HOME-PAGE
#    PGDB-LAST-CONSISTENCY-CHECK
#    PGDB-NAME
#    PGDB-TIER
#    PGDB-TYPE
#    PGDB-UNIQUE-ID
#    RANK
#    SEQUENCE-SOURCE
#    STRAIN-NAME
#    SUBSPECIES-NAME
#    SYNONYMS
#
UNIQUE-ID - GCA_001426585_1_ROOT431
TYPES - TAX-1736535
COMMON-NAME - Streptomyces sp. Root431
CCO-INSTANCES - CCI-PILUS-GP
CCO-INSTANCES - CCI-FLAGELLUM-GP
CCO-INSTANCES - CCI-CYTOSKELETON-GP
CCO-INSTANCES - CCI-RIBOSOME-GP
CCO-INSTANCES - CCI-BAC-NUCLEOID-GP
CCO-INSTANCES - CCI-CW-BAC-ACT-GP
CCO-INSTANCES - CCI-S-LAYER-GP
CCO-INSTANCES - CCI-OUTER-MEM-ACT-GP
CCO-INSTANCES - CCI-PM-BAC-ACT-GP
CCO-INSTANCES - CCI-EXTRACELLULAR-GP
CCO-INSTANCES - CCI-PERI-ACT-GP
CCO-INSTANCES - CCI-CYTOSOL-GP
COMMENT - This Pathway/Genome Database (PGDB) was generated by the PathoLogic |CITS: [19955237],[22675592],[24225315]| component of <a href="http://pathwaytools.org/">Pathway Tools</a> software version 22.0 and <a href="http://metacyc.org/">MetaCyc</a> version 22.0 on 03-Dec-2018  12:00:56.
DBLINKS - (BIOSAMPLE "SAMN04155804" NIL |root| 3752827274 NIL NIL)
DBLINKS - (NCBI-BIOPROJECT "PRJNA297942" NIL |root| 3752827274 NIL NIL)
DBLINKS - (NCBI-TAXONOMY-DB "1736535" NIL |root| 3752827272 NIL NIL)
GENETIC-CODE - 11
GENOME - LMEI01000001
GENOME - LMEI01000002
GENOME - LMEI01000003
GENOME - LMEI01000004
GENOME - LMEI01000005
GENOME - LMEI01000006
GENOME - LMEI01000007
GENOME - LMEI01000008
GENOME - LMEI01000009
GENOME - LMEI01000010
GENOME - LMEI01000011
GENOME - LMEI01000012
GENOME - LMEI01000013
GENOME-UPDATE-DATE - 02-NOV-2015
MITOCHONDRIAL-GENETIC-CODE - 0
PGDB-UNIQUE-ID - 2X
RANK - |species|
STRAIN-NAME - NIL
NCBI-TAXONOMY-ID - PRJNA297942
