dbRef_id	Common name	Produced (p), Consumed (c), Both (cp)
HX	HX	p
HYDANTOIN	hydantoin	cp
CPD-12634	(glutathion-S-yl)(1H-indol-3-yl)acetonitrile	p
RIBULOSE-5P	D-ribulose 5-phosphate	cp
HYDROGEN-PEROXIDE	hydrogen peroxide	cp
D-GLUCOSAMINE-6-P	D-glucosamine 6-phosphate	cp
CPD-12651	phthalate 4,5-cis-dihydrodiol	p
CPD-520	quercetin	p
Alkanesulfonates	an alkylsulfonate	c
CPD-12703	gentisyl-CoA	p
ANTHRANILATE	anthranilate	cp
Alkyl-Hydro-Peroxides	an organic hydroperoxide	c
CPD-12760	(R)-4-phosphopantoate	c
Alkyl-Thiols	an alkyl-thiol	cp
HYDROXY-METHYL-BUTENYL-DIP	(E)-4-hydroxy-3-methylbut-2-en-1-yl diphosphate	cp
POLYPRENYLPHOSPHATE-GLUCOSE	a polyprenylphosphate-glucose	p
CPD-12773	&alpha;-D-glucopyranosyl-diphosphoundecaprenol	p
CPD-534	D-myo-inositol (1,2,4,5,6)-pentakisphosphate	p
RNA-DNA-hybrids	a RNA-DNA hybrid	c
RNA-Holder	a ribonucleic acid	cp
CPD-12849	(1E,3E)-4-hydroxybuta-1,3-diene-1,2,4-tricarboxylate	cp
APS	adenosine 5'-phosphosulfate	cp
PORPHOBILINOGEN	porphobilinogen	cp
CPD-548	S-formylglutathione	cp
CPD-20827	phenolyl-Co&beta;-adenosylcobamide 5'-phosphate	p
DNA-Cytosines	a cytosine in DNA	c
5-OXOPROLINE	5-oxo-L-proline	c
CPD-20828	4-methylphenolyl-Co&beta;-adenosylcobamide 5'-phosphate	p
RNASE-III-MRNA-PROCESSING-SUBSTRATE	RNase III mRNA processing substrate	c
2-AMINOACRYLATE	2-aminoprop-2-enoate	p
Purine-ribonucleosides-5-PP	a purine ribonucleoside 5'-diphosphate	p
5-P-BETA-D-RIBOSYL-AMINE	5-phospho-&beta;-D-ribosylamine	cp
CPD-20829	[(2R,3S,4R,5S)-5-(1,3-benzodiazol-1-yl)-3,4-dihydroxyoxolan-2-yl]methyl phosphate	cp
RNASE-III-PROCESSING-PRODUCT-MRNA	RNase III processing product mRNA	p
Purine-ribonucleosides-5-PPP	a purine ribonucleoside 5'-triphosphate	c
2-AMINOMUCONATE_SEMIALDEHYDE	(2Z,4E)-2-amino-6-oxohexa-2,4-dienoate	c
CPD-20830	[(2R,3S,4R,5S)-3,4-dihydroxy-5-(5-hydroxy-1,3-benzodiazol-1-yl)oxolan-2-yl]methyl phosphate	p
D-LACTATE	(R)-lactate	p
RNASE-R-DEGRADATION-SUBSTRATE-RNA	RNase R degradation substrate RNA	c
CPD-20831	[(2R,3S,4R,5S)-3,4-dihydroxy-5-(5-methoxy-1,3-benzodiazol-1-yl)oxolan-2-yl]methyl phosphate	cp
CPD-20832	[(2R,3S,4R,5S)-3,4-dihydroxy-5-(5-methoxy-6-methyl-1,3-benzodiazol-1-yl)oxolan-2-yl]methyl phosphate	cp
ACETYL-GLU	N-acetyl-L-glutamate	cp
CPD-20833	Co&alpha;-[a-(benzimidazolyl)]-Co&beta;-adenosylcobamide 5'-phosphate	p
Beta-3-hydroxybutyryl-ACPs	a (3R)-3-hydroxybutanoyl-[acp]	cp
3-DEHYDRO-SHIKIMATE	3-dehydroshikimate	cp
NADP	NADP+	cp
CPD-20836	Co&alpha;-[a-(5-methoxy-6-methyl-benzimidazolyl)]-Co&beta;-adenosylcobamide 5'-phosphate	p
Beta-D-Fructofuranosides	a &beta;-D-fructofuranoside	c
CPD-20838	[(2R,3S,4R,5S)-3,4-dihydroxy-5-(5-methyl-1,3-benzodiazol-1-yl)oxolan-2-yl]methyl phosphate	cp
CPD-20839	Co&alpha;-[a-(5-methylbenzimidazolyl)]-Co&beta;-adenosylcobamide 5'-phosphate	p
2-C-METHYL-D-ERYTHRITOL-4-PHOSPHATE	2-C-methyl-D-erythritol 4-phosphate	cp
5-P-RIBOSYL-N-FORMYLGLYCINEAMIDE	N2-formyl-N1-(5-phospho-&beta;-D-ribosyl)glycinamide	c
CPD-20840	7-&alpha;-D-ribosyladenine	c
CPD-20841	(2S,3R,4S,5R)-2-(5-hydroxy-1,3-benzodiazol-1-yl)-5-(hydroxymethyl)oxolane-3,4-diol	c
CPD-20849	Co&alpha;-[a-(5-hydroxybenzimidazolyl)]-Co&beta;-adenosylcobamide	p
5-PHOSPHO-RIBOSYL-GLYCINEAMIDE	N1-(5-phospho-&beta;-D-ribosyl)glycinamide	p
Beta-hydroxydecanoyl-ACPs	a (3R)-3-hydroxydecanoyl-[acp]	p
RX	RX	c
CPD-237	(indol-3-yl)acetamide	c
D-MANNONATE	D-mannonate	c
2-CHLOROMALEYLACETATE	2-chloromaleylacetate	cp
DNA-Holder	DNA	p
Biotin-EC6-4-1-4	a [methylcrotonoyl-CoA carboxylase]-biotin-N6-L-lysine	p
NADPH	NADPH	cp
5-PHOSPHORIBOSYL-5-AMINOIMIDAZOLE	5-amino-1-(5-phospho-&beta;-D-ribosyl)imidazole	cp
2-D-THREO-HYDROXY-3-CARBOXY-ISOCAPROATE	(2R,3S)-3-isopropylmalate	cp
CPD-245	3-carboxy-cis,cis-muconate	p
2-DEHYDRO-3-DEOXY-D-GLUCONATE	2-dehydro-3-deoxy-D-gluconate	cp
PHE	L-phenylalanine	cp
OCTADEC-9-ENE-118-DIOIC-ACID	&alpha;,&omega;-9Z-octadecenedioate	c
MET	L-methionine	cp
GDP	GDP	cp
CHITIN	chitin	cp
TRANS-2-CHLORO-4-CARBOXYMETHYLENEBUT-2-E	2-chloro-trans-dienelactone	c
SN-GLYCEROL-1-PHOSPHATE	sn-glycerol 1-phosphate	p
Oxidized-2Fe-2S-Ferredoxins	an oxidized [2Fe-2S] ferredoxin	p
CPD-19151	(S)-3-hydroxy-(5Z)-dodecenoyl-CoA	p
CPD0-1096	glucosamine 1,6-diphosphate	cp
D-METHYL-MALONYL-COA	(S)-methylmalonyl-CoA	cp
Oxidized-Amicyanins	an oxidized amicyanin	c
OCTANOL	1-octanol	p
DNA-N	DNAn	cp
Oxidized-CycA1-cytochromes	an oxidized CycA1 cytochrome	p
CPD0-1133	maltoheptaose	c
Oxidized-Factor-F420	an oxidized coenzyme F420	cp
OCTAPRENYL-DIPHOSPHATE	all-trans-octaprenyl diphosphate	c
CPD-19153	3-oxo-(5Z)-dodecenoyl-CoA	c
GDP-4-DEHYDRO-6-DEOXY-D-MANNOSE	GDP-4-dehydro-&alpha;-D-rhamnose	p
D-MYO-INOSITOL-1-MONOPHOSPHATE	1D-myo-inositol 1-monophosphate	c
CHITOBIOSE	N,N'-diacetylchitobiose	cp
SO3	sulfite	cp
Oxidized-NrdH-Proteins	an oxidized NrdH glutaredoxin-like protein	p
CPD0-1147	methyl red	c
LYS	L-lysine	cp
CPD-19154	(S)-3-hydroxy-(7Z)-tetradecenoyl-CoA	p
Oxidized-Rubredoxins	an oxidized rubredoxin	p
LYS-tRNAs	a tRNALys	c
METHACRYLYL-COA	methylacrylyl-CoA	cp
GLYOX	glyoxylate	cp
CPD-19155	(S)-3-hydroxy-(9Z)-hexadecenoyl-CoA	p
CPD0-1148	N,N'-dimethyl-p-phenylenediamine	p
TRANS-23-DEHYDROADIPYL-COA	trans-2,3-dehydroadipyl-coA	cp
Oxidized-ferredoxins	an oxidized ferredoxin [iron-sulfur] cluster	cp
GDP-D-GLUCOSE	GDP-&alpha;-D-glucose	c
CPD-19157	3-oxo-(7Z)-tetradecenoyl-CoA	c
DATP	dATP	cp
L-BETA-ASPARTYL-P	L-aspartyl-4-phosphate	cp
Oxo-glutarate-dehydro-suc-DH-lipoyl	a [2-oxoglutarate dehydrogenase E2 protein] N6-S-succinyldihydrolipoyl-L-lysine	cp
TRANS-3-METHYL-GLUTACONYL-COA	3-methylglutaconyl-CoA	p
Oxo-glutarate-dehydrogenase-DH-lipoyl	a [2-oxoglutarate dehydrogenase E2 protein] N6-dihydrolipoyl-L-lysine	cp
SOLANESYL-PYROPHOSPHATE	all-trans-nonaprenyl diphosphate	c
AGMATHINE	agmatine	c
L-CANALINE	L-canaline	p
CPD-19158	3-oxo-(9Z)-hexadecenoyl-CoA	c
SPERMIDINE	spermidine	cp
Oxo-glutarate-dehydrogenase-lipoyl	a [2-oxoglutarate dehydrogenase E2 protein] N6-lipoyl-L-lysine	cp
D-SEDOHEPTULOSE-7-P	D-sedoheptulose 7-phosphate	cp
HEPARIN	heparin	c
CHOCOLA_A	all-trans-retinyl palmitate	c
P-AMINO-BENZOATE	4-aminobenzoate	cp
CPD-19159	(S)-3-hydroxy-(11Z)-octadecenoyl-CoA	p
TRANS-D2-ENOYL-ACP	a trans-2-enoyl-[acyl-carrier protein]	cp
TRANS-D2-ENOYL-COA	a (2E)-alkan-2-enoyl-CoA	cp
HEXANOYL-COA	hexanoyl-CoA	cp
P-COUMAROYL-COA	4-coumaroyl-CoA	c
DCDP	dCDP	cp
OCTAPRENYL-METHYL-OH-METHOXY-BENZQ	3-demethylubiquinol-8	c
CPD-19160	3-oxo-(11Z)-octadecenoyl-CoA	c
L-CITRULLINE	L-citrulline	cp
CPD0-1162	(2E,5Z)-tetradecenoyl-CoA	cp
AICAR	5-amino-1-(5-phospho-D-ribosyl)imidazole-4-carboxamide	cp
L-CYSTATHIONINE	L-cystathionine	cp
3-UREIDO-ISOBUTYRATE	3-(carbamoylamino)-2-methylpropanoate	cp
CPD-1083	(E)-2-methylcrotonoyl-CoA	cp
3-DEOXY-D-ARABINO-HEPTULOSONATE-7-P	3-deoxy-D-arabino-heptulosonate 7-phosphate	cp
CPD-558	pimeloyl-CoA	c
4-CARBOXYMETHYLENEBUT-2-EN-4-OLIDE	cis-dienelactone	c
CREATINE	creatine	cp
CPD-7545	S-(phenylacetothiohydroximoyl)-L-cysteine	cp
DNA-Segment-Placeholder	a DNA segment	cp
D-TAGATURONATE	D-tagaturonate	cp
FMN	FMN	cp
HYDROXYMETHYLBILANE	preuroporphyrinogen	cp
CPD-7546	S-(4-methylthiobutylhydroximoyl)-L-cysteine	cp
PHE-tRNAs	a tRNAPhe	p
DNA-Segment-in-Reverse-Orientations	a DNA segment in reverse orientation	cp
FMNH2	FMNH2	cp
CPD-17365	(4Z,7Z,10Z,13Z,16Z)-docosapentaenoyl-CoA	p
CPD-7601	(2S)-lactyl-2-diphospho-5'-guanosine	cp
3-UREIDO-PROPIONATE	3-ureidopropanoate	cp
CPD-10055	(1R,2R,4S)-limonene-1,2-diol	p
DNA-With-GO	a 7,8-dihydro-8-oxoguanine in DNA	c
PYRUVATE	pyruvate	cp
CPD-7602	7,8-didemethyl-8-hydroxy-5-deazariboflavin	c
CPD-5662	9-mercaptodethiobiotin	cp
VANILLATE	vanillate	c
3-ENOLPYRUVYL-SHIKIMATE-5P	5-enolpyruvoyl-shikimate 3-phosphate	cp
4-CYTIDINE-5-DIPHOSPHO-2-C	4-(cytidine 5'-diphospho)-2-C-methyl-D-erythritol	cp
DNA-With-GO-A-Mismatch	DNA with adenine:7,8-dihydro-8-oxoguanine mismatch	c
CPD-110	salicylate	p
GDP-MANNOSE	GDP-&alpha;-D-mannose	c
CPD-11020	5-chloro-4-hydroxy-2-oxopentanoate	p
4-FUMARYL-ACETOACETATE	4-fumaryl-acetoacetate	cp
CPD-17370	18-hydroxyoleoyl-CoA	cp
D-XYLULOSE	D-xylulose	cp
3-hydroxy-cis-D7-tetraecenoyl-ACPs	a (3R)-3-hydroxy cis &Delta;7-tetradecenoyl-[acp]	p
CPD-5881	(6R)-4a-hydroxy-tetrahydrobiopterin	c
CPD-763	arsenite	p
3-hydroxy-cis-D9-hexaecenoyl-ACPs	a (3R)-3-hydroxy cis &Delta;9-hexadecenoyl-[acp]	p
3-hydroxypimeloyl-ACP-methyl-esters	a (3R)-3-hydroxypimeloyl-[acp] methyl ester	p
CPD-1113	6-(&alpha;-D-glucosaminyl)-1-phosphatidyl-1D-myo-inositol	p
3-HEXAPRENYL-4-HYDROXYBENZOATE	3-hexaprenyl-4-hydroxybenzoate	p
CPD-17372	1-[18-hydroxyoleyl]-2-lyso-phosphatidate	p
3-methylcrotonoyl-CoA-carboxylase-lysine	a [3-methylcrotonoyl-CoA-carboxylase]-L-lysine	c
CREATININE	creatinine	cp
CPD-7671	methanethiol	cp
DNA-With-Hypoxanthines	a DNA with hypoxanthine	c
3-oxo-arachidoyl-ACPs	a 3-oxo-arachidoyl-[acp]	c
CPD-7695	ditrans,octacis-undecaprenyldiphospho-N-acetyl-(N-acetyl-&beta;-D-glucosaminyl)muramoyl-L-alanyl-&gamma;-D-glutamyl-L-lysyl-D-alanyl-D-alanine	p
CPD-592	4-guanidinobutanoate	p
3-oxo-behenoyl-ACPs	a 3-oxo-behenoyl-[acp]	cp
4-GUANIDO-BUTYRAMIDE	4-guanidinobutyramide	c
3-oxo-cerotoyl-ACPs	a 3-oxo-cerotoyl-[acp]	c
CPD-17386	(2E,6Z,9Z,12Z,15Z,18Z,21Z)-tetracosaheptaenoyl-CoA	c
3-HYDROXY-3-METHYL-GLUTARYL-COA	(S)-3-hydroxy-3-methylglutaryl-CoA	cp
4-HYDROXY-2-KETOVALERATE	(S)-4-hydroxy-2-oxopentanoate	cp
3-oxo-cis-D7-tetradecenoyl-ACPs	a 3-oxo-cis-&Delta;7-tetradecenoyl-[acp]	cp
CPD-597	N-carbamoylputrescine	cp
CPD-11244	an unsaturated pectate oligosaccharide	cp
3-oxo-cis-D9-hexadecenoyl-ACPs	a 3-oxo-cis-&Delta;9-hexadecenoyl-[acp]	cp
HYPOXANTHINE	hypoxanthine	cp
CPD-14704	4-hydroxy-2-nonenal-glutathione conjugate	p
Red-NADPH-Hemoprotein-Reductases	a reduced [NADPH-hemoprotein reductase]	c
CPD-1301	tetrahydropteroyl tri-L-glutamate	cp
Red-Thioredoxin	a reduced thioredoxin	cp
CPD-14772	hexadecanedioyl-CoA	cp
D-Xylopyranose	D-xylopyranose	cp
UDP-N-ACETYL-D-GLUCOSAMINE	UDP-N-acetyl-&alpha;-D-glucosamine	cp
DNA-containing-a-Apyrimidinic-Sites	an apyrimidinic site in DNA	p
Reduced-2Fe-2S-Ferredoxins	a reduced [2Fe-2S] ferredoxin	c
Reduced-Amicyanins	a reduced amicyanin	p
All-tRNAs	a tRNA	p
CPD-148	n-octane	c
Reduced-CycA1-cytochromes	a reduced CycA1 cytochrome	c
CPD-1302	5-methyltetrahydropteroyl tri-L-glutamate	cp
Reduced-Factor-F420	a reduced coenzyme F420	cp
All-trans-Retinyl-Esters	an all-trans-retinyl ester	c
Alpha-6-alpha-14-glucans	a (1,6)-&alpha;-D-glucosyl-(1,4)-&alpha;-glucan	p
CPD-14828	1-C16:0-&alpha;,&omega;-dicarboxyl-2-lysophosphatidate	cp
UDP-N-ACETYLMURAMATE	UDP-N-acetyl-&alpha;-D-muramate	cp
Alpha-Amyloses	&alpha;-amylose	c
Reduced-NrdH-Proteins	a reduced NrdH glutaredoxin-like protein	c
ARG	L-arginine	cp
DNA-containing-aPurinic-Sites	an apurinic site within DNA	p
Reduced-Rubredoxins	a reduced rubredoxin	c
PPI	diphosphate	cp
CPD-13043	7-carboxy-7-deazaguanine	cp
GDP-TP	pppGpp	p
Alpha-omega-dicarboxylates	an &alpha;,&omega;-dicarboxylate	c
DNA-containing-abasic-Sites	a DNA containing an apurinic/apyrimidinic site	c
Reduced-ferredoxins	a reduced ferredoxin [iron-sulfur] cluster	cp
CPD-13086	(9Z)-12,13-dihydroxyoctadeca-9-enoate	p
Relaxed-DNAs	a relaxed DNA	cp
D-glucopyranose-6-phosphate	D-glucopyranose 6-phosphate	cp
Resolution-of-Recombinational-Junction	resolution of recombinational junction formation of two intact strands	p
CPD-14925	(3Z)-dec-3-enoyl-CoA	p
ARG-tRNAs	a tRNAArg	cp
CPD-14927	phytenate	c
Retinols	a retinol	p
DNA-containing-diamino-hydro-formamidops	a ring-opened 7-methylguanine in DNA	c
CPD-13089	(12Z,15Z)-9,10-epoxyoctadeca-12,15-dienoate	c
Rhodoquinols	a rhodoquinol	c
CPD-14928	phytenoyl-CoA	p
Amino-Acids	an amino acid	c
Rhodoquinones	a rhodoquinone	p
Amino-Acids-20	a proteinogenic amino acid	cp
Ribonucleoside-Diphosphates	a ribonucleoside diphosphate	cp
CPD-13090	(9Z,15Z)-12,13-epoxy-octadeca-9,15-dienoate	c
Ribonucleoside-Monophosphates	a ribonucleoside 5'-monophosphate	p
Butanoyl-ACPs	a butanoyl-[acp]	cp
DNA-deoxycytidine-dimer	a dimer of non-adjacent 2'-deoxycytidines in DNA	c
CPD0-1163	(S)-3-hydroxy-(5Z)-tetradecenoyl-CoA	p
DADP	dADP	cp
C1	UDP-N-acetyl-&alpha;-D-muramoyl-L-alanyl-&gamma;-D-glutamyl-meso-2,6-diaminopimeloyl-D-alanyl-D-alanine	cp
Diacylglycerol-Prolipoproteins	an [apolipoprotein]-(S-diacylglyceryl)-L-cysteine	p
ISOQUINOLIN-12H-ONE	isoquinolin-2(1H)-one	p
CPD0-1456	UDP-N-acetyl-&alpha;-D-muramoyl-L-alanine	cp
Dihydro-Lipoyl-Proteins	a [lipoyl-carrier protein] N6-dihydrolipoyl-L-lysine	c
DNA-deoxycytidine-thymidine-dimer	a dimer of non-adjacent 2'-deoxycytidine and thymidine in DNA	c
C3	UDP-N-acetyl-&alpha;-D-muramoyl-L-alanyl-&gamma;-D-glutamyl-L-lysyl-D-alanyl-D-alanine	cp
L-CYSTEATE	L-cysteate	cp
DNA-pyrimidines	a pyrimidine nucleoside in DNA	p
CPD0-1699	6-carboxy-5,6,7,8-tetrahydropterin	c
L-Cysteine-Desulfurase-persulfide	an [L-cysteine desulfurase]-S-sulfanyl-L-cysteine	cp
TREHALOSE-6P	&alpha;,&alpha;-trehalose 6-phosphate	p
C4	undecaprenyl-diphospho-N-acetylmuramoyl-L-alanyl-&gamma;-D-glutamyl-L-lysyl- D-alanyl-D-alanine	cp
PHENYL-PYRUVATE	keto-phenylpyruvate	cp
CPD0-181	N5-carboxyaminoimidazole ribonucleotide	c
Dipeptides-With-Asp-At-N-Terminal	a dipetide with an N-terminal L-aspartate	c
L-Cysteine-Desulfurases	an [L-cysteine desulfurase]	c
ACETYLSERINE	O-acetyl-L-serine	cp
L-DELTA1-PYRROLINE_5-CARBOXYLATE	(S)-1-pyrroline-5-carboxylate	c
DNA-thymidine-deoxycytidine-dimer	a dimer of non-adjacent thymidine and 2'-deoxycytidine in DNA	c
Dipeptides-With-Proline-Carboxy	a dipeptide with proline at the C-terminal	c
L-GAMMA-GLUTAMYLCYSTEINE	&gamma;-L-glutamyl-L-cysteine	cp
Diribonucleotide	a diribonucleotide	p
C5	undecaprenyldiphospho-N-acetylmuramoyl-L-alanyl-&gamma;-D-glutamyl-meso-2,6-diaminopimeloyl-D-alanyl-D-alanine	cp
PHENYLACETALDOXIME	(Z)-phenylacetaldehyde oxime	c
DNA-thymidine-dimer	a dimer of non-adjacent thymidines in DNA	c
C6	ditrans,octacis-undecaprenyldiphospho-[(N-acetyl-&beta;-D-glucosaminyl)-(1,4)-]-N-acetyl-&alpha;-D-muramoyl-L-alanyl-&gamma;-D-glutamyl-meso-2,6-diaminopimeloyl-D-alanyl-D-alanine	cp
CPD0-1958	3-(N-morpholino)propanesulfonate	c
5-PHOSPHORIBOSYL-N-FORMYLGLYCINEAMIDINE	2-(formamido)-N1-(5-phospho-&beta;-D-ribosyl)acetamidine	cp
Monocarboxylates	a monocarboxylate	p
Monocarboxylic-Acid-Amides	a monocarboxylic acid amide	c
DIHYDRO-DIOH-BENZOATE	(2S,3S)-2,3-dihydroxy-2,3-dihydrobenzoate	p
3-oxo-cis-vaccenoyl-ACPs	a 3-oxo-cis-vacc-11-enoyl-[acp]	cp
PRECURSOR-Z	cyclic pyranopterin phosphate	c
CPD-290	3,5-cyclohexadiene-1,2-diol-1-carboxylate	c
ISOQUINOLINE	isoquinoline	c
3-oxo-decanoyl-ACPs	a 3-oxo-decanoyl-[acp]	cp
FORMALDEHYDE	formaldehyde	p
DNA-thymidines	a thymidine in DNA	p
CPD-294	2-maleylacetate	cp
CTP	CTP	cp
3-oxo-dodecanoyl-ACPs	a 3-oxo-dodecanoyl-[acp]	cp
HIS	L-histidine	cp
CPD-7737	(2-carboxy-2,5-dihydro-5-oxofuran-2-yl)-acetate	c
DIHYDRO-NEO-PTERIN	7,8-dihydroneopterin	c
OH-ACYL-ACP	a (3R)-3-hydroxyacyl-[acyl-carrier protein]	cp
HIS-tRNAs	a tRNAHis	c
DCMP	dCMP	cp
3-oxo-hexanoyl-ACPs	a 3-oxo-hexanoyl-[acp]	cp
PREPHENATE	prephenate	cp
OH-HEXANOYL-COA	(S)-3-hydroxyhexanoyl-CoA	c
DIHYDRO-THYMINE	5,6-dihydrothymine	cp
5-Phospho-terminated-DNAs	a 5'-phospho-[DNA]	p
SS-Oligodeoxyribonucleotides	a single-stranded oligodeoxyribonucleotide	p
PUTRESCINE	putrescine	cp
STEARIC_ACID	stearate	c
3-oxo-lignoceroyl-ACPs	a 3-oxo-lignoceroyl-[acp]	c
CPD-784	5-carboxymethyl-2-hydroxymuconate	c
DNA-with-Uracils	a uracil in DNA	c
3-oxo-myristoyl-ACPs	a 3-oxo-myristoyl-[acp]	cp
Palmitoleoyl-ACPs	a palmitoleoyl-[acp]	c
3-oxo-palmitoyl-ACPs	a 3-oxo-palmitoyl-[acp]	cp
OH-MYRISTOYL	UDP-2-N,3-O-bis[(3R)-3-hydroxytetradecanoyl]-&alpha;-D-glucosamine	c
Palmitoyl-ACPs	a palmitoyl-[acp]	cp
CPD-2961	D-gluconate 6-phosphate	p
3-oxo-petroselinoyl-ACPs	a 3-oxo-petroselinoyl-[acp]	cp
ISOVALERATE	isovalerate	c
CPD-785	(3E,5R)-5-carboxy-2-oxohept-3-enedioate	cp
STEAROYL-COA	stearoyl-CoA	p
OH-PYR	hydroxypyruvate	cp
3-oxo-stearoyl-ACPs	a 3-oxo-stearoyl-[acp]	cp
DCTP	dCTP	cp
Myristoyl-ACPs	a myristoyl-[acp]	cp
3-terminal-unsaturated-sugars	a 3'-terminal unsaturated sugar	p
N-4-aminobutylidene-eIF5A-lysine	an [eIF5A-precursor]-N-(4-aminobutylidene)-lysine	cp
FORMAMIDE	formamide	c
ISOVALERYL-COA	isovaleryl-CoA	cp
CPD-31	(R)-citramalate	cp
DAMP	dAMP	p
CPD-786	(4Z)-2-oxohept-4-enedioate	p
CPD-313	propane-1,3-diamine	p
N-4-aminobutylidene-enzyme-lysine	a [deoxyhypusine synthase]-N-(4-aminobutylidene)-lysine	cp
SUC	succinate	cp
DIHYDROFOLATE	7,8-dihydrofolate monoglutamate	p
Peptides-holder	a peptide	p
SUC-COA	succinyl-CoA	cp
Light	h&nu;	c
N-5-PHOSPHORIBOSYL-ANTHRANILATE	N-(5-phosphoribosyl)-anthranilate	cp
DIHYDROFOLATE-GLU-N	a 7,8-dihydrofolate	p
Limonene-1-2-diols	a limonene-1,2-diol	cp
METHIONYL-PEPTIDE	an N-terminal L-methionyl-[protein]	p
N-ACETYL-D-GLUCOSAMINE	N-acetyl-&beta;-D-glucosamine	p
Limonene-1-2-epoxides	a limonene-1,2-epoxide	cp
N-ACETYL-D-GLUCOSAMINE-1-P	N-acetyl-&alpha;-D-glucosamine 1-phosphate	cp
CPD-787	(2Z,4Z)-2-hydroxyhepta-2,4-dienedioate	cp
Persulfurated-L-cysteine-desulfurases	an S-sulfanyl-[L-cysteine desulfurase]	p
CPD-316	reduced riboflavin	p
FORMATE	formate	cp
CPD-8180	DNA with lesion	c
CPD-19161	(2E,7Z)-tetradecenoyl-CoA	cp
P-HYDROXY-PHENYLPYRUVATE	4-hydroxyphenylpyruvate	cp
4-HYDROXY-L-PROLINE	trans-4-hydroxy-L-proline	p
Ribonucleoside-Triphosphates	a ribonucleoside triphosphate	c
DODECANOATE	laurate	c
CPD-600	N-formyl-L-glutamate	cp
CPD-19162	(2E,9Z)-hexadecenoyl-CoA	cp
2-DEHYDROPANTOATE	2-dehydropantoate	cp
CPD-1130	3-ethylmalate	cp
VERY-LONG-CHAIN-FATTY-ACYL-COA	a very long chain fatty acyl-CoA	p
GLUTARATE	glutarate	cp
Halide-Anions	a halide anion	p
CPD-19163	(2E,11Z)-octadecenoyl-CoA	cp
Ribosomal-protein-S12-3-methylthio-Asp89	a [ribosomal protein S12]-3-methylsulfanyl-L-aspartate89	p
Ribosomal-protein-S12-Asp89	a [ribosomal protein S12] L-aspartate89	c
3-HYDROXY-DOCOSAPENTAENOYL-ACP	a (3R)-3-hydroxy-docosapentaenoyl-[acp]	p
CPD-11444	uroporphyrinogen-I	c
S-2-Haloacids	an (S)-2-haloacid	c
Vernolates	vernolate	c
S-2-Hydroxyacids1	an (S)-2-hydroxyacid	p
CPD-19167	3-oxo-(7Z)-hexadecenoyl-CoA	c
3-HYDROXY-ISOVALERYL-COA	3-hydroxyisovaleryl-CoA	cp
S-2-INDOL-3-YLACETYL-COA	S-2-(indol-3 yl)acetyl-CoA	cp
DPG	3-phospho-D-glyceroyl-phosphate	cp
CPD-6321	a [procollagen] trans 4-hyroxy-L-proline	p
CPD-11495	(2-hydroxyphenyl)acetate	p
CPD-19168	(S)-3-hydroxy-(7Z)-hexadecenoyl-CoA	p
S-24-DINITROPHENYLGLUTATHIONE	2,4-dinitrophenyl-S-glutathione	cp
3-HYDROXY-PROPIONATE	3-hydroxypropanoate	p
Hepta-oxo-hexadecanoyl-ACPs	a 3,5,7,9,11,13,15-hepta-oxo-hexadecanoyl-[PKS-acp]	c
2-HYDROXY-2-METHYLPROPANENITRILE	2-hydroxy-2-methylpropanenitrile	cp
Very-long-chain-fatty-acids	a very-long-chain fatty acid	c
P-RIBOSYL-4-SUCCCARB-AMINOIMIDAZOLE	5'-phosphoribosyl-4-(N-succinocarboxamide)-5-aminoimidazole	cp
GLUTARYL-COA	glutaryl-CoA	p
CPD-19169	3-oxo-(9Z)-octadecenoyl-CoA	c
3-HYDROXYADIPYL-COA	(3S)-hydroxyadipyl-CoA	cp
CPD-11518	3-oxo-2-(cis-2'-pentenyl)-cyclopentane-1-(E-octa-2-enoyl)-CoA	c
Hex-2-enoyl-ACPs	a trans hex-2-enoyl-[acp]	c
Hexanoyl-ACPs	a hexanoyl-[acyl-carrier-protein]	cp
S-3-HYDROXYBUTANOYL-COA	(S)-3-hydroxybutanoyl-CoA	p
CPD-11519	3-oxo-2-(cis-2'-pentenyl)-cyclopentane-1-(3R-hydroxyoctanoyl)-CoA	p
CPD-19170	(2E,7Z)-hexadecenoyl-CoA	cp
4-Hydroxy-3-polyprenylbenzoates	a 4-hydroxy-3-polyprenylbenzoate	p
CPD-11520	3-oxo-2-(cis-2'-pentenyl)-cyclopentane-1-(3-oxooctanoyl)-CoA	c
4-IMIDAZOLONE-5-PROPIONATE	4-imidazolone-5-propanoate	cp
WATER	H2O	cp
CPD-19171	(S)-3-hydroxy-(9Z)-octadecenoyl-CoA	p
2-HYDROXYPHYTANOYL-COA	2-hydroxyphytanoyl-CoA	p
CPD-6442	methylsalicylate	c
GLUTATHIONE	glutathione	cp
CPD-17387	(3S)-hydroxy-(6Z,9Z,12Z,15Z,18Z,21Z)-tetracosahexaenoyl-CoA	p
CHORISMATE	chorismate	cp
CPD-17388	3-oxo-(6Z,9Z,12Z,15Z,18Z,21Z)-tetracosahexaenoyl-CoA	c
HISTIDINAL	histidinal	cp
METHYL-GLYOXAL	methylglyoxal	cp
TDP	dTDP	cp
CPD-101	&epsilon;-caprolactone	p
METHYL-MALONYL-COA	(R)-methylmalonyl-CoA	cp
CPD-10139	(+)-(1S,4R)-limonene-1,2- epoxide	cp
DE-O-GLUCONATE	2-deoxygluconate	c
CPD-17621	16-hydroxypalmitoyl-CoA	p
Pyruvate-dehydrogenase-acetylDHlipoyl	a [pyruvate dehydrogenase E2 protein] N6-S-acetyldihydrolipoyl-L-lysine	p
DE-O-K-GLUCONATE	3-dehydro-2-deoxy-D-gluconate	p
Pyruvate-dehydrogenase-dihydrolipoate	a [pyruvate dehydrogenase E2 protein] N6-dihydrolipoyl-L-lysine	c
DTDP-D-GLUCOSE	dTDP-&alpha;-D-glucose	cp
Pyruvate-dehydrogenase-lipoate	a [pyruvate dehydrogenase E2 protein] N6-lipoyl-L-lysine	cp
ACP	a holo-[acyl-carrier protein]	cp
CPD-17624	&omega;-carboxy-(9Z)-octadec-9-enoyl-CoA	p
DEAMIDO-NAD	nicotinate adenine dinucleotide	cp
METHYL-THMPT	N5-methyltetrahydromethanopterin	cp
ACRYLAMIDE	acrylamide	c
TETRACHLOROHYDROQUINONE	2,3,5,6-tetrachlorohydroquinone	c
QUEUINE	queuine	c
CPD-17635	(2R)-ethylmalonyl-CoA	p
GMP	GMP	cp
DEHYDROQUINATE	3-dehydroquinate	cp
CPD-17637	7-hydroxylaurate	c
Dodec-2-enoyl-ACPs	a (2E)-dodec-2-enoyl-[acp]	c
5Z-3-oxo-tetradec-5-enoyl-ACPs	a (5Z)-3-oxo-tetradec-5-enoyl-[acp]	cp
Dodecanoyl-ACPs	a dodecanoyl-[acp]	cp
CPD-14931	a 10-formyltetrahydrofolate-4a-carbinolamine	c
CPD-15056	(2Z)-2-aminobut-2-enoate	cp
CPD-13091	(9Z,12Z)-15,16-epoxyoctadeca-9,12-dienoate	c
Donor-H2	a reduced electron acceptor	cp
PHENYLACETATE	phenylacetate	c
CPD-15124	(+)-muconolactone	cp
Double-Stranded-DNAs	a double stranded DNA	cp
CPD0-2030	glycerophosphoserine	c
ALA-tRNAs	a tRNAAla	c
CPD-13092	(9Z,15Z)-12,13-dihydroxyoctadeca-9,15-dienoate	p
L-GLUTAMATE-5-P	&gamma;-L-glutamyl 5-phosphate	cp
Double-helix-DNA	a double-helix DNA	c
Drugs	a drug	cp
CPD0-2105	3-oxododecanoyl-CoA	cp
CPD-13093	(9Z,12Z)-15,16-dihydroxyoctadeca-9,12-dienoate	p
PHENYLACETONITRILE	phenylacetonitrile	p
5Z-tetradec-5-enoyl-ACPs	a (5Z)-tetradec-5-enoyl-[acp]	c
Apo-Propionyl-CoA-CO2-ligases	apo-[propionyl-CoA:carbon-dioxide ligase (ADP-forming)]	c
NALPHANALPHA-DIMETHYL-L-HISTIDINE	N&alpha;,N&alpha;-dimethyl-L-histidine	cp
CPD-15182	cob(II)yrinate c-monoamide	cp
CPD0-2106	3-oxooctanoyl-CoA	cp
CPD-13094	(12Z,15Z)-9,10-dihydroxyoctadeca-12,15-dienoate	p
5Z8Z11Z14Z17Z-EICOSAPENTAENOATE	icosapentaenoate	c
ECTOINE	ectoine	cp
DIHYDROKAEMPFEROL-CMPD	(+)-dihydrokaempferol	c
PHENYLACETOTHIOHYDROXIMATE	(Z)-N-hydroxy-2-phenylacetimidothioate	cp
Aromatic-Amino-Acids	an aromatic amino acid	cp
CPD-15199	5-deoxy-&alpha;-ribose 1-phosphate	p
L-GLUTAMATE_GAMMA-SEMIALDEHYDE	L-glutamate-5-semialdehyde	cp
6-CARBOXYHEX-2-ENOYL-COA	6-carboxyhex-2-enoyl-CoA	p
CPD-13172	6-hydroxy-2-cyclohexen-one-carboxylate	p
CPD-15244	3-oxo-(5Z)-tetradecenoyl-CoA	c
Aromatic-Oxoacids	an aromatic 2-oxo-acid	cp
CPD0-2113	1-stearoyl-sn-glycerol 3-phosphate	p
EIF5A-LYSINE	an [eIF5A-precursor]-lysine	c
DIHYDROLIPOYL-GCVH	a [glycine-cleavage complex H protein] N6-dihydrolipoyl-L-lysine	cp
CPD-15280	hercynine	p
Aryl-sulfates	an aryl sulfate	cp
CPD-13174	salicyl-6-hydroxy-2-cyclohexene-on-oyl	c
CPD0-2117	trans-hexadec-2-enoyl-CoA	c
SUCROSE	sucrose	c
CIS-2-CHLORO-4-CARBOXYMETHYLENEBUT-2-EN-	2-chloro-cis-dienelactone	c
Linear-Malto-Oligosaccharides	a linear malto-oligosaccharide	cp
4-MALEYL-ACETOACETATE	4-maleyl-acetoacetate	cp
2-Hexadecenoyl-ACPs	a trans hexadecenoyl-[acp]	c
ASN	L-asparagine	c
CPD-822	N2-succinyl-L-glutamate 5-semialdehyde	c
Phenols	a phenol	cp
CPD-8222	(1S,2S,4R)-limonene-1,2-diol	cp
Lipid-dihydrosterculate	a [glycerolipid]-dihydrosterculate	p
CYCLOHEXANONE	cyclohexanone	c
2-Hydroxy-carboxylates	a 2-hydroxy carboxylate	p
CIS-3-PHENYLCYCLOHEXA-35-DIENE-12-DIOL	cis-3-phenylcyclohexa-3,5-diene-1,2-diol	p
Wound-RNA	wound RNA	c
CPD-320	ethylnitronate	c
XANTHINE	xanthine	cp
N-ACETYL-GLUTAMYL-P	N-acetylglutamyl-phosphate	cp
ACRYLATE	acrylate	p
QUINOLINATE	quinolinate	cp
2-KETO-3-DEOXY-6-P-GLUCONATE	2-dehydro-3-deoxy-D-gluconate 6-phosphate	p
Lipoprotein-signal-peptide	a lipoprotein signal peptide	p
PRISTANATE	pristanate	c
CIS-ACONITATE	cis-aconitate	cp
4-NITROANILINE	4-nitroaniline	p
FORMYL-COA	formyl-CoA	cp
CPD-8534	DNA without lesion	p
Lipoyl-Protein-L-Lysine	a [lipoyl-carrier protein]-L-lysine	c
Lipoyl-Protein-N6-lipoyllysine	a [lipoyl-carrier protein]-N6-lipoyl-L-lysine	p
DTDP-DEOH-DEOXY-GLUCOSE	dTDP-4-dehydro-6-deoxy-&alpha;-D-glucopyranose	cp
HISTIDINOL	histidinol	cp
Phosphoglucomutase	a phosphoglucomutase	cp
Phosphoglucosamine-Mutase	a phosphoglucosamine mutase	cp
2-KETO-3-DEOXY-D-GLUCARATE	(2S,3S)-2,3-dihydroxy-5-oxohexanedioate	cp
N-ACETYL-L-24-DIAMINOBUTANOATE	(2S)-4-acetamido-2-aminobutanoate	c
CPD-8624	a [protein]-L-proline (&omega; = 180)	cp
CPD-321	3-aci-nitropropanoate	c
XANTHOSINE-5-PHOSPHATE	XMP	cp
CYS	L-cysteine	cp
DTDP-DEOH-DEOXY-MANNOSE	dTDP-4-dehydro-&beta;-L-rhamnose	p
FORMYL-L-METHIONYL-PEPTIDE	a [protein] N-terminal-formyl-L-methionine	c
CPD-8625	a [protein]-L-proline (&omega; = 0)	cp
CYS-GLY	L-cysteinyl-glycine	p
4-OH-4-ACETYL-2-OXOGLUTARATE	2-hydroxy-4-oxobutane-1,2,4-tricarboxylate	cp
CIS-CIS-MUCONATE	cis,cis-muconate	cp
Phospholipid-Cyclopropane-Fatty-Acids	a [phospholipid] cyclopropane fatty acid	p
FORMYL-THF-GLU-N	an N10-formyl-tetrahydrofolate	cp
Phospholipid-Olefinic-Fatty-Acids	a [phospholipid] olefinic fatty acid	c
CPD-8742	(3E)-2-oxohex-3-enedioate	c
4-OXALOMESACONATE	(1E)-4-oxobut-1-ene-1,2,4-tricarboxylate	cp
PRO	L-proline	cp
PRO-tRNAs	a tRNAPro	c
Long-Chain-Acyl-CoAs	a long-chain acyl-CoA	p
Phosphorylated-Phosphoglucosamine-Mutase	a phosphorylated phosphoglucosamine mutase	cp
Phosphorylated-phosphoglucomutase	a phosphorylated phosphoglucomutase	cp
PROCOLLAGEN-L-PROLINE	a [procollagen]-L-proline	c
Phosphoserines	L(or D)-O-phosphoserine	c
CPD-335	(R)-3-hydroxybutanoate	cp
CIS-D2-ENOYL-COA	a cis-2-enoyl-CoA	cp
Long-Chain-Fatty-Acids	a long-chain fatty acid	c
CYS-tRNAs	a tRNACys	cp
CPD-3617	decanoate	c
2-KETO-3-METHYL-VALERATE	(S)-3-methyl-2-oxopentanoate	cp
Long-Chain-Polyphosphate	long chain polyphosphate	cp
N-ALPHA-ACETYLORNITHINE	N-acetyl-L-ornithine	cp
CPD-8978	ethylphosphate	c
L-GULONATE	L-gulonate	p
CPD-10267	decanoyl-CoA	cp
CPD-11521	3-oxo-2-(cis-2'-pentenyl)-cyclopentane-1-hexanoyl-CoA	p
CPD-11522	3-oxo-2-(cis-2'-pentenyl)-cyclopentane-1-(E-hexa-2-enoyl)-CoA	c
CPD-650	(3R)-3-hydroxybutanoyl-CoA	cp
CPD-10269	palmitoleoyl-CoA	cp
CPD-11523	3-oxo-2-(cis-2'-pentenyl)-cyclopentane-1-(3R-hydroxyhexanoyl)-CoA	p
CPD-10284	3-oxo-myristoyl-CoA	c
GERANYL-PP	geranyl diphosphate	cp
L-GULONO-1-4-LACTONE	L-gulono-1,4-lactone	c
CPD-11524	3-oxo-2-(cis-2'-pentenyl)-cyclopentane-1-(3-oxohexanoyl)-CoA	c
GERANYLGERANYL-PP	geranylgeranyl diphosphate	p
OLEATE-CPD	oleate	c
CPD-11525	3-oxo-2-(cis-2'-pentenyl)-cyclopentane-1-butanoyl-CoA	p
CPD-10333	oxidized coenzyme F420-0	p
L-Glutamyl-Peptides	an N-terminal L-glutamyl-[protein]	c
CPD-11526	3-oxo-2-(cis-2'-pentenyl)-cyclopentane-1-(E-buta-2-enoyl)-CoA	c
GLC-1-P	&alpha;-D-glucopyranose 1-phosphate	cp
L-HISTIDINOL-P	L-histidinol phosphate	cp
CPD-10418	4-sulfocatechol	c
CPD-11527	3-oxo-2-(cis-2'-pentenyl)-cyclopentane-1-(3R-hydroxybutanoyl)-CoA	p
3-Hydroxy-octanoyl-ACPs	a (3R)-3-hydroxyoctanoyl-[acp]	p
CPD-667	O-acetyl-L-homoserine	cp
CPD-11528	3-oxo-2-(cis-2'-pentenyl)-cyclopentane-1-(3-oxobutanoyl)-CoA	c
GLC-D-LACTONE	D-glucono-1,5-lactone	c
OLEOYL-COA	oleoyl-CoA	cp
L-LACTATE	(S)-lactate	c
CPD-10419	3-sulfomuconate	p
CPD-11529	(+)-7-epi-jasmonoyl-CoA	p
3-Hydroxyglutaryl-ACP-methyl-ester	a (3R)-3-hydroxyglutaryl-[acp] methyl ester	p
236-TRICHLOROHYDROQUINONE	2,3,6-trichlorohydroquinone	c
CPD-67	2-phosphoglycolate	c
S-ADENOSYL-4-METHYLTHIO-2-OXOBUTANOATE	S-adenosyl-4-methylthio-2-oxobutanoate	cp
CPD-15285	N&alpha;-methyl-L-histidine	cp
Histone-Acetyl-Lysine	a [histone]-N6-acetyl-L-lysine	cp
CADAVERINE	cadaverine	p
ITP	ITP	cp
Histone-L-lysine	a [histone]-L-lysine	cp
CPD0-2121	trans-hex-2-enoyl-CoA	p
NIACINE	nicotinate	p
CPD-17638	7-hydroxylauroyl-CoA	p
CPD-15301	caldariellaquinol	p
DELTA1-PIPERIDEINE-2-6-DICARBOXYLATE	(S)-2,3,4,5-tetrahydrodipicolinate	cp
CPD-17640	18-hydroxystearate	c
6-Dimethylallyladenosine37-tRNAs	N6-dimethylallyladenosine37 in tRNA	cp
PROPIONAMIDE	propionamide	c
CPD-15317	D-ribofuranose 5-phosphate	p
CPD0-2123	3-oxodecanoyl-CoA	c
CPD-15360	2-sulfanyl-N6-dimethylallyladenosine37 in tRNA	cp
NICOTINAMIDE_NUCLEOTIDE	&beta;-nicotinamide D-ribonucleotide	p
CPD-17641	18-hydroxystearoyl-CoA	p
S-ADENOSYLMETHIONINAMINE	S-adenosyl 3-(methylthio)propylamine	cp
DELTA3-ISOPENTENYL-PP	isopentenyl diphosphate	cp
PROPIONATE	propanoate	p
CPD0-2171	(S)-3-hydroxytetradecanoyl-CoA	p
CPD-17701	4-deoxy-2-O-sulfo-&beta;-L-erythro-hex-4-enopyranuronosyl-(1,4)-D-N-sulfoglucosamine 6-O-sulfate	p
S-ADENOSYLMETHIONINE	S-adenosyl-L-methionine	cp
Initiation-tRNAmet	initiator tRNAMet	c
CPD-15382	keto-D-fructose	cp
CPD0-2184	(2Z,4E,7E)-2-hydroxy-6-oxonona-2,4,7-triene-1,9-dioate	p
NICOTINATE_NUCLEOTIDE	&beta;-nicotinate D-ribonucleotide	cp
CPD-1772	2-aminoacetaldehyde	p
CANAVANINE	L-canavanine	cp
IDP	IDP	cp
10-FORMYL-DIHYDROFOLATE-GLU-N	an N10-formyldihydrofolate	p
DIHYDROPTERIN-CH2OH-PP	(7,8-dihydropterin-6-yl)methyl diphosphate	p
CPD-15436	(5Z)-tetradecenoyl-CoA	cp
CPD-15530	aldehydo-D-glucuronate	cp
CANAVANINOSUCCINATE	canavaninosuccinate	cp
CPD-17813	(2E,11Z)-hexadec-2,11-dienoyl-CoA	c
CPD-17814	(11Z)-(S)-3-hydroxyhexadec-11-enoyl-CoA	p
11Z-3-oxo-icos-11-enoyl-ACPs	an (11Z)-3-oxo-icos-11-enoyl-[acp]	cp
CPD0-2231	dIDP	cp
DEOXYADENOSINE	2'-deoxyadenosine	c
CPD-13227	N,N',N''-triacetylchitotriose	c
Pi	phosphate	cp
CPD-19172	(2E,9Z)-octadecenoyl-CoA	cp
B-ALANINE	&beta;-alanine	c
ACYL-ACP	an acyl-[acyl-carrier protein]	cp
Pimeloyl-ACPs	a pimeloyl-[acp]	c
CPD-13357	(2R)-2,3-dihydroxy-3-methylbutanoate	cp
ACYL-COA	an acyl-CoA	c
S-Alkyl-L-Cysteines	an S-alkyl-L-cysteine	cp
CPD-19217	S-(hydroxysulfenamide)-glutathione	p
2-KETO-ISOVALERATE	3-methyl-2-oxobutanoate	cp
S-CD-S-SP-Complex	an S-sulfanyl-[cysteine desulfurase]-S-sulfanyl-[disordered-form scaffold protein] complex	p
METHYLAMINE	methylamine	c
2-KETOGLUTARATE	2-oxoglutarate	cp
CPD-13524	all-trans-retinol	p
ACYL-SN-GLYCEROL-3P	a 1-acyl-sn-glycerol 3-phosphate	p
CPD-19395	&gamma;-L-glutamyl-glycylglycine	p
B-KETOACYL-ACP	a 3-oxoacyl-[acp]	cp
THF-GLU-N	a tetrahydrofolate	cp
N-Acetyl-beta-D-Hexosaminides	an N-acetyl-&beta;-D-hexosaminide	c
2-METHYL-3-HYDROXY-BUTYRYL-COA	(2S,3S)-3-hydroxy-2-methylbutanoyl-CoA	cp
S-HYDROXYMETHYLGLUTATHIONE	S-(hydroxymethyl)glutathione	c
BCAA-dehydrogenase-2MB-DH-lipoyl	an [apo BCAA dehydrogenase E2 protein] N6-S-[2-methylbutanoyl]dihydrolipoyl-L-lysine	cp
S-LACTOYL-GLUTATHIONE	(R)-S-lactoylglutathione	cp
7-8-DIHYDROPTEROATE	7,8-dihydropteroate	c
CPD-19487	3-isopropyl-10-(methylthio)-2-oxodecanoate	cp
Poly-Hydroxybutyrate	poly-3-hydroxybutanoate	cp
CPD-13533	(3R)-3-hydroxypentanoyl-CoA	c
BCAA-dehydrogenase-2MP-DH-lipoyl	an [apo BCAA dehydrogenase E2 protein] N6-S-[2-methylpropanoyl]dihydrolipoyl-L-lysine	cp
N-CARBAMOYLGLYCINE	N-carbamoylglycine	cp
CPD-19488	3-isopropyl-9-(methylthio)-2-oxononanoate	cp
2-METHYL-ACETO-ACETYL-COA	2-methylacetoacetyl-CoA	cp
CPD-19489	3-isopropyl-8-(methylthio)-2-oxooctanoate	cp
CPD-13534	3-oxopentanoyl-CoA	cp
TRP	L-tryptophan	cp
BCAA-dehydrogenase-3MB-DH-lipoyl	a [apo BCAA dehydrogenase E2 protein] N6-S-[3-methylbutanoyl]dihydrolipoyl-L-lysine	p
CPD-19490	3-isopropyl-7-(methylthio)-2-oxoheptanoate	cp
THIAMINE-P	thiamine phosphate	cp
Polyisoprenyl-Diphosphates	an isoprenoid diphosphate	c
SULFATE	sulfate	cp
7-AMINOMETHYL-7-DEAZAGUANINE	preQ1	cp
THIAMINE-PYROPHOSPHATE	thiamine diphosphate	cp
CPD-13575	2-[(2R,5Z)-2-carboxy-4-methylthiazol-5(2H)-ylidene]ethyl phosphate	cp
BCAA-dehydrogenase-DH-lipoyl	an [apo BCAA dehydrogenase E2 protein] N6-dihydrolipoyl-L-lysine	cp
CPD-19491	3-isopropyl-6-(methylthio)-2-oxohexanoate	cp
ALL-TRANS-HEPTAPRENYL-DIPHOSPHATE	all-trans-heptaprenyl diphosphate	c
TRP-tRNAs	a tRNATrp	c
Polyisoprenyl-Monophosphates	a polyprenol phosphate	c
S-NITROSOGLUTATHIONE	S-nitrosoglutathione	c
BCAA-dehydrogenase-lipoyl	an [apo BCAA dehydrogenase E2 protein] N6-lipoyl-L-lysine	cp
CPD-19492	3-ethyl-2-oxosuccinate	cp
7-CYANO-7-DEAZAGUANINE	preQ0	cp
BCCP-L-lysine	a [biotin carboxyl-carrier protein]-L-lysine	c
CPD-19493	S-(mercaptomethyl)-L-cysteine	p
CPD-13576	2-(2-carboxy-4-methylthiazol-5-yl)ethyl phosphate	c
XYLULOSE-5-PHOSPHATE	D-xylulose 5-phosphate	cp
Long-linear-glucans	a long-linear &alpha;-D-glucan	cp
CPD-3618	2-oxovalerate	p
ERYTHROSE-4P	D-erythrose 4-phosphate	cp
Xenobiotic	a xenobiotic	cp
LysW-L-glutamate	a [2-aminoadipate carrier protein]-L-glutamate	c
LysW-L-glutamate-5-phosphate	a [2-aminoadipate carrier protein]-L-glutamate 5-phosphate	cp
FRU1P	&beta;-D-fructofuranose 1-phosphate	c
LysW-L-glutamate-5-semialdehyde	a [2-aminoadipate carrier protein]-L-glutamate 5-semialdehyde	cp
LysW-L-ornithine	a [2-aminoadipate carrier protein]-L-ornithine	cp
DUDP	dUDP	cp
ARSENATE	arsenate	c
16-HYDROXYPALMITATE	16-hydroxypalmitate	c
ETF-Oxidized	an oxidized electron-transfer flavoprotein	cp
MAL	(S)-malate	cp
CPD-3740	djenkolate	c
a-2-oxoglutarate-dehydrogenase-E2-protei	a [2-oxoglutarate-dehydrogenase E2 protein] N6-octanoyl-L-lysine	c
ETF-Reduced	a reduced electron-transfer flavoprotein	cp
a-pyruvate-dehydrogenase-E2-protein-Nsup	a [pyruvate dehydrogenase E2 protein] N6-octanoyl-L-lysine	c
apo-ACP	an apo-[acyl-carrier protein]	c
CPD-3744	1-butanesulfonate	c
FRUCTOSE-16-DIPHOSPHATE	&beta;-D-fructose 1,6-bisphosphate	cp
ETHANOL-AMINE	ethanolamine	p
apo-Transcarboxylases	an apo-[methylmalonyl-CoA:pyruvate carboxytransferase]	c
CPD-3745	isethionate	c
b-Hydroxy-cis-D5-dodecenoyl-ACPs	a (3R,5Z)-3-hydroxy-dodec-5-enoyl-[acp]	p
FRUCTOSE-6P	&beta;-D-fructofuranose 6-phosphate	cp
QXC-ACP	a quinoxaline-2-carboxyl-[acyl-carrier protein]	p
ILE	L-isoleucine	cp
CPD-9009	2,4-dichlorophenoxyacetate	c
ILE-tRNAs	a tRNAIle	c
16S-rRNA-N2-methylguanine966	an N2-methylguanine966 in 16S rRNA	p
GLN	L-glutamine	cp
CIT	citrate	cp
GLN-tRNAs	a tRNAGln	c
DIHYDROSIROHYDROCHLORIN	precorrin-2	c
16S-rRNA-N4-methylcytidine1402	an N4-methylcytidine1402  in 16S rRNA	p
DEOXYCYTIDINE	2'-deoxycytidine	c
CPD-105	(R)-4-hydroxymandelate	c
16S-rRNA-N7-methylguanine527	an N7-methylguanine527 in 16S rRNA	p
CPD-10546	methyl (indol-3-yl)acetate	c
16S-rRNA-cytidine1402	a cytidine1402 in 16S rRNA	c
CPD-9038	precorrin-1	p
CITRATE-LYASE	an acetyl-holo [citrate lyase acyl-carrier protein]	cp
16S-rRNA-guanine-527	a guanine527 in 16S rRNA	c
23S-rRNA-2-methyladenine2503	a 2-methyladenine2503 in 23S rRNA	p
HMP	4-amino-2-methyl-5-pyrimidinemethanol	c
Quinones	a quinone	c
16S-rRNA-guanine-966	a guanine966 in 16S rRNA	c
DIHYDROXY-ACETONE-PHOSPHATE	glycerone phosphate	cp
CPD-9049	cobyrinate	c
R-1-AMINOPROPAN-2-YL-PHOSPHATE	(R)-1-amino-2-propanol O-2-phosphate	cp
23S-rRNA-adenine-2503	adenine2503 in 23S rRNA	c
18-HYDROXYOLEATE	18-hydroxyoleate	c
DIHYDROXY-BUTANONE-P	1-deoxy-L-glycero-tetrulose 4-phosphate	cp
DEOXYGUANOSINE	2'-deoxyguanosine	p
GLT	L-glutamate	cp
CPD-9148	(2Z,4E)-2-amino-5-methyl-muconate semialdehyde	c
K-HEXANOYL-COA	3-oxohexanoyl-CoA	p
R-2-Haloacids	an (R)-2-haloacid	c
IMIDAZOLE-ACETOL-P	imidazole acetol-phosphate	cp
R-2-Hydroxyacids	an (R)-2-hydroxyacid	p
CPD-106	(S)-4-hydroxymandelate	p
GLT-tRNAs	a tRNAglu	c
24-DICHLOROPHENOL	2,4-dichlorophenol	p
DUMP	dUMP	cp
CPD-10600	4-hydroxybenzoyl-acetyl-CoA	c
CPD-9150	(2Z,4E)-2-amino-5-methyl-muconate	p
CPD-10608	trans-dienelactone	c
DIHYDROXYACETONE	dihydroxyacetone	cp
R-3-Hydroxypalmitoyl-ACPs	a (3R)-3-hydroxypalmitoyl-[acp]	p
UMP	UMP	cp
R-3-hydroxy-cis-vaccenoyl-ACPs	(R)-3-hydroxy-cis-vacc-11-enoyl-[acp]	p
25-DDOL	2,5-dichloro-2,5-cyclohexadiene-1,4-diol	cp
DEOXYINOSINE	2'-deoxyinosine	p
R-3-hydroxyarachidoyl-ACPs	a (3R)-3-hydroxyarachidoyl-[acp]	p
R-3-hydroxybehenoyl-ACPs	a (3R)-3-hydroxybehenoyl-[acp]	p
R-3-hydroxycerotoyl-ACPs	a (3R)-3-hydroxycerotoyl-[acp]	p
R-3-hydroxydodecanoyl-ACPs	a (3R)-3-hydroxydodecanoyl-[acp]	p
METHYLENE-THF-GLU-N	a 5,10-methylene-tetrahydrofolate	cp
CPD-15539	phenyl 5-phospho-&alpha;-D-ribofuranoside	c
4-P-PANTOTHENATE	(R)-4'-phosphopantothenate	cp
CARBAMOYL-P	carbamoyl phosphate	cp
METHYLENETETRAHYDROMETHANOPTERIN	5,10-methylene-tetrahydromethanopterin	cp
CPD-15568	2E)-tetradec-2-enoyl-CoA	c
2-3-4-Saturated-L-Phosphatidates	a 1,2-diacyl-sn-glycerol 3-phosphate	c
4-PHOSPHONOOXY-THREONINE	4-phosphooxy-L-threonine	cp
GTP	GTP	cp
NITRITE	nitrite	p
4-hydroxybenzoate	4-hydroxybenzoate	c
CARBAMYUL-L-ASPARTATE	N-carbamoyl-L-aspartate	cp
CPD-15633	aldehydo-D-galacturonate	cp
PHOSPHO-ENOL-PYRUVATE	phosphoenolpyruvate	cp
FRUCTURONATE	D-fructuronate	cp
FUM	fumarate	cp
2-3-DIHYDROXYPHENYL-PROPIONATE	3-(2,3-dihydroxyphenyl)propanoate	c
CYTIDINE	cytidine	c
CPD-15663	2-trans-nonenoyl-CoA	p
MALONATE-S-ALD	3-oxopropanoate	cp
CPD-15667	6-cis, 3-oxo-tridecenoyl-CoA	c
NMNH	reduced &beta;-nicotinamide D-ribonucleotide	p
CARBON-DIOXIDE	CO2	cp
CPD-15668	4-cis-undecenoyl-CoA	p
CPD-15676	6-trans-3-oxo-tridecenoyl-CoA	c
3-KETO-ADIPATE	3-oxoadipate	p
NONAPRENYL-4-HYDROXYBENZOATE	3-nonaprenyl-4-hydroxybenzoate	p
CPD-15677	4-trans-undecenoyl-CoA	p
2-ACETO-2-HYDROXY-BUTYRATE	(S)-2-aceto-2-hydroxybutanoate	cp
GLY	glycine	cp
b-Keto-cis-D5-dodecenoyl-ACPs	a (5Z)-3-oxo-dodec-5-enoyl-[acp]	cp
CPD-672	(S)-3-aminobutanoyl-CoA	cp
CPD-11592	2-methylsulfanyl-N6-dimethylallyladenosine37 in tRNA	p
R-3-hydroxyhexanoyl-ACPs	a (3R)-3-hydroxyhexanoyl-[acp]	p
BCCP-biotin-L-lysine	a [biotin carboxyl-carrier protein]-biotin-N6-L-lysine	p
CPD-17927	a nascent peptidoglycan with (L-alanyl-&gamma;-D-glutamyl-meso-2,6-diaminopimeloyl-D-alanyl-D-alanine) pentapeptide	cp
biotin-L-lysine-in-BCCP-dimers	a [biotin carboxyl-carrier-protein dimer]-N6-biotinyl-L-lysine	cp
S-PHOSPHOLACTATE	(2S)-2-phospholactate	c
OROTATE	orotate	cp
CPD-18	linoleoyl-CoA	p
ALL-TRANS-HEXAPRENYL-DIPHOSPHATE	all-trans-hexaprenyl diphosphate	c
R-3-hydroxylignoceroyl-ACPs	a (3R)-3-hydroxylignoceroyl-[acp]	p
CPD0-2232	(S)-3-hydroxyhexadecanoyl-CoA	p
CPD-13689	(25S)-3-oxocholest-4-en-26-oate	c
R-3-hydroxymyristoyl-ACPs	a (3R)-3-hydroxymyristoyl-[acp]	p
CPD-11643	two adjacent thymidines in DNA	p
BENZIMIDAZOLE	benzimidazole	c
carboxybiotin-L-lysine-in-BCCP-dimers	a [carboxyl-carrier protein dimer]-N6-carboxybiotinyl-L-lysine	cp
R-3-hydroxypetroselinoyl-ACPs	a (3R)-3-hydroxypetroselinoyl-[acp]	p
cis-19-CP-37-Mex-38-Me-C59-ACPs	a cis-methoxy-C59-meroacyl-[acp]	p
R-3-hydroxystearoyl-ACPs	a (3R)-3-hydroxystearoyl-[acp]	p
CPD-6741	D-myo-inositol (1,2,3,5,6) pentakisphosphate	p
S-Substituted-Glutathione	a glutathione-toxin conjugate	p
cis-21-CP-39-keto-40-Me-C60-ACPs	a cis-keto-C60-meroacyl-[acp]	p
S-Substituted-L-Cysteines	an L-cysteine-S-conjugate	c
CPD-18105	4-methylphenyl 5-phospho-&alpha;-D-ribofuranoside	c
CPD-13691	(25S)-3-oxocholest-4-en-26-oyl-CoA	p
cis-D19-37-MOH-38-Me-C57-1-ACPs	a cis-delta19-37-methoxy-38-methyl-C57:1-[acp]	c
R-4-PHOSPHOPANTOTHENOYL-L-CYSTEINE	(R)-4'-phosphopantothenoyl-L-cysteine	cp
CPD0-2244	(S)-3-hydroxydecanoyl-CoA	p
cis-D21-39-oxo-40-Me-C59-1-ACPs	a cis-delta21-39-oxo-40-methyl-C59:1-[acp]	c
CPD-6746	1D-myo-inositol 2-monophosphate	c
CPD-11770	7,8-dihydromonapterin	c
CPD-18118	D-arabinofuranose 5-phosphate	c
CPD-13699	3,22-dioxochol-4-en-24-oyl-CoA	c
ALLO-THR	DL-allothreonine	c
3-KETO-ADIPYL-COA	3-oxoadipyl-CoA	c
MALONYL-ACP	a malonyl-[acp]	cp
CPD-13700	3-oxo-4-pregnene-20-carboxyl-CoA	p
BENZOYLCOA	benzoyl-CoA	p
P3I	PPPi	p
CPD0-2352	a tRNA precursor with a 5' extension and a short 3' extension	c
OROTIDINE-5-PHOSPHATE	orotidine 5'-phosphate	cp
CPD-11855	(R)-4-hydroxy-4-methyl-2-oxoglutarate	cp
CPD0-2353	a tRNA precursor with a short 3' extension	cp
ALPHA-D-GALACTOSE	&alpha;-D-galactose	cp
CPD-13711	3-[(3aS,4S,7aS)-7a-methyl-1,5-dioxo-octahydro-1H-inden-4-yl]propanoate	c
GUANINE	guanine	p
CPD0-2354	a tRNA precursor with a 5' extension	p
ADENINE	adenine	cp
CPD-18320	5-methylbenzimidazole	c
MALONYL-COA	malonyl-CoA	cp
CPD-121	(R)-mandelate	c
BENZOYLSUCCINYL-COA	benzoylsuccinyl-CoA	c
CPD-12112	salicyloyl-CoA	c
3-KETOACYL-COA	a 3-oxoacyl-CoA	cp
3-KETOBUTYRATE	acetoacetate	cp
CPD-12115	demethylmenaquinol-8	c
CPD-18321	5-methoxybenzimidazole	c
ALPHA-GLC-6-P	&alpha;-D-glucose 6-phosphate	c
CPD-13713	adenosine 5'-phosphoselenate	p
3-Ketoglutaryl-ACP-methyl-ester	a 3-oxo-glutaryl-[acp] methyl ester	cp
BETA-D-FRUCTOSE	&beta;-D-fructofuranose	cp
CPD-13717	L-selenocystathionine	c
3-Ketopimeloyl-ACP-methyl-esters	a 3-oxo-pimeloyl-[acp] methyl ester	cp
CPD-18346	cis-vaccenoyl-CoA	cp
BETAINE	glycine betaine	cp
ALPHA-GLUCOSE-16-BISPHOSPHATE	&alpha;-glucose 1,6-bisphosphate	cp
CPD0-881	N-acetyl-D-muramate 6-phosphate	p
N-FORMIMINO-L-GLUTAMATE	N-formimino-L-glutamate	cp
UNDECAPRENYL-DIPHOSPHATE	di-trans,octa-cis-undecaprenyl diphosphate	p
PROPIONYL-COA	propanoyl-CoA	cp
CPD-195	octanoate	c
ATP	ATP	cp
CPD-196	octanoyl-CoA	p
CARBON-MONOXIDE	carbon monoxide	p
GUANOSINE-5DP-3DP	ppGpp	p
OXALACETIC_ACID	oxaloacetate	cp
L-Methionylaminoacyl-tRNAs	a L-methionylaminoacyl-tRNA	p
L-ORNITHINE	L-ornithine	cp
PROT-CYS	a [protein]-L-cysteine	c
IMINOASPARTATE	2-iminosuccinate	cp
N-SUCCINYL-2-AMINO-6-KETOPIMELATE	N-succinyl-2-amino-6-ketopimelate	p
ETOH	ethanol	cp
PROTEIN-L-BETA-ISOASPARTATES	a [protein]-L-&beta;-isoaspartate	c
URACIL	uracil	p
CPD-19731	5-chloro-3-oxoadipate	p
PROTEIN-L-BETA-ISOSPARTATE-METHYL-ESTERS	a protein L-&beta;-isoaspartate &alpha;-methyl ester	p
L-PANTOATE	(R)-pantoate	c
CPD-19732	2,5-dichloro-3-oxohexanedioate	p
PROTEIN-LIPOYLLYSINE	a [glycine-cleavage complex H protein] N6-lipoyl-L-lysine	cp
Pre-tRNA-3-prime-half-molecules	a 3'-half-tRNA molecule with a 5'-OH end	cp
N-SUCCINYLLL-2-6-DIAMINOPIMELATE	N-succinyl-L,L-2,6-diaminopimelate	c
Pre-tRNA-5-prime-half-molecules	a 5'-half-tRNA molecule with a 2',3'-cyclic phosphate end	cp
CPD-19733	(2Z,4Z)-2-chloro-3-hydroxyhexa-2,4-dienedioate	c
ETR-Quinols	an electron-transfer quinol	cp
CPD-19734	(2Z)-5-chloro-4-hydroxyhex-2-enedioate	p
OXALATE	oxalate	cp
ETR-Quinones	an electron-transfer quinone	cp
Prolipoprotein-Cysteines	a [prolipoprotein]-L-cysteine	c
L-PHOSPHATIDATE	a 1,2-diacyl-sn-glycerol 3-phosphate	c
IMP	IMP	cp
N-Substituted-Amino-Acids	an N-modified amino acid	p
L-SELENOCYSTEINE	L-selenocysteine	p
CPD-19755	5-hydroxyectoine	p
Propionyl-CoA-CO2-ligases	[propionyl-CoA:carbon-dioxide ligase (ADP-forming)]	p
N-Substituted-Aminoacyl-tRNA	an N-modified aminoacyl-[tRNA]	c
N-acetyl-D-glucosamine	N-acetyl-D-glucosamine	p
GLYCERALD	D-glyceraldehyde	p
25-DICHLOROHYDROQUINONE	2,5-dichloro-p-quinol	cp
2-METHYL-BUTYRYL-COA	2-methylbutanoyl-CoA	cp
CPD-3766	menadione	c
METOH	methanol	cp
2-METHYLMALEATE	citraconate	cp
DEOXYURIDINE	2'-deoxyuridine	cp
KDO	3-deoxy-&alpha;-D-manno-2-octulosonate	c
HOMO-CYS	L-homocysteine	cp
THMPT	tetrahydromethanopterin	p
KDO-8P	3-deoxy-D-manno-octulosonate 8-phosphate	p
GLYCERATE	D-glycerate	cp
2C-METH-D-ERYTHRITOL-CYCLODIPHOSPHATE	2-C-methyl-D-erythritol-2,4-cyclodiphosphate	cp
2-Me-Branched-234-Sat-FA	a 2-methyl branched 2,3,4-saturated fatty acid	c
CARBOXYPHENYLAMINO-DEOXYRIBULOSE-P	1-(o-carboxyphenylamino)-1'-deoxyribulose 5'-phosphate	cp
CPD-10633	5-chloro-trans-dienelactone	c
2-Me-Branched-234-Sat-Fatty-Acyl-CoA	a 2-methyl branched 2,3,4-saturated fatty acyl-CoA	p
CPD-380	3-sulfopyruvate	cp
HOMO-SER	L-homoserine	cp
CPD-10634	5-chloromaleylacetate	p
CL-	chloride	cp
GLYCEROL	glycerol	cp
2K-4CH3-PENTANOATE	4-methyl-2-oxopentanoate	cp
THR	L-threonine	cp
DEOXYXYLULOSE-5P	1-deoxy-D-xylulose 5-phosphate	cp
GLYCEROL-3P	sn-glycerol 3-phosphate	cp
2K-ADIPATE	2-oxoadipate	c
DEPHOSPHO-COA	3'-dephospho-CoA	cp
THR-tRNAs	a tRNAThr	c
2-OCTAPRENYL-6-HYDROXYPHENOL	3-(all-trans-octaprenyl)benzene-1,2-diol	cp
CPD-10636	2,5-dichloro-trans-dienelactone	c
CPD-4	molybdopterin	p
THREO-DS-ISO-CITRATE	D-threo-isocitrate	cp
CPD-421	N2-succinyl-L-arginine	p
CPD-10637	2,5-dichloromaleylacetate	cp
CPD-4211	dimethylallyl diphosphate	cp
SAMP-C-Terminal-Glycine	a [SAMP] C-terminal glycine	p
CPD-678	hydrogen selenide	c
SAMP-C-Terminal-thiol	a thiocarboxylated [SAMP] C-terminal glycine	c
URATE	urate	cp
BETAINE_ALDEHYDE	betaine aldehyde	cp
CMP	CMP	cp
CMP-KDO	CMP-3-deoxy-&beta;-D-manno-octulosonate	p
UREA	urea	cp
Elongation-tRNAMet	elongator tRNAMet	c
CPD-9245	palmitoleate	c
Gcv-H	[glycine cleavage system lipoyl-carrier protein]-L-lysine	c
SELENATE	selenate	c
TTP	dTTP	cp
General-Protein-Substrates	a protein	cp
CPD-9247	cis-vaccenate	c
GlgE-Glycogen	a GlgE-glycogen	p
URIDINE	uridine	p
Fatty-Acids	a fatty acid	p
CPD-9385	&gamma;-glutamyl-p-nitroanilide	c
Gln-B	a PII protein	c
SELENOHOMOCYSTEINE	seleno-L-homocysteine	p
GLUCONATE	D-gluconate	p
BIOTIN	biotin	cp
Glucopyranose	D-glucopyranose	cp
TUM1-L-cysteine	a [3-mercaptopyruvate sulfurtransferase]-L-cysteine	cp
CPD-687	hydrogenobyrinate	c
TUM1-S-sulfanylcysteine	a [3-mercaptopyruvate sulfurtransferase]-S-sulfanyl-L-cysteine	cp
CPD-9406	(2S)-ethylmalonyl-CoA	c
URIDYLYL-PROTEIN-PII	a uridylylated PII protein	p
SER	L-serine	cp
CO+2	Co2+	c
TYR	L-tyrosine	cp
TYR-tRNAs	a tRNATyr	c
CPD-15678	4-trans-3-oxo-undecenoyl-CoA	c
Acceptor	an oxidized electron acceptor	cp
L-THREONINE-O-3-PHOSPHATE	L-threonine 3-O-phosphate	c
CPD0-882	1,6-anhydro-N-acetyl-&beta;-muramate	cp
ALPHA-RIBAZOLE	&alpha;-ribazole	cp
3-MERCAPTO-PYRUVATE	3-mercaptopyruvate	c
ALPHA-RIBAZOLE-5-P	&alpha;-ribazole 5'-phosphate	cp
CPD-15687	5-cis, 7-trans-3-oxo-tetradecadienoyl-CoA	c
MI-HEXAKISPHOSPHATE	phytate	c
3-METHYL-CROTONYL-COA	3-methylcrotonyl-CoA	cp
OXALO-SUCCINATE	oxalosuccinate	cp
SUPER-OXIDE	superoxide	c
CPD-15688	(3Z,5E)-dodeca-3,5-dienoyl-CoA	p
L-arginyl-3-sulfino-L-alaninyl-Peptides	an N-terminal L-arginiyl-3-sulfino-L-alanyl-[protein]	p
MONOMER0-4342	a [prolipoprotein]-(S-diacylglyceryl)-L-cysteine	cp
CPD0-971	an &alpha;-limit dextrin	p
L-arginyl-3-sulfo-L-alaninyl-Peptides	an N-terminal L-arginiyl-3-sulfo-L-alanyl-[protein]	p
CPD1F-2	(-)-methyl jasmonate	c
L-arginyl-L-Glutamyl-Peptides	an N-terminal L-arginiyl-L-glutamyl-[protein]	p
CPD-15691	(5E)-3-oxo-dodec-5-enoyl-CoA	c
L-arginyl-L-aspartyl-Peptides	an N-terminal L-arginiyl-L-aspartyl-[protein]	p
Acetoacetyl-ACPs	an acetoacetyl-[acp]	cp
PALMITATE	palmitate	cp
L-glutamyl-tRNAGln	an L-glutamyl-[tRNAGln]	c
PALMITYL-COA	palmitoyl-CoA	p
CPD-15692	(3E)-dec-3-enoyl-CoA	p
MPT-Synthase-small-subunits	a small subunit of molybdopterin synthase	p
L-leucyl-L-arginyl-Protein	a [protein] N-terminal L-leucyl-L-arginine	p
OXALYL-COA	oxalyl-CoA	cp
3-METHYLTHIOPROPYLHYDROXAMIC-ACID	(E)-N-hydroxy-4-(methylsulfanyl)butimidothioate	cp
Carboxylates	a carboxylate	p
L-leucyl-L-lysyl-Protein	a [protein] N-terminal L-leucyl-L-lysine	p
CPD1F-90	kaempferol	p
L-methionyl-L-alanyl-Protein	an N-terminal-L-methionyl-L-alanyl-[protein]	c
Carboxylic-esters	a carboxylic ester	c
1-4-alpha-D-Glucan	a 1,4-&alpha;-D-glucan	cp
L-methionyl-L-cysteinyl-Protein	an N-terminal-L-methionyl-L-cysteinyl-[protein]	c
3-Methyl-Saturated-Fatty-Acids	a 3-methyl-branched 2,3,4-saturated fatty acid	c
CPD-157	(2Z,4E)-2-hydroxy-6-oxonona-2,4-diene-1,9-dioate	p
L-methionyl-L-seryl-Protein	an N-terminal-L-methionyl-L-seryl-[protein]	c
1-4-beta-D-Glucan	a 1,4-&beta;-D-glucan	cp
3-Methyl-Saturated-Fatty-Acyl-CoA	a 3-methyl-branched 2,3,4-saturated fatty acyl-CoA	cp
AMINO-HYDROXYMETHYL-METHYL-PYR-P	4-amino-2-methyl-5-(phosphooxymethyl)pyrimidine	cp
3-OCTAPRENYL-4-HYDROXYBENZOATE	3-octaprenyl-4-hydroxybenzoate	p
L-methionyl-L-threonyl-Protein	an N-terminal-L-methionyl-L-threonyl-[protein]	c
PROTOHEME	ferroheme b	cp
1-AMINO-PROPAN-2-OL	(R)-1-aminopropan-2-ol	c
CPD66-21	leukotriene-D4	p
L-methionyl-L-valyl-Protein	an N-terminal-L-methionyl-L-valyl-[protein]	c
CPD-159	(S)-5-amino-3-oxohexanoate	cp
L-methionyl-glycyl-Protein	an N-terminal-L-methionyl-glycyl-[protein]	c
L-methionyl-tRNAfmet	an L-methionyl-[initiator tRNAMet]	cp
OXIDIZED-GLUTATHIONE	glutathione disulfide	cp
Saturated-Fatty-Acyl-ACPs	a 2,3,4-saturated fatty acyl-[acp]	cp
CPD66-39	a 2,3,4-saturated fatty acid	c
MYO-INOSITOL	myo-inositol	p
CPDQT-27	6-(methylthio)-2-oxohexanoate	p
L-phenylalanyl-L-arginyl-Protein	L-phenylalanyl-L-arginyl-[protein]	p
Saturated-Fatty-Acyl-CoA	a 2,3,4-saturated fatty acyl CoA	cp
3-OXO-EICOSAPENTAENOYL-ACP	a 3-oxo-docosapentaenoyl [acp]	c
OXOPENTENOATE	2-oxopent-4-enoate	cp
L-phenylalanyl-L-lysyl-Protein	L-phenylalanyl-L-lysyl-[protein]	p
CPD-15975	D-cellobiose	cp
L-seryl-SEC-tRNAs	an L-seryl-[tRNAsec]	p
CPD-18348	1-cis-vaccenoylglycerol-3-phosphate	p
ADENOSINE	adenosine	cp
2-OCTAPRENYL-6-METHOXYPHENOL	2-methoxy-6-(all-trans-octaprenyl)phenol	p
CPD-12173	(S)-3-hydroxy-isobutanoyl-CoA	cp
CPD-19761	2,6-dichloro-3-(glutathione-S-yl)-hydroquinone	p
CPD-12175	(S)-3-hydroxy-isobutanoate	c
Protein-Disulfides	a protein disulfide	cp
CPD-13734	ferroheme a	p
CPD-19763	2,3,5-trichloro-6-(glutathione-S-yl)-hydroquinone	p
CPD-18379	1-myristoylglycerol 3-phosphate	p
N-acetyl-beta-D-hexosamines	an N-acetyl-&beta;-D-hexosamine	p
Protein-Dithiols	a protein dithiol	p
CPD-19775	ferroheme i	cp
PHOSPHORIBOSYL-AMP	1-(5-phospho-&beta;-D-ribosyl)-AMP	cp
CPD-13754	3-[(3aS,4S,7aS)-7a-methyl-1,5-dioxo-octahydro-1H-inden-4-yl]propanoyl-CoA	p
N-formyl-L-methionyl-tRNAfmet	an N-formyl-L-methionyl-[initiator tRNAmet]	p
CPD-19776	hydroxyferroheme i	p
Protein-Histidines	a [protein]-L-histidine	cp
Actinorhodin-Intermediate-2	9-hydroxy-3,5,7,11,13,15-hexaoxohexadecanoyl-[PKS-acp]	p
7Z-3-oxo-hexadec-7-enoyl-ACPs	a (7Z)-3-oxo-hexadec-7-enoyl-[acp]	cp
CPD-19778	(2Z,4Z)-2-amino-5-chloro-6-oxohexa-2,4-dienoate	c
PHOSPHORIBOSYL-ATP	1-(5-phospho-&beta;-D-ribosyl)-ATP	cp
CPD-184	2-pyrone-4,6-dicarboxylate	c
2-OCTAPRENYLPHENOL	2-octaprenylphenol	c
INDOLE-3-GLYCEROL-P	(1S,2R)-1-C-(indol-3-yl)glycerol 3-phosphate	p
7Z-hexadec-7-enoyl-ACPs	a (7Z)-hexadec-7-enoyl-[acp]	c
ADENOSYL-HOMO-CYS	S-adenosyl-L-homocysteine	cp
CPD-19779	(2Z,4Z)-2-amino-5-chlorohexa-2,4-dienedioate	p
8-AMINO-7-OXONONANOATE	8-amino-7-oxononanoate	cp
Kanamycin-3-phosphates	a kanamycin 3'-phosphate	p
N-terminal-L-Serine	an N-terminal L-seryl-[protein]	p
INDOLEYL-CPD	(indole-3-yl)acetonitrile	c
ADENOSYLCOBALAMIN	adenosylcobalamin	cp
CPD-12179	methylmalonate semialdehyde	c
ADENOSYLCOBALAMIN-5-P	adenosylcobalamin 5'-phosphate	p
Acyl-Phosphates	an acyl phosphate	c
CPD-12199	3S-(4-hydroxyphenyl)-3-hydroxy-propanoyl-CoA	p
N-terminal-L-alanine	an N-terminal L-alanyl-[protein]	p
Kanamycins	a kanamycin	c
Protein-L-glutamine	a [protein]-L-glutamine	c
Charged-ALA-tRNAs	an L-alanyl-[tRNAAla]	p
N-terminal-L-cysteine	an N-terminal L-cysteinyl-[protein]	p
Charged-ARG-tRNAs	an L-arginyl-[tRNAArg]	cp
N-terminal-L-cysteine-sulfinate	an N-terminal 3-sulfino-L-alanyl-[protein]	c
CPD-18492	(2E,6Z,9Z,12Z,15Z,18Z)-tetracosahexaenoyl-CoA	c
Acyl-homoserine-lactones	an N-acyl-L-homoserine lactone	p
INDOLE_ACETATE_AUXIN	(indol-3-yl)acetate	p
2-OH-3-Methyl-Saturated-Fatty-Acyl-CoA	a 2-hydroxy-3-methyl-branched 2,3,4-saturated fatty acyl-CoA	p
N-terminal-L-cysteine-sulfonate	an N-terminal 3-sulfo-L-alanyl-[protein]	c
Protein-L-lysine	a [protein]-L-lysine	c
2-OXOBUTANOATE	2-oxobutanoate	cp
CPD-19782	(3E)-5-chloro-2-oxopent-3-enoate	c
PHOSPHORIBOSYL-CARBOXY-AMINOIMIDAZOLE	5-amino-1-(5-phospho-D-ribosyl)imidazole-4-carboxylate	cp
Protein-L-methionine	a [protein]-L-methionine	cp
N-terminal-L-valine	an N-terminal L-valyl-[protein]	p
CPD-122	(S)-mandelate	p
Protein-L-methionine-R-S-oxides	a protein-L-methionine-(R)-S-oxide	cp
CPD-18493	(3S)-hydroxy-(6Z,9Z,12Z,15Z,18Z)-tetracosapentaenoyl-CoA	p
ADENOSYLCOBINAMIDE	adenosylcobinamide	cp
CPD-201	4-hydroxybenzoyl-CoA	p
N-terminal-glycine	an N-terminal glycyl-[protein]	p
ADENOSYLCOBINAMIDE-GDP	adenosylcobinamide-GDP	cp
Protein-L-methionine-S-S-oxides	a protein-L-methionine-(S)-S-oxide	c
CPD-13940	Co&alpha;-[a-(5-methoxybenzimidazolyl)]-Co&beta;-adenosylcobamide 5'-phosphate	p
INDOLE_PYRUVATE	(indol-3-yl)pyruvate	cp
9Z-3-oxo-octadec-9-enoyl-ACPs	a (9Z)-3-oxo-octadec-9-enoyl-[acp]	cp
Charged-CYS-tRNAs	an L-cysteinyl-[tRNACys]	cp
CPD-12258	UDP-N-acetyl-&alpha;-D-muramoyl-L-alanyl-&gamma;-D-glutamyl-L-lysyl-D-alanine	c
4R-Limonene-1-2-epoxides	a (4R)-1,2-epoxymenth-8-ene	c
N2-SUCCINYLGLUTAMATE	N2-succinylglutamate	p
CPD-18494	3-oxo-(6Z,9Z,12Z,15Z,18Z)-tetracosapentaenoyl-CoA	c
ACET	acetate	cp
CPD-14018	icosapentaenoyl-CoA	p
4S-limonene-1-2-epoxides	a (4S)-1,2-epoxymenth-8-ene	c
DIMETHYL-D-RIBITYL-LUMAZINE	6,7-dimethyl-8-(1-D-ribityl)lumazine	cp
Protein-L-serine-or-L-threonine	a [protein]-(L-serine/L-threonine)	c
holo-Transcarboxylases	a holo-[methylmalonyl-CoA:pyruvate carboxytransferase]	p
Charged-GLN-tRNAs	an L-glutaminyl-[tRNAGln]	p
UROCANATE	urocanate	cp
ligated-tRNAs-with-2prime-5prime-linkage	a ligated tRNA with a 2'-5' linkage	cp
mRNA-Fragments	an mRNA fragment	p
MALTOHEXAOSE	maltohexaose	cp
Charged-GLT-tRNAs	an L-glutamyl-[tRNAGlu]	p
Negatively-super-coiled-DNAs	a negatively supercoiled DNA	cp
Adjacent-pyrimidine-dimer-in-DNA	a dimer of adjacent pyrimidine nucleosides in DNA	c
mRNAs	an mRNA	cp
mRNAs-with-5-monophosphate	a 5'-phospho-[mRNA]	p
PHOSPHORIBOSYL-FORMAMIDO-CARBOXAMIDE	5-formamido-1-(5-phospho-D-ribosyl)-imidazole-4-carboxamide	cp
DETHIOBIOTIN	dethiobiotin	cp
mRNAs-with-5-triphosphate	a 5' triphospho-[mRNA]	c
Alcohols	an alcohol	p
Charged-HIS-tRNAs	an L-histidyl-[tRNAHis]	p
PHOSPHORIBOSYL-FORMIMINO-AICAR-P	1-(5-phospho-&beta;-D-ribosyl)-5-[(5-phosphoribosylamino)methylideneamino]imidazole-4-carboxamide	cp
Semiquinones	a semiquinone	p
Charged-ILE-tRNAs	an L-isoleucyl-[tRNAIle]	p
Charged-LEU-tRNAs	an L-leucyl-[tRNALeu]	cp
CATECHOL	catechol	cp
Nitriles	a nitrile	c
Aldehydes	an aldehyde	p
Charged-LYS-tRNAs	an L-lysyl-[tRNALys]	p
HOMOGENTISATE	homogentisate	cp
Charged-MET-tRNAs	an L-methionyl-[elongator tRNAMet]	p
Serines	serine	p
Charged-PHE-tRNAs	an L-phenylalanyl-[tRNAPhe]	c
GLYCEROPHOSPHOGLYCEROL	glycerophosphoglycerol	c
PHOSPHORIBULOSYL-FORMIMINO-AICAR-P	phosphoribulosylformimino-AICAR-phosphate	cp
MALTOPENTAOSE	maltopentaose	cp
Charged-PRO-tRNAs	an L-prolyl-[tRNAPro]	p
REDUCED-MENAQUINONE	menaquinol-8	p
Charged-SER-tRNAs	an L-seryl-[tRNAser]	p
ssDNA-RNA-primer-hybrid	an ssDNA/RNA primer hybrid	p
ssRNAs	a single-stranded RNA	cp
Charged-THR-tRNAs	an L-threonyl-[tRNAThr]	p
DGDP	dGDP	cp
PYRAZINAMIDE	pyrazinamide	c
Charged-TRP-tRNAs	an L-tryptophanyl-[tRNATrp]	p
tRNA-2-thiouridine34	a 2-thiouridine34 in tRNA	p
CPD-9451	2-isopropylmaleate	cp
Charged-TYR-tRNAs	an L-tyrosyl-[tRNATyr]	p
CPD-688	hydrogenobyrinate a,c-diamide	cp
AMINO-HYDROXYMETHYL-METHYLPYRIMIDINE-PP	4-amino-2-methyl-5-(diphosphomethyl)pyrimidine	cp
LAUROYLCOA-CPD	lauroyl-CoA	p
Charged-VAL-tRNAs	an L-valyl-[tRNAVal]	p
Charged-fMET-tRNAs	an N-formyl-L-methionylaminoacyl-tRNA	c
CPD-689	cob(II)yrinate a,c-diamide	p
AMINO-OH-HYDROXYMETHYL-DIHYDROPTERIDINE	6-(hydroxymethyl)-7,8-dihydropterin	cp
CPD-9610	all-trans-decaprenyl diphosphate	c
L-1-GLYCEROPHOSPHORYLETHANOL-AMINE	sn-glycero-3-phosphoethanolamine	c
PROTON	H+	cp
CPD-9612	caldariellaquinone	c
CO-A	coenzyme A	cp
CPD-690	adenosyl-cobyrinate a,c-diamide	p
AMINO-RIBOSYLAMINO-1H-3H-PYR-DIONE	5-amino-6-(D-ribitylamino)uracil	cp
LEU	L-leucine	cp
L-1-LYSOPHOSPHATIDATE	1-oleyl-2-lyso-phosphatidate	p
CPD-9646	di-trans,octa-cis-undecaprenyl phosphate	cp
LEU-tRNAs	a tRNALeu	cp
Chitosan	chitosan	p
CPD-691	adenosylcobyrate	c
L-1-PHOSPHATIDYL-ETHANOLAMINE	an L-1-phosphatidylethanolamine	p
CPD-9699	hypoglycin A	c
L-1-PHOSPHATIDYL-GLYCEROL	an L-1-phosphatidyl-sn-glycerol	c
L-1-PHOSPHATIDYL-GLYCEROL-P	1-(3-sn-phosphatidyl)-sn-glycerol 3-phosphate	p
CPD-694	cob(I)yrinate a,c-diamide	c
CPD-9700	hypoglycin B	p
Chlorides	an organochlorine compound	p
AMINOMETHYLDIHYDROLIPOYL-GCVH	a [glycine-cleavage complex H protein] N6-aminomethyldihydrolipoyl-L-lysine	cp
BIPHENYL	biphenyl	c
L-1-PHOSPHATIDYL-SERINE	a 3-O-sn-phosphatidyl-L-serine	c
Tetradec-2-enoyl-ACPs	a trans tetradec-2-enoyl-[acp]	c
CPD-10780	VAI-1	cp
CPD-9852	3-heptaprenyl-4-hydroxybenzoate	p
CPD-10781	HAI-1	cp
Single-Stranded-DNAs	a single stranded DNA	cp
Thi-S	a ThiS sulfur-carrier protein	p
CPD-15979	D-mannopyranose 6-phosphate	cp
SER-tRNAs	a tRNAser	c
ACETALD	acetaldehyde	p
PANTETHEINE-P	4'-phosphopantetheine	cp
5-10-METHENYL-THF-GLU-N	a 5,10-methenyltetrahydrofolate	cp
CPDQT-28	7-(methylthio)-2-oxoheptanoate	p
MALTOTETRAOSE	maltotetraose	cp
5-AMINO-LEVULINATE	5-aminolevulinate	cp
Soluble-Heteroglycans	a plant soluble heteroglycan	cp
CPDQT-29	8-(methylthio)-2-oxooctanoate	p
ADENOSYLCOBINAMIDE-P	adenosyl-cobinamide phosphate	p
GLUCOSAMINE-1P	D-glucosamine 1-phosphate	cp
CPDQT-30	9-(methylthio)-2-oxononanoate	p
ACETAMIDE	acetamide	c
CPDQT-36	3-[(3'-methylthio)propyl]malate	cp
MALTOTRIOSE	maltotriose	p
FAD	FAD	cp
Starch	starch	p
CPD-444	S-(methyl-5-thio-&alpha;-D-ribose 1-phosphate	p
CPDQT-37	3-[(4'-methylthio)butyl]malate	cp
CPD-452	a 6-(N-acetyl-&alpha;-D-glucosaminyl)-1-phosphatidyl-1D-myo-inositol	c
CPD-16491	2,6-diamino-4-hydroxy-5-(N-methyl)formamidopyrimidine	p
PANTOTHENATE	(R)-pantothenate	p
SEROTONIN	serotonin	c
Stearoyl-ACPs	a stearoyl-[acp]	cp
CD-S-SP-Complex	a [cysteine desulfurase]-S-sulfanyl-[disordered-form scaffold protein] complex	c
CPDQT-38	3-[(5'-methylthio)pentyl]malate	cp
FADH2	FADH2	cp
Cis-Delta5-dodecenoyl-ACPs	a (5Z)-dodec-5-enoyl-[acp]	c
5-KETO-4-DEOXY-D-GLUCARATE	5-dehydro-4-deoxy-D-glucarate	cp
CPDQT-39	3-[(6'-methylthio)hexyl]malate	cp
CPD-16549	3-(N-morpholino)propanal	p
CDP	CDP	cp
Cis-Delta7-tetradecenoyl-ACPs	a cis-&Delta;7-tetradecenoyl-[acp]	c
CDP-2-3-4-Saturated-Diacylglycerols	a CDP-2,3,4-saturated-diacylglycerol	p
CPDQT-40	3-[(7'-methylthio)heptyl]malate	cp
Cis-delta-3-decenoyl-ACPs	a (3Z)-dec-3-enoyl-[acp]	c
5-L-GLUTAMYL-AMINO-ACID	an &alpha;-(5-L-glutamyl)-amino acid	p
CPDQT-406	S-5-methylthiopentylhydroximoyl-L-cysteine	cp
ADENYLOSUCC	adenylo-succinate	cp
Cis-vaccenoyl-ACPs	a cis-vaccenoyl-[acp]	c
PAPS	3'-phosphoadenylyl-sulfate	cp
CPDQT-407	S-6-methylthiohexylhydroximoyl-L-cysteine	cp
CPD-16953	2-amino-6-[1-hydroxyethyl]-7-methyl-7,8-dihydropterin	c
CPD-469	N-acetyl-L-glutamate 5-semialdehyde	cp
CPD-12279	2-iminoacetate	c
G3P	3-phospho-D-glycerate	cp
CPD-18495	5-methoxy-6-methylbenzimidazole	c
CPD-206	phytanoyl-CoA	c
Citrate-Lyase-Citryl-Form	a citryl-holo [citrate lyase acyl-carrier protein]	cp
CDPDIACYLGLYCEROL	a CDP-diacylglycerol	cp
DIMETHYLBENZIMIDAZOLE	5,6-dimethylbenzimidazole	c
N2-SUCCINYLORNITHINE	N2-succinyl-L-ornithine	p
CPD-18497	5-hydroxy-benzimidazole	c
OXYGEN-MOLECULE	oxygen	cp
UROPORPHYRINOGEN-III	uroporphyrinogen-III	cp
CPD-12303	undecaprenyl-diphospho-N-acetylmuramoyl-L-alanyl-&gamma;-D-glutamyl-L-lysyl- D-alanine	p
Nonadjacent-pyrimidine-dimer-in-DNA	a dimer of non-adjacent pyrimidine nucleosides in DNA	c
Protein-N-terminal-L-Arginine	an N-terminal arginyl-[protein]	cp
CPD-14202	L-erythro-7,8-dihydrobiopterin	p
Protein-N-terminal-L-Lysine	an N-terminal L-lysyl-[protein]	c
N5-Formyl-THF-Glu-N	an (6S)-N5-formyl-tetrahydrofolate	cp
CPD-18550	quinoxaline-2-carboxyl adenylate	c
Protein-N-terminal-L-threonine	an N-terminal L-threonyl-[protein]	p
CPD-14268	(15Z)-tetracosenoate	c
Protein-N6-5-glutamyl-lysine-crosslinks	a protein with an N6-(&gamma;-glutamyl)-L-lysine crosslink	p
Nucleoside-Diphosphates	a nucleoside diphosphate	cp
UTP	UTP	cp
GALACTOSE	&beta;-D-galactose	cp
CPD-207	phenylacetyl-CoA	p
Protein-N6-5-glutamyl-serotonin	a [protein] N6-[(5-hydroxy-1H-indol-3-yl)ethyl]-L-glutamine	p
PROTOPORPHYRIN_IX	protoporphyrin IX	cp
CPD-187	4-hydroxy-4-methyl-2-oxoglutarate	p
CPD-20735	two adjacent 2'-deoxycytidines in DNA	p
CPD-20736	adjacent 2'-deoxycytidine-thymidine in DNA	p
Nucleoside-Monophosphates	a nucleoside 5'-monophosphate	p
CPD-18739	diphenyl ether	c
CPD-14269	(Z)-15-tetracosenoyl-CoA	p
Protein-Ser-or-Thr-phosphate	a [protein] (L-serine/L-threonine) phosphate	p
CPD-20737	adjacent thymidine-2'-deoxycytidine in DNA	p
Octadec-2-enoyl-ACPs	a trans-octadec-2-enoyl-[acp]	c
DIPEPTIDES	a dipeptide	p
Nucleoside-Triphosphates	a nucleoside triphosphate	cp
CPD-20741	a dimer of adjacent 2'-deoxycytidines in DNA	c
Protein-Tyrosines	a [protein]-L-tyrosine	cp
CPD-20742	a dimer of adjacent thymidines in DNA	c
Octanoyl-ACPs	an octanoyl-[acp]	cp
Malonyl-acp-methyl-ester	a malonyl-[acp] methyl ester	c
CPD-20743	a dimer of adjacent 2'-deoxycytidine and thymidine in DNA	c
CPD-18740	(1S,2S)-3-phenoxycyclohexa-3,5-diene-1,2-diol	p
Octanoylated-Gcv-H	a [glycine-cleavage complex H protein] N6-octanoyl-L-lysine	cp
CPD-20744	a dimer of adjacent thymidine and 2'-deoxycytidine in DNA	c
Octanoylated-domains	a [lipoyl-carrier protein] N6-octanoyl-L-lysine	cp
CPD-12427	7,8-dihydro-8-oxoguanine	p
Protein-With-N-Terminal-Met	a peptide with an N-terminal L-methionine	c
Maltodextrins	a maltodextrin	cp
Protein-With-N-Terminal-Pro	a peptide with an N-terminal L-proline	cp
NAD	NAD+	cp
Odd-Saturated-Fatty-Acyl-CoA	an odd numbered straight chain 2,3,4-saturated fatty acyl CoA	p
Protein-With-N-Terminal-X-Pro	a peptide with an N-terminal X-L-proline	c
Ubiquinols	an ubiquinol	cp
Odd-Straight-Chain-234-Sat-FA	an odd numbered straight chain 2,3,4-saturated fatty acid	c
DITP	dITP	cp
CPD-14378	dehydrospermidine	cp
CPD-20826	7-(5-phospho-&alpha;-D-ribosyl)adenine	p
Oleoyl-ACPs	an oleoyl-[acp]	c
CPD-12575	UDP-&alpha;-D-glucose	cp
Ubiquinones	a ubiquinone	cp
Oleoyl-lipid	a [glycerolipid]-oleate	c
CPD-18743	4-bromodiphenyl ether	cp
5-L-GLUTAMYL-L-AMINO-ACID	an &alpha;-(&gamma;-L-glutamyl)-L-amino acid	p
tRNA-Adenosines-37	an adenosine37 in tRNA	c
CPD-7043	amylopectin	p
Glutamine-synthetase-Tyr	a [glutamine-synthetase]-L-tyrosine	c
CPD-7066	(2R,3S)-3-methylmalate	p
Glutamine-synthetase-adenylyl-Tyr	a [glutamine synthetase]-O4-(5'-adenylyl)-L-tyrosine	p
ACETOACETYL-COA	acetoacetyl-CoA	cp
Glutaryl-ACP-methyl-esters	a glutaryl-[acp] methyl ester	c
tRNA-Containing-N7-Methylguanine-46	an N7-methylguanine46 in tRNA	p
CPD-7076	2-methylbutanoate	c
BISOHMYR-GLUCOSAMINYL-1P	lipid X	p
tRNA-Dihydrouridines	a 5,6-dihydrouridine in tRNA	p
5-L-GLUTAMYL-PEPTIDE	a 5-L-glutamyl-[peptide]	c
Sulfur-Carrier-Proteins-ThiI	a [ThiI sulfur-carrier protein]-L-cysteine	cp
5-METHYL-THF-GLU-N	a 5-methyltetrahydrofolate	cp
2-Octenoyl-ACPs	a trans oct-2-enoyl-[acp]	c
3-4-DIHYDROXYBENZOATE	protocatechuate	cp
CPD-7100	(2S)-2-isopropyl-3-oxosuccinate	cp
5-METHYLTHIOADENOSINE	S-methyl-5'-thioadenosine	cp
THYMIDINE	thymidine	c
Glycerophosphodiesters	a glycerophosphodiester	c
2-Oxo-carboxylates	a 2-oxo carboxylate	cp
tRNA-Sec	a tRNAsec	c
Sulfurated-Sulfur-Acceptors	a sulfurated [sulfur carrier]	cp
GLYCOLALDEHYDE	glycolaldehyde	p
tRNA-containing-5Me-uridine54	a 5-methyluracil54 in tRNA	p
CPD-7221	(3Z)-dodec-3-enoyl-CoA	p
INOSINE	inosine	p
Sulfurylated-ThiI	a [ThiI sulfur-carrier protein]-S-sulfanyl-L-cysteine	cp
Glycogens	a glycogen	cp
2-PG	2-phospho-D-glycerate	cp
CPD-7224	N-acetyl-L-citrulline	c
5-Methylcytosine-DNA	a 5-methylcytosine in DNA	p
3-5-ADP	adenosine 3',5'-bisphosphate	cp
tRNA-fragment	a tRNA fragment	p
tRNA-precursors	a tRNA precursor	c
GLYCOLLATE	glycolate	p
2-PHOSPHO-4-CYTIDINE-5-DIPHOSPHO-2-C-MET	2-phospho-4-(cytidine 5'-diphospho)-2-C-methyl-D-erythritol	cp
tRNA-uridine34	a uridine34 in tRNA	c
Crotonyl-ACPs	a crotonyl-[acp]	c
tRNA-uridines	a uridine in tRNA	c
Glycosides	a glycoside	p
tRNA-with-7-aminomethyl-7-deazaguanine	a 7-aminomethyl-7-deazaguanosine34 in tRNA	cp
Supercoiled-Duplex-DNAs	a supercoiled duplex DNA	c
Guanine34-in-tRNAs	a guanine34 in tRNA	c
T2-DECENOYL-COA	(2E)-dec-2-enoyl-CoA	c
Guanine46-in-tRNA	a guanine46 in tRNA	c
CPD-7270	(7R)-7-(4-carboxybutanamido)cephalosporanate	cp
tRNAs	an uncharged tRNA	p
tRNAs-Asp-with-queuosine	queuosine at position 34 of a tRNAAsp	c
DUTP	dUTP	cp
L-3-HYDROXYACYL-COA	a (3S)-3-hydroxyacyl-CoA	p
PHTHALATE	phthalate	c
TARTRONATE-S-ALD	tartronate semialdehyde	cp
CPD-470	L-2,4-diaminobutanoate	cp
L-5-Monosubstituted-Hydantoins	an L-5-monosubstituted hydantoin	cp
CPD-9864	3-decaprenyl-4-hydroxybenzoate	p
RH-Group	an organic molecule	c
COB-I-ALAMIN	cob(I)alamin	c
L-ALPHA-ALANINE	L-alanine	cp
LEUKOTRIENE-C4	leukotriene-C4	c
FARNESYL-PP	(2E,6E)-farnesyl diphosphate	cp
CPD-9869	all trans-decaprenyl-2-methoxy-6-1,4-benzoquinol	c
CPD-10782	AAI-1	cp
PYRAZINOIC-ACID	pyrazine-2-carboxylate	p
PRPP	5-phospho-&alpha;-D-ribose 1-diphosphate	cp
RIBOFLAVIN	riboflavin	cp
3-OXOADIPATE-ENOL-LACTONE	(4,5-dihydro-5-oxofuran-2-yl)-acetate	cp
CPD-9871	6-methoxy-3-methyl-2-all-trans-decaprenyl-1,4-benzoquinol	p
DGMP	dGMP	p
CPD-10783	PAI-1	cp
2-ACETO-LACTATE	(S)-2-acetolactate	cp
DGTP	dGTP	cp
CPD-9956	ubiquinol-8	p
CPD-10784	PAI-1-2	cp
2-ALPHA-HYDROXYETHYL-THPP	2-(&alpha;-hydroxyethyl)thiamine diphosphate	cp
L-ARGININO-SUCCINATE	L-arginino-succinate	cp
CPD-474	(+)-taxifolin	c
CPD-9965	icosanoyl-CoA	cp
Cysteine-Desulfurase-L-cysteine	an [L-cysteine desulfurase]-L-cysteine	cp
PYRIDOXAL_PHOSPHATE	pyridoxal 5'-phosphate	p
TAURINE	taurine	c
PYRIDOXAMINE-5P	pyridoxamine 5'-phosphate	c
CPD-10785	VAI-1-2	cp
Cytochromes-C-Oxidized	an oxidized c-type cytochrome	cp
CPD-9973	an [eIF5A-precursor]-deoxyhypusine	p
L-ASPARTATE	L-aspartate	cp
2-AMINO-MUCONATE	(2Z,4E)-2-aminomuconate	p
CPD0-1027	a debranched &alpha;-limit dextrin	c
SHIKIMATE	shikimate	cp
COBINAMIDE	cobinamide	c
SHIKIMATE-5P	shikimate 3-phosphate	cp
CPD-479	4-(methylsulfanyl)-2-oxobutanoate	cp
CPD0-1081	N-acetyl-&beta;-D-glucosamine-1,6-anhydro-N-acetyl-&beta;-D-muramate	c
CPD-10791	6-deoxy-5-ketofructose 1-phosphate	p
Cytochromes-C-Reduced	a reduced c-type cytochrome	cp
FE+2	Fe2+	cp
POLY-GLUCOSYLATED-GLYCOGENINS	a glucosylated glycogenin	c
L-ASPARTATE-SEMIALDEHYDE	L-aspartate-semialdehyde	cp
1-AMINO-PROPAN-2-ONE-3-PHOSPHATE	3-amino-1-hydroxyacetone 1-phosphate	cp
NAD-P-OR-NOP	NAD(P)+	cp
CPD-16954	[1-(2-amino-7-methyl-4-oxo-7,8-dihydro-3H-pteridin-6-yl)]ethyl diphosphate	p
3-Oxo-octanoyl-ACPs	a 3-oxo-octanoyl-[acp]	cp
IS30-Insertion-Sequences	an insertion sequence element IS30	cp
CPD-17045	3-benzyl-3,6-dihydroxy-6-(hydroxymethyl)-diketopiperazine	c
3-P-HYDROXYPYRUVATE	3-phosphooxypyruvate	cp
IS30-with-Integrated-Transposon	an insertion sequence IS30 with integrated transposon	cp
1-CHLORO-24-DINITROBENZENE	1-chloro-2,4-dinitrobenzene	cp
3-P-SERINE	3-phospho-L-serine	cp
AMMONIUM	ammonium	cp
ISOBUTYRATE	isobutanoate	c
CPD-17046	3-benzyl-3,6 -bis(glutathione)- 6-(hydroxymethyl)-diketopiperazine	p
Thiocarboxyadenylated-ThiS-Proteins	a thiocarboxy-[ThiS-Protein]	c
PECTATE	a pectate	cp
Thiocarboxylated-MPT-synthases	a thiocarboxylated [small subunit of molybdopterin synthase]	c
CPD-17063	ferroheme o	cp
D-3-HYDROXYACYL-COA	a (3R)-3-hydroxyacyl-CoA	cp
ISOBUTYRYL-COA	isobutanoyl-CoA	cp
HS	hydrogen sulfide	cp
Menaquinols	a menaquinol	cp
D-5-Monosubstituted-Hydantoins	a D-5-monosubstituted hydantoin	cp
CPD-17189	pseudo-adenosyl cobamide	p
1-KETO-2-METHYLVALERATE	(R)-2,3-dihydroxy-3-methylpentanoate	cp
Thiols	a thiol	p
D-6-P-GLUCONO-DELTA-LACTONE	6-phospho D-glucono-1,5-lactone	c
Menaquinones	a menaquinone	cp
AMP	AMP	cp
DNA-Adjacent-Pyrimidines	two adjacent pyrimidine nucleosides in DNA	p
CPD-173	salicyl alcohol	p
NADH	NADH	cp
CPD-17312	docosahexaenoyl-CoA	p
Trans-D2-decenoyl-ACPs	a (2E)-dec-2-enoyl-[acp]	c
GAP	D-glyceraldehyde 3-phosphate	cp
3-PHENYLPROPIONATE	3-phenylpropanoate	p
1-L-MYO-INOSITOL-1-P	1D-myo-inositol 3-monophosphate	c
D-ALA-D-ALA	D-alanyl-D-alanine	cp
3-SULFINOALANINE	3-sulfinoalanine	p
ADP	ADP	cp
1-PALMITOYLGLYCEROL-3-PHOSPHATE	1-palmitoylglycerol 3-phosphate	p
DNA-Combined-With-Exogenous-DNA	DNA combined with exogenous DNA to form a recombinational junction	c
GLYCYLGLYCINE	glycyl-glycine	c
3-CARBOXY-3-HYDROXY-ISOCAPROATE	(2S)-2-isopropylmalate	cp
ADP-D-GLUCOSE	ADP-&alpha;-D-glucose	cp
NADH-P-OR-NOP	NAD(P)H	cp
DNA-Cytidines	a 2'-deoxycytidine in DNA	p
ISOCHORISMATE	isochorismate	c
Protein-phospho-L-histidines	a [protein]-N-phospho-L-histidine	cp
CPD-18745	4-bromo-2,3-dihydrodiol-diphenyl ether	cp
tRNAs-containing-epoxy-quenosine	an epoxyqueuosine34 in tRNA	cp
Protein-pi-phospho-L-histidines	a [protein]-N&pi;-phospho-L-histidine	c
Unspecified-Degradation-Products	[unspecified degradation products]	p
Unsulfurated-Sulfur-Acceptors	an unsulfurated [sulfur carrier]	cp
Protein-tauphospho-L-histidines	a [protein]-N&tau;-phospho-L-histidine	c
Protein-tyrosine-phosphates	a [protein]-L-tyrosine phosphate	cp
CPD-14443	(2S,4S)-4-hydroxy-2,3,4,5-tetrahydrodipicolinate	cp
Unwound-DNA	an unwound double-stranded DNA	p
MANNOSE-1P	&alpha;-D-mannose 1-phosphate	cp
THZ-P	4-methyl-5-(2-phosphooxyethyl)thiazole	c
tRNAs-with-glutamylated-queuosine	glutamyl-queuosine at position 34 of a tRNAAsp	p
Unwound-RNA	an unwound RNA	p
tRNAs-with-queuine	a queuosine34 in tRNA	p
Uracil-54-in-tRNA	a uracil54 in tRNA	c
Proteins-With-N-Terminal-Asp	an N-terminal L-aspartyl-[protein]	c
DI-H-OROTATE	(S)-dihydroorotate	cp
Omega-carboxyacyl-CoAs	an &omega;-carboxyacyl-CoA	p
Proteins-with-correct-disulfides	a protein with correct disulfide bonds	cp
CPD-19014	2-hydroxy-2-methylpropanoate	cp
D-ALANINE	D-alanine	cp
Proteins-with-incorrect-disulfides	a protein with incorrect disulfide bonds	cp
CPD-14553	UDP-&alpha;-D-galactose	cp
MENADIOL	menadiol	p
BUTANAL	butan-1-al	p
CPD-19042	2-hydroxyisobutyramide	c
BUTYRYL-COA	butanoyl-CoA	c
ACETYL-ACP	an acetyl-[acp]	c
CPD-19144	(7Z)-hexadecenoyl-CoA	cp
DI-H-URACIL	5,6-dihydrouracil	cp
VAL	L-valine	cp
CPD-14673	3-phenylpropionitrile	c
CPD-19147	(7Z)-tetradecenoyl-CoA	cp
VAL-tRNAs	a tRNAVal	c
Orthophosphoric-Monoesters	a phosphate monoester	c
D-ALPHABETA-D-HEPTOSE-7-PHOSPHATE	D-glycero-D-manno-heptose 7-phosphate	p
CPD-19148	(5Z)-dodecenoyl-CoA	cp
CPD-14675	pristanoyl-CoA	p
ACETYL-COA	acetyl-CoA	cp
Ox-Glutaredoxins	an oxidized glutaredoxin	p
DIAMINONONANOATE	7,8-diaminopelargonate	cp
TMP	dTMP	cp
Red-Glutaredoxins	a reduced glutaredoxin	c
MESO-DIAMINOPIMELATE	meso-diaminopimelate	cp
CPD-19150	(2E,5Z)-dodecenoyl-CoA	cp
Ox-NADPH-Hemoprotein-Reductases	an oxidized [NADPH-hemoprotein reductase]	p
Ox-Thioredoxin	an oxidized thioredoxin	cp
CPDQT-408	S-7-methylthioheptylhydroximoyl-L-cysteine	cp
H2CO3	carbonic acid	cp
LINOLEIC_ACID	linoleate	c
Damaged-DNA-Pyrimidine	a damaged DNA pyrimidine	c
O-PHOSPHO-L-HOMOSERINE	O-phospho-L-homoserine	cp
TusE-L-cysteine	a [TusE sulfur carrier protein]-L-cysteine	p
2-hydroxyacyl-glutathiones	S-(2-hydroxyacyl)glutathione	c
TusE-S-sulfanylcysteine	a [TusE sulfur carrier protein]-S-sulfanylcysteine	c
CPDQT-409	S-8-methylthiooctylhydroximoyl-L-cysteine	cp
CPD-7271	(7R)-7 aminocephalosporanate	cp
CPD-10796	2,3-dihydroxy-trans-cinnamate	c
LINOLENIC_ACID	&alpha;-linolenate	c
PYRIDOXINE-5P	pyridoxine 5'-phosphate	cp
Decanoyl-ACPs	a decanoyl-[acp]	cp
D-ERYTHRO-IMIDAZOLE-GLYCEROL-P	D-erythro-imidazole-glycerol-phosphate	cp
3OH-4P-OH-ALPHA-KETOBUTYRATE	(3R)-3-hydroxy-2-oxo-4 phosphooxybutanoate	cp
CPDQT-41	10-(methylthio)-2-oxodecanoate	p
UDP	UDP	cp
CPDQT-410	S-9-methylthiononylhydroximoyl-L-cysteine	cp
Delta4-hexadecenoyl-ACPs	a (4Z)-hexadec-4-enoyl-[acp]	c
UDP-AA-GLUTAMATE	UDP-N-acetyl-&alpha;-D-muramoyl-L-alanyl-D-glutamate	cp
CPD-729	12-oxo-cis-10,15-phytodienoate	c
CGMP	cyclic-GMP	p
CPDQT-411	(E)-N-hydroxy-5-(methylsulfanyl)pentimidothioate	cp
LINOLENOYL-COA	&alpha;-linolenoyl-CoA	p
CPD-730	3-oxo-2-(cis-2'-pentenyl)-cyclopentane-1-octanoate	p
CPDQT-412	(E)-N-hydroxy-6-(methylsulfanyl)heximidothioate	cp
UDP-AAGM-DIAMINOHEPTANEDIOATE	UDP-N-acetyl-&alpha;-D-muramoyl-L-alanyl-&gamma;-D-glutamyl-meso-2,6-diaminopimelate	cp
GLUTAMATE-1-SEMIALDEHYDE	(S)-4-amino-5-oxopentanoate	c
O-SUCCINYL-L-HOMOSERINE	O-succinyl-L-homoserine	cp
CH3-MALONATE-S-ALD	(S)-methylmalonate-semialdehyde	cp
CPDQT-413	(E)-N-hydroxy-7-(methylsulfanyl)heptimidothioate	cp
UDP-ACETYL-CARBOXYVINYL-GLUCOSAMINE	UDP-N-acetyl-&alpha;-D-glucosamine-enolpyruvate	cp
CPD-10806	4-hydroxy-2-nonenal	c
COPROPORPHYRINOGEN_I	coproporphyrinogen I	p
3R-11Z-3-hydroxy-icos-11-enoyl-ACPs	a (3R,11Z)-3-hydroxy-icos-11-enoyl-[acp]	p
COPROPORPHYRINOGEN_III	coproporphyrinogen III	p
CPDQT-414	(E)-N-hydroxy-8-(methylsulfanyl)octimidothioate	cp
Deoxy-Ribonucleoside-Diphosphates	a 2'-deoxyribonucleoside 5'-diphosphate	p
3R-5Z-3-hydroxy-tetradec-5-enoyl-ACPs	a (3R,5Z)-3-hydroxy-tetradec-5-enoyl-[acp]	p
3R-7Z-3-hydroxy-hexadec-7-enoyl-ACPs	a (3R,7Z)-3-hydroxy-hexadec-7-enoyl-[acp]	p
Deoxy-Ribonucleoside-Monophosphates	a 2'-deoxyribonucleoside 5'-monophosphate	p
CPDQT-415	(E)-N-hydroxy-9-(methylsulfanyl)nonimidothioate	cp
SIROHEME	siroheme	p
Deoxy-Ribonucleoside-Triphosphates	a 2'-deoxyribonucleoside 5'-triphosphate	c
3R-9Z-3-hydroxy-octadec-9-enoyl-ACPs	a (3R,9Z)-3-hydroxy-octadec-9-enoyl-[acp]	p
CPD-10824	3-methylmuconolactone	c
D-GLT	D-glutamate	cp
CH33ADO	5'-deoxyadenosine	cp
3Z-dodec-3-enoyl-ACPs	a (3Z)-dodec-3-enoyl-[acp]	c
CPDQT-429	indolylmethylisothiocyanate	c
CPD-10019	(5S)-5-benzyl-hydantoin	cp
O-UREIDOHOMOSERINE	O-ureido-L-homoserine	c
Deoxyhypusine-Synthase-Lysine	a [deoxyhypusine synthase]-L-lysine	cp
HCO3	hydrogencarbonate	cp
LL-DIAMINOPIMELATE	L,L-diaminopimelate	cp
RIBOSE-5P	D-ribose 5-phosphate	cp
CPD-10825	4-methyl-3-oxoadipate-enol-lactone	cp
CPD-734	(-)-jasmonate	p
4-AMINO-4-DEOXYCHORISMATE	4-amino-4-deoxychorismate	cp
SIROHYDROCHLORIN	sirohydrochlorin	cp
CPDQT-434	indol-3-ylmethylisothiocyanate-glutathione	p
CPD-10826	4-methyl-3-oxoadipate	p
PYRROLINE-HYDROXY-CARBOXYLATE	(3R,5S)-3-hydroxy-1-pyrroline-5-carboxylate	c
CPD-10020	(5R)-5-benzyl-hydantoin	cp
UDP-GLUCURONATE	UDP-&alpha;-D-glucuronate	p
